Run:89 Evals:10000 MES:10000.0 MAD:0.0 FAILURES:79 Best:0.990570068359375 Solution:(
Run:90 Evals:10000 MES:10000.0 MAD:0.0 FAILURES:80 Best:0.9708251953125 Solution:(
Run:91 Evals:10000 MES:10000.0 MAD:0.0 FAILURES:81 Best:0.983795166015625 Solution:(
Run:92 Evals:10000 MES:10000.0 MAD:0.0 FAILURES:82 Best:0.9773101806640625 Solution:(
Run:93 Evals:10000 MES:10000.0 MAD:0.0 FAILURES:83 Best:0.979736328125 Solution:(
Run:94 Evals:10000 MES:10000.0 MAD:0.0 FAILURES:84 Best:0.9700164794921875 Solution:(
Run:95 Evals:10000 MES:10000.0 MAD:0.0 FAILURES:85 Best:0.972442626953125 Solution:(
Run:96 Evals:10000 MES:10000.0 MAD:0.0 FAILURES:86 Best:0.9846038818359375 Solution:(
Run:97 Evals:10000 MES:10000.0 MAD:0.0 FAILURES:87 Best:0.9732513427734375 Solution:(
Run:98 Evals:10000 MES:10000.0 MAD:0.0 FAILURES:88 Best:0.974884033203125 Solution:(

