Run:29 Evals:10000 MES:10000.0 MAD:0.0 FAILURES:30 Best:0.977203369140625 Solution:(
Run:30 Evals:10000 MES:10000.0 MAD:0.0 FAILURES:31 Best:0.977813720703125 Solution:(
Run:31 Evals:10000 MES:10000.0 MAD:0.0 FAILURES:32 Best:0.9764251708984375 Solution:(
Run:32 Evals:10000 MES:10000.0 MAD:0.0 FAILURES:33 Best:0.9708709716796875 Solution:(
Run:33 Evals:10000 MES:10000.0 MAD:0.0 FAILURES:34 Best:0.9847412109375 Solution:(
Run:34 Evals:10000 MES:10000.0 MAD:0.0 FAILURES:35 Best:0.9736480712890625 Solution:(
Run:35 Evals:10000 MES:10000.0 MAD:0.0 FAILURES:36 Best:0.9792022705078125 Solution:(
Run:36 Evals:10000 MES:10000.0 MAD:0.0 FAILURES:37 Best:0.9833526611328125 Solution:(
Run:37 Evals:10000 MES:10000.0 MAD:0.0 FAILURES:38 Best:0.9847412109375 Solution:(
Run:38 Evals:10000 MES:10000.0 MAD:0.0 FAILURES:39 Best:0.969482421875 Solution:(

