Run:189 Evals:10000 MES:10000.0 MAD:0.0 FAILURES:176 Best:0.97723388671875 Solution:(
Run:190 Evals:10000 MES:10000.0 MAD:0.0 FAILURES:177 Best:0.97900390625 Solution:(
Run:191 Evals:10000 MES:10000.0 MAD:0.0 FAILURES:178 Best:0.9752655029296875 Solution:(
Run:192 Evals:10000 MES:10000.0 MAD:0.0 FAILURES:179 Best:0.9741363525390625 Solution:(
Run:193 Evals:10000 MES:10000.0 MAD:0.0 FAILURES:180 Best:0.97900390625 Solution:(
Run:194 Evals:10000 MES:10000.0 MAD:0.0 FAILURES:181 Best:0.977142333984375 Solution:(
Run:195 Evals:10000 MES:10000.0 MAD:0.0 FAILURES:182 Best:0.982757568359375 Solution:(
Run:196 Evals:10000 MES:10000.0 MAD:0.0 FAILURES:183 Best:0.974517822265625 Solution:(
Run:197 Evals:10000 MES:10000.0 MAD:0.0 FAILURES:184 Best:0.9782562255859375 Solution:(
Run:198 Evals:10000 MES:10000.0 MAD:0.0 FAILURES:185 Best:0.9786376953125 Solution:(

