Run:129 Evals:10000 MES:10000.0 MAD:0.0 FAILURES:116 Best:0.9803924560546875 Solution:(
Run:130 Evals:10000 MES:10000.0 MAD:0.0 FAILURES:117 Best:0.9771728515625 Solution:(
Run:131 Evals:10000 MES:10000.0 MAD:0.0 FAILURES:118 Best:0.9736480712890625 Solution:(
Run:132 Evals:10000 MES:10000.0 MAD:0.0 FAILURES:119 Best:0.9818572998046875 Solution:(
Run:133 Evals:10000 MES:10000.0 MAD:0.0 FAILURES:120 Best:0.9830169677734375 Solution:(
Run:134 Evals:10000 MES:10000.0 MAD:0.0 FAILURES:121 Best:0.977752685546875 Solution:(
Run:135 Evals:10000 MES:10000.0 MAD:0.0 FAILURES:122 Best:0.980682373046875 Solution:(
Run:136 Evals:10000 MES:10000.0 MAD:0.0 FAILURES:123 Best:0.9824371337890625 Solution:(
Run:137 Evals:10000 MES:10000.0 MAD:0.0 FAILURES:124 Best:0.98419189453125 Solution:(
Run:138 Evals:10000 MES:10000.0 MAD:0.0 FAILURES:125 Best:0.9818572998046875 Solution:(

