gen	nevals	avg 	std 	min 	max 
0  	2     	0.58	0.06	0.52	0.64
1  	2     	0.6 	0.04	0.56	0.64
2  	2     	0.64	0   	0.64	0.64
3  	2     	0.66	0.02	0.64	0.68
4  	2     	0.66	0.02	0.64	0.68
5  	2     	0.7 	0.02	0.68	0.72
6  	2     	0.7 	0.02	0.68	0.72
7  	2     	0.7 	0.02	0.68	0.72
8  	2     	0.7 	0.02	0.68	0.72
9  	2     	0.74	0.02	0.72	0.76
10 	2     	0.74	0.02	0.72	0.76
11 	2     	0.76	0   	0.76	0.76
12 	2     	0.76	0   	0.76	0.76
13 	2     	0.76	0   	0.76	0.76
14 	2     	0.76	0   	0.76	0.76
15 	2     	0.76	0   	0.76	0.76
16 	2     	0.76	0   	0.76	0.76
17 	2     	0.76	0   	0.76	0.76
18 	2     	0.76	0   	0.76	0.76
19 	2     	0.76	0   	0.76	0.76
20 	2     	0.76	0   	0.76	0.76
21 	2     	0.78	0.02	0.76	0.8 
22 	2     	0.78	0.02	0.76	0.8 
23 	2     	0.78	0.02	0.76	0.8 
24 	2     	0.82	0.02	0.8 	0.84
25 	2     	0.82	0.02	0.8 	0.84
26 	2     	0.82	0.02	0.8 	0.84
27 	2     	0.82	0.02	0.8 	0.84
28 	2     	0.82	0.02	0.8 	0.84
29 	2     	0.82	0.02	0.8 	0.84
30 	2     	0.86	0.02	0.84	0.88
31 	2     	0.88	0   	0.88	0.88
32 	2     	0.88	0   	0.88	0.88
33 	2     	0.88	0   	0.88	0.88
34 	2     	0.88	0   	0.88	0.88
35 	2     	0.88	0   	0.88	0.88
36 	2     	0.88	0   	0.88	0.88
37 	2     	0.88	0   	0.88	0.88
38 	2     	0.88	0   	0.88	0.88
39 	2     	0.88	0   	0.88	0.88
40 	2     	0.88	0   	0.88	0.88
41 	2     	0.88	0   	0.88	0.88
42 	2     	0.88	0   	0.88	0.88
43 	2     	0.88	0   	0.88	0.88
44 	2     	0.88	0   	0.88	0.88
45 	2     	0.88	0   	0.88	0.88
46 	2     	0.88	0   	0.88	0.88
47 	2     	0.88	0   	0.88	0.88
48 	2     	0.88	0   	0.88	0.88
49 	2     	0.88	0   	0.88	0.88
50 	2     	0.88	0   	0.88	0.88
51 	2     	0.88	0   	0.88	0.88
52 	2     	0.88	0   	0.88	0.88
53 	2     	0.88	0   	0.88	0.88
54 	2     	0.88	0   	0.88	0.88
55 	2     	0.88	0   	0.88	0.88
56 	2     	0.88	0   	0.88	0.88
57 	2     	0.88	0   	0.88	0.88
58 	2     	0.88	0   	0.88	0.88
59 	2     	0.88	0   	0.88	0.88
60 	2     	0.88	0   	0.88	0.88
61 	2     	0.88	0   	0.88	0.88
62 	2     	0.88	0   	0.88	0.88
63 	2     	0.88	0   	0.88	0.88
64 	2     	0.88	0   	0.88	0.88
65 	2     	0.88	0   	0.88	0.88
66 	2     	0.88	0   	0.88	0.88
67 	2     	0.88	0   	0.88	0.88
68 	2     	0.88	0   	0.88	0.88
69 	2     	0.88	0   	0.88	0.88
70 	2     	0.88	0   	0.88	0.88
71 	2     	0.88	0   	0.88	0.88
72 	2     	0.88	0   	0.88	0.88
73 	2     	0.88	0   	0.88	0.88
74 	2     	0.88	0   	0.88	0.88
75 	2     	0.88	0   	0.88	0.88
76 	2     	0.88	0   	0.88	0.88
77 	2     	0.9 	0.02	0.88	0.92
78 	2     	0.9 	0.02	0.88	0.92
79 	2     	0.92	0   	0.92	0.92
80 	2     	0.92	0   	0.92	0.92
81 	2     	0.92	0   	0.92	0.92
82 	2     	0.92	0   	0.92	0.92
83 	2     	0.92	0   	0.92	0.92
84 	2     	0.92	0   	0.92	0.92
85 	2     	0.92	0   	0.92	0.92
86 	2     	0.92	0   	0.92	0.92
87 	2     	0.92	0   	0.92	0.92
88 	2     	0.92	0   	0.92	0.92
89 	2     	0.92	0   	0.92	0.92
90 	2     	0.92	0   	0.92	0.92
91 	2     	0.94	0.02	0.92	0.96
92 	2     	0.94	0.02	0.92	0.96
93 	2     	0.94	0.02	0.92	0.96
94 	2     	0.94	0.02	0.92	0.96
95 	2     	0.94	0.02	0.92	0.96
96 	2     	0.94	0.02	0.92	0.96
97 	2     	0.94	0.02	0.92	0.96
98 	2     	0.94	0.02	0.92	0.96
99 	2     	0.94	0.02	0.92	0.96
100	2     	0.96	0   	0.96	0.96
101	2     	0.96	0   	0.96	0.96
102	2     	0.96	0   	0.96	0.96
103	2     	0.96	0   	0.96	0.96
104	2     	0.96	0   	0.96	0.96
105	2     	0.96	0   	0.96	0.96
106	2     	0.96	0   	0.96	0.96
107	2     	0.96	0   	0.96	0.96
108	2     	0.96	0   	0.96	0.96
109	2     	0.96	0   	0.96	0.96
110	2     	0.96	0   	0.96	0.96
111	2     	0.96	0   	0.96	0.96
112	2     	0.96	0   	0.96	0.96
113	2     	0.96	0   	0.96	0.96
114	2     	0.96	0   	0.96	0.96
115	2     	0.96	0   	0.96	0.96
116	2     	0.96	0   	0.96	0.96
117	2     	0.96	0   	0.96	0.96
118	2     	0.96	0   	0.96	0.96
119	2     	0.96	0   	0.96	0.96
120	2     	0.96	0   	0.96	0.96
121	2     	0.96	0   	0.96	0.96
122	2     	0.96	0   	0.96	0.96
123	2     	0.96	0   	0.96	0.96
124	2     	0.96	0   	0.96	0.96
125	2     	0.96	0   	0.96	0.96
126	2     	0.96	0   	0.96	0.96
127	2     	0.96	0   	0.96	0.96
128	2     	0.96	0   	0.96	0.96
129	2     	0.96	0   	0.96	0.96
130	2     	0.96	0   	0.96	0.96
131	2     	0.96	0   	0.96	0.96
132	2     	0.96	0   	0.96	0.96
133	2     	0.96	0   	0.96	0.96
134	2     	0.96	0   	0.96	0.96
135	2     	0.96	0   	0.96	0.96
136	2     	0.96	0   	0.96	0.96
137	2     	0.96	0   	0.96	0.96
138	2     	0.96	0   	0.96	0.96
139	2     	0.96	0   	0.96	0.96
140	2     	0.96	0   	0.96	0.96
141	2     	0.96	0   	0.96	0.96
142	2     	0.96	0   	0.96	0.96
143	2     	0.96	0   	0.96	0.96
144	2     	0.96	0   	0.96	0.96
145	2     	0.96	0   	0.96	0.96
146	2     	0.96	0   	0.96	0.96
147	2     	0.96	0   	0.96	0.96
148	2     	0.96	0   	0.96	0.96
149	2     	0.96	0   	0.96	0.96
150	2     	0.96	0   	0.96	0.96
151	2     	0.96	0   	0.96	0.96
152	2     	0.96	0   	0.96	0.96
153	2     	0.96	0   	0.96	0.96
154	2     	0.96	0   	0.96	0.96
155	2     	0.96	0   	0.96	0.96
156	2     	0.96	0   	0.96	0.96
157	2     	0.96	0   	0.96	0.96
158	2     	0.96	0   	0.96	0.96
159	2     	0.96	0   	0.96	0.96
160	2     	0.96	0   	0.96	0.96
161	2     	0.96	0   	0.96	0.96
162	2     	0.96	0   	0.96	0.96
163	2     	0.96	0   	0.96	0.96
164	2     	0.96	0   	0.96	0.96
165	2     	0.96	0   	0.96	0.96
166	2     	0.96	0   	0.96	0.96
167	2     	0.96	0   	0.96	0.96
168	2     	0.96	0   	0.96	0.96
169	2     	0.96	0   	0.96	0.96
170	2     	0.96	0   	0.96	0.96
171	2     	0.96	0   	0.96	0.96
172	2     	0.96	0   	0.96	0.96
173	2     	0.96	0   	0.96	0.96
174	2     	0.96	0   	0.96	0.96
175	2     	0.96	0   	0.96	0.96
176	2     	0.96	0   	0.96	0.96
177	2     	0.96	0   	0.96	0.96
178	2     	0.96	0   	0.96	0.96
179	2     	0.96	0   	0.96	0.96
180	2     	0.96	0   	0.96	0.96
181	2     	0.96	0   	0.96	0.96
182	2     	0.98	0.02	0.96	1   