gen	nevals	avg 	std 	min 	max 
0  	2     	0.44	0.08	0.36	0.52
1  	2     	0.5 	0.02	0.48	0.52
2  	2     	0.5 	0.02	0.48	0.52
3  	2     	0.52	0   	0.52	0.52
4  	2     	0.52	0   	0.52	0.52
5  	2     	0.52	0   	0.52	0.52
6  	2     	0.54	0.02	0.52	0.56
7  	2     	0.58	0.02	0.56	0.6 
8  	2     	0.6 	0   	0.6 	0.6 
9  	2     	0.6 	0   	0.6 	0.6 
10 	2     	0.6 	0   	0.6 	0.6 
11 	2     	0.6 	0   	0.6 	0.6 
12 	2     	0.6 	0   	0.6 	0.6 
13 	2     	0.6 	0   	0.6 	0.6 
14 	2     	0.6 	0   	0.6 	0.6 
15 	2     	0.6 	0   	0.6 	0.6 
16 	2     	0.6 	0   	0.6 	0.6 
17 	2     	0.6 	0   	0.6 	0.6 
18 	2     	0.64	0.04	0.6 	0.68
19 	2     	0.68	0   	0.68	0.68
20 	2     	0.68	0   	0.68	0.68
21 	2     	0.68	0   	0.68	0.68
22 	2     	0.68	0   	0.68	0.68
23 	2     	0.68	0   	0.68	0.68
24 	2     	0.68	0   	0.68	0.68
25 	2     	0.7 	0.02	0.68	0.72
26 	2     	0.7 	0.02	0.68	0.72
27 	2     	0.7 	0.02	0.68	0.72
28 	2     	0.72	0   	0.72	0.72