gen 	nevals	avg     	std      	min     	max     
0   	2     	0.489796	0.0408163	0.44898 	0.530612
1   	2     	0.530612	0        	0.530612	0.530612
2   	2     	0.530612	0        	0.530612	0.530612
3   	2     	0.530612	0        	0.530612	0.530612
4   	2     	0.530612	0        	0.530612	0.530612
5   	2     	0.530612	0        	0.530612	0.530612
6   	2     	0.55102 	0.0204082	0.530612	0.571429
7   	2     	0.612245	0.0408163	0.571429	0.653061
8   	2     	0.663265	0.0102041	0.653061	0.673469
9   	2     	0.663265	0.0102041	0.653061	0.673469
10  	2     	0.663265	0.0102041	0.653061	0.673469
11  	2     	0.673469	0        	0.673469	0.673469
12  	2     	0.673469	0        	0.673469	0.673469
13  	2     	0.673469	0        	0.673469	0.673469
14  	2     	0.673469	0        	0.673469	0.673469
15  	2     	0.673469	0        	0.673469	0.673469
16  	2     	0.683673	0.0102041	0.673469	0.693878
17  	2     	0.683673	0.0102041	0.673469	0.693878
18  	2     	0.683673	0.0102041	0.673469	0.693878
19  	2     	0.693878	0        	0.693878	0.693878
20  	2     	0.693878	0        	0.693878	0.693878
21  	2     	0.693878	0        	0.693878	0.693878
22  	2     	0.693878	0        	0.693878	0.693878
23  	2     	0.693878	0        	0.693878	0.693878
24  	2     	0.693878	0        	0.693878	0.693878
25  	2     	0.693878	0        	0.693878	0.693878
26  	2     	0.693878	0        	0.693878	0.693878
27  	2     	0.693878	0        	0.693878	0.693878
28  	2     	0.714286	0.0204082	0.693878	0.734694
29  	2     	0.714286	0.0204082	0.693878	0.734694
30  	2     	0.72449 	0.0102041	0.714286	0.734694
31  	2     	0.72449 	0.0102041	0.714286	0.734694
32  	2     	0.72449 	0.0102041	0.714286	0.734694
33  	2     	0.72449 	0.0102041	0.714286	0.734694
34  	2     	0.72449 	0.0102041	0.714286	0.734694
35  	2     	0.734694	0        	0.734694	0.734694
36  	2     	0.734694	0        	0.734694	0.734694
37  	2     	0.744898	0.0102041	0.734694	0.755102
38  	2     	0.744898	0.0102041	0.734694	0.755102
39  	2     	0.744898	0.0102041	0.734694	0.755102
40  	2     	0.744898	0.0102041	0.734694	0.755102
41  	2     	0.744898	0.0102041	0.734694	0.755102
42  	2     	0.744898	0.0102041	0.734694	0.755102
43  	2     	0.744898	0.0102041	0.734694	0.755102
44  	2     	0.744898	0.0102041	0.734694	0.755102
45  	2     	0.744898	0.0102041	0.734694	0.755102
46  	2     	0.744898	0.0102041	0.734694	0.755102
47  	2     	0.744898	0.0102041	0.734694	0.755102
48  	2     	0.744898	0.0102041	0.734694	0.755102
49  	2     	0.744898	0.0102041	0.734694	0.755102
50  	2     	0.744898	0.0102041	0.734694	0.755102
51  	2     	0.755102	0        	0.755102	0.755102
52  	2     	0.755102	0        	0.755102	0.755102
53  	2     	0.755102	0        	0.755102	0.755102
54  	2     	0.755102	0        	0.755102	0.755102
55  	2     	0.755102	0        	0.755102	0.755102
56  	2     	0.77551 	0.0204082	0.755102	0.795918
57  	2     	0.77551 	0.0204082	0.755102	0.795918
58  	2     	0.77551 	0.0204082	0.755102	0.795918
59  	2     	0.77551 	0.0204082	0.755102	0.795918
60  	2     	0.77551 	0.0204082	0.755102	0.795918
61  	2     	0.77551 	0.0204082	0.755102	0.795918
62  	2     	0.77551 	0.0204082	0.755102	0.795918
63  	2     	0.77551 	0.0204082	0.755102	0.795918
64  	2     	0.77551 	0.0204082	0.755102	0.795918
65  	2     	0.795918	0        	0.795918	0.795918
66  	2     	0.795918	0        	0.795918	0.795918
67  	2     	0.795918	0        	0.795918	0.795918
68  	2     	0.795918	0        	0.795918	0.795918
69  	2     	0.795918	0        	0.795918	0.795918
70  	2     	0.795918	0        	0.795918	0.795918
71  	2     	0.795918	0        	0.795918	0.795918
72  	2     	0.795918	0        	0.795918	0.795918
73  	2     	0.795918	0        	0.795918	0.795918
74  	2     	0.795918	0        	0.795918	0.795918
75  	2     	0.795918	0        	0.795918	0.795918
76  	2     	0.795918	0        	0.795918	0.795918
77  	2     	0.806122	0.0102041	0.795918	0.816327
78  	2     	0.806122	0.0102041	0.795918	0.816327
79  	2     	0.806122	0.0102041	0.795918	0.816327
80  	2     	0.806122	0.0102041	0.795918	0.816327
81  	2     	0.806122	0.0102041	0.795918	0.816327
82  	2     	0.806122	0.0102041	0.795918	0.816327
83  	2     	0.806122	0.0102041	0.795918	0.816327
84  	2     	0.806122	0.0102041	0.795918	0.816327
85  	2     	0.806122	0.0102041	0.795918	0.816327
86  	2     	0.806122	0.0102041	0.795918	0.816327
87  	2     	0.806122	0.0102041	0.795918	0.816327
88  	2     	0.806122	0.0102041	0.795918	0.816327
89  	2     	0.806122	0.0102041	0.795918	0.816327
90  	2     	0.806122	0.0102041	0.795918	0.816327
91  	2     	0.816327	0        	0.816327	0.816327
92  	2     	0.816327	0        	0.816327	0.816327
93  	2     	0.816327	0        	0.816327	0.816327
94  	2     	0.816327	0        	0.816327	0.816327
95  	2     	0.816327	0        	0.816327	0.816327
96  	2     	0.816327	0        	0.816327	0.816327
97  	2     	0.816327	0        	0.816327	0.816327
98  	2     	0.816327	0        	0.816327	0.816327
99  	2     	0.816327	0        	0.816327	0.816327
100 	2     	0.836735	0.0204082	0.816327	0.857143
101 	2     	0.836735	0.0204082	0.816327	0.857143
102 	2     	0.836735	0.0204082	0.816327	0.857143
103 	2     	0.836735	0.0204082	0.816327	0.857143
104 	2     	0.846939	0.0102041	0.836735	0.857143
105 	2     	0.846939	0.0102041	0.836735	0.857143
106 	2     	0.846939	0.0102041	0.836735	0.857143
107 	2     	0.846939	0.0102041	0.836735	0.857143
108 	2     	0.846939	0.0102041	0.836735	0.857143
109 	2     	0.846939	0.0102041	0.836735	0.857143
110 	2     	0.867347	0.0102041	0.857143	0.877551
111 	2     	0.867347	0.0102041	0.857143	0.877551
112 	2     	0.867347	0.0102041	0.857143	0.877551
113 	2     	0.867347	0.0102041	0.857143	0.877551
114 	2     	0.867347	0.0102041	0.857143	0.877551
115 	2     	0.867347	0.0102041	0.857143	0.877551
116 	2     	0.867347	0.0102041	0.857143	0.877551
117 	2     	0.867347	0.0102041	0.857143	0.877551
118 	2     	0.867347	0.0102041	0.857143	0.877551
119 	2     	0.867347	0.0102041	0.857143	0.877551
120 	2     	0.867347	0.0102041	0.857143	0.877551
121 	2     	0.867347	0.0102041	0.857143	0.877551
122 	2     	0.867347	0.0102041	0.857143	0.877551
123 	2     	0.867347	0.0102041	0.857143	0.877551
124 	2     	0.867347	0.0102041	0.857143	0.877551
125 	2     	0.867347	0.0102041	0.857143	0.877551
126 	2     	0.867347	0.0102041	0.857143	0.877551
127 	2     	0.867347	0.0102041	0.857143	0.877551
128 	2     	0.867347	0.0102041	0.857143	0.877551
129 	2     	0.867347	0.0102041	0.857143	0.877551
130 	2     	0.867347	0.0102041	0.857143	0.877551
131 	2     	0.897959	0.0204082	0.877551	0.918367
132 	2     	0.897959	0.0204082	0.877551	0.918367
133 	2     	0.897959	0.0204082	0.877551	0.918367
134 	2     	0.897959	0.0204082	0.877551	0.918367
135 	2     	0.897959	0.0204082	0.877551	0.918367
136 	2     	0.897959	0.0204082	0.877551	0.918367
137 	2     	0.897959	0.0204082	0.877551	0.918367
138 	2     	0.897959	0.0204082	0.877551	0.918367
139 	2     	0.897959	0.0204082	0.877551	0.918367
140 	2     	0.897959	0.0204082	0.877551	0.918367
141 	2     	0.897959	0.0204082	0.877551	0.918367
142 	2     	0.897959	0.0204082	0.877551	0.918367
143 	2     	0.908163	0.0102041	0.897959	0.918367
144 	2     	0.908163	0.0102041	0.897959	0.918367
145 	2     	0.908163	0.0102041	0.897959	0.918367
146 	2     	0.908163	0.0102041	0.897959	0.918367
147 	2     	0.908163	0.0102041	0.897959	0.918367
148 	2     	0.908163	0.0102041	0.897959	0.918367
149 	2     	0.918367	0        	0.918367	0.918367
150 	2     	0.918367	0        	0.918367	0.918367
151 	2     	0.918367	0        	0.918367	0.918367
152 	2     	0.918367	0        	0.918367	0.918367
153 	2     	0.918367	0        	0.918367	0.918367
154 	2     	0.918367	0        	0.918367	0.918367
155 	2     	0.918367	0        	0.918367	0.918367
156 	2     	0.918367	0        	0.918367	0.918367
157 	2     	0.918367	0        	0.918367	0.918367
158 	2     	0.918367	0        	0.918367	0.918367
159 	2     	0.918367	0        	0.918367	0.918367
160 	2     	0.918367	0        	0.918367	0.918367
161 	2     	0.918367	0        	0.918367	0.918367
162 	2     	0.918367	0        	0.918367	0.918367
163 	2     	0.918367	0        	0.918367	0.918367
164 	2     	0.918367	0        	0.918367	0.918367
165 	2     	0.918367	0        	0.918367	0.918367
166 	2     	0.918367	0        	0.918367	0.918367
167 	2     	0.918367	0        	0.918367	0.918367
168 	2     	0.918367	0        	0.918367	0.918367
169 	2     	0.918367	0        	0.918367	0.918367
170 	2     	0.918367	0        	0.918367	0.918367
171 	2     	0.918367	0        	0.918367	0.918367
172 	2     	0.918367	0        	0.918367	0.918367
173 	2     	0.918367	0        	0.918367	0.918367
174 	2     	0.918367	0        	0.918367	0.918367
175 	2     	0.918367	0        	0.918367	0.918367
176 	2     	0.918367	0        	0.918367	0.918367
177 	2     	0.918367	0        	0.918367	0.918367
178 	2     	0.918367	0        	0.918367	0.918367
179 	2     	0.918367	0        	0.918367	0.918367
180 	2     	0.918367	0        	0.918367	0.918367
181 	2     	0.918367	0        	0.918367	0.918367
182 	2     	0.918367	0        	0.918367	0.918367
183 	2     	0.918367	0        	0.918367	0.918367
184 	2     	0.918367	0        	0.918367	0.918367
185 	2     	0.918367	0        	0.918367	0.918367
186 	2     	0.918367	0        	0.918367	0.918367
187 	2     	0.918367	0        	0.918367	0.918367
188 	2     	0.918367	0        	0.918367	0.918367
189 	2     	0.918367	0        	0.918367	0.918367
190 	2     	0.918367	0        	0.918367	0.918367
191 	2     	0.918367	0        	0.918367	0.918367
192 	2     	0.918367	0        	0.918367	0.918367
193 	2     	0.918367	0        	0.918367	0.918367
194 	2     	0.918367	0        	0.918367	0.918367
195 	2     	0.918367	0        	0.918367	0.918367
196 	2     	0.918367	0        	0.918367	0.918367
197 	2     	0.918367	0        	0.918367	0.918367
198 	2     	0.918367	0        	0.918367	0.918367
199 	2     	0.918367	0        	0.918367	0.918367
200 	2     	0.918367	0        	0.918367	0.918367
201 	2     	0.918367	0        	0.918367	0.918367
202 	2     	0.918367	0        	0.918367	0.918367
203 	2     	0.918367	0        	0.918367	0.918367
204 	2     	0.918367	0        	0.918367	0.918367
205 	2     	0.918367	0        	0.918367	0.918367
206 	2     	0.918367	0        	0.918367	0.918367
207 	2     	0.918367	0        	0.918367	0.918367
208 	2     	0.918367	0        	0.918367	0.918367
209 	2     	0.918367	0        	0.918367	0.918367
210 	2     	0.918367	0        	0.918367	0.918367
211 	2     	0.918367	0        	0.918367	0.918367
212 	2     	0.918367	0        	0.918367	0.918367
213 	2     	0.918367	0        	0.918367	0.918367
214 	2     	0.918367	0        	0.918367	0.918367
215 	2     	0.918367	0        	0.918367	0.918367
216 	2     	0.918367	0        	0.918367	0.918367
217 	2     	0.918367	0        	0.918367	0.918367
218 	2     	0.918367	0        	0.918367	0.918367
219 	2     	0.918367	0        	0.918367	0.918367
220 	2     	0.918367	0        	0.918367	0.918367
221 	2     	0.918367	0        	0.918367	0.918367
222 	2     	0.918367	0        	0.918367	0.918367
223 	2     	0.918367	0        	0.918367	0.918367
224 	2     	0.918367	0        	0.918367	0.918367
225 	2     	0.918367	0        	0.918367	0.918367
226 	2     	0.918367	0        	0.918367	0.918367
227 	2     	0.918367	0        	0.918367	0.918367
228 	2     	0.918367	0        	0.918367	0.918367
229 	2     	0.918367	0        	0.918367	0.918367
230 	2     	0.918367	0        	0.918367	0.918367
231 	2     	0.918367	0        	0.918367	0.918367
232 	2     	0.918367	0        	0.918367	0.918367
233 	2     	0.918367	0        	0.918367	0.918367
234 	2     	0.918367	0        	0.918367	0.918367
235 	2     	0.918367	0        	0.918367	0.918367
236 	2     	0.918367	0        	0.918367	0.918367
237 	2     	0.918367	0        	0.918367	0.918367
238 	2     	0.918367	0        	0.918367	0.918367
239 	2     	0.918367	0        	0.918367	0.918367
240 	2     	0.918367	0        	0.918367	0.918367
241 	2     	0.918367	0        	0.918367	0.918367
242 	2     	0.918367	0        	0.918367	0.918367
243 	2     	0.918367	0        	0.918367	0.918367
244 	2     	0.918367	0        	0.918367	0.918367
245 	2     	0.918367	0        	0.918367	0.918367
246 	2     	0.918367	0        	0.918367	0.918367
247 	2     	0.918367	0        	0.918367	0.918367
248 	2     	0.918367	0        	0.918367	0.918367
249 	2     	0.918367	0        	0.918367	0.918367
250 	2     	0.918367	0        	0.918367	0.918367
251 	2     	0.918367	0        	0.918367	0.918367
252 	2     	0.918367	0        	0.918367	0.918367
253 	2     	0.918367	0        	0.918367	0.918367
254 	2     	0.918367	0        	0.918367	0.918367
255 	2     	0.918367	0        	0.918367	0.918367
256 	2     	0.918367	0        	0.918367	0.918367
257 	2     	0.918367	0        	0.918367	0.918367
258 	2     	0.918367	0        	0.918367	0.918367
259 	2     	0.918367	0        	0.918367	0.918367
260 	2     	0.918367	0        	0.918367	0.918367
261 	2     	0.918367	0        	0.918367	0.918367
262 	2     	0.918367	0        	0.918367	0.918367
263 	2     	0.918367	0        	0.918367	0.918367
264 	2     	0.918367	0        	0.918367	0.918367
265 	2     	0.918367	0        	0.918367	0.918367
266 	2     	0.918367	0        	0.918367	0.918367
267 	2     	0.918367	0        	0.918367	0.918367
268 	2     	0.918367	0        	0.918367	0.918367
269 	2     	0.918367	0        	0.918367	0.918367
270 	2     	0.918367	0        	0.918367	0.918367
271 	2     	0.918367	0        	0.918367	0.918367
272 	2     	0.918367	0        	0.918367	0.918367
273 	2     	0.918367	0        	0.918367	0.918367
274 	2     	0.918367	0        	0.918367	0.918367
275 	2     	0.918367	0        	0.918367	0.918367
276 	2     	0.918367	0        	0.918367	0.918367
277 	2     	0.918367	0        	0.918367	0.918367
278 	2     	0.918367	0        	0.918367	0.918367
279 	2     	0.918367	0        	0.918367	0.918367
280 	2     	0.918367	0        	0.918367	0.918367
281 	2     	0.918367	0        	0.918367	0.918367
282 	2     	0.918367	0        	0.918367	0.918367
283 	2     	0.918367	0        	0.918367	0.918367
284 	2     	0.918367	0        	0.918367	0.918367
285 	2     	0.918367	0        	0.918367	0.918367
286 	2     	0.918367	0        	0.918367	0.918367
287 	2     	0.918367	0        	0.918367	0.918367
288 	2     	0.918367	0        	0.918367	0.918367
289 	2     	0.918367	0        	0.918367	0.918367
290 	2     	0.918367	0        	0.918367	0.918367
291 	2     	0.918367	0        	0.918367	0.918367
292 	2     	0.918367	0        	0.918367	0.918367
293 	2     	0.918367	0        	0.918367	0.918367
294 	2     	0.918367	0        	0.918367	0.918367
295 	2     	0.918367	0        	0.918367	0.918367
296 	2     	0.918367	0        	0.918367	0.918367
297 	2     	0.918367	0        	0.918367	0.918367
298 	2     	0.918367	0        	0.918367	0.918367
299 	2     	0.918367	0        	0.918367	0.918367
300 	2     	0.918367	0        	0.918367	0.918367
301 	2     	0.918367	0        	0.918367	0.918367
302 	2     	0.918367	0        	0.918367	0.918367
303 	2     	0.918367	0        	0.918367	0.918367
304 	2     	0.918367	0        	0.918367	0.918367
305 	2     	0.918367	0        	0.918367	0.918367
306 	2     	0.918367	0        	0.918367	0.918367
307 	2     	0.918367	0        	0.918367	0.918367
308 	2     	0.918367	0        	0.918367	0.918367
309 	2     	0.918367	0        	0.918367	0.918367
310 	2     	0.918367	0        	0.918367	0.918367
311 	2     	0.918367	0        	0.918367	0.918367
312 	2     	0.918367	0        	0.918367	0.918367
313 	2     	0.918367	0        	0.918367	0.918367
314 	2     	0.918367	0        	0.918367	0.918367
315 	2     	0.918367	0        	0.918367	0.918367
316 	2     	0.918367	0        	0.918367	0.918367
317 	2     	0.918367	0        	0.918367	0.918367
318 	2     	0.918367	0        	0.918367	0.918367
319 	2     	0.918367	0        	0.918367	0.918367
320 	2     	0.918367	0        	0.918367	0.918367
321 	2     	0.918367	0        	0.918367	0.918367
322 	2     	0.918367	0        	0.918367	0.918367
323 	2     	0.918367	0        	0.918367	0.918367
324 	2     	0.918367	0        	0.918367	0.918367
325 	2     	0.918367	0        	0.918367	0.918367
326 	2     	0.918367	0        	0.918367	0.918367
327 	2     	0.918367	0        	0.918367	0.918367
328 	2     	0.918367	0        	0.918367	0.918367
329 	2     	0.918367	0        	0.918367	0.918367
330 	2     	0.918367	0        	0.918367	0.918367
331 	2     	0.918367	0        	0.918367	0.918367
332 	2     	0.918367	0        	0.918367	0.918367
333 	2     	0.918367	0        	0.918367	0.918367
334 	2     	0.918367	0        	0.918367	0.918367
335 	2     	0.918367	0        	0.918367	0.918367
336 	2     	0.918367	0        	0.918367	0.918367
337 	2     	0.918367	0        	0.918367	0.918367
338 	2     	0.918367	0        	0.918367	0.918367
339 	2     	0.918367	0        	0.918367	0.918367
340 	2     	0.918367	0        	0.918367	0.918367
341 	2     	0.918367	0        	0.918367	0.918367
342 	2     	0.918367	0        	0.918367	0.918367
343 	2     	0.918367	0        	0.918367	0.918367
344 	2     	0.918367	0        	0.918367	0.918367
345 	2     	0.918367	0        	0.918367	0.918367
346 	2     	0.918367	0        	0.918367	0.918367
347 	2     	0.928571	0.0102041	0.918367	0.938776
348 	2     	0.928571	0.0102041	0.918367	0.938776
349 	2     	0.928571	0.0102041	0.918367	0.938776
350 	2     	0.928571	0.0102041	0.918367	0.938776
351 	2     	0.928571	0.0102041	0.918367	0.938776
352 	2     	0.928571	0.0102041	0.918367	0.938776
353 	2     	0.928571	0.0102041	0.918367	0.938776
354 	2     	0.928571	0.0102041	0.918367	0.938776
355 	2     	0.928571	0.0102041	0.918367	0.938776
356 	2     	0.928571	0.0102041	0.918367	0.938776
357 	2     	0.928571	0.0102041	0.918367	0.938776
358 	2     	0.928571	0.0102041	0.918367	0.938776
359 	2     	0.928571	0.0102041	0.918367	0.938776
360 	2     	0.928571	0.0102041	0.918367	0.938776
361 	2     	0.928571	0.0102041	0.918367	0.938776
362 	2     	0.928571	0.0102041	0.918367	0.938776
363 	2     	0.928571	0.0102041	0.918367	0.938776
364 	2     	0.928571	0.0102041	0.918367	0.938776
365 	2     	0.928571	0.0102041	0.918367	0.938776
366 	2     	0.928571	0.0102041	0.918367	0.938776
367 	2     	0.928571	0.0102041	0.918367	0.938776
368 	2     	0.928571	0.0102041	0.918367	0.938776
369 	2     	0.928571	0.0102041	0.918367	0.938776
370 	2     	0.928571	0.0102041	0.918367	0.938776
371 	2     	0.928571	0.0102041	0.918367	0.938776
372 	2     	0.928571	0.0102041	0.918367	0.938776
373 	2     	0.928571	0.0102041	0.918367	0.938776
374 	2     	0.928571	0.0102041	0.918367	0.938776
375 	2     	0.928571	0.0102041	0.918367	0.938776
376 	2     	0.928571	0.0102041	0.918367	0.938776
377 	2     	0.928571	0.0102041	0.918367	0.938776
378 	2     	0.928571	0.0102041	0.918367	0.938776
379 	2     	0.928571	0.0102041	0.918367	0.938776
380 	2     	0.928571	0.0102041	0.918367	0.938776
381 	2     	0.928571	0.0102041	0.918367	0.938776
382 	2     	0.928571	0.0102041	0.918367	0.938776
383 	2     	0.928571	0.0102041	0.918367	0.938776
384 	2     	0.928571	0.0102041	0.918367	0.938776
385 	2     	0.928571	0.0102041	0.918367	0.938776
386 	2     	0.928571	0.0102041	0.918367	0.938776
387 	2     	0.928571	0.0102041	0.918367	0.938776
388 	2     	0.928571	0.0102041	0.918367	0.938776
389 	2     	0.928571	0.0102041	0.918367	0.938776
390 	2     	0.928571	0.0102041	0.918367	0.938776
391 	2     	0.928571	0.0102041	0.918367	0.938776
392 	2     	0.928571	0.0102041	0.918367	0.938776
393 	2     	0.928571	0.0102041	0.918367	0.938776
394 	2     	0.928571	0.0102041	0.918367	0.938776
395 	2     	0.928571	0.0102041	0.918367	0.938776
396 	2     	0.928571	0.0102041	0.918367	0.938776
397 	2     	0.928571	0.0102041	0.918367	0.938776
398 	2     	0.928571	0.0102041	0.918367	0.938776
399 	2     	0.928571	0.0102041	0.918367	0.938776
400 	2     	0.928571	0.0102041	0.918367	0.938776
401 	2     	0.928571	0.0102041	0.918367	0.938776
402 	2     	0.928571	0.0102041	0.918367	0.938776
403 	2     	0.928571	0.0102041	0.918367	0.938776
404 	2     	0.928571	0.0102041	0.918367	0.938776
405 	2     	0.928571	0.0102041	0.918367	0.938776
406 	2     	0.938776	0        	0.938776	0.938776
407 	2     	0.938776	0        	0.938776	0.938776
408 	2     	0.938776	0        	0.938776	0.938776
409 	2     	0.938776	0        	0.938776	0.938776
410 	2     	0.938776	0        	0.938776	0.938776
411 	2     	0.938776	0        	0.938776	0.938776
412 	2     	0.938776	0        	0.938776	0.938776
413 	2     	0.938776	0        	0.938776	0.938776
414 	2     	0.938776	0        	0.938776	0.938776
415 	2     	0.938776	0        	0.938776	0.938776
416 	2     	0.938776	0        	0.938776	0.938776
417 	2     	0.938776	0        	0.938776	0.938776
418 	2     	0.938776	0        	0.938776	0.938776
419 	2     	0.938776	0        	0.938776	0.938776
420 	2     	0.938776	0        	0.938776	0.938776
421 	2     	0.938776	0        	0.938776	0.938776
422 	2     	0.938776	0        	0.938776	0.938776
423 	2     	0.938776	0        	0.938776	0.938776
424 	2     	0.938776	0        	0.938776	0.938776
425 	2     	0.938776	0        	0.938776	0.938776
426 	2     	0.938776	0        	0.938776	0.938776
427 	2     	0.938776	0        	0.938776	0.938776
428 	2     	0.938776	0        	0.938776	0.938776
429 	2     	0.938776	0        	0.938776	0.938776
430 	2     	0.938776	0        	0.938776	0.938776
431 	2     	0.938776	0        	0.938776	0.938776
432 	2     	0.938776	0        	0.938776	0.938776
433 	2     	0.938776	0        	0.938776	0.938776
434 	2     	0.938776	0        	0.938776	0.938776
435 	2     	0.938776	0        	0.938776	0.938776
436 	2     	0.938776	0        	0.938776	0.938776
437 	2     	0.938776	0        	0.938776	0.938776
438 	2     	0.938776	0        	0.938776	0.938776
439 	2     	0.938776	0        	0.938776	0.938776
440 	2     	0.938776	0        	0.938776	0.938776
441 	2     	0.938776	0        	0.938776	0.938776
442 	2     	0.938776	0        	0.938776	0.938776
443 	2     	0.938776	0        	0.938776	0.938776
444 	2     	0.938776	0        	0.938776	0.938776
445 	2     	0.938776	0        	0.938776	0.938776
446 	2     	0.938776	0        	0.938776	0.938776
447 	2     	0.938776	0        	0.938776	0.938776
448 	2     	0.938776	0        	0.938776	0.938776
449 	2     	0.938776	0        	0.938776	0.938776
450 	2     	0.938776	0        	0.938776	0.938776
451 	2     	0.938776	0        	0.938776	0.938776
452 	2     	0.938776	0        	0.938776	0.938776
453 	2     	0.938776	0        	0.938776	0.938776
454 	2     	0.938776	0        	0.938776	0.938776
455 	2     	0.938776	0        	0.938776	0.938776
456 	2     	0.938776	0        	0.938776	0.938776
457 	2     	0.938776	0        	0.938776	0.938776
458 	2     	0.938776	0        	0.938776	0.938776
459 	2     	0.938776	0        	0.938776	0.938776
460 	2     	0.938776	0        	0.938776	0.938776
461 	2     	0.938776	0        	0.938776	0.938776
462 	2     	0.938776	0        	0.938776	0.938776
463 	2     	0.938776	0        	0.938776	0.938776
464 	2     	0.938776	0        	0.938776	0.938776
465 	2     	0.938776	0        	0.938776	0.938776
466 	2     	0.938776	0        	0.938776	0.938776
467 	2     	0.938776	0        	0.938776	0.938776
468 	2     	0.938776	0        	0.938776	0.938776
469 	2     	0.938776	0        	0.938776	0.938776
470 	2     	0.938776	0        	0.938776	0.938776
471 	2     	0.938776	0        	0.938776	0.938776
472 	2     	0.938776	0        	0.938776	0.938776
473 	2     	0.938776	0        	0.938776	0.938776
474 	2     	0.938776	0        	0.938776	0.938776
475 	2     	0.938776	0        	0.938776	0.938776
476 	2     	0.938776	0        	0.938776	0.938776
477 	2     	0.938776	0        	0.938776	0.938776
478 	2     	0.938776	0        	0.938776	0.938776
479 	2     	0.938776	0        	0.938776	0.938776
480 	2     	0.938776	0        	0.938776	0.938776
481 	2     	0.938776	0        	0.938776	0.938776
482 	2     	0.938776	0        	0.938776	0.938776
483 	2     	0.938776	0        	0.938776	0.938776
484 	2     	0.938776	0        	0.938776	0.938776
485 	2     	0.938776	0        	0.938776	0.938776
486 	2     	0.938776	0        	0.938776	0.938776
487 	2     	0.938776	0        	0.938776	0.938776
488 	2     	0.938776	0        	0.938776	0.938776
489 	2     	0.938776	0        	0.938776	0.938776
490 	2     	0.938776	0        	0.938776	0.938776
491 	2     	0.938776	0        	0.938776	0.938776
492 	2     	0.938776	0        	0.938776	0.938776
493 	2     	0.938776	0        	0.938776	0.938776
494 	2     	0.938776	0        	0.938776	0.938776
495 	2     	0.938776	0        	0.938776	0.938776
496 	2     	0.938776	0        	0.938776	0.938776
497 	2     	0.938776	0        	0.938776	0.938776
498 	2     	0.938776	0        	0.938776	0.938776
499 	2     	0.938776	0        	0.938776	0.938776
500 	2     	0.938776	0        	0.938776	0.938776
501 	2     	0.938776	0        	0.938776	0.938776
502 	2     	0.938776	0        	0.938776	0.938776
503 	2     	0.938776	0        	0.938776	0.938776
504 	2     	0.938776	0        	0.938776	0.938776
505 	2     	0.938776	0        	0.938776	0.938776
506 	2     	0.938776	0        	0.938776	0.938776
507 	2     	0.938776	0        	0.938776	0.938776
508 	2     	0.938776	0        	0.938776	0.938776
509 	2     	0.938776	0        	0.938776	0.938776
510 	2     	0.938776	0        	0.938776	0.938776
511 	2     	0.938776	0        	0.938776	0.938776
512 	2     	0.938776	0        	0.938776	0.938776
513 	2     	0.938776	0        	0.938776	0.938776
514 	2     	0.938776	0        	0.938776	0.938776
515 	2     	0.938776	0        	0.938776	0.938776
516 	2     	0.938776	0        	0.938776	0.938776
517 	2     	0.938776	0        	0.938776	0.938776
518 	2     	0.938776	0        	0.938776	0.938776
519 	2     	0.938776	0        	0.938776	0.938776
520 	2     	0.938776	0        	0.938776	0.938776
521 	2     	0.938776	0        	0.938776	0.938776
522 	2     	0.938776	0        	0.938776	0.938776
523 	2     	0.938776	0        	0.938776	0.938776
524 	2     	0.94898 	0.0102041	0.938776	0.959184
525 	2     	0.94898 	0.0102041	0.938776	0.959184
526 	2     	0.94898 	0.0102041	0.938776	0.959184
527 	2     	0.94898 	0.0102041	0.938776	0.959184
528 	2     	0.94898 	0.0102041	0.938776	0.959184
529 	2     	0.94898 	0.0102041	0.938776	0.959184
530 	2     	0.94898 	0.0102041	0.938776	0.959184
531 	2     	0.94898 	0.0102041	0.938776	0.959184
532 	2     	0.94898 	0.0102041	0.938776	0.959184
533 	2     	0.94898 	0.0102041	0.938776	0.959184
534 	2     	0.94898 	0.0102041	0.938776	0.959184
535 	2     	0.94898 	0.0102041	0.938776	0.959184
536 	2     	0.94898 	0.0102041	0.938776	0.959184
537 	2     	0.94898 	0.0102041	0.938776	0.959184
538 	2     	0.94898 	0.0102041	0.938776	0.959184
539 	2     	0.94898 	0.0102041	0.938776	0.959184
540 	2     	0.94898 	0.0102041	0.938776	0.959184
541 	2     	0.94898 	0.0102041	0.938776	0.959184
542 	2     	0.94898 	0.0102041	0.938776	0.959184
543 	2     	0.94898 	0.0102041	0.938776	0.959184
544 	2     	0.94898 	0.0102041	0.938776	0.959184
545 	2     	0.94898 	0.0102041	0.938776	0.959184
546 	2     	0.94898 	0.0102041	0.938776	0.959184
547 	2     	0.94898 	0.0102041	0.938776	0.959184
548 	2     	0.94898 	0.0102041	0.938776	0.959184
549 	2     	0.94898 	0.0102041	0.938776	0.959184
550 	2     	0.94898 	0.0102041	0.938776	0.959184
551 	2     	0.94898 	0.0102041	0.938776	0.959184
552 	2     	0.94898 	0.0102041	0.938776	0.959184
553 	2     	0.94898 	0.0102041	0.938776	0.959184
554 	2     	0.94898 	0.0102041	0.938776	0.959184
555 	2     	0.94898 	0.0102041	0.938776	0.959184
556 	2     	0.94898 	0.0102041	0.938776	0.959184
557 	2     	0.94898 	0.0102041	0.938776	0.959184
558 	2     	0.94898 	0.0102041	0.938776	0.959184
559 	2     	0.94898 	0.0102041	0.938776	0.959184
560 	2     	0.94898 	0.0102041	0.938776	0.959184
561 	2     	0.94898 	0.0102041	0.938776	0.959184
562 	2     	0.94898 	0.0102041	0.938776	0.959184
563 	2     	0.94898 	0.0102041	0.938776	0.959184
564 	2     	0.94898 	0.0102041	0.938776	0.959184
565 	2     	0.94898 	0.0102041	0.938776	0.959184
566 	2     	0.94898 	0.0102041	0.938776	0.959184
567 	2     	0.94898 	0.0102041	0.938776	0.959184
568 	2     	0.94898 	0.0102041	0.938776	0.959184
569 	2     	0.94898 	0.0102041	0.938776	0.959184
570 	2     	0.94898 	0.0102041	0.938776	0.959184
571 	2     	0.94898 	0.0102041	0.938776	0.959184
572 	2     	0.94898 	0.0102041	0.938776	0.959184
573 	2     	0.94898 	0.0102041	0.938776	0.959184
574 	2     	0.94898 	0.0102041	0.938776	0.959184
575 	2     	0.94898 	0.0102041	0.938776	0.959184
576 	2     	0.94898 	0.0102041	0.938776	0.959184
577 	2     	0.94898 	0.0102041	0.938776	0.959184
578 	2     	0.94898 	0.0102041	0.938776	0.959184
579 	2     	0.94898 	0.0102041	0.938776	0.959184
580 	2     	0.94898 	0.0102041	0.938776	0.959184
581 	2     	0.94898 	0.0102041	0.938776	0.959184
582 	2     	0.94898 	0.0102041	0.938776	0.959184
583 	2     	0.94898 	0.0102041	0.938776	0.959184
584 	2     	0.94898 	0.0102041	0.938776	0.959184
585 	2     	0.94898 	0.0102041	0.938776	0.959184
586 	2     	0.94898 	0.0102041	0.938776	0.959184
587 	2     	0.94898 	0.0102041	0.938776	0.959184
588 	2     	0.94898 	0.0102041	0.938776	0.959184
589 	2     	0.94898 	0.0102041	0.938776	0.959184
590 	2     	0.94898 	0.0102041	0.938776	0.959184
591 	2     	0.94898 	0.0102041	0.938776	0.959184
592 	2     	0.94898 	0.0102041	0.938776	0.959184
593 	2     	0.94898 	0.0102041	0.938776	0.959184
594 	2     	0.94898 	0.0102041	0.938776	0.959184
595 	2     	0.94898 	0.0102041	0.938776	0.959184
596 	2     	0.94898 	0.0102041	0.938776	0.959184
597 	2     	0.94898 	0.0102041	0.938776	0.959184
598 	2     	0.94898 	0.0102041	0.938776	0.959184
599 	2     	0.94898 	0.0102041	0.938776	0.959184
600 	2     	0.94898 	0.0102041	0.938776	0.959184
601 	2     	0.94898 	0.0102041	0.938776	0.959184
602 	2     	0.94898 	0.0102041	0.938776	0.959184
603 	2     	0.94898 	0.0102041	0.938776	0.959184
604 	2     	0.94898 	0.0102041	0.938776	0.959184
605 	2     	0.94898 	0.0102041	0.938776	0.959184
606 	2     	0.94898 	0.0102041	0.938776	0.959184
607 	2     	0.94898 	0.0102041	0.938776	0.959184
608 	2     	0.94898 	0.0102041	0.938776	0.959184
609 	2     	0.94898 	0.0102041	0.938776	0.959184
610 	2     	0.94898 	0.0102041	0.938776	0.959184
611 	2     	0.94898 	0.0102041	0.938776	0.959184
612 	2     	0.94898 	0.0102041	0.938776	0.959184
613 	2     	0.94898 	0.0102041	0.938776	0.959184
614 	2     	0.94898 	0.0102041	0.938776	0.959184
615 	2     	0.94898 	0.0102041	0.938776	0.959184
616 	2     	0.94898 	0.0102041	0.938776	0.959184
617 	2     	0.94898 	0.0102041	0.938776	0.959184
618 	2     	0.94898 	0.0102041	0.938776	0.959184
619 	2     	0.94898 	0.0102041	0.938776	0.959184
620 	2     	0.94898 	0.0102041	0.938776	0.959184
621 	2     	0.94898 	0.0102041	0.938776	0.959184
622 	2     	0.94898 	0.0102041	0.938776	0.959184
623 	2     	0.94898 	0.0102041	0.938776	0.959184
624 	2     	0.94898 	0.0102041	0.938776	0.959184
625 	2     	0.94898 	0.0102041	0.938776	0.959184
626 	2     	0.94898 	0.0102041	0.938776	0.959184
627 	2     	0.94898 	0.0102041	0.938776	0.959184
628 	2     	0.94898 	0.0102041	0.938776	0.959184
629 	2     	0.94898 	0.0102041	0.938776	0.959184
630 	2     	0.94898 	0.0102041	0.938776	0.959184
631 	2     	0.94898 	0.0102041	0.938776	0.959184
632 	2     	0.94898 	0.0102041	0.938776	0.959184
633 	2     	0.94898 	0.0102041	0.938776	0.959184
634 	2     	0.94898 	0.0102041	0.938776	0.959184
635 	2     	0.94898 	0.0102041	0.938776	0.959184
636 	2     	0.94898 	0.0102041	0.938776	0.959184
637 	2     	0.94898 	0.0102041	0.938776	0.959184
638 	2     	0.94898 	0.0102041	0.938776	0.959184
639 	2     	0.94898 	0.0102041	0.938776	0.959184
640 	2     	0.94898 	0.0102041	0.938776	0.959184
641 	2     	0.959184	0        	0.959184	0.959184
642 	2     	0.959184	0        	0.959184	0.959184
643 	2     	0.959184	0        	0.959184	0.959184
644 	2     	0.959184	0        	0.959184	0.959184
645 	2     	0.959184	0        	0.959184	0.959184
646 	2     	0.959184	0        	0.959184	0.959184
647 	2     	0.959184	0        	0.959184	0.959184
648 	2     	0.959184	0        	0.959184	0.959184
649 	2     	0.959184	0        	0.959184	0.959184
650 	2     	0.959184	0        	0.959184	0.959184
651 	2     	0.959184	0        	0.959184	0.959184
652 	2     	0.959184	0        	0.959184	0.959184
653 	2     	0.959184	0        	0.959184	0.959184
654 	2     	0.959184	0        	0.959184	0.959184
655 	2     	0.959184	0        	0.959184	0.959184
656 	2     	0.959184	0        	0.959184	0.959184
657 	2     	0.959184	0        	0.959184	0.959184
658 	2     	0.959184	0        	0.959184	0.959184
659 	2     	0.959184	0        	0.959184	0.959184
660 	2     	0.959184	0        	0.959184	0.959184
661 	2     	0.959184	0        	0.959184	0.959184
662 	2     	0.959184	0        	0.959184	0.959184
663 	2     	0.959184	0        	0.959184	0.959184
664 	2     	0.959184	0        	0.959184	0.959184
665 	2     	0.959184	0        	0.959184	0.959184
666 	2     	0.959184	0        	0.959184	0.959184
667 	2     	0.959184	0        	0.959184	0.959184
668 	2     	0.959184	0        	0.959184	0.959184
669 	2     	0.959184	0        	0.959184	0.959184
670 	2     	0.959184	0        	0.959184	0.959184
671 	2     	0.959184	0        	0.959184	0.959184
672 	2     	0.959184	0        	0.959184	0.959184
673 	2     	0.959184	0        	0.959184	0.959184
674 	2     	0.959184	0        	0.959184	0.959184
675 	2     	0.959184	0        	0.959184	0.959184
676 	2     	0.959184	0        	0.959184	0.959184
677 	2     	0.959184	0        	0.959184	0.959184
678 	2     	0.959184	0        	0.959184	0.959184
679 	2     	0.959184	0        	0.959184	0.959184
680 	2     	0.959184	0        	0.959184	0.959184
681 	2     	0.959184	0        	0.959184	0.959184
682 	2     	0.959184	0        	0.959184	0.959184
683 	2     	0.959184	0        	0.959184	0.959184
684 	2     	0.959184	0        	0.959184	0.959184
685 	2     	0.959184	0        	0.959184	0.959184
686 	2     	0.959184	0        	0.959184	0.959184
687 	2     	0.959184	0        	0.959184	0.959184
688 	2     	0.959184	0        	0.959184	0.959184
689 	2     	0.959184	0        	0.959184	0.959184
690 	2     	0.959184	0        	0.959184	0.959184
691 	2     	0.959184	0        	0.959184	0.959184
692 	2     	0.959184	0        	0.959184	0.959184
693 	2     	0.959184	0        	0.959184	0.959184
694 	2     	0.959184	0        	0.959184	0.959184
695 	2     	0.959184	0        	0.959184	0.959184
696 	2     	0.959184	0        	0.959184	0.959184
697 	2     	0.959184	0        	0.959184	0.959184
698 	2     	0.959184	0        	0.959184	0.959184
699 	2     	0.959184	0        	0.959184	0.959184
700 	2     	0.959184	0        	0.959184	0.959184
701 	2     	0.959184	0        	0.959184	0.959184
702 	2     	0.959184	0        	0.959184	0.959184
703 	2     	0.959184	0        	0.959184	0.959184
704 	2     	0.959184	0        	0.959184	0.959184
705 	2     	0.959184	0        	0.959184	0.959184
706 	2     	0.959184	0        	0.959184	0.959184
707 	2     	0.959184	0        	0.959184	0.959184
708 	2     	0.959184	0        	0.959184	0.959184
709 	2     	0.959184	0        	0.959184	0.959184
710 	2     	0.959184	0        	0.959184	0.959184
711 	2     	0.959184	0        	0.959184	0.959184
712 	2     	0.959184	0        	0.959184	0.959184
713 	2     	0.959184	0        	0.959184	0.959184
714 	2     	0.959184	0        	0.959184	0.959184
715 	2     	0.959184	0        	0.959184	0.959184
716 	2     	0.959184	0        	0.959184	0.959184
717 	2     	0.959184	0        	0.959184	0.959184
718 	2     	0.959184	0        	0.959184	0.959184
719 	2     	0.959184	0        	0.959184	0.959184
720 	2     	0.959184	0        	0.959184	0.959184
721 	2     	0.959184	0        	0.959184	0.959184
722 	2     	0.959184	0        	0.959184	0.959184
723 	2     	0.959184	0        	0.959184	0.959184
724 	2     	0.959184	0        	0.959184	0.959184
725 	2     	0.959184	0        	0.959184	0.959184
726 	2     	0.959184	0        	0.959184	0.959184
727 	2     	0.959184	0        	0.959184	0.959184
728 	2     	0.959184	0        	0.959184	0.959184
729 	2     	0.959184	0        	0.959184	0.959184
730 	2     	0.959184	0        	0.959184	0.959184
731 	2     	0.959184	0        	0.959184	0.959184
732 	2     	0.959184	0        	0.959184	0.959184
733 	2     	0.959184	0        	0.959184	0.959184
734 	2     	0.959184	0        	0.959184	0.959184
735 	2     	0.959184	0        	0.959184	0.959184
736 	2     	0.959184	0        	0.959184	0.959184
737 	2     	0.959184	0        	0.959184	0.959184
738 	2     	0.959184	0        	0.959184	0.959184
739 	2     	0.959184	0        	0.959184	0.959184
740 	2     	0.959184	0        	0.959184	0.959184
741 	2     	0.959184	0        	0.959184	0.959184
742 	2     	0.959184	0        	0.959184	0.959184
743 	2     	0.959184	0        	0.959184	0.959184
744 	2     	0.959184	0        	0.959184	0.959184
745 	2     	0.959184	0        	0.959184	0.959184
746 	2     	0.959184	0        	0.959184	0.959184
747 	2     	0.959184	0        	0.959184	0.959184
748 	2     	0.959184	0        	0.959184	0.959184
749 	2     	0.959184	0        	0.959184	0.959184
750 	2     	0.959184	0        	0.959184	0.959184
751 	2     	0.959184	0        	0.959184	0.959184
752 	2     	0.959184	0        	0.959184	0.959184
753 	2     	0.959184	0        	0.959184	0.959184
754 	2     	0.959184	0        	0.959184	0.959184
755 	2     	0.959184	0        	0.959184	0.959184
756 	2     	0.959184	0        	0.959184	0.959184
757 	2     	0.959184	0        	0.959184	0.959184
758 	2     	0.959184	0        	0.959184	0.959184
759 	2     	0.959184	0        	0.959184	0.959184
760 	2     	0.959184	0        	0.959184	0.959184
761 	2     	0.959184	0        	0.959184	0.959184
762 	2     	0.959184	0        	0.959184	0.959184
763 	2     	0.959184	0        	0.959184	0.959184
764 	2     	0.959184	0        	0.959184	0.959184
765 	2     	0.959184	0        	0.959184	0.959184
766 	2     	0.959184	0        	0.959184	0.959184
767 	2     	0.959184	0        	0.959184	0.959184
768 	2     	0.959184	0        	0.959184	0.959184
769 	2     	0.959184	0        	0.959184	0.959184
770 	2     	0.959184	0        	0.959184	0.959184
771 	2     	0.959184	0        	0.959184	0.959184
772 	2     	0.959184	0        	0.959184	0.959184
773 	2     	0.959184	0        	0.959184	0.959184
774 	2     	0.959184	0        	0.959184	0.959184
775 	2     	0.959184	0        	0.959184	0.959184
776 	2     	0.959184	0        	0.959184	0.959184
777 	2     	0.959184	0        	0.959184	0.959184
778 	2     	0.959184	0        	0.959184	0.959184
779 	2     	0.959184	0        	0.959184	0.959184
780 	2     	0.959184	0        	0.959184	0.959184
781 	2     	0.959184	0        	0.959184	0.959184
782 	2     	0.959184	0        	0.959184	0.959184
783 	2     	0.959184	0        	0.959184	0.959184
784 	2     	0.959184	0        	0.959184	0.959184
785 	2     	0.959184	0        	0.959184	0.959184
786 	2     	0.959184	0        	0.959184	0.959184
787 	2     	0.959184	0        	0.959184	0.959184
788 	2     	0.959184	0        	0.959184	0.959184
789 	2     	0.959184	0        	0.959184	0.959184
790 	2     	0.959184	0        	0.959184	0.959184
791 	2     	0.959184	0        	0.959184	0.959184
792 	2     	0.959184	0        	0.959184	0.959184
793 	2     	0.959184	0        	0.959184	0.959184
794 	2     	0.959184	0        	0.959184	0.959184
795 	2     	0.959184	0        	0.959184	0.959184
796 	2     	0.959184	0        	0.959184	0.959184
797 	2     	0.959184	0        	0.959184	0.959184
798 	2     	0.959184	0        	0.959184	0.959184
799 	2     	0.959184	0        	0.959184	0.959184
800 	2     	0.959184	0        	0.959184	0.959184
801 	2     	0.959184	0        	0.959184	0.959184
802 	2     	0.959184	0        	0.959184	0.959184
803 	2     	0.959184	0        	0.959184	0.959184
804 	2     	0.959184	0        	0.959184	0.959184
805 	2     	0.959184	0        	0.959184	0.959184
806 	2     	0.959184	0        	0.959184	0.959184
807 	2     	0.959184	0        	0.959184	0.959184
808 	2     	0.959184	0        	0.959184	0.959184
809 	2     	0.959184	0        	0.959184	0.959184
810 	2     	0.959184	0        	0.959184	0.959184
811 	2     	0.959184	0        	0.959184	0.959184
812 	2     	0.959184	0        	0.959184	0.959184
813 	2     	0.959184	0        	0.959184	0.959184
814 	2     	0.959184	0        	0.959184	0.959184
815 	2     	0.959184	0        	0.959184	0.959184
816 	2     	0.959184	0        	0.959184	0.959184
817 	2     	0.959184	0        	0.959184	0.959184
818 	2     	0.959184	0        	0.959184	0.959184
819 	2     	0.959184	0        	0.959184	0.959184
820 	2     	0.959184	0        	0.959184	0.959184
821 	2     	0.959184	0        	0.959184	0.959184
822 	2     	0.959184	0        	0.959184	0.959184
823 	2     	0.959184	0        	0.959184	0.959184
824 	2     	0.959184	0        	0.959184	0.959184
825 	2     	0.959184	0        	0.959184	0.959184
826 	2     	0.959184	0        	0.959184	0.959184
827 	2     	0.959184	0        	0.959184	0.959184
828 	2     	0.959184	0        	0.959184	0.959184
829 	2     	0.959184	0        	0.959184	0.959184
830 	2     	0.959184	0        	0.959184	0.959184
831 	2     	0.959184	0        	0.959184	0.959184
832 	2     	0.959184	0        	0.959184	0.959184
833 	2     	0.959184	0        	0.959184	0.959184
834 	2     	0.959184	0        	0.959184	0.959184
835 	2     	0.959184	0        	0.959184	0.959184
836 	2     	0.959184	0        	0.959184	0.959184
837 	2     	0.959184	0        	0.959184	0.959184
838 	2     	0.959184	0        	0.959184	0.959184
839 	2     	0.959184	0        	0.959184	0.959184
840 	2     	0.959184	0        	0.959184	0.959184
841 	2     	0.959184	0        	0.959184	0.959184
842 	2     	0.959184	0        	0.959184	0.959184
843 	2     	0.959184	0        	0.959184	0.959184
844 	2     	0.959184	0        	0.959184	0.959184
845 	2     	0.959184	0        	0.959184	0.959184
846 	2     	0.959184	0        	0.959184	0.959184
847 	2     	0.959184	0        	0.959184	0.959184
848 	2     	0.959184	0        	0.959184	0.959184
849 	2     	0.959184	0        	0.959184	0.959184
850 	2     	0.959184	0        	0.959184	0.959184
851 	2     	0.959184	0        	0.959184	0.959184
852 	2     	0.959184	0        	0.959184	0.959184
853 	2     	0.959184	0        	0.959184	0.959184
854 	2     	0.959184	0        	0.959184	0.959184
855 	2     	0.959184	0        	0.959184	0.959184
856 	2     	0.959184	0        	0.959184	0.959184
857 	2     	0.959184	0        	0.959184	0.959184
858 	2     	0.959184	0        	0.959184	0.959184
859 	2     	0.959184	0        	0.959184	0.959184
860 	2     	0.959184	0        	0.959184	0.959184
861 	2     	0.959184	0        	0.959184	0.959184
862 	2     	0.959184	0        	0.959184	0.959184
863 	2     	0.959184	0        	0.959184	0.959184
864 	2     	0.959184	0        	0.959184	0.959184
865 	2     	0.959184	0        	0.959184	0.959184
866 	2     	0.959184	0        	0.959184	0.959184
867 	2     	0.959184	0        	0.959184	0.959184
868 	2     	0.959184	0        	0.959184	0.959184
869 	2     	0.959184	0        	0.959184	0.959184
870 	2     	0.959184	0        	0.959184	0.959184
871 	2     	0.959184	0        	0.959184	0.959184
872 	2     	0.959184	0        	0.959184	0.959184
873 	2     	0.959184	0        	0.959184	0.959184
874 	2     	0.959184	0        	0.959184	0.959184
875 	2     	0.959184	0        	0.959184	0.959184
876 	2     	0.959184	0        	0.959184	0.959184
877 	2     	0.959184	0        	0.959184	0.959184
878 	2     	0.959184	0        	0.959184	0.959184
879 	2     	0.959184	0        	0.959184	0.959184
880 	2     	0.959184	0        	0.959184	0.959184
881 	2     	0.959184	0        	0.959184	0.959184
882 	2     	0.959184	0        	0.959184	0.959184
883 	2     	0.959184	0        	0.959184	0.959184
884 	2     	0.959184	0        	0.959184	0.959184
885 	2     	0.959184	0        	0.959184	0.959184
886 	2     	0.959184	0        	0.959184	0.959184
887 	2     	0.959184	0        	0.959184	0.959184
888 	2     	0.959184	0        	0.959184	0.959184
889 	2     	0.959184	0        	0.959184	0.959184
890 	2     	0.959184	0        	0.959184	0.959184
891 	2     	0.959184	0        	0.959184	0.959184
892 	2     	0.959184	0        	0.959184	0.959184
893 	2     	0.959184	0        	0.959184	0.959184
894 	2     	0.959184	0        	0.959184	0.959184
895 	2     	0.959184	0        	0.959184	0.959184
896 	2     	0.959184	0        	0.959184	0.959184
897 	2     	0.959184	0        	0.959184	0.959184
898 	2     	0.959184	0        	0.959184	0.959184
899 	2     	0.959184	0        	0.959184	0.959184
900 	2     	0.959184	0        	0.959184	0.959184
901 	2     	0.959184	0        	0.959184	0.959184
902 	2     	0.959184	0        	0.959184	0.959184
903 	2     	0.959184	0        	0.959184	0.959184
904 	2     	0.959184	0        	0.959184	0.959184
905 	2     	0.959184	0        	0.959184	0.959184
906 	2     	0.959184	0        	0.959184	0.959184
907 	2     	0.959184	0        	0.959184	0.959184
908 	2     	0.959184	0        	0.959184	0.959184
909 	2     	0.959184	0        	0.959184	0.959184
910 	2     	0.959184	0        	0.959184	0.959184
911 	2     	0.959184	0        	0.959184	0.959184
912 	2     	0.959184	0        	0.959184	0.959184
913 	2     	0.959184	0        	0.959184	0.959184
914 	2     	0.959184	0        	0.959184	0.959184
915 	2     	0.959184	0        	0.959184	0.959184
916 	2     	0.959184	0        	0.959184	0.959184
917 	2     	0.959184	0        	0.959184	0.959184
918 	2     	0.959184	0        	0.959184	0.959184
919 	2     	0.959184	0        	0.959184	0.959184
920 	2     	0.959184	0        	0.959184	0.959184
921 	2     	0.959184	0        	0.959184	0.959184
922 	2     	0.959184	0        	0.959184	0.959184
923 	2     	0.959184	0        	0.959184	0.959184
924 	2     	0.959184	0        	0.959184	0.959184
925 	2     	0.959184	0        	0.959184	0.959184
926 	2     	0.959184	0        	0.959184	0.959184
927 	2     	0.959184	0        	0.959184	0.959184
928 	2     	0.959184	0        	0.959184	0.959184
929 	2     	0.959184	0        	0.959184	0.959184
930 	2     	0.959184	0        	0.959184	0.959184
931 	2     	0.959184	0        	0.959184	0.959184
932 	2     	0.959184	0        	0.959184	0.959184
933 	2     	0.959184	0        	0.959184	0.959184
934 	2     	0.959184	0        	0.959184	0.959184
935 	2     	0.959184	0        	0.959184	0.959184
936 	2     	0.959184	0        	0.959184	0.959184
937 	2     	0.959184	0        	0.959184	0.959184
938 	2     	0.959184	0        	0.959184	0.959184
939 	2     	0.959184	0        	0.959184	0.959184
940 	2     	0.959184	0        	0.959184	0.959184
941 	2     	0.959184	0        	0.959184	0.959184
942 	2     	0.959184	0        	0.959184	0.959184
943 	2     	0.959184	0        	0.959184	0.959184
944 	2     	0.959184	0        	0.959184	0.959184
945 	2     	0.959184	0        	0.959184	0.959184
946 	2     	0.959184	0        	0.959184	0.959184
947 	2     	0.959184	0        	0.959184	0.959184
948 	2     	0.959184	0        	0.959184	0.959184
949 	2     	0.959184	0        	0.959184	0.959184
950 	2     	0.959184	0        	0.959184	0.959184
951 	2     	0.959184	0        	0.959184	0.959184
952 	2     	0.959184	0        	0.959184	0.959184
953 	2     	0.959184	0        	0.959184	0.959184
954 	2     	0.959184	0        	0.959184	0.959184
955 	2     	0.959184	0        	0.959184	0.959184
956 	2     	0.959184	0        	0.959184	0.959184
957 	2     	0.959184	0        	0.959184	0.959184
958 	2     	0.959184	0        	0.959184	0.959184
959 	2     	0.959184	0        	0.959184	0.959184
960 	2     	0.959184	0        	0.959184	0.959184
961 	2     	0.959184	0        	0.959184	0.959184
962 	2     	0.959184	0        	0.959184	0.959184
963 	2     	0.959184	0        	0.959184	0.959184
964 	2     	0.959184	0        	0.959184	0.959184
965 	2     	0.959184	0        	0.959184	0.959184
966 	2     	0.959184	0        	0.959184	0.959184
967 	2     	0.959184	0        	0.959184	0.959184
968 	2     	0.959184	0        	0.959184	0.959184
969 	2     	0.959184	0        	0.959184	0.959184
970 	2     	0.959184	0        	0.959184	0.959184
971 	2     	0.959184	0        	0.959184	0.959184
972 	2     	0.959184	0        	0.959184	0.959184
973 	2     	0.959184	0        	0.959184	0.959184
974 	2     	0.959184	0        	0.959184	0.959184
975 	2     	0.959184	0        	0.959184	0.959184
976 	2     	0.959184	0        	0.959184	0.959184
977 	2     	0.959184	0        	0.959184	0.959184
978 	2     	0.959184	0        	0.959184	0.959184
979 	2     	0.959184	0        	0.959184	0.959184
980 	2     	0.959184	0        	0.959184	0.959184
981 	2     	0.959184	0        	0.959184	0.959184
982 	2     	0.959184	0        	0.959184	0.959184
983 	2     	0.959184	0        	0.959184	0.959184
984 	2     	0.959184	0        	0.959184	0.959184
985 	2     	0.959184	0        	0.959184	0.959184
986 	2     	0.959184	0        	0.959184	0.959184
987 	2     	0.959184	0        	0.959184	0.959184
988 	2     	0.959184	0        	0.959184	0.959184
989 	2     	0.959184	0        	0.959184	0.959184
990 	2     	0.959184	0        	0.959184	0.959184
991 	2     	0.959184	0        	0.959184	0.959184
992 	2     	0.959184	0        	0.959184	0.959184
993 	2     	0.959184	0        	0.959184	0.959184
994 	2     	0.959184	0        	0.959184	0.959184
995 	2     	0.959184	0        	0.959184	0.959184
996 	2     	0.959184	0        	0.959184	0.959184
997 	2     	0.959184	0        	0.959184	0.959184
998 	2     	0.959184	0        	0.959184	0.959184
999 	2     	0.959184	0        	0.959184	0.959184
1000	2     	0.959184	0        	0.959184	0.959184
1001	2     	0.959184	0        	0.959184	0.959184
1002	2     	0.959184	0        	0.959184	0.959184
1003	2     	0.959184	0        	0.959184	0.959184
1004	2     	0.959184	0        	0.959184	0.959184
1005	2     	0.959184	0        	0.959184	0.959184
1006	2     	0.959184	0        	0.959184	0.959184
1007	2     	0.959184	0        	0.959184	0.959184
1008	2     	0.959184	0        	0.959184	0.959184
1009	2     	0.959184	0        	0.959184	0.959184
1010	2     	0.959184	0        	0.959184	0.959184
1011	2     	0.959184	0        	0.959184	0.959184
1012	2     	0.959184	0        	0.959184	0.959184
1013	2     	0.959184	0        	0.959184	0.959184
1014	2     	0.959184	0        	0.959184	0.959184
1015	2     	0.959184	0        	0.959184	0.959184
1016	2     	0.959184	0        	0.959184	0.959184
1017	2     	0.959184	0        	0.959184	0.959184
1018	2     	0.959184	0        	0.959184	0.959184
1019	2     	0.959184	0        	0.959184	0.959184
1020	2     	0.959184	0        	0.959184	0.959184
1021	2     	0.959184	0        	0.959184	0.959184
1022	2     	0.959184	0        	0.959184	0.959184
1023	2     	0.959184	0        	0.959184	0.959184
1024	2     	0.959184	0        	0.959184	0.959184
1025	2     	0.959184	0        	0.959184	0.959184
1026	2     	0.959184	0        	0.959184	0.959184
1027	2     	0.959184	0        	0.959184	0.959184
1028	2     	0.959184	0        	0.959184	0.959184
1029	2     	0.959184	0        	0.959184	0.959184
1030	2     	0.959184	0        	0.959184	0.959184
1031	2     	0.959184	0        	0.959184	0.959184
1032	2     	0.959184	0        	0.959184	0.959184
1033	2     	0.959184	0        	0.959184	0.959184
1034	2     	0.959184	0        	0.959184	0.959184
1035	2     	0.959184	0        	0.959184	0.959184
1036	2     	0.959184	0        	0.959184	0.959184
1037	2     	0.959184	0        	0.959184	0.959184
1038	2     	0.959184	0        	0.959184	0.959184
1039	2     	0.959184	0        	0.959184	0.959184
1040	2     	0.959184	0        	0.959184	0.959184
1041	2     	0.959184	0        	0.959184	0.959184
1042	2     	0.959184	0        	0.959184	0.959184
1043	2     	0.959184	0        	0.959184	0.959184
1044	2     	0.959184	0        	0.959184	0.959184
1045	2     	0.959184	0        	0.959184	0.959184
1046	2     	0.959184	0        	0.959184	0.959184
1047	2     	0.959184	0        	0.959184	0.959184
1048	2     	0.959184	0        	0.959184	0.959184
1049	2     	0.959184	0        	0.959184	0.959184
1050	2     	0.959184	0        	0.959184	0.959184
1051	2     	0.959184	0        	0.959184	0.959184
1052	2     	0.959184	0        	0.959184	0.959184
1053	2     	0.959184	0        	0.959184	0.959184
1054	2     	0.959184	0        	0.959184	0.959184
1055	2     	0.959184	0        	0.959184	0.959184
1056	2     	0.959184	0        	0.959184	0.959184
1057	2     	0.959184	0        	0.959184	0.959184
1058	2     	0.959184	0        	0.959184	0.959184
1059	2     	0.959184	0        	0.959184	0.959184
1060	2     	0.959184	0        	0.959184	0.959184
1061	2     	0.959184	0        	0.959184	0.959184
1062	2     	0.959184	0        	0.959184	0.959184
1063	2     	0.959184	0        	0.959184	0.959184
1064	2     	0.959184	0        	0.959184	0.959184
1065	2     	0.959184	0        	0.959184	0.959184
1066	2     	0.959184	0        	0.959184	0.959184
1067	2     	0.959184	0        	0.959184	0.959184
1068	2     	0.959184	0        	0.959184	0.959184
1069	2     	0.959184	0        	0.959184	0.959184
1070	2     	0.959184	0        	0.959184	0.959184
1071	2     	0.959184	0        	0.959184	0.959184
1072	2     	0.959184	0        	0.959184	0.959184
1073	2     	0.959184	0        	0.959184	0.959184
1074	2     	0.959184	0        	0.959184	0.959184
1075	2     	0.959184	0        	0.959184	0.959184
1076	2     	0.959184	0        	0.959184	0.959184
1077	2     	0.959184	0        	0.959184	0.959184
1078	2     	0.959184	0        	0.959184	0.959184
1079	2     	0.959184	0        	0.959184	0.959184
1080	2     	0.959184	0        	0.959184	0.959184
1081	2     	0.959184	0        	0.959184	0.959184
1082	2     	0.959184	0        	0.959184	0.959184
1083	2     	0.959184	0        	0.959184	0.959184
1084	2     	0.959184	0        	0.959184	0.959184
1085	2     	0.959184	0        	0.959184	0.959184
1086	2     	0.959184	0        	0.959184	0.959184
1087	2     	0.959184	0        	0.959184	0.959184
1088	2     	0.959184	0        	0.959184	0.959184
1089	2     	0.959184	0        	0.959184	0.959184
1090	2     	0.959184	0        	0.959184	0.959184
1091	2     	0.959184	0        	0.959184	0.959184
1092	2     	0.959184	0        	0.959184	0.959184
1093	2     	0.959184	0        	0.959184	0.959184
1094	2     	0.959184	0        	0.959184	0.959184
1095	2     	0.959184	0        	0.959184	0.959184
1096	2     	0.959184	0        	0.959184	0.959184
1097	2     	0.959184	0        	0.959184	0.959184
1098	2     	0.959184	0        	0.959184	0.959184
1099	2     	0.959184	0        	0.959184	0.959184
1100	2     	0.959184	0        	0.959184	0.959184
1101	2     	0.959184	0        	0.959184	0.959184
1102	2     	0.959184	0        	0.959184	0.959184
1103	2     	0.959184	0        	0.959184	0.959184
1104	2     	0.959184	0        	0.959184	0.959184
1105	2     	0.959184	0        	0.959184	0.959184
1106	2     	0.959184	0        	0.959184	0.959184
1107	2     	0.959184	0        	0.959184	0.959184
1108	2     	0.959184	0        	0.959184	0.959184
1109	2     	0.959184	0        	0.959184	0.959184
1110	2     	0.959184	0        	0.959184	0.959184
1111	2     	0.959184	0        	0.959184	0.959184
1112	2     	0.959184	0        	0.959184	0.959184
1113	2     	0.959184	0        	0.959184	0.959184
1114	2     	0.959184	0        	0.959184	0.959184
1115	2     	0.959184	0        	0.959184	0.959184
1116	2     	0.959184	0        	0.959184	0.959184
1117	2     	0.959184	0        	0.959184	0.959184
1118	2     	0.959184	0        	0.959184	0.959184
1119	2     	0.959184	0        	0.959184	0.959184
1120	2     	0.959184	0        	0.959184	0.959184
1121	2     	0.959184	0        	0.959184	0.959184
1122	2     	0.959184	0        	0.959184	0.959184
1123	2     	0.959184	0        	0.959184	0.959184
1124	2     	0.959184	0        	0.959184	0.959184
1125	2     	0.959184	0        	0.959184	0.959184
1126	2     	0.959184	0        	0.959184	0.959184
1127	2     	0.959184	0        	0.959184	0.959184
1128	2     	0.959184	0        	0.959184	0.959184
1129	2     	0.959184	0        	0.959184	0.959184
1130	2     	0.959184	0        	0.959184	0.959184
1131	2     	0.959184	0        	0.959184	0.959184
1132	2     	0.959184	0        	0.959184	0.959184
1133	2     	0.959184	0        	0.959184	0.959184
1134	2     	0.959184	0        	0.959184	0.959184
1135	2     	0.959184	0        	0.959184	0.959184
1136	2     	0.959184	0        	0.959184	0.959184
1137	2     	0.959184	0        	0.959184	0.959184
1138	2     	0.959184	0        	0.959184	0.959184
1139	2     	0.959184	0        	0.959184	0.959184
1140	2     	0.959184	0        	0.959184	0.959184
1141	2     	0.959184	0        	0.959184	0.959184
1142	2     	0.959184	0        	0.959184	0.959184
1143	2     	0.959184	0        	0.959184	0.959184
1144	2     	0.959184	0        	0.959184	0.959184
1145	2     	0.959184	0        	0.959184	0.959184
1146	2     	0.959184	0        	0.959184	0.959184
1147	2     	0.959184	0        	0.959184	0.959184
1148	2     	0.959184	0        	0.959184	0.959184
1149	2     	0.959184	0        	0.959184	0.959184
1150	2     	0.959184	0        	0.959184	0.959184
1151	2     	0.959184	0        	0.959184	0.959184
1152	2     	0.959184	0        	0.959184	0.959184
1153	2     	0.959184	0        	0.959184	0.959184
1154	2     	0.959184	0        	0.959184	0.959184
1155	2     	0.959184	0        	0.959184	0.959184
1156	2     	0.959184	0        	0.959184	0.959184
1157	2     	0.959184	0        	0.959184	0.959184
1158	2     	0.959184	0        	0.959184	0.959184
1159	2     	0.959184	0        	0.959184	0.959184
1160	2     	0.959184	0        	0.959184	0.959184
1161	2     	0.959184	0        	0.959184	0.959184
1162	2     	0.959184	0        	0.959184	0.959184
1163	2     	0.959184	0        	0.959184	0.959184
1164	2     	0.959184	0        	0.959184	0.959184
1165	2     	0.959184	0        	0.959184	0.959184
1166	2     	0.959184	0        	0.959184	0.959184
1167	2     	0.959184	0        	0.959184	0.959184
1168	2     	0.959184	0        	0.959184	0.959184
1169	2     	0.959184	0        	0.959184	0.959184
1170	2     	0.959184	0        	0.959184	0.959184
1171	2     	0.959184	0        	0.959184	0.959184
1172	2     	0.959184	0        	0.959184	0.959184
1173	2     	0.959184	0        	0.959184	0.959184
1174	2     	0.959184	0        	0.959184	0.959184
1175	2     	0.959184	0        	0.959184	0.959184
1176	2     	0.959184	0        	0.959184	0.959184
1177	2     	0.959184	0        	0.959184	0.959184
1178	2     	0.959184	0        	0.959184	0.959184
1179	2     	0.959184	0        	0.959184	0.959184
1180	2     	0.959184	0        	0.959184	0.959184
1181	2     	0.959184	0        	0.959184	0.959184
1182	2     	0.959184	0        	0.959184	0.959184
1183	2     	0.959184	0        	0.959184	0.959184
1184	2     	0.959184	0        	0.959184	0.959184
1185	2     	0.959184	0        	0.959184	0.959184
1186	2     	0.959184	0        	0.959184	0.959184
1187	2     	0.959184	0        	0.959184	0.959184
1188	2     	0.959184	0        	0.959184	0.959184
1189	2     	0.959184	0        	0.959184	0.959184
1190	2     	0.959184	0        	0.959184	0.959184
1191	2     	0.959184	0        	0.959184	0.959184
1192	2     	0.959184	0        	0.959184	0.959184
1193	2     	0.959184	0        	0.959184	0.959184
1194	2     	0.959184	0        	0.959184	0.959184
1195	2     	0.959184	0        	0.959184	0.959184
1196	2     	0.959184	0        	0.959184	0.959184
1197	2     	0.959184	0        	0.959184	0.959184
1198	2     	0.959184	0        	0.959184	0.959184
1199	2     	0.959184	0        	0.959184	0.959184
1200	2     	0.959184	0        	0.959184	0.959184
1201	2     	0.959184	0        	0.959184	0.959184
1202	2     	0.959184	0        	0.959184	0.959184
1203	2     	0.959184	0        	0.959184	0.959184
1204	2     	0.959184	0        	0.959184	0.959184
1205	2     	0.959184	0        	0.959184	0.959184
1206	2     	0.959184	0        	0.959184	0.959184
1207	2     	0.959184	0        	0.959184	0.959184
1208	2     	0.959184	0        	0.959184	0.959184
1209	2     	0.959184	0        	0.959184	0.959184
1210	2     	0.959184	0        	0.959184	0.959184
1211	2     	0.959184	0        	0.959184	0.959184
1212	2     	0.959184	0        	0.959184	0.959184
1213	2     	0.959184	0        	0.959184	0.959184
1214	2     	0.959184	0        	0.959184	0.959184
1215	2     	0.959184	0        	0.959184	0.959184
1216	2     	0.959184	0        	0.959184	0.959184
1217	2     	0.959184	0        	0.959184	0.959184
1218	2     	0.959184	0        	0.959184	0.959184
1219	2     	0.959184	0        	0.959184	0.959184
1220	2     	0.959184	0        	0.959184	0.959184
1221	2     	0.959184	0        	0.959184	0.959184
1222	2     	0.959184	0        	0.959184	0.959184
1223	2     	0.959184	0        	0.959184	0.959184
1224	2     	0.959184	0        	0.959184	0.959184
1225	2     	0.959184	0        	0.959184	0.959184
1226	2     	0.959184	0        	0.959184	0.959184
1227	2     	0.959184	0        	0.959184	0.959184
1228	2     	0.959184	0        	0.959184	0.959184
1229	2     	0.959184	0        	0.959184	0.959184
1230	2     	0.959184	0        	0.959184	0.959184
1231	2     	0.959184	0        	0.959184	0.959184
1232	2     	0.959184	0        	0.959184	0.959184
1233	2     	0.959184	0        	0.959184	0.959184
1234	2     	0.959184	0        	0.959184	0.959184
1235	2     	0.959184	0        	0.959184	0.959184
1236	2     	0.959184	0        	0.959184	0.959184
1237	2     	0.959184	0        	0.959184	0.959184
1238	2     	0.959184	0        	0.959184	0.959184
1239	2     	0.959184	0        	0.959184	0.959184
1240	2     	0.959184	0        	0.959184	0.959184
1241	2     	0.959184	0        	0.959184	0.959184
1242	2     	0.959184	0        	0.959184	0.959184
1243	2     	0.959184	0        	0.959184	0.959184
1244	2     	0.959184	0        	0.959184	0.959184
1245	2     	0.959184	0        	0.959184	0.959184
1246	2     	0.959184	0        	0.959184	0.959184
1247	2     	0.959184	0        	0.959184	0.959184
1248	2     	0.959184	0        	0.959184	0.959184
1249	2     	0.959184	0        	0.959184	0.959184
1250	2     	0.959184	0        	0.959184	0.959184
1251	2     	0.959184	0        	0.959184	0.959184
1252	2     	0.959184	0        	0.959184	0.959184
1253	2     	0.959184	0        	0.959184	0.959184
1254	2     	0.959184	0        	0.959184	0.959184
1255	2     	0.959184	0        	0.959184	0.959184
1256	2     	0.959184	0        	0.959184	0.959184
1257	2     	0.959184	0        	0.959184	0.959184
1258	2     	0.959184	0        	0.959184	0.959184
1259	2     	0.959184	0        	0.959184	0.959184
1260	2     	0.959184	0        	0.959184	0.959184
1261	2     	0.959184	0        	0.959184	0.959184
1262	2     	0.959184	0        	0.959184	0.959184
1263	2     	0.959184	0        	0.959184	0.959184
1264	2     	0.959184	0        	0.959184	0.959184
1265	2     	0.959184	0        	0.959184	0.959184
1266	2     	0.959184	0        	0.959184	0.959184
1267	2     	0.959184	0        	0.959184	0.959184
1268	2     	0.959184	0        	0.959184	0.959184
1269	2     	0.959184	0        	0.959184	0.959184
1270	2     	0.959184	0        	0.959184	0.959184
1271	2     	0.959184	0        	0.959184	0.959184
1272	2     	0.959184	0        	0.959184	0.959184
1273	2     	0.959184	0        	0.959184	0.959184
1274	2     	0.959184	0        	0.959184	0.959184
1275	2     	0.959184	0        	0.959184	0.959184
1276	2     	0.959184	0        	0.959184	0.959184
1277	2     	0.959184	0        	0.959184	0.959184
1278	2     	0.959184	0        	0.959184	0.959184
1279	2     	0.959184	0        	0.959184	0.959184
1280	2     	0.959184	0        	0.959184	0.959184
1281	2     	0.959184	0        	0.959184	0.959184
1282	2     	0.959184	0        	0.959184	0.959184
1283	2     	0.959184	0        	0.959184	0.959184
1284	2     	0.959184	0        	0.959184	0.959184
1285	2     	0.959184	0        	0.959184	0.959184
1286	2     	0.959184	0        	0.959184	0.959184
1287	2     	0.959184	0        	0.959184	0.959184
1288	2     	0.959184	0        	0.959184	0.959184
1289	2     	0.959184	0        	0.959184	0.959184
1290	2     	0.959184	0        	0.959184	0.959184
1291	2     	0.959184	0        	0.959184	0.959184
1292	2     	0.959184	0        	0.959184	0.959184
1293	2     	0.959184	0        	0.959184	0.959184
1294	2     	0.959184	0        	0.959184	0.959184
1295	2     	0.959184	0        	0.959184	0.959184
1296	2     	0.959184	0        	0.959184	0.959184
1297	2     	0.959184	0        	0.959184	0.959184
1298	2     	0.959184	0        	0.959184	0.959184
1299	2     	0.959184	0        	0.959184	0.959184
1300	2     	0.959184	0        	0.959184	0.959184
1301	2     	0.959184	0        	0.959184	0.959184
1302	2     	0.959184	0        	0.959184	0.959184
1303	2     	0.959184	0        	0.959184	0.959184
1304	2     	0.959184	0        	0.959184	0.959184
1305	2     	0.959184	0        	0.959184	0.959184
1306	2     	0.959184	0        	0.959184	0.959184
1307	2     	0.959184	0        	0.959184	0.959184
1308	2     	0.959184	0        	0.959184	0.959184
1309	2     	0.959184	0        	0.959184	0.959184
1310	2     	0.959184	0        	0.959184	0.959184
1311	2     	0.959184	0        	0.959184	0.959184
1312	2     	0.959184	0        	0.959184	0.959184
1313	2     	0.959184	0        	0.959184	0.959184
1314	2     	0.959184	0        	0.959184	0.959184
1315	2     	0.959184	0        	0.959184	0.959184
1316	2     	0.959184	0        	0.959184	0.959184
1317	2     	0.959184	0        	0.959184	0.959184
1318	2     	0.959184	0        	0.959184	0.959184
1319	2     	0.959184	0        	0.959184	0.959184
1320	2     	0.959184	0        	0.959184	0.959184
1321	2     	0.959184	0        	0.959184	0.959184
1322	2     	0.959184	0        	0.959184	0.959184
1323	2     	0.959184	0        	0.959184	0.959184
1324	2     	0.959184	0        	0.959184	0.959184
1325	2     	0.959184	0        	0.959184	0.959184
1326	2     	0.959184	0        	0.959184	0.959184
1327	2     	0.959184	0        	0.959184	0.959184
1328	2     	0.959184	0        	0.959184	0.959184
1329	2     	0.959184	0        	0.959184	0.959184
1330	2     	0.959184	0        	0.959184	0.959184
1331	2     	0.959184	0        	0.959184	0.959184
1332	2     	0.959184	0        	0.959184	0.959184
1333	2     	0.959184	0        	0.959184	0.959184
1334	2     	0.959184	0        	0.959184	0.959184
1335	2     	0.959184	0        	0.959184	0.959184
1336	2     	0.959184	0        	0.959184	0.959184
1337	2     	0.959184	0        	0.959184	0.959184
1338	2     	0.959184	0        	0.959184	0.959184
1339	2     	0.959184	0        	0.959184	0.959184
1340	2     	0.959184	0        	0.959184	0.959184
1341	2     	0.959184	0        	0.959184	0.959184
1342	2     	0.959184	0        	0.959184	0.959184
1343	2     	0.959184	0        	0.959184	0.959184
1344	2     	0.959184	0        	0.959184	0.959184
1345	2     	0.959184	0        	0.959184	0.959184
1346	2     	0.959184	0        	0.959184	0.959184
1347	2     	0.959184	0        	0.959184	0.959184
1348	2     	0.959184	0        	0.959184	0.959184
1349	2     	0.959184	0        	0.959184	0.959184
1350	2     	0.959184	0        	0.959184	0.959184
1351	2     	0.959184	0        	0.959184	0.959184
1352	2     	0.959184	0        	0.959184	0.959184
1353	2     	0.959184	0        	0.959184	0.959184
1354	2     	0.959184	0        	0.959184	0.959184
1355	2     	0.959184	0        	0.959184	0.959184
1356	2     	0.959184	0        	0.959184	0.959184
1357	2     	0.959184	0        	0.959184	0.959184
1358	2     	0.959184	0        	0.959184	0.959184
1359	2     	0.959184	0        	0.959184	0.959184
1360	2     	0.959184	0        	0.959184	0.959184
1361	2     	0.959184	0        	0.959184	0.959184
1362	2     	0.959184	0        	0.959184	0.959184
1363	2     	0.959184	0        	0.959184	0.959184
1364	2     	0.959184	0        	0.959184	0.959184
1365	2     	0.959184	0        	0.959184	0.959184
1366	2     	0.959184	0        	0.959184	0.959184
1367	2     	0.959184	0        	0.959184	0.959184
1368	2     	0.959184	0        	0.959184	0.959184
1369	2     	0.959184	0        	0.959184	0.959184
1370	2     	0.959184	0        	0.959184	0.959184
1371	2     	0.959184	0        	0.959184	0.959184
1372	2     	0.959184	0        	0.959184	0.959184
1373	2     	0.959184	0        	0.959184	0.959184
1374	2     	0.959184	0        	0.959184	0.959184
1375	2     	0.959184	0        	0.959184	0.959184
1376	2     	0.959184	0        	0.959184	0.959184
1377	2     	0.959184	0        	0.959184	0.959184
1378	2     	0.959184	0        	0.959184	0.959184
1379	2     	0.959184	0        	0.959184	0.959184
1380	2     	0.959184	0        	0.959184	0.959184
1381	2     	0.959184	0        	0.959184	0.959184
1382	2     	0.959184	0        	0.959184	0.959184
1383	2     	0.959184	0        	0.959184	0.959184
1384	2     	0.959184	0        	0.959184	0.959184
1385	2     	0.959184	0        	0.959184	0.959184
1386	2     	0.959184	0        	0.959184	0.959184
1387	2     	0.959184	0        	0.959184	0.959184
1388	2     	0.959184	0        	0.959184	0.959184
1389	2     	0.959184	0        	0.959184	0.959184
1390	2     	0.959184	0        	0.959184	0.959184
1391	2     	0.959184	0        	0.959184	0.959184
1392	2     	0.959184	0        	0.959184	0.959184
1393	2     	0.959184	0        	0.959184	0.959184
1394	2     	0.959184	0        	0.959184	0.959184
1395	2     	0.959184	0        	0.959184	0.959184
1396	2     	0.959184	0        	0.959184	0.959184
1397	2     	0.959184	0        	0.959184	0.959184
1398	2     	0.959184	0        	0.959184	0.959184
1399	2     	0.959184	0        	0.959184	0.959184
1400	2     	0.959184	0        	0.959184	0.959184
1401	2     	0.959184	0        	0.959184	0.959184
1402	2     	0.959184	0        	0.959184	0.959184
1403	2     	0.959184	0        	0.959184	0.959184
1404	2     	0.959184	0        	0.959184	0.959184
1405	2     	0.959184	0        	0.959184	0.959184
1406	2     	0.959184	0        	0.959184	0.959184
1407	2     	0.959184	0        	0.959184	0.959184
1408	2     	0.959184	0        	0.959184	0.959184
1409	2     	0.959184	0        	0.959184	0.959184
1410	2     	0.959184	0        	0.959184	0.959184
1411	2     	0.959184	0        	0.959184	0.959184
1412	2     	0.959184	0        	0.959184	0.959184
1413	2     	0.959184	0        	0.959184	0.959184
1414	2     	0.959184	0        	0.959184	0.959184
1415	2     	0.959184	0        	0.959184	0.959184
1416	2     	0.959184	0        	0.959184	0.959184
1417	2     	0.959184	0        	0.959184	0.959184
1418	2     	0.959184	0        	0.959184	0.959184
1419	2     	0.959184	0        	0.959184	0.959184
1420	2     	0.959184	0        	0.959184	0.959184
1421	2     	0.959184	0        	0.959184	0.959184
1422	2     	0.959184	0        	0.959184	0.959184
1423	2     	0.959184	0        	0.959184	0.959184
1424	2     	0.959184	0        	0.959184	0.959184
1425	2     	0.959184	0        	0.959184	0.959184
1426	2     	0.959184	0        	0.959184	0.959184
1427	2     	0.959184	0        	0.959184	0.959184
1428	2     	0.959184	0        	0.959184	0.959184
1429	2     	0.959184	0        	0.959184	0.959184
1430	2     	0.959184	0        	0.959184	0.959184
1431	2     	0.959184	0        	0.959184	0.959184
1432	2     	0.959184	0        	0.959184	0.959184
1433	2     	0.959184	0        	0.959184	0.959184
1434	2     	0.959184	0        	0.959184	0.959184
1435	2     	0.959184	0        	0.959184	0.959184
1436	2     	0.959184	0        	0.959184	0.959184
1437	2     	0.959184	0        	0.959184	0.959184
1438	2     	0.959184	0        	0.959184	0.959184
1439	2     	0.959184	0        	0.959184	0.959184
1440	2     	0.959184	0        	0.959184	0.959184
1441	2     	0.959184	0        	0.959184	0.959184
1442	2     	0.959184	0        	0.959184	0.959184
1443	2     	0.959184	0        	0.959184	0.959184
1444	2     	0.959184	0        	0.959184	0.959184
1445	2     	0.959184	0        	0.959184	0.959184
1446	2     	0.959184	0        	0.959184	0.959184
1447	2     	0.959184	0        	0.959184	0.959184
1448	2     	0.959184	0        	0.959184	0.959184
1449	2     	0.959184	0        	0.959184	0.959184
1450	2     	0.959184	0        	0.959184	0.959184
1451	2     	0.959184	0        	0.959184	0.959184
1452	2     	0.959184	0        	0.959184	0.959184
1453	2     	0.959184	0        	0.959184	0.959184
1454	2     	0.959184	0        	0.959184	0.959184
1455	2     	0.959184	0        	0.959184	0.959184
1456	2     	0.959184	0        	0.959184	0.959184
1457	2     	0.959184	0        	0.959184	0.959184
1458	2     	0.959184	0        	0.959184	0.959184
1459	2     	0.959184	0        	0.959184	0.959184
1460	2     	0.959184	0        	0.959184	0.959184
1461	2     	0.959184	0        	0.959184	0.959184
1462	2     	0.959184	0        	0.959184	0.959184
1463	2     	0.959184	0        	0.959184	0.959184
1464	2     	0.959184	0        	0.959184	0.959184
1465	2     	0.959184	0        	0.959184	0.959184
1466	2     	0.959184	0        	0.959184	0.959184
1467	2     	0.959184	0        	0.959184	0.959184
1468	2     	0.959184	0        	0.959184	0.959184
1469	2     	0.959184	0        	0.959184	0.959184
1470	2     	0.959184	0        	0.959184	0.959184
1471	2     	0.959184	0        	0.959184	0.959184
1472	2     	0.959184	0        	0.959184	0.959184
1473	2     	0.959184	0        	0.959184	0.959184
1474	2     	0.959184	0        	0.959184	0.959184
1475	2     	0.959184	0        	0.959184	0.959184
1476	2     	0.959184	0        	0.959184	0.959184
1477	2     	0.959184	0        	0.959184	0.959184
1478	2     	0.959184	0        	0.959184	0.959184
1479	2     	0.959184	0        	0.959184	0.959184
1480	2     	0.959184	0        	0.959184	0.959184
1481	2     	0.959184	0        	0.959184	0.959184
1482	2     	0.959184	0        	0.959184	0.959184
1483	2     	0.959184	0        	0.959184	0.959184
1484	2     	0.959184	0        	0.959184	0.959184
1485	2     	0.959184	0        	0.959184	0.959184
1486	2     	0.959184	0        	0.959184	0.959184
1487	2     	0.959184	0        	0.959184	0.959184
1488	2     	0.959184	0        	0.959184	0.959184
1489	2     	0.959184	0        	0.959184	0.959184
1490	2     	0.959184	0        	0.959184	0.959184
1491	2     	0.959184	0        	0.959184	0.959184
1492	2     	0.959184	0        	0.959184	0.959184
1493	2     	0.959184	0        	0.959184	0.959184
1494	2     	0.959184	0        	0.959184	0.959184
1495	2     	0.959184	0        	0.959184	0.959184
1496	2     	0.959184	0        	0.959184	0.959184
1497	2     	0.959184	0        	0.959184	0.959184
1498	2     	0.959184	0        	0.959184	0.959184
1499	2     	0.959184	0        	0.959184	0.959184
1500	2     	0.959184	0        	0.959184	0.959184
1501	2     	0.959184	0        	0.959184	0.959184
1502	2     	0.959184	0        	0.959184	0.959184
1503	2     	0.959184	0        	0.959184	0.959184
1504	2     	0.959184	0        	0.959184	0.959184
1505	2     	0.959184	0        	0.959184	0.959184
1506	2     	0.959184	0        	0.959184	0.959184
1507	2     	0.959184	0        	0.959184	0.959184
1508	2     	0.959184	0        	0.959184	0.959184
1509	2     	0.959184	0        	0.959184	0.959184
1510	2     	0.959184	0        	0.959184	0.959184
1511	2     	0.959184	0        	0.959184	0.959184
1512	2     	0.959184	0        	0.959184	0.959184
1513	2     	0.959184	0        	0.959184	0.959184
1514	2     	0.959184	0        	0.959184	0.959184
1515	2     	0.959184	0        	0.959184	0.959184
1516	2     	0.959184	0        	0.959184	0.959184
1517	2     	0.959184	0        	0.959184	0.959184
1518	2     	0.959184	0        	0.959184	0.959184
1519	2     	0.959184	0        	0.959184	0.959184
1520	2     	0.959184	0        	0.959184	0.959184
1521	2     	0.959184	0        	0.959184	0.959184
1522	2     	0.959184	0        	0.959184	0.959184
1523	2     	0.959184	0        	0.959184	0.959184
1524	2     	0.959184	0        	0.959184	0.959184
1525	2     	0.959184	0        	0.959184	0.959184
1526	2     	0.959184	0        	0.959184	0.959184
1527	2     	0.959184	0        	0.959184	0.959184
1528	2     	0.959184	0        	0.959184	0.959184
1529	2     	0.959184	0        	0.959184	0.959184
1530	2     	0.959184	0        	0.959184	0.959184
1531	2     	0.959184	0        	0.959184	0.959184
1532	2     	0.959184	0        	0.959184	0.959184
1533	2     	0.959184	0        	0.959184	0.959184
1534	2     	0.959184	0        	0.959184	0.959184
1535	2     	0.959184	0        	0.959184	0.959184
1536	2     	0.959184	0        	0.959184	0.959184
1537	2     	0.959184	0        	0.959184	0.959184
1538	2     	0.959184	0        	0.959184	0.959184
1539	2     	0.959184	0        	0.959184	0.959184
1540	2     	0.959184	0        	0.959184	0.959184
1541	2     	0.959184	0        	0.959184	0.959184
1542	2     	0.959184	0        	0.959184	0.959184
1543	2     	0.959184	0        	0.959184	0.959184
1544	2     	0.959184	0        	0.959184	0.959184
1545	2     	0.959184	0        	0.959184	0.959184
1546	2     	0.959184	0        	0.959184	0.959184
1547	2     	0.959184	0        	0.959184	0.959184
1548	2     	0.959184	0        	0.959184	0.959184
1549	2     	0.959184	0        	0.959184	0.959184
1550	2     	0.959184	0        	0.959184	0.959184
1551	2     	0.959184	0        	0.959184	0.959184
1552	2     	0.959184	0        	0.959184	0.959184
1553	2     	0.959184	0        	0.959184	0.959184
1554	2     	0.959184	0        	0.959184	0.959184
1555	2     	0.959184	0        	0.959184	0.959184
1556	2     	0.959184	0        	0.959184	0.959184
1557	2     	0.959184	0        	0.959184	0.959184
1558	2     	0.959184	0        	0.959184	0.959184
1559	2     	0.959184	0        	0.959184	0.959184
1560	2     	0.959184	0        	0.959184	0.959184
1561	2     	0.959184	0        	0.959184	0.959184
1562	2     	0.959184	0        	0.959184	0.959184
1563	2     	0.959184	0        	0.959184	0.959184
1564	2     	0.959184	0        	0.959184	0.959184
1565	2     	0.959184	0        	0.959184	0.959184
1566	2     	0.959184	0        	0.959184	0.959184
1567	2     	0.959184	0        	0.959184	0.959184
1568	2     	0.959184	0        	0.959184	0.959184
1569	2     	0.959184	0        	0.959184	0.959184
1570	2     	0.959184	0        	0.959184	0.959184
1571	2     	0.959184	0        	0.959184	0.959184
1572	2     	0.959184	0        	0.959184	0.959184
1573	2     	0.959184	0        	0.959184	0.959184
1574	2     	0.959184	0        	0.959184	0.959184
1575	2     	0.959184	0        	0.959184	0.959184
1576	2     	0.959184	0        	0.959184	0.959184
1577	2     	0.959184	0        	0.959184	0.959184
1578	2     	0.959184	0        	0.959184	0.959184
1579	2     	0.959184	0        	0.959184	0.959184
1580	2     	0.959184	0        	0.959184	0.959184
1581	2     	0.959184	0        	0.959184	0.959184
1582	2     	0.959184	0        	0.959184	0.959184
1583	2     	0.959184	0        	0.959184	0.959184
1584	2     	0.959184	0        	0.959184	0.959184
1585	2     	0.959184	0        	0.959184	0.959184
1586	2     	0.959184	0        	0.959184	0.959184
1587	2     	0.959184	0        	0.959184	0.959184
1588	2     	0.959184	0        	0.959184	0.959184
1589	2     	0.959184	0        	0.959184	0.959184
1590	2     	0.959184	0        	0.959184	0.959184
1591	2     	0.959184	0        	0.959184	0.959184
1592	2     	0.959184	0        	0.959184	0.959184
1593	2     	0.959184	0        	0.959184	0.959184
1594	2     	0.959184	0        	0.959184	0.959184
1595	2     	0.959184	0        	0.959184	0.959184
1596	2     	0.959184	0        	0.959184	0.959184
1597	2     	0.959184	0        	0.959184	0.959184
1598	2     	0.959184	0        	0.959184	0.959184
1599	2     	0.959184	0        	0.959184	0.959184
1600	2     	0.959184	0        	0.959184	0.959184
1601	2     	0.959184	0        	0.959184	0.959184
1602	2     	0.959184	0        	0.959184	0.959184
1603	2     	0.959184	0        	0.959184	0.959184
1604	2     	0.959184	0        	0.959184	0.959184
1605	2     	0.959184	0        	0.959184	0.959184
1606	2     	0.959184	0        	0.959184	0.959184
1607	2     	0.959184	0        	0.959184	0.959184
1608	2     	0.959184	0        	0.959184	0.959184
1609	2     	0.959184	0        	0.959184	0.959184
1610	2     	0.959184	0        	0.959184	0.959184
1611	2     	0.959184	0        	0.959184	0.959184
1612	2     	0.959184	0        	0.959184	0.959184
1613	2     	0.959184	0        	0.959184	0.959184
1614	2     	0.959184	0        	0.959184	0.959184
1615	2     	0.959184	0        	0.959184	0.959184
1616	2     	0.959184	0        	0.959184	0.959184
1617	2     	0.959184	0        	0.959184	0.959184
1618	2     	0.959184	0        	0.959184	0.959184
1619	2     	0.959184	0        	0.959184	0.959184
1620	2     	0.959184	0        	0.959184	0.959184
1621	2     	0.959184	0        	0.959184	0.959184
1622	2     	0.959184	0        	0.959184	0.959184
1623	2     	0.959184	0        	0.959184	0.959184
1624	2     	0.959184	0        	0.959184	0.959184
1625	2     	0.959184	0        	0.959184	0.959184
1626	2     	0.959184	0        	0.959184	0.959184
1627	2     	0.959184	0        	0.959184	0.959184
1628	2     	0.959184	0        	0.959184	0.959184
1629	2     	0.959184	0        	0.959184	0.959184
1630	2     	0.959184	0        	0.959184	0.959184
1631	2     	0.959184	0        	0.959184	0.959184
1632	2     	0.959184	0        	0.959184	0.959184
1633	2     	0.959184	0        	0.959184	0.959184
1634	2     	0.959184	0        	0.959184	0.959184
1635	2     	0.959184	0        	0.959184	0.959184
1636	2     	0.959184	0        	0.959184	0.959184
1637	2     	0.959184	0        	0.959184	0.959184
1638	2     	0.959184	0        	0.959184	0.959184
1639	2     	0.969388	0.0102041	0.959184	0.979592
1640	2     	0.969388	0.0102041	0.959184	0.979592
1641	2     	0.969388	0.0102041	0.959184	0.979592
1642	2     	0.969388	0.0102041	0.959184	0.979592
1643	2     	0.969388	0.0102041	0.959184	0.979592
1644	2     	0.969388	0.0102041	0.959184	0.979592
1645	2     	0.969388	0.0102041	0.959184	0.979592
1646	2     	0.969388	0.0102041	0.959184	0.979592
1647	2     	0.969388	0.0102041	0.959184	0.979592
1648	2     	0.969388	0.0102041	0.959184	0.979592
1649	2     	0.969388	0.0102041	0.959184	0.979592
1650	2     	0.969388	0.0102041	0.959184	0.979592
1651	2     	0.969388	0.0102041	0.959184	0.979592
1652	2     	0.969388	0.0102041	0.959184	0.979592
1653	2     	0.969388	0.0102041	0.959184	0.979592
1654	2     	0.969388	0.0102041	0.959184	0.979592
1655	2     	0.969388	0.0102041	0.959184	0.979592
1656	2     	0.969388	0.0102041	0.959184	0.979592
1657	2     	0.969388	0.0102041	0.959184	0.979592
1658	2     	0.969388	0.0102041	0.959184	0.979592
1659	2     	0.969388	0.0102041	0.959184	0.979592
1660	2     	0.969388	0.0102041	0.959184	0.979592
1661	2     	0.969388	0.0102041	0.959184	0.979592
1662	2     	0.969388	0.0102041	0.959184	0.979592
1663	2     	0.969388	0.0102041	0.959184	0.979592
1664	2     	0.969388	0.0102041	0.959184	0.979592
1665	2     	0.969388	0.0102041	0.959184	0.979592
1666	2     	0.969388	0.0102041	0.959184	0.979592
1667	2     	0.969388	0.0102041	0.959184	0.979592
1668	2     	0.969388	0.0102041	0.959184	0.979592
1669	2     	0.969388	0.0102041	0.959184	0.979592
1670	2     	0.969388	0.0102041	0.959184	0.979592
1671	2     	0.969388	0.0102041	0.959184	0.979592
1672	2     	0.969388	0.0102041	0.959184	0.979592
1673	2     	0.969388	0.0102041	0.959184	0.979592
1674	2     	0.969388	0.0102041	0.959184	0.979592
1675	2     	0.969388	0.0102041	0.959184	0.979592
1676	2     	0.969388	0.0102041	0.959184	0.979592
1677	2     	0.969388	0.0102041	0.959184	0.979592
1678	2     	0.969388	0.0102041	0.959184	0.979592
1679	2     	0.969388	0.0102041	0.959184	0.979592
1680	2     	0.979592	0        	0.979592	0.979592
1681	2     	0.979592	0        	0.979592	0.979592
1682	2     	0.979592	0        	0.979592	0.979592
1683	2     	0.979592	0        	0.979592	0.979592
1684	2     	0.979592	0        	0.979592	0.979592
1685	2     	0.979592	0        	0.979592	0.979592
1686	2     	0.979592	0        	0.979592	0.979592
1687	2     	0.979592	0        	0.979592	0.979592
1688	2     	0.979592	0        	0.979592	0.979592
1689	2     	0.979592	0        	0.979592	0.979592
1690	2     	0.979592	0        	0.979592	0.979592
1691	2     	0.979592	0        	0.979592	0.979592
1692	2     	0.979592	0        	0.979592	0.979592
1693	2     	0.979592	0        	0.979592	0.979592
1694	2     	0.979592	0        	0.979592	0.979592
1695	2     	0.979592	0        	0.979592	0.979592
1696	2     	0.979592	0        	0.979592	0.979592
1697	2     	0.979592	0        	0.979592	0.979592
1698	2     	0.979592	0        	0.979592	0.979592
1699	2     	0.979592	0        	0.979592	0.979592
1700	2     	0.979592	0        	0.979592	0.979592
1701	2     	0.979592	0        	0.979592	0.979592
1702	2     	0.979592	0        	0.979592	0.979592
1703	2     	0.979592	0        	0.979592	0.979592
1704	2     	0.979592	0        	0.979592	0.979592
1705	2     	0.979592	0        	0.979592	0.979592
1706	2     	0.979592	0        	0.979592	0.979592
1707	2     	0.979592	0        	0.979592	0.979592
1708	2     	0.979592	0        	0.979592	0.979592
1709	2     	0.979592	0        	0.979592	0.979592
1710	2     	0.979592	0        	0.979592	0.979592