gen	nevals	avg     	std      	min     	max     
0  	2     	0.611111	0.0833333	0.527778	0.694444
1  	2     	0.666667	0.0277778	0.638889	0.694444
2  	2     	0.666667	0.0277778	0.638889	0.694444
3  	2     	0.694444	0        	0.694444	0.694444
4  	2     	0.694444	0        	0.694444	0.694444
5  	2     	0.694444	0        	0.694444	0.694444
6  	2     	0.694444	0        	0.694444	0.694444
7  	2     	0.694444	0        	0.694444	0.694444
8  	2     	0.694444	0        	0.694444	0.694444
9  	2     	0.694444	0        	0.694444	0.694444
10 	2     	0.694444	0        	0.694444	0.694444
11 	2     	0.694444	0        	0.694444	0.694444
12 	2     	0.694444	0        	0.694444	0.694444
13 	2     	0.694444	0        	0.694444	0.694444
14 	2     	0.708333	0.0138889	0.694444	0.722222
15 	2     	0.736111	0.0138889	0.722222	0.75    
16 	2     	0.736111	0.0138889	0.722222	0.75    
17 	2     	0.791667	0.0416667	0.75    	0.833333
18 	2     	0.833333	0        	0.833333	0.833333
19 	2     	0.833333	0        	0.833333	0.833333
20 	2     	0.833333	0        	0.833333	0.833333
21 	2     	0.833333	0        	0.833333	0.833333
22 	2     	0.833333	0        	0.833333	0.833333
23 	2     	0.833333	0        	0.833333	0.833333
24 	2     	0.833333	0        	0.833333	0.833333
25 	2     	0.833333	0        	0.833333	0.833333
26 	2     	0.833333	0        	0.833333	0.833333
27 	2     	0.833333	0        	0.833333	0.833333
28 	2     	0.833333	0        	0.833333	0.833333
29 	2     	0.833333	0        	0.833333	0.833333
30 	2     	0.833333	0        	0.833333	0.833333
31 	2     	0.833333	0        	0.833333	0.833333
32 	2     	0.833333	0        	0.833333	0.833333
33 	2     	0.833333	0        	0.833333	0.833333
34 	2     	0.833333	0        	0.833333	0.833333
35 	2     	0.833333	0        	0.833333	0.833333
36 	2     	0.833333	0        	0.833333	0.833333
37 	2     	0.833333	0        	0.833333	0.833333
38 	2     	0.833333	0        	0.833333	0.833333
39 	2     	0.833333	0        	0.833333	0.833333
40 	2     	0.833333	0        	0.833333	0.833333
41 	2     	0.833333	0        	0.833333	0.833333
42 	2     	0.833333	0        	0.833333	0.833333
43 	2     	0.833333	0        	0.833333	0.833333
44 	2     	0.833333	0        	0.833333	0.833333
45 	2     	0.833333	0        	0.833333	0.833333
46 	2     	0.833333	0        	0.833333	0.833333
47 	2     	0.833333	0        	0.833333	0.833333
48 	2     	0.833333	0        	0.833333	0.833333
49 	2     	0.833333	0        	0.833333	0.833333
50 	2     	0.833333	0        	0.833333	0.833333
51 	2     	0.833333	0        	0.833333	0.833333
52 	2     	0.833333	0        	0.833333	0.833333
53 	2     	0.833333	0        	0.833333	0.833333
54 	2     	0.833333	0        	0.833333	0.833333
55 	2     	0.833333	0        	0.833333	0.833333
56 	2     	0.847222	0.0138889	0.833333	0.861111
57 	2     	0.847222	0.0138889	0.833333	0.861111
58 	2     	0.847222	0.0138889	0.833333	0.861111
59 	2     	0.847222	0.0138889	0.833333	0.861111
60 	2     	0.847222	0.0138889	0.833333	0.861111
61 	2     	0.847222	0.0138889	0.833333	0.861111
62 	2     	0.847222	0.0138889	0.833333	0.861111
63 	2     	0.847222	0.0138889	0.833333	0.861111
64 	2     	0.847222	0.0138889	0.833333	0.861111
65 	2     	0.847222	0.0138889	0.833333	0.861111
66 	2     	0.847222	0.0138889	0.833333	0.861111
67 	2     	0.847222	0.0138889	0.833333	0.861111
68 	2     	0.861111	0        	0.861111	0.861111
69 	2     	0.861111	0        	0.861111	0.861111
70 	2     	0.861111	0        	0.861111	0.861111
71 	2     	0.861111	0        	0.861111	0.861111
72 	2     	0.861111	0        	0.861111	0.861111
73 	2     	0.861111	0        	0.861111	0.861111
74 	2     	0.861111	0        	0.861111	0.861111
75 	2     	0.861111	0        	0.861111	0.861111
76 	2     	0.861111	0        	0.861111	0.861111
77 	2     	0.861111	0        	0.861111	0.861111
78 	2     	0.861111	0        	0.861111	0.861111
79 	2     	0.861111	0        	0.861111	0.861111
80 	2     	0.861111	0        	0.861111	0.861111
81 	2     	0.861111	0        	0.861111	0.861111
82 	2     	0.861111	0        	0.861111	0.861111
83 	2     	0.861111	0        	0.861111	0.861111
84 	2     	0.861111	0        	0.861111	0.861111
85 	2     	0.861111	0        	0.861111	0.861111
86 	2     	0.861111	0        	0.861111	0.861111
87 	2     	0.861111	0        	0.861111	0.861111
88 	2     	0.861111	0        	0.861111	0.861111
89 	2     	0.861111	0        	0.861111	0.861111
90 	2     	0.861111	0        	0.861111	0.861111
91 	2     	0.861111	0        	0.861111	0.861111
92 	2     	0.861111	0        	0.861111	0.861111
93 	2     	0.861111	0        	0.861111	0.861111
94 	2     	0.861111	0        	0.861111	0.861111
95 	2     	0.861111	0        	0.861111	0.861111
96 	2     	0.861111	0        	0.861111	0.861111
97 	2     	0.861111	0        	0.861111	0.861111
98 	2     	0.861111	0        	0.861111	0.861111
99 	2     	0.861111	0        	0.861111	0.861111
100	2     	0.861111	0        	0.861111	0.861111
101	2     	0.861111	0        	0.861111	0.861111
102	2     	0.861111	0        	0.861111	0.861111
103	2     	0.875   	0.0138889	0.861111	0.888889
104	2     	0.875   	0.0138889	0.861111	0.888889
105	2     	0.875   	0.0138889	0.861111	0.888889
106	2     	0.875   	0.0138889	0.861111	0.888889
107	2     	0.875   	0.0138889	0.861111	0.888889
108	2     	0.875   	0.0138889	0.861111	0.888889
109	2     	0.875   	0.0138889	0.861111	0.888889
110	2     	0.875   	0.0138889	0.861111	0.888889
111	2     	0.888889	0        	0.888889	0.888889
112	2     	0.888889	0        	0.888889	0.888889