gen	nevals	avg 	std 	min 	max 
0  	2     	0.48	0.04	0.44	0.52
1  	2     	0.56	0.04	0.52	0.6 
2  	2     	0.56	0.04	0.52	0.6 
3  	2     	0.58	0.02	0.56	0.6 
4  	2     	0.6 	0   	0.6 	0.6 
5  	2     	0.6 	0   	0.6 	0.6 
6  	2     	0.6 	0   	0.6 	0.6 
7  	2     	0.6 	0   	0.6 	0.6 
8  	2     	0.64	0.04	0.6 	0.68
9  	2     	0.7 	0.02	0.68	0.72
10 	2     	0.7 	0.02	0.68	0.72
11 	2     	0.7 	0.02	0.68	0.72
12 	2     	0.7 	0.02	0.68	0.72
13 	2     	0.74	0.02	0.72	0.76
14 	2     	0.78	0.02	0.76	0.8 
15 	2     	0.78	0.02	0.76	0.8 
16 	2     	0.78	0.02	0.76	0.8 
17 	2     	0.78	0.02	0.76	0.8 
18 	2     	0.78	0.02	0.76	0.8 
19 	2     	0.78	0.02	0.76	0.8 
20 	2     	0.82	0.02	0.8 	0.84
21 	2     	0.82	0.02	0.8 	0.84
22 	2     	0.82	0.02	0.8 	0.84
23 	2     	0.82	0.02	0.8 	0.84
24 	2     	0.82	0.02	0.8 	0.84
25 	2     	0.84	0   	0.84	0.84
26 	2     	0.84	0   	0.84	0.84
27 	2     	0.84	0   	0.84	0.84
28 	2     	0.84	0   	0.84	0.84
29 	2     	0.84	0   	0.84	0.84
30 	2     	0.84	0   	0.84	0.84
31 	2     	0.84	0   	0.84	0.84
32 	2     	0.84	0   	0.84	0.84
33 	2     	0.84	0   	0.84	0.84
34 	2     	0.84	0   	0.84	0.84
35 	2     	0.84	0   	0.84	0.84
36 	2     	0.84	0   	0.84	0.84
37 	2     	0.84	0   	0.84	0.84
38 	2     	0.84	0   	0.84	0.84
39 	2     	0.84	0   	0.84	0.84
40 	2     	0.84	0   	0.84	0.84
41 	2     	0.84	0   	0.84	0.84
42 	2     	0.84	0   	0.84	0.84
43 	2     	0.84	0   	0.84	0.84
44 	2     	0.86	0.02	0.84	0.88
45 	2     	0.86	0.02	0.84	0.88
46 	2     	0.86	0.02	0.84	0.88
47 	2     	0.86	0.02	0.84	0.88
48 	2     	0.86	0.02	0.84	0.88
49 	2     	0.86	0.02	0.84	0.88
50 	2     	0.86	0.02	0.84	0.88
51 	2     	0.88	0   	0.88	0.88
52 	2     	0.88	0   	0.88	0.88
53 	2     	0.88	0   	0.88	0.88
54 	2     	0.88	0   	0.88	0.88
55 	2     	0.88	0   	0.88	0.88
56 	2     	0.88	0   	0.88	0.88
57 	2     	0.88	0   	0.88	0.88
58 	2     	0.88	0   	0.88	0.88
59 	2     	0.88	0   	0.88	0.88
60 	2     	0.88	0   	0.88	0.88
61 	2     	0.88	0   	0.88	0.88
62 	2     	0.88	0   	0.88	0.88
63 	2     	0.88	0   	0.88	0.88
64 	2     	0.88	0   	0.88	0.88
65 	2     	0.88	0   	0.88	0.88
66 	2     	0.88	0   	0.88	0.88
67 	2     	0.88	0   	0.88	0.88
68 	2     	0.88	0   	0.88	0.88
69 	2     	0.88	0   	0.88	0.88
70 	2     	0.88	0   	0.88	0.88
71 	2     	0.9 	0.02	0.88	0.92
72 	2     	0.92	0   	0.92	0.92
73 	2     	0.92	0   	0.92	0.92
74 	2     	0.92	0   	0.92	0.92
75 	2     	0.92	0   	0.92	0.92
76 	2     	0.92	0   	0.92	0.92