gen	nevals	avg 	std 	min 	max 
0  	2     	0.52	0.04	0.48	0.56
1  	2     	0.54	0.02	0.52	0.56
2  	2     	0.56	0   	0.56	0.56
3  	2     	0.62	0.06	0.56	0.68
4  	2     	0.68	0   	0.68	0.68
5  	2     	0.68	0   	0.68	0.68
6  	2     	0.68	0   	0.68	0.68
7  	2     	0.68	0   	0.68	0.68
8  	2     	0.7 	0.02	0.68	0.72
9  	2     	0.78	0.06	0.72	0.84
10 	2     	0.78	0.06	0.72	0.84
11 	2     	0.82	0.02	0.8 	0.84
12 	2     	0.82	0.02	0.8 	0.84
13 	2     	0.82	0.02	0.8 	0.84
14 	2     	0.84	0   	0.84	0.84
15 	2     	0.84	0   	0.84	0.84
16 	2     	0.84	0   	0.84	0.84
17 	2     	0.84	0   	0.84	0.84
18 	2     	0.84	0   	0.84	0.84
19 	2     	0.84	0   	0.84	0.84
20 	2     	0.84	0   	0.84	0.84
21 	2     	0.86	0.02	0.84	0.88
22 	2     	0.86	0.02	0.84	0.88
23 	2     	0.86	0.02	0.84	0.88
24 	2     	0.86	0.02	0.84	0.88
25 	2     	0.86	0.02	0.84	0.88
26 	2     	0.86	0.02	0.84	0.88
27 	2     	0.86	0.02	0.84	0.88
28 	2     	0.86	0.02	0.84	0.88
29 	2     	0.92	0.04	0.88	0.96
30 	2     	0.94	0.02	0.92	0.96
31 	2     	0.96	0   	0.96	0.96
32 	2     	0.96	0   	0.96	0.96
33 	2     	0.96	0   	0.96	0.96
34 	2     	0.96	0   	0.96	0.96
35 	2     	0.96	0   	0.96	0.96
36 	2     	0.96	0   	0.96	0.96
37 	2     	0.96	0   	0.96	0.96
38 	2     	0.96	0   	0.96	0.96