gen	nevals	avg    	std    	min   	max   
0  	2     	0.65625	0.09375	0.5625	0.75  
1  	2     	0.75   	0      	0.75  	0.75  
2  	2     	0.75   	0      	0.75  	0.75  
3  	2     	0.78125	0.03125	0.75  	0.8125
4  	2     	0.78125	0.03125	0.75  	0.8125
5  	2     	0.78125	0.03125	0.75  	0.8125
6  	2     	0.78125	0.03125	0.75  	0.8125
7  	2     	0.78125	0.03125	0.75  	0.8125
8  	2     	0.84375	0.03125	0.8125	0.875 
9  	2     	0.875  	0      	0.875 	0.875 
10 	2     	0.875  	0      	0.875 	0.875 
11 	2     	0.875  	0      	0.875 	0.875 
12 	2     	0.875  	0      	0.875 	0.875 
13 	2     	0.875  	0      	0.875 	0.875 
14 	2     	0.875  	0      	0.875 	0.875 
15 	2     	0.90625	0.03125	0.875 	0.9375
16 	2     	0.90625	0.03125	0.875 	0.9375
17 	2     	0.90625	0.03125	0.875 	0.9375
18 	2     	0.9375 	0      	0.9375	0.9375
19 	2     	0.9375 	0      	0.9375	0.9375
20 	2     	0.9375 	0      	0.9375	0.9375
21 	2     	0.9375 	0      	0.9375	0.9375
22 	2     	0.9375 	0      	0.9375	0.9375
23 	2     	0.9375 	0      	0.9375	0.9375
24 	2     	0.9375 	0      	0.9375	0.9375
25 	2     	0.9375 	0      	0.9375	0.9375
26 	2     	0.9375 	0      	0.9375	0.9375
27 	2     	0.9375 	0      	0.9375	0.9375
28 	2     	0.9375 	0      	0.9375	0.9375