gen	nevals	avg     	std      	min     	max     
0  	2     	0.458333	0.0694444	0.388889	0.527778
1  	2     	0.458333	0.0694444	0.388889	0.527778
2  	2     	0.486111	0.0416667	0.444444	0.527778
3  	2     	0.513889	0.0138889	0.5     	0.527778
4  	2     	0.513889	0.0138889	0.5     	0.527778
5  	2     	0.513889	0.0138889	0.5     	0.527778
6  	2     	0.541667	0.0138889	0.527778	0.555556
7  	2     	0.541667	0.0138889	0.527778	0.555556
8  	2     	0.597222	0.0416667	0.555556	0.638889
9  	2     	0.625   	0.0138889	0.611111	0.638889
10 	2     	0.625   	0.0138889	0.611111	0.638889
11 	2     	0.625   	0.0138889	0.611111	0.638889
12 	2     	0.625   	0.0138889	0.611111	0.638889
13 	2     	0.666667	0.0277778	0.638889	0.694444
14 	2     	0.666667	0.0277778	0.638889	0.694444
15 	2     	0.666667	0.0277778	0.638889	0.694444
16 	2     	0.680556	0.0138889	0.666667	0.694444
17 	2     	0.680556	0.0138889	0.666667	0.694444
18 	2     	0.680556	0.0138889	0.666667	0.694444
19 	2     	0.680556	0.0138889	0.666667	0.694444
20 	2     	0.708333	0.0138889	0.694444	0.722222
21 	2     	0.708333	0.0138889	0.694444	0.722222
22 	2     	0.708333	0.0138889	0.694444	0.722222
23 	2     	0.722222	0        	0.722222	0.722222
24 	2     	0.722222	0        	0.722222	0.722222
25 	2     	0.722222	0        	0.722222	0.722222
26 	2     	0.722222	0        	0.722222	0.722222
27 	2     	0.722222	0        	0.722222	0.722222
28 	2     	0.722222	0        	0.722222	0.722222
29 	2     	0.722222	0        	0.722222	0.722222
30 	2     	0.722222	0        	0.722222	0.722222
31 	2     	0.722222	0        	0.722222	0.722222
32 	2     	0.722222	0        	0.722222	0.722222
33 	2     	0.722222	0        	0.722222	0.722222
34 	2     	0.736111	0.0138889	0.722222	0.75    
35 	2     	0.736111	0.0138889	0.722222	0.75    
36 	2     	0.75    	0        	0.75    	0.75    
37 	2     	0.75    	0        	0.75    	0.75    
38 	2     	0.75    	0        	0.75    	0.75    
39 	2     	0.75    	0        	0.75    	0.75    
40 	2     	0.75    	0        	0.75    	0.75    
41 	2     	0.763889	0.0138889	0.75    	0.777778
42 	2     	0.791667	0.0138889	0.777778	0.805556
43 	2     	0.791667	0.0138889	0.777778	0.805556
44 	2     	0.791667	0.0138889	0.777778	0.805556
45 	2     	0.819444	0.0138889	0.805556	0.833333
46 	2     	0.819444	0.0138889	0.805556	0.833333
47 	2     	0.819444	0.0138889	0.805556	0.833333
48 	2     	0.819444	0.0138889	0.805556	0.833333
49 	2     	0.819444	0.0138889	0.805556	0.833333
50 	2     	0.833333	0        	0.833333	0.833333
51 	2     	0.833333	0        	0.833333	0.833333
52 	2     	0.833333	0        	0.833333	0.833333
53 	2     	0.833333	0        	0.833333	0.833333
54 	2     	0.833333	0        	0.833333	0.833333
55 	2     	0.833333	0        	0.833333	0.833333
56 	2     	0.833333	0        	0.833333	0.833333
57 	2     	0.833333	0        	0.833333	0.833333
58 	2     	0.833333	0        	0.833333	0.833333
59 	2     	0.833333	0        	0.833333	0.833333
60 	2     	0.833333	0        	0.833333	0.833333
61 	2     	0.833333	0        	0.833333	0.833333
62 	2     	0.833333	0        	0.833333	0.833333
63 	2     	0.833333	0        	0.833333	0.833333
64 	2     	0.833333	0        	0.833333	0.833333
65 	2     	0.833333	0        	0.833333	0.833333
66 	2     	0.833333	0        	0.833333	0.833333
67 	2     	0.833333	0        	0.833333	0.833333
68 	2     	0.833333	0        	0.833333	0.833333
69 	2     	0.833333	0        	0.833333	0.833333
70 	2     	0.833333	0        	0.833333	0.833333
71 	2     	0.833333	0        	0.833333	0.833333
72 	2     	0.847222	0.0138889	0.833333	0.861111
73 	2     	0.847222	0.0138889	0.833333	0.861111
74 	2     	0.847222	0.0138889	0.833333	0.861111
75 	2     	0.847222	0.0138889	0.833333	0.861111
76 	2     	0.861111	0        	0.861111	0.861111
77 	2     	0.861111	0        	0.861111	0.861111
78 	2     	0.861111	0        	0.861111	0.861111
79 	2     	0.861111	0        	0.861111	0.861111
80 	2     	0.861111	0        	0.861111	0.861111
81 	2     	0.861111	0        	0.861111	0.861111
82 	2     	0.861111	0        	0.861111	0.861111
83 	2     	0.861111	0        	0.861111	0.861111
84 	2     	0.861111	0        	0.861111	0.861111
85 	2     	0.861111	0        	0.861111	0.861111
86 	2     	0.861111	0        	0.861111	0.861111
87 	2     	0.861111	0        	0.861111	0.861111
88 	2     	0.861111	0        	0.861111	0.861111
89 	2     	0.861111	0        	0.861111	0.861111
90 	2     	0.861111	0        	0.861111	0.861111
91 	2     	0.861111	0        	0.861111	0.861111
92 	2     	0.861111	0        	0.861111	0.861111
93 	2     	0.861111	0        	0.861111	0.861111
94 	2     	0.861111	0        	0.861111	0.861111
95 	2     	0.861111	0        	0.861111	0.861111
96 	2     	0.861111	0        	0.861111	0.861111
97 	2     	0.861111	0        	0.861111	0.861111
98 	2     	0.861111	0        	0.861111	0.861111
99 	2     	0.861111	0        	0.861111	0.861111
100	2     	0.861111	0        	0.861111	0.861111
101	2     	0.861111	0        	0.861111	0.861111
102	2     	0.861111	0        	0.861111	0.861111
103	2     	0.861111	0        	0.861111	0.861111
104	2     	0.861111	0        	0.861111	0.861111
105	2     	0.861111	0        	0.861111	0.861111
106	2     	0.861111	0        	0.861111	0.861111
107	2     	0.861111	0        	0.861111	0.861111
108	2     	0.861111	0        	0.861111	0.861111
109	2     	0.861111	0        	0.861111	0.861111
110	2     	0.861111	0        	0.861111	0.861111
111	2     	0.861111	0        	0.861111	0.861111
112	2     	0.861111	0        	0.861111	0.861111
113	2     	0.861111	0        	0.861111	0.861111
114	2     	0.861111	0        	0.861111	0.861111
115	2     	0.861111	0        	0.861111	0.861111
116	2     	0.861111	0        	0.861111	0.861111
117	2     	0.861111	0        	0.861111	0.861111
118	2     	0.861111	0        	0.861111	0.861111
119	2     	0.861111	0        	0.861111	0.861111
120	2     	0.861111	0        	0.861111	0.861111
121	2     	0.861111	0        	0.861111	0.861111
122	2     	0.861111	0        	0.861111	0.861111
123	2     	0.861111	0        	0.861111	0.861111
124	2     	0.861111	0        	0.861111	0.861111
125	2     	0.861111	0        	0.861111	0.861111
126	2     	0.861111	0        	0.861111	0.861111
127	2     	0.861111	0        	0.861111	0.861111
128	2     	0.861111	0        	0.861111	0.861111
129	2     	0.861111	0        	0.861111	0.861111
130	2     	0.861111	0        	0.861111	0.861111
131	2     	0.861111	0        	0.861111	0.861111
132	2     	0.861111	0        	0.861111	0.861111
133	2     	0.861111	0        	0.861111	0.861111
134	2     	0.861111	0        	0.861111	0.861111
135	2     	0.861111	0        	0.861111	0.861111
136	2     	0.861111	0        	0.861111	0.861111
137	2     	0.861111	0        	0.861111	0.861111
138	2     	0.861111	0        	0.861111	0.861111
139	2     	0.861111	0        	0.861111	0.861111
140	2     	0.861111	0        	0.861111	0.861111
141	2     	0.861111	0        	0.861111	0.861111
142	2     	0.875   	0.0138889	0.861111	0.888889
143	2     	0.875   	0.0138889	0.861111	0.888889
144	2     	0.875   	0.0138889	0.861111	0.888889
145	2     	0.875   	0.0138889	0.861111	0.888889
146	2     	0.875   	0.0138889	0.861111	0.888889
147	2     	0.875   	0.0138889	0.861111	0.888889
148	2     	0.875   	0.0138889	0.861111	0.888889
149	2     	0.875   	0.0138889	0.861111	0.888889
150	2     	0.875   	0.0138889	0.861111	0.888889
151	2     	0.875   	0.0138889	0.861111	0.888889
152	2     	0.875   	0.0138889	0.861111	0.888889
153	2     	0.875   	0.0138889	0.861111	0.888889
154	2     	0.875   	0.0138889	0.861111	0.888889
155	2     	0.875   	0.0138889	0.861111	0.888889
156	2     	0.875   	0.0138889	0.861111	0.888889
157	2     	0.875   	0.0138889	0.861111	0.888889
158	2     	0.875   	0.0138889	0.861111	0.888889
159	2     	0.875   	0.0138889	0.861111	0.888889
160	2     	0.875   	0.0138889	0.861111	0.888889
161	2     	0.875   	0.0138889	0.861111	0.888889
162	2     	0.875   	0.0138889	0.861111	0.888889
163	2     	0.875   	0.0138889	0.861111	0.888889
164	2     	0.875   	0.0138889	0.861111	0.888889
165	2     	0.888889	0        	0.888889	0.888889
166	2     	0.888889	0        	0.888889	0.888889
167	2     	0.888889	0        	0.888889	0.888889
168	2     	0.888889	0        	0.888889	0.888889
169	2     	0.888889	0        	0.888889	0.888889
170	2     	0.888889	0        	0.888889	0.888889
171	2     	0.888889	0        	0.888889	0.888889
172	2     	0.888889	0        	0.888889	0.888889
173	2     	0.888889	0        	0.888889	0.888889
174	2     	0.888889	0        	0.888889	0.888889
175	2     	0.888889	0        	0.888889	0.888889
176	2     	0.888889	0        	0.888889	0.888889
177	2     	0.888889	0        	0.888889	0.888889
178	2     	0.888889	0        	0.888889	0.888889
179	2     	0.888889	0        	0.888889	0.888889
180	2     	0.888889	0        	0.888889	0.888889
181	2     	0.888889	0        	0.888889	0.888889
182	2     	0.888889	0        	0.888889	0.888889
183	2     	0.888889	0        	0.888889	0.888889
184	2     	0.888889	0        	0.888889	0.888889
185	2     	0.888889	0        	0.888889	0.888889
186	2     	0.888889	0        	0.888889	0.888889
187	2     	0.888889	0        	0.888889	0.888889
188	2     	0.888889	0        	0.888889	0.888889
189	2     	0.888889	0        	0.888889	0.888889
190	2     	0.888889	0        	0.888889	0.888889
191	2     	0.888889	0        	0.888889	0.888889
192	2     	0.888889	0        	0.888889	0.888889
193	2     	0.888889	0        	0.888889	0.888889
194	2     	0.888889	0        	0.888889	0.888889
195	2     	0.888889	0        	0.888889	0.888889
196	2     	0.888889	0        	0.888889	0.888889
197	2     	0.888889	0        	0.888889	0.888889
198	2     	0.888889	0        	0.888889	0.888889
199	2     	0.888889	0        	0.888889	0.888889
200	2     	0.888889	0        	0.888889	0.888889
201	2     	0.888889	0        	0.888889	0.888889
202	2     	0.888889	0        	0.888889	0.888889
203	2     	0.888889	0        	0.888889	0.888889
204	2     	0.888889	0        	0.888889	0.888889
205	2     	0.888889	0        	0.888889	0.888889
206	2     	0.888889	0        	0.888889	0.888889
207	2     	0.888889	0        	0.888889	0.888889
208	2     	0.888889	0        	0.888889	0.888889
209	2     	0.888889	0        	0.888889	0.888889
210	2     	0.888889	0        	0.888889	0.888889
211	2     	0.902778	0.0138889	0.888889	0.916667
212	2     	0.902778	0.0138889	0.888889	0.916667
213	2     	0.902778	0.0138889	0.888889	0.916667
214	2     	0.902778	0.0138889	0.888889	0.916667
215	2     	0.902778	0.0138889	0.888889	0.916667
216	2     	0.902778	0.0138889	0.888889	0.916667
217	2     	0.916667	0        	0.916667	0.916667
218	2     	0.916667	0        	0.916667	0.916667
219	2     	0.916667	0        	0.916667	0.916667
220	2     	0.916667	0        	0.916667	0.916667
221	2     	0.916667	0        	0.916667	0.916667
222	2     	0.916667	0        	0.916667	0.916667
223	2     	0.916667	0        	0.916667	0.916667
224	2     	0.916667	0        	0.916667	0.916667
225	2     	0.916667	0        	0.916667	0.916667
226	2     	0.916667	0        	0.916667	0.916667
227	2     	0.916667	0        	0.916667	0.916667
228	2     	0.916667	0        	0.916667	0.916667
229	2     	0.916667	0        	0.916667	0.916667
230	2     	0.916667	0        	0.916667	0.916667
231	2     	0.916667	0        	0.916667	0.916667
232	2     	0.916667	0        	0.916667	0.916667
233	2     	0.916667	0        	0.916667	0.916667
234	2     	0.916667	0        	0.916667	0.916667
235	2     	0.916667	0        	0.916667	0.916667
236	2     	0.916667	0        	0.916667	0.916667
237	2     	0.916667	0        	0.916667	0.916667
238	2     	0.916667	0        	0.916667	0.916667
239	2     	0.916667	0        	0.916667	0.916667
240	2     	0.916667	0        	0.916667	0.916667
241	2     	0.916667	0        	0.916667	0.916667
242	2     	0.916667	0        	0.916667	0.916667
243	2     	0.916667	0        	0.916667	0.916667
244	2     	0.916667	0        	0.916667	0.916667
245	2     	0.916667	0        	0.916667	0.916667
246	2     	0.916667	0        	0.916667	0.916667
247	2     	0.916667	0        	0.916667	0.916667
248	2     	0.916667	0        	0.916667	0.916667
249	2     	0.916667	0        	0.916667	0.916667
250	2     	0.916667	0        	0.916667	0.916667
251	2     	0.916667	0        	0.916667	0.916667
252	2     	0.916667	0        	0.916667	0.916667
253	2     	0.916667	0        	0.916667	0.916667
254	2     	0.916667	0        	0.916667	0.916667
255	2     	0.916667	0        	0.916667	0.916667
256	2     	0.916667	0        	0.916667	0.916667
257	2     	0.916667	0        	0.916667	0.916667
258	2     	0.916667	0        	0.916667	0.916667
259	2     	0.916667	0        	0.916667	0.916667
260	2     	0.916667	0        	0.916667	0.916667
261	2     	0.916667	0        	0.916667	0.916667
262	2     	0.916667	0        	0.916667	0.916667
263	2     	0.916667	0        	0.916667	0.916667
264	2     	0.916667	0        	0.916667	0.916667
265	2     	0.916667	0        	0.916667	0.916667
266	2     	0.916667	0        	0.916667	0.916667
267	2     	0.916667	0        	0.916667	0.916667
268	2     	0.916667	0        	0.916667	0.916667
269	2     	0.916667	0        	0.916667	0.916667
270	2     	0.916667	0        	0.916667	0.916667
271	2     	0.916667	0        	0.916667	0.916667
272	2     	0.916667	0        	0.916667	0.916667
273	2     	0.916667	0        	0.916667	0.916667
274	2     	0.916667	0        	0.916667	0.916667
275	2     	0.916667	0        	0.916667	0.916667
276	2     	0.916667	0        	0.916667	0.916667
277	2     	0.916667	0        	0.916667	0.916667
278	2     	0.916667	0        	0.916667	0.916667
279	2     	0.916667	0        	0.916667	0.916667
280	2     	0.916667	0        	0.916667	0.916667
281	2     	0.916667	0        	0.916667	0.916667
282	2     	0.916667	0        	0.916667	0.916667
283	2     	0.916667	0        	0.916667	0.916667
284	2     	0.916667	0        	0.916667	0.916667
285	2     	0.916667	0        	0.916667	0.916667
286	2     	0.930556	0.0138889	0.916667	0.944444
287	2     	0.930556	0.0138889	0.916667	0.944444
288	2     	0.930556	0.0138889	0.916667	0.944444
289	2     	0.930556	0.0138889	0.916667	0.944444
290	2     	0.930556	0.0138889	0.916667	0.944444
291	2     	0.930556	0.0138889	0.916667	0.944444
292	2     	0.930556	0.0138889	0.916667	0.944444
293	2     	0.930556	0.0138889	0.916667	0.944444
294	2     	0.930556	0.0138889	0.916667	0.944444
295	2     	0.930556	0.0138889	0.916667	0.944444
296	2     	0.930556	0.0138889	0.916667	0.944444
297	2     	0.930556	0.0138889	0.916667	0.944444
298	2     	0.930556	0.0138889	0.916667	0.944444
299	2     	0.930556	0.0138889	0.916667	0.944444
300	2     	0.930556	0.0138889	0.916667	0.944444
301	2     	0.930556	0.0138889	0.916667	0.944444
302	2     	0.930556	0.0138889	0.916667	0.944444
303	2     	0.930556	0.0138889	0.916667	0.944444
304	2     	0.930556	0.0138889	0.916667	0.944444
305	2     	0.930556	0.0138889	0.916667	0.944444
306	2     	0.930556	0.0138889	0.916667	0.944444
307	2     	0.930556	0.0138889	0.916667	0.944444
308	2     	0.930556	0.0138889	0.916667	0.944444
309	2     	0.930556	0.0138889	0.916667	0.944444
310	2     	0.930556	0.0138889	0.916667	0.944444
311	2     	0.930556	0.0138889	0.916667	0.944444
312	2     	0.930556	0.0138889	0.916667	0.944444
313	2     	0.930556	0.0138889	0.916667	0.944444
314	2     	0.930556	0.0138889	0.916667	0.944444
315	2     	0.930556	0.0138889	0.916667	0.944444
316	2     	0.930556	0.0138889	0.916667	0.944444
317	2     	0.930556	0.0138889	0.916667	0.944444
318	2     	0.930556	0.0138889	0.916667	0.944444
319	2     	0.930556	0.0138889	0.916667	0.944444
320	2     	0.930556	0.0138889	0.916667	0.944444
321	2     	0.930556	0.0138889	0.916667	0.944444
322	2     	0.930556	0.0138889	0.916667	0.944444
323	2     	0.930556	0.0138889	0.916667	0.944444
324	2     	0.930556	0.0138889	0.916667	0.944444
325	2     	0.930556	0.0138889	0.916667	0.944444
326	2     	0.930556	0.0138889	0.916667	0.944444
327	2     	0.930556	0.0138889	0.916667	0.944444
328	2     	0.930556	0.0138889	0.916667	0.944444
329	2     	0.930556	0.0138889	0.916667	0.944444
330	2     	0.930556	0.0138889	0.916667	0.944444
331	2     	0.930556	0.0138889	0.916667	0.944444
332	2     	0.930556	0.0138889	0.916667	0.944444
333	2     	0.930556	0.0138889	0.916667	0.944444
334	2     	0.930556	0.0138889	0.916667	0.944444
335	2     	0.930556	0.0138889	0.916667	0.944444
336	2     	0.930556	0.0138889	0.916667	0.944444
337	2     	0.930556	0.0138889	0.916667	0.944444
338	2     	0.930556	0.0138889	0.916667	0.944444
339	2     	0.930556	0.0138889	0.916667	0.944444
340	2     	0.930556	0.0138889	0.916667	0.944444
341	2     	0.930556	0.0138889	0.916667	0.944444
342	2     	0.930556	0.0138889	0.916667	0.944444
343	2     	0.930556	0.0138889	0.916667	0.944444
344	2     	0.930556	0.0138889	0.916667	0.944444
345	2     	0.930556	0.0138889	0.916667	0.944444
346	2     	0.930556	0.0138889	0.916667	0.944444
347	2     	0.930556	0.0138889	0.916667	0.944444
348	2     	0.930556	0.0138889	0.916667	0.944444
349	2     	0.930556	0.0138889	0.916667	0.944444
350	2     	0.930556	0.0138889	0.916667	0.944444
351	2     	0.944444	0        	0.944444	0.944444
352	2     	0.944444	0        	0.944444	0.944444
353	2     	0.944444	0        	0.944444	0.944444
354	2     	0.944444	0        	0.944444	0.944444
355	2     	0.944444	0        	0.944444	0.944444
356	2     	0.944444	0        	0.944444	0.944444
357	2     	0.944444	0        	0.944444	0.944444
358	2     	0.944444	0        	0.944444	0.944444
359	2     	0.944444	0        	0.944444	0.944444
360	2     	0.944444	0        	0.944444	0.944444
361	2     	0.944444	0        	0.944444	0.944444
362	2     	0.944444	0        	0.944444	0.944444
363	2     	0.944444	0        	0.944444	0.944444
364	2     	0.944444	0        	0.944444	0.944444
365	2     	0.944444	0        	0.944444	0.944444
366	2     	0.944444	0        	0.944444	0.944444
367	2     	0.944444	0        	0.944444	0.944444
368	2     	0.944444	0        	0.944444	0.944444
369	2     	0.944444	0        	0.944444	0.944444
370	2     	0.944444	0        	0.944444	0.944444
371	2     	0.944444	0        	0.944444	0.944444
372	2     	0.944444	0        	0.944444	0.944444
373	2     	0.944444	0        	0.944444	0.944444
374	2     	0.944444	0        	0.944444	0.944444
375	2     	0.944444	0        	0.944444	0.944444
376	2     	0.944444	0        	0.944444	0.944444
377	2     	0.944444	0        	0.944444	0.944444
378	2     	0.944444	0        	0.944444	0.944444
379	2     	0.944444	0        	0.944444	0.944444
380	2     	0.944444	0        	0.944444	0.944444
381	2     	0.944444	0        	0.944444	0.944444
382	2     	0.944444	0        	0.944444	0.944444
383	2     	0.944444	0        	0.944444	0.944444
384	2     	0.944444	0        	0.944444	0.944444
385	2     	0.944444	0        	0.944444	0.944444
386	2     	0.958333	0.0138889	0.944444	0.972222
387	2     	0.958333	0.0138889	0.944444	0.972222
388	2     	0.958333	0.0138889	0.944444	0.972222
389	2     	0.958333	0.0138889	0.944444	0.972222
390	2     	0.958333	0.0138889	0.944444	0.972222
391	2     	0.958333	0.0138889	0.944444	0.972222
392	2     	0.958333	0.0138889	0.944444	0.972222
393	2     	0.958333	0.0138889	0.944444	0.972222
394	2     	0.958333	0.0138889	0.944444	0.972222
395	2     	0.958333	0.0138889	0.944444	0.972222
396	2     	0.958333	0.0138889	0.944444	0.972222
397	2     	0.958333	0.0138889	0.944444	0.972222
398	2     	0.958333	0.0138889	0.944444	0.972222
399	2     	0.958333	0.0138889	0.944444	0.972222
400	2     	0.958333	0.0138889	0.944444	0.972222
401	2     	0.958333	0.0138889	0.944444	0.972222
402	2     	0.958333	0.0138889	0.944444	0.972222
403	2     	0.958333	0.0138889	0.944444	0.972222
404	2     	0.958333	0.0138889	0.944444	0.972222
405	2     	0.958333	0.0138889	0.944444	0.972222
406	2     	0.958333	0.0138889	0.944444	0.972222
407	2     	0.958333	0.0138889	0.944444	0.972222
408	2     	0.958333	0.0138889	0.944444	0.972222
409	2     	0.958333	0.0138889	0.944444	0.972222
410	2     	0.958333	0.0138889	0.944444	0.972222
411	2     	0.958333	0.0138889	0.944444	0.972222
412	2     	0.958333	0.0138889	0.944444	0.972222
413	2     	0.958333	0.0138889	0.944444	0.972222
414	2     	0.958333	0.0138889	0.944444	0.972222
415	2     	0.958333	0.0138889	0.944444	0.972222
416	2     	0.958333	0.0138889	0.944444	0.972222
417	2     	0.958333	0.0138889	0.944444	0.972222
418	2     	0.958333	0.0138889	0.944444	0.972222
419	2     	0.958333	0.0138889	0.944444	0.972222
420	2     	0.958333	0.0138889	0.944444	0.972222
421	2     	0.958333	0.0138889	0.944444	0.972222
422	2     	0.958333	0.0138889	0.944444	0.972222
423	2     	0.958333	0.0138889	0.944444	0.972222
424	2     	0.958333	0.0138889	0.944444	0.972222
425	2     	0.958333	0.0138889	0.944444	0.972222
426	2     	0.972222	0        	0.972222	0.972222
427	2     	0.972222	0        	0.972222	0.972222
428	2     	0.972222	0        	0.972222	0.972222
429	2     	0.972222	0        	0.972222	0.972222
430	2     	0.972222	0        	0.972222	0.972222
431	2     	0.972222	0        	0.972222	0.972222
432	2     	0.972222	0        	0.972222	0.972222
433	2     	0.972222	0        	0.972222	0.972222
434	2     	0.972222	0        	0.972222	0.972222
435	2     	0.972222	0        	0.972222	0.972222
436	2     	0.972222	0        	0.972222	0.972222
437	2     	0.972222	0        	0.972222	0.972222
438	2     	0.972222	0        	0.972222	0.972222
439	2     	0.972222	0        	0.972222	0.972222
440	2     	0.972222	0        	0.972222	0.972222
441	2     	0.972222	0        	0.972222	0.972222
442	2     	0.972222	0        	0.972222	0.972222
443	2     	0.972222	0        	0.972222	0.972222
444	2     	0.972222	0        	0.972222	0.972222
445	2     	0.972222	0        	0.972222	0.972222
446	2     	0.972222	0        	0.972222	0.972222
447	2     	0.972222	0        	0.972222	0.972222
448	2     	0.972222	0        	0.972222	0.972222
449	2     	0.972222	0        	0.972222	0.972222
450	2     	0.972222	0        	0.972222	0.972222
451	2     	0.972222	0        	0.972222	0.972222
452	2     	0.972222	0        	0.972222	0.972222
453	2     	0.972222	0        	0.972222	0.972222
454	2     	0.972222	0        	0.972222	0.972222
455	2     	0.972222	0        	0.972222	0.972222
456	2     	0.972222	0        	0.972222	0.972222
457	2     	0.972222	0        	0.972222	0.972222
458	2     	0.972222	0        	0.972222	0.972222
459	2     	0.972222	0        	0.972222	0.972222
460	2     	0.972222	0        	0.972222	0.972222
461	2     	0.972222	0        	0.972222	0.972222
462	2     	0.972222	0        	0.972222	0.972222
463	2     	0.972222	0        	0.972222	0.972222
464	2     	0.972222	0        	0.972222	0.972222
465	2     	0.972222	0        	0.972222	0.972222
466	2     	0.972222	0        	0.972222	0.972222
467	2     	0.972222	0        	0.972222	0.972222
468	2     	0.972222	0        	0.972222	0.972222
469	2     	0.972222	0        	0.972222	0.972222
470	2     	0.972222	0        	0.972222	0.972222
471	2     	0.972222	0        	0.972222	0.972222
472	2     	0.972222	0        	0.972222	0.972222
473	2     	0.972222	0        	0.972222	0.972222
474	2     	0.972222	0        	0.972222	0.972222
475	2     	0.972222	0        	0.972222	0.972222
476	2     	0.972222	0        	0.972222	0.972222
477	2     	0.972222	0        	0.972222	0.972222
478	2     	0.972222	0        	0.972222	0.972222
479	2     	0.972222	0        	0.972222	0.972222
480	2     	0.972222	0        	0.972222	0.972222
481	2     	0.972222	0        	0.972222	0.972222
482	2     	0.972222	0        	0.972222	0.972222
483	2     	0.972222	0        	0.972222	0.972222
484	2     	0.972222	0        	0.972222	0.972222
485	2     	0.972222	0        	0.972222	0.972222
486	2     	0.972222	0        	0.972222	0.972222
487	2     	0.972222	0        	0.972222	0.972222
488	2     	0.972222	0        	0.972222	0.972222
489	2     	0.972222	0        	0.972222	0.972222
490	2     	0.972222	0        	0.972222	0.972222
491	2     	0.972222	0        	0.972222	0.972222
492	2     	0.972222	0        	0.972222	0.972222
493	2     	0.972222	0        	0.972222	0.972222
494	2     	0.972222	0        	0.972222	0.972222
495	2     	0.972222	0        	0.972222	0.972222
496	2     	0.972222	0        	0.972222	0.972222
497	2     	0.972222	0        	0.972222	0.972222
498	2     	0.972222	0        	0.972222	0.972222
499	2     	0.972222	0        	0.972222	0.972222
500	2     	0.972222	0        	0.972222	0.972222
501	2     	0.972222	0        	0.972222	0.972222
502	2     	0.972222	0        	0.972222	0.972222
503	2     	0.972222	0        	0.972222	0.972222
504	2     	0.972222	0        	0.972222	0.972222
505	2     	0.972222	0        	0.972222	0.972222
506	2     	0.972222	0        	0.972222	0.972222
507	2     	0.972222	0        	0.972222	0.972222
508	2     	0.972222	0        	0.972222	0.972222
509	2     	0.972222	0        	0.972222	0.972222
510	2     	0.972222	0        	0.972222	0.972222
511	2     	0.972222	0        	0.972222	0.972222
512	2     	0.972222	0        	0.972222	0.972222
513	2     	0.972222	0        	0.972222	0.972222
514	2     	0.972222	0        	0.972222	0.972222
515	2     	0.972222	0        	0.972222	0.972222
516	2     	0.972222	0        	0.972222	0.972222
517	2     	0.972222	0        	0.972222	0.972222
518	2     	0.972222	0        	0.972222	0.972222
519	2     	0.972222	0        	0.972222	0.972222
520	2     	0.972222	0        	0.972222	0.972222
521	2     	0.972222	0        	0.972222	0.972222
522	2     	0.972222	0        	0.972222	0.972222
523	2     	0.972222	0        	0.972222	0.972222
524	2     	0.972222	0        	0.972222	0.972222
525	2     	0.972222	0        	0.972222	0.972222
526	2     	0.972222	0        	0.972222	0.972222
527	2     	0.972222	0        	0.972222	0.972222
528	2     	0.972222	0        	0.972222	0.972222
529	2     	0.972222	0        	0.972222	0.972222
530	2     	0.972222	0        	0.972222	0.972222
531	2     	0.972222	0        	0.972222	0.972222
532	2     	0.972222	0        	0.972222	0.972222
533	2     	0.972222	0        	0.972222	0.972222
534	2     	0.972222	0        	0.972222	0.972222
535	2     	0.972222	0        	0.972222	0.972222
536	2     	0.972222	0        	0.972222	0.972222
537	2     	0.972222	0        	0.972222	0.972222
538	2     	0.972222	0        	0.972222	0.972222
539	2     	0.972222	0        	0.972222	0.972222
540	2     	0.972222	0        	0.972222	0.972222
541	2     	0.972222	0        	0.972222	0.972222
542	2     	0.972222	0        	0.972222	0.972222
543	2     	0.972222	0        	0.972222	0.972222
544	2     	0.972222	0        	0.972222	0.972222
545	2     	0.972222	0        	0.972222	0.972222
546	2     	0.972222	0        	0.972222	0.972222
547	2     	0.972222	0        	0.972222	0.972222
548	2     	0.972222	0        	0.972222	0.972222
549	2     	0.972222	0        	0.972222	0.972222
550	2     	0.972222	0        	0.972222	0.972222
551	2     	0.972222	0        	0.972222	0.972222
552	2     	0.972222	0        	0.972222	0.972222
553	2     	0.972222	0        	0.972222	0.972222
554	2     	0.972222	0        	0.972222	0.972222
555	2     	0.972222	0        	0.972222	0.972222
556	2     	0.972222	0        	0.972222	0.972222
557	2     	0.972222	0        	0.972222	0.972222
558	2     	0.972222	0        	0.972222	0.972222
559	2     	0.972222	0        	0.972222	0.972222
560	2     	0.972222	0        	0.972222	0.972222
561	2     	0.972222	0        	0.972222	0.972222
562	2     	0.972222	0        	0.972222	0.972222
563	2     	0.972222	0        	0.972222	0.972222
564	2     	0.972222	0        	0.972222	0.972222
565	2     	0.972222	0        	0.972222	0.972222
566	2     	0.972222	0        	0.972222	0.972222
567	2     	0.972222	0        	0.972222	0.972222
568	2     	0.972222	0        	0.972222	0.972222
569	2     	0.972222	0        	0.972222	0.972222
570	2     	0.972222	0        	0.972222	0.972222
571	2     	0.972222	0        	0.972222	0.972222
572	2     	0.972222	0        	0.972222	0.972222
573	2     	0.972222	0        	0.972222	0.972222
574	2     	0.972222	0        	0.972222	0.972222
575	2     	0.972222	0        	0.972222	0.972222
576	2     	0.972222	0        	0.972222	0.972222
577	2     	0.972222	0        	0.972222	0.972222
578	2     	0.972222	0        	0.972222	0.972222
579	2     	0.972222	0        	0.972222	0.972222
580	2     	0.972222	0        	0.972222	0.972222
581	2     	0.972222	0        	0.972222	0.972222
582	2     	0.972222	0        	0.972222	0.972222
583	2     	0.972222	0        	0.972222	0.972222
584	2     	0.972222	0        	0.972222	0.972222
585	2     	0.972222	0        	0.972222	0.972222
586	2     	0.972222	0        	0.972222	0.972222
587	2     	0.972222	0        	0.972222	0.972222
588	2     	0.972222	0        	0.972222	0.972222
589	2     	0.972222	0        	0.972222	0.972222
590	2     	0.972222	0        	0.972222	0.972222
591	2     	0.972222	0        	0.972222	0.972222
592	2     	0.972222	0        	0.972222	0.972222
593	2     	0.972222	0        	0.972222	0.972222
594	2     	0.972222	0        	0.972222	0.972222
595	2     	0.972222	0        	0.972222	0.972222
596	2     	0.972222	0        	0.972222	0.972222
597	2     	0.972222	0        	0.972222	0.972222
598	2     	0.972222	0        	0.972222	0.972222
599	2     	0.972222	0        	0.972222	0.972222
600	2     	0.972222	0        	0.972222	0.972222
601	2     	0.972222	0        	0.972222	0.972222
602	2     	0.972222	0        	0.972222	0.972222
603	2     	0.972222	0        	0.972222	0.972222
604	2     	0.972222	0        	0.972222	0.972222
605	2     	0.972222	0        	0.972222	0.972222
606	2     	0.972222	0        	0.972222	0.972222
607	2     	0.972222	0        	0.972222	0.972222
608	2     	0.972222	0        	0.972222	0.972222
609	2     	0.972222	0        	0.972222	0.972222
610	2     	0.972222	0        	0.972222	0.972222
611	2     	0.972222	0        	0.972222	0.972222
612	2     	0.972222	0        	0.972222	0.972222
613	2     	0.972222	0        	0.972222	0.972222
614	2     	0.972222	0        	0.972222	0.972222
615	2     	0.972222	0        	0.972222	0.972222
616	2     	0.972222	0        	0.972222	0.972222
617	2     	0.972222	0        	0.972222	0.972222
618	2     	0.972222	0        	0.972222	0.972222
619	2     	0.972222	0        	0.972222	0.972222
620	2     	0.972222	0        	0.972222	0.972222
621	2     	0.972222	0        	0.972222	0.972222
622	2     	0.972222	0        	0.972222	0.972222
623	2     	0.972222	0        	0.972222	0.972222
624	2     	0.972222	0        	0.972222	0.972222
625	2     	0.972222	0        	0.972222	0.972222
626	2     	0.972222	0        	0.972222	0.972222
627	2     	0.972222	0        	0.972222	0.972222
628	2     	0.972222	0        	0.972222	0.972222
629	2     	0.972222	0        	0.972222	0.972222
630	2     	0.972222	0        	0.972222	0.972222
631	2     	0.972222	0        	0.972222	0.972222
632	2     	0.972222	0        	0.972222	0.972222
633	2     	0.972222	0        	0.972222	0.972222
634	2     	0.972222	0        	0.972222	0.972222
635	2     	0.972222	0        	0.972222	0.972222
636	2     	0.972222	0        	0.972222	0.972222
637	2     	0.972222	0        	0.972222	0.972222
638	2     	0.972222	0        	0.972222	0.972222
639	2     	0.972222	0        	0.972222	0.972222
640	2     	0.972222	0        	0.972222	0.972222
641	2     	0.972222	0        	0.972222	0.972222
642	2     	0.972222	0        	0.972222	0.972222
643	2     	0.972222	0        	0.972222	0.972222
644	2     	0.972222	0        	0.972222	0.972222
645	2     	0.972222	0        	0.972222	0.972222
646	2     	0.972222	0        	0.972222	0.972222
647	2     	0.972222	0        	0.972222	0.972222
648	2     	0.972222	0        	0.972222	0.972222
649	2     	0.972222	0        	0.972222	0.972222
650	2     	0.972222	0        	0.972222	0.972222
651	2     	0.972222	0        	0.972222	0.972222
652	2     	0.972222	0        	0.972222	0.972222
653	2     	0.972222	0        	0.972222	0.972222
654	2     	0.972222	0        	0.972222	0.972222
655	2     	0.972222	0        	0.972222	0.972222
656	2     	0.972222	0        	0.972222	0.972222
657	2     	0.972222	0        	0.972222	0.972222
658	2     	0.972222	0        	0.972222	0.972222
659	2     	0.972222	0        	0.972222	0.972222
660	2     	0.972222	0        	0.972222	0.972222
661	2     	0.972222	0        	0.972222	0.972222
662	2     	0.972222	0        	0.972222	0.972222
663	2     	0.972222	0        	0.972222	0.972222
664	2     	0.972222	0        	0.972222	0.972222
665	2     	0.972222	0        	0.972222	0.972222
666	2     	0.972222	0        	0.972222	0.972222
667	2     	0.972222	0        	0.972222	0.972222
668	2     	0.972222	0        	0.972222	0.972222
669	2     	0.972222	0        	0.972222	0.972222
670	2     	0.972222	0        	0.972222	0.972222
671	2     	0.972222	0        	0.972222	0.972222
672	2     	0.972222	0        	0.972222	0.972222
673	2     	0.972222	0        	0.972222	0.972222
674	2     	0.972222	0        	0.972222	0.972222
675	2     	0.972222	0        	0.972222	0.972222
676	2     	0.972222	0        	0.972222	0.972222
677	2     	0.972222	0        	0.972222	0.972222
678	2     	0.972222	0        	0.972222	0.972222
679	2     	0.972222	0        	0.972222	0.972222
680	2     	0.972222	0        	0.972222	0.972222
681	2     	0.972222	0        	0.972222	0.972222
682	2     	0.972222	0        	0.972222	0.972222
683	2     	0.972222	0        	0.972222	0.972222
684	2     	0.972222	0        	0.972222	0.972222
685	2     	0.972222	0        	0.972222	0.972222
686	2     	0.972222	0        	0.972222	0.972222
687	2     	0.972222	0        	0.972222	0.972222
688	2     	0.972222	0        	0.972222	0.972222
689	2     	0.972222	0        	0.972222	0.972222
690	2     	0.972222	0        	0.972222	0.972222
691	2     	0.972222	0        	0.972222	0.972222
692	2     	0.972222	0        	0.972222	0.972222
693	2     	0.972222	0        	0.972222	0.972222
694	2     	0.972222	0        	0.972222	0.972222
695	2     	0.972222	0        	0.972222	0.972222
696	2     	0.972222	0        	0.972222	0.972222
697	2     	0.972222	0        	0.972222	0.972222
698	2     	0.972222	0        	0.972222	0.972222
699	2     	0.972222	0        	0.972222	0.972222
700	2     	0.972222	0        	0.972222	0.972222
701	2     	0.972222	0        	0.972222	0.972222
702	2     	0.972222	0        	0.972222	0.972222
703	2     	0.972222	0        	0.972222	0.972222
704	2     	0.972222	0        	0.972222	0.972222
705	2     	0.972222	0        	0.972222	0.972222
706	2     	0.972222	0        	0.972222	0.972222
707	2     	0.972222	0        	0.972222	0.972222
708	2     	0.972222	0        	0.972222	0.972222
709	2     	0.972222	0        	0.972222	0.972222
710	2     	0.972222	0        	0.972222	0.972222
711	2     	0.972222	0        	0.972222	0.972222
712	2     	0.972222	0        	0.972222	0.972222
713	2     	0.972222	0        	0.972222	0.972222
714	2     	0.972222	0        	0.972222	0.972222
715	2     	0.972222	0        	0.972222	0.972222
716	2     	0.972222	0        	0.972222	0.972222
717	2     	0.972222	0        	0.972222	0.972222
718	2     	0.972222	0        	0.972222	0.972222
719	2     	0.972222	0        	0.972222	0.972222
720	2     	0.972222	0        	0.972222	0.972222
721	2     	0.972222	0        	0.972222	0.972222
722	2     	0.972222	0        	0.972222	0.972222
723	2     	0.972222	0        	0.972222	0.972222
724	2     	0.972222	0        	0.972222	0.972222
725	2     	0.972222	0        	0.972222	0.972222
726	2     	0.972222	0        	0.972222	0.972222
727	2     	0.972222	0        	0.972222	0.972222
728	2     	0.972222	0        	0.972222	0.972222
729	2     	0.972222	0        	0.972222	0.972222
730	2     	0.972222	0        	0.972222	0.972222
731	2     	0.972222	0        	0.972222	0.972222
732	2     	0.972222	0        	0.972222	0.972222
733	2     	0.972222	0        	0.972222	0.972222
734	2     	0.972222	0        	0.972222	0.972222
735	2     	0.972222	0        	0.972222	0.972222
736	2     	0.972222	0        	0.972222	0.972222
737	2     	0.972222	0        	0.972222	0.972222
738	2     	0.972222	0        	0.972222	0.972222
739	2     	0.972222	0        	0.972222	0.972222
740	2     	0.972222	0        	0.972222	0.972222
741	2     	0.972222	0        	0.972222	0.972222
742	2     	0.972222	0        	0.972222	0.972222
743	2     	0.972222	0        	0.972222	0.972222
744	2     	0.972222	0        	0.972222	0.972222
745	2     	0.972222	0        	0.972222	0.972222
746	2     	0.972222	0        	0.972222	0.972222
747	2     	0.972222	0        	0.972222	0.972222
748	2     	0.972222	0        	0.972222	0.972222
749	2     	0.972222	0        	0.972222	0.972222
750	2     	0.972222	0        	0.972222	0.972222
751	2     	0.972222	0        	0.972222	0.972222
752	2     	0.972222	0        	0.972222	0.972222
753	2     	0.972222	0        	0.972222	0.972222
754	2     	0.972222	0        	0.972222	0.972222
755	2     	0.972222	0        	0.972222	0.972222
756	2     	0.972222	0        	0.972222	0.972222
757	2     	0.972222	0        	0.972222	0.972222
758	2     	0.972222	0        	0.972222	0.972222
759	2     	0.972222	0        	0.972222	0.972222
760	2     	0.972222	0        	0.972222	0.972222
761	2     	0.972222	0        	0.972222	0.972222
762	2     	0.972222	0        	0.972222	0.972222
763	2     	0.972222	0        	0.972222	0.972222
764	2     	0.972222	0        	0.972222	0.972222
765	2     	0.972222	0        	0.972222	0.972222
766	2     	0.972222	0        	0.972222	0.972222
767	2     	0.972222	0        	0.972222	0.972222
768	2     	0.972222	0        	0.972222	0.972222
769	2     	0.972222	0        	0.972222	0.972222
770	2     	0.972222	0        	0.972222	0.972222
771	2     	0.972222	0        	0.972222	0.972222
772	2     	0.972222	0        	0.972222	0.972222
773	2     	0.972222	0        	0.972222	0.972222
774	2     	0.972222	0        	0.972222	0.972222
775	2     	0.972222	0        	0.972222	0.972222
776	2     	0.972222	0        	0.972222	0.972222
777	2     	0.972222	0        	0.972222	0.972222
778	2     	0.972222	0        	0.972222	0.972222
779	2     	0.972222	0        	0.972222	0.972222
780	2     	0.972222	0        	0.972222	0.972222
781	2     	0.972222	0        	0.972222	0.972222
782	2     	0.972222	0        	0.972222	0.972222
783	2     	0.972222	0        	0.972222	0.972222
784	2     	0.972222	0        	0.972222	0.972222
785	2     	0.972222	0        	0.972222	0.972222
786	2     	0.972222	0        	0.972222	0.972222
787	2     	0.972222	0        	0.972222	0.972222
788	2     	0.972222	0        	0.972222	0.972222
789	2     	0.972222	0        	0.972222	0.972222
790	2     	0.972222	0        	0.972222	0.972222
791	2     	0.972222	0        	0.972222	0.972222
792	2     	0.972222	0        	0.972222	0.972222
793	2     	0.972222	0        	0.972222	0.972222
794	2     	0.972222	0        	0.972222	0.972222
795	2     	0.972222	0        	0.972222	0.972222
796	2     	0.972222	0        	0.972222	0.972222
797	2     	0.972222	0        	0.972222	0.972222
798	2     	0.972222	0        	0.972222	0.972222
799	2     	0.972222	0        	0.972222	0.972222
800	2     	0.972222	0        	0.972222	0.972222
801	2     	0.972222	0        	0.972222	0.972222
802	2     	0.972222	0        	0.972222	0.972222
803	2     	0.972222	0        	0.972222	0.972222
804	2     	0.972222	0        	0.972222	0.972222
805	2     	0.972222	0        	0.972222	0.972222
806	2     	0.972222	0        	0.972222	0.972222
807	2     	0.972222	0        	0.972222	0.972222
808	2     	0.972222	0        	0.972222	0.972222
809	2     	0.972222	0        	0.972222	0.972222
810	2     	0.972222	0        	0.972222	0.972222
811	2     	0.972222	0        	0.972222	0.972222
812	2     	0.972222	0        	0.972222	0.972222
813	2     	0.972222	0        	0.972222	0.972222
814	2     	0.972222	0        	0.972222	0.972222
815	2     	0.972222	0        	0.972222	0.972222
816	2     	0.972222	0        	0.972222	0.972222
817	2     	0.972222	0        	0.972222	0.972222
818	2     	0.972222	0        	0.972222	0.972222
819	2     	0.972222	0        	0.972222	0.972222
820	2     	0.972222	0        	0.972222	0.972222
821	2     	0.972222	0        	0.972222	0.972222
822	2     	0.972222	0        	0.972222	0.972222
823	2     	0.972222	0        	0.972222	0.972222
824	2     	0.972222	0        	0.972222	0.972222
825	2     	0.972222	0        	0.972222	0.972222
826	2     	0.972222	0        	0.972222	0.972222
827	2     	0.972222	0        	0.972222	0.972222
828	2     	0.972222	0        	0.972222	0.972222
829	2     	0.972222	0        	0.972222	0.972222
830	2     	0.972222	0        	0.972222	0.972222
831	2     	0.972222	0        	0.972222	0.972222
832	2     	0.972222	0        	0.972222	0.972222
833	2     	0.972222	0        	0.972222	0.972222
834	2     	0.972222	0        	0.972222	0.972222
835	2     	0.972222	0        	0.972222	0.972222
836	2     	0.972222	0        	0.972222	0.972222
837	2     	0.972222	0        	0.972222	0.972222
838	2     	0.972222	0        	0.972222	0.972222
839	2     	0.972222	0        	0.972222	0.972222
840	2     	0.972222	0        	0.972222	0.972222
841	2     	0.972222	0        	0.972222	0.972222
842	2     	0.972222	0        	0.972222	0.972222
843	2     	0.972222	0        	0.972222	0.972222
844	2     	0.972222	0        	0.972222	0.972222
845	2     	0.972222	0        	0.972222	0.972222
846	2     	0.972222	0        	0.972222	0.972222
847	2     	0.972222	0        	0.972222	0.972222
848	2     	0.972222	0        	0.972222	0.972222
849	2     	0.972222	0        	0.972222	0.972222
850	2     	0.972222	0        	0.972222	0.972222
851	2     	0.972222	0        	0.972222	0.972222
852	2     	0.972222	0        	0.972222	0.972222
853	2     	0.972222	0        	0.972222	0.972222
854	2     	0.972222	0        	0.972222	0.972222
855	2     	0.986111	0.0138889	0.972222	1       