gen	nevals	avg     	std      	min     	max     
0  	2     	0.513889	0.0694444	0.444444	0.583333
1  	2     	0.569444	0.0138889	0.555556	0.583333
2  	2     	0.611111	0.0277778	0.583333	0.638889
3  	2     	0.666667	0.0277778	0.638889	0.694444
4  	2     	0.694444	0        	0.694444	0.694444
5  	2     	0.694444	0        	0.694444	0.694444
6  	2     	0.694444	0        	0.694444	0.694444
7  	2     	0.694444	0        	0.694444	0.694444
8  	2     	0.694444	0        	0.694444	0.694444
9  	2     	0.694444	0        	0.694444	0.694444
10 	2     	0.694444	0        	0.694444	0.694444
11 	2     	0.708333	0.0138889	0.694444	0.722222
12 	2     	0.708333	0.0138889	0.694444	0.722222
13 	2     	0.708333	0.0138889	0.694444	0.722222
14 	2     	0.722222	0        	0.722222	0.722222
15 	2     	0.722222	0        	0.722222	0.722222
16 	2     	0.75    	0.0277778	0.722222	0.777778
17 	2     	0.763889	0.0138889	0.75    	0.777778
18 	2     	0.763889	0.0138889	0.75    	0.777778
19 	2     	0.777778	0        	0.777778	0.777778
20 	2     	0.791667	0.0138889	0.777778	0.805556
21 	2     	0.791667	0.0138889	0.777778	0.805556
22 	2     	0.791667	0.0138889	0.777778	0.805556
23 	2     	0.791667	0.0138889	0.777778	0.805556
24 	2     	0.791667	0.0138889	0.777778	0.805556
25 	2     	0.805556	0        	0.805556	0.805556
26 	2     	0.805556	0        	0.805556	0.805556
27 	2     	0.805556	0        	0.805556	0.805556
28 	2     	0.805556	0        	0.805556	0.805556
29 	2     	0.805556	0        	0.805556	0.805556
30 	2     	0.805556	0        	0.805556	0.805556
31 	2     	0.805556	0        	0.805556	0.805556
32 	2     	0.805556	0        	0.805556	0.805556
33 	2     	0.805556	0        	0.805556	0.805556
34 	2     	0.805556	0        	0.805556	0.805556
35 	2     	0.805556	0        	0.805556	0.805556
36 	2     	0.805556	0        	0.805556	0.805556
37 	2     	0.805556	0        	0.805556	0.805556
38 	2     	0.819444	0.0138889	0.805556	0.833333
39 	2     	0.819444	0.0138889	0.805556	0.833333
40 	2     	0.833333	0        	0.833333	0.833333
41 	2     	0.833333	0        	0.833333	0.833333
42 	2     	0.833333	0        	0.833333	0.833333
43 	2     	0.833333	0        	0.833333	0.833333
44 	2     	0.833333	0        	0.833333	0.833333
45 	2     	0.833333	0        	0.833333	0.833333
46 	2     	0.833333	0        	0.833333	0.833333
47 	2     	0.833333	0        	0.833333	0.833333
48 	2     	0.833333	0        	0.833333	0.833333
49 	2     	0.833333	0        	0.833333	0.833333
50 	2     	0.833333	0        	0.833333	0.833333
51 	2     	0.833333	0        	0.833333	0.833333
52 	2     	0.833333	0        	0.833333	0.833333
53 	2     	0.833333	0        	0.833333	0.833333
54 	2     	0.833333	0        	0.833333	0.833333
55 	2     	0.833333	0        	0.833333	0.833333
56 	2     	0.833333	0        	0.833333	0.833333
57 	2     	0.833333	0        	0.833333	0.833333
58 	2     	0.833333	0        	0.833333	0.833333
59 	2     	0.833333	0        	0.833333	0.833333
60 	2     	0.847222	0.0138889	0.833333	0.861111
61 	2     	0.847222	0.0138889	0.833333	0.861111
62 	2     	0.861111	0        	0.861111	0.861111
63 	2     	0.861111	0        	0.861111	0.861111
64 	2     	0.861111	0        	0.861111	0.861111
65 	2     	0.861111	0        	0.861111	0.861111
66 	2     	0.861111	0        	0.861111	0.861111
67 	2     	0.861111	0        	0.861111	0.861111
68 	2     	0.861111	0        	0.861111	0.861111
69 	2     	0.861111	0        	0.861111	0.861111
70 	2     	0.861111	0        	0.861111	0.861111
71 	2     	0.861111	0        	0.861111	0.861111
72 	2     	0.861111	0        	0.861111	0.861111
73 	2     	0.861111	0        	0.861111	0.861111
74 	2     	0.861111	0        	0.861111	0.861111
75 	2     	0.861111	0        	0.861111	0.861111