gen 	nevals	avg     	std      	min     	max     
0   	2     	0.5     	0.0510204	0.44898 	0.55102 
1   	2     	0.510204	0.0408163	0.469388	0.55102 
2   	2     	0.591837	0.0408163	0.55102 	0.632653
3   	2     	0.602041	0.0306122	0.571429	0.632653
4   	2     	0.622449	0.0102041	0.612245	0.632653
5   	2     	0.653061	0.0204082	0.632653	0.673469
6   	2     	0.683673	0.0102041	0.673469	0.693878
7   	2     	0.683673	0.0102041	0.673469	0.693878
8   	2     	0.683673	0.0102041	0.673469	0.693878
9   	2     	0.683673	0.0102041	0.673469	0.693878
10  	2     	0.693878	0        	0.693878	0.693878
11  	2     	0.693878	0        	0.693878	0.693878
12  	2     	0.693878	0        	0.693878	0.693878
13  	2     	0.693878	0        	0.693878	0.693878
14  	2     	0.693878	0        	0.693878	0.693878
15  	2     	0.693878	0        	0.693878	0.693878
16  	2     	0.693878	0        	0.693878	0.693878
17  	2     	0.693878	0        	0.693878	0.693878
18  	2     	0.693878	0        	0.693878	0.693878
19  	2     	0.693878	0        	0.693878	0.693878
20  	2     	0.693878	0        	0.693878	0.693878
21  	2     	0.693878	0        	0.693878	0.693878
22  	2     	0.704082	0.0102041	0.693878	0.714286
23  	2     	0.704082	0.0102041	0.693878	0.714286
24  	2     	0.704082	0.0102041	0.693878	0.714286
25  	2     	0.704082	0.0102041	0.693878	0.714286
26  	2     	0.704082	0.0102041	0.693878	0.714286
27  	2     	0.704082	0.0102041	0.693878	0.714286
28  	2     	0.704082	0.0102041	0.693878	0.714286
29  	2     	0.704082	0.0102041	0.693878	0.714286
30  	2     	0.714286	0        	0.714286	0.714286
31  	2     	0.714286	0        	0.714286	0.714286
32  	2     	0.714286	0        	0.714286	0.714286
33  	2     	0.714286	0        	0.714286	0.714286
34  	2     	0.714286	0        	0.714286	0.714286
35  	2     	0.714286	0        	0.714286	0.714286
36  	2     	0.714286	0        	0.714286	0.714286
37  	2     	0.714286	0        	0.714286	0.714286
38  	2     	0.714286	0        	0.714286	0.714286
39  	2     	0.714286	0        	0.714286	0.714286
40  	2     	0.714286	0        	0.714286	0.714286
41  	2     	0.714286	0        	0.714286	0.714286
42  	2     	0.734694	0.0204082	0.714286	0.755102
43  	2     	0.734694	0.0204082	0.714286	0.755102
44  	2     	0.734694	0.0204082	0.714286	0.755102
45  	2     	0.734694	0.0204082	0.714286	0.755102
46  	2     	0.755102	0        	0.755102	0.755102
47  	2     	0.755102	0        	0.755102	0.755102
48  	2     	0.755102	0        	0.755102	0.755102
49  	2     	0.755102	0        	0.755102	0.755102
50  	2     	0.755102	0        	0.755102	0.755102
51  	2     	0.755102	0        	0.755102	0.755102
52  	2     	0.755102	0        	0.755102	0.755102
53  	2     	0.755102	0        	0.755102	0.755102
54  	2     	0.755102	0        	0.755102	0.755102
55  	2     	0.755102	0        	0.755102	0.755102
56  	2     	0.755102	0        	0.755102	0.755102
57  	2     	0.755102	0        	0.755102	0.755102
58  	2     	0.755102	0        	0.755102	0.755102
59  	2     	0.755102	0        	0.755102	0.755102
60  	2     	0.755102	0        	0.755102	0.755102
61  	2     	0.755102	0        	0.755102	0.755102
62  	2     	0.755102	0        	0.755102	0.755102
63  	2     	0.755102	0        	0.755102	0.755102
64  	2     	0.755102	0        	0.755102	0.755102
65  	2     	0.755102	0        	0.755102	0.755102
66  	2     	0.755102	0        	0.755102	0.755102
67  	2     	0.755102	0        	0.755102	0.755102
68  	2     	0.755102	0        	0.755102	0.755102
69  	2     	0.755102	0        	0.755102	0.755102
70  	2     	0.755102	0        	0.755102	0.755102
71  	2     	0.77551 	0.0204082	0.755102	0.795918
72  	2     	0.77551 	0.0204082	0.755102	0.795918
73  	2     	0.785714	0.0102041	0.77551 	0.795918
74  	2     	0.785714	0.0102041	0.77551 	0.795918
75  	2     	0.785714	0.0102041	0.77551 	0.795918
76  	2     	0.795918	0        	0.795918	0.795918
77  	2     	0.795918	0        	0.795918	0.795918
78  	2     	0.795918	0        	0.795918	0.795918
79  	2     	0.795918	0        	0.795918	0.795918
80  	2     	0.795918	0        	0.795918	0.795918
81  	2     	0.795918	0        	0.795918	0.795918
82  	2     	0.795918	0        	0.795918	0.795918
83  	2     	0.795918	0        	0.795918	0.795918
84  	2     	0.795918	0        	0.795918	0.795918
85  	2     	0.795918	0        	0.795918	0.795918
86  	2     	0.795918	0        	0.795918	0.795918
87  	2     	0.795918	0        	0.795918	0.795918
88  	2     	0.795918	0        	0.795918	0.795918
89  	2     	0.795918	0        	0.795918	0.795918
90  	2     	0.795918	0        	0.795918	0.795918
91  	2     	0.795918	0        	0.795918	0.795918
92  	2     	0.795918	0        	0.795918	0.795918
93  	2     	0.795918	0        	0.795918	0.795918
94  	2     	0.795918	0        	0.795918	0.795918
95  	2     	0.795918	0        	0.795918	0.795918
96  	2     	0.795918	0        	0.795918	0.795918
97  	2     	0.795918	0        	0.795918	0.795918
98  	2     	0.795918	0        	0.795918	0.795918
99  	2     	0.795918	0        	0.795918	0.795918
100 	2     	0.795918	0        	0.795918	0.795918
101 	2     	0.795918	0        	0.795918	0.795918
102 	2     	0.795918	0        	0.795918	0.795918
103 	2     	0.795918	0        	0.795918	0.795918
104 	2     	0.795918	0        	0.795918	0.795918
105 	2     	0.795918	0        	0.795918	0.795918
106 	2     	0.795918	0        	0.795918	0.795918
107 	2     	0.795918	0        	0.795918	0.795918
108 	2     	0.795918	0        	0.795918	0.795918
109 	2     	0.795918	0        	0.795918	0.795918
110 	2     	0.795918	0        	0.795918	0.795918
111 	2     	0.795918	0        	0.795918	0.795918
112 	2     	0.795918	0        	0.795918	0.795918
113 	2     	0.795918	0        	0.795918	0.795918
114 	2     	0.826531	0.0306122	0.795918	0.857143
115 	2     	0.826531	0.0306122	0.795918	0.857143
116 	2     	0.826531	0.0306122	0.795918	0.857143
117 	2     	0.867347	0.0102041	0.857143	0.877551
118 	2     	0.867347	0.0102041	0.857143	0.877551
119 	2     	0.867347	0.0102041	0.857143	0.877551
120 	2     	0.867347	0.0102041	0.857143	0.877551
121 	2     	0.867347	0.0102041	0.857143	0.877551
122 	2     	0.867347	0.0102041	0.857143	0.877551
123 	2     	0.877551	0        	0.877551	0.877551
124 	2     	0.877551	0        	0.877551	0.877551
125 	2     	0.877551	0        	0.877551	0.877551
126 	2     	0.877551	0        	0.877551	0.877551
127 	2     	0.877551	0        	0.877551	0.877551
128 	2     	0.877551	0        	0.877551	0.877551
129 	2     	0.877551	0        	0.877551	0.877551
130 	2     	0.877551	0        	0.877551	0.877551
131 	2     	0.877551	0        	0.877551	0.877551
132 	2     	0.877551	0        	0.877551	0.877551
133 	2     	0.877551	0        	0.877551	0.877551
134 	2     	0.877551	0        	0.877551	0.877551
135 	2     	0.877551	0        	0.877551	0.877551
136 	2     	0.877551	0        	0.877551	0.877551
137 	2     	0.877551	0        	0.877551	0.877551
138 	2     	0.877551	0        	0.877551	0.877551
139 	2     	0.877551	0        	0.877551	0.877551
140 	2     	0.877551	0        	0.877551	0.877551
141 	2     	0.877551	0        	0.877551	0.877551
142 	2     	0.877551	0        	0.877551	0.877551
143 	2     	0.877551	0        	0.877551	0.877551
144 	2     	0.877551	0        	0.877551	0.877551
145 	2     	0.877551	0        	0.877551	0.877551
146 	2     	0.877551	0        	0.877551	0.877551
147 	2     	0.877551	0        	0.877551	0.877551
148 	2     	0.877551	0        	0.877551	0.877551
149 	2     	0.877551	0        	0.877551	0.877551
150 	2     	0.877551	0        	0.877551	0.877551
151 	2     	0.877551	0        	0.877551	0.877551
152 	2     	0.877551	0        	0.877551	0.877551
153 	2     	0.877551	0        	0.877551	0.877551
154 	2     	0.877551	0        	0.877551	0.877551
155 	2     	0.877551	0        	0.877551	0.877551
156 	2     	0.877551	0        	0.877551	0.877551
157 	2     	0.877551	0        	0.877551	0.877551
158 	2     	0.877551	0        	0.877551	0.877551
159 	2     	0.877551	0        	0.877551	0.877551
160 	2     	0.877551	0        	0.877551	0.877551
161 	2     	0.877551	0        	0.877551	0.877551
162 	2     	0.877551	0        	0.877551	0.877551
163 	2     	0.877551	0        	0.877551	0.877551
164 	2     	0.877551	0        	0.877551	0.877551
165 	2     	0.877551	0        	0.877551	0.877551
166 	2     	0.877551	0        	0.877551	0.877551
167 	2     	0.877551	0        	0.877551	0.877551
168 	2     	0.877551	0        	0.877551	0.877551
169 	2     	0.877551	0        	0.877551	0.877551
170 	2     	0.877551	0        	0.877551	0.877551
171 	2     	0.877551	0        	0.877551	0.877551
172 	2     	0.877551	0        	0.877551	0.877551
173 	2     	0.877551	0        	0.877551	0.877551
174 	2     	0.877551	0        	0.877551	0.877551
175 	2     	0.877551	0        	0.877551	0.877551
176 	2     	0.877551	0        	0.877551	0.877551
177 	2     	0.877551	0        	0.877551	0.877551
178 	2     	0.877551	0        	0.877551	0.877551
179 	2     	0.877551	0        	0.877551	0.877551
180 	2     	0.877551	0        	0.877551	0.877551
181 	2     	0.877551	0        	0.877551	0.877551
182 	2     	0.877551	0        	0.877551	0.877551
183 	2     	0.877551	0        	0.877551	0.877551
184 	2     	0.877551	0        	0.877551	0.877551
185 	2     	0.877551	0        	0.877551	0.877551
186 	2     	0.877551	0        	0.877551	0.877551
187 	2     	0.877551	0        	0.877551	0.877551
188 	2     	0.877551	0        	0.877551	0.877551
189 	2     	0.877551	0        	0.877551	0.877551
190 	2     	0.877551	0        	0.877551	0.877551
191 	2     	0.877551	0        	0.877551	0.877551
192 	2     	0.877551	0        	0.877551	0.877551
193 	2     	0.877551	0        	0.877551	0.877551
194 	2     	0.877551	0        	0.877551	0.877551
195 	2     	0.877551	0        	0.877551	0.877551
196 	2     	0.877551	0        	0.877551	0.877551
197 	2     	0.877551	0        	0.877551	0.877551
198 	2     	0.877551	0        	0.877551	0.877551
199 	2     	0.877551	0        	0.877551	0.877551
200 	2     	0.877551	0        	0.877551	0.877551
201 	2     	0.877551	0        	0.877551	0.877551
202 	2     	0.877551	0        	0.877551	0.877551
203 	2     	0.877551	0        	0.877551	0.877551
204 	2     	0.877551	0        	0.877551	0.877551
205 	2     	0.877551	0        	0.877551	0.877551
206 	2     	0.877551	0        	0.877551	0.877551
207 	2     	0.877551	0        	0.877551	0.877551
208 	2     	0.877551	0        	0.877551	0.877551
209 	2     	0.877551	0        	0.877551	0.877551
210 	2     	0.877551	0        	0.877551	0.877551
211 	2     	0.877551	0        	0.877551	0.877551
212 	2     	0.877551	0        	0.877551	0.877551
213 	2     	0.877551	0        	0.877551	0.877551
214 	2     	0.877551	0        	0.877551	0.877551
215 	2     	0.877551	0        	0.877551	0.877551
216 	2     	0.877551	0        	0.877551	0.877551
217 	2     	0.877551	0        	0.877551	0.877551
218 	2     	0.877551	0        	0.877551	0.877551
219 	2     	0.877551	0        	0.877551	0.877551
220 	2     	0.877551	0        	0.877551	0.877551
221 	2     	0.877551	0        	0.877551	0.877551
222 	2     	0.877551	0        	0.877551	0.877551
223 	2     	0.877551	0        	0.877551	0.877551
224 	2     	0.877551	0        	0.877551	0.877551
225 	2     	0.877551	0        	0.877551	0.877551
226 	2     	0.877551	0        	0.877551	0.877551
227 	2     	0.877551	0        	0.877551	0.877551
228 	2     	0.877551	0        	0.877551	0.877551
229 	2     	0.877551	0        	0.877551	0.877551
230 	2     	0.877551	0        	0.877551	0.877551
231 	2     	0.877551	0        	0.877551	0.877551
232 	2     	0.877551	0        	0.877551	0.877551
233 	2     	0.877551	0        	0.877551	0.877551
234 	2     	0.877551	0        	0.877551	0.877551
235 	2     	0.877551	0        	0.877551	0.877551
236 	2     	0.877551	0        	0.877551	0.877551
237 	2     	0.877551	0        	0.877551	0.877551
238 	2     	0.877551	0        	0.877551	0.877551
239 	2     	0.877551	0        	0.877551	0.877551
240 	2     	0.877551	0        	0.877551	0.877551
241 	2     	0.877551	0        	0.877551	0.877551
242 	2     	0.877551	0        	0.877551	0.877551
243 	2     	0.877551	0        	0.877551	0.877551
244 	2     	0.877551	0        	0.877551	0.877551
245 	2     	0.877551	0        	0.877551	0.877551
246 	2     	0.877551	0        	0.877551	0.877551
247 	2     	0.877551	0        	0.877551	0.877551
248 	2     	0.877551	0        	0.877551	0.877551
249 	2     	0.877551	0        	0.877551	0.877551
250 	2     	0.877551	0        	0.877551	0.877551
251 	2     	0.877551	0        	0.877551	0.877551
252 	2     	0.877551	0        	0.877551	0.877551
253 	2     	0.877551	0        	0.877551	0.877551
254 	2     	0.877551	0        	0.877551	0.877551
255 	2     	0.877551	0        	0.877551	0.877551
256 	2     	0.877551	0        	0.877551	0.877551
257 	2     	0.877551	0        	0.877551	0.877551
258 	2     	0.877551	0        	0.877551	0.877551
259 	2     	0.877551	0        	0.877551	0.877551
260 	2     	0.877551	0        	0.877551	0.877551
261 	2     	0.877551	0        	0.877551	0.877551
262 	2     	0.877551	0        	0.877551	0.877551
263 	2     	0.877551	0        	0.877551	0.877551
264 	2     	0.877551	0        	0.877551	0.877551
265 	2     	0.877551	0        	0.877551	0.877551
266 	2     	0.877551	0        	0.877551	0.877551
267 	2     	0.877551	0        	0.877551	0.877551
268 	2     	0.877551	0        	0.877551	0.877551
269 	2     	0.877551	0        	0.877551	0.877551
270 	2     	0.877551	0        	0.877551	0.877551
271 	2     	0.877551	0        	0.877551	0.877551
272 	2     	0.877551	0        	0.877551	0.877551
273 	2     	0.877551	0        	0.877551	0.877551
274 	2     	0.877551	0        	0.877551	0.877551
275 	2     	0.877551	0        	0.877551	0.877551
276 	2     	0.877551	0        	0.877551	0.877551
277 	2     	0.877551	0        	0.877551	0.877551
278 	2     	0.877551	0        	0.877551	0.877551
279 	2     	0.877551	0        	0.877551	0.877551
280 	2     	0.877551	0        	0.877551	0.877551
281 	2     	0.877551	0        	0.877551	0.877551
282 	2     	0.877551	0        	0.877551	0.877551
283 	2     	0.877551	0        	0.877551	0.877551
284 	2     	0.877551	0        	0.877551	0.877551
285 	2     	0.877551	0        	0.877551	0.877551
286 	2     	0.877551	0        	0.877551	0.877551
287 	2     	0.877551	0        	0.877551	0.877551
288 	2     	0.877551	0        	0.877551	0.877551
289 	2     	0.877551	0        	0.877551	0.877551
290 	2     	0.877551	0        	0.877551	0.877551
291 	2     	0.877551	0        	0.877551	0.877551
292 	2     	0.877551	0        	0.877551	0.877551
293 	2     	0.877551	0        	0.877551	0.877551
294 	2     	0.877551	0        	0.877551	0.877551
295 	2     	0.877551	0        	0.877551	0.877551
296 	2     	0.877551	0        	0.877551	0.877551
297 	2     	0.877551	0        	0.877551	0.877551
298 	2     	0.877551	0        	0.877551	0.877551
299 	2     	0.877551	0        	0.877551	0.877551
300 	2     	0.877551	0        	0.877551	0.877551
301 	2     	0.877551	0        	0.877551	0.877551
302 	2     	0.877551	0        	0.877551	0.877551
303 	2     	0.877551	0        	0.877551	0.877551
304 	2     	0.877551	0        	0.877551	0.877551
305 	2     	0.877551	0        	0.877551	0.877551
306 	2     	0.877551	0        	0.877551	0.877551
307 	2     	0.877551	0        	0.877551	0.877551
308 	2     	0.877551	0        	0.877551	0.877551
309 	2     	0.877551	0        	0.877551	0.877551
310 	2     	0.877551	0        	0.877551	0.877551
311 	2     	0.877551	0        	0.877551	0.877551
312 	2     	0.877551	0        	0.877551	0.877551
313 	2     	0.877551	0        	0.877551	0.877551
314 	2     	0.877551	0        	0.877551	0.877551
315 	2     	0.877551	0        	0.877551	0.877551
316 	2     	0.877551	0        	0.877551	0.877551
317 	2     	0.877551	0        	0.877551	0.877551
318 	2     	0.877551	0        	0.877551	0.877551
319 	2     	0.877551	0        	0.877551	0.877551
320 	2     	0.877551	0        	0.877551	0.877551
321 	2     	0.877551	0        	0.877551	0.877551
322 	2     	0.877551	0        	0.877551	0.877551
323 	2     	0.877551	0        	0.877551	0.877551
324 	2     	0.877551	0        	0.877551	0.877551
325 	2     	0.877551	0        	0.877551	0.877551
326 	2     	0.877551	0        	0.877551	0.877551
327 	2     	0.877551	0        	0.877551	0.877551
328 	2     	0.877551	0        	0.877551	0.877551
329 	2     	0.877551	0        	0.877551	0.877551
330 	2     	0.877551	0        	0.877551	0.877551
331 	2     	0.877551	0        	0.877551	0.877551
332 	2     	0.877551	0        	0.877551	0.877551
333 	2     	0.877551	0        	0.877551	0.877551
334 	2     	0.877551	0        	0.877551	0.877551
335 	2     	0.877551	0        	0.877551	0.877551
336 	2     	0.877551	0        	0.877551	0.877551
337 	2     	0.877551	0        	0.877551	0.877551
338 	2     	0.877551	0        	0.877551	0.877551
339 	2     	0.877551	0        	0.877551	0.877551
340 	2     	0.887755	0.0102041	0.877551	0.897959
341 	2     	0.887755	0.0102041	0.877551	0.897959
342 	2     	0.887755	0.0102041	0.877551	0.897959
343 	2     	0.887755	0.0102041	0.877551	0.897959
344 	2     	0.887755	0.0102041	0.877551	0.897959
345 	2     	0.887755	0.0102041	0.877551	0.897959
346 	2     	0.887755	0.0102041	0.877551	0.897959
347 	2     	0.887755	0.0102041	0.877551	0.897959
348 	2     	0.887755	0.0102041	0.877551	0.897959
349 	2     	0.887755	0.0102041	0.877551	0.897959
350 	2     	0.887755	0.0102041	0.877551	0.897959
351 	2     	0.887755	0.0102041	0.877551	0.897959
352 	2     	0.887755	0.0102041	0.877551	0.897959
353 	2     	0.887755	0.0102041	0.877551	0.897959
354 	2     	0.887755	0.0102041	0.877551	0.897959
355 	2     	0.887755	0.0102041	0.877551	0.897959
356 	2     	0.887755	0.0102041	0.877551	0.897959
357 	2     	0.887755	0.0102041	0.877551	0.897959
358 	2     	0.897959	0        	0.897959	0.897959
359 	2     	0.897959	0        	0.897959	0.897959
360 	2     	0.897959	0        	0.897959	0.897959
361 	2     	0.897959	0        	0.897959	0.897959
362 	2     	0.897959	0        	0.897959	0.897959
363 	2     	0.897959	0        	0.897959	0.897959
364 	2     	0.897959	0        	0.897959	0.897959
365 	2     	0.897959	0        	0.897959	0.897959
366 	2     	0.897959	0        	0.897959	0.897959
367 	2     	0.897959	0        	0.897959	0.897959
368 	2     	0.897959	0        	0.897959	0.897959
369 	2     	0.897959	0        	0.897959	0.897959
370 	2     	0.897959	0        	0.897959	0.897959
371 	2     	0.897959	0        	0.897959	0.897959
372 	2     	0.897959	0        	0.897959	0.897959
373 	2     	0.897959	0        	0.897959	0.897959
374 	2     	0.897959	0        	0.897959	0.897959
375 	2     	0.897959	0        	0.897959	0.897959
376 	2     	0.897959	0        	0.897959	0.897959
377 	2     	0.897959	0        	0.897959	0.897959
378 	2     	0.897959	0        	0.897959	0.897959
379 	2     	0.897959	0        	0.897959	0.897959
380 	2     	0.897959	0        	0.897959	0.897959
381 	2     	0.897959	0        	0.897959	0.897959
382 	2     	0.897959	0        	0.897959	0.897959
383 	2     	0.897959	0        	0.897959	0.897959
384 	2     	0.897959	0        	0.897959	0.897959
385 	2     	0.897959	0        	0.897959	0.897959
386 	2     	0.897959	0        	0.897959	0.897959
387 	2     	0.897959	0        	0.897959	0.897959
388 	2     	0.897959	0        	0.897959	0.897959
389 	2     	0.897959	0        	0.897959	0.897959
390 	2     	0.897959	0        	0.897959	0.897959
391 	2     	0.897959	0        	0.897959	0.897959
392 	2     	0.897959	0        	0.897959	0.897959
393 	2     	0.897959	0        	0.897959	0.897959
394 	2     	0.897959	0        	0.897959	0.897959
395 	2     	0.897959	0        	0.897959	0.897959
396 	2     	0.897959	0        	0.897959	0.897959
397 	2     	0.897959	0        	0.897959	0.897959
398 	2     	0.897959	0        	0.897959	0.897959
399 	2     	0.897959	0        	0.897959	0.897959
400 	2     	0.897959	0        	0.897959	0.897959
401 	2     	0.897959	0        	0.897959	0.897959
402 	2     	0.897959	0        	0.897959	0.897959
403 	2     	0.897959	0        	0.897959	0.897959
404 	2     	0.897959	0        	0.897959	0.897959
405 	2     	0.897959	0        	0.897959	0.897959
406 	2     	0.897959	0        	0.897959	0.897959
407 	2     	0.897959	0        	0.897959	0.897959
408 	2     	0.897959	0        	0.897959	0.897959
409 	2     	0.897959	0        	0.897959	0.897959
410 	2     	0.897959	0        	0.897959	0.897959
411 	2     	0.897959	0        	0.897959	0.897959
412 	2     	0.897959	0        	0.897959	0.897959
413 	2     	0.897959	0        	0.897959	0.897959
414 	2     	0.897959	0        	0.897959	0.897959
415 	2     	0.897959	0        	0.897959	0.897959
416 	2     	0.897959	0        	0.897959	0.897959
417 	2     	0.897959	0        	0.897959	0.897959
418 	2     	0.897959	0        	0.897959	0.897959
419 	2     	0.897959	0        	0.897959	0.897959
420 	2     	0.897959	0        	0.897959	0.897959
421 	2     	0.897959	0        	0.897959	0.897959
422 	2     	0.897959	0        	0.897959	0.897959
423 	2     	0.897959	0        	0.897959	0.897959
424 	2     	0.897959	0        	0.897959	0.897959
425 	2     	0.897959	0        	0.897959	0.897959
426 	2     	0.897959	0        	0.897959	0.897959
427 	2     	0.897959	0        	0.897959	0.897959
428 	2     	0.897959	0        	0.897959	0.897959
429 	2     	0.897959	0        	0.897959	0.897959
430 	2     	0.897959	0        	0.897959	0.897959
431 	2     	0.897959	0        	0.897959	0.897959
432 	2     	0.897959	0        	0.897959	0.897959
433 	2     	0.897959	0        	0.897959	0.897959
434 	2     	0.897959	0        	0.897959	0.897959
435 	2     	0.897959	0        	0.897959	0.897959
436 	2     	0.897959	0        	0.897959	0.897959
437 	2     	0.897959	0        	0.897959	0.897959
438 	2     	0.897959	0        	0.897959	0.897959
439 	2     	0.897959	0        	0.897959	0.897959
440 	2     	0.897959	0        	0.897959	0.897959
441 	2     	0.897959	0        	0.897959	0.897959
442 	2     	0.897959	0        	0.897959	0.897959
443 	2     	0.897959	0        	0.897959	0.897959
444 	2     	0.897959	0        	0.897959	0.897959
445 	2     	0.897959	0        	0.897959	0.897959
446 	2     	0.897959	0        	0.897959	0.897959
447 	2     	0.897959	0        	0.897959	0.897959
448 	2     	0.897959	0        	0.897959	0.897959
449 	2     	0.897959	0        	0.897959	0.897959
450 	2     	0.908163	0.0102041	0.897959	0.918367
451 	2     	0.908163	0.0102041	0.897959	0.918367
452 	2     	0.908163	0.0102041	0.897959	0.918367
453 	2     	0.908163	0.0102041	0.897959	0.918367
454 	2     	0.908163	0.0102041	0.897959	0.918367
455 	2     	0.908163	0.0102041	0.897959	0.918367
456 	2     	0.908163	0.0102041	0.897959	0.918367
457 	2     	0.908163	0.0102041	0.897959	0.918367
458 	2     	0.908163	0.0102041	0.897959	0.918367
459 	2     	0.908163	0.0102041	0.897959	0.918367
460 	2     	0.908163	0.0102041	0.897959	0.918367
461 	2     	0.908163	0.0102041	0.897959	0.918367
462 	2     	0.908163	0.0102041	0.897959	0.918367
463 	2     	0.908163	0.0102041	0.897959	0.918367
464 	2     	0.908163	0.0102041	0.897959	0.918367
465 	2     	0.908163	0.0102041	0.897959	0.918367
466 	2     	0.908163	0.0102041	0.897959	0.918367
467 	2     	0.908163	0.0102041	0.897959	0.918367
468 	2     	0.908163	0.0102041	0.897959	0.918367
469 	2     	0.908163	0.0102041	0.897959	0.918367
470 	2     	0.908163	0.0102041	0.897959	0.918367
471 	2     	0.908163	0.0102041	0.897959	0.918367
472 	2     	0.908163	0.0102041	0.897959	0.918367
473 	2     	0.908163	0.0102041	0.897959	0.918367
474 	2     	0.908163	0.0102041	0.897959	0.918367
475 	2     	0.908163	0.0102041	0.897959	0.918367
476 	2     	0.908163	0.0102041	0.897959	0.918367
477 	2     	0.908163	0.0102041	0.897959	0.918367
478 	2     	0.908163	0.0102041	0.897959	0.918367
479 	2     	0.908163	0.0102041	0.897959	0.918367
480 	2     	0.908163	0.0102041	0.897959	0.918367
481 	2     	0.908163	0.0102041	0.897959	0.918367
482 	2     	0.908163	0.0102041	0.897959	0.918367
483 	2     	0.908163	0.0102041	0.897959	0.918367
484 	2     	0.908163	0.0102041	0.897959	0.918367
485 	2     	0.908163	0.0102041	0.897959	0.918367
486 	2     	0.908163	0.0102041	0.897959	0.918367
487 	2     	0.908163	0.0102041	0.897959	0.918367
488 	2     	0.908163	0.0102041	0.897959	0.918367
489 	2     	0.908163	0.0102041	0.897959	0.918367
490 	2     	0.908163	0.0102041	0.897959	0.918367
491 	2     	0.908163	0.0102041	0.897959	0.918367
492 	2     	0.908163	0.0102041	0.897959	0.918367
493 	2     	0.908163	0.0102041	0.897959	0.918367
494 	2     	0.908163	0.0102041	0.897959	0.918367
495 	2     	0.908163	0.0102041	0.897959	0.918367
496 	2     	0.908163	0.0102041	0.897959	0.918367
497 	2     	0.908163	0.0102041	0.897959	0.918367
498 	2     	0.908163	0.0102041	0.897959	0.918367
499 	2     	0.908163	0.0102041	0.897959	0.918367
500 	2     	0.908163	0.0102041	0.897959	0.918367
501 	2     	0.908163	0.0102041	0.897959	0.918367
502 	2     	0.908163	0.0102041	0.897959	0.918367
503 	2     	0.908163	0.0102041	0.897959	0.918367
504 	2     	0.908163	0.0102041	0.897959	0.918367
505 	2     	0.908163	0.0102041	0.897959	0.918367
506 	2     	0.908163	0.0102041	0.897959	0.918367
507 	2     	0.908163	0.0102041	0.897959	0.918367
508 	2     	0.908163	0.0102041	0.897959	0.918367
509 	2     	0.908163	0.0102041	0.897959	0.918367
510 	2     	0.908163	0.0102041	0.897959	0.918367
511 	2     	0.908163	0.0102041	0.897959	0.918367
512 	2     	0.908163	0.0102041	0.897959	0.918367
513 	2     	0.908163	0.0102041	0.897959	0.918367
514 	2     	0.908163	0.0102041	0.897959	0.918367
515 	2     	0.908163	0.0102041	0.897959	0.918367
516 	2     	0.908163	0.0102041	0.897959	0.918367
517 	2     	0.908163	0.0102041	0.897959	0.918367
518 	2     	0.908163	0.0102041	0.897959	0.918367
519 	2     	0.908163	0.0102041	0.897959	0.918367
520 	2     	0.908163	0.0102041	0.897959	0.918367
521 	2     	0.908163	0.0102041	0.897959	0.918367
522 	2     	0.908163	0.0102041	0.897959	0.918367
523 	2     	0.908163	0.0102041	0.897959	0.918367
524 	2     	0.908163	0.0102041	0.897959	0.918367
525 	2     	0.908163	0.0102041	0.897959	0.918367
526 	2     	0.908163	0.0102041	0.897959	0.918367
527 	2     	0.908163	0.0102041	0.897959	0.918367
528 	2     	0.908163	0.0102041	0.897959	0.918367
529 	2     	0.908163	0.0102041	0.897959	0.918367
530 	2     	0.908163	0.0102041	0.897959	0.918367
531 	2     	0.908163	0.0102041	0.897959	0.918367
532 	2     	0.908163	0.0102041	0.897959	0.918367
533 	2     	0.908163	0.0102041	0.897959	0.918367
534 	2     	0.908163	0.0102041	0.897959	0.918367
535 	2     	0.908163	0.0102041	0.897959	0.918367
536 	2     	0.908163	0.0102041	0.897959	0.918367
537 	2     	0.908163	0.0102041	0.897959	0.918367
538 	2     	0.908163	0.0102041	0.897959	0.918367
539 	2     	0.908163	0.0102041	0.897959	0.918367
540 	2     	0.908163	0.0102041	0.897959	0.918367
541 	2     	0.908163	0.0102041	0.897959	0.918367
542 	2     	0.908163	0.0102041	0.897959	0.918367
543 	2     	0.908163	0.0102041	0.897959	0.918367
544 	2     	0.908163	0.0102041	0.897959	0.918367
545 	2     	0.908163	0.0102041	0.897959	0.918367
546 	2     	0.908163	0.0102041	0.897959	0.918367
547 	2     	0.908163	0.0102041	0.897959	0.918367
548 	2     	0.908163	0.0102041	0.897959	0.918367
549 	2     	0.908163	0.0102041	0.897959	0.918367
550 	2     	0.908163	0.0102041	0.897959	0.918367
551 	2     	0.908163	0.0102041	0.897959	0.918367
552 	2     	0.908163	0.0102041	0.897959	0.918367
553 	2     	0.908163	0.0102041	0.897959	0.918367
554 	2     	0.908163	0.0102041	0.897959	0.918367
555 	2     	0.918367	0        	0.918367	0.918367
556 	2     	0.918367	0        	0.918367	0.918367
557 	2     	0.918367	0        	0.918367	0.918367
558 	2     	0.918367	0        	0.918367	0.918367
559 	2     	0.918367	0        	0.918367	0.918367
560 	2     	0.918367	0        	0.918367	0.918367
561 	2     	0.918367	0        	0.918367	0.918367
562 	2     	0.918367	0        	0.918367	0.918367
563 	2     	0.918367	0        	0.918367	0.918367
564 	2     	0.918367	0        	0.918367	0.918367
565 	2     	0.918367	0        	0.918367	0.918367
566 	2     	0.918367	0        	0.918367	0.918367
567 	2     	0.918367	0        	0.918367	0.918367
568 	2     	0.918367	0        	0.918367	0.918367
569 	2     	0.918367	0        	0.918367	0.918367
570 	2     	0.918367	0        	0.918367	0.918367
571 	2     	0.918367	0        	0.918367	0.918367
572 	2     	0.918367	0        	0.918367	0.918367
573 	2     	0.918367	0        	0.918367	0.918367
574 	2     	0.918367	0        	0.918367	0.918367
575 	2     	0.918367	0        	0.918367	0.918367
576 	2     	0.918367	0        	0.918367	0.918367
577 	2     	0.918367	0        	0.918367	0.918367
578 	2     	0.918367	0        	0.918367	0.918367
579 	2     	0.918367	0        	0.918367	0.918367
580 	2     	0.918367	0        	0.918367	0.918367
581 	2     	0.918367	0        	0.918367	0.918367
582 	2     	0.918367	0        	0.918367	0.918367
583 	2     	0.918367	0        	0.918367	0.918367
584 	2     	0.918367	0        	0.918367	0.918367
585 	2     	0.918367	0        	0.918367	0.918367
586 	2     	0.918367	0        	0.918367	0.918367
587 	2     	0.918367	0        	0.918367	0.918367
588 	2     	0.918367	0        	0.918367	0.918367
589 	2     	0.918367	0        	0.918367	0.918367
590 	2     	0.918367	0        	0.918367	0.918367
591 	2     	0.918367	0        	0.918367	0.918367
592 	2     	0.918367	0        	0.918367	0.918367
593 	2     	0.918367	0        	0.918367	0.918367
594 	2     	0.918367	0        	0.918367	0.918367
595 	2     	0.918367	0        	0.918367	0.918367
596 	2     	0.918367	0        	0.918367	0.918367
597 	2     	0.918367	0        	0.918367	0.918367
598 	2     	0.918367	0        	0.918367	0.918367
599 	2     	0.918367	0        	0.918367	0.918367
600 	2     	0.918367	0        	0.918367	0.918367
601 	2     	0.918367	0        	0.918367	0.918367
602 	2     	0.918367	0        	0.918367	0.918367
603 	2     	0.918367	0        	0.918367	0.918367
604 	2     	0.918367	0        	0.918367	0.918367
605 	2     	0.918367	0        	0.918367	0.918367
606 	2     	0.918367	0        	0.918367	0.918367
607 	2     	0.918367	0        	0.918367	0.918367
608 	2     	0.918367	0        	0.918367	0.918367
609 	2     	0.918367	0        	0.918367	0.918367
610 	2     	0.918367	0        	0.918367	0.918367
611 	2     	0.918367	0        	0.918367	0.918367
612 	2     	0.918367	0        	0.918367	0.918367
613 	2     	0.918367	0        	0.918367	0.918367
614 	2     	0.918367	0        	0.918367	0.918367
615 	2     	0.918367	0        	0.918367	0.918367
616 	2     	0.918367	0        	0.918367	0.918367
617 	2     	0.918367	0        	0.918367	0.918367
618 	2     	0.918367	0        	0.918367	0.918367
619 	2     	0.918367	0        	0.918367	0.918367
620 	2     	0.918367	0        	0.918367	0.918367
621 	2     	0.918367	0        	0.918367	0.918367
622 	2     	0.918367	0        	0.918367	0.918367
623 	2     	0.918367	0        	0.918367	0.918367
624 	2     	0.918367	0        	0.918367	0.918367
625 	2     	0.918367	0        	0.918367	0.918367
626 	2     	0.918367	0        	0.918367	0.918367
627 	2     	0.918367	0        	0.918367	0.918367
628 	2     	0.918367	0        	0.918367	0.918367
629 	2     	0.918367	0        	0.918367	0.918367
630 	2     	0.918367	0        	0.918367	0.918367
631 	2     	0.918367	0        	0.918367	0.918367
632 	2     	0.918367	0        	0.918367	0.918367
633 	2     	0.918367	0        	0.918367	0.918367
634 	2     	0.918367	0        	0.918367	0.918367
635 	2     	0.918367	0        	0.918367	0.918367
636 	2     	0.918367	0        	0.918367	0.918367
637 	2     	0.918367	0        	0.918367	0.918367
638 	2     	0.918367	0        	0.918367	0.918367
639 	2     	0.918367	0        	0.918367	0.918367
640 	2     	0.918367	0        	0.918367	0.918367
641 	2     	0.918367	0        	0.918367	0.918367
642 	2     	0.918367	0        	0.918367	0.918367
643 	2     	0.918367	0        	0.918367	0.918367
644 	2     	0.918367	0        	0.918367	0.918367
645 	2     	0.918367	0        	0.918367	0.918367
646 	2     	0.918367	0        	0.918367	0.918367
647 	2     	0.918367	0        	0.918367	0.918367
648 	2     	0.918367	0        	0.918367	0.918367
649 	2     	0.918367	0        	0.918367	0.918367
650 	2     	0.918367	0        	0.918367	0.918367
651 	2     	0.918367	0        	0.918367	0.918367
652 	2     	0.918367	0        	0.918367	0.918367
653 	2     	0.918367	0        	0.918367	0.918367
654 	2     	0.918367	0        	0.918367	0.918367
655 	2     	0.918367	0        	0.918367	0.918367
656 	2     	0.918367	0        	0.918367	0.918367
657 	2     	0.918367	0        	0.918367	0.918367
658 	2     	0.918367	0        	0.918367	0.918367
659 	2     	0.918367	0        	0.918367	0.918367
660 	2     	0.918367	0        	0.918367	0.918367
661 	2     	0.918367	0        	0.918367	0.918367
662 	2     	0.918367	0        	0.918367	0.918367
663 	2     	0.918367	0        	0.918367	0.918367
664 	2     	0.918367	0        	0.918367	0.918367
665 	2     	0.918367	0        	0.918367	0.918367
666 	2     	0.918367	0        	0.918367	0.918367
667 	2     	0.918367	0        	0.918367	0.918367
668 	2     	0.918367	0        	0.918367	0.918367
669 	2     	0.918367	0        	0.918367	0.918367
670 	2     	0.918367	0        	0.918367	0.918367
671 	2     	0.918367	0        	0.918367	0.918367
672 	2     	0.918367	0        	0.918367	0.918367
673 	2     	0.918367	0        	0.918367	0.918367
674 	2     	0.918367	0        	0.918367	0.918367
675 	2     	0.918367	0        	0.918367	0.918367
676 	2     	0.918367	0        	0.918367	0.918367
677 	2     	0.918367	0        	0.918367	0.918367
678 	2     	0.918367	0        	0.918367	0.918367
679 	2     	0.918367	0        	0.918367	0.918367
680 	2     	0.918367	0        	0.918367	0.918367
681 	2     	0.918367	0        	0.918367	0.918367
682 	2     	0.918367	0        	0.918367	0.918367
683 	2     	0.918367	0        	0.918367	0.918367
684 	2     	0.918367	0        	0.918367	0.918367
685 	2     	0.918367	0        	0.918367	0.918367
686 	2     	0.918367	0        	0.918367	0.918367
687 	2     	0.918367	0        	0.918367	0.918367
688 	2     	0.918367	0        	0.918367	0.918367
689 	2     	0.918367	0        	0.918367	0.918367
690 	2     	0.918367	0        	0.918367	0.918367
691 	2     	0.918367	0        	0.918367	0.918367
692 	2     	0.918367	0        	0.918367	0.918367
693 	2     	0.918367	0        	0.918367	0.918367
694 	2     	0.918367	0        	0.918367	0.918367
695 	2     	0.918367	0        	0.918367	0.918367
696 	2     	0.918367	0        	0.918367	0.918367
697 	2     	0.918367	0        	0.918367	0.918367
698 	2     	0.918367	0        	0.918367	0.918367
699 	2     	0.918367	0        	0.918367	0.918367
700 	2     	0.918367	0        	0.918367	0.918367
701 	2     	0.918367	0        	0.918367	0.918367
702 	2     	0.918367	0        	0.918367	0.918367
703 	2     	0.918367	0        	0.918367	0.918367
704 	2     	0.918367	0        	0.918367	0.918367
705 	2     	0.918367	0        	0.918367	0.918367
706 	2     	0.918367	0        	0.918367	0.918367
707 	2     	0.918367	0        	0.918367	0.918367
708 	2     	0.918367	0        	0.918367	0.918367
709 	2     	0.918367	0        	0.918367	0.918367
710 	2     	0.918367	0        	0.918367	0.918367
711 	2     	0.918367	0        	0.918367	0.918367
712 	2     	0.918367	0        	0.918367	0.918367
713 	2     	0.918367	0        	0.918367	0.918367
714 	2     	0.918367	0        	0.918367	0.918367
715 	2     	0.918367	0        	0.918367	0.918367
716 	2     	0.918367	0        	0.918367	0.918367
717 	2     	0.918367	0        	0.918367	0.918367
718 	2     	0.918367	0        	0.918367	0.918367
719 	2     	0.918367	0        	0.918367	0.918367
720 	2     	0.918367	0        	0.918367	0.918367
721 	2     	0.918367	0        	0.918367	0.918367
722 	2     	0.918367	0        	0.918367	0.918367
723 	2     	0.918367	0        	0.918367	0.918367
724 	2     	0.918367	0        	0.918367	0.918367
725 	2     	0.918367	0        	0.918367	0.918367
726 	2     	0.918367	0        	0.918367	0.918367
727 	2     	0.918367	0        	0.918367	0.918367
728 	2     	0.918367	0        	0.918367	0.918367
729 	2     	0.918367	0        	0.918367	0.918367
730 	2     	0.918367	0        	0.918367	0.918367
731 	2     	0.918367	0        	0.918367	0.918367
732 	2     	0.918367	0        	0.918367	0.918367
733 	2     	0.918367	0        	0.918367	0.918367
734 	2     	0.918367	0        	0.918367	0.918367
735 	2     	0.918367	0        	0.918367	0.918367
736 	2     	0.918367	0        	0.918367	0.918367
737 	2     	0.918367	0        	0.918367	0.918367
738 	2     	0.918367	0        	0.918367	0.918367
739 	2     	0.918367	0        	0.918367	0.918367
740 	2     	0.918367	0        	0.918367	0.918367
741 	2     	0.918367	0        	0.918367	0.918367
742 	2     	0.918367	0        	0.918367	0.918367
743 	2     	0.918367	0        	0.918367	0.918367
744 	2     	0.918367	0        	0.918367	0.918367
745 	2     	0.918367	0        	0.918367	0.918367
746 	2     	0.918367	0        	0.918367	0.918367
747 	2     	0.918367	0        	0.918367	0.918367
748 	2     	0.918367	0        	0.918367	0.918367
749 	2     	0.918367	0        	0.918367	0.918367
750 	2     	0.918367	0        	0.918367	0.918367
751 	2     	0.918367	0        	0.918367	0.918367
752 	2     	0.918367	0        	0.918367	0.918367
753 	2     	0.918367	0        	0.918367	0.918367
754 	2     	0.918367	0        	0.918367	0.918367
755 	2     	0.918367	0        	0.918367	0.918367
756 	2     	0.918367	0        	0.918367	0.918367
757 	2     	0.918367	0        	0.918367	0.918367
758 	2     	0.918367	0        	0.918367	0.918367
759 	2     	0.918367	0        	0.918367	0.918367
760 	2     	0.918367	0        	0.918367	0.918367
761 	2     	0.918367	0        	0.918367	0.918367
762 	2     	0.918367	0        	0.918367	0.918367
763 	2     	0.918367	0        	0.918367	0.918367
764 	2     	0.918367	0        	0.918367	0.918367
765 	2     	0.918367	0        	0.918367	0.918367
766 	2     	0.918367	0        	0.918367	0.918367
767 	2     	0.918367	0        	0.918367	0.918367
768 	2     	0.918367	0        	0.918367	0.918367
769 	2     	0.918367	0        	0.918367	0.918367
770 	2     	0.918367	0        	0.918367	0.918367
771 	2     	0.918367	0        	0.918367	0.918367
772 	2     	0.918367	0        	0.918367	0.918367
773 	2     	0.918367	0        	0.918367	0.918367
774 	2     	0.918367	0        	0.918367	0.918367
775 	2     	0.918367	0        	0.918367	0.918367
776 	2     	0.918367	0        	0.918367	0.918367
777 	2     	0.918367	0        	0.918367	0.918367
778 	2     	0.918367	0        	0.918367	0.918367
779 	2     	0.918367	0        	0.918367	0.918367
780 	2     	0.918367	0        	0.918367	0.918367
781 	2     	0.918367	0        	0.918367	0.918367
782 	2     	0.918367	0        	0.918367	0.918367
783 	2     	0.918367	0        	0.918367	0.918367
784 	2     	0.918367	0        	0.918367	0.918367
785 	2     	0.918367	0        	0.918367	0.918367
786 	2     	0.918367	0        	0.918367	0.918367
787 	2     	0.918367	0        	0.918367	0.918367
788 	2     	0.918367	0        	0.918367	0.918367
789 	2     	0.918367	0        	0.918367	0.918367
790 	2     	0.918367	0        	0.918367	0.918367
791 	2     	0.918367	0        	0.918367	0.918367
792 	2     	0.918367	0        	0.918367	0.918367
793 	2     	0.918367	0        	0.918367	0.918367
794 	2     	0.918367	0        	0.918367	0.918367
795 	2     	0.918367	0        	0.918367	0.918367
796 	2     	0.918367	0        	0.918367	0.918367
797 	2     	0.918367	0        	0.918367	0.918367
798 	2     	0.918367	0        	0.918367	0.918367
799 	2     	0.918367	0        	0.918367	0.918367
800 	2     	0.918367	0        	0.918367	0.918367
801 	2     	0.918367	0        	0.918367	0.918367
802 	2     	0.918367	0        	0.918367	0.918367
803 	2     	0.918367	0        	0.918367	0.918367
804 	2     	0.918367	0        	0.918367	0.918367
805 	2     	0.918367	0        	0.918367	0.918367
806 	2     	0.918367	0        	0.918367	0.918367
807 	2     	0.918367	0        	0.918367	0.918367
808 	2     	0.918367	0        	0.918367	0.918367
809 	2     	0.918367	0        	0.918367	0.918367
810 	2     	0.918367	0        	0.918367	0.918367
811 	2     	0.918367	0        	0.918367	0.918367
812 	2     	0.918367	0        	0.918367	0.918367
813 	2     	0.918367	0        	0.918367	0.918367
814 	2     	0.918367	0        	0.918367	0.918367
815 	2     	0.918367	0        	0.918367	0.918367
816 	2     	0.918367	0        	0.918367	0.918367
817 	2     	0.918367	0        	0.918367	0.918367
818 	2     	0.918367	0        	0.918367	0.918367
819 	2     	0.918367	0        	0.918367	0.918367
820 	2     	0.918367	0        	0.918367	0.918367
821 	2     	0.918367	0        	0.918367	0.918367
822 	2     	0.918367	0        	0.918367	0.918367
823 	2     	0.918367	0        	0.918367	0.918367
824 	2     	0.918367	0        	0.918367	0.918367
825 	2     	0.918367	0        	0.918367	0.918367
826 	2     	0.918367	0        	0.918367	0.918367
827 	2     	0.918367	0        	0.918367	0.918367
828 	2     	0.918367	0        	0.918367	0.918367
829 	2     	0.918367	0        	0.918367	0.918367
830 	2     	0.918367	0        	0.918367	0.918367
831 	2     	0.918367	0        	0.918367	0.918367
832 	2     	0.918367	0        	0.918367	0.918367
833 	2     	0.918367	0        	0.918367	0.918367
834 	2     	0.918367	0        	0.918367	0.918367
835 	2     	0.918367	0        	0.918367	0.918367
836 	2     	0.918367	0        	0.918367	0.918367
837 	2     	0.918367	0        	0.918367	0.918367
838 	2     	0.918367	0        	0.918367	0.918367
839 	2     	0.918367	0        	0.918367	0.918367
840 	2     	0.918367	0        	0.918367	0.918367
841 	2     	0.918367	0        	0.918367	0.918367
842 	2     	0.918367	0        	0.918367	0.918367
843 	2     	0.918367	0        	0.918367	0.918367
844 	2     	0.918367	0        	0.918367	0.918367
845 	2     	0.918367	0        	0.918367	0.918367
846 	2     	0.918367	0        	0.918367	0.918367
847 	2     	0.918367	0        	0.918367	0.918367
848 	2     	0.918367	0        	0.918367	0.918367
849 	2     	0.918367	0        	0.918367	0.918367
850 	2     	0.918367	0        	0.918367	0.918367
851 	2     	0.918367	0        	0.918367	0.918367
852 	2     	0.918367	0        	0.918367	0.918367
853 	2     	0.918367	0        	0.918367	0.918367
854 	2     	0.918367	0        	0.918367	0.918367
855 	2     	0.918367	0        	0.918367	0.918367
856 	2     	0.918367	0        	0.918367	0.918367
857 	2     	0.918367	0        	0.918367	0.918367
858 	2     	0.918367	0        	0.918367	0.918367
859 	2     	0.918367	0        	0.918367	0.918367
860 	2     	0.918367	0        	0.918367	0.918367
861 	2     	0.918367	0        	0.918367	0.918367
862 	2     	0.918367	0        	0.918367	0.918367
863 	2     	0.918367	0        	0.918367	0.918367
864 	2     	0.918367	0        	0.918367	0.918367
865 	2     	0.918367	0        	0.918367	0.918367
866 	2     	0.918367	0        	0.918367	0.918367
867 	2     	0.918367	0        	0.918367	0.918367
868 	2     	0.918367	0        	0.918367	0.918367
869 	2     	0.918367	0        	0.918367	0.918367
870 	2     	0.918367	0        	0.918367	0.918367
871 	2     	0.918367	0        	0.918367	0.918367
872 	2     	0.918367	0        	0.918367	0.918367
873 	2     	0.918367	0        	0.918367	0.918367
874 	2     	0.918367	0        	0.918367	0.918367
875 	2     	0.918367	0        	0.918367	0.918367
876 	2     	0.918367	0        	0.918367	0.918367
877 	2     	0.918367	0        	0.918367	0.918367
878 	2     	0.918367	0        	0.918367	0.918367
879 	2     	0.918367	0        	0.918367	0.918367
880 	2     	0.918367	0        	0.918367	0.918367
881 	2     	0.918367	0        	0.918367	0.918367
882 	2     	0.918367	0        	0.918367	0.918367
883 	2     	0.918367	0        	0.918367	0.918367
884 	2     	0.918367	0        	0.918367	0.918367
885 	2     	0.918367	0        	0.918367	0.918367
886 	2     	0.918367	0        	0.918367	0.918367
887 	2     	0.918367	0        	0.918367	0.918367
888 	2     	0.918367	0        	0.918367	0.918367
889 	2     	0.918367	0        	0.918367	0.918367
890 	2     	0.918367	0        	0.918367	0.918367
891 	2     	0.918367	0        	0.918367	0.918367
892 	2     	0.918367	0        	0.918367	0.918367
893 	2     	0.918367	0        	0.918367	0.918367
894 	2     	0.918367	0        	0.918367	0.918367
895 	2     	0.918367	0        	0.918367	0.918367
896 	2     	0.918367	0        	0.918367	0.918367
897 	2     	0.918367	0        	0.918367	0.918367
898 	2     	0.918367	0        	0.918367	0.918367
899 	2     	0.918367	0        	0.918367	0.918367
900 	2     	0.918367	0        	0.918367	0.918367
901 	2     	0.918367	0        	0.918367	0.918367
902 	2     	0.918367	0        	0.918367	0.918367
903 	2     	0.918367	0        	0.918367	0.918367
904 	2     	0.918367	0        	0.918367	0.918367
905 	2     	0.918367	0        	0.918367	0.918367
906 	2     	0.918367	0        	0.918367	0.918367
907 	2     	0.918367	0        	0.918367	0.918367
908 	2     	0.918367	0        	0.918367	0.918367
909 	2     	0.918367	0        	0.918367	0.918367
910 	2     	0.918367	0        	0.918367	0.918367
911 	2     	0.918367	0        	0.918367	0.918367
912 	2     	0.918367	0        	0.918367	0.918367
913 	2     	0.918367	0        	0.918367	0.918367
914 	2     	0.918367	0        	0.918367	0.918367
915 	2     	0.918367	0        	0.918367	0.918367
916 	2     	0.918367	0        	0.918367	0.918367
917 	2     	0.918367	0        	0.918367	0.918367
918 	2     	0.918367	0        	0.918367	0.918367
919 	2     	0.918367	0        	0.918367	0.918367
920 	2     	0.918367	0        	0.918367	0.918367
921 	2     	0.918367	0        	0.918367	0.918367
922 	2     	0.918367	0        	0.918367	0.918367
923 	2     	0.918367	0        	0.918367	0.918367
924 	2     	0.918367	0        	0.918367	0.918367
925 	2     	0.918367	0        	0.918367	0.918367
926 	2     	0.918367	0        	0.918367	0.918367
927 	2     	0.918367	0        	0.918367	0.918367
928 	2     	0.918367	0        	0.918367	0.918367
929 	2     	0.918367	0        	0.918367	0.918367
930 	2     	0.918367	0        	0.918367	0.918367
931 	2     	0.918367	0        	0.918367	0.918367
932 	2     	0.918367	0        	0.918367	0.918367
933 	2     	0.918367	0        	0.918367	0.918367
934 	2     	0.918367	0        	0.918367	0.918367
935 	2     	0.918367	0        	0.918367	0.918367
936 	2     	0.918367	0        	0.918367	0.918367
937 	2     	0.918367	0        	0.918367	0.918367
938 	2     	0.918367	0        	0.918367	0.918367
939 	2     	0.918367	0        	0.918367	0.918367
940 	2     	0.918367	0        	0.918367	0.918367
941 	2     	0.918367	0        	0.918367	0.918367
942 	2     	0.918367	0        	0.918367	0.918367
943 	2     	0.918367	0        	0.918367	0.918367
944 	2     	0.918367	0        	0.918367	0.918367
945 	2     	0.918367	0        	0.918367	0.918367
946 	2     	0.918367	0        	0.918367	0.918367
947 	2     	0.918367	0        	0.918367	0.918367
948 	2     	0.918367	0        	0.918367	0.918367
949 	2     	0.918367	0        	0.918367	0.918367
950 	2     	0.918367	0        	0.918367	0.918367
951 	2     	0.918367	0        	0.918367	0.918367
952 	2     	0.918367	0        	0.918367	0.918367
953 	2     	0.918367	0        	0.918367	0.918367
954 	2     	0.918367	0        	0.918367	0.918367
955 	2     	0.918367	0        	0.918367	0.918367
956 	2     	0.918367	0        	0.918367	0.918367
957 	2     	0.918367	0        	0.918367	0.918367
958 	2     	0.918367	0        	0.918367	0.918367
959 	2     	0.918367	0        	0.918367	0.918367
960 	2     	0.918367	0        	0.918367	0.918367
961 	2     	0.918367	0        	0.918367	0.918367
962 	2     	0.918367	0        	0.918367	0.918367
963 	2     	0.918367	0        	0.918367	0.918367
964 	2     	0.918367	0        	0.918367	0.918367
965 	2     	0.918367	0        	0.918367	0.918367
966 	2     	0.918367	0        	0.918367	0.918367
967 	2     	0.918367	0        	0.918367	0.918367
968 	2     	0.918367	0        	0.918367	0.918367
969 	2     	0.918367	0        	0.918367	0.918367
970 	2     	0.918367	0        	0.918367	0.918367
971 	2     	0.918367	0        	0.918367	0.918367
972 	2     	0.918367	0        	0.918367	0.918367
973 	2     	0.918367	0        	0.918367	0.918367
974 	2     	0.918367	0        	0.918367	0.918367
975 	2     	0.918367	0        	0.918367	0.918367
976 	2     	0.918367	0        	0.918367	0.918367
977 	2     	0.918367	0        	0.918367	0.918367
978 	2     	0.918367	0        	0.918367	0.918367
979 	2     	0.918367	0        	0.918367	0.918367
980 	2     	0.918367	0        	0.918367	0.918367
981 	2     	0.918367	0        	0.918367	0.918367
982 	2     	0.918367	0        	0.918367	0.918367
983 	2     	0.918367	0        	0.918367	0.918367
984 	2     	0.918367	0        	0.918367	0.918367
985 	2     	0.918367	0        	0.918367	0.918367
986 	2     	0.918367	0        	0.918367	0.918367
987 	2     	0.918367	0        	0.918367	0.918367
988 	2     	0.918367	0        	0.918367	0.918367
989 	2     	0.918367	0        	0.918367	0.918367
990 	2     	0.918367	0        	0.918367	0.918367
991 	2     	0.918367	0        	0.918367	0.918367
992 	2     	0.918367	0        	0.918367	0.918367
993 	2     	0.918367	0        	0.918367	0.918367
994 	2     	0.918367	0        	0.918367	0.918367
995 	2     	0.918367	0        	0.918367	0.918367
996 	2     	0.918367	0        	0.918367	0.918367
997 	2     	0.918367	0        	0.918367	0.918367
998 	2     	0.918367	0        	0.918367	0.918367
999 	2     	0.918367	0        	0.918367	0.918367
1000	2     	0.918367	0        	0.918367	0.918367
1001	2     	0.918367	0        	0.918367	0.918367
1002	2     	0.918367	0        	0.918367	0.918367
1003	2     	0.918367	0        	0.918367	0.918367
1004	2     	0.918367	0        	0.918367	0.918367
1005	2     	0.918367	0        	0.918367	0.918367
1006	2     	0.918367	0        	0.918367	0.918367
1007	2     	0.918367	0        	0.918367	0.918367
1008	2     	0.918367	0        	0.918367	0.918367
1009	2     	0.918367	0        	0.918367	0.918367
1010	2     	0.918367	0        	0.918367	0.918367
1011	2     	0.918367	0        	0.918367	0.918367
1012	2     	0.918367	0        	0.918367	0.918367
1013	2     	0.918367	0        	0.918367	0.918367
1014	2     	0.918367	0        	0.918367	0.918367
1015	2     	0.918367	0        	0.918367	0.918367
1016	2     	0.918367	0        	0.918367	0.918367
1017	2     	0.918367	0        	0.918367	0.918367
1018	2     	0.918367	0        	0.918367	0.918367
1019	2     	0.918367	0        	0.918367	0.918367
1020	2     	0.918367	0        	0.918367	0.918367
1021	2     	0.918367	0        	0.918367	0.918367
1022	2     	0.918367	0        	0.918367	0.918367
1023	2     	0.918367	0        	0.918367	0.918367
1024	2     	0.918367	0        	0.918367	0.918367
1025	2     	0.918367	0        	0.918367	0.918367
1026	2     	0.918367	0        	0.918367	0.918367
1027	2     	0.918367	0        	0.918367	0.918367
1028	2     	0.918367	0        	0.918367	0.918367
1029	2     	0.918367	0        	0.918367	0.918367
1030	2     	0.918367	0        	0.918367	0.918367
1031	2     	0.918367	0        	0.918367	0.918367
1032	2     	0.918367	0        	0.918367	0.918367
1033	2     	0.918367	0        	0.918367	0.918367
1034	2     	0.918367	0        	0.918367	0.918367
1035	2     	0.928571	0.0102041	0.918367	0.938776
1036	2     	0.928571	0.0102041	0.918367	0.938776
1037	2     	0.928571	0.0102041	0.918367	0.938776
1038	2     	0.928571	0.0102041	0.918367	0.938776
1039	2     	0.928571	0.0102041	0.918367	0.938776
1040	2     	0.928571	0.0102041	0.918367	0.938776
1041	2     	0.928571	0.0102041	0.918367	0.938776
1042	2     	0.928571	0.0102041	0.918367	0.938776
1043	2     	0.928571	0.0102041	0.918367	0.938776
1044	2     	0.928571	0.0102041	0.918367	0.938776
1045	2     	0.928571	0.0102041	0.918367	0.938776
1046	2     	0.928571	0.0102041	0.918367	0.938776
1047	2     	0.928571	0.0102041	0.918367	0.938776
1048	2     	0.928571	0.0102041	0.918367	0.938776
1049	2     	0.928571	0.0102041	0.918367	0.938776
1050	2     	0.928571	0.0102041	0.918367	0.938776
1051	2     	0.928571	0.0102041	0.918367	0.938776
1052	2     	0.928571	0.0102041	0.918367	0.938776
1053	2     	0.928571	0.0102041	0.918367	0.938776
1054	2     	0.928571	0.0102041	0.918367	0.938776
1055	2     	0.928571	0.0102041	0.918367	0.938776
1056	2     	0.928571	0.0102041	0.918367	0.938776
1057	2     	0.928571	0.0102041	0.918367	0.938776
1058	2     	0.928571	0.0102041	0.918367	0.938776
1059	2     	0.928571	0.0102041	0.918367	0.938776
1060	2     	0.928571	0.0102041	0.918367	0.938776
1061	2     	0.928571	0.0102041	0.918367	0.938776
1062	2     	0.928571	0.0102041	0.918367	0.938776
1063	2     	0.928571	0.0102041	0.918367	0.938776
1064	2     	0.928571	0.0102041	0.918367	0.938776
1065	2     	0.928571	0.0102041	0.918367	0.938776
1066	2     	0.928571	0.0102041	0.918367	0.938776
1067	2     	0.928571	0.0102041	0.918367	0.938776
1068	2     	0.928571	0.0102041	0.918367	0.938776
1069	2     	0.928571	0.0102041	0.918367	0.938776
1070	2     	0.928571	0.0102041	0.918367	0.938776
1071	2     	0.928571	0.0102041	0.918367	0.938776
1072	2     	0.928571	0.0102041	0.918367	0.938776
1073	2     	0.928571	0.0102041	0.918367	0.938776
1074	2     	0.928571	0.0102041	0.918367	0.938776
1075	2     	0.928571	0.0102041	0.918367	0.938776
1076	2     	0.928571	0.0102041	0.918367	0.938776
1077	2     	0.928571	0.0102041	0.918367	0.938776
1078	2     	0.938776	0        	0.938776	0.938776
1079	2     	0.938776	0        	0.938776	0.938776
1080	2     	0.938776	0        	0.938776	0.938776
1081	2     	0.938776	0        	0.938776	0.938776
1082	2     	0.938776	0        	0.938776	0.938776
1083	2     	0.938776	0        	0.938776	0.938776
1084	2     	0.938776	0        	0.938776	0.938776
1085	2     	0.938776	0        	0.938776	0.938776
1086	2     	0.938776	0        	0.938776	0.938776
1087	2     	0.938776	0        	0.938776	0.938776
1088	2     	0.938776	0        	0.938776	0.938776
1089	2     	0.938776	0        	0.938776	0.938776
1090	2     	0.94898 	0.0102041	0.938776	0.959184
1091	2     	0.94898 	0.0102041	0.938776	0.959184
1092	2     	0.94898 	0.0102041	0.938776	0.959184
1093	2     	0.94898 	0.0102041	0.938776	0.959184
1094	2     	0.94898 	0.0102041	0.938776	0.959184
1095	2     	0.94898 	0.0102041	0.938776	0.959184
1096	2     	0.959184	0        	0.959184	0.959184
1097	2     	0.959184	0        	0.959184	0.959184
1098	2     	0.959184	0        	0.959184	0.959184
1099	2     	0.959184	0        	0.959184	0.959184
1100	2     	0.959184	0        	0.959184	0.959184
1101	2     	0.959184	0        	0.959184	0.959184
1102	2     	0.959184	0        	0.959184	0.959184
1103	2     	0.959184	0        	0.959184	0.959184
1104	2     	0.959184	0        	0.959184	0.959184
1105	2     	0.959184	0        	0.959184	0.959184
1106	2     	0.959184	0        	0.959184	0.959184
1107	2     	0.959184	0        	0.959184	0.959184
1108	2     	0.959184	0        	0.959184	0.959184
1109	2     	0.959184	0        	0.959184	0.959184
1110	2     	0.959184	0        	0.959184	0.959184
1111	2     	0.959184	0        	0.959184	0.959184
1112	2     	0.959184	0        	0.959184	0.959184
1113	2     	0.959184	0        	0.959184	0.959184
1114	2     	0.959184	0        	0.959184	0.959184
1115	2     	0.959184	0        	0.959184	0.959184
1116	2     	0.959184	0        	0.959184	0.959184
1117	2     	0.959184	0        	0.959184	0.959184
1118	2     	0.959184	0        	0.959184	0.959184
1119	2     	0.959184	0        	0.959184	0.959184
1120	2     	0.959184	0        	0.959184	0.959184
1121	2     	0.959184	0        	0.959184	0.959184
1122	2     	0.959184	0        	0.959184	0.959184
1123	2     	0.959184	0        	0.959184	0.959184
1124	2     	0.959184	0        	0.959184	0.959184
1125	2     	0.959184	0        	0.959184	0.959184
1126	2     	0.959184	0        	0.959184	0.959184
1127	2     	0.959184	0        	0.959184	0.959184
1128	2     	0.959184	0        	0.959184	0.959184
1129	2     	0.959184	0        	0.959184	0.959184
1130	2     	0.959184	0        	0.959184	0.959184
1131	2     	0.959184	0        	0.959184	0.959184
1132	2     	0.959184	0        	0.959184	0.959184
1133	2     	0.959184	0        	0.959184	0.959184
1134	2     	0.959184	0        	0.959184	0.959184
1135	2     	0.959184	0        	0.959184	0.959184
1136	2     	0.959184	0        	0.959184	0.959184
1137	2     	0.959184	0        	0.959184	0.959184
1138	2     	0.959184	0        	0.959184	0.959184
1139	2     	0.959184	0        	0.959184	0.959184
1140	2     	0.959184	0        	0.959184	0.959184
1141	2     	0.959184	0        	0.959184	0.959184
1142	2     	0.959184	0        	0.959184	0.959184
1143	2     	0.959184	0        	0.959184	0.959184
1144	2     	0.959184	0        	0.959184	0.959184
1145	2     	0.959184	0        	0.959184	0.959184
1146	2     	0.959184	0        	0.959184	0.959184
1147	2     	0.959184	0        	0.959184	0.959184
1148	2     	0.959184	0        	0.959184	0.959184
1149	2     	0.959184	0        	0.959184	0.959184
1150	2     	0.959184	0        	0.959184	0.959184
1151	2     	0.959184	0        	0.959184	0.959184
1152	2     	0.959184	0        	0.959184	0.959184
1153	2     	0.959184	0        	0.959184	0.959184
1154	2     	0.959184	0        	0.959184	0.959184
1155	2     	0.959184	0        	0.959184	0.959184
1156	2     	0.959184	0        	0.959184	0.959184
1157	2     	0.959184	0        	0.959184	0.959184
1158	2     	0.959184	0        	0.959184	0.959184
1159	2     	0.959184	0        	0.959184	0.959184
1160	2     	0.959184	0        	0.959184	0.959184
1161	2     	0.959184	0        	0.959184	0.959184
1162	2     	0.959184	0        	0.959184	0.959184
1163	2     	0.959184	0        	0.959184	0.959184
1164	2     	0.959184	0        	0.959184	0.959184
1165	2     	0.959184	0        	0.959184	0.959184
1166	2     	0.959184	0        	0.959184	0.959184
1167	2     	0.959184	0        	0.959184	0.959184
1168	2     	0.959184	0        	0.959184	0.959184
1169	2     	0.959184	0        	0.959184	0.959184
1170	2     	0.959184	0        	0.959184	0.959184
1171	2     	0.959184	0        	0.959184	0.959184
1172	2     	0.959184	0        	0.959184	0.959184
1173	2     	0.959184	0        	0.959184	0.959184
1174	2     	0.959184	0        	0.959184	0.959184
1175	2     	0.959184	0        	0.959184	0.959184
1176	2     	0.959184	0        	0.959184	0.959184
1177	2     	0.959184	0        	0.959184	0.959184
1178	2     	0.959184	0        	0.959184	0.959184
1179	2     	0.959184	0        	0.959184	0.959184
1180	2     	0.959184	0        	0.959184	0.959184
1181	2     	0.959184	0        	0.959184	0.959184
1182	2     	0.959184	0        	0.959184	0.959184
1183	2     	0.959184	0        	0.959184	0.959184
1184	2     	0.959184	0        	0.959184	0.959184
1185	2     	0.959184	0        	0.959184	0.959184
1186	2     	0.959184	0        	0.959184	0.959184
1187	2     	0.959184	0        	0.959184	0.959184
1188	2     	0.959184	0        	0.959184	0.959184
1189	2     	0.959184	0        	0.959184	0.959184
1190	2     	0.959184	0        	0.959184	0.959184
1191	2     	0.959184	0        	0.959184	0.959184
1192	2     	0.959184	0        	0.959184	0.959184
1193	2     	0.959184	0        	0.959184	0.959184
1194	2     	0.959184	0        	0.959184	0.959184
1195	2     	0.959184	0        	0.959184	0.959184
1196	2     	0.959184	0        	0.959184	0.959184
1197	2     	0.959184	0        	0.959184	0.959184
1198	2     	0.959184	0        	0.959184	0.959184
1199	2     	0.959184	0        	0.959184	0.959184
1200	2     	0.959184	0        	0.959184	0.959184
1201	2     	0.959184	0        	0.959184	0.959184
1202	2     	0.959184	0        	0.959184	0.959184
1203	2     	0.959184	0        	0.959184	0.959184
1204	2     	0.959184	0        	0.959184	0.959184
1205	2     	0.959184	0        	0.959184	0.959184
1206	2     	0.959184	0        	0.959184	0.959184
1207	2     	0.959184	0        	0.959184	0.959184
1208	2     	0.959184	0        	0.959184	0.959184
1209	2     	0.959184	0        	0.959184	0.959184
1210	2     	0.959184	0        	0.959184	0.959184
1211	2     	0.959184	0        	0.959184	0.959184
1212	2     	0.959184	0        	0.959184	0.959184
1213	2     	0.959184	0        	0.959184	0.959184
1214	2     	0.959184	0        	0.959184	0.959184
1215	2     	0.959184	0        	0.959184	0.959184
1216	2     	0.959184	0        	0.959184	0.959184
1217	2     	0.959184	0        	0.959184	0.959184
1218	2     	0.959184	0        	0.959184	0.959184
1219	2     	0.959184	0        	0.959184	0.959184
1220	2     	0.959184	0        	0.959184	0.959184
1221	2     	0.959184	0        	0.959184	0.959184
1222	2     	0.959184	0        	0.959184	0.959184
1223	2     	0.959184	0        	0.959184	0.959184
1224	2     	0.959184	0        	0.959184	0.959184
1225	2     	0.959184	0        	0.959184	0.959184
1226	2     	0.959184	0        	0.959184	0.959184
1227	2     	0.959184	0        	0.959184	0.959184
1228	2     	0.959184	0        	0.959184	0.959184
1229	2     	0.959184	0        	0.959184	0.959184
1230	2     	0.959184	0        	0.959184	0.959184
1231	2     	0.959184	0        	0.959184	0.959184
1232	2     	0.959184	0        	0.959184	0.959184
1233	2     	0.959184	0        	0.959184	0.959184
1234	2     	0.959184	0        	0.959184	0.959184
1235	2     	0.959184	0        	0.959184	0.959184
1236	2     	0.959184	0        	0.959184	0.959184
1237	2     	0.959184	0        	0.959184	0.959184
1238	2     	0.959184	0        	0.959184	0.959184
1239	2     	0.959184	0        	0.959184	0.959184
1240	2     	0.959184	0        	0.959184	0.959184
1241	2     	0.959184	0        	0.959184	0.959184
1242	2     	0.959184	0        	0.959184	0.959184
1243	2     	0.959184	0        	0.959184	0.959184
1244	2     	0.959184	0        	0.959184	0.959184
1245	2     	0.959184	0        	0.959184	0.959184
1246	2     	0.959184	0        	0.959184	0.959184
1247	2     	0.959184	0        	0.959184	0.959184
1248	2     	0.959184	0        	0.959184	0.959184
1249	2     	0.959184	0        	0.959184	0.959184
1250	2     	0.959184	0        	0.959184	0.959184
1251	2     	0.959184	0        	0.959184	0.959184
1252	2     	0.959184	0        	0.959184	0.959184
1253	2     	0.959184	0        	0.959184	0.959184
1254	2     	0.959184	0        	0.959184	0.959184
1255	2     	0.959184	0        	0.959184	0.959184
1256	2     	0.959184	0        	0.959184	0.959184
1257	2     	0.959184	0        	0.959184	0.959184
1258	2     	0.959184	0        	0.959184	0.959184
1259	2     	0.959184	0        	0.959184	0.959184
1260	2     	0.959184	0        	0.959184	0.959184
1261	2     	0.959184	0        	0.959184	0.959184
1262	2     	0.959184	0        	0.959184	0.959184
1263	2     	0.959184	0        	0.959184	0.959184
1264	2     	0.959184	0        	0.959184	0.959184
1265	2     	0.959184	0        	0.959184	0.959184
1266	2     	0.959184	0        	0.959184	0.959184
1267	2     	0.959184	0        	0.959184	0.959184
1268	2     	0.959184	0        	0.959184	0.959184
1269	2     	0.959184	0        	0.959184	0.959184
1270	2     	0.959184	0        	0.959184	0.959184
1271	2     	0.959184	0        	0.959184	0.959184
1272	2     	0.959184	0        	0.959184	0.959184
1273	2     	0.959184	0        	0.959184	0.959184
1274	2     	0.959184	0        	0.959184	0.959184
1275	2     	0.959184	0        	0.959184	0.959184
1276	2     	0.959184	0        	0.959184	0.959184
1277	2     	0.959184	0        	0.959184	0.959184
1278	2     	0.959184	0        	0.959184	0.959184
1279	2     	0.959184	0        	0.959184	0.959184
1280	2     	0.959184	0        	0.959184	0.959184
1281	2     	0.959184	0        	0.959184	0.959184
1282	2     	0.959184	0        	0.959184	0.959184
1283	2     	0.959184	0        	0.959184	0.959184
1284	2     	0.959184	0        	0.959184	0.959184
1285	2     	0.959184	0        	0.959184	0.959184
1286	2     	0.959184	0        	0.959184	0.959184
1287	2     	0.959184	0        	0.959184	0.959184
1288	2     	0.959184	0        	0.959184	0.959184
1289	2     	0.959184	0        	0.959184	0.959184
1290	2     	0.959184	0        	0.959184	0.959184
1291	2     	0.959184	0        	0.959184	0.959184
1292	2     	0.959184	0        	0.959184	0.959184
1293	2     	0.959184	0        	0.959184	0.959184
1294	2     	0.959184	0        	0.959184	0.959184
1295	2     	0.959184	0        	0.959184	0.959184
1296	2     	0.959184	0        	0.959184	0.959184
1297	2     	0.959184	0        	0.959184	0.959184
1298	2     	0.959184	0        	0.959184	0.959184
1299	2     	0.959184	0        	0.959184	0.959184
1300	2     	0.959184	0        	0.959184	0.959184
1301	2     	0.959184	0        	0.959184	0.959184
1302	2     	0.959184	0        	0.959184	0.959184
1303	2     	0.959184	0        	0.959184	0.959184
1304	2     	0.959184	0        	0.959184	0.959184
1305	2     	0.959184	0        	0.959184	0.959184
1306	2     	0.959184	0        	0.959184	0.959184
1307	2     	0.959184	0        	0.959184	0.959184
1308	2     	0.959184	0        	0.959184	0.959184
1309	2     	0.959184	0        	0.959184	0.959184
1310	2     	0.959184	0        	0.959184	0.959184
1311	2     	0.959184	0        	0.959184	0.959184
1312	2     	0.959184	0        	0.959184	0.959184
1313	2     	0.959184	0        	0.959184	0.959184
1314	2     	0.959184	0        	0.959184	0.959184
1315	2     	0.959184	0        	0.959184	0.959184
1316	2     	0.959184	0        	0.959184	0.959184
1317	2     	0.959184	0        	0.959184	0.959184
1318	2     	0.959184	0        	0.959184	0.959184
1319	2     	0.959184	0        	0.959184	0.959184
1320	2     	0.959184	0        	0.959184	0.959184
1321	2     	0.959184	0        	0.959184	0.959184
1322	2     	0.959184	0        	0.959184	0.959184
1323	2     	0.959184	0        	0.959184	0.959184
1324	2     	0.959184	0        	0.959184	0.959184
1325	2     	0.959184	0        	0.959184	0.959184
1326	2     	0.959184	0        	0.959184	0.959184
1327	2     	0.959184	0        	0.959184	0.959184
1328	2     	0.959184	0        	0.959184	0.959184
1329	2     	0.959184	0        	0.959184	0.959184
1330	2     	0.959184	0        	0.959184	0.959184
1331	2     	0.959184	0        	0.959184	0.959184
1332	2     	0.959184	0        	0.959184	0.959184
1333	2     	0.959184	0        	0.959184	0.959184
1334	2     	0.969388	0.0102041	0.959184	0.979592
1335	2     	0.969388	0.0102041	0.959184	0.979592
1336	2     	0.969388	0.0102041	0.959184	0.979592
1337	2     	0.969388	0.0102041	0.959184	0.979592
1338	2     	0.969388	0.0102041	0.959184	0.979592
1339	2     	0.969388	0.0102041	0.959184	0.979592
1340	2     	0.969388	0.0102041	0.959184	0.979592
1341	2     	0.969388	0.0102041	0.959184	0.979592
1342	2     	0.969388	0.0102041	0.959184	0.979592
1343	2     	0.969388	0.0102041	0.959184	0.979592
1344	2     	0.969388	0.0102041	0.959184	0.979592
1345	2     	0.969388	0.0102041	0.959184	0.979592
1346	2     	0.969388	0.0102041	0.959184	0.979592
1347	2     	0.969388	0.0102041	0.959184	0.979592
1348	2     	0.969388	0.0102041	0.959184	0.979592
1349	2     	0.969388	0.0102041	0.959184	0.979592
1350	2     	0.969388	0.0102041	0.959184	0.979592
1351	2     	0.969388	0.0102041	0.959184	0.979592
1352	2     	0.969388	0.0102041	0.959184	0.979592
1353	2     	0.969388	0.0102041	0.959184	0.979592
1354	2     	0.969388	0.0102041	0.959184	0.979592
1355	2     	0.969388	0.0102041	0.959184	0.979592
1356	2     	0.969388	0.0102041	0.959184	0.979592
1357	2     	0.969388	0.0102041	0.959184	0.979592
1358	2     	0.969388	0.0102041	0.959184	0.979592
1359	2     	0.969388	0.0102041	0.959184	0.979592
1360	2     	0.969388	0.0102041	0.959184	0.979592
1361	2     	0.969388	0.0102041	0.959184	0.979592
1362	2     	0.969388	0.0102041	0.959184	0.979592
1363	2     	0.969388	0.0102041	0.959184	0.979592
1364	2     	0.969388	0.0102041	0.959184	0.979592
1365	2     	0.969388	0.0102041	0.959184	0.979592
1366	2     	0.969388	0.0102041	0.959184	0.979592
1367	2     	0.969388	0.0102041	0.959184	0.979592
1368	2     	0.969388	0.0102041	0.959184	0.979592
1369	2     	0.969388	0.0102041	0.959184	0.979592
1370	2     	0.969388	0.0102041	0.959184	0.979592
1371	2     	0.969388	0.0102041	0.959184	0.979592
1372	2     	0.969388	0.0102041	0.959184	0.979592
1373	2     	0.969388	0.0102041	0.959184	0.979592
1374	2     	0.969388	0.0102041	0.959184	0.979592
1375	2     	0.969388	0.0102041	0.959184	0.979592
1376	2     	0.969388	0.0102041	0.959184	0.979592
1377	2     	0.969388	0.0102041	0.959184	0.979592
1378	2     	0.969388	0.0102041	0.959184	0.979592
1379	2     	0.969388	0.0102041	0.959184	0.979592
1380	2     	0.969388	0.0102041	0.959184	0.979592
1381	2     	0.969388	0.0102041	0.959184	0.979592
1382	2     	0.969388	0.0102041	0.959184	0.979592
1383	2     	0.969388	0.0102041	0.959184	0.979592
1384	2     	0.969388	0.0102041	0.959184	0.979592
1385	2     	0.969388	0.0102041	0.959184	0.979592
1386	2     	0.969388	0.0102041	0.959184	0.979592
1387	2     	0.969388	0.0102041	0.959184	0.979592
1388	2     	0.969388	0.0102041	0.959184	0.979592
1389	2     	0.969388	0.0102041	0.959184	0.979592
1390	2     	0.969388	0.0102041	0.959184	0.979592
1391	2     	0.969388	0.0102041	0.959184	0.979592
1392	2     	0.969388	0.0102041	0.959184	0.979592
1393	2     	0.969388	0.0102041	0.959184	0.979592
1394	2     	0.969388	0.0102041	0.959184	0.979592
1395	2     	0.969388	0.0102041	0.959184	0.979592
1396	2     	0.969388	0.0102041	0.959184	0.979592
1397	2     	0.969388	0.0102041	0.959184	0.979592
1398	2     	0.969388	0.0102041	0.959184	0.979592
1399	2     	0.969388	0.0102041	0.959184	0.979592
1400	2     	0.969388	0.0102041	0.959184	0.979592
1401	2     	0.969388	0.0102041	0.959184	0.979592
1402	2     	0.969388	0.0102041	0.959184	0.979592
1403	2     	0.969388	0.0102041	0.959184	0.979592
1404	2     	0.969388	0.0102041	0.959184	0.979592
1405	2     	0.969388	0.0102041	0.959184	0.979592
1406	2     	0.969388	0.0102041	0.959184	0.979592
1407	2     	0.969388	0.0102041	0.959184	0.979592
1408	2     	0.969388	0.0102041	0.959184	0.979592
1409	2     	0.969388	0.0102041	0.959184	0.979592
1410	2     	0.969388	0.0102041	0.959184	0.979592
1411	2     	0.969388	0.0102041	0.959184	0.979592
1412	2     	0.969388	0.0102041	0.959184	0.979592
1413	2     	0.969388	0.0102041	0.959184	0.979592
1414	2     	0.969388	0.0102041	0.959184	0.979592
1415	2     	0.969388	0.0102041	0.959184	0.979592
1416	2     	0.969388	0.0102041	0.959184	0.979592
1417	2     	0.969388	0.0102041	0.959184	0.979592
1418	2     	0.969388	0.0102041	0.959184	0.979592
1419	2     	0.969388	0.0102041	0.959184	0.979592
1420	2     	0.969388	0.0102041	0.959184	0.979592
1421	2     	0.969388	0.0102041	0.959184	0.979592
1422	2     	0.969388	0.0102041	0.959184	0.979592
1423	2     	0.969388	0.0102041	0.959184	0.979592
1424	2     	0.969388	0.0102041	0.959184	0.979592
1425	2     	0.969388	0.0102041	0.959184	0.979592
1426	2     	0.969388	0.0102041	0.959184	0.979592
1427	2     	0.969388	0.0102041	0.959184	0.979592
1428	2     	0.969388	0.0102041	0.959184	0.979592
1429	2     	0.969388	0.0102041	0.959184	0.979592
1430	2     	0.969388	0.0102041	0.959184	0.979592
1431	2     	0.969388	0.0102041	0.959184	0.979592
1432	2     	0.969388	0.0102041	0.959184	0.979592
1433	2     	0.969388	0.0102041	0.959184	0.979592
1434	2     	0.979592	0        	0.979592	0.979592
1435	2     	0.979592	0        	0.979592	0.979592
1436	2     	0.979592	0        	0.979592	0.979592
1437	2     	0.979592	0        	0.979592	0.979592
1438	2     	0.979592	0        	0.979592	0.979592
1439	2     	0.979592	0        	0.979592	0.979592
1440	2     	0.979592	0        	0.979592	0.979592
1441	2     	0.979592	0        	0.979592	0.979592
1442	2     	0.979592	0        	0.979592	0.979592
1443	2     	0.979592	0        	0.979592	0.979592
1444	2     	0.979592	0        	0.979592	0.979592
1445	2     	0.979592	0        	0.979592	0.979592
1446	2     	0.979592	0        	0.979592	0.979592
1447	2     	0.979592	0        	0.979592	0.979592
1448	2     	0.979592	0        	0.979592	0.979592
1449	2     	0.979592	0        	0.979592	0.979592
1450	2     	0.979592	0        	0.979592	0.979592
1451	2     	0.979592	0        	0.979592	0.979592
1452	2     	0.979592	0        	0.979592	0.979592
1453	2     	0.979592	0        	0.979592	0.979592
1454	2     	0.979592	0        	0.979592	0.979592
1455	2     	0.979592	0        	0.979592	0.979592
1456	2     	0.979592	0        	0.979592	0.979592
1457	2     	0.979592	0        	0.979592	0.979592
1458	2     	0.979592	0        	0.979592	0.979592
1459	2     	0.979592	0        	0.979592	0.979592
1460	2     	0.979592	0        	0.979592	0.979592
1461	2     	0.979592	0        	0.979592	0.979592
1462	2     	0.979592	0        	0.979592	0.979592
1463	2     	0.979592	0        	0.979592	0.979592
1464	2     	0.979592	0        	0.979592	0.979592
1465	2     	0.979592	0        	0.979592	0.979592
1466	2     	0.979592	0        	0.979592	0.979592
1467	2     	0.979592	0        	0.979592	0.979592
1468	2     	0.979592	0        	0.979592	0.979592
1469	2     	0.979592	0        	0.979592	0.979592