gen	nevals	avg 	std 	min 	max 
0  	2     	0.54	0.06	0.48	0.6 
1  	2     	0.6 	0   	0.6 	0.6 
2  	2     	0.62	0.02	0.6 	0.64
3  	2     	0.66	0.02	0.64	0.68
4  	2     	0.68	0   	0.68	0.68
5  	2     	0.68	0   	0.68	0.68
6  	2     	0.7 	0.02	0.68	0.72
7  	2     	0.7 	0.02	0.68	0.72
8  	2     	0.7 	0.02	0.68	0.72
9  	2     	0.72	0   	0.72	0.72
10 	2     	0.72	0   	0.72	0.72
11 	2     	0.72	0   	0.72	0.72
12 	2     	0.74	0.02	0.72	0.76
13 	2     	0.74	0.02	0.72	0.76
14 	2     	0.74	0.02	0.72	0.76
15 	2     	0.76	0   	0.76	0.76
16 	2     	0.76	0   	0.76	0.76
17 	2     	0.78	0.02	0.76	0.8 
18 	2     	0.82	0.02	0.8 	0.84
19 	2     	0.82	0.02	0.8 	0.84
20 	2     	0.82	0.02	0.8 	0.84
21 	2     	0.84	0   	0.84	0.84
22 	2     	0.84	0   	0.84	0.84
23 	2     	0.84	0   	0.84	0.84
24 	2     	0.84	0   	0.84	0.84
25 	2     	0.84	0   	0.84	0.84
26 	2     	0.84	0   	0.84	0.84
27 	2     	0.84	0   	0.84	0.84
28 	2     	0.84	0   	0.84	0.84
29 	2     	0.84	0   	0.84	0.84
30 	2     	0.84	0   	0.84	0.84
31 	2     	0.84	0   	0.84	0.84
32 	2     	0.84	0   	0.84	0.84
33 	2     	0.86	0.02	0.84	0.88
34 	2     	0.86	0.02	0.84	0.88
35 	2     	0.86	0.02	0.84	0.88
36 	2     	0.86	0.02	0.84	0.88
37 	2     	0.86	0.02	0.84	0.88
38 	2     	0.86	0.02	0.84	0.88
39 	2     	0.86	0.02	0.84	0.88
40 	2     	0.86	0.02	0.84	0.88
41 	2     	0.86	0.02	0.84	0.88
42 	2     	0.88	0   	0.88	0.88
43 	2     	0.88	0   	0.88	0.88
44 	2     	0.88	0   	0.88	0.88
45 	2     	0.88	0   	0.88	0.88
46 	2     	0.88	0   	0.88	0.88
47 	2     	0.88	0   	0.88	0.88
48 	2     	0.88	0   	0.88	0.88
49 	2     	0.88	0   	0.88	0.88
50 	2     	0.88	0   	0.88	0.88
51 	2     	0.88	0   	0.88	0.88
52 	2     	0.92	0.04	0.88	0.96
53 	2     	0.92	0.04	0.88	0.96
54 	2     	0.92	0.04	0.88	0.96
55 	2     	0.92	0.04	0.88	0.96
56 	2     	0.92	0.04	0.88	0.96
57 	2     	0.92	0.04	0.88	0.96
58 	2     	0.94	0.02	0.92	0.96
59 	2     	0.94	0.02	0.92	0.96
60 	2     	0.94	0.02	0.92	0.96
61 	2     	0.94	0.02	0.92	0.96
62 	2     	0.94	0.02	0.92	0.96
63 	2     	0.94	0.02	0.92	0.96
64 	2     	0.94	0.02	0.92	0.96
65 	2     	0.94	0.02	0.92	0.96
66 	2     	0.94	0.02	0.92	0.96
67 	2     	0.94	0.02	0.92	0.96
68 	2     	0.94	0.02	0.92	0.96
69 	2     	0.94	0.02	0.92	0.96
70 	2     	0.94	0.02	0.92	0.96
71 	2     	0.94	0.02	0.92	0.96
72 	2     	0.94	0.02	0.92	0.96
73 	2     	0.94	0.02	0.92	0.96
74 	2     	0.94	0.02	0.92	0.96
75 	2     	0.94	0.02	0.92	0.96
76 	2     	0.94	0.02	0.92	0.96
77 	2     	0.94	0.02	0.92	0.96
78 	2     	0.96	0   	0.96	0.96
79 	2     	0.96	0   	0.96	0.96
80 	2     	0.96	0   	0.96	0.96
81 	2     	0.96	0   	0.96	0.96
82 	2     	0.96	0   	0.96	0.96
83 	2     	0.96	0   	0.96	0.96
84 	2     	0.96	0   	0.96	0.96
85 	2     	0.96	0   	0.96	0.96
86 	2     	0.96	0   	0.96	0.96
87 	2     	0.96	0   	0.96	0.96
88 	2     	0.96	0   	0.96	0.96
89 	2     	0.96	0   	0.96	0.96
90 	2     	0.96	0   	0.96	0.96
91 	2     	0.96	0   	0.96	0.96
92 	2     	0.96	0   	0.96	0.96
93 	2     	0.96	0   	0.96	0.96
94 	2     	0.96	0   	0.96	0.96
95 	2     	0.96	0   	0.96	0.96
96 	2     	0.96	0   	0.96	0.96
97 	2     	0.96	0   	0.96	0.96
98 	2     	0.96	0   	0.96	0.96
99 	2     	0.96	0   	0.96	0.96
100	2     	0.96	0   	0.96	0.96
101	2     	0.96	0   	0.96	0.96
102	2     	0.96	0   	0.96	0.96
103	2     	0.96	0   	0.96	0.96
104	2     	0.96	0   	0.96	0.96
105	2     	0.96	0   	0.96	0.96
106	2     	0.96	0   	0.96	0.96
107	2     	0.96	0   	0.96	0.96
108	2     	0.96	0   	0.96	0.96
109	2     	0.96	0   	0.96	0.96
110	2     	0.96	0   	0.96	0.96
111	2     	0.96	0   	0.96	0.96
112	2     	0.96	0   	0.96	0.96
113	2     	0.96	0   	0.96	0.96
114	2     	0.96	0   	0.96	0.96
115	2     	0.96	0   	0.96	0.96