gen	nevals	avg     	std      	min     	max     
0  	2     	0.540816	0.0102041	0.530612	0.55102 
1  	2     	0.581633	0.0306122	0.55102 	0.612245
2  	2     	0.602041	0.0102041	0.591837	0.612245
3  	2     	0.602041	0.0102041	0.591837	0.612245
4  	2     	0.602041	0.0102041	0.591837	0.612245
5  	2     	0.602041	0.0102041	0.591837	0.612245
6  	2     	0.602041	0.0102041	0.591837	0.612245
7  	2     	0.602041	0.0102041	0.591837	0.612245
8  	2     	0.632653	0.0204082	0.612245	0.653061
9  	2     	0.663265	0.0102041	0.653061	0.673469
10 	2     	0.683673	0.0102041	0.673469	0.693878
11 	2     	0.683673	0.0102041	0.673469	0.693878
12 	2     	0.683673	0.0102041	0.673469	0.693878
13 	2     	0.683673	0.0102041	0.673469	0.693878
14 	2     	0.704082	0.0102041	0.693878	0.714286
15 	2     	0.704082	0.0102041	0.693878	0.714286
16 	2     	0.704082	0.0102041	0.693878	0.714286
17 	2     	0.704082	0.0102041	0.693878	0.714286
18 	2     	0.704082	0.0102041	0.693878	0.714286
19 	2     	0.704082	0.0102041	0.693878	0.714286
20 	2     	0.714286	0        	0.714286	0.714286
21 	2     	0.714286	0        	0.714286	0.714286
22 	2     	0.714286	0        	0.714286	0.714286
23 	2     	0.714286	0        	0.714286	0.714286
24 	2     	0.72449 	0.0102041	0.714286	0.734694
25 	2     	0.72449 	0.0102041	0.714286	0.734694
26 	2     	0.744898	0.0102041	0.734694	0.755102
27 	2     	0.744898	0.0102041	0.734694	0.755102
28 	2     	0.744898	0.0102041	0.734694	0.755102
29 	2     	0.744898	0.0102041	0.734694	0.755102
30 	2     	0.744898	0.0102041	0.734694	0.755102
31 	2     	0.744898	0.0102041	0.734694	0.755102
32 	2     	0.744898	0.0102041	0.734694	0.755102
33 	2     	0.765306	0.0102041	0.755102	0.77551 
34 	2     	0.765306	0.0102041	0.755102	0.77551 
35 	2     	0.765306	0.0102041	0.755102	0.77551 
36 	2     	0.765306	0.0102041	0.755102	0.77551 
37 	2     	0.77551 	0        	0.77551 	0.77551 
38 	2     	0.77551 	0        	0.77551 	0.77551 
39 	2     	0.77551 	0        	0.77551 	0.77551 
40 	2     	0.77551 	0        	0.77551 	0.77551 
41 	2     	0.77551 	0        	0.77551 	0.77551 
42 	2     	0.77551 	0        	0.77551 	0.77551 
43 	2     	0.77551 	0        	0.77551 	0.77551 
44 	2     	0.77551 	0        	0.77551 	0.77551 
45 	2     	0.77551 	0        	0.77551 	0.77551 
46 	2     	0.77551 	0        	0.77551 	0.77551 
47 	2     	0.77551 	0        	0.77551 	0.77551 
48 	2     	0.77551 	0        	0.77551 	0.77551 
49 	2     	0.77551 	0        	0.77551 	0.77551 
50 	2     	0.785714	0.0102041	0.77551 	0.795918
51 	2     	0.785714	0.0102041	0.77551 	0.795918
52 	2     	0.785714	0.0102041	0.77551 	0.795918
53 	2     	0.785714	0.0102041	0.77551 	0.795918
54 	2     	0.785714	0.0102041	0.77551 	0.795918
55 	2     	0.785714	0.0102041	0.77551 	0.795918
56 	2     	0.795918	0        	0.795918	0.795918
57 	2     	0.795918	0        	0.795918	0.795918
58 	2     	0.795918	0        	0.795918	0.795918
59 	2     	0.795918	0        	0.795918	0.795918
60 	2     	0.836735	0.0408163	0.795918	0.877551
61 	2     	0.877551	0        	0.877551	0.877551
62 	2     	0.877551	0        	0.877551	0.877551
63 	2     	0.877551	0        	0.877551	0.877551
64 	2     	0.877551	0        	0.877551	0.877551
65 	2     	0.877551	0        	0.877551	0.877551
66 	2     	0.877551	0        	0.877551	0.877551
67 	2     	0.877551	0        	0.877551	0.877551
68 	2     	0.877551	0        	0.877551	0.877551
69 	2     	0.877551	0        	0.877551	0.877551
70 	2     	0.877551	0        	0.877551	0.877551
71 	2     	0.877551	0        	0.877551	0.877551
72 	2     	0.877551	0        	0.877551	0.877551
73 	2     	0.877551	0        	0.877551	0.877551
74 	2     	0.877551	0        	0.877551	0.877551
75 	2     	0.877551	0        	0.877551	0.877551
76 	2     	0.877551	0        	0.877551	0.877551
77 	2     	0.877551	0        	0.877551	0.877551
78 	2     	0.877551	0        	0.877551	0.877551
79 	2     	0.877551	0        	0.877551	0.877551
80 	2     	0.877551	0        	0.877551	0.877551
81 	2     	0.877551	0        	0.877551	0.877551
82 	2     	0.877551	0        	0.877551	0.877551
83 	2     	0.877551	0        	0.877551	0.877551
84 	2     	0.877551	0        	0.877551	0.877551
85 	2     	0.877551	0        	0.877551	0.877551
86 	2     	0.877551	0        	0.877551	0.877551
87 	2     	0.877551	0        	0.877551	0.877551
88 	2     	0.877551	0        	0.877551	0.877551
89 	2     	0.877551	0        	0.877551	0.877551
90 	2     	0.887755	0.0102041	0.877551	0.897959
91 	2     	0.887755	0.0102041	0.877551	0.897959
92 	2     	0.887755	0.0102041	0.877551	0.897959
93 	2     	0.887755	0.0102041	0.877551	0.897959
94 	2     	0.887755	0.0102041	0.877551	0.897959
95 	2     	0.887755	0.0102041	0.877551	0.897959
96 	2     	0.887755	0.0102041	0.877551	0.897959
97 	2     	0.887755	0.0102041	0.877551	0.897959
98 	2     	0.887755	0.0102041	0.877551	0.897959
99 	2     	0.887755	0.0102041	0.877551	0.897959
100	2     	0.887755	0.0102041	0.877551	0.897959
101	2     	0.887755	0.0102041	0.877551	0.897959
102	2     	0.887755	0.0102041	0.877551	0.897959
103	2     	0.887755	0.0102041	0.877551	0.897959
104	2     	0.887755	0.0102041	0.877551	0.897959
105	2     	0.887755	0.0102041	0.877551	0.897959
106	2     	0.887755	0.0102041	0.877551	0.897959
107	2     	0.887755	0.0102041	0.877551	0.897959
108	2     	0.887755	0.0102041	0.877551	0.897959
109	2     	0.887755	0.0102041	0.877551	0.897959
110	2     	0.887755	0.0102041	0.877551	0.897959
111	2     	0.887755	0.0102041	0.877551	0.897959
112	2     	0.887755	0.0102041	0.877551	0.897959
113	2     	0.887755	0.0102041	0.877551	0.897959
114	2     	0.887755	0.0102041	0.877551	0.897959
115	2     	0.887755	0.0102041	0.877551	0.897959
116	2     	0.887755	0.0102041	0.877551	0.897959
117	2     	0.887755	0.0102041	0.877551	0.897959
118	2     	0.887755	0.0102041	0.877551	0.897959
119	2     	0.887755	0.0102041	0.877551	0.897959
120	2     	0.887755	0.0102041	0.877551	0.897959
121	2     	0.887755	0.0102041	0.877551	0.897959
122	2     	0.887755	0.0102041	0.877551	0.897959
123	2     	0.887755	0.0102041	0.877551	0.897959
124	2     	0.908163	0.0102041	0.897959	0.918367
125	2     	0.918367	0        	0.918367	0.918367
126	2     	0.918367	0        	0.918367	0.918367
127	2     	0.918367	0        	0.918367	0.918367
128	2     	0.918367	0        	0.918367	0.918367
129	2     	0.918367	0        	0.918367	0.918367
130	2     	0.918367	0        	0.918367	0.918367
131	2     	0.918367	0        	0.918367	0.918367
132	2     	0.918367	0        	0.918367	0.918367
133	2     	0.918367	0        	0.918367	0.918367
134	2     	0.918367	0        	0.918367	0.918367
135	2     	0.918367	0        	0.918367	0.918367
136	2     	0.918367	0        	0.918367	0.918367
137	2     	0.918367	0        	0.918367	0.918367
138	2     	0.918367	0        	0.918367	0.918367
139	2     	0.918367	0        	0.918367	0.918367
140	2     	0.918367	0        	0.918367	0.918367
141	2     	0.918367	0        	0.918367	0.918367
142	2     	0.918367	0        	0.918367	0.918367
143	2     	0.918367	0        	0.918367	0.918367
144	2     	0.918367	0        	0.918367	0.918367
145	2     	0.918367	0        	0.918367	0.918367
146	2     	0.918367	0        	0.918367	0.918367
147	2     	0.918367	0        	0.918367	0.918367
148	2     	0.918367	0        	0.918367	0.918367
149	2     	0.918367	0        	0.918367	0.918367
150	2     	0.918367	0        	0.918367	0.918367
151	2     	0.918367	0        	0.918367	0.918367
152	2     	0.918367	0        	0.918367	0.918367
153	2     	0.918367	0        	0.918367	0.918367
154	2     	0.918367	0        	0.918367	0.918367
155	2     	0.918367	0        	0.918367	0.918367
156	2     	0.918367	0        	0.918367	0.918367
157	2     	0.918367	0        	0.918367	0.918367
158	2     	0.918367	0        	0.918367	0.918367
159	2     	0.918367	0        	0.918367	0.918367
160	2     	0.918367	0        	0.918367	0.918367
161	2     	0.918367	0        	0.918367	0.918367
162	2     	0.918367	0        	0.918367	0.918367
163	2     	0.918367	0        	0.918367	0.918367
164	2     	0.918367	0        	0.918367	0.918367
165	2     	0.918367	0        	0.918367	0.918367
166	2     	0.918367	0        	0.918367	0.918367
167	2     	0.918367	0        	0.918367	0.918367
168	2     	0.918367	0        	0.918367	0.918367
169	2     	0.918367	0        	0.918367	0.918367
170	2     	0.918367	0        	0.918367	0.918367
171	2     	0.918367	0        	0.918367	0.918367
172	2     	0.918367	0        	0.918367	0.918367
173	2     	0.918367	0        	0.918367	0.918367
174	2     	0.918367	0        	0.918367	0.918367
175	2     	0.918367	0        	0.918367	0.918367
176	2     	0.918367	0        	0.918367	0.918367
177	2     	0.918367	0        	0.918367	0.918367
178	2     	0.918367	0        	0.918367	0.918367
179	2     	0.918367	0        	0.918367	0.918367
180	2     	0.918367	0        	0.918367	0.918367
181	2     	0.918367	0        	0.918367	0.918367
182	2     	0.918367	0        	0.918367	0.918367
183	2     	0.918367	0        	0.918367	0.918367
184	2     	0.918367	0        	0.918367	0.918367
185	2     	0.918367	0        	0.918367	0.918367
186	2     	0.918367	0        	0.918367	0.918367
187	2     	0.918367	0        	0.918367	0.918367
188	2     	0.918367	0        	0.918367	0.918367
189	2     	0.918367	0        	0.918367	0.918367
190	2     	0.918367	0        	0.918367	0.918367
191	2     	0.918367	0        	0.918367	0.918367
192	2     	0.918367	0        	0.918367	0.918367
193	2     	0.918367	0        	0.918367	0.918367
194	2     	0.918367	0        	0.918367	0.918367
195	2     	0.918367	0        	0.918367	0.918367
196	2     	0.918367	0        	0.918367	0.918367
197	2     	0.918367	0        	0.918367	0.918367
198	2     	0.918367	0        	0.918367	0.918367
199	2     	0.918367	0        	0.918367	0.918367
200	2     	0.918367	0        	0.918367	0.918367
201	2     	0.918367	0        	0.918367	0.918367
202	2     	0.918367	0        	0.918367	0.918367
203	2     	0.918367	0        	0.918367	0.918367
204	2     	0.918367	0        	0.918367	0.918367
205	2     	0.918367	0        	0.918367	0.918367
206	2     	0.918367	0        	0.918367	0.918367
207	2     	0.918367	0        	0.918367	0.918367
208	2     	0.918367	0        	0.918367	0.918367
209	2     	0.918367	0        	0.918367	0.918367
210	2     	0.918367	0        	0.918367	0.918367
211	2     	0.918367	0        	0.918367	0.918367
212	2     	0.918367	0        	0.918367	0.918367
213	2     	0.918367	0        	0.918367	0.918367
214	2     	0.918367	0        	0.918367	0.918367
215	2     	0.918367	0        	0.918367	0.918367
216	2     	0.918367	0        	0.918367	0.918367
217	2     	0.918367	0        	0.918367	0.918367
218	2     	0.918367	0        	0.918367	0.918367
219	2     	0.918367	0        	0.918367	0.918367
220	2     	0.918367	0        	0.918367	0.918367
221	2     	0.918367	0        	0.918367	0.918367
222	2     	0.918367	0        	0.918367	0.918367
223	2     	0.918367	0        	0.918367	0.918367
224	2     	0.918367	0        	0.918367	0.918367
225	2     	0.918367	0        	0.918367	0.918367
226	2     	0.918367	0        	0.918367	0.918367
227	2     	0.918367	0        	0.918367	0.918367
228	2     	0.918367	0        	0.918367	0.918367