gen	nevals	avg     	std      	min     	max     
0  	2     	0.527778	0.0277778	0.5     	0.555556
1  	2     	0.541667	0.0138889	0.527778	0.555556
2  	2     	0.569444	0.0138889	0.555556	0.583333
3  	2     	0.569444	0.0138889	0.555556	0.583333
4  	2     	0.583333	0        	0.583333	0.583333
5  	2     	0.611111	0.0277778	0.583333	0.638889
6  	2     	0.611111	0.0277778	0.583333	0.638889
7  	2     	0.680556	0.0416667	0.638889	0.722222
8  	2     	0.722222	0        	0.722222	0.722222
9  	2     	0.722222	0        	0.722222	0.722222
10 	2     	0.722222	0        	0.722222	0.722222
11 	2     	0.722222	0        	0.722222	0.722222
12 	2     	0.722222	0        	0.722222	0.722222
13 	2     	0.722222	0        	0.722222	0.722222
14 	2     	0.722222	0        	0.722222	0.722222
15 	2     	0.722222	0        	0.722222	0.722222
16 	2     	0.75    	0.0277778	0.722222	0.777778
17 	2     	0.75    	0.0277778	0.722222	0.777778
18 	2     	0.777778	0        	0.777778	0.777778
19 	2     	0.777778	0        	0.777778	0.777778
20 	2     	0.777778	0        	0.777778	0.777778
21 	2     	0.777778	0        	0.777778	0.777778
22 	2     	0.777778	0        	0.777778	0.777778
23 	2     	0.777778	0        	0.777778	0.777778
24 	2     	0.791667	0.0138889	0.777778	0.805556
25 	2     	0.791667	0.0138889	0.777778	0.805556
26 	2     	0.791667	0.0138889	0.777778	0.805556
27 	2     	0.791667	0.0138889	0.777778	0.805556
28 	2     	0.805556	0        	0.805556	0.805556
29 	2     	0.805556	0        	0.805556	0.805556
30 	2     	0.805556	0        	0.805556	0.805556
31 	2     	0.805556	0        	0.805556	0.805556
32 	2     	0.805556	0        	0.805556	0.805556
33 	2     	0.805556	0        	0.805556	0.805556
34 	2     	0.805556	0        	0.805556	0.805556
35 	2     	0.805556	0        	0.805556	0.805556
36 	2     	0.805556	0        	0.805556	0.805556
37 	2     	0.805556	0        	0.805556	0.805556
38 	2     	0.805556	0        	0.805556	0.805556
39 	2     	0.805556	0        	0.805556	0.805556
40 	2     	0.805556	0        	0.805556	0.805556
41 	2     	0.805556	0        	0.805556	0.805556
42 	2     	0.805556	0        	0.805556	0.805556
43 	2     	0.805556	0        	0.805556	0.805556
44 	2     	0.805556	0        	0.805556	0.805556
45 	2     	0.805556	0        	0.805556	0.805556
46 	2     	0.819444	0.0138889	0.805556	0.833333
47 	2     	0.819444	0.0138889	0.805556	0.833333
48 	2     	0.833333	0        	0.833333	0.833333
49 	2     	0.833333	0        	0.833333	0.833333
50 	2     	0.833333	0        	0.833333	0.833333
51 	2     	0.833333	0        	0.833333	0.833333
52 	2     	0.847222	0.0138889	0.833333	0.861111
53 	2     	0.847222	0.0138889	0.833333	0.861111
54 	2     	0.847222	0.0138889	0.833333	0.861111
55 	2     	0.847222	0.0138889	0.833333	0.861111
56 	2     	0.847222	0.0138889	0.833333	0.861111
57 	2     	0.847222	0.0138889	0.833333	0.861111
58 	2     	0.847222	0.0138889	0.833333	0.861111
59 	2     	0.875   	0.0138889	0.861111	0.888889
60 	2     	0.875   	0.0138889	0.861111	0.888889
61 	2     	0.875   	0.0138889	0.861111	0.888889
62 	2     	0.875   	0.0138889	0.861111	0.888889
63 	2     	0.875   	0.0138889	0.861111	0.888889
64 	2     	0.888889	0        	0.888889	0.888889
65 	2     	0.888889	0        	0.888889	0.888889
66 	2     	0.888889	0        	0.888889	0.888889
67 	2     	0.888889	0        	0.888889	0.888889
68 	2     	0.888889	0        	0.888889	0.888889
69 	2     	0.888889	0        	0.888889	0.888889
70 	2     	0.888889	0        	0.888889	0.888889
71 	2     	0.888889	0        	0.888889	0.888889
72 	2     	0.888889	0        	0.888889	0.888889
73 	2     	0.888889	0        	0.888889	0.888889
74 	2     	0.888889	0        	0.888889	0.888889
75 	2     	0.888889	0        	0.888889	0.888889
76 	2     	0.888889	0        	0.888889	0.888889
77 	2     	0.888889	0        	0.888889	0.888889
78 	2     	0.888889	0        	0.888889	0.888889
79 	2     	0.888889	0        	0.888889	0.888889
80 	2     	0.888889	0        	0.888889	0.888889
81 	2     	0.888889	0        	0.888889	0.888889
82 	2     	0.888889	0        	0.888889	0.888889
83 	2     	0.888889	0        	0.888889	0.888889
84 	2     	0.888889	0        	0.888889	0.888889
85 	2     	0.888889	0        	0.888889	0.888889
86 	2     	0.888889	0        	0.888889	0.888889
87 	2     	0.888889	0        	0.888889	0.888889
88 	2     	0.888889	0        	0.888889	0.888889
89 	2     	0.888889	0        	0.888889	0.888889
90 	2     	0.888889	0        	0.888889	0.888889
91 	2     	0.888889	0        	0.888889	0.888889
92 	2     	0.888889	0        	0.888889	0.888889
93 	2     	0.888889	0        	0.888889	0.888889
94 	2     	0.888889	0        	0.888889	0.888889
95 	2     	0.888889	0        	0.888889	0.888889
96 	2     	0.888889	0        	0.888889	0.888889
97 	2     	0.888889	0        	0.888889	0.888889
98 	2     	0.888889	0        	0.888889	0.888889
99 	2     	0.888889	0        	0.888889	0.888889
100	2     	0.888889	0        	0.888889	0.888889
101	2     	0.888889	0        	0.888889	0.888889
102	2     	0.888889	0        	0.888889	0.888889
103	2     	0.888889	0        	0.888889	0.888889
104	2     	0.888889	0        	0.888889	0.888889
105	2     	0.888889	0        	0.888889	0.888889
106	2     	0.888889	0        	0.888889	0.888889
107	2     	0.888889	0        	0.888889	0.888889
108	2     	0.888889	0        	0.888889	0.888889
109	2     	0.888889	0        	0.888889	0.888889
110	2     	0.888889	0        	0.888889	0.888889
111	2     	0.888889	0        	0.888889	0.888889
112	2     	0.888889	0        	0.888889	0.888889
113	2     	0.888889	0        	0.888889	0.888889
114	2     	0.888889	0        	0.888889	0.888889
115	2     	0.888889	0        	0.888889	0.888889
116	2     	0.888889	0        	0.888889	0.888889
117	2     	0.888889	0        	0.888889	0.888889
118	2     	0.888889	0        	0.888889	0.888889
119	2     	0.888889	0        	0.888889	0.888889
120	2     	0.888889	0        	0.888889	0.888889
121	2     	0.888889	0        	0.888889	0.888889
122	2     	0.888889	0        	0.888889	0.888889
123	2     	0.888889	0        	0.888889	0.888889
124	2     	0.888889	0        	0.888889	0.888889
125	2     	0.888889	0        	0.888889	0.888889
126	2     	0.888889	0        	0.888889	0.888889
127	2     	0.888889	0        	0.888889	0.888889
128	2     	0.888889	0        	0.888889	0.888889
129	2     	0.888889	0        	0.888889	0.888889
130	2     	0.888889	0        	0.888889	0.888889
131	2     	0.888889	0        	0.888889	0.888889
132	2     	0.888889	0        	0.888889	0.888889
133	2     	0.888889	0        	0.888889	0.888889
134	2     	0.888889	0        	0.888889	0.888889
135	2     	0.888889	0        	0.888889	0.888889
136	2     	0.888889	0        	0.888889	0.888889
137	2     	0.888889	0        	0.888889	0.888889
138	2     	0.888889	0        	0.888889	0.888889
139	2     	0.888889	0        	0.888889	0.888889
140	2     	0.888889	0        	0.888889	0.888889
141	2     	0.888889	0        	0.888889	0.888889
142	2     	0.888889	0        	0.888889	0.888889
143	2     	0.888889	0        	0.888889	0.888889
144	2     	0.888889	0        	0.888889	0.888889
145	2     	0.888889	0        	0.888889	0.888889
146	2     	0.888889	0        	0.888889	0.888889
147	2     	0.888889	0        	0.888889	0.888889
148	2     	0.888889	0        	0.888889	0.888889
149	2     	0.888889	0        	0.888889	0.888889
150	2     	0.888889	0        	0.888889	0.888889
151	2     	0.888889	0        	0.888889	0.888889
152	2     	0.888889	0        	0.888889	0.888889
153	2     	0.888889	0        	0.888889	0.888889
154	2     	0.888889	0        	0.888889	0.888889
155	2     	0.888889	0        	0.888889	0.888889
156	2     	0.888889	0        	0.888889	0.888889
157	2     	0.888889	0        	0.888889	0.888889
158	2     	0.888889	0        	0.888889	0.888889
159	2     	0.888889	0        	0.888889	0.888889
160	2     	0.888889	0        	0.888889	0.888889
161	2     	0.888889	0        	0.888889	0.888889
162	2     	0.888889	0        	0.888889	0.888889
163	2     	0.888889	0        	0.888889	0.888889
164	2     	0.888889	0        	0.888889	0.888889
165	2     	0.888889	0        	0.888889	0.888889
166	2     	0.888889	0        	0.888889	0.888889
167	2     	0.888889	0        	0.888889	0.888889
168	2     	0.888889	0        	0.888889	0.888889
169	2     	0.888889	0        	0.888889	0.888889
170	2     	0.888889	0        	0.888889	0.888889
171	2     	0.888889	0        	0.888889	0.888889
172	2     	0.888889	0        	0.888889	0.888889
173	2     	0.888889	0        	0.888889	0.888889
174	2     	0.888889	0        	0.888889	0.888889
175	2     	0.888889	0        	0.888889	0.888889
176	2     	0.888889	0        	0.888889	0.888889
177	2     	0.888889	0        	0.888889	0.888889
178	2     	0.888889	0        	0.888889	0.888889
179	2     	0.888889	0        	0.888889	0.888889
180	2     	0.888889	0        	0.888889	0.888889
181	2     	0.888889	0        	0.888889	0.888889
182	2     	0.888889	0        	0.888889	0.888889
183	2     	0.888889	0        	0.888889	0.888889
184	2     	0.888889	0        	0.888889	0.888889
185	2     	0.888889	0        	0.888889	0.888889
186	2     	0.916667	0.0277778	0.888889	0.944444
187	2     	0.916667	0.0277778	0.888889	0.944444
188	2     	0.944444	0        	0.944444	0.944444
189	2     	0.944444	0        	0.944444	0.944444
190	2     	0.944444	0        	0.944444	0.944444
191	2     	0.944444	0        	0.944444	0.944444
192	2     	0.944444	0        	0.944444	0.944444
193	2     	0.944444	0        	0.944444	0.944444
194	2     	0.944444	0        	0.944444	0.944444
195	2     	0.944444	0        	0.944444	0.944444
196	2     	0.944444	0        	0.944444	0.944444
197	2     	0.944444	0        	0.944444	0.944444
198	2     	0.944444	0        	0.944444	0.944444
199	2     	0.944444	0        	0.944444	0.944444
200	2     	0.944444	0        	0.944444	0.944444
201	2     	0.944444	0        	0.944444	0.944444
202	2     	0.944444	0        	0.944444	0.944444
203	2     	0.944444	0        	0.944444	0.944444
204	2     	0.944444	0        	0.944444	0.944444
205	2     	0.944444	0        	0.944444	0.944444
206	2     	0.944444	0        	0.944444	0.944444
207	2     	0.944444	0        	0.944444	0.944444
208	2     	0.944444	0        	0.944444	0.944444
209	2     	0.944444	0        	0.944444	0.944444
210	2     	0.944444	0        	0.944444	0.944444
211	2     	0.944444	0        	0.944444	0.944444
212	2     	0.944444	0        	0.944444	0.944444
213	2     	0.944444	0        	0.944444	0.944444
214	2     	0.944444	0        	0.944444	0.944444
215	2     	0.944444	0        	0.944444	0.944444
216	2     	0.944444	0        	0.944444	0.944444
217	2     	0.944444	0        	0.944444	0.944444
218	2     	0.944444	0        	0.944444	0.944444
219	2     	0.944444	0        	0.944444	0.944444
220	2     	0.944444	0        	0.944444	0.944444
221	2     	0.944444	0        	0.944444	0.944444
222	2     	0.944444	0        	0.944444	0.944444
223	2     	0.944444	0        	0.944444	0.944444
224	2     	0.944444	0        	0.944444	0.944444
225	2     	0.944444	0        	0.944444	0.944444
226	2     	0.944444	0        	0.944444	0.944444
227	2     	0.944444	0        	0.944444	0.944444
228	2     	0.944444	0        	0.944444	0.944444
229	2     	0.944444	0        	0.944444	0.944444
230	2     	0.944444	0        	0.944444	0.944444
231	2     	0.944444	0        	0.944444	0.944444
232	2     	0.944444	0        	0.944444	0.944444
233	2     	0.944444	0        	0.944444	0.944444
234	2     	0.944444	0        	0.944444	0.944444
235	2     	0.944444	0        	0.944444	0.944444
236	2     	0.944444	0        	0.944444	0.944444
237	2     	0.944444	0        	0.944444	0.944444
238	2     	0.944444	0        	0.944444	0.944444
239	2     	0.944444	0        	0.944444	0.944444
240	2     	0.944444	0        	0.944444	0.944444
241	2     	0.944444	0        	0.944444	0.944444
242	2     	0.944444	0        	0.944444	0.944444
243	2     	0.944444	0        	0.944444	0.944444
244	2     	0.944444	0        	0.944444	0.944444
245	2     	0.944444	0        	0.944444	0.944444
246	2     	0.944444	0        	0.944444	0.944444
247	2     	0.944444	0        	0.944444	0.944444
248	2     	0.944444	0        	0.944444	0.944444
249	2     	0.944444	0        	0.944444	0.944444
250	2     	0.944444	0        	0.944444	0.944444
251	2     	0.944444	0        	0.944444	0.944444
252	2     	0.944444	0        	0.944444	0.944444
253	2     	0.944444	0        	0.944444	0.944444
254	2     	0.944444	0        	0.944444	0.944444
255	2     	0.944444	0        	0.944444	0.944444
256	2     	0.944444	0        	0.944444	0.944444
257	2     	0.944444	0        	0.944444	0.944444
258	2     	0.944444	0        	0.944444	0.944444
259	2     	0.944444	0        	0.944444	0.944444
260	2     	0.944444	0        	0.944444	0.944444
261	2     	0.944444	0        	0.944444	0.944444
262	2     	0.944444	0        	0.944444	0.944444
263	2     	0.944444	0        	0.944444	0.944444
264	2     	0.944444	0        	0.944444	0.944444
265	2     	0.944444	0        	0.944444	0.944444
266	2     	0.944444	0        	0.944444	0.944444
267	2     	0.944444	0        	0.944444	0.944444
268	2     	0.944444	0        	0.944444	0.944444
269	2     	0.944444	0        	0.944444	0.944444
270	2     	0.944444	0        	0.944444	0.944444
271	2     	0.944444	0        	0.944444	0.944444
272	2     	0.944444	0        	0.944444	0.944444
273	2     	0.944444	0        	0.944444	0.944444
274	2     	0.944444	0        	0.944444	0.944444
275	2     	0.944444	0        	0.944444	0.944444
276	2     	0.944444	0        	0.944444	0.944444
277	2     	0.944444	0        	0.944444	0.944444
278	2     	0.944444	0        	0.944444	0.944444
279	2     	0.944444	0        	0.944444	0.944444
280	2     	0.944444	0        	0.944444	0.944444
281	2     	0.944444	0        	0.944444	0.944444
282	2     	0.944444	0        	0.944444	0.944444
283	2     	0.944444	0        	0.944444	0.944444
284	2     	0.944444	0        	0.944444	0.944444
285	2     	0.944444	0        	0.944444	0.944444
286	2     	0.944444	0        	0.944444	0.944444
287	2     	0.944444	0        	0.944444	0.944444
288	2     	0.944444	0        	0.944444	0.944444
289	2     	0.944444	0        	0.944444	0.944444
290	2     	0.944444	0        	0.944444	0.944444
291	2     	0.944444	0        	0.944444	0.944444
292	2     	0.944444	0        	0.944444	0.944444
293	2     	0.944444	0        	0.944444	0.944444
294	2     	0.944444	0        	0.944444	0.944444
295	2     	0.944444	0        	0.944444	0.944444
296	2     	0.944444	0        	0.944444	0.944444
297	2     	0.944444	0        	0.944444	0.944444
298	2     	0.944444	0        	0.944444	0.944444
299	2     	0.944444	0        	0.944444	0.944444
300	2     	0.944444	0        	0.944444	0.944444
301	2     	0.944444	0        	0.944444	0.944444
302	2     	0.944444	0        	0.944444	0.944444
303	2     	0.944444	0        	0.944444	0.944444
304	2     	0.944444	0        	0.944444	0.944444
305	2     	0.944444	0        	0.944444	0.944444
306	2     	0.944444	0        	0.944444	0.944444
307	2     	0.944444	0        	0.944444	0.944444
308	2     	0.944444	0        	0.944444	0.944444
309	2     	0.944444	0        	0.944444	0.944444
310	2     	0.944444	0        	0.944444	0.944444
311	2     	0.944444	0        	0.944444	0.944444
312	2     	0.944444	0        	0.944444	0.944444
313	2     	0.944444	0        	0.944444	0.944444
314	2     	0.944444	0        	0.944444	0.944444
315	2     	0.944444	0        	0.944444	0.944444
316	2     	0.944444	0        	0.944444	0.944444
317	2     	0.944444	0        	0.944444	0.944444
318	2     	0.944444	0        	0.944444	0.944444
319	2     	0.944444	0        	0.944444	0.944444
320	2     	0.944444	0        	0.944444	0.944444
321	2     	0.944444	0        	0.944444	0.944444
322	2     	0.944444	0        	0.944444	0.944444
323	2     	0.944444	0        	0.944444	0.944444
324	2     	0.944444	0        	0.944444	0.944444
325	2     	0.944444	0        	0.944444	0.944444
326	2     	0.944444	0        	0.944444	0.944444
327	2     	0.944444	0        	0.944444	0.944444
328	2     	0.944444	0        	0.944444	0.944444
329	2     	0.944444	0        	0.944444	0.944444
330	2     	0.944444	0        	0.944444	0.944444
331	2     	0.944444	0        	0.944444	0.944444
332	2     	0.944444	0        	0.944444	0.944444
333	2     	0.944444	0        	0.944444	0.944444
334	2     	0.944444	0        	0.944444	0.944444
335	2     	0.944444	0        	0.944444	0.944444
336	2     	0.944444	0        	0.944444	0.944444
337	2     	0.944444	0        	0.944444	0.944444
338	2     	0.944444	0        	0.944444	0.944444
339	2     	0.944444	0        	0.944444	0.944444
340	2     	0.944444	0        	0.944444	0.944444
341	2     	0.944444	0        	0.944444	0.944444
342	2     	0.944444	0        	0.944444	0.944444
343	2     	0.944444	0        	0.944444	0.944444
344	2     	0.944444	0        	0.944444	0.944444
345	2     	0.944444	0        	0.944444	0.944444
346	2     	0.944444	0        	0.944444	0.944444
347	2     	0.944444	0        	0.944444	0.944444
348	2     	0.944444	0        	0.944444	0.944444
349	2     	0.944444	0        	0.944444	0.944444
350	2     	0.944444	0        	0.944444	0.944444
351	2     	0.944444	0        	0.944444	0.944444
352	2     	0.944444	0        	0.944444	0.944444
353	2     	0.944444	0        	0.944444	0.944444
354	2     	0.944444	0        	0.944444	0.944444
355	2     	0.944444	0        	0.944444	0.944444
356	2     	0.944444	0        	0.944444	0.944444
357	2     	0.944444	0        	0.944444	0.944444
358	2     	0.944444	0        	0.944444	0.944444
359	2     	0.944444	0        	0.944444	0.944444
360	2     	0.944444	0        	0.944444	0.944444
361	2     	0.944444	0        	0.944444	0.944444
362	2     	0.944444	0        	0.944444	0.944444
363	2     	0.944444	0        	0.944444	0.944444
364	2     	0.944444	0        	0.944444	0.944444
365	2     	0.944444	0        	0.944444	0.944444
366	2     	0.944444	0        	0.944444	0.944444
367	2     	0.944444	0        	0.944444	0.944444
368	2     	0.944444	0        	0.944444	0.944444
369	2     	0.944444	0        	0.944444	0.944444
370	2     	0.944444	0        	0.944444	0.944444
371	2     	0.944444	0        	0.944444	0.944444
372	2     	0.944444	0        	0.944444	0.944444
373	2     	0.944444	0        	0.944444	0.944444
374	2     	0.944444	0        	0.944444	0.944444
375	2     	0.944444	0        	0.944444	0.944444
376	2     	0.944444	0        	0.944444	0.944444
377	2     	0.944444	0        	0.944444	0.944444
378	2     	0.944444	0        	0.944444	0.944444
379	2     	0.944444	0        	0.944444	0.944444
380	2     	0.944444	0        	0.944444	0.944444
381	2     	0.944444	0        	0.944444	0.944444
382	2     	0.944444	0        	0.944444	0.944444
383	2     	0.944444	0        	0.944444	0.944444
384	2     	0.944444	0        	0.944444	0.944444
385	2     	0.944444	0        	0.944444	0.944444
386	2     	0.944444	0        	0.944444	0.944444
387	2     	0.944444	0        	0.944444	0.944444
388	2     	0.944444	0        	0.944444	0.944444
389	2     	0.944444	0        	0.944444	0.944444
390	2     	0.944444	0        	0.944444	0.944444
391	2     	0.944444	0        	0.944444	0.944444
392	2     	0.944444	0        	0.944444	0.944444
393	2     	0.944444	0        	0.944444	0.944444
394	2     	0.944444	0        	0.944444	0.944444
395	2     	0.944444	0        	0.944444	0.944444
396	2     	0.944444	0        	0.944444	0.944444
397	2     	0.944444	0        	0.944444	0.944444
398	2     	0.944444	0        	0.944444	0.944444
399	2     	0.944444	0        	0.944444	0.944444
400	2     	0.944444	0        	0.944444	0.944444
401	2     	0.944444	0        	0.944444	0.944444
402	2     	0.944444	0        	0.944444	0.944444
403	2     	0.944444	0        	0.944444	0.944444
404	2     	0.944444	0        	0.944444	0.944444
405	2     	0.944444	0        	0.944444	0.944444
406	2     	0.944444	0        	0.944444	0.944444
407	2     	0.944444	0        	0.944444	0.944444
408	2     	0.944444	0        	0.944444	0.944444
409	2     	0.944444	0        	0.944444	0.944444
410	2     	0.944444	0        	0.944444	0.944444
411	2     	0.944444	0        	0.944444	0.944444
412	2     	0.944444	0        	0.944444	0.944444
413	2     	0.944444	0        	0.944444	0.944444
414	2     	0.944444	0        	0.944444	0.944444
415	2     	0.944444	0        	0.944444	0.944444
416	2     	0.944444	0        	0.944444	0.944444
417	2     	0.944444	0        	0.944444	0.944444
418	2     	0.944444	0        	0.944444	0.944444
419	2     	0.944444	0        	0.944444	0.944444
420	2     	0.944444	0        	0.944444	0.944444
421	2     	0.944444	0        	0.944444	0.944444
422	2     	0.944444	0        	0.944444	0.944444
423	2     	0.944444	0        	0.944444	0.944444
424	2     	0.958333	0.0138889	0.944444	0.972222
425	2     	0.958333	0.0138889	0.944444	0.972222
426	2     	0.958333	0.0138889	0.944444	0.972222
427	2     	0.958333	0.0138889	0.944444	0.972222
428	2     	0.958333	0.0138889	0.944444	0.972222
429	2     	0.958333	0.0138889	0.944444	0.972222
430	2     	0.958333	0.0138889	0.944444	0.972222
431	2     	0.958333	0.0138889	0.944444	0.972222
432	2     	0.958333	0.0138889	0.944444	0.972222
433	2     	0.958333	0.0138889	0.944444	0.972222
434	2     	0.958333	0.0138889	0.944444	0.972222
435	2     	0.958333	0.0138889	0.944444	0.972222
436	2     	0.972222	0        	0.972222	0.972222
437	2     	0.972222	0        	0.972222	0.972222
438	2     	0.972222	0        	0.972222	0.972222
439	2     	0.972222	0        	0.972222	0.972222
440	2     	0.972222	0        	0.972222	0.972222
441	2     	0.972222	0        	0.972222	0.972222
442	2     	0.972222	0        	0.972222	0.972222
443	2     	0.972222	0        	0.972222	0.972222
444	2     	0.972222	0        	0.972222	0.972222
445	2     	0.972222	0        	0.972222	0.972222
446	2     	0.972222	0        	0.972222	0.972222
447	2     	0.972222	0        	0.972222	0.972222
448	2     	0.972222	0        	0.972222	0.972222
449	2     	0.972222	0        	0.972222	0.972222
450	2     	0.972222	0        	0.972222	0.972222
451	2     	0.972222	0        	0.972222	0.972222
452	2     	0.972222	0        	0.972222	0.972222
453	2     	0.972222	0        	0.972222	0.972222
454	2     	0.972222	0        	0.972222	0.972222
455	2     	0.972222	0        	0.972222	0.972222
456	2     	0.972222	0        	0.972222	0.972222
457	2     	0.972222	0        	0.972222	0.972222
458	2     	0.972222	0        	0.972222	0.972222
459	2     	0.972222	0        	0.972222	0.972222
460	2     	0.972222	0        	0.972222	0.972222
461	2     	0.972222	0        	0.972222	0.972222
462	2     	0.972222	0        	0.972222	0.972222
463	2     	0.972222	0        	0.972222	0.972222
464	2     	0.972222	0        	0.972222	0.972222
465	2     	0.972222	0        	0.972222	0.972222
466	2     	0.972222	0        	0.972222	0.972222
467	2     	0.972222	0        	0.972222	0.972222
468	2     	0.972222	0        	0.972222	0.972222
469	2     	0.972222	0        	0.972222	0.972222
470	2     	0.972222	0        	0.972222	0.972222
471	2     	0.972222	0        	0.972222	0.972222
472	2     	0.972222	0        	0.972222	0.972222
473	2     	0.972222	0        	0.972222	0.972222
474	2     	0.972222	0        	0.972222	0.972222
475	2     	0.972222	0        	0.972222	0.972222
476	2     	0.972222	0        	0.972222	0.972222
477	2     	0.972222	0        	0.972222	0.972222
478	2     	0.972222	0        	0.972222	0.972222
479	2     	0.972222	0        	0.972222	0.972222
480	2     	0.972222	0        	0.972222	0.972222
481	2     	0.972222	0        	0.972222	0.972222
482	2     	0.972222	0        	0.972222	0.972222
483	2     	0.972222	0        	0.972222	0.972222
484	2     	0.972222	0        	0.972222	0.972222
485	2     	0.972222	0        	0.972222	0.972222
486	2     	0.972222	0        	0.972222	0.972222
487	2     	0.972222	0        	0.972222	0.972222
488	2     	0.972222	0        	0.972222	0.972222
489	2     	0.972222	0        	0.972222	0.972222
490	2     	0.972222	0        	0.972222	0.972222
491	2     	0.972222	0        	0.972222	0.972222
492	2     	0.972222	0        	0.972222	0.972222
493	2     	0.972222	0        	0.972222	0.972222
494	2     	0.972222	0        	0.972222	0.972222
495	2     	0.972222	0        	0.972222	0.972222
496	2     	0.972222	0        	0.972222	0.972222
497	2     	0.972222	0        	0.972222	0.972222
498	2     	0.972222	0        	0.972222	0.972222
499	2     	0.972222	0        	0.972222	0.972222
500	2     	0.972222	0        	0.972222	0.972222
501	2     	0.972222	0        	0.972222	0.972222
502	2     	0.972222	0        	0.972222	0.972222
503	2     	0.972222	0        	0.972222	0.972222
504	2     	0.972222	0        	0.972222	0.972222
505	2     	0.972222	0        	0.972222	0.972222
506	2     	0.972222	0        	0.972222	0.972222
507	2     	0.972222	0        	0.972222	0.972222
508	2     	0.972222	0        	0.972222	0.972222
509	2     	0.972222	0        	0.972222	0.972222
510	2     	0.972222	0        	0.972222	0.972222
511	2     	0.972222	0        	0.972222	0.972222
512	2     	0.972222	0        	0.972222	0.972222
513	2     	0.972222	0        	0.972222	0.972222
514	2     	0.972222	0        	0.972222	0.972222
515	2     	0.972222	0        	0.972222	0.972222
516	2     	0.972222	0        	0.972222	0.972222
517	2     	0.972222	0        	0.972222	0.972222
518	2     	0.972222	0        	0.972222	0.972222
519	2     	0.972222	0        	0.972222	0.972222
520	2     	0.972222	0        	0.972222	0.972222
521	2     	0.972222	0        	0.972222	0.972222
522	2     	0.972222	0        	0.972222	0.972222
523	2     	0.972222	0        	0.972222	0.972222
524	2     	0.972222	0        	0.972222	0.972222
525	2     	0.972222	0        	0.972222	0.972222
526	2     	0.972222	0        	0.972222	0.972222
527	2     	0.972222	0        	0.972222	0.972222