gen	nevals	avg     	std      	min     	max     
0  	2     	0.561224	0.0714286	0.489796	0.632653
1  	2     	0.602041	0.0306122	0.571429	0.632653
2  	2     	0.612245	0.0204082	0.591837	0.632653
3  	2     	0.632653	0        	0.632653	0.632653
4  	2     	0.632653	0        	0.632653	0.632653
5  	2     	0.632653	0        	0.632653	0.632653
6  	2     	0.673469	0.0408163	0.632653	0.714286
7  	2     	0.683673	0.0306122	0.653061	0.714286
8  	2     	0.683673	0.0306122	0.653061	0.714286
9  	2     	0.714286	0        	0.714286	0.714286
10 	2     	0.734694	0.0204082	0.714286	0.755102
11 	2     	0.734694	0.0204082	0.714286	0.755102
12 	2     	0.734694	0.0204082	0.714286	0.755102
13 	2     	0.734694	0.0204082	0.714286	0.755102
14 	2     	0.755102	0        	0.755102	0.755102
15 	2     	0.755102	0        	0.755102	0.755102
16 	2     	0.755102	0        	0.755102	0.755102
17 	2     	0.755102	0        	0.755102	0.755102
18 	2     	0.755102	0        	0.755102	0.755102
19 	2     	0.755102	0        	0.755102	0.755102
20 	2     	0.755102	0        	0.755102	0.755102
21 	2     	0.755102	0        	0.755102	0.755102
22 	2     	0.755102	0        	0.755102	0.755102
23 	2     	0.755102	0        	0.755102	0.755102
24 	2     	0.755102	0        	0.755102	0.755102
25 	2     	0.755102	0        	0.755102	0.755102
26 	2     	0.755102	0        	0.755102	0.755102
27 	2     	0.765306	0.0102041	0.755102	0.77551 
28 	2     	0.765306	0.0102041	0.755102	0.77551 
29 	2     	0.765306	0.0102041	0.755102	0.77551 
30 	2     	0.765306	0.0102041	0.755102	0.77551 
31 	2     	0.765306	0.0102041	0.755102	0.77551 
32 	2     	0.77551 	0        	0.77551 	0.77551 
33 	2     	0.77551 	0        	0.77551 	0.77551 
34 	2     	0.77551 	0        	0.77551 	0.77551 
35 	2     	0.77551 	0        	0.77551 	0.77551 
36 	2     	0.77551 	0        	0.77551 	0.77551 
37 	2     	0.77551 	0        	0.77551 	0.77551 
38 	2     	0.77551 	0        	0.77551 	0.77551 
39 	2     	0.77551 	0        	0.77551 	0.77551 
40 	2     	0.77551 	0        	0.77551 	0.77551 
41 	2     	0.77551 	0        	0.77551 	0.77551 
42 	2     	0.77551 	0        	0.77551 	0.77551 
43 	2     	0.77551 	0        	0.77551 	0.77551 
44 	2     	0.77551 	0        	0.77551 	0.77551 
45 	2     	0.77551 	0        	0.77551 	0.77551 
46 	2     	0.77551 	0        	0.77551 	0.77551 
47 	2     	0.77551 	0        	0.77551 	0.77551 
48 	2     	0.77551 	0        	0.77551 	0.77551 
49 	2     	0.77551 	0        	0.77551 	0.77551 
50 	2     	0.77551 	0        	0.77551 	0.77551 
51 	2     	0.77551 	0        	0.77551 	0.77551 
52 	2     	0.77551 	0        	0.77551 	0.77551 
53 	2     	0.785714	0.0102041	0.77551 	0.795918
54 	2     	0.785714	0.0102041	0.77551 	0.795918
55 	2     	0.785714	0.0102041	0.77551 	0.795918
56 	2     	0.785714	0.0102041	0.77551 	0.795918
57 	2     	0.785714	0.0102041	0.77551 	0.795918
58 	2     	0.785714	0.0102041	0.77551 	0.795918
59 	2     	0.785714	0.0102041	0.77551 	0.795918
60 	2     	0.785714	0.0102041	0.77551 	0.795918
61 	2     	0.785714	0.0102041	0.77551 	0.795918
62 	2     	0.785714	0.0102041	0.77551 	0.795918
63 	2     	0.785714	0.0102041	0.77551 	0.795918
64 	2     	0.785714	0.0102041	0.77551 	0.795918
65 	2     	0.785714	0.0102041	0.77551 	0.795918
66 	2     	0.785714	0.0102041	0.77551 	0.795918
67 	2     	0.785714	0.0102041	0.77551 	0.795918
68 	2     	0.785714	0.0102041	0.77551 	0.795918
69 	2     	0.785714	0.0102041	0.77551 	0.795918
70 	2     	0.785714	0.0102041	0.77551 	0.795918
71 	2     	0.785714	0.0102041	0.77551 	0.795918
72 	2     	0.795918	0        	0.795918	0.795918
73 	2     	0.795918	0        	0.795918	0.795918
74 	2     	0.795918	0        	0.795918	0.795918
75 	2     	0.795918	0        	0.795918	0.795918
76 	2     	0.795918	0        	0.795918	0.795918
77 	2     	0.795918	0        	0.795918	0.795918
78 	2     	0.826531	0.0306122	0.795918	0.857143
79 	2     	0.826531	0.0306122	0.795918	0.857143
80 	2     	0.826531	0.0306122	0.795918	0.857143
81 	2     	0.836735	0.0204082	0.816327	0.857143
82 	2     	0.836735	0.0204082	0.816327	0.857143
83 	2     	0.836735	0.0204082	0.816327	0.857143
84 	2     	0.836735	0.0204082	0.816327	0.857143
85 	2     	0.836735	0.0204082	0.816327	0.857143
86 	2     	0.846939	0.0102041	0.836735	0.857143
87 	2     	0.846939	0.0102041	0.836735	0.857143
88 	2     	0.846939	0.0102041	0.836735	0.857143
89 	2     	0.846939	0.0102041	0.836735	0.857143
90 	2     	0.857143	0        	0.857143	0.857143
91 	2     	0.857143	0        	0.857143	0.857143
92 	2     	0.857143	0        	0.857143	0.857143
93 	2     	0.857143	0        	0.857143	0.857143
94 	2     	0.857143	0        	0.857143	0.857143
95 	2     	0.857143	0        	0.857143	0.857143
96 	2     	0.857143	0        	0.857143	0.857143
97 	2     	0.857143	0        	0.857143	0.857143
98 	2     	0.857143	0        	0.857143	0.857143
99 	2     	0.857143	0        	0.857143	0.857143
100	2     	0.857143	0        	0.857143	0.857143
101	2     	0.857143	0        	0.857143	0.857143
102	2     	0.857143	0        	0.857143	0.857143
103	2     	0.857143	0        	0.857143	0.857143
104	2     	0.857143	0        	0.857143	0.857143
105	2     	0.857143	0        	0.857143	0.857143
106	2     	0.857143	0        	0.857143	0.857143
107	2     	0.867347	0.0102041	0.857143	0.877551
108	2     	0.877551	0        	0.877551	0.877551
109	2     	0.877551	0        	0.877551	0.877551
110	2     	0.877551	0        	0.877551	0.877551
111	2     	0.877551	0        	0.877551	0.877551
112	2     	0.877551	0        	0.877551	0.877551
113	2     	0.877551	0        	0.877551	0.877551
114	2     	0.877551	0        	0.877551	0.877551
115	2     	0.877551	0        	0.877551	0.877551
116	2     	0.877551	0        	0.877551	0.877551
117	2     	0.877551	0        	0.877551	0.877551
118	2     	0.877551	0        	0.877551	0.877551
119	2     	0.877551	0        	0.877551	0.877551
120	2     	0.877551	0        	0.877551	0.877551
121	2     	0.877551	0        	0.877551	0.877551
122	2     	0.877551	0        	0.877551	0.877551
123	2     	0.877551	0        	0.877551	0.877551
124	2     	0.877551	0        	0.877551	0.877551
125	2     	0.877551	0        	0.877551	0.877551
126	2     	0.877551	0        	0.877551	0.877551
127	2     	0.877551	0        	0.877551	0.877551
128	2     	0.877551	0        	0.877551	0.877551
129	2     	0.877551	0        	0.877551	0.877551
130	2     	0.877551	0        	0.877551	0.877551
131	2     	0.877551	0        	0.877551	0.877551
132	2     	0.877551	0        	0.877551	0.877551
133	2     	0.877551	0        	0.877551	0.877551
134	2     	0.887755	0.0102041	0.877551	0.897959
135	2     	0.887755	0.0102041	0.877551	0.897959
136	2     	0.887755	0.0102041	0.877551	0.897959
137	2     	0.887755	0.0102041	0.877551	0.897959
138	2     	0.887755	0.0102041	0.877551	0.897959
139	2     	0.887755	0.0102041	0.877551	0.897959
140	2     	0.887755	0.0102041	0.877551	0.897959
141	2     	0.887755	0.0102041	0.877551	0.897959
142	2     	0.897959	0        	0.897959	0.897959
143	2     	0.897959	0        	0.897959	0.897959
144	2     	0.897959	0        	0.897959	0.897959
145	2     	0.897959	0        	0.897959	0.897959
146	2     	0.897959	0        	0.897959	0.897959
147	2     	0.897959	0        	0.897959	0.897959
148	2     	0.897959	0        	0.897959	0.897959
149	2     	0.897959	0        	0.897959	0.897959
150	2     	0.897959	0        	0.897959	0.897959
151	2     	0.897959	0        	0.897959	0.897959
152	2     	0.897959	0        	0.897959	0.897959
153	2     	0.897959	0        	0.897959	0.897959
154	2     	0.897959	0        	0.897959	0.897959
155	2     	0.897959	0        	0.897959	0.897959
156	2     	0.897959	0        	0.897959	0.897959
157	2     	0.897959	0        	0.897959	0.897959
158	2     	0.897959	0        	0.897959	0.897959
159	2     	0.897959	0        	0.897959	0.897959
160	2     	0.897959	0        	0.897959	0.897959
161	2     	0.897959	0        	0.897959	0.897959
162	2     	0.897959	0        	0.897959	0.897959
163	2     	0.897959	0        	0.897959	0.897959
164	2     	0.897959	0        	0.897959	0.897959
165	2     	0.897959	0        	0.897959	0.897959
166	2     	0.897959	0        	0.897959	0.897959
167	2     	0.897959	0        	0.897959	0.897959
168	2     	0.897959	0        	0.897959	0.897959
169	2     	0.897959	0        	0.897959	0.897959
170	2     	0.897959	0        	0.897959	0.897959
171	2     	0.897959	0        	0.897959	0.897959
172	2     	0.897959	0        	0.897959	0.897959
173	2     	0.897959	0        	0.897959	0.897959
174	2     	0.897959	0        	0.897959	0.897959
175	2     	0.897959	0        	0.897959	0.897959
176	2     	0.897959	0        	0.897959	0.897959
177	2     	0.897959	0        	0.897959	0.897959
178	2     	0.897959	0        	0.897959	0.897959
179	2     	0.897959	0        	0.897959	0.897959
180	2     	0.897959	0        	0.897959	0.897959
181	2     	0.897959	0        	0.897959	0.897959
182	2     	0.897959	0        	0.897959	0.897959
183	2     	0.908163	0.0102041	0.897959	0.918367
184	2     	0.908163	0.0102041	0.897959	0.918367
185	2     	0.908163	0.0102041	0.897959	0.918367
186	2     	0.908163	0.0102041	0.897959	0.918367
187	2     	0.908163	0.0102041	0.897959	0.918367
188	2     	0.908163	0.0102041	0.897959	0.918367
189	2     	0.908163	0.0102041	0.897959	0.918367
190	2     	0.908163	0.0102041	0.897959	0.918367
191	2     	0.908163	0.0102041	0.897959	0.918367
192	2     	0.908163	0.0102041	0.897959	0.918367
193	2     	0.908163	0.0102041	0.897959	0.918367
194	2     	0.908163	0.0102041	0.897959	0.918367
195	2     	0.908163	0.0102041	0.897959	0.918367
196	2     	0.908163	0.0102041	0.897959	0.918367
197	2     	0.908163	0.0102041	0.897959	0.918367
198	2     	0.908163	0.0102041	0.897959	0.918367
199	2     	0.908163	0.0102041	0.897959	0.918367
200	2     	0.908163	0.0102041	0.897959	0.918367
201	2     	0.908163	0.0102041	0.897959	0.918367
202	2     	0.908163	0.0102041	0.897959	0.918367
203	2     	0.908163	0.0102041	0.897959	0.918367
204	2     	0.908163	0.0102041	0.897959	0.918367
205	2     	0.908163	0.0102041	0.897959	0.918367
206	2     	0.908163	0.0102041	0.897959	0.918367
207	2     	0.908163	0.0102041	0.897959	0.918367
208	2     	0.908163	0.0102041	0.897959	0.918367
209	2     	0.908163	0.0102041	0.897959	0.918367
210	2     	0.908163	0.0102041	0.897959	0.918367
211	2     	0.908163	0.0102041	0.897959	0.918367
212	2     	0.908163	0.0102041	0.897959	0.918367
213	2     	0.908163	0.0102041	0.897959	0.918367
214	2     	0.908163	0.0102041	0.897959	0.918367
215	2     	0.908163	0.0102041	0.897959	0.918367
216	2     	0.908163	0.0102041	0.897959	0.918367
217	2     	0.908163	0.0102041	0.897959	0.918367
218	2     	0.908163	0.0102041	0.897959	0.918367
219	2     	0.908163	0.0102041	0.897959	0.918367
220	2     	0.908163	0.0102041	0.897959	0.918367
221	2     	0.908163	0.0102041	0.897959	0.918367
222	2     	0.908163	0.0102041	0.897959	0.918367
223	2     	0.908163	0.0102041	0.897959	0.918367
224	2     	0.908163	0.0102041	0.897959	0.918367
225	2     	0.908163	0.0102041	0.897959	0.918367
226	2     	0.908163	0.0102041	0.897959	0.918367
227	2     	0.908163	0.0102041	0.897959	0.918367
228	2     	0.908163	0.0102041	0.897959	0.918367
229	2     	0.908163	0.0102041	0.897959	0.918367
230	2     	0.908163	0.0102041	0.897959	0.918367
231	2     	0.908163	0.0102041	0.897959	0.918367
232	2     	0.908163	0.0102041	0.897959	0.918367
233	2     	0.908163	0.0102041	0.897959	0.918367
234	2     	0.908163	0.0102041	0.897959	0.918367
235	2     	0.908163	0.0102041	0.897959	0.918367
236	2     	0.908163	0.0102041	0.897959	0.918367
237	2     	0.908163	0.0102041	0.897959	0.918367
238	2     	0.908163	0.0102041	0.897959	0.918367
239	2     	0.908163	0.0102041	0.897959	0.918367
240	2     	0.908163	0.0102041	0.897959	0.918367
241	2     	0.908163	0.0102041	0.897959	0.918367
242	2     	0.908163	0.0102041	0.897959	0.918367
243	2     	0.908163	0.0102041	0.897959	0.918367
244	2     	0.908163	0.0102041	0.897959	0.918367
245	2     	0.908163	0.0102041	0.897959	0.918367
246	2     	0.908163	0.0102041	0.897959	0.918367
247	2     	0.908163	0.0102041	0.897959	0.918367
248	2     	0.908163	0.0102041	0.897959	0.918367
249	2     	0.918367	0        	0.918367	0.918367
250	2     	0.918367	0        	0.918367	0.918367
251	2     	0.918367	0        	0.918367	0.918367
252	2     	0.918367	0        	0.918367	0.918367
253	2     	0.918367	0        	0.918367	0.918367
254	2     	0.918367	0        	0.918367	0.918367
255	2     	0.918367	0        	0.918367	0.918367
256	2     	0.918367	0        	0.918367	0.918367
257	2     	0.918367	0        	0.918367	0.918367
258	2     	0.918367	0        	0.918367	0.918367
259	2     	0.918367	0        	0.918367	0.918367
260	2     	0.918367	0        	0.918367	0.918367
261	2     	0.918367	0        	0.918367	0.918367
262	2     	0.918367	0        	0.918367	0.918367
263	2     	0.918367	0        	0.918367	0.918367
264	2     	0.918367	0        	0.918367	0.918367
265	2     	0.918367	0        	0.918367	0.918367
266	2     	0.918367	0        	0.918367	0.918367
267	2     	0.918367	0        	0.918367	0.918367
268	2     	0.918367	0        	0.918367	0.918367
269	2     	0.918367	0        	0.918367	0.918367
270	2     	0.918367	0        	0.918367	0.918367
271	2     	0.918367	0        	0.918367	0.918367
272	2     	0.918367	0        	0.918367	0.918367
273	2     	0.918367	0        	0.918367	0.918367
274	2     	0.918367	0        	0.918367	0.918367
275	2     	0.918367	0        	0.918367	0.918367
276	2     	0.918367	0        	0.918367	0.918367
277	2     	0.918367	0        	0.918367	0.918367
278	2     	0.918367	0        	0.918367	0.918367
279	2     	0.918367	0        	0.918367	0.918367
280	2     	0.918367	0        	0.918367	0.918367
281	2     	0.918367	0        	0.918367	0.918367
282	2     	0.918367	0        	0.918367	0.918367
283	2     	0.918367	0        	0.918367	0.918367
284	2     	0.918367	0        	0.918367	0.918367
285	2     	0.918367	0        	0.918367	0.918367
286	2     	0.918367	0        	0.918367	0.918367
287	2     	0.918367	0        	0.918367	0.918367
288	2     	0.918367	0        	0.918367	0.918367
289	2     	0.918367	0        	0.918367	0.918367
290	2     	0.918367	0        	0.918367	0.918367
291	2     	0.918367	0        	0.918367	0.918367
292	2     	0.918367	0        	0.918367	0.918367
293	2     	0.918367	0        	0.918367	0.918367
294	2     	0.918367	0        	0.918367	0.918367
295	2     	0.918367	0        	0.918367	0.918367
296	2     	0.918367	0        	0.918367	0.918367
297	2     	0.918367	0        	0.918367	0.918367
298	2     	0.918367	0        	0.918367	0.918367
299	2     	0.918367	0        	0.918367	0.918367
300	2     	0.918367	0        	0.918367	0.918367
301	2     	0.918367	0        	0.918367	0.918367
302	2     	0.918367	0        	0.918367	0.918367
303	2     	0.918367	0        	0.918367	0.918367
304	2     	0.918367	0        	0.918367	0.918367
305	2     	0.918367	0        	0.918367	0.918367
306	2     	0.918367	0        	0.918367	0.918367
307	2     	0.918367	0        	0.918367	0.918367
308	2     	0.918367	0        	0.918367	0.918367
309	2     	0.918367	0        	0.918367	0.918367
310	2     	0.918367	0        	0.918367	0.918367
311	2     	0.918367	0        	0.918367	0.918367
312	2     	0.918367	0        	0.918367	0.918367
313	2     	0.918367	0        	0.918367	0.918367
314	2     	0.918367	0        	0.918367	0.918367
315	2     	0.918367	0        	0.918367	0.918367
316	2     	0.928571	0.0102041	0.918367	0.938776
317	2     	0.928571	0.0102041	0.918367	0.938776
318	2     	0.94898 	0.0102041	0.938776	0.959184
319	2     	0.94898 	0.0102041	0.938776	0.959184
320	2     	0.94898 	0.0102041	0.938776	0.959184
321	2     	0.94898 	0.0102041	0.938776	0.959184
322	2     	0.94898 	0.0102041	0.938776	0.959184
323	2     	0.94898 	0.0102041	0.938776	0.959184
324	2     	0.94898 	0.0102041	0.938776	0.959184
325	2     	0.94898 	0.0102041	0.938776	0.959184
326	2     	0.94898 	0.0102041	0.938776	0.959184
327	2     	0.94898 	0.0102041	0.938776	0.959184
328	2     	0.94898 	0.0102041	0.938776	0.959184
329	2     	0.94898 	0.0102041	0.938776	0.959184
330	2     	0.959184	0        	0.959184	0.959184
331	2     	0.959184	0        	0.959184	0.959184
332	2     	0.959184	0        	0.959184	0.959184
333	2     	0.959184	0        	0.959184	0.959184
334	2     	0.959184	0        	0.959184	0.959184
335	2     	0.959184	0        	0.959184	0.959184
336	2     	0.959184	0        	0.959184	0.959184
337	2     	0.959184	0        	0.959184	0.959184
338	2     	0.959184	0        	0.959184	0.959184
339	2     	0.959184	0        	0.959184	0.959184
340	2     	0.959184	0        	0.959184	0.959184
341	2     	0.959184	0        	0.959184	0.959184
342	2     	0.959184	0        	0.959184	0.959184
343	2     	0.959184	0        	0.959184	0.959184
344	2     	0.959184	0        	0.959184	0.959184
345	2     	0.959184	0        	0.959184	0.959184
346	2     	0.959184	0        	0.959184	0.959184
347	2     	0.959184	0        	0.959184	0.959184
348	2     	0.959184	0        	0.959184	0.959184
349	2     	0.959184	0        	0.959184	0.959184
350	2     	0.959184	0        	0.959184	0.959184
351	2     	0.959184	0        	0.959184	0.959184
352	2     	0.959184	0        	0.959184	0.959184
353	2     	0.959184	0        	0.959184	0.959184
354	2     	0.959184	0        	0.959184	0.959184
355	2     	0.959184	0        	0.959184	0.959184
356	2     	0.959184	0        	0.959184	0.959184
357	2     	0.959184	0        	0.959184	0.959184
358	2     	0.959184	0        	0.959184	0.959184
359	2     	0.959184	0        	0.959184	0.959184
360	2     	0.959184	0        	0.959184	0.959184
361	2     	0.959184	0        	0.959184	0.959184
362	2     	0.959184	0        	0.959184	0.959184
363	2     	0.959184	0        	0.959184	0.959184
364	2     	0.959184	0        	0.959184	0.959184
365	2     	0.959184	0        	0.959184	0.959184
366	2     	0.959184	0        	0.959184	0.959184