gen	nevals	avg    	std    	min   	max   
0  	2     	0.46875	0.03125	0.4375	0.5   
1  	2     	0.46875	0.03125	0.4375	0.5   
2  	2     	0.5    	0      	0.5   	0.5   
3  	2     	0.53125	0.03125	0.5   	0.5625
4  	2     	0.59375	0.03125	0.5625	0.625 
5  	2     	0.65625	0.03125	0.625 	0.6875
6  	2     	0.65625	0.03125	0.625 	0.6875
7  	2     	0.65625	0.03125	0.625 	0.6875
8  	2     	0.6875 	0      	0.6875	0.6875
9  	2     	0.6875 	0      	0.6875	0.6875
10 	2     	0.6875 	0      	0.6875	0.6875
11 	2     	0.6875 	0      	0.6875	0.6875
12 	2     	0.6875 	0      	0.6875	0.6875
13 	2     	0.6875 	0      	0.6875	0.6875
14 	2     	0.6875 	0      	0.6875	0.6875
15 	2     	0.75   	0.0625 	0.6875	0.8125
16 	2     	0.75   	0.0625 	0.6875	0.8125
17 	2     	0.78125	0.03125	0.75  	0.8125
18 	2     	0.78125	0.03125	0.75  	0.8125
19 	2     	0.78125	0.03125	0.75  	0.8125
20 	2     	0.8125 	0      	0.8125	0.8125
21 	2     	0.8125 	0      	0.8125	0.8125
22 	2     	0.8125 	0      	0.8125	0.8125
23 	2     	0.8125 	0      	0.8125	0.8125
24 	2     	0.8125 	0      	0.8125	0.8125
25 	2     	0.8125 	0      	0.8125	0.8125
26 	2     	0.8125 	0      	0.8125	0.8125
27 	2     	0.8125 	0      	0.8125	0.8125
28 	2     	0.8125 	0      	0.8125	0.8125
29 	2     	0.8125 	0      	0.8125	0.8125
30 	2     	0.8125 	0      	0.8125	0.8125
31 	2     	0.8125 	0      	0.8125	0.8125
32 	2     	0.8125 	0      	0.8125	0.8125
33 	2     	0.8125 	0      	0.8125	0.8125
34 	2     	0.8125 	0      	0.8125	0.8125
35 	2     	0.8125 	0      	0.8125	0.8125
36 	2     	0.8125 	0      	0.8125	0.8125
37 	2     	0.8125 	0      	0.8125	0.8125
38 	2     	0.8125 	0      	0.8125	0.8125
39 	2     	0.8125 	0      	0.8125	0.8125
40 	2     	0.84375	0.03125	0.8125	0.875 
41 	2     	0.875  	0      	0.875 	0.875 
42 	2     	0.875  	0      	0.875 	0.875 
43 	2     	0.875  	0      	0.875 	0.875 
44 	2     	0.875  	0      	0.875 	0.875 
45 	2     	0.875  	0      	0.875 	0.875 
46 	2     	0.90625	0.03125	0.875 	0.9375
47 	2     	0.90625	0.03125	0.875 	0.9375
48 	2     	0.90625	0.03125	0.875 	0.9375
49 	2     	0.90625	0.03125	0.875 	0.9375
50 	2     	0.90625	0.03125	0.875 	0.9375
51 	2     	0.9375 	0      	0.9375	0.9375
52 	2     	0.9375 	0      	0.9375	0.9375
53 	2     	0.9375 	0      	0.9375	0.9375
54 	2     	0.9375 	0      	0.9375	0.9375
55 	2     	0.9375 	0      	0.9375	0.9375
56 	2     	0.9375 	0      	0.9375	0.9375
57 	2     	0.9375 	0      	0.9375	0.9375
58 	2     	0.9375 	0      	0.9375	0.9375
59 	2     	0.9375 	0      	0.9375	0.9375