gen	nevals	avg 	std 	min 	max 
0  	2     	0.5 	0.18	0.32	0.68
1  	2     	0.66	0.02	0.64	0.68
2  	2     	0.66	0.02	0.64	0.68
3  	2     	0.68	0   	0.68	0.68
4  	2     	0.68	0   	0.68	0.68
5  	2     	0.68	0   	0.68	0.68
6  	2     	0.68	0   	0.68	0.68
7  	2     	0.68	0   	0.68	0.68
8  	2     	0.72	0.04	0.68	0.76
9  	2     	0.76	0   	0.76	0.76
10 	2     	0.76	0   	0.76	0.76
11 	2     	0.76	0   	0.76	0.76