gen	nevals	avg     	std      	min     	max     
0  	2     	0.5     	0.0833333	0.416667	0.583333
1  	2     	0.555556	0.0277778	0.527778	0.583333
2  	2     	0.597222	0.0138889	0.583333	0.611111
3  	2     	0.597222	0.0138889	0.583333	0.611111
4  	2     	0.597222	0.0138889	0.583333	0.611111
5  	2     	0.625   	0.0138889	0.611111	0.638889
6  	2     	0.625   	0.0138889	0.611111	0.638889
7  	2     	0.652778	0.0138889	0.638889	0.666667
8  	2     	0.652778	0.0138889	0.638889	0.666667
9  	2     	0.652778	0.0138889	0.638889	0.666667
10 	2     	0.652778	0.0138889	0.638889	0.666667
11 	2     	0.652778	0.0138889	0.638889	0.666667
12 	2     	0.652778	0.0138889	0.638889	0.666667
13 	2     	0.652778	0.0138889	0.638889	0.666667
14 	2     	0.666667	0        	0.666667	0.666667
15 	2     	0.666667	0        	0.666667	0.666667
16 	2     	0.666667	0        	0.666667	0.666667
17 	2     	0.666667	0        	0.666667	0.666667
18 	2     	0.666667	0        	0.666667	0.666667
19 	2     	0.666667	0        	0.666667	0.666667
20 	2     	0.666667	0        	0.666667	0.666667
21 	2     	0.694444	0.0277778	0.666667	0.722222
22 	2     	0.708333	0.0138889	0.694444	0.722222
23 	2     	0.708333	0.0138889	0.694444	0.722222
24 	2     	0.708333	0.0138889	0.694444	0.722222
25 	2     	0.708333	0.0138889	0.694444	0.722222
26 	2     	0.708333	0.0138889	0.694444	0.722222
27 	2     	0.708333	0.0138889	0.694444	0.722222
28 	2     	0.708333	0.0138889	0.694444	0.722222
29 	2     	0.708333	0.0138889	0.694444	0.722222
30 	2     	0.708333	0.0138889	0.694444	0.722222
31 	2     	0.708333	0.0138889	0.694444	0.722222
32 	2     	0.708333	0.0138889	0.694444	0.722222
33 	2     	0.708333	0.0138889	0.694444	0.722222
34 	2     	0.708333	0.0138889	0.694444	0.722222
35 	2     	0.722222	0        	0.722222	0.722222
36 	2     	0.722222	0        	0.722222	0.722222
37 	2     	0.722222	0        	0.722222	0.722222
38 	2     	0.722222	0        	0.722222	0.722222
39 	2     	0.722222	0        	0.722222	0.722222
40 	2     	0.722222	0        	0.722222	0.722222
41 	2     	0.722222	0        	0.722222	0.722222
42 	2     	0.722222	0        	0.722222	0.722222
43 	2     	0.722222	0        	0.722222	0.722222
44 	2     	0.722222	0        	0.722222	0.722222
45 	2     	0.722222	0        	0.722222	0.722222
46 	2     	0.722222	0        	0.722222	0.722222
47 	2     	0.736111	0.0138889	0.722222	0.75    
48 	2     	0.736111	0.0138889	0.722222	0.75    
49 	2     	0.736111	0.0138889	0.722222	0.75    
50 	2     	0.736111	0.0138889	0.722222	0.75    
51 	2     	0.763889	0.0138889	0.75    	0.777778
52 	2     	0.805556	0.0277778	0.777778	0.833333
53 	2     	0.833333	0        	0.833333	0.833333
54 	2     	0.833333	0        	0.833333	0.833333
55 	2     	0.833333	0        	0.833333	0.833333
56 	2     	0.833333	0        	0.833333	0.833333
57 	2     	0.833333	0        	0.833333	0.833333
58 	2     	0.847222	0.0138889	0.833333	0.861111
59 	2     	0.847222	0.0138889	0.833333	0.861111
60 	2     	0.847222	0.0138889	0.833333	0.861111
61 	2     	0.847222	0.0138889	0.833333	0.861111
62 	2     	0.847222	0.0138889	0.833333	0.861111
63 	2     	0.847222	0.0138889	0.833333	0.861111
64 	2     	0.847222	0.0138889	0.833333	0.861111
65 	2     	0.847222	0.0138889	0.833333	0.861111
66 	2     	0.847222	0.0138889	0.833333	0.861111
67 	2     	0.847222	0.0138889	0.833333	0.861111
68 	2     	0.847222	0.0138889	0.833333	0.861111
69 	2     	0.847222	0.0138889	0.833333	0.861111
70 	2     	0.847222	0.0138889	0.833333	0.861111
71 	2     	0.847222	0.0138889	0.833333	0.861111
72 	2     	0.861111	0        	0.861111	0.861111
73 	2     	0.861111	0        	0.861111	0.861111
74 	2     	0.861111	0        	0.861111	0.861111
75 	2     	0.861111	0        	0.861111	0.861111
76 	2     	0.861111	0        	0.861111	0.861111
77 	2     	0.861111	0        	0.861111	0.861111
78 	2     	0.861111	0        	0.861111	0.861111
79 	2     	0.861111	0        	0.861111	0.861111
80 	2     	0.861111	0        	0.861111	0.861111
81 	2     	0.861111	0        	0.861111	0.861111
82 	2     	0.861111	0        	0.861111	0.861111
83 	2     	0.861111	0        	0.861111	0.861111
84 	2     	0.861111	0        	0.861111	0.861111
85 	2     	0.861111	0        	0.861111	0.861111
86 	2     	0.861111	0        	0.861111	0.861111
87 	2     	0.861111	0        	0.861111	0.861111
88 	2     	0.861111	0        	0.861111	0.861111
89 	2     	0.861111	0        	0.861111	0.861111
90 	2     	0.861111	0        	0.861111	0.861111
91 	2     	0.888889	0.0277778	0.861111	0.916667
92 	2     	0.888889	0.0277778	0.861111	0.916667
93 	2     	0.888889	0.0277778	0.861111	0.916667
94 	2     	0.888889	0.0277778	0.861111	0.916667
95 	2     	0.888889	0.0277778	0.861111	0.916667
96 	2     	0.888889	0.0277778	0.861111	0.916667
97 	2     	0.888889	0.0277778	0.861111	0.916667
98 	2     	0.888889	0.0277778	0.861111	0.916667
99 	2     	0.888889	0.0277778	0.861111	0.916667
100	2     	0.888889	0.0277778	0.861111	0.916667
101	2     	0.888889	0.0277778	0.861111	0.916667
102	2     	0.888889	0.0277778	0.861111	0.916667
103	2     	0.888889	0.0277778	0.861111	0.916667
104	2     	0.888889	0.0277778	0.861111	0.916667
105	2     	0.888889	0.0277778	0.861111	0.916667
106	2     	0.888889	0.0277778	0.861111	0.916667
107	2     	0.888889	0.0277778	0.861111	0.916667
108	2     	0.888889	0.0277778	0.861111	0.916667
109	2     	0.888889	0.0277778	0.861111	0.916667
110	2     	0.888889	0.0277778	0.861111	0.916667
111	2     	0.888889	0.0277778	0.861111	0.916667
112	2     	0.888889	0.0277778	0.861111	0.916667
113	2     	0.888889	0.0277778	0.861111	0.916667
114	2     	0.888889	0.0277778	0.861111	0.916667
115	2     	0.888889	0.0277778	0.861111	0.916667
116	2     	0.888889	0.0277778	0.861111	0.916667
117	2     	0.888889	0.0277778	0.861111	0.916667
118	2     	0.888889	0.0277778	0.861111	0.916667
119	2     	0.888889	0.0277778	0.861111	0.916667
120	2     	0.888889	0.0277778	0.861111	0.916667
121	2     	0.888889	0.0277778	0.861111	0.916667
122	2     	0.902778	0.0138889	0.888889	0.916667
123	2     	0.902778	0.0138889	0.888889	0.916667
124	2     	0.902778	0.0138889	0.888889	0.916667
125	2     	0.902778	0.0138889	0.888889	0.916667
126	2     	0.902778	0.0138889	0.888889	0.916667
127	2     	0.902778	0.0138889	0.888889	0.916667
128	2     	0.902778	0.0138889	0.888889	0.916667
129	2     	0.902778	0.0138889	0.888889	0.916667
130	2     	0.902778	0.0138889	0.888889	0.916667
131	2     	0.902778	0.0138889	0.888889	0.916667
132	2     	0.902778	0.0138889	0.888889	0.916667
133	2     	0.902778	0.0138889	0.888889	0.916667
134	2     	0.902778	0.0138889	0.888889	0.916667
135	2     	0.902778	0.0138889	0.888889	0.916667
136	2     	0.902778	0.0138889	0.888889	0.916667
137	2     	0.902778	0.0138889	0.888889	0.916667
138	2     	0.902778	0.0138889	0.888889	0.916667
139	2     	0.902778	0.0138889	0.888889	0.916667
140	2     	0.902778	0.0138889	0.888889	0.916667
141	2     	0.902778	0.0138889	0.888889	0.916667
142	2     	0.902778	0.0138889	0.888889	0.916667
143	2     	0.902778	0.0138889	0.888889	0.916667
144	2     	0.902778	0.0138889	0.888889	0.916667
145	2     	0.902778	0.0138889	0.888889	0.916667
146	2     	0.902778	0.0138889	0.888889	0.916667
147	2     	0.902778	0.0138889	0.888889	0.916667
148	2     	0.902778	0.0138889	0.888889	0.916667
149	2     	0.902778	0.0138889	0.888889	0.916667
150	2     	0.902778	0.0138889	0.888889	0.916667
151	2     	0.902778	0.0138889	0.888889	0.916667
152	2     	0.902778	0.0138889	0.888889	0.916667
153	2     	0.902778	0.0138889	0.888889	0.916667
154	2     	0.902778	0.0138889	0.888889	0.916667
155	2     	0.902778	0.0138889	0.888889	0.916667
156	2     	0.902778	0.0138889	0.888889	0.916667
157	2     	0.902778	0.0138889	0.888889	0.916667
158	2     	0.902778	0.0138889	0.888889	0.916667
159	2     	0.902778	0.0138889	0.888889	0.916667
160	2     	0.902778	0.0138889	0.888889	0.916667
161	2     	0.902778	0.0138889	0.888889	0.916667
162	2     	0.902778	0.0138889	0.888889	0.916667
163	2     	0.902778	0.0138889	0.888889	0.916667
164	2     	0.902778	0.0138889	0.888889	0.916667
165	2     	0.902778	0.0138889	0.888889	0.916667
166	2     	0.902778	0.0138889	0.888889	0.916667
167	2     	0.902778	0.0138889	0.888889	0.916667
168	2     	0.902778	0.0138889	0.888889	0.916667
169	2     	0.902778	0.0138889	0.888889	0.916667
170	2     	0.916667	0        	0.916667	0.916667
171	2     	0.916667	0        	0.916667	0.916667
172	2     	0.916667	0        	0.916667	0.916667
173	2     	0.916667	0        	0.916667	0.916667
174	2     	0.916667	0        	0.916667	0.916667
175	2     	0.916667	0        	0.916667	0.916667
176	2     	0.916667	0        	0.916667	0.916667
177	2     	0.930556	0.0138889	0.916667	0.944444
178	2     	0.930556	0.0138889	0.916667	0.944444
179	2     	0.930556	0.0138889	0.916667	0.944444
180	2     	0.930556	0.0138889	0.916667	0.944444
181	2     	0.930556	0.0138889	0.916667	0.944444
182	2     	0.930556	0.0138889	0.916667	0.944444
183	2     	0.930556	0.0138889	0.916667	0.944444
184	2     	0.930556	0.0138889	0.916667	0.944444
185	2     	0.930556	0.0138889	0.916667	0.944444
186	2     	0.930556	0.0138889	0.916667	0.944444
187	2     	0.930556	0.0138889	0.916667	0.944444
188	2     	0.930556	0.0138889	0.916667	0.944444
189	2     	0.930556	0.0138889	0.916667	0.944444
190	2     	0.930556	0.0138889	0.916667	0.944444
191	2     	0.930556	0.0138889	0.916667	0.944444
192	2     	0.930556	0.0138889	0.916667	0.944444
193	2     	0.930556	0.0138889	0.916667	0.944444
194	2     	0.930556	0.0138889	0.916667	0.944444
195	2     	0.930556	0.0138889	0.916667	0.944444
196	2     	0.930556	0.0138889	0.916667	0.944444
197	2     	0.930556	0.0138889	0.916667	0.944444
198	2     	0.930556	0.0138889	0.916667	0.944444
199	2     	0.930556	0.0138889	0.916667	0.944444
200	2     	0.930556	0.0138889	0.916667	0.944444
201	2     	0.930556	0.0138889	0.916667	0.944444
202	2     	0.930556	0.0138889	0.916667	0.944444
203	2     	0.930556	0.0138889	0.916667	0.944444
204	2     	0.930556	0.0138889	0.916667	0.944444
205	2     	0.930556	0.0138889	0.916667	0.944444
206	2     	0.930556	0.0138889	0.916667	0.944444
207	2     	0.930556	0.0138889	0.916667	0.944444
208	2     	0.930556	0.0138889	0.916667	0.944444
209	2     	0.930556	0.0138889	0.916667	0.944444
210	2     	0.958333	0.0138889	0.944444	0.972222
211	2     	0.958333	0.0138889	0.944444	0.972222
212	2     	0.958333	0.0138889	0.944444	0.972222
213	2     	0.958333	0.0138889	0.944444	0.972222
214	2     	0.958333	0.0138889	0.944444	0.972222
215	2     	0.958333	0.0138889	0.944444	0.972222
216	2     	0.958333	0.0138889	0.944444	0.972222
217	2     	0.958333	0.0138889	0.944444	0.972222
218	2     	0.958333	0.0138889	0.944444	0.972222
219	2     	0.958333	0.0138889	0.944444	0.972222
220	2     	0.958333	0.0138889	0.944444	0.972222
221	2     	0.958333	0.0138889	0.944444	0.972222
222	2     	0.958333	0.0138889	0.944444	0.972222
223	2     	0.958333	0.0138889	0.944444	0.972222
224	2     	0.958333	0.0138889	0.944444	0.972222
225	2     	0.958333	0.0138889	0.944444	0.972222
226	2     	0.958333	0.0138889	0.944444	0.972222
227	2     	0.958333	0.0138889	0.944444	0.972222
228	2     	0.958333	0.0138889	0.944444	0.972222
229	2     	0.958333	0.0138889	0.944444	0.972222
230	2     	0.958333	0.0138889	0.944444	0.972222
231	2     	0.958333	0.0138889	0.944444	0.972222
232	2     	0.958333	0.0138889	0.944444	0.972222
233	2     	0.958333	0.0138889	0.944444	0.972222
234	2     	0.958333	0.0138889	0.944444	0.972222
235	2     	0.958333	0.0138889	0.944444	0.972222
236	2     	0.958333	0.0138889	0.944444	0.972222
237	2     	0.958333	0.0138889	0.944444	0.972222
238	2     	0.958333	0.0138889	0.944444	0.972222
239	2     	0.958333	0.0138889	0.944444	0.972222
240	2     	0.958333	0.0138889	0.944444	0.972222
241	2     	0.958333	0.0138889	0.944444	0.972222
242	2     	0.958333	0.0138889	0.944444	0.972222
243	2     	0.958333	0.0138889	0.944444	0.972222
244	2     	0.958333	0.0138889	0.944444	0.972222
245	2     	0.958333	0.0138889	0.944444	0.972222
246	2     	0.958333	0.0138889	0.944444	0.972222
247	2     	0.958333	0.0138889	0.944444	0.972222
248	2     	0.958333	0.0138889	0.944444	0.972222
249	2     	0.958333	0.0138889	0.944444	0.972222
250	2     	0.958333	0.0138889	0.944444	0.972222
251	2     	0.958333	0.0138889	0.944444	0.972222
252	2     	0.958333	0.0138889	0.944444	0.972222
253	2     	0.958333	0.0138889	0.944444	0.972222
254	2     	0.958333	0.0138889	0.944444	0.972222
255	2     	0.958333	0.0138889	0.944444	0.972222
256	2     	0.958333	0.0138889	0.944444	0.972222
257	2     	0.958333	0.0138889	0.944444	0.972222
258	2     	0.958333	0.0138889	0.944444	0.972222
259	2     	0.958333	0.0138889	0.944444	0.972222
260	2     	0.958333	0.0138889	0.944444	0.972222
261	2     	0.958333	0.0138889	0.944444	0.972222
262	2     	0.958333	0.0138889	0.944444	0.972222
263	2     	0.958333	0.0138889	0.944444	0.972222
264	2     	0.958333	0.0138889	0.944444	0.972222
265	2     	0.958333	0.0138889	0.944444	0.972222
266	2     	0.958333	0.0138889	0.944444	0.972222
267	2     	0.958333	0.0138889	0.944444	0.972222
268	2     	0.958333	0.0138889	0.944444	0.972222
269	2     	0.958333	0.0138889	0.944444	0.972222
270	2     	0.958333	0.0138889	0.944444	0.972222
271	2     	0.986111	0.0138889	0.972222	1       