gen	nevals	avg     	std      	min     	max     
0  	2     	0.458333	0.0972222	0.361111	0.555556
1  	2     	0.555556	0        	0.555556	0.555556
2  	2     	0.555556	0        	0.555556	0.555556
3  	2     	0.555556	0        	0.555556	0.555556
4  	2     	0.583333	0.0277778	0.555556	0.611111
5  	2     	0.597222	0.0138889	0.583333	0.611111
6  	2     	0.638889	0.0277778	0.611111	0.666667
7  	2     	0.638889	0.0277778	0.611111	0.666667
8  	2     	0.708333	0.0416667	0.666667	0.75    
9  	2     	0.736111	0.0138889	0.722222	0.75    
10 	2     	0.777778	0.0277778	0.75    	0.805556
11 	2     	0.791667	0.0138889	0.777778	0.805556
12 	2     	0.791667	0.0138889	0.777778	0.805556
13 	2     	0.791667	0.0138889	0.777778	0.805556
14 	2     	0.791667	0.0138889	0.777778	0.805556
15 	2     	0.791667	0.0138889	0.777778	0.805556
16 	2     	0.791667	0.0138889	0.777778	0.805556
17 	2     	0.791667	0.0138889	0.777778	0.805556
18 	2     	0.791667	0.0138889	0.777778	0.805556
19 	2     	0.791667	0.0138889	0.777778	0.805556
20 	2     	0.791667	0.0138889	0.777778	0.805556
21 	2     	0.791667	0.0138889	0.777778	0.805556
22 	2     	0.791667	0.0138889	0.777778	0.805556
23 	2     	0.791667	0.0138889	0.777778	0.805556
24 	2     	0.791667	0.0138889	0.777778	0.805556
25 	2     	0.791667	0.0138889	0.777778	0.805556
26 	2     	0.805556	0        	0.805556	0.805556
27 	2     	0.805556	0        	0.805556	0.805556
28 	2     	0.805556	0        	0.805556	0.805556
29 	2     	0.805556	0        	0.805556	0.805556
30 	2     	0.805556	0        	0.805556	0.805556
31 	2     	0.805556	0        	0.805556	0.805556
32 	2     	0.805556	0        	0.805556	0.805556
33 	2     	0.805556	0        	0.805556	0.805556
34 	2     	0.805556	0        	0.805556	0.805556
35 	2     	0.805556	0        	0.805556	0.805556
36 	2     	0.805556	0        	0.805556	0.805556
37 	2     	0.805556	0        	0.805556	0.805556
38 	2     	0.805556	0        	0.805556	0.805556
39 	2     	0.805556	0        	0.805556	0.805556
40 	2     	0.805556	0        	0.805556	0.805556
41 	2     	0.805556	0        	0.805556	0.805556
42 	2     	0.805556	0        	0.805556	0.805556
43 	2     	0.805556	0        	0.805556	0.805556
44 	2     	0.805556	0        	0.805556	0.805556
45 	2     	0.805556	0        	0.805556	0.805556
46 	2     	0.805556	0        	0.805556	0.805556
47 	2     	0.805556	0        	0.805556	0.805556
48 	2     	0.805556	0        	0.805556	0.805556
49 	2     	0.819444	0.0138889	0.805556	0.833333
50 	2     	0.819444	0.0138889	0.805556	0.833333
51 	2     	0.819444	0.0138889	0.805556	0.833333
52 	2     	0.819444	0.0138889	0.805556	0.833333
53 	2     	0.819444	0.0138889	0.805556	0.833333
54 	2     	0.819444	0.0138889	0.805556	0.833333
55 	2     	0.847222	0.0138889	0.833333	0.861111
56 	2     	0.847222	0.0138889	0.833333	0.861111
57 	2     	0.847222	0.0138889	0.833333	0.861111
58 	2     	0.847222	0.0138889	0.833333	0.861111
59 	2     	0.847222	0.0138889	0.833333	0.861111
60 	2     	0.847222	0.0138889	0.833333	0.861111
61 	2     	0.847222	0.0138889	0.833333	0.861111
62 	2     	0.847222	0.0138889	0.833333	0.861111
63 	2     	0.847222	0.0138889	0.833333	0.861111
64 	2     	0.847222	0.0138889	0.833333	0.861111
65 	2     	0.847222	0.0138889	0.833333	0.861111
66 	2     	0.861111	0        	0.861111	0.861111
67 	2     	0.861111	0        	0.861111	0.861111
68 	2     	0.861111	0        	0.861111	0.861111
69 	2     	0.875   	0.0138889	0.861111	0.888889
70 	2     	0.875   	0.0138889	0.861111	0.888889
71 	2     	0.875   	0.0138889	0.861111	0.888889
72 	2     	0.875   	0.0138889	0.861111	0.888889
73 	2     	0.875   	0.0138889	0.861111	0.888889
74 	2     	0.875   	0.0138889	0.861111	0.888889
75 	2     	0.875   	0.0138889	0.861111	0.888889
76 	2     	0.875   	0.0138889	0.861111	0.888889
77 	2     	0.875   	0.0138889	0.861111	0.888889
78 	2     	0.875   	0.0138889	0.861111	0.888889
79 	2     	0.875   	0.0138889	0.861111	0.888889
80 	2     	0.875   	0.0138889	0.861111	0.888889
81 	2     	0.875   	0.0138889	0.861111	0.888889
82 	2     	0.875   	0.0138889	0.861111	0.888889
83 	2     	0.875   	0.0138889	0.861111	0.888889
84 	2     	0.875   	0.0138889	0.861111	0.888889
85 	2     	0.875   	0.0138889	0.861111	0.888889
86 	2     	0.875   	0.0138889	0.861111	0.888889
87 	2     	0.875   	0.0138889	0.861111	0.888889
88 	2     	0.875   	0.0138889	0.861111	0.888889
89 	2     	0.902778	0.0138889	0.888889	0.916667
90 	2     	0.902778	0.0138889	0.888889	0.916667
91 	2     	0.902778	0.0138889	0.888889	0.916667
92 	2     	0.902778	0.0138889	0.888889	0.916667
93 	2     	0.902778	0.0138889	0.888889	0.916667
94 	2     	0.902778	0.0138889	0.888889	0.916667
95 	2     	0.902778	0.0138889	0.888889	0.916667
96 	2     	0.902778	0.0138889	0.888889	0.916667
97 	2     	0.902778	0.0138889	0.888889	0.916667
98 	2     	0.902778	0.0138889	0.888889	0.916667
99 	2     	0.916667	0        	0.916667	0.916667
100	2     	0.916667	0        	0.916667	0.916667
101	2     	0.916667	0        	0.916667	0.916667
102	2     	0.916667	0        	0.916667	0.916667
103	2     	0.916667	0        	0.916667	0.916667
104	2     	0.916667	0        	0.916667	0.916667
105	2     	0.916667	0        	0.916667	0.916667
106	2     	0.916667	0        	0.916667	0.916667
107	2     	0.916667	0        	0.916667	0.916667
108	2     	0.916667	0        	0.916667	0.916667
109	2     	0.916667	0        	0.916667	0.916667
110	2     	0.916667	0        	0.916667	0.916667
111	2     	0.916667	0        	0.916667	0.916667
112	2     	0.916667	0        	0.916667	0.916667
113	2     	0.916667	0        	0.916667	0.916667