gen	nevals	avg 	std 	min 	max 
0  	2     	0.46	0.02	0.44	0.48
1  	2     	0.46	0.02	0.44	0.48
2  	2     	0.46	0.02	0.44	0.48
3  	2     	0.5 	0.02	0.48	0.52
4  	2     	0.52	0   	0.52	0.52
5  	2     	0.52	0   	0.52	0.52
6  	2     	0.52	0   	0.52	0.52
7  	2     	0.54	0.02	0.52	0.56
8  	2     	0.56	0   	0.56	0.56
9  	2     	0.6 	0.04	0.56	0.64
10 	2     	0.62	0.02	0.6 	0.64
11 	2     	0.62	0.02	0.6 	0.64
12 	2     	0.66	0.02	0.64	0.68
13 	2     	0.72	0.04	0.68	0.76
14 	2     	0.76	0   	0.76	0.76
15 	2     	0.76	0   	0.76	0.76
16 	2     	0.76	0   	0.76	0.76
17 	2     	0.76	0   	0.76	0.76
18 	2     	0.78	0.02	0.76	0.8 
19 	2     	0.8 	0   	0.8 	0.8 
20 	2     	0.8 	0   	0.8 	0.8 
21 	2     	0.8 	0   	0.8 	0.8 
22 	2     	0.8 	0   	0.8 	0.8 
23 	2     	0.8 	0   	0.8 	0.8 
24 	2     	0.8 	0   	0.8 	0.8 
25 	2     	0.8 	0   	0.8 	0.8 
26 	2     	0.8 	0   	0.8 	0.8 
27 	2     	0.8 	0   	0.8 	0.8 
28 	2     	0.8 	0   	0.8 	0.8 
29 	2     	0.82	0.02	0.8 	0.84
30 	2     	0.86	0.02	0.84	0.88
31 	2     	0.86	0.02	0.84	0.88
32 	2     	0.86	0.02	0.84	0.88
33 	2     	0.86	0.02	0.84	0.88
34 	2     	0.86	0.02	0.84	0.88
35 	2     	0.86	0.02	0.84	0.88
36 	2     	0.86	0.02	0.84	0.88
37 	2     	0.86	0.02	0.84	0.88
38 	2     	0.86	0.02	0.84	0.88
39 	2     	0.86	0.02	0.84	0.88
40 	2     	0.86	0.02	0.84	0.88
41 	2     	0.86	0.02	0.84	0.88
42 	2     	0.86	0.02	0.84	0.88
43 	2     	0.86	0.02	0.84	0.88
44 	2     	0.86	0.02	0.84	0.88
45 	2     	0.88	0   	0.88	0.88
46 	2     	0.88	0   	0.88	0.88
47 	2     	0.88	0   	0.88	0.88
48 	2     	0.88	0   	0.88	0.88
49 	2     	0.88	0   	0.88	0.88
50 	2     	0.88	0   	0.88	0.88
51 	2     	0.88	0   	0.88	0.88
52 	2     	0.88	0   	0.88	0.88
53 	2     	0.88	0   	0.88	0.88
54 	2     	0.88	0   	0.88	0.88
55 	2     	0.88	0   	0.88	0.88
56 	2     	0.88	0   	0.88	0.88
57 	2     	0.88	0   	0.88	0.88
58 	2     	0.88	0   	0.88	0.88
59 	2     	0.88	0   	0.88	0.88
60 	2     	0.88	0   	0.88	0.88
61 	2     	0.88	0   	0.88	0.88
62 	2     	0.88	0   	0.88	0.88
63 	2     	0.88	0   	0.88	0.88
64 	2     	0.88	0   	0.88	0.88
65 	2     	0.88	0   	0.88	0.88
66 	2     	0.88	0   	0.88	0.88
67 	2     	0.88	0   	0.88	0.88
68 	2     	0.88	0   	0.88	0.88
69 	2     	0.88	0   	0.88	0.88
70 	2     	0.88	0   	0.88	0.88
71 	2     	0.88	0   	0.88	0.88
72 	2     	0.88	0   	0.88	0.88
73 	2     	0.88	0   	0.88	0.88
74 	2     	0.88	0   	0.88	0.88
75 	2     	0.88	0   	0.88	0.88
76 	2     	0.88	0   	0.88	0.88
77 	2     	0.88	0   	0.88	0.88
78 	2     	0.88	0   	0.88	0.88
79 	2     	0.88	0   	0.88	0.88
80 	2     	0.88	0   	0.88	0.88
81 	2     	0.88	0   	0.88	0.88
82 	2     	0.88	0   	0.88	0.88
83 	2     	0.88	0   	0.88	0.88
84 	2     	0.88	0   	0.88	0.88
85 	2     	0.88	0   	0.88	0.88
86 	2     	0.88	0   	0.88	0.88
87 	2     	0.88	0   	0.88	0.88
88 	2     	0.88	0   	0.88	0.88
89 	2     	0.88	0   	0.88	0.88
90 	2     	0.88	0   	0.88	0.88
91 	2     	0.88	0   	0.88	0.88
92 	2     	0.88	0   	0.88	0.88
93 	2     	0.88	0   	0.88	0.88
94 	2     	0.88	0   	0.88	0.88
95 	2     	0.88	0   	0.88	0.88
96 	2     	0.88	0   	0.88	0.88
97 	2     	0.88	0   	0.88	0.88
98 	2     	0.88	0   	0.88	0.88
99 	2     	0.88	0   	0.88	0.88
100	2     	0.88	0   	0.88	0.88
101	2     	0.88	0   	0.88	0.88
102	2     	0.88	0   	0.88	0.88
103	2     	0.88	0   	0.88	0.88
104	2     	0.88	0   	0.88	0.88
105	2     	0.88	0   	0.88	0.88
106	2     	0.88	0   	0.88	0.88
107	2     	0.88	0   	0.88	0.88
108	2     	0.88	0   	0.88	0.88
109	2     	0.88	0   	0.88	0.88
110	2     	0.9 	0.02	0.88	0.92
111	2     	0.9 	0.02	0.88	0.92
112	2     	0.9 	0.02	0.88	0.92
113	2     	0.9 	0.02	0.88	0.92
114	2     	0.9 	0.02	0.88	0.92
115	2     	0.9 	0.02	0.88	0.92
116	2     	0.9 	0.02	0.88	0.92
117	2     	0.9 	0.02	0.88	0.92
118	2     	0.9 	0.02	0.88	0.92
119	2     	0.9 	0.02	0.88	0.92
120	2     	0.9 	0.02	0.88	0.92
121	2     	0.9 	0.02	0.88	0.92
122	2     	0.9 	0.02	0.88	0.92
123	2     	0.9 	0.02	0.88	0.92
124	2     	0.9 	0.02	0.88	0.92
125	2     	0.9 	0.02	0.88	0.92
126	2     	0.9 	0.02	0.88	0.92
127	2     	0.9 	0.02	0.88	0.92
128	2     	0.9 	0.02	0.88	0.92
129	2     	0.9 	0.02	0.88	0.92
130	2     	0.9 	0.02	0.88	0.92
131	2     	0.92	0   	0.92	0.92
132	2     	0.92	0   	0.92	0.92
133	2     	0.92	0   	0.92	0.92
134	2     	0.92	0   	0.92	0.92
135	2     	0.92	0   	0.92	0.92
136	2     	0.92	0   	0.92	0.92
137	2     	0.92	0   	0.92	0.92
138	2     	0.92	0   	0.92	0.92
139	2     	0.92	0   	0.92	0.92
140	2     	0.92	0   	0.92	0.92
141	2     	0.92	0   	0.92	0.92
142	2     	0.92	0   	0.92	0.92
143	2     	0.92	0   	0.92	0.92
144	2     	0.92	0   	0.92	0.92
145	2     	0.92	0   	0.92	0.92
146	2     	0.92	0   	0.92	0.92
147	2     	0.92	0   	0.92	0.92
148	2     	0.92	0   	0.92	0.92
149	2     	0.92	0   	0.92	0.92
150	2     	0.92	0   	0.92	0.92
151	2     	0.92	0   	0.92	0.92
152	2     	0.92	0   	0.92	0.92
153	2     	0.92	0   	0.92	0.92
154	2     	0.92	0   	0.92	0.92
155	2     	0.92	0   	0.92	0.92
156	2     	0.92	0   	0.92	0.92
157	2     	0.92	0   	0.92	0.92
158	2     	0.92	0   	0.92	0.92
159	2     	0.92	0   	0.92	0.92
160	2     	0.92	0   	0.92	0.92
161	2     	0.92	0   	0.92	0.92
162	2     	0.92	0   	0.92	0.92
163	2     	0.92	0   	0.92	0.92
164	2     	0.92	0   	0.92	0.92
165	2     	0.92	0   	0.92	0.92
166	2     	0.92	0   	0.92	0.92
167	2     	0.92	0   	0.92	0.92
168	2     	0.92	0   	0.92	0.92
169	2     	0.92	0   	0.92	0.92
170	2     	0.92	0   	0.92	0.92
171	2     	0.92	0   	0.92	0.92
172	2     	0.92	0   	0.92	0.92
173	2     	0.92	0   	0.92	0.92
174	2     	0.92	0   	0.92	0.92
175	2     	0.92	0   	0.92	0.92
176	2     	0.92	0   	0.92	0.92
177	2     	0.92	0   	0.92	0.92
178	2     	0.92	0   	0.92	0.92
179	2     	0.92	0   	0.92	0.92
180	2     	0.92	0   	0.92	0.92
181	2     	0.92	0   	0.92	0.92
182	2     	0.92	0   	0.92	0.92
183	2     	0.92	0   	0.92	0.92
184	2     	0.92	0   	0.92	0.92
185	2     	0.92	0   	0.92	0.92
186	2     	0.92	0   	0.92	0.92
187	2     	0.92	0   	0.92	0.92
188	2     	0.92	0   	0.92	0.92
189	2     	0.92	0   	0.92	0.92
190	2     	0.92	0   	0.92	0.92
191	2     	0.92	0   	0.92	0.92
192	2     	0.92	0   	0.92	0.92
193	2     	0.92	0   	0.92	0.92
194	2     	0.92	0   	0.92	0.92
195	2     	0.94	0.02	0.92	0.96
196	2     	0.94	0.02	0.92	0.96
197	2     	0.94	0.02	0.92	0.96
198	2     	0.94	0.02	0.92	0.96
199	2     	0.96	0   	0.96	0.96
200	2     	0.96	0   	0.96	0.96
201	2     	0.96	0   	0.96	0.96
202	2     	0.96	0   	0.96	0.96
203	2     	0.96	0   	0.96	0.96
204	2     	0.98	0.02	0.96	1   