gen	nevals	avg    	std    	min   	max   
0  	2     	0.5625 	0.0625 	0.5   	0.625 
1  	2     	0.59375	0.03125	0.5625	0.625 
2  	2     	0.59375	0.03125	0.5625	0.625 
3  	2     	0.625  	0      	0.625 	0.625 
4  	2     	0.625  	0      	0.625 	0.625 
5  	2     	0.65625	0.03125	0.625 	0.6875
6  	2     	0.71875	0.03125	0.6875	0.75  
7  	2     	0.75   	0      	0.75  	0.75  
8  	2     	0.75   	0      	0.75  	0.75  
9  	2     	0.75   	0      	0.75  	0.75  