gen	nevals	avg     	std      	min     	max     
0  	2     	0.472222	0.0833333	0.388889	0.555556
1  	2     	0.597222	0.0416667	0.555556	0.638889
2  	2     	0.652778	0.0138889	0.638889	0.666667
3  	2     	0.652778	0.0138889	0.638889	0.666667
4  	2     	0.652778	0.0138889	0.638889	0.666667
5  	2     	0.694444	0.0277778	0.666667	0.722222
6  	2     	0.694444	0.0277778	0.666667	0.722222
7  	2     	0.694444	0.0277778	0.666667	0.722222
8  	2     	0.694444	0.0277778	0.666667	0.722222
9  	2     	0.708333	0.0138889	0.694444	0.722222
10 	2     	0.75    	0.0277778	0.722222	0.777778
11 	2     	0.75    	0.0277778	0.722222	0.777778
12 	2     	0.75    	0.0277778	0.722222	0.777778
13 	2     	0.75    	0.0277778	0.722222	0.777778
14 	2     	0.75    	0.0277778	0.722222	0.777778
15 	2     	0.777778	0        	0.777778	0.777778
16 	2     	0.791667	0.0138889	0.777778	0.805556
17 	2     	0.791667	0.0138889	0.777778	0.805556
18 	2     	0.791667	0.0138889	0.777778	0.805556
19 	2     	0.791667	0.0138889	0.777778	0.805556
20 	2     	0.791667	0.0138889	0.777778	0.805556
21 	2     	0.791667	0.0138889	0.777778	0.805556
22 	2     	0.791667	0.0138889	0.777778	0.805556
23 	2     	0.791667	0.0138889	0.777778	0.805556
24 	2     	0.791667	0.0138889	0.777778	0.805556
25 	2     	0.791667	0.0138889	0.777778	0.805556
26 	2     	0.819444	0.0138889	0.805556	0.833333
27 	2     	0.819444	0.0138889	0.805556	0.833333
28 	2     	0.819444	0.0138889	0.805556	0.833333
29 	2     	0.819444	0.0138889	0.805556	0.833333
30 	2     	0.833333	0        	0.833333	0.833333
31 	2     	0.833333	0        	0.833333	0.833333
32 	2     	0.833333	0        	0.833333	0.833333
33 	2     	0.833333	0        	0.833333	0.833333
34 	2     	0.833333	0        	0.833333	0.833333
35 	2     	0.833333	0        	0.833333	0.833333
36 	2     	0.833333	0        	0.833333	0.833333
37 	2     	0.833333	0        	0.833333	0.833333
38 	2     	0.833333	0        	0.833333	0.833333
39 	2     	0.833333	0        	0.833333	0.833333
40 	2     	0.833333	0        	0.833333	0.833333
41 	2     	0.847222	0.0138889	0.833333	0.861111
42 	2     	0.847222	0.0138889	0.833333	0.861111
43 	2     	0.847222	0.0138889	0.833333	0.861111
44 	2     	0.847222	0.0138889	0.833333	0.861111
45 	2     	0.847222	0.0138889	0.833333	0.861111
46 	2     	0.847222	0.0138889	0.833333	0.861111
47 	2     	0.847222	0.0138889	0.833333	0.861111
48 	2     	0.847222	0.0138889	0.833333	0.861111
49 	2     	0.847222	0.0138889	0.833333	0.861111
50 	2     	0.861111	0        	0.861111	0.861111
51 	2     	0.861111	0        	0.861111	0.861111
52 	2     	0.861111	0        	0.861111	0.861111
53 	2     	0.861111	0        	0.861111	0.861111
54 	2     	0.861111	0        	0.861111	0.861111
55 	2     	0.861111	0        	0.861111	0.861111
56 	2     	0.861111	0        	0.861111	0.861111
57 	2     	0.861111	0        	0.861111	0.861111
58 	2     	0.861111	0        	0.861111	0.861111
59 	2     	0.861111	0        	0.861111	0.861111
60 	2     	0.861111	0        	0.861111	0.861111
61 	2     	0.861111	0        	0.861111	0.861111
62 	2     	0.861111	0        	0.861111	0.861111
63 	2     	0.861111	0        	0.861111	0.861111
64 	2     	0.861111	0        	0.861111	0.861111
65 	2     	0.861111	0        	0.861111	0.861111
66 	2     	0.861111	0        	0.861111	0.861111
67 	2     	0.861111	0        	0.861111	0.861111
68 	2     	0.861111	0        	0.861111	0.861111
69 	2     	0.861111	0        	0.861111	0.861111
70 	2     	0.861111	0        	0.861111	0.861111
71 	2     	0.861111	0        	0.861111	0.861111
72 	2     	0.861111	0        	0.861111	0.861111
73 	2     	0.861111	0        	0.861111	0.861111
74 	2     	0.861111	0        	0.861111	0.861111
75 	2     	0.861111	0        	0.861111	0.861111
76 	2     	0.861111	0        	0.861111	0.861111
77 	2     	0.861111	0        	0.861111	0.861111
78 	2     	0.861111	0        	0.861111	0.861111
79 	2     	0.861111	0        	0.861111	0.861111
80 	2     	0.861111	0        	0.861111	0.861111
81 	2     	0.861111	0        	0.861111	0.861111
82 	2     	0.861111	0        	0.861111	0.861111
83 	2     	0.861111	0        	0.861111	0.861111
84 	2     	0.861111	0        	0.861111	0.861111
85 	2     	0.861111	0        	0.861111	0.861111
86 	2     	0.875   	0.0138889	0.861111	0.888889
87 	2     	0.875   	0.0138889	0.861111	0.888889
88 	2     	0.875   	0.0138889	0.861111	0.888889
89 	2     	0.916667	0.0277778	0.888889	0.944444
90 	2     	0.916667	0.0277778	0.888889	0.944444
91 	2     	0.916667	0.0277778	0.888889	0.944444
92 	2     	0.916667	0.0277778	0.888889	0.944444
93 	2     	0.916667	0.0277778	0.888889	0.944444
94 	2     	0.916667	0.0277778	0.888889	0.944444
95 	2     	0.916667	0.0277778	0.888889	0.944444
96 	2     	0.916667	0.0277778	0.888889	0.944444
97 	2     	0.916667	0.0277778	0.888889	0.944444
98 	2     	0.916667	0.0277778	0.888889	0.944444
99 	2     	0.916667	0.0277778	0.888889	0.944444
100	2     	0.916667	0.0277778	0.888889	0.944444
101	2     	0.944444	0        	0.944444	0.944444
102	2     	0.944444	0        	0.944444	0.944444
103	2     	0.944444	0        	0.944444	0.944444