gen	nevals	avg    	std    	min   	max   
0  	2     	0.53125	0.03125	0.5   	0.5625
1  	2     	0.5625 	0      	0.5625	0.5625
2  	2     	0.59375	0.03125	0.5625	0.625 
3  	2     	0.625  	0      	0.625 	0.625 
4  	2     	0.625  	0      	0.625 	0.625 
5  	2     	0.65625	0.03125	0.625 	0.6875
6  	2     	0.71875	0.03125	0.6875	0.75  
7  	2     	0.71875	0.03125	0.6875	0.75  
8  	2     	0.71875	0.03125	0.6875	0.75  
9  	2     	0.75   	0      	0.75  	0.75  
10 	2     	0.78125	0.03125	0.75  	0.8125
11 	2     	0.78125	0.03125	0.75  	0.8125
12 	2     	0.78125	0.03125	0.75  	0.8125
13 	2     	0.78125	0.03125	0.75  	0.8125
14 	2     	0.78125	0.03125	0.75  	0.8125
15 	2     	0.8125 	0      	0.8125	0.8125
16 	2     	0.8125 	0      	0.8125	0.8125
17 	2     	0.8125 	0      	0.8125	0.8125
18 	2     	0.8125 	0      	0.8125	0.8125