gen	nevals	avg     	std      	min     	max     
0  	2     	0.541667	0.0416667	0.5     	0.583333
1  	2     	0.611111	0.0277778	0.583333	0.638889
2  	2     	0.666667	0.0277778	0.638889	0.694444
3  	2     	0.666667	0.0277778	0.638889	0.694444
4  	2     	0.680556	0.0138889	0.666667	0.694444
5  	2     	0.680556	0.0138889	0.666667	0.694444
6  	2     	0.680556	0.0138889	0.666667	0.694444
7  	2     	0.680556	0.0138889	0.666667	0.694444
8  	2     	0.694444	0        	0.694444	0.694444
9  	2     	0.694444	0        	0.694444	0.694444
10 	2     	0.694444	0        	0.694444	0.694444
11 	2     	0.694444	0        	0.694444	0.694444
12 	2     	0.694444	0        	0.694444	0.694444
13 	2     	0.694444	0        	0.694444	0.694444
14 	2     	0.694444	0        	0.694444	0.694444
15 	2     	0.694444	0        	0.694444	0.694444
16 	2     	0.694444	0        	0.694444	0.694444
17 	2     	0.694444	0        	0.694444	0.694444
18 	2     	0.694444	0        	0.694444	0.694444
19 	2     	0.708333	0.0138889	0.694444	0.722222
20 	2     	0.708333	0.0138889	0.694444	0.722222
21 	2     	0.708333	0.0138889	0.694444	0.722222
22 	2     	0.708333	0.0138889	0.694444	0.722222
23 	2     	0.708333	0.0138889	0.694444	0.722222
24 	2     	0.722222	0        	0.722222	0.722222
25 	2     	0.722222	0        	0.722222	0.722222
26 	2     	0.722222	0        	0.722222	0.722222
27 	2     	0.722222	0        	0.722222	0.722222
28 	2     	0.722222	0        	0.722222	0.722222
29 	2     	0.722222	0        	0.722222	0.722222
30 	2     	0.722222	0        	0.722222	0.722222
31 	2     	0.722222	0        	0.722222	0.722222
32 	2     	0.722222	0        	0.722222	0.722222
33 	2     	0.722222	0        	0.722222	0.722222
34 	2     	0.722222	0        	0.722222	0.722222
35 	2     	0.722222	0        	0.722222	0.722222
36 	2     	0.722222	0        	0.722222	0.722222
37 	2     	0.722222	0        	0.722222	0.722222
38 	2     	0.722222	0        	0.722222	0.722222
39 	2     	0.722222	0        	0.722222	0.722222
40 	2     	0.722222	0        	0.722222	0.722222
41 	2     	0.722222	0        	0.722222	0.722222
42 	2     	0.722222	0        	0.722222	0.722222
43 	2     	0.722222	0        	0.722222	0.722222
44 	2     	0.736111	0.0138889	0.722222	0.75    
45 	2     	0.736111	0.0138889	0.722222	0.75    
46 	2     	0.736111	0.0138889	0.722222	0.75    
47 	2     	0.736111	0.0138889	0.722222	0.75    
48 	2     	0.736111	0.0138889	0.722222	0.75    
49 	2     	0.736111	0.0138889	0.722222	0.75    
50 	2     	0.736111	0.0138889	0.722222	0.75    
51 	2     	0.736111	0.0138889	0.722222	0.75    
52 	2     	0.736111	0.0138889	0.722222	0.75    
53 	2     	0.736111	0.0138889	0.722222	0.75    
54 	2     	0.736111	0.0138889	0.722222	0.75    
55 	2     	0.75    	0        	0.75    	0.75    
56 	2     	0.75    	0        	0.75    	0.75    
57 	2     	0.75    	0        	0.75    	0.75    
58 	2     	0.75    	0        	0.75    	0.75    
59 	2     	0.763889	0.0138889	0.75    	0.777778
60 	2     	0.763889	0.0138889	0.75    	0.777778
61 	2     	0.763889	0.0138889	0.75    	0.777778
62 	2     	0.763889	0.0138889	0.75    	0.777778
63 	2     	0.763889	0.0138889	0.75    	0.777778
64 	2     	0.763889	0.0138889	0.75    	0.777778
65 	2     	0.763889	0.0138889	0.75    	0.777778
66 	2     	0.777778	0        	0.777778	0.777778
67 	2     	0.777778	0        	0.777778	0.777778
68 	2     	0.777778	0        	0.777778	0.777778
69 	2     	0.777778	0        	0.777778	0.777778
70 	2     	0.777778	0        	0.777778	0.777778
71 	2     	0.777778	0        	0.777778	0.777778
72 	2     	0.777778	0        	0.777778	0.777778
73 	2     	0.777778	0        	0.777778	0.777778
74 	2     	0.777778	0        	0.777778	0.777778
75 	2     	0.777778	0        	0.777778	0.777778
76 	2     	0.791667	0.0138889	0.777778	0.805556
77 	2     	0.791667	0.0138889	0.777778	0.805556
78 	2     	0.791667	0.0138889	0.777778	0.805556
79 	2     	0.805556	0        	0.805556	0.805556
80 	2     	0.805556	0        	0.805556	0.805556
81 	2     	0.805556	0        	0.805556	0.805556
82 	2     	0.805556	0        	0.805556	0.805556
83 	2     	0.805556	0        	0.805556	0.805556
84 	2     	0.805556	0        	0.805556	0.805556
85 	2     	0.805556	0        	0.805556	0.805556
86 	2     	0.805556	0        	0.805556	0.805556
87 	2     	0.805556	0        	0.805556	0.805556
88 	2     	0.805556	0        	0.805556	0.805556
89 	2     	0.805556	0        	0.805556	0.805556
90 	2     	0.805556	0        	0.805556	0.805556
91 	2     	0.805556	0        	0.805556	0.805556
92 	2     	0.805556	0        	0.805556	0.805556
93 	2     	0.805556	0        	0.805556	0.805556
94 	2     	0.805556	0        	0.805556	0.805556
95 	2     	0.805556	0        	0.805556	0.805556
96 	2     	0.805556	0        	0.805556	0.805556
97 	2     	0.805556	0        	0.805556	0.805556
98 	2     	0.805556	0        	0.805556	0.805556
99 	2     	0.805556	0        	0.805556	0.805556
100	2     	0.805556	0        	0.805556	0.805556
101	2     	0.805556	0        	0.805556	0.805556
102	2     	0.805556	0        	0.805556	0.805556
103	2     	0.805556	0        	0.805556	0.805556
104	2     	0.805556	0        	0.805556	0.805556
105	2     	0.805556	0        	0.805556	0.805556
106	2     	0.805556	0        	0.805556	0.805556
107	2     	0.805556	0        	0.805556	0.805556
108	2     	0.805556	0        	0.805556	0.805556
109	2     	0.805556	0        	0.805556	0.805556
110	2     	0.805556	0        	0.805556	0.805556
111	2     	0.805556	0        	0.805556	0.805556
112	2     	0.805556	0        	0.805556	0.805556
113	2     	0.805556	0        	0.805556	0.805556
114	2     	0.805556	0        	0.805556	0.805556
115	2     	0.805556	0        	0.805556	0.805556
116	2     	0.805556	0        	0.805556	0.805556
117	2     	0.805556	0        	0.805556	0.805556
118	2     	0.805556	0        	0.805556	0.805556
119	2     	0.805556	0        	0.805556	0.805556
120	2     	0.805556	0        	0.805556	0.805556
121	2     	0.819444	0.0138889	0.805556	0.833333
122	2     	0.819444	0.0138889	0.805556	0.833333
123	2     	0.833333	0        	0.833333	0.833333
124	2     	0.847222	0.0138889	0.833333	0.861111
125	2     	0.847222	0.0138889	0.833333	0.861111
126	2     	0.847222	0.0138889	0.833333	0.861111
127	2     	0.847222	0.0138889	0.833333	0.861111
128	2     	0.847222	0.0138889	0.833333	0.861111
129	2     	0.847222	0.0138889	0.833333	0.861111
130	2     	0.847222	0.0138889	0.833333	0.861111
131	2     	0.847222	0.0138889	0.833333	0.861111
132	2     	0.847222	0.0138889	0.833333	0.861111
133	2     	0.847222	0.0138889	0.833333	0.861111
134	2     	0.861111	0        	0.861111	0.861111
135	2     	0.861111	0        	0.861111	0.861111
136	2     	0.861111	0        	0.861111	0.861111
137	2     	0.875   	0.0138889	0.861111	0.888889
138	2     	0.875   	0.0138889	0.861111	0.888889
139	2     	0.875   	0.0138889	0.861111	0.888889
140	2     	0.875   	0.0138889	0.861111	0.888889
141	2     	0.875   	0.0138889	0.861111	0.888889
142	2     	0.902778	0.0138889	0.888889	0.916667
143	2     	0.902778	0.0138889	0.888889	0.916667
144	2     	0.902778	0.0138889	0.888889	0.916667
145	2     	0.902778	0.0138889	0.888889	0.916667
146	2     	0.902778	0.0138889	0.888889	0.916667
147	2     	0.902778	0.0138889	0.888889	0.916667
148	2     	0.902778	0.0138889	0.888889	0.916667
149	2     	0.902778	0.0138889	0.888889	0.916667
150	2     	0.902778	0.0138889	0.888889	0.916667
151	2     	0.902778	0.0138889	0.888889	0.916667
152	2     	0.902778	0.0138889	0.888889	0.916667
153	2     	0.902778	0.0138889	0.888889	0.916667
154	2     	0.902778	0.0138889	0.888889	0.916667
155	2     	0.902778	0.0138889	0.888889	0.916667
156	2     	0.902778	0.0138889	0.888889	0.916667
157	2     	0.902778	0.0138889	0.888889	0.916667
158	2     	0.902778	0.0138889	0.888889	0.916667
159	2     	0.902778	0.0138889	0.888889	0.916667
160	2     	0.902778	0.0138889	0.888889	0.916667
161	2     	0.902778	0.0138889	0.888889	0.916667
162	2     	0.902778	0.0138889	0.888889	0.916667
163	2     	0.902778	0.0138889	0.888889	0.916667
164	2     	0.902778	0.0138889	0.888889	0.916667
165	2     	0.902778	0.0138889	0.888889	0.916667
166	2     	0.902778	0.0138889	0.888889	0.916667
167	2     	0.902778	0.0138889	0.888889	0.916667
168	2     	0.902778	0.0138889	0.888889	0.916667
169	2     	0.902778	0.0138889	0.888889	0.916667
170	2     	0.902778	0.0138889	0.888889	0.916667
171	2     	0.902778	0.0138889	0.888889	0.916667
172	2     	0.902778	0.0138889	0.888889	0.916667
173	2     	0.902778	0.0138889	0.888889	0.916667
174	2     	0.902778	0.0138889	0.888889	0.916667
175	2     	0.902778	0.0138889	0.888889	0.916667
176	2     	0.902778	0.0138889	0.888889	0.916667
177	2     	0.902778	0.0138889	0.888889	0.916667
178	2     	0.902778	0.0138889	0.888889	0.916667
179	2     	0.902778	0.0138889	0.888889	0.916667
180	2     	0.902778	0.0138889	0.888889	0.916667
181	2     	0.902778	0.0138889	0.888889	0.916667
182	2     	0.902778	0.0138889	0.888889	0.916667
183	2     	0.902778	0.0138889	0.888889	0.916667
184	2     	0.902778	0.0138889	0.888889	0.916667
185	2     	0.902778	0.0138889	0.888889	0.916667
186	2     	0.902778	0.0138889	0.888889	0.916667
187	2     	0.902778	0.0138889	0.888889	0.916667
188	2     	0.916667	0        	0.916667	0.916667
189	2     	0.916667	0        	0.916667	0.916667
190	2     	0.916667	0        	0.916667	0.916667
191	2     	0.916667	0        	0.916667	0.916667
192	2     	0.916667	0        	0.916667	0.916667
193	2     	0.916667	0        	0.916667	0.916667
194	2     	0.916667	0        	0.916667	0.916667
195	2     	0.916667	0        	0.916667	0.916667
196	2     	0.916667	0        	0.916667	0.916667
197	2     	0.916667	0        	0.916667	0.916667
198	2     	0.916667	0        	0.916667	0.916667
199	2     	0.916667	0        	0.916667	0.916667
200	2     	0.916667	0        	0.916667	0.916667
201	2     	0.916667	0        	0.916667	0.916667
202	2     	0.916667	0        	0.916667	0.916667
203	2     	0.916667	0        	0.916667	0.916667
204	2     	0.916667	0        	0.916667	0.916667
205	2     	0.916667	0        	0.916667	0.916667
206	2     	0.916667	0        	0.916667	0.916667
207	2     	0.930556	0.0138889	0.916667	0.944444
208	2     	0.930556	0.0138889	0.916667	0.944444
209	2     	0.930556	0.0138889	0.916667	0.944444
210	2     	0.930556	0.0138889	0.916667	0.944444
211	2     	0.930556	0.0138889	0.916667	0.944444
212	2     	0.930556	0.0138889	0.916667	0.944444
213	2     	0.930556	0.0138889	0.916667	0.944444
214	2     	0.930556	0.0138889	0.916667	0.944444
215	2     	0.930556	0.0138889	0.916667	0.944444
216	2     	0.930556	0.0138889	0.916667	0.944444
217	2     	0.930556	0.0138889	0.916667	0.944444
218	2     	0.930556	0.0138889	0.916667	0.944444
219	2     	0.930556	0.0138889	0.916667	0.944444
220	2     	0.930556	0.0138889	0.916667	0.944444
221	2     	0.930556	0.0138889	0.916667	0.944444
222	2     	0.930556	0.0138889	0.916667	0.944444
223	2     	0.930556	0.0138889	0.916667	0.944444
224	2     	0.930556	0.0138889	0.916667	0.944444
225	2     	0.930556	0.0138889	0.916667	0.944444
226	2     	0.930556	0.0138889	0.916667	0.944444
227	2     	0.930556	0.0138889	0.916667	0.944444
228	2     	0.930556	0.0138889	0.916667	0.944444
229	2     	0.944444	0        	0.944444	0.944444
230	2     	0.944444	0        	0.944444	0.944444
231	2     	0.944444	0        	0.944444	0.944444
232	2     	0.944444	0        	0.944444	0.944444
233	2     	0.944444	0        	0.944444	0.944444
234	2     	0.944444	0        	0.944444	0.944444
235	2     	0.944444	0        	0.944444	0.944444
236	2     	0.944444	0        	0.944444	0.944444
237	2     	0.944444	0        	0.944444	0.944444
238	2     	0.944444	0        	0.944444	0.944444
239	2     	0.944444	0        	0.944444	0.944444
240	2     	0.944444	0        	0.944444	0.944444
241	2     	0.944444	0        	0.944444	0.944444
242	2     	0.944444	0        	0.944444	0.944444
243	2     	0.944444	0        	0.944444	0.944444
244	2     	0.944444	0        	0.944444	0.944444
245	2     	0.944444	0        	0.944444	0.944444
246	2     	0.944444	0        	0.944444	0.944444
247	2     	0.944444	0        	0.944444	0.944444
248	2     	0.944444	0        	0.944444	0.944444
249	2     	0.944444	0        	0.944444	0.944444
250	2     	0.944444	0        	0.944444	0.944444
251	2     	0.944444	0        	0.944444	0.944444
252	2     	0.944444	0        	0.944444	0.944444
253	2     	0.944444	0        	0.944444	0.944444
254	2     	0.944444	0        	0.944444	0.944444
255	2     	0.958333	0.0138889	0.944444	0.972222
256	2     	0.958333	0.0138889	0.944444	0.972222
257	2     	0.958333	0.0138889	0.944444	0.972222
258	2     	0.972222	0        	0.972222	0.972222
259	2     	0.972222	0        	0.972222	0.972222
260	2     	0.972222	0        	0.972222	0.972222
261	2     	0.972222	0        	0.972222	0.972222
262	2     	0.972222	0        	0.972222	0.972222
263	2     	0.972222	0        	0.972222	0.972222
264	2     	0.972222	0        	0.972222	0.972222
265	2     	0.972222	0        	0.972222	0.972222
266	2     	0.972222	0        	0.972222	0.972222
267	2     	0.972222	0        	0.972222	0.972222
268	2     	0.972222	0        	0.972222	0.972222
269	2     	0.972222	0        	0.972222	0.972222
270	2     	0.972222	0        	0.972222	0.972222
271	2     	0.972222	0        	0.972222	0.972222
272	2     	0.972222	0        	0.972222	0.972222
273	2     	0.972222	0        	0.972222	0.972222
274	2     	0.972222	0        	0.972222	0.972222
275	2     	0.972222	0        	0.972222	0.972222
276	2     	0.972222	0        	0.972222	0.972222
277	2     	0.972222	0        	0.972222	0.972222
278	2     	0.972222	0        	0.972222	0.972222
279	2     	0.972222	0        	0.972222	0.972222
280	2     	0.972222	0        	0.972222	0.972222
281	2     	0.972222	0        	0.972222	0.972222
282	2     	0.972222	0        	0.972222	0.972222
283	2     	0.972222	0        	0.972222	0.972222
284	2     	0.972222	0        	0.972222	0.972222
285	2     	0.972222	0        	0.972222	0.972222
286	2     	0.972222	0        	0.972222	0.972222
287	2     	0.972222	0        	0.972222	0.972222
288	2     	0.972222	0        	0.972222	0.972222
289	2     	0.972222	0        	0.972222	0.972222
290	2     	0.972222	0        	0.972222	0.972222
291	2     	0.972222	0        	0.972222	0.972222
292	2     	0.972222	0        	0.972222	0.972222
293	2     	0.972222	0        	0.972222	0.972222
294	2     	0.972222	0        	0.972222	0.972222
295	2     	0.972222	0        	0.972222	0.972222
296	2     	0.972222	0        	0.972222	0.972222
297	2     	0.972222	0        	0.972222	0.972222
298	2     	0.972222	0        	0.972222	0.972222
299	2     	0.972222	0        	0.972222	0.972222
300	2     	0.972222	0        	0.972222	0.972222
301	2     	0.972222	0        	0.972222	0.972222
302	2     	0.972222	0        	0.972222	0.972222
303	2     	0.972222	0        	0.972222	0.972222
304	2     	0.972222	0        	0.972222	0.972222
305	2     	0.972222	0        	0.972222	0.972222
306	2     	0.972222	0        	0.972222	0.972222
307	2     	0.972222	0        	0.972222	0.972222
308	2     	0.972222	0        	0.972222	0.972222
309	2     	0.972222	0        	0.972222	0.972222
310	2     	0.972222	0        	0.972222	0.972222
311	2     	0.972222	0        	0.972222	0.972222
312	2     	0.972222	0        	0.972222	0.972222
313	2     	0.972222	0        	0.972222	0.972222
314	2     	0.972222	0        	0.972222	0.972222
315	2     	0.972222	0        	0.972222	0.972222
316	2     	0.972222	0        	0.972222	0.972222
317	2     	0.972222	0        	0.972222	0.972222
318	2     	0.972222	0        	0.972222	0.972222
319	2     	0.972222	0        	0.972222	0.972222
320	2     	0.972222	0        	0.972222	0.972222
321	2     	0.972222	0        	0.972222	0.972222
322	2     	0.972222	0        	0.972222	0.972222
323	2     	0.972222	0        	0.972222	0.972222
324	2     	0.972222	0        	0.972222	0.972222
325	2     	0.972222	0        	0.972222	0.972222
326	2     	0.972222	0        	0.972222	0.972222
327	2     	0.972222	0        	0.972222	0.972222
328	2     	0.972222	0        	0.972222	0.972222
329	2     	0.986111	0.0138889	0.972222	1       