gen	nevals	avg 	std 	min 	max 
0  	2     	0.4 	0.04	0.36	0.44
1  	2     	0.44	0   	0.44	0.44
2  	2     	0.44	0   	0.44	0.44
3  	2     	0.44	0   	0.44	0.44
4  	2     	0.48	0.04	0.44	0.52
5  	2     	0.48	0.04	0.44	0.52
6  	2     	0.48	0.04	0.44	0.52
7  	2     	0.54	0.02	0.52	0.56
8  	2     	0.56	0   	0.56	0.56
9  	2     	0.56	0   	0.56	0.56
10 	2     	0.58	0.02	0.56	0.6 
11 	2     	0.6 	0   	0.6 	0.6 
12 	2     	0.6 	0   	0.6 	0.6 
13 	2     	0.6 	0   	0.6 	0.6 
14 	2     	0.6 	0   	0.6 	0.6 
15 	2     	0.6 	0   	0.6 	0.6 
16 	2     	0.62	0.02	0.6 	0.64
17 	2     	0.62	0.02	0.6 	0.64
18 	2     	0.66	0.02	0.64	0.68
19 	2     	0.66	0.02	0.64	0.68
20 	2     	0.66	0.02	0.64	0.68
21 	2     	0.66	0.02	0.64	0.68
22 	2     	0.66	0.02	0.64	0.68
23 	2     	0.66	0.02	0.64	0.68
24 	2     	0.7 	0.02	0.68	0.72
25 	2     	0.7 	0.02	0.68	0.72
26 	2     	0.7 	0.02	0.68	0.72
27 	2     	0.7 	0.02	0.68	0.72
28 	2     	0.72	0   	0.72	0.72
29 	2     	0.72	0   	0.72	0.72
30 	2     	0.72	0   	0.72	0.72
31 	2     	0.72	0   	0.72	0.72
32 	2     	0.72	0   	0.72	0.72
33 	2     	0.72	0   	0.72	0.72
34 	2     	0.72	0   	0.72	0.72
35 	2     	0.74	0.02	0.72	0.76
36 	2     	0.76	0   	0.76	0.76
37 	2     	0.76	0   	0.76	0.76
38 	2     	0.76	0   	0.76	0.76
39 	2     	0.76	0   	0.76	0.76
40 	2     	0.76	0   	0.76	0.76
41 	2     	0.76	0   	0.76	0.76
42 	2     	0.76	0   	0.76	0.76
43 	2     	0.76	0   	0.76	0.76
44 	2     	0.76	0   	0.76	0.76
45 	2     	0.76	0   	0.76	0.76
46 	2     	0.76	0   	0.76	0.76
47 	2     	0.8 	0.04	0.76	0.84
48 	2     	0.8 	0.04	0.76	0.84
49 	2     	0.86	0.02	0.84	0.88
50 	2     	0.86	0.02	0.84	0.88
51 	2     	0.86	0.02	0.84	0.88
52 	2     	0.86	0.02	0.84	0.88
53 	2     	0.88	0   	0.88	0.88
54 	2     	0.88	0   	0.88	0.88
55 	2     	0.9 	0.02	0.88	0.92
56 	2     	0.9 	0.02	0.88	0.92
57 	2     	0.9 	0.02	0.88	0.92
58 	2     	0.9 	0.02	0.88	0.92
59 	2     	0.9 	0.02	0.88	0.92
60 	2     	0.9 	0.02	0.88	0.92
61 	2     	0.9 	0.02	0.88	0.92
62 	2     	0.9 	0.02	0.88	0.92
63 	2     	0.9 	0.02	0.88	0.92
64 	2     	0.94	0.02	0.92	0.96
65 	2     	0.94	0.02	0.92	0.96
66 	2     	0.94	0.02	0.92	0.96
67 	2     	0.94	0.02	0.92	0.96
68 	2     	0.94	0.02	0.92	0.96
69 	2     	0.94	0.02	0.92	0.96
70 	2     	0.94	0.02	0.92	0.96
71 	2     	0.94	0.02	0.92	0.96
72 	2     	0.94	0.02	0.92	0.96
73 	2     	0.94	0.02	0.92	0.96
74 	2     	0.94	0.02	0.92	0.96
75 	2     	0.94	0.02	0.92	0.96
76 	2     	0.94	0.02	0.92	0.96
77 	2     	0.94	0.02	0.92	0.96
78 	2     	0.94	0.02	0.92	0.96
79 	2     	0.94	0.02	0.92	0.96
80 	2     	0.94	0.02	0.92	0.96
81 	2     	0.96	0   	0.96	0.96
82 	2     	0.96	0   	0.96	0.96
83 	2     	0.96	0   	0.96	0.96
84 	2     	0.96	0   	0.96	0.96