gen	nevals	avg    	std    	min   	max   
0  	2     	0.625  	0.125  	0.5   	0.75  
1  	2     	0.6875 	0.0625 	0.625 	0.75  
2  	2     	0.6875 	0.0625 	0.625 	0.75  
3  	2     	0.75   	0      	0.75  	0.75  
4  	2     	0.75   	0      	0.75  	0.75  
5  	2     	0.75   	0      	0.75  	0.75  
6  	2     	0.75   	0      	0.75  	0.75  
7  	2     	0.75   	0      	0.75  	0.75  
8  	2     	0.78125	0.03125	0.75  	0.8125
9  	2     	0.8125 	0      	0.8125	0.8125
10 	2     	0.8125 	0      	0.8125	0.8125
11 	2     	0.8125 	0      	0.8125	0.8125
12 	2     	0.8125 	0      	0.8125	0.8125
13 	2     	0.8125 	0      	0.8125	0.8125
14 	2     	0.8125 	0      	0.8125	0.8125
15 	2     	0.8125 	0      	0.8125	0.8125
16 	2     	0.8125 	0      	0.8125	0.8125
17 	2     	0.8125 	0      	0.8125	0.8125
18 	2     	0.8125 	0      	0.8125	0.8125
19 	2     	0.8125 	0      	0.8125	0.8125
20 	2     	0.8125 	0      	0.8125	0.8125
21 	2     	0.84375	0.03125	0.8125	0.875 
22 	2     	0.84375	0.03125	0.8125	0.875 
23 	2     	0.84375	0.03125	0.8125	0.875 
24 	2     	0.84375	0.03125	0.8125	0.875 
25 	2     	0.84375	0.03125	0.8125	0.875 
26 	2     	0.84375	0.03125	0.8125	0.875 
27 	2     	0.84375	0.03125	0.8125	0.875 
28 	2     	0.90625	0.03125	0.875 	0.9375
29 	2     	0.90625	0.03125	0.875 	0.9375
30 	2     	0.9375 	0      	0.9375	0.9375
31 	2     	0.9375 	0      	0.9375	0.9375
32 	2     	0.9375 	0      	0.9375	0.9375
33 	2     	0.9375 	0      	0.9375	0.9375
34 	2     	0.9375 	0      	0.9375	0.9375
35 	2     	0.9375 	0      	0.9375	0.9375
36 	2     	0.9375 	0      	0.9375	0.9375
37 	2     	0.9375 	0      	0.9375	0.9375
38 	2     	0.9375 	0      	0.9375	0.9375
39 	2     	0.9375 	0      	0.9375	0.9375
40 	2     	0.9375 	0      	0.9375	0.9375
41 	2     	0.9375 	0      	0.9375	0.9375
42 	2     	0.9375 	0      	0.9375	0.9375
43 	2     	0.96875	0.03125	0.9375	1     