gen 	nevals	avg     	std      	min     	max     
0   	2     	0.428571	0.0408163	0.387755	0.469388
1   	2     	0.44898 	0.0204082	0.428571	0.469388
2   	2     	0.510204	0.0408163	0.469388	0.55102 
3   	2     	0.540816	0.0102041	0.530612	0.55102 
4   	2     	0.540816	0.0102041	0.530612	0.55102 
5   	2     	0.55102 	0        	0.55102 	0.55102 
6   	2     	0.55102 	0        	0.55102 	0.55102 
7   	2     	0.55102 	0        	0.55102 	0.55102 
8   	2     	0.561224	0.0102041	0.55102 	0.571429
9   	2     	0.561224	0.0102041	0.55102 	0.571429
10  	2     	0.581633	0.0102041	0.571429	0.591837
11  	2     	0.612245	0.0204082	0.591837	0.632653
12  	2     	0.622449	0.0102041	0.612245	0.632653
13  	2     	0.622449	0.0102041	0.612245	0.632653
14  	2     	0.632653	0        	0.632653	0.632653
15  	2     	0.642857	0.0102041	0.632653	0.653061
16  	2     	0.642857	0.0102041	0.632653	0.653061
17  	2     	0.642857	0.0102041	0.632653	0.653061
18  	2     	0.653061	0        	0.653061	0.653061
19  	2     	0.653061	0        	0.653061	0.653061
20  	2     	0.653061	0        	0.653061	0.653061
21  	2     	0.653061	0        	0.653061	0.653061
22  	2     	0.653061	0        	0.653061	0.653061
23  	2     	0.653061	0        	0.653061	0.653061
24  	2     	0.653061	0        	0.653061	0.653061
25  	2     	0.653061	0        	0.653061	0.653061
26  	2     	0.653061	0        	0.653061	0.653061
27  	2     	0.663265	0.0102041	0.653061	0.673469
28  	2     	0.663265	0.0102041	0.653061	0.673469
29  	2     	0.663265	0.0102041	0.653061	0.673469
30  	2     	0.663265	0.0102041	0.653061	0.673469
31  	2     	0.663265	0.0102041	0.653061	0.673469
32  	2     	0.663265	0.0102041	0.653061	0.673469
33  	2     	0.663265	0.0102041	0.653061	0.673469
34  	2     	0.693878	0.0204082	0.673469	0.714286
35  	2     	0.693878	0.0204082	0.673469	0.714286
36  	2     	0.693878	0.0204082	0.673469	0.714286
37  	2     	0.72449 	0.0102041	0.714286	0.734694
38  	2     	0.72449 	0.0102041	0.714286	0.734694
39  	2     	0.72449 	0.0102041	0.714286	0.734694
40  	2     	0.72449 	0.0102041	0.714286	0.734694
41  	2     	0.72449 	0.0102041	0.714286	0.734694
42  	2     	0.72449 	0.0102041	0.714286	0.734694
43  	2     	0.72449 	0.0102041	0.714286	0.734694
44  	2     	0.77551 	0.0408163	0.734694	0.816327
45  	2     	0.77551 	0.0408163	0.734694	0.816327
46  	2     	0.816327	0        	0.816327	0.816327
47  	2     	0.816327	0        	0.816327	0.816327
48  	2     	0.816327	0        	0.816327	0.816327
49  	2     	0.816327	0        	0.816327	0.816327
50  	2     	0.816327	0        	0.816327	0.816327
51  	2     	0.816327	0        	0.816327	0.816327
52  	2     	0.816327	0        	0.816327	0.816327
53  	2     	0.816327	0        	0.816327	0.816327
54  	2     	0.816327	0        	0.816327	0.816327
55  	2     	0.816327	0        	0.816327	0.816327
56  	2     	0.826531	0.0102041	0.816327	0.836735
57  	2     	0.826531	0.0102041	0.816327	0.836735
58  	2     	0.826531	0.0102041	0.816327	0.836735
59  	2     	0.826531	0.0102041	0.816327	0.836735
60  	2     	0.826531	0.0102041	0.816327	0.836735
61  	2     	0.826531	0.0102041	0.816327	0.836735
62  	2     	0.836735	0        	0.836735	0.836735
63  	2     	0.836735	0        	0.836735	0.836735
64  	2     	0.836735	0        	0.836735	0.836735
65  	2     	0.836735	0        	0.836735	0.836735
66  	2     	0.836735	0        	0.836735	0.836735
67  	2     	0.836735	0        	0.836735	0.836735
68  	2     	0.836735	0        	0.836735	0.836735
69  	2     	0.836735	0        	0.836735	0.836735
70  	2     	0.836735	0        	0.836735	0.836735
71  	2     	0.836735	0        	0.836735	0.836735
72  	2     	0.836735	0        	0.836735	0.836735
73  	2     	0.836735	0        	0.836735	0.836735
74  	2     	0.836735	0        	0.836735	0.836735
75  	2     	0.836735	0        	0.836735	0.836735
76  	2     	0.836735	0        	0.836735	0.836735
77  	2     	0.836735	0        	0.836735	0.836735
78  	2     	0.836735	0        	0.836735	0.836735
79  	2     	0.836735	0        	0.836735	0.836735
80  	2     	0.836735	0        	0.836735	0.836735
81  	2     	0.836735	0        	0.836735	0.836735
82  	2     	0.836735	0        	0.836735	0.836735
83  	2     	0.836735	0        	0.836735	0.836735
84  	2     	0.836735	0        	0.836735	0.836735
85  	2     	0.836735	0        	0.836735	0.836735
86  	2     	0.836735	0        	0.836735	0.836735
87  	2     	0.836735	0        	0.836735	0.836735
88  	2     	0.836735	0        	0.836735	0.836735
89  	2     	0.836735	0        	0.836735	0.836735
90  	2     	0.836735	0        	0.836735	0.836735
91  	2     	0.836735	0        	0.836735	0.836735
92  	2     	0.836735	0        	0.836735	0.836735
93  	2     	0.836735	0        	0.836735	0.836735
94  	2     	0.836735	0        	0.836735	0.836735
95  	2     	0.836735	0        	0.836735	0.836735
96  	2     	0.836735	0        	0.836735	0.836735
97  	2     	0.846939	0.0102041	0.836735	0.857143
98  	2     	0.846939	0.0102041	0.836735	0.857143
99  	2     	0.846939	0.0102041	0.836735	0.857143
100 	2     	0.846939	0.0102041	0.836735	0.857143
101 	2     	0.846939	0.0102041	0.836735	0.857143
102 	2     	0.857143	0        	0.857143	0.857143
103 	2     	0.857143	0        	0.857143	0.857143
104 	2     	0.857143	0        	0.857143	0.857143
105 	2     	0.857143	0        	0.857143	0.857143
106 	2     	0.857143	0        	0.857143	0.857143
107 	2     	0.857143	0        	0.857143	0.857143
108 	2     	0.857143	0        	0.857143	0.857143
109 	2     	0.857143	0        	0.857143	0.857143
110 	2     	0.857143	0        	0.857143	0.857143
111 	2     	0.857143	0        	0.857143	0.857143
112 	2     	0.857143	0        	0.857143	0.857143
113 	2     	0.857143	0        	0.857143	0.857143
114 	2     	0.857143	0        	0.857143	0.857143
115 	2     	0.857143	0        	0.857143	0.857143
116 	2     	0.857143	0        	0.857143	0.857143
117 	2     	0.857143	0        	0.857143	0.857143
118 	2     	0.857143	0        	0.857143	0.857143
119 	2     	0.857143	0        	0.857143	0.857143
120 	2     	0.857143	0        	0.857143	0.857143
121 	2     	0.857143	0        	0.857143	0.857143
122 	2     	0.857143	0        	0.857143	0.857143
123 	2     	0.857143	0        	0.857143	0.857143
124 	2     	0.857143	0        	0.857143	0.857143
125 	2     	0.857143	0        	0.857143	0.857143
126 	2     	0.857143	0        	0.857143	0.857143
127 	2     	0.857143	0        	0.857143	0.857143
128 	2     	0.857143	0        	0.857143	0.857143
129 	2     	0.857143	0        	0.857143	0.857143
130 	2     	0.857143	0        	0.857143	0.857143
131 	2     	0.857143	0        	0.857143	0.857143
132 	2     	0.857143	0        	0.857143	0.857143
133 	2     	0.857143	0        	0.857143	0.857143
134 	2     	0.857143	0        	0.857143	0.857143
135 	2     	0.857143	0        	0.857143	0.857143
136 	2     	0.857143	0        	0.857143	0.857143
137 	2     	0.857143	0        	0.857143	0.857143
138 	2     	0.857143	0        	0.857143	0.857143
139 	2     	0.857143	0        	0.857143	0.857143
140 	2     	0.857143	0        	0.857143	0.857143
141 	2     	0.857143	0        	0.857143	0.857143
142 	2     	0.857143	0        	0.857143	0.857143
143 	2     	0.857143	0        	0.857143	0.857143
144 	2     	0.857143	0        	0.857143	0.857143
145 	2     	0.857143	0        	0.857143	0.857143
146 	2     	0.857143	0        	0.857143	0.857143
147 	2     	0.857143	0        	0.857143	0.857143
148 	2     	0.857143	0        	0.857143	0.857143
149 	2     	0.857143	0        	0.857143	0.857143
150 	2     	0.857143	0        	0.857143	0.857143
151 	2     	0.857143	0        	0.857143	0.857143
152 	2     	0.857143	0        	0.857143	0.857143
153 	2     	0.857143	0        	0.857143	0.857143
154 	2     	0.857143	0        	0.857143	0.857143
155 	2     	0.857143	0        	0.857143	0.857143
156 	2     	0.857143	0        	0.857143	0.857143
157 	2     	0.857143	0        	0.857143	0.857143
158 	2     	0.857143	0        	0.857143	0.857143
159 	2     	0.857143	0        	0.857143	0.857143
160 	2     	0.857143	0        	0.857143	0.857143
161 	2     	0.857143	0        	0.857143	0.857143
162 	2     	0.857143	0        	0.857143	0.857143
163 	2     	0.857143	0        	0.857143	0.857143
164 	2     	0.857143	0        	0.857143	0.857143
165 	2     	0.857143	0        	0.857143	0.857143
166 	2     	0.857143	0        	0.857143	0.857143
167 	2     	0.857143	0        	0.857143	0.857143
168 	2     	0.857143	0        	0.857143	0.857143
169 	2     	0.857143	0        	0.857143	0.857143
170 	2     	0.857143	0        	0.857143	0.857143
171 	2     	0.857143	0        	0.857143	0.857143
172 	2     	0.857143	0        	0.857143	0.857143
173 	2     	0.857143	0        	0.857143	0.857143
174 	2     	0.857143	0        	0.857143	0.857143
175 	2     	0.857143	0        	0.857143	0.857143
176 	2     	0.857143	0        	0.857143	0.857143
177 	2     	0.857143	0        	0.857143	0.857143
178 	2     	0.857143	0        	0.857143	0.857143
179 	2     	0.857143	0        	0.857143	0.857143
180 	2     	0.857143	0        	0.857143	0.857143
181 	2     	0.857143	0        	0.857143	0.857143
182 	2     	0.857143	0        	0.857143	0.857143
183 	2     	0.857143	0        	0.857143	0.857143
184 	2     	0.857143	0        	0.857143	0.857143
185 	2     	0.857143	0        	0.857143	0.857143
186 	2     	0.857143	0        	0.857143	0.857143
187 	2     	0.857143	0        	0.857143	0.857143
188 	2     	0.857143	0        	0.857143	0.857143
189 	2     	0.857143	0        	0.857143	0.857143
190 	2     	0.857143	0        	0.857143	0.857143
191 	2     	0.857143	0        	0.857143	0.857143
192 	2     	0.857143	0        	0.857143	0.857143
193 	2     	0.857143	0        	0.857143	0.857143
194 	2     	0.857143	0        	0.857143	0.857143
195 	2     	0.857143	0        	0.857143	0.857143
196 	2     	0.857143	0        	0.857143	0.857143
197 	2     	0.857143	0        	0.857143	0.857143
198 	2     	0.857143	0        	0.857143	0.857143
199 	2     	0.857143	0        	0.857143	0.857143
200 	2     	0.857143	0        	0.857143	0.857143
201 	2     	0.857143	0        	0.857143	0.857143
202 	2     	0.857143	0        	0.857143	0.857143
203 	2     	0.857143	0        	0.857143	0.857143
204 	2     	0.857143	0        	0.857143	0.857143
205 	2     	0.857143	0        	0.857143	0.857143
206 	2     	0.857143	0        	0.857143	0.857143
207 	2     	0.857143	0        	0.857143	0.857143
208 	2     	0.857143	0        	0.857143	0.857143
209 	2     	0.857143	0        	0.857143	0.857143
210 	2     	0.857143	0        	0.857143	0.857143
211 	2     	0.857143	0        	0.857143	0.857143
212 	2     	0.857143	0        	0.857143	0.857143
213 	2     	0.857143	0        	0.857143	0.857143
214 	2     	0.857143	0        	0.857143	0.857143
215 	2     	0.857143	0        	0.857143	0.857143
216 	2     	0.857143	0        	0.857143	0.857143
217 	2     	0.857143	0        	0.857143	0.857143
218 	2     	0.857143	0        	0.857143	0.857143
219 	2     	0.857143	0        	0.857143	0.857143
220 	2     	0.857143	0        	0.857143	0.857143
221 	2     	0.857143	0        	0.857143	0.857143
222 	2     	0.857143	0        	0.857143	0.857143
223 	2     	0.857143	0        	0.857143	0.857143
224 	2     	0.857143	0        	0.857143	0.857143
225 	2     	0.857143	0        	0.857143	0.857143
226 	2     	0.857143	0        	0.857143	0.857143
227 	2     	0.857143	0        	0.857143	0.857143
228 	2     	0.857143	0        	0.857143	0.857143
229 	2     	0.857143	0        	0.857143	0.857143
230 	2     	0.857143	0        	0.857143	0.857143
231 	2     	0.867347	0.0102041	0.857143	0.877551
232 	2     	0.867347	0.0102041	0.857143	0.877551
233 	2     	0.867347	0.0102041	0.857143	0.877551
234 	2     	0.867347	0.0102041	0.857143	0.877551
235 	2     	0.867347	0.0102041	0.857143	0.877551
236 	2     	0.867347	0.0102041	0.857143	0.877551
237 	2     	0.867347	0.0102041	0.857143	0.877551
238 	2     	0.877551	0        	0.877551	0.877551
239 	2     	0.877551	0        	0.877551	0.877551
240 	2     	0.877551	0        	0.877551	0.877551
241 	2     	0.877551	0        	0.877551	0.877551
242 	2     	0.877551	0        	0.877551	0.877551
243 	2     	0.877551	0        	0.877551	0.877551
244 	2     	0.877551	0        	0.877551	0.877551
245 	2     	0.877551	0        	0.877551	0.877551
246 	2     	0.877551	0        	0.877551	0.877551
247 	2     	0.877551	0        	0.877551	0.877551
248 	2     	0.877551	0        	0.877551	0.877551
249 	2     	0.877551	0        	0.877551	0.877551
250 	2     	0.877551	0        	0.877551	0.877551
251 	2     	0.877551	0        	0.877551	0.877551
252 	2     	0.877551	0        	0.877551	0.877551
253 	2     	0.877551	0        	0.877551	0.877551
254 	2     	0.877551	0        	0.877551	0.877551
255 	2     	0.877551	0        	0.877551	0.877551
256 	2     	0.877551	0        	0.877551	0.877551
257 	2     	0.877551	0        	0.877551	0.877551
258 	2     	0.877551	0        	0.877551	0.877551
259 	2     	0.877551	0        	0.877551	0.877551
260 	2     	0.877551	0        	0.877551	0.877551
261 	2     	0.877551	0        	0.877551	0.877551
262 	2     	0.877551	0        	0.877551	0.877551
263 	2     	0.877551	0        	0.877551	0.877551
264 	2     	0.877551	0        	0.877551	0.877551
265 	2     	0.877551	0        	0.877551	0.877551
266 	2     	0.877551	0        	0.877551	0.877551
267 	2     	0.877551	0        	0.877551	0.877551
268 	2     	0.877551	0        	0.877551	0.877551
269 	2     	0.877551	0        	0.877551	0.877551
270 	2     	0.877551	0        	0.877551	0.877551
271 	2     	0.877551	0        	0.877551	0.877551
272 	2     	0.877551	0        	0.877551	0.877551
273 	2     	0.877551	0        	0.877551	0.877551
274 	2     	0.877551	0        	0.877551	0.877551
275 	2     	0.877551	0        	0.877551	0.877551
276 	2     	0.877551	0        	0.877551	0.877551
277 	2     	0.877551	0        	0.877551	0.877551
278 	2     	0.877551	0        	0.877551	0.877551
279 	2     	0.877551	0        	0.877551	0.877551
280 	2     	0.877551	0        	0.877551	0.877551
281 	2     	0.877551	0        	0.877551	0.877551
282 	2     	0.877551	0        	0.877551	0.877551
283 	2     	0.877551	0        	0.877551	0.877551
284 	2     	0.877551	0        	0.877551	0.877551
285 	2     	0.877551	0        	0.877551	0.877551
286 	2     	0.877551	0        	0.877551	0.877551
287 	2     	0.877551	0        	0.877551	0.877551
288 	2     	0.887755	0.0102041	0.877551	0.897959
289 	2     	0.887755	0.0102041	0.877551	0.897959
290 	2     	0.887755	0.0102041	0.877551	0.897959
291 	2     	0.887755	0.0102041	0.877551	0.897959
292 	2     	0.887755	0.0102041	0.877551	0.897959
293 	2     	0.887755	0.0102041	0.877551	0.897959
294 	2     	0.887755	0.0102041	0.877551	0.897959
295 	2     	0.887755	0.0102041	0.877551	0.897959
296 	2     	0.887755	0.0102041	0.877551	0.897959
297 	2     	0.887755	0.0102041	0.877551	0.897959
298 	2     	0.887755	0.0102041	0.877551	0.897959
299 	2     	0.887755	0.0102041	0.877551	0.897959
300 	2     	0.887755	0.0102041	0.877551	0.897959
301 	2     	0.887755	0.0102041	0.877551	0.897959
302 	2     	0.897959	0        	0.897959	0.897959
303 	2     	0.897959	0        	0.897959	0.897959
304 	2     	0.897959	0        	0.897959	0.897959
305 	2     	0.897959	0        	0.897959	0.897959
306 	2     	0.897959	0        	0.897959	0.897959
307 	2     	0.897959	0        	0.897959	0.897959
308 	2     	0.897959	0        	0.897959	0.897959
309 	2     	0.897959	0        	0.897959	0.897959
310 	2     	0.897959	0        	0.897959	0.897959
311 	2     	0.897959	0        	0.897959	0.897959
312 	2     	0.897959	0        	0.897959	0.897959
313 	2     	0.897959	0        	0.897959	0.897959
314 	2     	0.897959	0        	0.897959	0.897959
315 	2     	0.897959	0        	0.897959	0.897959
316 	2     	0.897959	0        	0.897959	0.897959
317 	2     	0.897959	0        	0.897959	0.897959
318 	2     	0.897959	0        	0.897959	0.897959
319 	2     	0.897959	0        	0.897959	0.897959
320 	2     	0.897959	0        	0.897959	0.897959
321 	2     	0.897959	0        	0.897959	0.897959
322 	2     	0.897959	0        	0.897959	0.897959
323 	2     	0.897959	0        	0.897959	0.897959
324 	2     	0.897959	0        	0.897959	0.897959
325 	2     	0.897959	0        	0.897959	0.897959
326 	2     	0.897959	0        	0.897959	0.897959
327 	2     	0.897959	0        	0.897959	0.897959
328 	2     	0.908163	0.0102041	0.897959	0.918367
329 	2     	0.908163	0.0102041	0.897959	0.918367
330 	2     	0.908163	0.0102041	0.897959	0.918367
331 	2     	0.908163	0.0102041	0.897959	0.918367
332 	2     	0.908163	0.0102041	0.897959	0.918367
333 	2     	0.908163	0.0102041	0.897959	0.918367
334 	2     	0.908163	0.0102041	0.897959	0.918367
335 	2     	0.908163	0.0102041	0.897959	0.918367
336 	2     	0.908163	0.0102041	0.897959	0.918367
337 	2     	0.908163	0.0102041	0.897959	0.918367
338 	2     	0.908163	0.0102041	0.897959	0.918367
339 	2     	0.908163	0.0102041	0.897959	0.918367
340 	2     	0.908163	0.0102041	0.897959	0.918367
341 	2     	0.908163	0.0102041	0.897959	0.918367
342 	2     	0.908163	0.0102041	0.897959	0.918367
343 	2     	0.908163	0.0102041	0.897959	0.918367
344 	2     	0.908163	0.0102041	0.897959	0.918367
345 	2     	0.908163	0.0102041	0.897959	0.918367
346 	2     	0.908163	0.0102041	0.897959	0.918367
347 	2     	0.908163	0.0102041	0.897959	0.918367
348 	2     	0.908163	0.0102041	0.897959	0.918367
349 	2     	0.908163	0.0102041	0.897959	0.918367
350 	2     	0.908163	0.0102041	0.897959	0.918367
351 	2     	0.908163	0.0102041	0.897959	0.918367
352 	2     	0.908163	0.0102041	0.897959	0.918367
353 	2     	0.908163	0.0102041	0.897959	0.918367
354 	2     	0.908163	0.0102041	0.897959	0.918367
355 	2     	0.908163	0.0102041	0.897959	0.918367
356 	2     	0.908163	0.0102041	0.897959	0.918367
357 	2     	0.908163	0.0102041	0.897959	0.918367
358 	2     	0.908163	0.0102041	0.897959	0.918367
359 	2     	0.908163	0.0102041	0.897959	0.918367
360 	2     	0.908163	0.0102041	0.897959	0.918367
361 	2     	0.908163	0.0102041	0.897959	0.918367
362 	2     	0.908163	0.0102041	0.897959	0.918367
363 	2     	0.908163	0.0102041	0.897959	0.918367
364 	2     	0.908163	0.0102041	0.897959	0.918367
365 	2     	0.908163	0.0102041	0.897959	0.918367
366 	2     	0.908163	0.0102041	0.897959	0.918367
367 	2     	0.908163	0.0102041	0.897959	0.918367
368 	2     	0.908163	0.0102041	0.897959	0.918367
369 	2     	0.908163	0.0102041	0.897959	0.918367
370 	2     	0.908163	0.0102041	0.897959	0.918367
371 	2     	0.908163	0.0102041	0.897959	0.918367
372 	2     	0.908163	0.0102041	0.897959	0.918367
373 	2     	0.908163	0.0102041	0.897959	0.918367
374 	2     	0.908163	0.0102041	0.897959	0.918367
375 	2     	0.908163	0.0102041	0.897959	0.918367
376 	2     	0.908163	0.0102041	0.897959	0.918367
377 	2     	0.908163	0.0102041	0.897959	0.918367
378 	2     	0.908163	0.0102041	0.897959	0.918367
379 	2     	0.908163	0.0102041	0.897959	0.918367
380 	2     	0.908163	0.0102041	0.897959	0.918367
381 	2     	0.908163	0.0102041	0.897959	0.918367
382 	2     	0.908163	0.0102041	0.897959	0.918367
383 	2     	0.908163	0.0102041	0.897959	0.918367
384 	2     	0.908163	0.0102041	0.897959	0.918367
385 	2     	0.908163	0.0102041	0.897959	0.918367
386 	2     	0.908163	0.0102041	0.897959	0.918367
387 	2     	0.908163	0.0102041	0.897959	0.918367
388 	2     	0.908163	0.0102041	0.897959	0.918367
389 	2     	0.908163	0.0102041	0.897959	0.918367
390 	2     	0.908163	0.0102041	0.897959	0.918367
391 	2     	0.908163	0.0102041	0.897959	0.918367
392 	2     	0.908163	0.0102041	0.897959	0.918367
393 	2     	0.908163	0.0102041	0.897959	0.918367
394 	2     	0.908163	0.0102041	0.897959	0.918367
395 	2     	0.908163	0.0102041	0.897959	0.918367
396 	2     	0.908163	0.0102041	0.897959	0.918367
397 	2     	0.908163	0.0102041	0.897959	0.918367
398 	2     	0.908163	0.0102041	0.897959	0.918367
399 	2     	0.908163	0.0102041	0.897959	0.918367
400 	2     	0.908163	0.0102041	0.897959	0.918367
401 	2     	0.908163	0.0102041	0.897959	0.918367
402 	2     	0.908163	0.0102041	0.897959	0.918367
403 	2     	0.908163	0.0102041	0.897959	0.918367
404 	2     	0.908163	0.0102041	0.897959	0.918367
405 	2     	0.908163	0.0102041	0.897959	0.918367
406 	2     	0.908163	0.0102041	0.897959	0.918367
407 	2     	0.908163	0.0102041	0.897959	0.918367
408 	2     	0.908163	0.0102041	0.897959	0.918367
409 	2     	0.908163	0.0102041	0.897959	0.918367
410 	2     	0.908163	0.0102041	0.897959	0.918367
411 	2     	0.908163	0.0102041	0.897959	0.918367
412 	2     	0.908163	0.0102041	0.897959	0.918367
413 	2     	0.908163	0.0102041	0.897959	0.918367
414 	2     	0.908163	0.0102041	0.897959	0.918367
415 	2     	0.908163	0.0102041	0.897959	0.918367
416 	2     	0.908163	0.0102041	0.897959	0.918367
417 	2     	0.908163	0.0102041	0.897959	0.918367
418 	2     	0.908163	0.0102041	0.897959	0.918367
419 	2     	0.908163	0.0102041	0.897959	0.918367
420 	2     	0.908163	0.0102041	0.897959	0.918367
421 	2     	0.908163	0.0102041	0.897959	0.918367
422 	2     	0.908163	0.0102041	0.897959	0.918367
423 	2     	0.908163	0.0102041	0.897959	0.918367
424 	2     	0.908163	0.0102041	0.897959	0.918367
425 	2     	0.908163	0.0102041	0.897959	0.918367
426 	2     	0.908163	0.0102041	0.897959	0.918367
427 	2     	0.908163	0.0102041	0.897959	0.918367
428 	2     	0.908163	0.0102041	0.897959	0.918367
429 	2     	0.908163	0.0102041	0.897959	0.918367
430 	2     	0.908163	0.0102041	0.897959	0.918367
431 	2     	0.908163	0.0102041	0.897959	0.918367
432 	2     	0.908163	0.0102041	0.897959	0.918367
433 	2     	0.908163	0.0102041	0.897959	0.918367
434 	2     	0.908163	0.0102041	0.897959	0.918367
435 	2     	0.908163	0.0102041	0.897959	0.918367
436 	2     	0.908163	0.0102041	0.897959	0.918367
437 	2     	0.908163	0.0102041	0.897959	0.918367
438 	2     	0.908163	0.0102041	0.897959	0.918367
439 	2     	0.908163	0.0102041	0.897959	0.918367
440 	2     	0.908163	0.0102041	0.897959	0.918367
441 	2     	0.908163	0.0102041	0.897959	0.918367
442 	2     	0.908163	0.0102041	0.897959	0.918367
443 	2     	0.908163	0.0102041	0.897959	0.918367
444 	2     	0.908163	0.0102041	0.897959	0.918367
445 	2     	0.908163	0.0102041	0.897959	0.918367
446 	2     	0.908163	0.0102041	0.897959	0.918367
447 	2     	0.908163	0.0102041	0.897959	0.918367
448 	2     	0.928571	0.0102041	0.918367	0.938776
449 	2     	0.928571	0.0102041	0.918367	0.938776
450 	2     	0.928571	0.0102041	0.918367	0.938776
451 	2     	0.928571	0.0102041	0.918367	0.938776
452 	2     	0.928571	0.0102041	0.918367	0.938776
453 	2     	0.928571	0.0102041	0.918367	0.938776
454 	2     	0.928571	0.0102041	0.918367	0.938776
455 	2     	0.928571	0.0102041	0.918367	0.938776
456 	2     	0.928571	0.0102041	0.918367	0.938776
457 	2     	0.928571	0.0102041	0.918367	0.938776
458 	2     	0.928571	0.0102041	0.918367	0.938776
459 	2     	0.928571	0.0102041	0.918367	0.938776
460 	2     	0.928571	0.0102041	0.918367	0.938776
461 	2     	0.928571	0.0102041	0.918367	0.938776
462 	2     	0.928571	0.0102041	0.918367	0.938776
463 	2     	0.928571	0.0102041	0.918367	0.938776
464 	2     	0.928571	0.0102041	0.918367	0.938776
465 	2     	0.928571	0.0102041	0.918367	0.938776
466 	2     	0.928571	0.0102041	0.918367	0.938776
467 	2     	0.928571	0.0102041	0.918367	0.938776
468 	2     	0.928571	0.0102041	0.918367	0.938776
469 	2     	0.928571	0.0102041	0.918367	0.938776
470 	2     	0.928571	0.0102041	0.918367	0.938776
471 	2     	0.928571	0.0102041	0.918367	0.938776
472 	2     	0.928571	0.0102041	0.918367	0.938776
473 	2     	0.928571	0.0102041	0.918367	0.938776
474 	2     	0.928571	0.0102041	0.918367	0.938776
475 	2     	0.928571	0.0102041	0.918367	0.938776
476 	2     	0.928571	0.0102041	0.918367	0.938776
477 	2     	0.928571	0.0102041	0.918367	0.938776
478 	2     	0.928571	0.0102041	0.918367	0.938776
479 	2     	0.928571	0.0102041	0.918367	0.938776
480 	2     	0.928571	0.0102041	0.918367	0.938776
481 	2     	0.928571	0.0102041	0.918367	0.938776
482 	2     	0.928571	0.0102041	0.918367	0.938776
483 	2     	0.928571	0.0102041	0.918367	0.938776
484 	2     	0.928571	0.0102041	0.918367	0.938776
485 	2     	0.928571	0.0102041	0.918367	0.938776
486 	2     	0.928571	0.0102041	0.918367	0.938776
487 	2     	0.928571	0.0102041	0.918367	0.938776
488 	2     	0.928571	0.0102041	0.918367	0.938776
489 	2     	0.928571	0.0102041	0.918367	0.938776
490 	2     	0.928571	0.0102041	0.918367	0.938776
491 	2     	0.928571	0.0102041	0.918367	0.938776
492 	2     	0.928571	0.0102041	0.918367	0.938776
493 	2     	0.928571	0.0102041	0.918367	0.938776
494 	2     	0.928571	0.0102041	0.918367	0.938776
495 	2     	0.928571	0.0102041	0.918367	0.938776
496 	2     	0.928571	0.0102041	0.918367	0.938776
497 	2     	0.928571	0.0102041	0.918367	0.938776
498 	2     	0.928571	0.0102041	0.918367	0.938776
499 	2     	0.928571	0.0102041	0.918367	0.938776
500 	2     	0.928571	0.0102041	0.918367	0.938776
501 	2     	0.928571	0.0102041	0.918367	0.938776
502 	2     	0.928571	0.0102041	0.918367	0.938776
503 	2     	0.928571	0.0102041	0.918367	0.938776
504 	2     	0.928571	0.0102041	0.918367	0.938776
505 	2     	0.928571	0.0102041	0.918367	0.938776
506 	2     	0.928571	0.0102041	0.918367	0.938776
507 	2     	0.928571	0.0102041	0.918367	0.938776
508 	2     	0.928571	0.0102041	0.918367	0.938776
509 	2     	0.928571	0.0102041	0.918367	0.938776
510 	2     	0.928571	0.0102041	0.918367	0.938776
511 	2     	0.928571	0.0102041	0.918367	0.938776
512 	2     	0.928571	0.0102041	0.918367	0.938776
513 	2     	0.928571	0.0102041	0.918367	0.938776
514 	2     	0.928571	0.0102041	0.918367	0.938776
515 	2     	0.928571	0.0102041	0.918367	0.938776
516 	2     	0.938776	0        	0.938776	0.938776
517 	2     	0.938776	0        	0.938776	0.938776
518 	2     	0.938776	0        	0.938776	0.938776
519 	2     	0.938776	0        	0.938776	0.938776
520 	2     	0.938776	0        	0.938776	0.938776
521 	2     	0.938776	0        	0.938776	0.938776
522 	2     	0.938776	0        	0.938776	0.938776
523 	2     	0.938776	0        	0.938776	0.938776
524 	2     	0.938776	0        	0.938776	0.938776
525 	2     	0.938776	0        	0.938776	0.938776
526 	2     	0.938776	0        	0.938776	0.938776
527 	2     	0.938776	0        	0.938776	0.938776
528 	2     	0.938776	0        	0.938776	0.938776
529 	2     	0.938776	0        	0.938776	0.938776
530 	2     	0.938776	0        	0.938776	0.938776
531 	2     	0.938776	0        	0.938776	0.938776
532 	2     	0.938776	0        	0.938776	0.938776
533 	2     	0.938776	0        	0.938776	0.938776
534 	2     	0.938776	0        	0.938776	0.938776
535 	2     	0.938776	0        	0.938776	0.938776
536 	2     	0.938776	0        	0.938776	0.938776
537 	2     	0.938776	0        	0.938776	0.938776
538 	2     	0.938776	0        	0.938776	0.938776
539 	2     	0.938776	0        	0.938776	0.938776
540 	2     	0.938776	0        	0.938776	0.938776
541 	2     	0.938776	0        	0.938776	0.938776
542 	2     	0.938776	0        	0.938776	0.938776
543 	2     	0.938776	0        	0.938776	0.938776
544 	2     	0.938776	0        	0.938776	0.938776
545 	2     	0.938776	0        	0.938776	0.938776
546 	2     	0.938776	0        	0.938776	0.938776
547 	2     	0.938776	0        	0.938776	0.938776
548 	2     	0.938776	0        	0.938776	0.938776
549 	2     	0.938776	0        	0.938776	0.938776
550 	2     	0.938776	0        	0.938776	0.938776
551 	2     	0.938776	0        	0.938776	0.938776
552 	2     	0.938776	0        	0.938776	0.938776
553 	2     	0.938776	0        	0.938776	0.938776
554 	2     	0.938776	0        	0.938776	0.938776
555 	2     	0.938776	0        	0.938776	0.938776
556 	2     	0.938776	0        	0.938776	0.938776
557 	2     	0.938776	0        	0.938776	0.938776
558 	2     	0.938776	0        	0.938776	0.938776
559 	2     	0.938776	0        	0.938776	0.938776
560 	2     	0.938776	0        	0.938776	0.938776
561 	2     	0.938776	0        	0.938776	0.938776
562 	2     	0.938776	0        	0.938776	0.938776
563 	2     	0.938776	0        	0.938776	0.938776
564 	2     	0.938776	0        	0.938776	0.938776
565 	2     	0.938776	0        	0.938776	0.938776
566 	2     	0.938776	0        	0.938776	0.938776
567 	2     	0.938776	0        	0.938776	0.938776
568 	2     	0.938776	0        	0.938776	0.938776
569 	2     	0.938776	0        	0.938776	0.938776
570 	2     	0.938776	0        	0.938776	0.938776
571 	2     	0.938776	0        	0.938776	0.938776
572 	2     	0.938776	0        	0.938776	0.938776
573 	2     	0.938776	0        	0.938776	0.938776
574 	2     	0.938776	0        	0.938776	0.938776
575 	2     	0.938776	0        	0.938776	0.938776
576 	2     	0.938776	0        	0.938776	0.938776
577 	2     	0.938776	0        	0.938776	0.938776
578 	2     	0.938776	0        	0.938776	0.938776
579 	2     	0.938776	0        	0.938776	0.938776
580 	2     	0.938776	0        	0.938776	0.938776
581 	2     	0.938776	0        	0.938776	0.938776
582 	2     	0.938776	0        	0.938776	0.938776
583 	2     	0.938776	0        	0.938776	0.938776
584 	2     	0.938776	0        	0.938776	0.938776
585 	2     	0.938776	0        	0.938776	0.938776
586 	2     	0.938776	0        	0.938776	0.938776
587 	2     	0.938776	0        	0.938776	0.938776
588 	2     	0.938776	0        	0.938776	0.938776
589 	2     	0.938776	0        	0.938776	0.938776
590 	2     	0.938776	0        	0.938776	0.938776
591 	2     	0.938776	0        	0.938776	0.938776
592 	2     	0.938776	0        	0.938776	0.938776
593 	2     	0.938776	0        	0.938776	0.938776
594 	2     	0.938776	0        	0.938776	0.938776
595 	2     	0.938776	0        	0.938776	0.938776
596 	2     	0.938776	0        	0.938776	0.938776
597 	2     	0.938776	0        	0.938776	0.938776
598 	2     	0.938776	0        	0.938776	0.938776
599 	2     	0.938776	0        	0.938776	0.938776
600 	2     	0.938776	0        	0.938776	0.938776
601 	2     	0.938776	0        	0.938776	0.938776
602 	2     	0.938776	0        	0.938776	0.938776
603 	2     	0.938776	0        	0.938776	0.938776
604 	2     	0.938776	0        	0.938776	0.938776
605 	2     	0.938776	0        	0.938776	0.938776
606 	2     	0.938776	0        	0.938776	0.938776
607 	2     	0.938776	0        	0.938776	0.938776
608 	2     	0.938776	0        	0.938776	0.938776
609 	2     	0.938776	0        	0.938776	0.938776
610 	2     	0.938776	0        	0.938776	0.938776
611 	2     	0.938776	0        	0.938776	0.938776
612 	2     	0.938776	0        	0.938776	0.938776
613 	2     	0.938776	0        	0.938776	0.938776
614 	2     	0.938776	0        	0.938776	0.938776
615 	2     	0.938776	0        	0.938776	0.938776
616 	2     	0.938776	0        	0.938776	0.938776
617 	2     	0.938776	0        	0.938776	0.938776
618 	2     	0.938776	0        	0.938776	0.938776
619 	2     	0.938776	0        	0.938776	0.938776
620 	2     	0.938776	0        	0.938776	0.938776
621 	2     	0.938776	0        	0.938776	0.938776
622 	2     	0.938776	0        	0.938776	0.938776
623 	2     	0.938776	0        	0.938776	0.938776
624 	2     	0.938776	0        	0.938776	0.938776
625 	2     	0.938776	0        	0.938776	0.938776
626 	2     	0.938776	0        	0.938776	0.938776
627 	2     	0.938776	0        	0.938776	0.938776
628 	2     	0.938776	0        	0.938776	0.938776
629 	2     	0.938776	0        	0.938776	0.938776
630 	2     	0.938776	0        	0.938776	0.938776
631 	2     	0.938776	0        	0.938776	0.938776
632 	2     	0.938776	0        	0.938776	0.938776
633 	2     	0.938776	0        	0.938776	0.938776
634 	2     	0.938776	0        	0.938776	0.938776
635 	2     	0.938776	0        	0.938776	0.938776
636 	2     	0.938776	0        	0.938776	0.938776
637 	2     	0.938776	0        	0.938776	0.938776
638 	2     	0.938776	0        	0.938776	0.938776
639 	2     	0.938776	0        	0.938776	0.938776
640 	2     	0.938776	0        	0.938776	0.938776
641 	2     	0.938776	0        	0.938776	0.938776
642 	2     	0.938776	0        	0.938776	0.938776
643 	2     	0.938776	0        	0.938776	0.938776
644 	2     	0.938776	0        	0.938776	0.938776
645 	2     	0.938776	0        	0.938776	0.938776
646 	2     	0.938776	0        	0.938776	0.938776
647 	2     	0.938776	0        	0.938776	0.938776
648 	2     	0.938776	0        	0.938776	0.938776
649 	2     	0.938776	0        	0.938776	0.938776
650 	2     	0.938776	0        	0.938776	0.938776
651 	2     	0.938776	0        	0.938776	0.938776
652 	2     	0.938776	0        	0.938776	0.938776
653 	2     	0.938776	0        	0.938776	0.938776
654 	2     	0.938776	0        	0.938776	0.938776
655 	2     	0.938776	0        	0.938776	0.938776
656 	2     	0.938776	0        	0.938776	0.938776
657 	2     	0.938776	0        	0.938776	0.938776
658 	2     	0.938776	0        	0.938776	0.938776
659 	2     	0.938776	0        	0.938776	0.938776
660 	2     	0.938776	0        	0.938776	0.938776
661 	2     	0.938776	0        	0.938776	0.938776
662 	2     	0.938776	0        	0.938776	0.938776
663 	2     	0.938776	0        	0.938776	0.938776
664 	2     	0.938776	0        	0.938776	0.938776
665 	2     	0.938776	0        	0.938776	0.938776
666 	2     	0.938776	0        	0.938776	0.938776
667 	2     	0.938776	0        	0.938776	0.938776
668 	2     	0.938776	0        	0.938776	0.938776
669 	2     	0.938776	0        	0.938776	0.938776
670 	2     	0.938776	0        	0.938776	0.938776
671 	2     	0.938776	0        	0.938776	0.938776
672 	2     	0.938776	0        	0.938776	0.938776
673 	2     	0.938776	0        	0.938776	0.938776
674 	2     	0.938776	0        	0.938776	0.938776
675 	2     	0.938776	0        	0.938776	0.938776
676 	2     	0.938776	0        	0.938776	0.938776
677 	2     	0.938776	0        	0.938776	0.938776
678 	2     	0.938776	0        	0.938776	0.938776
679 	2     	0.938776	0        	0.938776	0.938776
680 	2     	0.938776	0        	0.938776	0.938776
681 	2     	0.938776	0        	0.938776	0.938776
682 	2     	0.938776	0        	0.938776	0.938776
683 	2     	0.938776	0        	0.938776	0.938776
684 	2     	0.938776	0        	0.938776	0.938776
685 	2     	0.938776	0        	0.938776	0.938776
686 	2     	0.938776	0        	0.938776	0.938776
687 	2     	0.938776	0        	0.938776	0.938776
688 	2     	0.938776	0        	0.938776	0.938776
689 	2     	0.938776	0        	0.938776	0.938776
690 	2     	0.938776	0        	0.938776	0.938776
691 	2     	0.938776	0        	0.938776	0.938776
692 	2     	0.938776	0        	0.938776	0.938776
693 	2     	0.938776	0        	0.938776	0.938776
694 	2     	0.938776	0        	0.938776	0.938776
695 	2     	0.938776	0        	0.938776	0.938776
696 	2     	0.938776	0        	0.938776	0.938776
697 	2     	0.938776	0        	0.938776	0.938776
698 	2     	0.938776	0        	0.938776	0.938776
699 	2     	0.938776	0        	0.938776	0.938776
700 	2     	0.938776	0        	0.938776	0.938776
701 	2     	0.938776	0        	0.938776	0.938776
702 	2     	0.938776	0        	0.938776	0.938776
703 	2     	0.938776	0        	0.938776	0.938776
704 	2     	0.938776	0        	0.938776	0.938776
705 	2     	0.938776	0        	0.938776	0.938776
706 	2     	0.938776	0        	0.938776	0.938776
707 	2     	0.938776	0        	0.938776	0.938776
708 	2     	0.938776	0        	0.938776	0.938776
709 	2     	0.938776	0        	0.938776	0.938776
710 	2     	0.938776	0        	0.938776	0.938776
711 	2     	0.938776	0        	0.938776	0.938776
712 	2     	0.938776	0        	0.938776	0.938776
713 	2     	0.938776	0        	0.938776	0.938776
714 	2     	0.938776	0        	0.938776	0.938776
715 	2     	0.938776	0        	0.938776	0.938776
716 	2     	0.938776	0        	0.938776	0.938776
717 	2     	0.938776	0        	0.938776	0.938776
718 	2     	0.938776	0        	0.938776	0.938776
719 	2     	0.938776	0        	0.938776	0.938776
720 	2     	0.938776	0        	0.938776	0.938776
721 	2     	0.938776	0        	0.938776	0.938776
722 	2     	0.938776	0        	0.938776	0.938776
723 	2     	0.938776	0        	0.938776	0.938776
724 	2     	0.938776	0        	0.938776	0.938776
725 	2     	0.938776	0        	0.938776	0.938776
726 	2     	0.938776	0        	0.938776	0.938776
727 	2     	0.938776	0        	0.938776	0.938776
728 	2     	0.938776	0        	0.938776	0.938776
729 	2     	0.938776	0        	0.938776	0.938776
730 	2     	0.938776	0        	0.938776	0.938776
731 	2     	0.938776	0        	0.938776	0.938776
732 	2     	0.938776	0        	0.938776	0.938776
733 	2     	0.938776	0        	0.938776	0.938776
734 	2     	0.938776	0        	0.938776	0.938776
735 	2     	0.938776	0        	0.938776	0.938776
736 	2     	0.938776	0        	0.938776	0.938776
737 	2     	0.938776	0        	0.938776	0.938776
738 	2     	0.938776	0        	0.938776	0.938776
739 	2     	0.938776	0        	0.938776	0.938776
740 	2     	0.938776	0        	0.938776	0.938776
741 	2     	0.938776	0        	0.938776	0.938776
742 	2     	0.938776	0        	0.938776	0.938776
743 	2     	0.938776	0        	0.938776	0.938776
744 	2     	0.938776	0        	0.938776	0.938776
745 	2     	0.938776	0        	0.938776	0.938776
746 	2     	0.938776	0        	0.938776	0.938776
747 	2     	0.938776	0        	0.938776	0.938776
748 	2     	0.938776	0        	0.938776	0.938776
749 	2     	0.938776	0        	0.938776	0.938776
750 	2     	0.938776	0        	0.938776	0.938776
751 	2     	0.938776	0        	0.938776	0.938776
752 	2     	0.938776	0        	0.938776	0.938776
753 	2     	0.938776	0        	0.938776	0.938776
754 	2     	0.938776	0        	0.938776	0.938776
755 	2     	0.938776	0        	0.938776	0.938776
756 	2     	0.938776	0        	0.938776	0.938776
757 	2     	0.938776	0        	0.938776	0.938776
758 	2     	0.938776	0        	0.938776	0.938776
759 	2     	0.938776	0        	0.938776	0.938776
760 	2     	0.938776	0        	0.938776	0.938776
761 	2     	0.938776	0        	0.938776	0.938776
762 	2     	0.938776	0        	0.938776	0.938776
763 	2     	0.938776	0        	0.938776	0.938776
764 	2     	0.938776	0        	0.938776	0.938776
765 	2     	0.938776	0        	0.938776	0.938776
766 	2     	0.938776	0        	0.938776	0.938776
767 	2     	0.938776	0        	0.938776	0.938776
768 	2     	0.938776	0        	0.938776	0.938776
769 	2     	0.938776	0        	0.938776	0.938776
770 	2     	0.938776	0        	0.938776	0.938776
771 	2     	0.938776	0        	0.938776	0.938776
772 	2     	0.938776	0        	0.938776	0.938776
773 	2     	0.938776	0        	0.938776	0.938776
774 	2     	0.938776	0        	0.938776	0.938776
775 	2     	0.938776	0        	0.938776	0.938776
776 	2     	0.938776	0        	0.938776	0.938776
777 	2     	0.938776	0        	0.938776	0.938776
778 	2     	0.938776	0        	0.938776	0.938776
779 	2     	0.938776	0        	0.938776	0.938776
780 	2     	0.938776	0        	0.938776	0.938776
781 	2     	0.938776	0        	0.938776	0.938776
782 	2     	0.938776	0        	0.938776	0.938776
783 	2     	0.938776	0        	0.938776	0.938776
784 	2     	0.938776	0        	0.938776	0.938776
785 	2     	0.938776	0        	0.938776	0.938776
786 	2     	0.938776	0        	0.938776	0.938776
787 	2     	0.938776	0        	0.938776	0.938776
788 	2     	0.938776	0        	0.938776	0.938776
789 	2     	0.938776	0        	0.938776	0.938776
790 	2     	0.938776	0        	0.938776	0.938776
791 	2     	0.938776	0        	0.938776	0.938776
792 	2     	0.938776	0        	0.938776	0.938776
793 	2     	0.938776	0        	0.938776	0.938776
794 	2     	0.938776	0        	0.938776	0.938776
795 	2     	0.938776	0        	0.938776	0.938776
796 	2     	0.938776	0        	0.938776	0.938776
797 	2     	0.938776	0        	0.938776	0.938776
798 	2     	0.938776	0        	0.938776	0.938776
799 	2     	0.938776	0        	0.938776	0.938776
800 	2     	0.938776	0        	0.938776	0.938776
801 	2     	0.938776	0        	0.938776	0.938776
802 	2     	0.938776	0        	0.938776	0.938776
803 	2     	0.938776	0        	0.938776	0.938776
804 	2     	0.938776	0        	0.938776	0.938776
805 	2     	0.938776	0        	0.938776	0.938776
806 	2     	0.938776	0        	0.938776	0.938776
807 	2     	0.94898 	0.0102041	0.938776	0.959184
808 	2     	0.94898 	0.0102041	0.938776	0.959184
809 	2     	0.94898 	0.0102041	0.938776	0.959184
810 	2     	0.94898 	0.0102041	0.938776	0.959184
811 	2     	0.94898 	0.0102041	0.938776	0.959184
812 	2     	0.94898 	0.0102041	0.938776	0.959184
813 	2     	0.94898 	0.0102041	0.938776	0.959184
814 	2     	0.94898 	0.0102041	0.938776	0.959184
815 	2     	0.94898 	0.0102041	0.938776	0.959184
816 	2     	0.94898 	0.0102041	0.938776	0.959184
817 	2     	0.94898 	0.0102041	0.938776	0.959184
818 	2     	0.94898 	0.0102041	0.938776	0.959184
819 	2     	0.94898 	0.0102041	0.938776	0.959184
820 	2     	0.94898 	0.0102041	0.938776	0.959184
821 	2     	0.94898 	0.0102041	0.938776	0.959184
822 	2     	0.94898 	0.0102041	0.938776	0.959184
823 	2     	0.94898 	0.0102041	0.938776	0.959184
824 	2     	0.94898 	0.0102041	0.938776	0.959184
825 	2     	0.94898 	0.0102041	0.938776	0.959184
826 	2     	0.94898 	0.0102041	0.938776	0.959184
827 	2     	0.94898 	0.0102041	0.938776	0.959184
828 	2     	0.94898 	0.0102041	0.938776	0.959184
829 	2     	0.94898 	0.0102041	0.938776	0.959184
830 	2     	0.94898 	0.0102041	0.938776	0.959184
831 	2     	0.94898 	0.0102041	0.938776	0.959184
832 	2     	0.94898 	0.0102041	0.938776	0.959184
833 	2     	0.94898 	0.0102041	0.938776	0.959184
834 	2     	0.94898 	0.0102041	0.938776	0.959184
835 	2     	0.94898 	0.0102041	0.938776	0.959184
836 	2     	0.94898 	0.0102041	0.938776	0.959184
837 	2     	0.94898 	0.0102041	0.938776	0.959184
838 	2     	0.94898 	0.0102041	0.938776	0.959184
839 	2     	0.94898 	0.0102041	0.938776	0.959184
840 	2     	0.94898 	0.0102041	0.938776	0.959184
841 	2     	0.94898 	0.0102041	0.938776	0.959184
842 	2     	0.94898 	0.0102041	0.938776	0.959184
843 	2     	0.94898 	0.0102041	0.938776	0.959184
844 	2     	0.94898 	0.0102041	0.938776	0.959184
845 	2     	0.94898 	0.0102041	0.938776	0.959184
846 	2     	0.94898 	0.0102041	0.938776	0.959184
847 	2     	0.94898 	0.0102041	0.938776	0.959184
848 	2     	0.94898 	0.0102041	0.938776	0.959184
849 	2     	0.94898 	0.0102041	0.938776	0.959184
850 	2     	0.94898 	0.0102041	0.938776	0.959184
851 	2     	0.94898 	0.0102041	0.938776	0.959184
852 	2     	0.94898 	0.0102041	0.938776	0.959184
853 	2     	0.94898 	0.0102041	0.938776	0.959184
854 	2     	0.94898 	0.0102041	0.938776	0.959184
855 	2     	0.94898 	0.0102041	0.938776	0.959184
856 	2     	0.94898 	0.0102041	0.938776	0.959184
857 	2     	0.94898 	0.0102041	0.938776	0.959184
858 	2     	0.94898 	0.0102041	0.938776	0.959184
859 	2     	0.94898 	0.0102041	0.938776	0.959184
860 	2     	0.94898 	0.0102041	0.938776	0.959184
861 	2     	0.94898 	0.0102041	0.938776	0.959184
862 	2     	0.94898 	0.0102041	0.938776	0.959184
863 	2     	0.94898 	0.0102041	0.938776	0.959184
864 	2     	0.94898 	0.0102041	0.938776	0.959184
865 	2     	0.959184	0        	0.959184	0.959184
866 	2     	0.959184	0        	0.959184	0.959184
867 	2     	0.959184	0        	0.959184	0.959184
868 	2     	0.959184	0        	0.959184	0.959184
869 	2     	0.959184	0        	0.959184	0.959184
870 	2     	0.959184	0        	0.959184	0.959184
871 	2     	0.959184	0        	0.959184	0.959184
872 	2     	0.959184	0        	0.959184	0.959184
873 	2     	0.959184	0        	0.959184	0.959184
874 	2     	0.959184	0        	0.959184	0.959184
875 	2     	0.959184	0        	0.959184	0.959184
876 	2     	0.959184	0        	0.959184	0.959184
877 	2     	0.959184	0        	0.959184	0.959184
878 	2     	0.959184	0        	0.959184	0.959184
879 	2     	0.959184	0        	0.959184	0.959184
880 	2     	0.959184	0        	0.959184	0.959184
881 	2     	0.959184	0        	0.959184	0.959184
882 	2     	0.959184	0        	0.959184	0.959184
883 	2     	0.959184	0        	0.959184	0.959184
884 	2     	0.959184	0        	0.959184	0.959184
885 	2     	0.959184	0        	0.959184	0.959184
886 	2     	0.959184	0        	0.959184	0.959184
887 	2     	0.959184	0        	0.959184	0.959184
888 	2     	0.959184	0        	0.959184	0.959184
889 	2     	0.959184	0        	0.959184	0.959184
890 	2     	0.959184	0        	0.959184	0.959184
891 	2     	0.959184	0        	0.959184	0.959184
892 	2     	0.959184	0        	0.959184	0.959184
893 	2     	0.959184	0        	0.959184	0.959184
894 	2     	0.959184	0        	0.959184	0.959184
895 	2     	0.959184	0        	0.959184	0.959184
896 	2     	0.959184	0        	0.959184	0.959184
897 	2     	0.959184	0        	0.959184	0.959184
898 	2     	0.959184	0        	0.959184	0.959184
899 	2     	0.959184	0        	0.959184	0.959184
900 	2     	0.959184	0        	0.959184	0.959184
901 	2     	0.959184	0        	0.959184	0.959184
902 	2     	0.959184	0        	0.959184	0.959184
903 	2     	0.959184	0        	0.959184	0.959184
904 	2     	0.959184	0        	0.959184	0.959184
905 	2     	0.959184	0        	0.959184	0.959184
906 	2     	0.959184	0        	0.959184	0.959184
907 	2     	0.959184	0        	0.959184	0.959184
908 	2     	0.959184	0        	0.959184	0.959184
909 	2     	0.959184	0        	0.959184	0.959184
910 	2     	0.959184	0        	0.959184	0.959184
911 	2     	0.959184	0        	0.959184	0.959184
912 	2     	0.959184	0        	0.959184	0.959184
913 	2     	0.959184	0        	0.959184	0.959184
914 	2     	0.959184	0        	0.959184	0.959184
915 	2     	0.959184	0        	0.959184	0.959184
916 	2     	0.959184	0        	0.959184	0.959184
917 	2     	0.959184	0        	0.959184	0.959184
918 	2     	0.959184	0        	0.959184	0.959184
919 	2     	0.959184	0        	0.959184	0.959184
920 	2     	0.959184	0        	0.959184	0.959184
921 	2     	0.959184	0        	0.959184	0.959184
922 	2     	0.959184	0        	0.959184	0.959184
923 	2     	0.959184	0        	0.959184	0.959184
924 	2     	0.959184	0        	0.959184	0.959184
925 	2     	0.959184	0        	0.959184	0.959184
926 	2     	0.959184	0        	0.959184	0.959184
927 	2     	0.959184	0        	0.959184	0.959184
928 	2     	0.959184	0        	0.959184	0.959184
929 	2     	0.959184	0        	0.959184	0.959184
930 	2     	0.959184	0        	0.959184	0.959184
931 	2     	0.959184	0        	0.959184	0.959184
932 	2     	0.959184	0        	0.959184	0.959184
933 	2     	0.959184	0        	0.959184	0.959184
934 	2     	0.959184	0        	0.959184	0.959184
935 	2     	0.959184	0        	0.959184	0.959184
936 	2     	0.959184	0        	0.959184	0.959184
937 	2     	0.959184	0        	0.959184	0.959184
938 	2     	0.959184	0        	0.959184	0.959184
939 	2     	0.959184	0        	0.959184	0.959184
940 	2     	0.959184	0        	0.959184	0.959184
941 	2     	0.959184	0        	0.959184	0.959184
942 	2     	0.959184	0        	0.959184	0.959184
943 	2     	0.959184	0        	0.959184	0.959184
944 	2     	0.959184	0        	0.959184	0.959184
945 	2     	0.959184	0        	0.959184	0.959184
946 	2     	0.959184	0        	0.959184	0.959184
947 	2     	0.959184	0        	0.959184	0.959184
948 	2     	0.959184	0        	0.959184	0.959184
949 	2     	0.959184	0        	0.959184	0.959184
950 	2     	0.959184	0        	0.959184	0.959184
951 	2     	0.959184	0        	0.959184	0.959184
952 	2     	0.959184	0        	0.959184	0.959184
953 	2     	0.959184	0        	0.959184	0.959184
954 	2     	0.959184	0        	0.959184	0.959184
955 	2     	0.959184	0        	0.959184	0.959184
956 	2     	0.959184	0        	0.959184	0.959184
957 	2     	0.959184	0        	0.959184	0.959184
958 	2     	0.959184	0        	0.959184	0.959184
959 	2     	0.959184	0        	0.959184	0.959184
960 	2     	0.959184	0        	0.959184	0.959184
961 	2     	0.959184	0        	0.959184	0.959184
962 	2     	0.959184	0        	0.959184	0.959184
963 	2     	0.959184	0        	0.959184	0.959184
964 	2     	0.959184	0        	0.959184	0.959184
965 	2     	0.959184	0        	0.959184	0.959184
966 	2     	0.959184	0        	0.959184	0.959184
967 	2     	0.959184	0        	0.959184	0.959184
968 	2     	0.959184	0        	0.959184	0.959184
969 	2     	0.959184	0        	0.959184	0.959184
970 	2     	0.959184	0        	0.959184	0.959184
971 	2     	0.959184	0        	0.959184	0.959184
972 	2     	0.959184	0        	0.959184	0.959184
973 	2     	0.959184	0        	0.959184	0.959184
974 	2     	0.959184	0        	0.959184	0.959184
975 	2     	0.959184	0        	0.959184	0.959184
976 	2     	0.959184	0        	0.959184	0.959184
977 	2     	0.959184	0        	0.959184	0.959184
978 	2     	0.959184	0        	0.959184	0.959184
979 	2     	0.959184	0        	0.959184	0.959184
980 	2     	0.959184	0        	0.959184	0.959184
981 	2     	0.959184	0        	0.959184	0.959184
982 	2     	0.959184	0        	0.959184	0.959184
983 	2     	0.959184	0        	0.959184	0.959184
984 	2     	0.959184	0        	0.959184	0.959184
985 	2     	0.959184	0        	0.959184	0.959184
986 	2     	0.959184	0        	0.959184	0.959184
987 	2     	0.959184	0        	0.959184	0.959184
988 	2     	0.959184	0        	0.959184	0.959184
989 	2     	0.959184	0        	0.959184	0.959184
990 	2     	0.959184	0        	0.959184	0.959184
991 	2     	0.959184	0        	0.959184	0.959184
992 	2     	0.959184	0        	0.959184	0.959184
993 	2     	0.959184	0        	0.959184	0.959184
994 	2     	0.959184	0        	0.959184	0.959184
995 	2     	0.959184	0        	0.959184	0.959184
996 	2     	0.959184	0        	0.959184	0.959184
997 	2     	0.959184	0        	0.959184	0.959184
998 	2     	0.959184	0        	0.959184	0.959184
999 	2     	0.959184	0        	0.959184	0.959184
1000	2     	0.959184	0        	0.959184	0.959184
1001	2     	0.959184	0        	0.959184	0.959184
1002	2     	0.959184	0        	0.959184	0.959184
1003	2     	0.959184	0        	0.959184	0.959184
1004	2     	0.959184	0        	0.959184	0.959184
1005	2     	0.959184	0        	0.959184	0.959184
1006	2     	0.959184	0        	0.959184	0.959184
1007	2     	0.959184	0        	0.959184	0.959184
1008	2     	0.959184	0        	0.959184	0.959184
1009	2     	0.959184	0        	0.959184	0.959184
1010	2     	0.959184	0        	0.959184	0.959184
1011	2     	0.959184	0        	0.959184	0.959184
1012	2     	0.959184	0        	0.959184	0.959184
1013	2     	0.959184	0        	0.959184	0.959184
1014	2     	0.959184	0        	0.959184	0.959184
1015	2     	0.959184	0        	0.959184	0.959184
1016	2     	0.959184	0        	0.959184	0.959184
1017	2     	0.959184	0        	0.959184	0.959184
1018	2     	0.959184	0        	0.959184	0.959184
1019	2     	0.959184	0        	0.959184	0.959184
1020	2     	0.959184	0        	0.959184	0.959184
1021	2     	0.959184	0        	0.959184	0.959184
1022	2     	0.959184	0        	0.959184	0.959184
1023	2     	0.959184	0        	0.959184	0.959184
1024	2     	0.959184	0        	0.959184	0.959184
1025	2     	0.959184	0        	0.959184	0.959184
1026	2     	0.959184	0        	0.959184	0.959184
1027	2     	0.959184	0        	0.959184	0.959184
1028	2     	0.959184	0        	0.959184	0.959184
1029	2     	0.959184	0        	0.959184	0.959184
1030	2     	0.959184	0        	0.959184	0.959184
1031	2     	0.959184	0        	0.959184	0.959184
1032	2     	0.959184	0        	0.959184	0.959184
1033	2     	0.959184	0        	0.959184	0.959184
1034	2     	0.959184	0        	0.959184	0.959184
1035	2     	0.959184	0        	0.959184	0.959184
1036	2     	0.959184	0        	0.959184	0.959184
1037	2     	0.959184	0        	0.959184	0.959184
1038	2     	0.959184	0        	0.959184	0.959184
1039	2     	0.959184	0        	0.959184	0.959184
1040	2     	0.959184	0        	0.959184	0.959184
1041	2     	0.959184	0        	0.959184	0.959184
1042	2     	0.959184	0        	0.959184	0.959184
1043	2     	0.959184	0        	0.959184	0.959184
1044	2     	0.959184	0        	0.959184	0.959184
1045	2     	0.959184	0        	0.959184	0.959184
1046	2     	0.959184	0        	0.959184	0.959184
1047	2     	0.959184	0        	0.959184	0.959184
1048	2     	0.959184	0        	0.959184	0.959184
1049	2     	0.959184	0        	0.959184	0.959184
1050	2     	0.959184	0        	0.959184	0.959184
1051	2     	0.959184	0        	0.959184	0.959184
1052	2     	0.959184	0        	0.959184	0.959184
1053	2     	0.959184	0        	0.959184	0.959184
1054	2     	0.959184	0        	0.959184	0.959184
1055	2     	0.959184	0        	0.959184	0.959184
1056	2     	0.959184	0        	0.959184	0.959184
1057	2     	0.959184	0        	0.959184	0.959184
1058	2     	0.959184	0        	0.959184	0.959184
1059	2     	0.959184	0        	0.959184	0.959184
1060	2     	0.959184	0        	0.959184	0.959184
1061	2     	0.959184	0        	0.959184	0.959184
1062	2     	0.959184	0        	0.959184	0.959184
1063	2     	0.959184	0        	0.959184	0.959184
1064	2     	0.959184	0        	0.959184	0.959184
1065	2     	0.959184	0        	0.959184	0.959184
1066	2     	0.959184	0        	0.959184	0.959184
1067	2     	0.959184	0        	0.959184	0.959184
1068	2     	0.959184	0        	0.959184	0.959184
1069	2     	0.959184	0        	0.959184	0.959184
1070	2     	0.959184	0        	0.959184	0.959184
1071	2     	0.959184	0        	0.959184	0.959184
1072	2     	0.959184	0        	0.959184	0.959184
1073	2     	0.959184	0        	0.959184	0.959184
1074	2     	0.959184	0        	0.959184	0.959184
1075	2     	0.959184	0        	0.959184	0.959184
1076	2     	0.959184	0        	0.959184	0.959184
1077	2     	0.959184	0        	0.959184	0.959184
1078	2     	0.959184	0        	0.959184	0.959184
1079	2     	0.959184	0        	0.959184	0.959184
1080	2     	0.959184	0        	0.959184	0.959184
1081	2     	0.959184	0        	0.959184	0.959184
1082	2     	0.959184	0        	0.959184	0.959184
1083	2     	0.959184	0        	0.959184	0.959184
1084	2     	0.959184	0        	0.959184	0.959184
1085	2     	0.959184	0        	0.959184	0.959184
1086	2     	0.959184	0        	0.959184	0.959184
1087	2     	0.959184	0        	0.959184	0.959184
1088	2     	0.959184	0        	0.959184	0.959184
1089	2     	0.959184	0        	0.959184	0.959184
1090	2     	0.959184	0        	0.959184	0.959184
1091	2     	0.959184	0        	0.959184	0.959184
1092	2     	0.959184	0        	0.959184	0.959184
1093	2     	0.959184	0        	0.959184	0.959184
1094	2     	0.959184	0        	0.959184	0.959184
1095	2     	0.959184	0        	0.959184	0.959184
1096	2     	0.959184	0        	0.959184	0.959184
1097	2     	0.959184	0        	0.959184	0.959184
1098	2     	0.959184	0        	0.959184	0.959184
1099	2     	0.959184	0        	0.959184	0.959184
1100	2     	0.959184	0        	0.959184	0.959184
1101	2     	0.959184	0        	0.959184	0.959184
1102	2     	0.959184	0        	0.959184	0.959184
1103	2     	0.959184	0        	0.959184	0.959184
1104	2     	0.959184	0        	0.959184	0.959184
1105	2     	0.959184	0        	0.959184	0.959184
1106	2     	0.959184	0        	0.959184	0.959184
1107	2     	0.959184	0        	0.959184	0.959184
1108	2     	0.959184	0        	0.959184	0.959184
1109	2     	0.959184	0        	0.959184	0.959184
1110	2     	0.959184	0        	0.959184	0.959184
1111	2     	0.959184	0        	0.959184	0.959184
1112	2     	0.959184	0        	0.959184	0.959184
1113	2     	0.959184	0        	0.959184	0.959184
1114	2     	0.959184	0        	0.959184	0.959184
1115	2     	0.959184	0        	0.959184	0.959184
1116	2     	0.959184	0        	0.959184	0.959184
1117	2     	0.959184	0        	0.959184	0.959184
1118	2     	0.959184	0        	0.959184	0.959184
1119	2     	0.959184	0        	0.959184	0.959184
1120	2     	0.959184	0        	0.959184	0.959184
1121	2     	0.959184	0        	0.959184	0.959184
1122	2     	0.959184	0        	0.959184	0.959184
1123	2     	0.959184	0        	0.959184	0.959184
1124	2     	0.959184	0        	0.959184	0.959184
1125	2     	0.959184	0        	0.959184	0.959184
1126	2     	0.959184	0        	0.959184	0.959184
1127	2     	0.959184	0        	0.959184	0.959184
1128	2     	0.959184	0        	0.959184	0.959184
1129	2     	0.959184	0        	0.959184	0.959184
1130	2     	0.959184	0        	0.959184	0.959184
1131	2     	0.959184	0        	0.959184	0.959184
1132	2     	0.959184	0        	0.959184	0.959184
1133	2     	0.959184	0        	0.959184	0.959184
1134	2     	0.959184	0        	0.959184	0.959184
1135	2     	0.959184	0        	0.959184	0.959184
1136	2     	0.959184	0        	0.959184	0.959184
1137	2     	0.959184	0        	0.959184	0.959184
1138	2     	0.959184	0        	0.959184	0.959184
1139	2     	0.959184	0        	0.959184	0.959184
1140	2     	0.959184	0        	0.959184	0.959184
1141	2     	0.959184	0        	0.959184	0.959184
1142	2     	0.959184	0        	0.959184	0.959184
1143	2     	0.959184	0        	0.959184	0.959184
1144	2     	0.959184	0        	0.959184	0.959184
1145	2     	0.959184	0        	0.959184	0.959184
1146	2     	0.959184	0        	0.959184	0.959184
1147	2     	0.959184	0        	0.959184	0.959184
1148	2     	0.959184	0        	0.959184	0.959184
1149	2     	0.959184	0        	0.959184	0.959184
1150	2     	0.959184	0        	0.959184	0.959184
1151	2     	0.959184	0        	0.959184	0.959184
1152	2     	0.959184	0        	0.959184	0.959184
1153	2     	0.959184	0        	0.959184	0.959184
1154	2     	0.959184	0        	0.959184	0.959184
1155	2     	0.959184	0        	0.959184	0.959184
1156	2     	0.959184	0        	0.959184	0.959184
1157	2     	0.959184	0        	0.959184	0.959184
1158	2     	0.959184	0        	0.959184	0.959184
1159	2     	0.959184	0        	0.959184	0.959184
1160	2     	0.959184	0        	0.959184	0.959184
1161	2     	0.959184	0        	0.959184	0.959184
1162	2     	0.959184	0        	0.959184	0.959184
1163	2     	0.959184	0        	0.959184	0.959184
1164	2     	0.959184	0        	0.959184	0.959184
1165	2     	0.959184	0        	0.959184	0.959184
1166	2     	0.959184	0        	0.959184	0.959184
1167	2     	0.959184	0        	0.959184	0.959184
1168	2     	0.959184	0        	0.959184	0.959184
1169	2     	0.959184	0        	0.959184	0.959184
1170	2     	0.959184	0        	0.959184	0.959184
1171	2     	0.959184	0        	0.959184	0.959184
1172	2     	0.959184	0        	0.959184	0.959184
1173	2     	0.959184	0        	0.959184	0.959184
1174	2     	0.959184	0        	0.959184	0.959184
1175	2     	0.959184	0        	0.959184	0.959184
1176	2     	0.959184	0        	0.959184	0.959184
1177	2     	0.959184	0        	0.959184	0.959184
1178	2     	0.959184	0        	0.959184	0.959184
1179	2     	0.959184	0        	0.959184	0.959184
1180	2     	0.959184	0        	0.959184	0.959184
1181	2     	0.959184	0        	0.959184	0.959184
1182	2     	0.959184	0        	0.959184	0.959184
1183	2     	0.959184	0        	0.959184	0.959184
1184	2     	0.959184	0        	0.959184	0.959184
1185	2     	0.959184	0        	0.959184	0.959184
1186	2     	0.959184	0        	0.959184	0.959184
1187	2     	0.959184	0        	0.959184	0.959184
1188	2     	0.959184	0        	0.959184	0.959184
1189	2     	0.959184	0        	0.959184	0.959184
1190	2     	0.959184	0        	0.959184	0.959184
1191	2     	0.959184	0        	0.959184	0.959184
1192	2     	0.959184	0        	0.959184	0.959184
1193	2     	0.959184	0        	0.959184	0.959184
1194	2     	0.959184	0        	0.959184	0.959184
1195	2     	0.959184	0        	0.959184	0.959184
1196	2     	0.959184	0        	0.959184	0.959184
1197	2     	0.959184	0        	0.959184	0.959184
1198	2     	0.959184	0        	0.959184	0.959184
1199	2     	0.959184	0        	0.959184	0.959184
1200	2     	0.959184	0        	0.959184	0.959184
1201	2     	0.959184	0        	0.959184	0.959184
1202	2     	0.959184	0        	0.959184	0.959184
1203	2     	0.959184	0        	0.959184	0.959184
1204	2     	0.959184	0        	0.959184	0.959184
1205	2     	0.959184	0        	0.959184	0.959184
1206	2     	0.959184	0        	0.959184	0.959184
1207	2     	0.959184	0        	0.959184	0.959184
1208	2     	0.959184	0        	0.959184	0.959184
1209	2     	0.959184	0        	0.959184	0.959184
1210	2     	0.959184	0        	0.959184	0.959184
1211	2     	0.959184	0        	0.959184	0.959184
1212	2     	0.959184	0        	0.959184	0.959184
1213	2     	0.959184	0        	0.959184	0.959184
1214	2     	0.959184	0        	0.959184	0.959184
1215	2     	0.959184	0        	0.959184	0.959184
1216	2     	0.959184	0        	0.959184	0.959184
1217	2     	0.959184	0        	0.959184	0.959184
1218	2     	0.959184	0        	0.959184	0.959184
1219	2     	0.959184	0        	0.959184	0.959184
1220	2     	0.959184	0        	0.959184	0.959184
1221	2     	0.959184	0        	0.959184	0.959184
1222	2     	0.959184	0        	0.959184	0.959184
1223	2     	0.959184	0        	0.959184	0.959184
1224	2     	0.959184	0        	0.959184	0.959184
1225	2     	0.959184	0        	0.959184	0.959184
1226	2     	0.959184	0        	0.959184	0.959184
1227	2     	0.959184	0        	0.959184	0.959184
1228	2     	0.959184	0        	0.959184	0.959184
1229	2     	0.959184	0        	0.959184	0.959184
1230	2     	0.959184	0        	0.959184	0.959184
1231	2     	0.959184	0        	0.959184	0.959184
1232	2     	0.959184	0        	0.959184	0.959184
1233	2     	0.959184	0        	0.959184	0.959184
1234	2     	0.959184	0        	0.959184	0.959184
1235	2     	0.959184	0        	0.959184	0.959184
1236	2     	0.959184	0        	0.959184	0.959184
1237	2     	0.959184	0        	0.959184	0.959184
1238	2     	0.959184	0        	0.959184	0.959184
1239	2     	0.959184	0        	0.959184	0.959184
1240	2     	0.959184	0        	0.959184	0.959184
1241	2     	0.959184	0        	0.959184	0.959184
1242	2     	0.959184	0        	0.959184	0.959184
1243	2     	0.959184	0        	0.959184	0.959184
1244	2     	0.959184	0        	0.959184	0.959184
1245	2     	0.959184	0        	0.959184	0.959184
1246	2     	0.959184	0        	0.959184	0.959184
1247	2     	0.959184	0        	0.959184	0.959184
1248	2     	0.959184	0        	0.959184	0.959184
1249	2     	0.959184	0        	0.959184	0.959184
1250	2     	0.959184	0        	0.959184	0.959184
1251	2     	0.959184	0        	0.959184	0.959184
1252	2     	0.959184	0        	0.959184	0.959184
1253	2     	0.959184	0        	0.959184	0.959184
1254	2     	0.959184	0        	0.959184	0.959184
1255	2     	0.959184	0        	0.959184	0.959184
1256	2     	0.959184	0        	0.959184	0.959184
1257	2     	0.959184	0        	0.959184	0.959184
1258	2     	0.959184	0        	0.959184	0.959184
1259	2     	0.959184	0        	0.959184	0.959184
1260	2     	0.959184	0        	0.959184	0.959184
1261	2     	0.959184	0        	0.959184	0.959184
1262	2     	0.959184	0        	0.959184	0.959184
1263	2     	0.959184	0        	0.959184	0.959184
1264	2     	0.959184	0        	0.959184	0.959184
1265	2     	0.959184	0        	0.959184	0.959184
1266	2     	0.959184	0        	0.959184	0.959184
1267	2     	0.959184	0        	0.959184	0.959184
1268	2     	0.959184	0        	0.959184	0.959184
1269	2     	0.959184	0        	0.959184	0.959184
1270	2     	0.959184	0        	0.959184	0.959184
1271	2     	0.959184	0        	0.959184	0.959184
1272	2     	0.959184	0        	0.959184	0.959184
1273	2     	0.959184	0        	0.959184	0.959184
1274	2     	0.959184	0        	0.959184	0.959184
1275	2     	0.959184	0        	0.959184	0.959184
1276	2     	0.959184	0        	0.959184	0.959184
1277	2     	0.959184	0        	0.959184	0.959184
1278	2     	0.959184	0        	0.959184	0.959184
1279	2     	0.959184	0        	0.959184	0.959184
1280	2     	0.959184	0        	0.959184	0.959184
1281	2     	0.959184	0        	0.959184	0.959184
1282	2     	0.959184	0        	0.959184	0.959184
1283	2     	0.959184	0        	0.959184	0.959184
1284	2     	0.959184	0        	0.959184	0.959184
1285	2     	0.959184	0        	0.959184	0.959184
1286	2     	0.959184	0        	0.959184	0.959184
1287	2     	0.959184	0        	0.959184	0.959184
1288	2     	0.959184	0        	0.959184	0.959184
1289	2     	0.959184	0        	0.959184	0.959184
1290	2     	0.959184	0        	0.959184	0.959184
1291	2     	0.959184	0        	0.959184	0.959184
1292	2     	0.959184	0        	0.959184	0.959184
1293	2     	0.959184	0        	0.959184	0.959184
1294	2     	0.959184	0        	0.959184	0.959184
1295	2     	0.959184	0        	0.959184	0.959184
1296	2     	0.959184	0        	0.959184	0.959184
1297	2     	0.959184	0        	0.959184	0.959184
1298	2     	0.959184	0        	0.959184	0.959184
1299	2     	0.959184	0        	0.959184	0.959184
1300	2     	0.959184	0        	0.959184	0.959184
1301	2     	0.959184	0        	0.959184	0.959184
1302	2     	0.959184	0        	0.959184	0.959184
1303	2     	0.959184	0        	0.959184	0.959184
1304	2     	0.959184	0        	0.959184	0.959184
1305	2     	0.959184	0        	0.959184	0.959184
1306	2     	0.959184	0        	0.959184	0.959184
1307	2     	0.959184	0        	0.959184	0.959184
1308	2     	0.959184	0        	0.959184	0.959184
1309	2     	0.959184	0        	0.959184	0.959184
1310	2     	0.959184	0        	0.959184	0.959184
1311	2     	0.959184	0        	0.959184	0.959184
1312	2     	0.959184	0        	0.959184	0.959184
1313	2     	0.959184	0        	0.959184	0.959184
1314	2     	0.959184	0        	0.959184	0.959184
1315	2     	0.959184	0        	0.959184	0.959184
1316	2     	0.959184	0        	0.959184	0.959184
1317	2     	0.959184	0        	0.959184	0.959184
1318	2     	0.959184	0        	0.959184	0.959184
1319	2     	0.959184	0        	0.959184	0.959184
1320	2     	0.959184	0        	0.959184	0.959184
1321	2     	0.959184	0        	0.959184	0.959184
1322	2     	0.959184	0        	0.959184	0.959184
1323	2     	0.959184	0        	0.959184	0.959184
1324	2     	0.959184	0        	0.959184	0.959184
1325	2     	0.959184	0        	0.959184	0.959184
1326	2     	0.959184	0        	0.959184	0.959184
1327	2     	0.959184	0        	0.959184	0.959184
1328	2     	0.959184	0        	0.959184	0.959184
1329	2     	0.959184	0        	0.959184	0.959184
1330	2     	0.959184	0        	0.959184	0.959184
1331	2     	0.959184	0        	0.959184	0.959184
1332	2     	0.959184	0        	0.959184	0.959184
1333	2     	0.959184	0        	0.959184	0.959184
1334	2     	0.959184	0        	0.959184	0.959184
1335	2     	0.959184	0        	0.959184	0.959184
1336	2     	0.959184	0        	0.959184	0.959184
1337	2     	0.959184	0        	0.959184	0.959184
1338	2     	0.959184	0        	0.959184	0.959184
1339	2     	0.959184	0        	0.959184	0.959184
1340	2     	0.959184	0        	0.959184	0.959184
1341	2     	0.959184	0        	0.959184	0.959184
1342	2     	0.959184	0        	0.959184	0.959184
1343	2     	0.959184	0        	0.959184	0.959184
1344	2     	0.959184	0        	0.959184	0.959184
1345	2     	0.959184	0        	0.959184	0.959184
1346	2     	0.959184	0        	0.959184	0.959184
1347	2     	0.959184	0        	0.959184	0.959184
1348	2     	0.959184	0        	0.959184	0.959184
1349	2     	0.959184	0        	0.959184	0.959184
1350	2     	0.959184	0        	0.959184	0.959184
1351	2     	0.959184	0        	0.959184	0.959184
1352	2     	0.959184	0        	0.959184	0.959184
1353	2     	0.959184	0        	0.959184	0.959184
1354	2     	0.959184	0        	0.959184	0.959184
1355	2     	0.959184	0        	0.959184	0.959184
1356	2     	0.959184	0        	0.959184	0.959184
1357	2     	0.959184	0        	0.959184	0.959184
1358	2     	0.959184	0        	0.959184	0.959184
1359	2     	0.959184	0        	0.959184	0.959184
1360	2     	0.959184	0        	0.959184	0.959184
1361	2     	0.959184	0        	0.959184	0.959184
1362	2     	0.959184	0        	0.959184	0.959184
1363	2     	0.959184	0        	0.959184	0.959184
1364	2     	0.959184	0        	0.959184	0.959184
1365	2     	0.959184	0        	0.959184	0.959184
1366	2     	0.959184	0        	0.959184	0.959184
1367	2     	0.959184	0        	0.959184	0.959184
1368	2     	0.959184	0        	0.959184	0.959184
1369	2     	0.959184	0        	0.959184	0.959184
1370	2     	0.959184	0        	0.959184	0.959184
1371	2     	0.959184	0        	0.959184	0.959184
1372	2     	0.959184	0        	0.959184	0.959184
1373	2     	0.959184	0        	0.959184	0.959184
1374	2     	0.959184	0        	0.959184	0.959184
1375	2     	0.959184	0        	0.959184	0.959184
1376	2     	0.959184	0        	0.959184	0.959184
1377	2     	0.959184	0        	0.959184	0.959184
1378	2     	0.959184	0        	0.959184	0.959184
1379	2     	0.959184	0        	0.959184	0.959184
1380	2     	0.959184	0        	0.959184	0.959184
1381	2     	0.959184	0        	0.959184	0.959184
1382	2     	0.959184	0        	0.959184	0.959184
1383	2     	0.959184	0        	0.959184	0.959184
1384	2     	0.959184	0        	0.959184	0.959184
1385	2     	0.959184	0        	0.959184	0.959184
1386	2     	0.959184	0        	0.959184	0.959184
1387	2     	0.959184	0        	0.959184	0.959184
1388	2     	0.959184	0        	0.959184	0.959184
1389	2     	0.959184	0        	0.959184	0.959184
1390	2     	0.959184	0        	0.959184	0.959184
1391	2     	0.959184	0        	0.959184	0.959184
1392	2     	0.959184	0        	0.959184	0.959184
1393	2     	0.959184	0        	0.959184	0.959184
1394	2     	0.959184	0        	0.959184	0.959184
1395	2     	0.959184	0        	0.959184	0.959184
1396	2     	0.959184	0        	0.959184	0.959184
1397	2     	0.959184	0        	0.959184	0.959184
1398	2     	0.959184	0        	0.959184	0.959184
1399	2     	0.959184	0        	0.959184	0.959184
1400	2     	0.959184	0        	0.959184	0.959184
1401	2     	0.959184	0        	0.959184	0.959184
1402	2     	0.959184	0        	0.959184	0.959184
1403	2     	0.959184	0        	0.959184	0.959184
1404	2     	0.959184	0        	0.959184	0.959184
1405	2     	0.959184	0        	0.959184	0.959184
1406	2     	0.959184	0        	0.959184	0.959184
1407	2     	0.959184	0        	0.959184	0.959184
1408	2     	0.959184	0        	0.959184	0.959184
1409	2     	0.959184	0        	0.959184	0.959184
1410	2     	0.959184	0        	0.959184	0.959184
1411	2     	0.959184	0        	0.959184	0.959184
1412	2     	0.959184	0        	0.959184	0.959184
1413	2     	0.959184	0        	0.959184	0.959184
1414	2     	0.959184	0        	0.959184	0.959184
1415	2     	0.969388	0.0102041	0.959184	0.979592
1416	2     	0.969388	0.0102041	0.959184	0.979592
1417	2     	0.969388	0.0102041	0.959184	0.979592
1418	2     	0.969388	0.0102041	0.959184	0.979592
1419	2     	0.969388	0.0102041	0.959184	0.979592
1420	2     	0.969388	0.0102041	0.959184	0.979592
1421	2     	0.969388	0.0102041	0.959184	0.979592
1422	2     	0.969388	0.0102041	0.959184	0.979592
1423	2     	0.969388	0.0102041	0.959184	0.979592
1424	2     	0.969388	0.0102041	0.959184	0.979592
1425	2     	0.969388	0.0102041	0.959184	0.979592
1426	2     	0.969388	0.0102041	0.959184	0.979592
1427	2     	0.969388	0.0102041	0.959184	0.979592
1428	2     	0.969388	0.0102041	0.959184	0.979592
1429	2     	0.969388	0.0102041	0.959184	0.979592
1430	2     	0.969388	0.0102041	0.959184	0.979592
1431	2     	0.969388	0.0102041	0.959184	0.979592
1432	2     	0.969388	0.0102041	0.959184	0.979592
1433	2     	0.969388	0.0102041	0.959184	0.979592
1434	2     	0.969388	0.0102041	0.959184	0.979592
1435	2     	0.969388	0.0102041	0.959184	0.979592
1436	2     	0.969388	0.0102041	0.959184	0.979592
1437	2     	0.969388	0.0102041	0.959184	0.979592
1438	2     	0.969388	0.0102041	0.959184	0.979592
1439	2     	0.969388	0.0102041	0.959184	0.979592
1440	2     	0.969388	0.0102041	0.959184	0.979592
1441	2     	0.969388	0.0102041	0.959184	0.979592
1442	2     	0.969388	0.0102041	0.959184	0.979592
1443	2     	0.969388	0.0102041	0.959184	0.979592
1444	2     	0.969388	0.0102041	0.959184	0.979592
1445	2     	0.969388	0.0102041	0.959184	0.979592
1446	2     	0.969388	0.0102041	0.959184	0.979592
1447	2     	0.969388	0.0102041	0.959184	0.979592
1448	2     	0.969388	0.0102041	0.959184	0.979592
1449	2     	0.969388	0.0102041	0.959184	0.979592
1450	2     	0.969388	0.0102041	0.959184	0.979592
1451	2     	0.969388	0.0102041	0.959184	0.979592
1452	2     	0.969388	0.0102041	0.959184	0.979592
1453	2     	0.969388	0.0102041	0.959184	0.979592
1454	2     	0.969388	0.0102041	0.959184	0.979592
1455	2     	0.969388	0.0102041	0.959184	0.979592
1456	2     	0.969388	0.0102041	0.959184	0.979592
1457	2     	0.969388	0.0102041	0.959184	0.979592
1458	2     	0.969388	0.0102041	0.959184	0.979592
1459	2     	0.969388	0.0102041	0.959184	0.979592
1460	2     	0.969388	0.0102041	0.959184	0.979592
1461	2     	0.969388	0.0102041	0.959184	0.979592
1462	2     	0.969388	0.0102041	0.959184	0.979592
1463	2     	0.969388	0.0102041	0.959184	0.979592
1464	2     	0.969388	0.0102041	0.959184	0.979592
1465	2     	0.969388	0.0102041	0.959184	0.979592
1466	2     	0.969388	0.0102041	0.959184	0.979592
1467	2     	0.969388	0.0102041	0.959184	0.979592
1468	2     	0.969388	0.0102041	0.959184	0.979592
1469	2     	0.969388	0.0102041	0.959184	0.979592
1470	2     	0.969388	0.0102041	0.959184	0.979592
1471	2     	0.969388	0.0102041	0.959184	0.979592
1472	2     	0.969388	0.0102041	0.959184	0.979592
1473	2     	0.969388	0.0102041	0.959184	0.979592
1474	2     	0.969388	0.0102041	0.959184	0.979592
1475	2     	0.969388	0.0102041	0.959184	0.979592
1476	2     	0.969388	0.0102041	0.959184	0.979592
1477	2     	0.969388	0.0102041	0.959184	0.979592
1478	2     	0.969388	0.0102041	0.959184	0.979592
1479	2     	0.969388	0.0102041	0.959184	0.979592
1480	2     	0.969388	0.0102041	0.959184	0.979592
1481	2     	0.969388	0.0102041	0.959184	0.979592
1482	2     	0.969388	0.0102041	0.959184	0.979592
1483	2     	0.969388	0.0102041	0.959184	0.979592
1484	2     	0.969388	0.0102041	0.959184	0.979592
1485	2     	0.969388	0.0102041	0.959184	0.979592
1486	2     	0.969388	0.0102041	0.959184	0.979592
1487	2     	0.969388	0.0102041	0.959184	0.979592
1488	2     	0.969388	0.0102041	0.959184	0.979592
1489	2     	0.969388	0.0102041	0.959184	0.979592
1490	2     	0.969388	0.0102041	0.959184	0.979592
1491	2     	0.969388	0.0102041	0.959184	0.979592
1492	2     	0.969388	0.0102041	0.959184	0.979592
1493	2     	0.969388	0.0102041	0.959184	0.979592
1494	2     	0.969388	0.0102041	0.959184	0.979592
1495	2     	0.969388	0.0102041	0.959184	0.979592
1496	2     	0.969388	0.0102041	0.959184	0.979592
1497	2     	0.969388	0.0102041	0.959184	0.979592
1498	2     	0.969388	0.0102041	0.959184	0.979592
1499	2     	0.969388	0.0102041	0.959184	0.979592
1500	2     	0.969388	0.0102041	0.959184	0.979592
1501	2     	0.969388	0.0102041	0.959184	0.979592
1502	2     	0.969388	0.0102041	0.959184	0.979592
1503	2     	0.969388	0.0102041	0.959184	0.979592
1504	2     	0.969388	0.0102041	0.959184	0.979592
1505	2     	0.969388	0.0102041	0.959184	0.979592
1506	2     	0.969388	0.0102041	0.959184	0.979592
1507	2     	0.969388	0.0102041	0.959184	0.979592
1508	2     	0.969388	0.0102041	0.959184	0.979592
1509	2     	0.969388	0.0102041	0.959184	0.979592
1510	2     	0.969388	0.0102041	0.959184	0.979592
1511	2     	0.969388	0.0102041	0.959184	0.979592
1512	2     	0.969388	0.0102041	0.959184	0.979592
1513	2     	0.969388	0.0102041	0.959184	0.979592
1514	2     	0.969388	0.0102041	0.959184	0.979592
1515	2     	0.969388	0.0102041	0.959184	0.979592
1516	2     	0.969388	0.0102041	0.959184	0.979592
1517	2     	0.969388	0.0102041	0.959184	0.979592
1518	2     	0.969388	0.0102041	0.959184	0.979592
1519	2     	0.969388	0.0102041	0.959184	0.979592
1520	2     	0.969388	0.0102041	0.959184	0.979592
1521	2     	0.969388	0.0102041	0.959184	0.979592
1522	2     	0.969388	0.0102041	0.959184	0.979592
1523	2     	0.969388	0.0102041	0.959184	0.979592
1524	2     	0.969388	0.0102041	0.959184	0.979592
1525	2     	0.969388	0.0102041	0.959184	0.979592
1526	2     	0.969388	0.0102041	0.959184	0.979592
1527	2     	0.969388	0.0102041	0.959184	0.979592
1528	2     	0.969388	0.0102041	0.959184	0.979592
1529	2     	0.969388	0.0102041	0.959184	0.979592
1530	2     	0.969388	0.0102041	0.959184	0.979592
1531	2     	0.969388	0.0102041	0.959184	0.979592
1532	2     	0.969388	0.0102041	0.959184	0.979592
1533	2     	0.969388	0.0102041	0.959184	0.979592
1534	2     	0.969388	0.0102041	0.959184	0.979592
1535	2     	0.969388	0.0102041	0.959184	0.979592
1536	2     	0.969388	0.0102041	0.959184	0.979592
1537	2     	0.969388	0.0102041	0.959184	0.979592
1538	2     	0.969388	0.0102041	0.959184	0.979592
1539	2     	0.969388	0.0102041	0.959184	0.979592
1540	2     	0.969388	0.0102041	0.959184	0.979592
1541	2     	0.969388	0.0102041	0.959184	0.979592
1542	2     	0.969388	0.0102041	0.959184	0.979592
1543	2     	0.969388	0.0102041	0.959184	0.979592
1544	2     	0.969388	0.0102041	0.959184	0.979592
1545	2     	0.969388	0.0102041	0.959184	0.979592
1546	2     	0.969388	0.0102041	0.959184	0.979592
1547	2     	0.969388	0.0102041	0.959184	0.979592
1548	2     	0.969388	0.0102041	0.959184	0.979592
1549	2     	0.969388	0.0102041	0.959184	0.979592
1550	2     	0.969388	0.0102041	0.959184	0.979592
1551	2     	0.969388	0.0102041	0.959184	0.979592
1552	2     	0.969388	0.0102041	0.959184	0.979592
1553	2     	0.969388	0.0102041	0.959184	0.979592
1554	2     	0.969388	0.0102041	0.959184	0.979592
1555	2     	0.969388	0.0102041	0.959184	0.979592
1556	2     	0.969388	0.0102041	0.959184	0.979592
1557	2     	0.969388	0.0102041	0.959184	0.979592
1558	2     	0.969388	0.0102041	0.959184	0.979592
1559	2     	0.969388	0.0102041	0.959184	0.979592
1560	2     	0.969388	0.0102041	0.959184	0.979592
1561	2     	0.969388	0.0102041	0.959184	0.979592
1562	2     	0.969388	0.0102041	0.959184	0.979592
1563	2     	0.969388	0.0102041	0.959184	0.979592
1564	2     	0.969388	0.0102041	0.959184	0.979592
1565	2     	0.969388	0.0102041	0.959184	0.979592
1566	2     	0.969388	0.0102041	0.959184	0.979592
1567	2     	0.969388	0.0102041	0.959184	0.979592
1568	2     	0.969388	0.0102041	0.959184	0.979592
1569	2     	0.969388	0.0102041	0.959184	0.979592
1570	2     	0.969388	0.0102041	0.959184	0.979592
1571	2     	0.969388	0.0102041	0.959184	0.979592
1572	2     	0.969388	0.0102041	0.959184	0.979592
1573	2     	0.969388	0.0102041	0.959184	0.979592
1574	2     	0.969388	0.0102041	0.959184	0.979592
1575	2     	0.969388	0.0102041	0.959184	0.979592
1576	2     	0.969388	0.0102041	0.959184	0.979592
1577	2     	0.969388	0.0102041	0.959184	0.979592
1578	2     	0.979592	0        	0.979592	0.979592
1579	2     	0.979592	0        	0.979592	0.979592
1580	2     	0.979592	0        	0.979592	0.979592
1581	2     	0.979592	0        	0.979592	0.979592
1582	2     	0.979592	0        	0.979592	0.979592
1583	2     	0.979592	0        	0.979592	0.979592
1584	2     	0.979592	0        	0.979592	0.979592
1585	2     	0.979592	0        	0.979592	0.979592
1586	2     	0.979592	0        	0.979592	0.979592
1587	2     	0.979592	0        	0.979592	0.979592
1588	2     	0.979592	0        	0.979592	0.979592
1589	2     	0.979592	0        	0.979592	0.979592
1590	2     	0.979592	0        	0.979592	0.979592
1591	2     	0.979592	0        	0.979592	0.979592
1592	2     	0.979592	0        	0.979592	0.979592
1593	2     	0.979592	0        	0.979592	0.979592
1594	2     	0.979592	0        	0.979592	0.979592
1595	2     	0.979592	0        	0.979592	0.979592
1596	2     	0.979592	0        	0.979592	0.979592
1597	2     	0.979592	0        	0.979592	0.979592
1598	2     	0.979592	0        	0.979592	0.979592
1599	2     	0.979592	0        	0.979592	0.979592
1600	2     	0.979592	0        	0.979592	0.979592
1601	2     	0.979592	0        	0.979592	0.979592
1602	2     	0.979592	0        	0.979592	0.979592
1603	2     	0.979592	0        	0.979592	0.979592
1604	2     	0.979592	0        	0.979592	0.979592
1605	2     	0.979592	0        	0.979592	0.979592
1606	2     	0.979592	0        	0.979592	0.979592
1607	2     	0.979592	0        	0.979592	0.979592
1608	2     	0.979592	0        	0.979592	0.979592
1609	2     	0.979592	0        	0.979592	0.979592
1610	2     	0.979592	0        	0.979592	0.979592
1611	2     	0.979592	0        	0.979592	0.979592
1612	2     	0.979592	0        	0.979592	0.979592
1613	2     	0.979592	0        	0.979592	0.979592
1614	2     	0.979592	0        	0.979592	0.979592
1615	2     	0.979592	0        	0.979592	0.979592
1616	2     	0.979592	0        	0.979592	0.979592
1617	2     	0.979592	0        	0.979592	0.979592
1618	2     	0.979592	0        	0.979592	0.979592
1619	2     	0.979592	0        	0.979592	0.979592
1620	2     	0.979592	0        	0.979592	0.979592
1621	2     	0.979592	0        	0.979592	0.979592
1622	2     	0.979592	0        	0.979592	0.979592
1623	2     	0.979592	0        	0.979592	0.979592
1624	2     	0.979592	0        	0.979592	0.979592
1625	2     	0.979592	0        	0.979592	0.979592
1626	2     	0.979592	0        	0.979592	0.979592
1627	2     	0.979592	0        	0.979592	0.979592
1628	2     	0.979592	0        	0.979592	0.979592
1629	2     	0.979592	0        	0.979592	0.979592
1630	2     	0.979592	0        	0.979592	0.979592
1631	2     	0.979592	0        	0.979592	0.979592
1632	2     	0.979592	0        	0.979592	0.979592
1633	2     	0.979592	0        	0.979592	0.979592
1634	2     	0.979592	0        	0.979592	0.979592
1635	2     	0.979592	0        	0.979592	0.979592
1636	2     	0.979592	0        	0.979592	0.979592
1637	2     	0.979592	0        	0.979592	0.979592
1638	2     	0.979592	0        	0.979592	0.979592
1639	2     	0.979592	0        	0.979592	0.979592
1640	2     	0.979592	0        	0.979592	0.979592
1641	2     	0.979592	0        	0.979592	0.979592
1642	2     	0.979592	0        	0.979592	0.979592
1643	2     	0.979592	0        	0.979592	0.979592
1644	2     	0.979592	0        	0.979592	0.979592
1645	2     	0.979592	0        	0.979592	0.979592
1646	2     	0.979592	0        	0.979592	0.979592
1647	2     	0.979592	0        	0.979592	0.979592
1648	2     	0.979592	0        	0.979592	0.979592
1649	2     	0.979592	0        	0.979592	0.979592
1650	2     	0.979592	0        	0.979592	0.979592
1651	2     	0.979592	0        	0.979592	0.979592
1652	2     	0.979592	0        	0.979592	0.979592
1653	2     	0.979592	0        	0.979592	0.979592
1654	2     	0.979592	0        	0.979592	0.979592
1655	2     	0.979592	0        	0.979592	0.979592
1656	2     	0.979592	0        	0.979592	0.979592
1657	2     	0.979592	0        	0.979592	0.979592
1658	2     	0.979592	0        	0.979592	0.979592
1659	2     	0.979592	0        	0.979592	0.979592
1660	2     	0.979592	0        	0.979592	0.979592
1661	2     	0.979592	0        	0.979592	0.979592
1662	2     	0.979592	0        	0.979592	0.979592
1663	2     	0.979592	0        	0.979592	0.979592
1664	2     	0.979592	0        	0.979592	0.979592
1665	2     	0.979592	0        	0.979592	0.979592
1666	2     	0.979592	0        	0.979592	0.979592
1667	2     	0.979592	0        	0.979592	0.979592
1668	2     	0.979592	0        	0.979592	0.979592
1669	2     	0.979592	0        	0.979592	0.979592
1670	2     	0.979592	0        	0.979592	0.979592
1671	2     	0.979592	0        	0.979592	0.979592
1672	2     	0.979592	0        	0.979592	0.979592
1673	2     	0.979592	0        	0.979592	0.979592
1674	2     	0.979592	0        	0.979592	0.979592
1675	2     	0.979592	0        	0.979592	0.979592
1676	2     	0.979592	0        	0.979592	0.979592
1677	2     	0.979592	0        	0.979592	0.979592
1678	2     	0.979592	0        	0.979592	0.979592
1679	2     	0.979592	0        	0.979592	0.979592
1680	2     	0.979592	0        	0.979592	0.979592
1681	2     	0.979592	0        	0.979592	0.979592
1682	2     	0.979592	0        	0.979592	0.979592
1683	2     	0.979592	0        	0.979592	0.979592
1684	2     	0.979592	0        	0.979592	0.979592
1685	2     	0.979592	0        	0.979592	0.979592
1686	2     	0.979592	0        	0.979592	0.979592
1687	2     	0.979592	0        	0.979592	0.979592
1688	2     	0.979592	0        	0.979592	0.979592
1689	2     	0.979592	0        	0.979592	0.979592
1690	2     	0.979592	0        	0.979592	0.979592
1691	2     	0.979592	0        	0.979592	0.979592
1692	2     	0.979592	0        	0.979592	0.979592
1693	2     	0.979592	0        	0.979592	0.979592
1694	2     	0.979592	0        	0.979592	0.979592
1695	2     	0.979592	0        	0.979592	0.979592
1696	2     	0.979592	0        	0.979592	0.979592
1697	2     	0.979592	0        	0.979592	0.979592
1698	2     	0.979592	0        	0.979592	0.979592
1699	2     	0.979592	0        	0.979592	0.979592
1700	2     	0.979592	0        	0.979592	0.979592
1701	2     	0.979592	0        	0.979592	0.979592
1702	2     	0.979592	0        	0.979592	0.979592
1703	2     	0.979592	0        	0.979592	0.979592
1704	2     	0.979592	0        	0.979592	0.979592
1705	2     	0.979592	0        	0.979592	0.979592
1706	2     	0.979592	0        	0.979592	0.979592
1707	2     	0.979592	0        	0.979592	0.979592
1708	2     	0.979592	0        	0.979592	0.979592
1709	2     	0.979592	0        	0.979592	0.979592
1710	2     	0.979592	0        	0.979592	0.979592
1711	2     	0.979592	0        	0.979592	0.979592
1712	2     	0.979592	0        	0.979592	0.979592
1713	2     	0.979592	0        	0.979592	0.979592
1714	2     	0.979592	0        	0.979592	0.979592
1715	2     	0.979592	0        	0.979592	0.979592
1716	2     	0.979592	0        	0.979592	0.979592
1717	2     	0.979592	0        	0.979592	0.979592
1718	2     	0.979592	0        	0.979592	0.979592
1719	2     	0.979592	0        	0.979592	0.979592
1720	2     	0.979592	0        	0.979592	0.979592
1721	2     	0.979592	0        	0.979592	0.979592
1722	2     	0.979592	0        	0.979592	0.979592
1723	2     	0.979592	0        	0.979592	0.979592
1724	2     	0.979592	0        	0.979592	0.979592
1725	2     	0.979592	0        	0.979592	0.979592
1726	2     	0.979592	0        	0.979592	0.979592
1727	2     	0.979592	0        	0.979592	0.979592
1728	2     	0.979592	0        	0.979592	0.979592
1729	2     	0.979592	0        	0.979592	0.979592
1730	2     	0.979592	0        	0.979592	0.979592
1731	2     	0.979592	0        	0.979592	0.979592
1732	2     	0.979592	0        	0.979592	0.979592
1733	2     	0.979592	0        	0.979592	0.979592
1734	2     	0.979592	0        	0.979592	0.979592
1735	2     	0.979592	0        	0.979592	0.979592
1736	2     	0.979592	0        	0.979592	0.979592
1737	2     	0.979592	0        	0.979592	0.979592
1738	2     	0.979592	0        	0.979592	0.979592
1739	2     	0.979592	0        	0.979592	0.979592
1740	2     	0.979592	0        	0.979592	0.979592
1741	2     	0.979592	0        	0.979592	0.979592
1742	2     	0.979592	0        	0.979592	0.979592
1743	2     	0.979592	0        	0.979592	0.979592
1744	2     	0.979592	0        	0.979592	0.979592
1745	2     	0.979592	0        	0.979592	0.979592
1746	2     	0.979592	0        	0.979592	0.979592
1747	2     	0.979592	0        	0.979592	0.979592
1748	2     	0.979592	0        	0.979592	0.979592
1749	2     	0.979592	0        	0.979592	0.979592
1750	2     	0.979592	0        	0.979592	0.979592
1751	2     	0.979592	0        	0.979592	0.979592
1752	2     	0.979592	0        	0.979592	0.979592
1753	2     	0.979592	0        	0.979592	0.979592
1754	2     	0.979592	0        	0.979592	0.979592
1755	2     	0.979592	0        	0.979592	0.979592
1756	2     	0.979592	0        	0.979592	0.979592
1757	2     	0.979592	0        	0.979592	0.979592
1758	2     	0.979592	0        	0.979592	0.979592
1759	2     	0.979592	0        	0.979592	0.979592
1760	2     	0.979592	0        	0.979592	0.979592
1761	2     	0.979592	0        	0.979592	0.979592
1762	2     	0.979592	0        	0.979592	0.979592
1763	2     	0.979592	0        	0.979592	0.979592
1764	2     	0.979592	0        	0.979592	0.979592
1765	2     	0.979592	0        	0.979592	0.979592
1766	2     	0.979592	0        	0.979592	0.979592
1767	2     	0.979592	0        	0.979592	0.979592
1768	2     	0.979592	0        	0.979592	0.979592
1769	2     	0.979592	0        	0.979592	0.979592
1770	2     	0.979592	0        	0.979592	0.979592
1771	2     	0.979592	0        	0.979592	0.979592
1772	2     	0.979592	0        	0.979592	0.979592
1773	2     	0.979592	0        	0.979592	0.979592
1774	2     	0.979592	0        	0.979592	0.979592
1775	2     	0.979592	0        	0.979592	0.979592
1776	2     	0.979592	0        	0.979592	0.979592
1777	2     	0.979592	0        	0.979592	0.979592
1778	2     	0.979592	0        	0.979592	0.979592
1779	2     	0.979592	0        	0.979592	0.979592
1780	2     	0.979592	0        	0.979592	0.979592
1781	2     	0.979592	0        	0.979592	0.979592
1782	2     	0.979592	0        	0.979592	0.979592
1783	2     	0.979592	0        	0.979592	0.979592
1784	2     	0.979592	0        	0.979592	0.979592
1785	2     	0.979592	0        	0.979592	0.979592
1786	2     	0.979592	0        	0.979592	0.979592
1787	2     	0.979592	0        	0.979592	0.979592
1788	2     	0.979592	0        	0.979592	0.979592
1789	2     	0.979592	0        	0.979592	0.979592
1790	2     	0.979592	0        	0.979592	0.979592
1791	2     	0.979592	0        	0.979592	0.979592
1792	2     	0.979592	0        	0.979592	0.979592
1793	2     	0.979592	0        	0.979592	0.979592
1794	2     	0.979592	0        	0.979592	0.979592
1795	2     	0.979592	0        	0.979592	0.979592
1796	2     	0.979592	0        	0.979592	0.979592
1797	2     	0.979592	0        	0.979592	0.979592
1798	2     	0.979592	0        	0.979592	0.979592
1799	2     	0.979592	0        	0.979592	0.979592
1800	2     	0.979592	0        	0.979592	0.979592
1801	2     	0.979592	0        	0.979592	0.979592
1802	2     	0.979592	0        	0.979592	0.979592
1803	2     	0.979592	0        	0.979592	0.979592
1804	2     	0.979592	0        	0.979592	0.979592
1805	2     	0.979592	0        	0.979592	0.979592
1806	2     	0.979592	0        	0.979592	0.979592
1807	2     	0.979592	0        	0.979592	0.979592
1808	2     	0.979592	0        	0.979592	0.979592
1809	2     	0.979592	0        	0.979592	0.979592
1810	2     	0.979592	0        	0.979592	0.979592
1811	2     	0.979592	0        	0.979592	0.979592
1812	2     	0.979592	0        	0.979592	0.979592
1813	2     	0.979592	0        	0.979592	0.979592
1814	2     	0.979592	0        	0.979592	0.979592
1815	2     	0.979592	0        	0.979592	0.979592
1816	2     	0.979592	0        	0.979592	0.979592
1817	2     	0.979592	0        	0.979592	0.979592
1818	2     	0.979592	0        	0.979592	0.979592
1819	2     	0.979592	0        	0.979592	0.979592
1820	2     	0.979592	0        	0.979592	0.979592
1821	2     	0.979592	0        	0.979592	0.979592
1822	2     	0.979592	0        	0.979592	0.979592
1823	2     	0.979592	0        	0.979592	0.979592
1824	2     	0.979592	0        	0.979592	0.979592
1825	2     	0.979592	0        	0.979592	0.979592
1826	2     	0.979592	0        	0.979592	0.979592
1827	2     	0.979592	0        	0.979592	0.979592
1828	2     	0.979592	0        	0.979592	0.979592
1829	2     	0.979592	0        	0.979592	0.979592
1830	2     	0.979592	0        	0.979592	0.979592
1831	2     	0.979592	0        	0.979592	0.979592
1832	2     	0.979592	0        	0.979592	0.979592
1833	2     	0.979592	0        	0.979592	0.979592
1834	2     	0.979592	0        	0.979592	0.979592
1835	2     	0.979592	0        	0.979592	0.979592
1836	2     	0.979592	0        	0.979592	0.979592
1837	2     	0.979592	0        	0.979592	0.979592
1838	2     	0.979592	0        	0.979592	0.979592
1839	2     	0.979592	0        	0.979592	0.979592
1840	2     	0.979592	0        	0.979592	0.979592
1841	2     	0.979592	0        	0.979592	0.979592
1842	2     	0.979592	0        	0.979592	0.979592
1843	2     	0.979592	0        	0.979592	0.979592
1844	2     	0.979592	0        	0.979592	0.979592
1845	2     	0.979592	0        	0.979592	0.979592
1846	2     	0.979592	0        	0.979592	0.979592
1847	2     	0.979592	0        	0.979592	0.979592
1848	2     	0.979592	0        	0.979592	0.979592
1849	2     	0.979592	0        	0.979592	0.979592
1850	2     	0.979592	0        	0.979592	0.979592
1851	2     	0.979592	0        	0.979592	0.979592
1852	2     	0.979592	0        	0.979592	0.979592
1853	2     	0.979592	0        	0.979592	0.979592
1854	2     	0.979592	0        	0.979592	0.979592
1855	2     	0.979592	0        	0.979592	0.979592
1856	2     	0.979592	0        	0.979592	0.979592
1857	2     	0.979592	0        	0.979592	0.979592
1858	2     	0.979592	0        	0.979592	0.979592
1859	2     	0.979592	0        	0.979592	0.979592
1860	2     	0.979592	0        	0.979592	0.979592
1861	2     	0.979592	0        	0.979592	0.979592
1862	2     	0.979592	0        	0.979592	0.979592
1863	2     	0.979592	0        	0.979592	0.979592
1864	2     	0.979592	0        	0.979592	0.979592
1865	2     	0.979592	0        	0.979592	0.979592
1866	2     	0.979592	0        	0.979592	0.979592
1867	2     	0.979592	0        	0.979592	0.979592
1868	2     	0.979592	0        	0.979592	0.979592
1869	2     	0.979592	0        	0.979592	0.979592
1870	2     	0.979592	0        	0.979592	0.979592
1871	2     	0.979592	0        	0.979592	0.979592
1872	2     	0.979592	0        	0.979592	0.979592
1873	2     	0.979592	0        	0.979592	0.979592
1874	2     	0.979592	0        	0.979592	0.979592
1875	2     	0.979592	0        	0.979592	0.979592
1876	2     	0.979592	0        	0.979592	0.979592
1877	2     	0.979592	0        	0.979592	0.979592
1878	2     	0.979592	0        	0.979592	0.979592
1879	2     	0.979592	0        	0.979592	0.979592
1880	2     	0.979592	0        	0.979592	0.979592
1881	2     	0.979592	0        	0.979592	0.979592
1882	2     	0.979592	0        	0.979592	0.979592
1883	2     	0.979592	0        	0.979592	0.979592
1884	2     	0.979592	0        	0.979592	0.979592
1885	2     	0.979592	0        	0.979592	0.979592
1886	2     	0.979592	0        	0.979592	0.979592
1887	2     	0.979592	0        	0.979592	0.979592
1888	2     	0.979592	0        	0.979592	0.979592
1889	2     	0.979592	0        	0.979592	0.979592
1890	2     	0.979592	0        	0.979592	0.979592
1891	2     	0.979592	0        	0.979592	0.979592
1892	2     	0.979592	0        	0.979592	0.979592
1893	2     	0.979592	0        	0.979592	0.979592
1894	2     	0.979592	0        	0.979592	0.979592
1895	2     	0.979592	0        	0.979592	0.979592
1896	2     	0.979592	0        	0.979592	0.979592
1897	2     	0.979592	0        	0.979592	0.979592
1898	2     	0.979592	0        	0.979592	0.979592
1899	2     	0.979592	0        	0.979592	0.979592
1900	2     	0.979592	0        	0.979592	0.979592
1901	2     	0.979592	0        	0.979592	0.979592
1902	2     	0.979592	0        	0.979592	0.979592
1903	2     	0.979592	0        	0.979592	0.979592
1904	2     	0.979592	0        	0.979592	0.979592
1905	2     	0.979592	0        	0.979592	0.979592
1906	2     	0.979592	0        	0.979592	0.979592
1907	2     	0.979592	0        	0.979592	0.979592
1908	2     	0.979592	0        	0.979592	0.979592
1909	2     	0.979592	0        	0.979592	0.979592
1910	2     	0.979592	0        	0.979592	0.979592
1911	2     	0.979592	0        	0.979592	0.979592
1912	2     	0.979592	0        	0.979592	0.979592
1913	2     	0.989796	0.0102041	0.979592	1       