gen 	nevals	avg     	std      	min     	max     
0   	2     	0.408163	0.0204082	0.387755	0.428571
1   	2     	0.438776	0.0102041	0.428571	0.44898 
2   	2     	0.438776	0.0102041	0.428571	0.44898 
3   	2     	0.5     	0.0510204	0.44898 	0.55102 
4   	2     	0.540816	0.0102041	0.530612	0.55102 
5   	2     	0.55102 	0        	0.55102 	0.55102 
6   	2     	0.55102 	0        	0.55102 	0.55102 
7   	2     	0.561224	0.0102041	0.55102 	0.571429
8   	2     	0.571429	0        	0.571429	0.571429
9   	2     	0.602041	0.0306122	0.571429	0.632653
10  	2     	0.642857	0.0102041	0.632653	0.653061
11  	2     	0.642857	0.0102041	0.632653	0.653061
12  	2     	0.653061	0        	0.653061	0.653061
13  	2     	0.683673	0.0306122	0.653061	0.714286
14  	2     	0.714286	0        	0.714286	0.714286
15  	2     	0.72449 	0.0102041	0.714286	0.734694
16  	2     	0.72449 	0.0102041	0.714286	0.734694
17  	2     	0.72449 	0.0102041	0.714286	0.734694
18  	2     	0.72449 	0.0102041	0.714286	0.734694
19  	2     	0.72449 	0.0102041	0.714286	0.734694
20  	2     	0.734694	0        	0.734694	0.734694
21  	2     	0.734694	0        	0.734694	0.734694
22  	2     	0.734694	0        	0.734694	0.734694
23  	2     	0.734694	0        	0.734694	0.734694
24  	2     	0.734694	0        	0.734694	0.734694
25  	2     	0.734694	0        	0.734694	0.734694
26  	2     	0.734694	0        	0.734694	0.734694
27  	2     	0.744898	0.0102041	0.734694	0.755102
28  	2     	0.744898	0.0102041	0.734694	0.755102
29  	2     	0.765306	0.0102041	0.755102	0.77551 
30  	2     	0.765306	0.0102041	0.755102	0.77551 
31  	2     	0.785714	0.0102041	0.77551 	0.795918
32  	2     	0.795918	0        	0.795918	0.795918
33  	2     	0.795918	0        	0.795918	0.795918
34  	2     	0.795918	0        	0.795918	0.795918
35  	2     	0.795918	0        	0.795918	0.795918
36  	2     	0.795918	0        	0.795918	0.795918
37  	2     	0.795918	0        	0.795918	0.795918
38  	2     	0.795918	0        	0.795918	0.795918
39  	2     	0.795918	0        	0.795918	0.795918
40  	2     	0.795918	0        	0.795918	0.795918
41  	2     	0.795918	0        	0.795918	0.795918
42  	2     	0.795918	0        	0.795918	0.795918
43  	2     	0.795918	0        	0.795918	0.795918
44  	2     	0.795918	0        	0.795918	0.795918
45  	2     	0.795918	0        	0.795918	0.795918
46  	2     	0.795918	0        	0.795918	0.795918
47  	2     	0.795918	0        	0.795918	0.795918
48  	2     	0.795918	0        	0.795918	0.795918
49  	2     	0.795918	0        	0.795918	0.795918
50  	2     	0.806122	0.0102041	0.795918	0.816327
51  	2     	0.806122	0.0102041	0.795918	0.816327
52  	2     	0.806122	0.0102041	0.795918	0.816327
53  	2     	0.826531	0.0102041	0.816327	0.836735
54  	2     	0.826531	0.0102041	0.816327	0.836735
55  	2     	0.826531	0.0102041	0.816327	0.836735
56  	2     	0.836735	0        	0.836735	0.836735
57  	2     	0.836735	0        	0.836735	0.836735
58  	2     	0.836735	0        	0.836735	0.836735
59  	2     	0.836735	0        	0.836735	0.836735
60  	2     	0.846939	0.0102041	0.836735	0.857143
61  	2     	0.867347	0.0102041	0.857143	0.877551
62  	2     	0.867347	0.0102041	0.857143	0.877551
63  	2     	0.867347	0.0102041	0.857143	0.877551
64  	2     	0.867347	0.0102041	0.857143	0.877551
65  	2     	0.867347	0.0102041	0.857143	0.877551
66  	2     	0.867347	0.0102041	0.857143	0.877551
67  	2     	0.867347	0.0102041	0.857143	0.877551
68  	2     	0.867347	0.0102041	0.857143	0.877551
69  	2     	0.867347	0.0102041	0.857143	0.877551
70  	2     	0.867347	0.0102041	0.857143	0.877551
71  	2     	0.867347	0.0102041	0.857143	0.877551
72  	2     	0.867347	0.0102041	0.857143	0.877551
73  	2     	0.867347	0.0102041	0.857143	0.877551
74  	2     	0.867347	0.0102041	0.857143	0.877551
75  	2     	0.867347	0.0102041	0.857143	0.877551
76  	2     	0.867347	0.0102041	0.857143	0.877551
77  	2     	0.867347	0.0102041	0.857143	0.877551
78  	2     	0.867347	0.0102041	0.857143	0.877551
79  	2     	0.867347	0.0102041	0.857143	0.877551
80  	2     	0.867347	0.0102041	0.857143	0.877551
81  	2     	0.867347	0.0102041	0.857143	0.877551
82  	2     	0.867347	0.0102041	0.857143	0.877551
83  	2     	0.867347	0.0102041	0.857143	0.877551
84  	2     	0.867347	0.0102041	0.857143	0.877551
85  	2     	0.867347	0.0102041	0.857143	0.877551
86  	2     	0.867347	0.0102041	0.857143	0.877551
87  	2     	0.867347	0.0102041	0.857143	0.877551
88  	2     	0.867347	0.0102041	0.857143	0.877551
89  	2     	0.867347	0.0102041	0.857143	0.877551
90  	2     	0.867347	0.0102041	0.857143	0.877551
91  	2     	0.867347	0.0102041	0.857143	0.877551
92  	2     	0.867347	0.0102041	0.857143	0.877551
93  	2     	0.867347	0.0102041	0.857143	0.877551
94  	2     	0.867347	0.0102041	0.857143	0.877551
95  	2     	0.867347	0.0102041	0.857143	0.877551
96  	2     	0.867347	0.0102041	0.857143	0.877551
97  	2     	0.867347	0.0102041	0.857143	0.877551
98  	2     	0.867347	0.0102041	0.857143	0.877551
99  	2     	0.867347	0.0102041	0.857143	0.877551
100 	2     	0.867347	0.0102041	0.857143	0.877551
101 	2     	0.867347	0.0102041	0.857143	0.877551
102 	2     	0.867347	0.0102041	0.857143	0.877551
103 	2     	0.867347	0.0102041	0.857143	0.877551
104 	2     	0.867347	0.0102041	0.857143	0.877551
105 	2     	0.867347	0.0102041	0.857143	0.877551
106 	2     	0.867347	0.0102041	0.857143	0.877551
107 	2     	0.867347	0.0102041	0.857143	0.877551
108 	2     	0.867347	0.0102041	0.857143	0.877551
109 	2     	0.867347	0.0102041	0.857143	0.877551
110 	2     	0.867347	0.0102041	0.857143	0.877551
111 	2     	0.867347	0.0102041	0.857143	0.877551
112 	2     	0.867347	0.0102041	0.857143	0.877551
113 	2     	0.867347	0.0102041	0.857143	0.877551
114 	2     	0.867347	0.0102041	0.857143	0.877551
115 	2     	0.867347	0.0102041	0.857143	0.877551
116 	2     	0.867347	0.0102041	0.857143	0.877551
117 	2     	0.867347	0.0102041	0.857143	0.877551
118 	2     	0.887755	0.0102041	0.877551	0.897959
119 	2     	0.887755	0.0102041	0.877551	0.897959
120 	2     	0.887755	0.0102041	0.877551	0.897959
121 	2     	0.887755	0.0102041	0.877551	0.897959
122 	2     	0.887755	0.0102041	0.877551	0.897959
123 	2     	0.887755	0.0102041	0.877551	0.897959
124 	2     	0.887755	0.0102041	0.877551	0.897959
125 	2     	0.887755	0.0102041	0.877551	0.897959
126 	2     	0.887755	0.0102041	0.877551	0.897959
127 	2     	0.887755	0.0102041	0.877551	0.897959
128 	2     	0.887755	0.0102041	0.877551	0.897959
129 	2     	0.887755	0.0102041	0.877551	0.897959
130 	2     	0.887755	0.0102041	0.877551	0.897959
131 	2     	0.887755	0.0102041	0.877551	0.897959
132 	2     	0.887755	0.0102041	0.877551	0.897959
133 	2     	0.887755	0.0102041	0.877551	0.897959
134 	2     	0.897959	0        	0.897959	0.897959
135 	2     	0.897959	0        	0.897959	0.897959
136 	2     	0.897959	0        	0.897959	0.897959
137 	2     	0.897959	0        	0.897959	0.897959
138 	2     	0.897959	0        	0.897959	0.897959
139 	2     	0.897959	0        	0.897959	0.897959
140 	2     	0.897959	0        	0.897959	0.897959
141 	2     	0.897959	0        	0.897959	0.897959
142 	2     	0.897959	0        	0.897959	0.897959
143 	2     	0.897959	0        	0.897959	0.897959
144 	2     	0.897959	0        	0.897959	0.897959
145 	2     	0.897959	0        	0.897959	0.897959
146 	2     	0.897959	0        	0.897959	0.897959
147 	2     	0.897959	0        	0.897959	0.897959
148 	2     	0.897959	0        	0.897959	0.897959
149 	2     	0.897959	0        	0.897959	0.897959
150 	2     	0.897959	0        	0.897959	0.897959
151 	2     	0.897959	0        	0.897959	0.897959
152 	2     	0.897959	0        	0.897959	0.897959
153 	2     	0.897959	0        	0.897959	0.897959
154 	2     	0.897959	0        	0.897959	0.897959
155 	2     	0.897959	0        	0.897959	0.897959
156 	2     	0.897959	0        	0.897959	0.897959
157 	2     	0.897959	0        	0.897959	0.897959
158 	2     	0.897959	0        	0.897959	0.897959
159 	2     	0.897959	0        	0.897959	0.897959
160 	2     	0.897959	0        	0.897959	0.897959
161 	2     	0.897959	0        	0.897959	0.897959
162 	2     	0.897959	0        	0.897959	0.897959
163 	2     	0.897959	0        	0.897959	0.897959
164 	2     	0.897959	0        	0.897959	0.897959
165 	2     	0.897959	0        	0.897959	0.897959
166 	2     	0.897959	0        	0.897959	0.897959
167 	2     	0.897959	0        	0.897959	0.897959
168 	2     	0.897959	0        	0.897959	0.897959
169 	2     	0.897959	0        	0.897959	0.897959
170 	2     	0.897959	0        	0.897959	0.897959
171 	2     	0.897959	0        	0.897959	0.897959
172 	2     	0.897959	0        	0.897959	0.897959
173 	2     	0.897959	0        	0.897959	0.897959
174 	2     	0.897959	0        	0.897959	0.897959
175 	2     	0.897959	0        	0.897959	0.897959
176 	2     	0.897959	0        	0.897959	0.897959
177 	2     	0.897959	0        	0.897959	0.897959
178 	2     	0.897959	0        	0.897959	0.897959
179 	2     	0.897959	0        	0.897959	0.897959
180 	2     	0.897959	0        	0.897959	0.897959
181 	2     	0.897959	0        	0.897959	0.897959
182 	2     	0.897959	0        	0.897959	0.897959
183 	2     	0.897959	0        	0.897959	0.897959
184 	2     	0.897959	0        	0.897959	0.897959
185 	2     	0.897959	0        	0.897959	0.897959
186 	2     	0.897959	0        	0.897959	0.897959
187 	2     	0.897959	0        	0.897959	0.897959
188 	2     	0.897959	0        	0.897959	0.897959
189 	2     	0.897959	0        	0.897959	0.897959
190 	2     	0.897959	0        	0.897959	0.897959
191 	2     	0.897959	0        	0.897959	0.897959
192 	2     	0.897959	0        	0.897959	0.897959
193 	2     	0.897959	0        	0.897959	0.897959
194 	2     	0.897959	0        	0.897959	0.897959
195 	2     	0.897959	0        	0.897959	0.897959
196 	2     	0.897959	0        	0.897959	0.897959
197 	2     	0.897959	0        	0.897959	0.897959
198 	2     	0.897959	0        	0.897959	0.897959
199 	2     	0.897959	0        	0.897959	0.897959
200 	2     	0.897959	0        	0.897959	0.897959
201 	2     	0.897959	0        	0.897959	0.897959
202 	2     	0.897959	0        	0.897959	0.897959
203 	2     	0.897959	0        	0.897959	0.897959
204 	2     	0.897959	0        	0.897959	0.897959
205 	2     	0.897959	0        	0.897959	0.897959
206 	2     	0.897959	0        	0.897959	0.897959
207 	2     	0.897959	0        	0.897959	0.897959
208 	2     	0.897959	0        	0.897959	0.897959
209 	2     	0.897959	0        	0.897959	0.897959
210 	2     	0.897959	0        	0.897959	0.897959
211 	2     	0.897959	0        	0.897959	0.897959
212 	2     	0.897959	0        	0.897959	0.897959
213 	2     	0.897959	0        	0.897959	0.897959
214 	2     	0.897959	0        	0.897959	0.897959
215 	2     	0.897959	0        	0.897959	0.897959
216 	2     	0.897959	0        	0.897959	0.897959
217 	2     	0.897959	0        	0.897959	0.897959
218 	2     	0.897959	0        	0.897959	0.897959
219 	2     	0.897959	0        	0.897959	0.897959
220 	2     	0.897959	0        	0.897959	0.897959
221 	2     	0.897959	0        	0.897959	0.897959
222 	2     	0.897959	0        	0.897959	0.897959
223 	2     	0.897959	0        	0.897959	0.897959
224 	2     	0.897959	0        	0.897959	0.897959
225 	2     	0.897959	0        	0.897959	0.897959
226 	2     	0.908163	0.0102041	0.897959	0.918367
227 	2     	0.908163	0.0102041	0.897959	0.918367
228 	2     	0.908163	0.0102041	0.897959	0.918367
229 	2     	0.908163	0.0102041	0.897959	0.918367
230 	2     	0.908163	0.0102041	0.897959	0.918367
231 	2     	0.908163	0.0102041	0.897959	0.918367
232 	2     	0.908163	0.0102041	0.897959	0.918367
233 	2     	0.908163	0.0102041	0.897959	0.918367
234 	2     	0.908163	0.0102041	0.897959	0.918367
235 	2     	0.908163	0.0102041	0.897959	0.918367
236 	2     	0.908163	0.0102041	0.897959	0.918367
237 	2     	0.908163	0.0102041	0.897959	0.918367
238 	2     	0.908163	0.0102041	0.897959	0.918367
239 	2     	0.908163	0.0102041	0.897959	0.918367
240 	2     	0.908163	0.0102041	0.897959	0.918367
241 	2     	0.908163	0.0102041	0.897959	0.918367
242 	2     	0.908163	0.0102041	0.897959	0.918367
243 	2     	0.908163	0.0102041	0.897959	0.918367
244 	2     	0.908163	0.0102041	0.897959	0.918367
245 	2     	0.908163	0.0102041	0.897959	0.918367
246 	2     	0.908163	0.0102041	0.897959	0.918367
247 	2     	0.908163	0.0102041	0.897959	0.918367
248 	2     	0.908163	0.0102041	0.897959	0.918367
249 	2     	0.908163	0.0102041	0.897959	0.918367
250 	2     	0.908163	0.0102041	0.897959	0.918367
251 	2     	0.908163	0.0102041	0.897959	0.918367
252 	2     	0.908163	0.0102041	0.897959	0.918367
253 	2     	0.908163	0.0102041	0.897959	0.918367
254 	2     	0.908163	0.0102041	0.897959	0.918367
255 	2     	0.908163	0.0102041	0.897959	0.918367
256 	2     	0.908163	0.0102041	0.897959	0.918367
257 	2     	0.908163	0.0102041	0.897959	0.918367
258 	2     	0.908163	0.0102041	0.897959	0.918367
259 	2     	0.908163	0.0102041	0.897959	0.918367
260 	2     	0.908163	0.0102041	0.897959	0.918367
261 	2     	0.908163	0.0102041	0.897959	0.918367
262 	2     	0.908163	0.0102041	0.897959	0.918367
263 	2     	0.908163	0.0102041	0.897959	0.918367
264 	2     	0.908163	0.0102041	0.897959	0.918367
265 	2     	0.908163	0.0102041	0.897959	0.918367
266 	2     	0.908163	0.0102041	0.897959	0.918367
267 	2     	0.908163	0.0102041	0.897959	0.918367
268 	2     	0.908163	0.0102041	0.897959	0.918367
269 	2     	0.908163	0.0102041	0.897959	0.918367
270 	2     	0.908163	0.0102041	0.897959	0.918367
271 	2     	0.908163	0.0102041	0.897959	0.918367
272 	2     	0.908163	0.0102041	0.897959	0.918367
273 	2     	0.908163	0.0102041	0.897959	0.918367
274 	2     	0.908163	0.0102041	0.897959	0.918367
275 	2     	0.908163	0.0102041	0.897959	0.918367
276 	2     	0.908163	0.0102041	0.897959	0.918367
277 	2     	0.908163	0.0102041	0.897959	0.918367
278 	2     	0.908163	0.0102041	0.897959	0.918367
279 	2     	0.908163	0.0102041	0.897959	0.918367
280 	2     	0.908163	0.0102041	0.897959	0.918367
281 	2     	0.908163	0.0102041	0.897959	0.918367
282 	2     	0.908163	0.0102041	0.897959	0.918367
283 	2     	0.908163	0.0102041	0.897959	0.918367
284 	2     	0.908163	0.0102041	0.897959	0.918367
285 	2     	0.908163	0.0102041	0.897959	0.918367
286 	2     	0.908163	0.0102041	0.897959	0.918367
287 	2     	0.908163	0.0102041	0.897959	0.918367
288 	2     	0.918367	0        	0.918367	0.918367
289 	2     	0.918367	0        	0.918367	0.918367
290 	2     	0.918367	0        	0.918367	0.918367
291 	2     	0.918367	0        	0.918367	0.918367
292 	2     	0.918367	0        	0.918367	0.918367
293 	2     	0.918367	0        	0.918367	0.918367
294 	2     	0.918367	0        	0.918367	0.918367
295 	2     	0.918367	0        	0.918367	0.918367
296 	2     	0.918367	0        	0.918367	0.918367
297 	2     	0.918367	0        	0.918367	0.918367
298 	2     	0.918367	0        	0.918367	0.918367
299 	2     	0.918367	0        	0.918367	0.918367
300 	2     	0.918367	0        	0.918367	0.918367
301 	2     	0.918367	0        	0.918367	0.918367
302 	2     	0.918367	0        	0.918367	0.918367
303 	2     	0.918367	0        	0.918367	0.918367
304 	2     	0.918367	0        	0.918367	0.918367
305 	2     	0.918367	0        	0.918367	0.918367
306 	2     	0.918367	0        	0.918367	0.918367
307 	2     	0.918367	0        	0.918367	0.918367
308 	2     	0.918367	0        	0.918367	0.918367
309 	2     	0.918367	0        	0.918367	0.918367
310 	2     	0.918367	0        	0.918367	0.918367
311 	2     	0.918367	0        	0.918367	0.918367
312 	2     	0.918367	0        	0.918367	0.918367
313 	2     	0.918367	0        	0.918367	0.918367
314 	2     	0.918367	0        	0.918367	0.918367
315 	2     	0.918367	0        	0.918367	0.918367
316 	2     	0.918367	0        	0.918367	0.918367
317 	2     	0.918367	0        	0.918367	0.918367
318 	2     	0.918367	0        	0.918367	0.918367
319 	2     	0.918367	0        	0.918367	0.918367
320 	2     	0.918367	0        	0.918367	0.918367
321 	2     	0.918367	0        	0.918367	0.918367
322 	2     	0.918367	0        	0.918367	0.918367
323 	2     	0.918367	0        	0.918367	0.918367
324 	2     	0.918367	0        	0.918367	0.918367
325 	2     	0.918367	0        	0.918367	0.918367
326 	2     	0.918367	0        	0.918367	0.918367
327 	2     	0.918367	0        	0.918367	0.918367
328 	2     	0.918367	0        	0.918367	0.918367
329 	2     	0.918367	0        	0.918367	0.918367
330 	2     	0.918367	0        	0.918367	0.918367
331 	2     	0.918367	0        	0.918367	0.918367
332 	2     	0.918367	0        	0.918367	0.918367
333 	2     	0.918367	0        	0.918367	0.918367
334 	2     	0.918367	0        	0.918367	0.918367
335 	2     	0.918367	0        	0.918367	0.918367
336 	2     	0.918367	0        	0.918367	0.918367
337 	2     	0.918367	0        	0.918367	0.918367
338 	2     	0.918367	0        	0.918367	0.918367
339 	2     	0.918367	0        	0.918367	0.918367
340 	2     	0.918367	0        	0.918367	0.918367
341 	2     	0.918367	0        	0.918367	0.918367
342 	2     	0.918367	0        	0.918367	0.918367
343 	2     	0.918367	0        	0.918367	0.918367
344 	2     	0.918367	0        	0.918367	0.918367
345 	2     	0.918367	0        	0.918367	0.918367
346 	2     	0.918367	0        	0.918367	0.918367
347 	2     	0.918367	0        	0.918367	0.918367
348 	2     	0.918367	0        	0.918367	0.918367
349 	2     	0.918367	0        	0.918367	0.918367
350 	2     	0.918367	0        	0.918367	0.918367
351 	2     	0.918367	0        	0.918367	0.918367
352 	2     	0.918367	0        	0.918367	0.918367
353 	2     	0.918367	0        	0.918367	0.918367
354 	2     	0.918367	0        	0.918367	0.918367
355 	2     	0.918367	0        	0.918367	0.918367
356 	2     	0.918367	0        	0.918367	0.918367
357 	2     	0.918367	0        	0.918367	0.918367
358 	2     	0.918367	0        	0.918367	0.918367
359 	2     	0.918367	0        	0.918367	0.918367
360 	2     	0.918367	0        	0.918367	0.918367
361 	2     	0.918367	0        	0.918367	0.918367
362 	2     	0.918367	0        	0.918367	0.918367
363 	2     	0.918367	0        	0.918367	0.918367
364 	2     	0.918367	0        	0.918367	0.918367
365 	2     	0.918367	0        	0.918367	0.918367
366 	2     	0.918367	0        	0.918367	0.918367
367 	2     	0.918367	0        	0.918367	0.918367
368 	2     	0.918367	0        	0.918367	0.918367
369 	2     	0.918367	0        	0.918367	0.918367
370 	2     	0.918367	0        	0.918367	0.918367
371 	2     	0.918367	0        	0.918367	0.918367
372 	2     	0.918367	0        	0.918367	0.918367
373 	2     	0.918367	0        	0.918367	0.918367
374 	2     	0.918367	0        	0.918367	0.918367
375 	2     	0.918367	0        	0.918367	0.918367
376 	2     	0.918367	0        	0.918367	0.918367
377 	2     	0.918367	0        	0.918367	0.918367
378 	2     	0.918367	0        	0.918367	0.918367
379 	2     	0.918367	0        	0.918367	0.918367
380 	2     	0.918367	0        	0.918367	0.918367
381 	2     	0.918367	0        	0.918367	0.918367
382 	2     	0.918367	0        	0.918367	0.918367
383 	2     	0.918367	0        	0.918367	0.918367
384 	2     	0.918367	0        	0.918367	0.918367
385 	2     	0.918367	0        	0.918367	0.918367
386 	2     	0.918367	0        	0.918367	0.918367
387 	2     	0.918367	0        	0.918367	0.918367
388 	2     	0.918367	0        	0.918367	0.918367
389 	2     	0.918367	0        	0.918367	0.918367
390 	2     	0.918367	0        	0.918367	0.918367
391 	2     	0.918367	0        	0.918367	0.918367
392 	2     	0.918367	0        	0.918367	0.918367
393 	2     	0.918367	0        	0.918367	0.918367
394 	2     	0.918367	0        	0.918367	0.918367
395 	2     	0.918367	0        	0.918367	0.918367
396 	2     	0.918367	0        	0.918367	0.918367
397 	2     	0.918367	0        	0.918367	0.918367
398 	2     	0.918367	0        	0.918367	0.918367
399 	2     	0.918367	0        	0.918367	0.918367
400 	2     	0.918367	0        	0.918367	0.918367
401 	2     	0.918367	0        	0.918367	0.918367
402 	2     	0.918367	0        	0.918367	0.918367
403 	2     	0.918367	0        	0.918367	0.918367
404 	2     	0.918367	0        	0.918367	0.918367
405 	2     	0.918367	0        	0.918367	0.918367
406 	2     	0.918367	0        	0.918367	0.918367
407 	2     	0.918367	0        	0.918367	0.918367
408 	2     	0.918367	0        	0.918367	0.918367
409 	2     	0.918367	0        	0.918367	0.918367
410 	2     	0.918367	0        	0.918367	0.918367
411 	2     	0.918367	0        	0.918367	0.918367
412 	2     	0.918367	0        	0.918367	0.918367
413 	2     	0.918367	0        	0.918367	0.918367
414 	2     	0.918367	0        	0.918367	0.918367
415 	2     	0.918367	0        	0.918367	0.918367
416 	2     	0.918367	0        	0.918367	0.918367
417 	2     	0.918367	0        	0.918367	0.918367
418 	2     	0.918367	0        	0.918367	0.918367
419 	2     	0.918367	0        	0.918367	0.918367
420 	2     	0.918367	0        	0.918367	0.918367
421 	2     	0.918367	0        	0.918367	0.918367
422 	2     	0.918367	0        	0.918367	0.918367
423 	2     	0.918367	0        	0.918367	0.918367
424 	2     	0.918367	0        	0.918367	0.918367
425 	2     	0.918367	0        	0.918367	0.918367
426 	2     	0.918367	0        	0.918367	0.918367
427 	2     	0.918367	0        	0.918367	0.918367
428 	2     	0.918367	0        	0.918367	0.918367
429 	2     	0.918367	0        	0.918367	0.918367
430 	2     	0.918367	0        	0.918367	0.918367
431 	2     	0.918367	0        	0.918367	0.918367
432 	2     	0.918367	0        	0.918367	0.918367
433 	2     	0.918367	0        	0.918367	0.918367
434 	2     	0.918367	0        	0.918367	0.918367
435 	2     	0.918367	0        	0.918367	0.918367
436 	2     	0.918367	0        	0.918367	0.918367
437 	2     	0.918367	0        	0.918367	0.918367
438 	2     	0.918367	0        	0.918367	0.918367
439 	2     	0.918367	0        	0.918367	0.918367
440 	2     	0.918367	0        	0.918367	0.918367
441 	2     	0.918367	0        	0.918367	0.918367
442 	2     	0.918367	0        	0.918367	0.918367
443 	2     	0.918367	0        	0.918367	0.918367
444 	2     	0.918367	0        	0.918367	0.918367
445 	2     	0.918367	0        	0.918367	0.918367
446 	2     	0.918367	0        	0.918367	0.918367
447 	2     	0.918367	0        	0.918367	0.918367
448 	2     	0.918367	0        	0.918367	0.918367
449 	2     	0.918367	0        	0.918367	0.918367
450 	2     	0.918367	0        	0.918367	0.918367
451 	2     	0.918367	0        	0.918367	0.918367
452 	2     	0.918367	0        	0.918367	0.918367
453 	2     	0.918367	0        	0.918367	0.918367
454 	2     	0.918367	0        	0.918367	0.918367
455 	2     	0.918367	0        	0.918367	0.918367
456 	2     	0.918367	0        	0.918367	0.918367
457 	2     	0.918367	0        	0.918367	0.918367
458 	2     	0.918367	0        	0.918367	0.918367
459 	2     	0.918367	0        	0.918367	0.918367
460 	2     	0.918367	0        	0.918367	0.918367
461 	2     	0.918367	0        	0.918367	0.918367
462 	2     	0.918367	0        	0.918367	0.918367
463 	2     	0.918367	0        	0.918367	0.918367
464 	2     	0.918367	0        	0.918367	0.918367
465 	2     	0.918367	0        	0.918367	0.918367
466 	2     	0.918367	0        	0.918367	0.918367
467 	2     	0.918367	0        	0.918367	0.918367
468 	2     	0.918367	0        	0.918367	0.918367
469 	2     	0.918367	0        	0.918367	0.918367
470 	2     	0.918367	0        	0.918367	0.918367
471 	2     	0.918367	0        	0.918367	0.918367
472 	2     	0.918367	0        	0.918367	0.918367
473 	2     	0.918367	0        	0.918367	0.918367
474 	2     	0.918367	0        	0.918367	0.918367
475 	2     	0.918367	0        	0.918367	0.918367
476 	2     	0.918367	0        	0.918367	0.918367
477 	2     	0.918367	0        	0.918367	0.918367
478 	2     	0.918367	0        	0.918367	0.918367
479 	2     	0.918367	0        	0.918367	0.918367
480 	2     	0.928571	0.0102041	0.918367	0.938776
481 	2     	0.928571	0.0102041	0.918367	0.938776
482 	2     	0.928571	0.0102041	0.918367	0.938776
483 	2     	0.928571	0.0102041	0.918367	0.938776
484 	2     	0.928571	0.0102041	0.918367	0.938776
485 	2     	0.928571	0.0102041	0.918367	0.938776
486 	2     	0.928571	0.0102041	0.918367	0.938776
487 	2     	0.928571	0.0102041	0.918367	0.938776
488 	2     	0.928571	0.0102041	0.918367	0.938776
489 	2     	0.928571	0.0102041	0.918367	0.938776
490 	2     	0.928571	0.0102041	0.918367	0.938776
491 	2     	0.928571	0.0102041	0.918367	0.938776
492 	2     	0.928571	0.0102041	0.918367	0.938776
493 	2     	0.928571	0.0102041	0.918367	0.938776
494 	2     	0.928571	0.0102041	0.918367	0.938776
495 	2     	0.928571	0.0102041	0.918367	0.938776
496 	2     	0.928571	0.0102041	0.918367	0.938776
497 	2     	0.928571	0.0102041	0.918367	0.938776
498 	2     	0.928571	0.0102041	0.918367	0.938776
499 	2     	0.928571	0.0102041	0.918367	0.938776
500 	2     	0.928571	0.0102041	0.918367	0.938776
501 	2     	0.928571	0.0102041	0.918367	0.938776
502 	2     	0.928571	0.0102041	0.918367	0.938776
503 	2     	0.928571	0.0102041	0.918367	0.938776
504 	2     	0.928571	0.0102041	0.918367	0.938776
505 	2     	0.928571	0.0102041	0.918367	0.938776
506 	2     	0.928571	0.0102041	0.918367	0.938776
507 	2     	0.928571	0.0102041	0.918367	0.938776
508 	2     	0.928571	0.0102041	0.918367	0.938776
509 	2     	0.928571	0.0102041	0.918367	0.938776
510 	2     	0.928571	0.0102041	0.918367	0.938776
511 	2     	0.928571	0.0102041	0.918367	0.938776
512 	2     	0.938776	0        	0.938776	0.938776
513 	2     	0.938776	0        	0.938776	0.938776
514 	2     	0.938776	0        	0.938776	0.938776
515 	2     	0.938776	0        	0.938776	0.938776
516 	2     	0.938776	0        	0.938776	0.938776
517 	2     	0.938776	0        	0.938776	0.938776
518 	2     	0.938776	0        	0.938776	0.938776
519 	2     	0.938776	0        	0.938776	0.938776
520 	2     	0.938776	0        	0.938776	0.938776
521 	2     	0.938776	0        	0.938776	0.938776
522 	2     	0.938776	0        	0.938776	0.938776
523 	2     	0.938776	0        	0.938776	0.938776
524 	2     	0.938776	0        	0.938776	0.938776
525 	2     	0.938776	0        	0.938776	0.938776
526 	2     	0.938776	0        	0.938776	0.938776
527 	2     	0.938776	0        	0.938776	0.938776
528 	2     	0.938776	0        	0.938776	0.938776
529 	2     	0.938776	0        	0.938776	0.938776
530 	2     	0.938776	0        	0.938776	0.938776
531 	2     	0.938776	0        	0.938776	0.938776
532 	2     	0.938776	0        	0.938776	0.938776
533 	2     	0.938776	0        	0.938776	0.938776
534 	2     	0.938776	0        	0.938776	0.938776
535 	2     	0.938776	0        	0.938776	0.938776
536 	2     	0.94898 	0.0102041	0.938776	0.959184
537 	2     	0.94898 	0.0102041	0.938776	0.959184
538 	2     	0.94898 	0.0102041	0.938776	0.959184
539 	2     	0.94898 	0.0102041	0.938776	0.959184
540 	2     	0.94898 	0.0102041	0.938776	0.959184
541 	2     	0.94898 	0.0102041	0.938776	0.959184
542 	2     	0.94898 	0.0102041	0.938776	0.959184
543 	2     	0.94898 	0.0102041	0.938776	0.959184
544 	2     	0.94898 	0.0102041	0.938776	0.959184
545 	2     	0.94898 	0.0102041	0.938776	0.959184
546 	2     	0.94898 	0.0102041	0.938776	0.959184
547 	2     	0.94898 	0.0102041	0.938776	0.959184
548 	2     	0.94898 	0.0102041	0.938776	0.959184
549 	2     	0.94898 	0.0102041	0.938776	0.959184
550 	2     	0.94898 	0.0102041	0.938776	0.959184
551 	2     	0.94898 	0.0102041	0.938776	0.959184
552 	2     	0.94898 	0.0102041	0.938776	0.959184
553 	2     	0.94898 	0.0102041	0.938776	0.959184
554 	2     	0.94898 	0.0102041	0.938776	0.959184
555 	2     	0.94898 	0.0102041	0.938776	0.959184
556 	2     	0.94898 	0.0102041	0.938776	0.959184
557 	2     	0.94898 	0.0102041	0.938776	0.959184
558 	2     	0.94898 	0.0102041	0.938776	0.959184
559 	2     	0.94898 	0.0102041	0.938776	0.959184
560 	2     	0.94898 	0.0102041	0.938776	0.959184
561 	2     	0.94898 	0.0102041	0.938776	0.959184
562 	2     	0.94898 	0.0102041	0.938776	0.959184
563 	2     	0.94898 	0.0102041	0.938776	0.959184
564 	2     	0.94898 	0.0102041	0.938776	0.959184
565 	2     	0.94898 	0.0102041	0.938776	0.959184
566 	2     	0.94898 	0.0102041	0.938776	0.959184
567 	2     	0.94898 	0.0102041	0.938776	0.959184
568 	2     	0.94898 	0.0102041	0.938776	0.959184
569 	2     	0.94898 	0.0102041	0.938776	0.959184
570 	2     	0.94898 	0.0102041	0.938776	0.959184
571 	2     	0.94898 	0.0102041	0.938776	0.959184
572 	2     	0.94898 	0.0102041	0.938776	0.959184
573 	2     	0.94898 	0.0102041	0.938776	0.959184
574 	2     	0.94898 	0.0102041	0.938776	0.959184
575 	2     	0.94898 	0.0102041	0.938776	0.959184
576 	2     	0.94898 	0.0102041	0.938776	0.959184
577 	2     	0.94898 	0.0102041	0.938776	0.959184
578 	2     	0.94898 	0.0102041	0.938776	0.959184
579 	2     	0.94898 	0.0102041	0.938776	0.959184
580 	2     	0.94898 	0.0102041	0.938776	0.959184
581 	2     	0.94898 	0.0102041	0.938776	0.959184
582 	2     	0.94898 	0.0102041	0.938776	0.959184
583 	2     	0.94898 	0.0102041	0.938776	0.959184
584 	2     	0.94898 	0.0102041	0.938776	0.959184
585 	2     	0.94898 	0.0102041	0.938776	0.959184
586 	2     	0.94898 	0.0102041	0.938776	0.959184
587 	2     	0.94898 	0.0102041	0.938776	0.959184
588 	2     	0.94898 	0.0102041	0.938776	0.959184
589 	2     	0.94898 	0.0102041	0.938776	0.959184
590 	2     	0.94898 	0.0102041	0.938776	0.959184
591 	2     	0.94898 	0.0102041	0.938776	0.959184
592 	2     	0.94898 	0.0102041	0.938776	0.959184
593 	2     	0.94898 	0.0102041	0.938776	0.959184
594 	2     	0.94898 	0.0102041	0.938776	0.959184
595 	2     	0.94898 	0.0102041	0.938776	0.959184
596 	2     	0.94898 	0.0102041	0.938776	0.959184
597 	2     	0.94898 	0.0102041	0.938776	0.959184
598 	2     	0.94898 	0.0102041	0.938776	0.959184
599 	2     	0.94898 	0.0102041	0.938776	0.959184
600 	2     	0.94898 	0.0102041	0.938776	0.959184
601 	2     	0.94898 	0.0102041	0.938776	0.959184
602 	2     	0.94898 	0.0102041	0.938776	0.959184
603 	2     	0.94898 	0.0102041	0.938776	0.959184
604 	2     	0.94898 	0.0102041	0.938776	0.959184
605 	2     	0.94898 	0.0102041	0.938776	0.959184
606 	2     	0.94898 	0.0102041	0.938776	0.959184
607 	2     	0.94898 	0.0102041	0.938776	0.959184
608 	2     	0.94898 	0.0102041	0.938776	0.959184
609 	2     	0.94898 	0.0102041	0.938776	0.959184
610 	2     	0.94898 	0.0102041	0.938776	0.959184
611 	2     	0.94898 	0.0102041	0.938776	0.959184
612 	2     	0.94898 	0.0102041	0.938776	0.959184
613 	2     	0.94898 	0.0102041	0.938776	0.959184
614 	2     	0.94898 	0.0102041	0.938776	0.959184
615 	2     	0.94898 	0.0102041	0.938776	0.959184
616 	2     	0.94898 	0.0102041	0.938776	0.959184
617 	2     	0.94898 	0.0102041	0.938776	0.959184
618 	2     	0.94898 	0.0102041	0.938776	0.959184
619 	2     	0.94898 	0.0102041	0.938776	0.959184
620 	2     	0.94898 	0.0102041	0.938776	0.959184
621 	2     	0.94898 	0.0102041	0.938776	0.959184
622 	2     	0.94898 	0.0102041	0.938776	0.959184
623 	2     	0.94898 	0.0102041	0.938776	0.959184
624 	2     	0.94898 	0.0102041	0.938776	0.959184
625 	2     	0.94898 	0.0102041	0.938776	0.959184
626 	2     	0.94898 	0.0102041	0.938776	0.959184
627 	2     	0.94898 	0.0102041	0.938776	0.959184
628 	2     	0.94898 	0.0102041	0.938776	0.959184
629 	2     	0.94898 	0.0102041	0.938776	0.959184
630 	2     	0.94898 	0.0102041	0.938776	0.959184
631 	2     	0.94898 	0.0102041	0.938776	0.959184
632 	2     	0.94898 	0.0102041	0.938776	0.959184
633 	2     	0.94898 	0.0102041	0.938776	0.959184
634 	2     	0.94898 	0.0102041	0.938776	0.959184
635 	2     	0.94898 	0.0102041	0.938776	0.959184
636 	2     	0.94898 	0.0102041	0.938776	0.959184
637 	2     	0.94898 	0.0102041	0.938776	0.959184
638 	2     	0.94898 	0.0102041	0.938776	0.959184
639 	2     	0.94898 	0.0102041	0.938776	0.959184
640 	2     	0.94898 	0.0102041	0.938776	0.959184
641 	2     	0.94898 	0.0102041	0.938776	0.959184
642 	2     	0.94898 	0.0102041	0.938776	0.959184
643 	2     	0.94898 	0.0102041	0.938776	0.959184
644 	2     	0.94898 	0.0102041	0.938776	0.959184
645 	2     	0.94898 	0.0102041	0.938776	0.959184
646 	2     	0.94898 	0.0102041	0.938776	0.959184
647 	2     	0.94898 	0.0102041	0.938776	0.959184
648 	2     	0.94898 	0.0102041	0.938776	0.959184
649 	2     	0.94898 	0.0102041	0.938776	0.959184
650 	2     	0.94898 	0.0102041	0.938776	0.959184
651 	2     	0.94898 	0.0102041	0.938776	0.959184
652 	2     	0.94898 	0.0102041	0.938776	0.959184
653 	2     	0.94898 	0.0102041	0.938776	0.959184
654 	2     	0.94898 	0.0102041	0.938776	0.959184
655 	2     	0.94898 	0.0102041	0.938776	0.959184
656 	2     	0.94898 	0.0102041	0.938776	0.959184
657 	2     	0.94898 	0.0102041	0.938776	0.959184
658 	2     	0.94898 	0.0102041	0.938776	0.959184
659 	2     	0.94898 	0.0102041	0.938776	0.959184
660 	2     	0.94898 	0.0102041	0.938776	0.959184
661 	2     	0.94898 	0.0102041	0.938776	0.959184
662 	2     	0.94898 	0.0102041	0.938776	0.959184
663 	2     	0.94898 	0.0102041	0.938776	0.959184
664 	2     	0.94898 	0.0102041	0.938776	0.959184
665 	2     	0.94898 	0.0102041	0.938776	0.959184
666 	2     	0.94898 	0.0102041	0.938776	0.959184
667 	2     	0.94898 	0.0102041	0.938776	0.959184
668 	2     	0.94898 	0.0102041	0.938776	0.959184
669 	2     	0.94898 	0.0102041	0.938776	0.959184
670 	2     	0.94898 	0.0102041	0.938776	0.959184
671 	2     	0.94898 	0.0102041	0.938776	0.959184
672 	2     	0.94898 	0.0102041	0.938776	0.959184
673 	2     	0.94898 	0.0102041	0.938776	0.959184
674 	2     	0.94898 	0.0102041	0.938776	0.959184
675 	2     	0.94898 	0.0102041	0.938776	0.959184
676 	2     	0.94898 	0.0102041	0.938776	0.959184
677 	2     	0.94898 	0.0102041	0.938776	0.959184
678 	2     	0.94898 	0.0102041	0.938776	0.959184
679 	2     	0.94898 	0.0102041	0.938776	0.959184
680 	2     	0.94898 	0.0102041	0.938776	0.959184
681 	2     	0.94898 	0.0102041	0.938776	0.959184
682 	2     	0.94898 	0.0102041	0.938776	0.959184
683 	2     	0.94898 	0.0102041	0.938776	0.959184
684 	2     	0.94898 	0.0102041	0.938776	0.959184
685 	2     	0.94898 	0.0102041	0.938776	0.959184
686 	2     	0.94898 	0.0102041	0.938776	0.959184
687 	2     	0.94898 	0.0102041	0.938776	0.959184
688 	2     	0.94898 	0.0102041	0.938776	0.959184
689 	2     	0.959184	0        	0.959184	0.959184
690 	2     	0.959184	0        	0.959184	0.959184
691 	2     	0.959184	0        	0.959184	0.959184
692 	2     	0.959184	0        	0.959184	0.959184
693 	2     	0.959184	0        	0.959184	0.959184
694 	2     	0.959184	0        	0.959184	0.959184
695 	2     	0.959184	0        	0.959184	0.959184
696 	2     	0.959184	0        	0.959184	0.959184
697 	2     	0.959184	0        	0.959184	0.959184
698 	2     	0.959184	0        	0.959184	0.959184
699 	2     	0.959184	0        	0.959184	0.959184
700 	2     	0.959184	0        	0.959184	0.959184
701 	2     	0.959184	0        	0.959184	0.959184
702 	2     	0.959184	0        	0.959184	0.959184
703 	2     	0.959184	0        	0.959184	0.959184
704 	2     	0.959184	0        	0.959184	0.959184
705 	2     	0.959184	0        	0.959184	0.959184
706 	2     	0.959184	0        	0.959184	0.959184
707 	2     	0.959184	0        	0.959184	0.959184
708 	2     	0.959184	0        	0.959184	0.959184
709 	2     	0.959184	0        	0.959184	0.959184
710 	2     	0.959184	0        	0.959184	0.959184
711 	2     	0.959184	0        	0.959184	0.959184
712 	2     	0.959184	0        	0.959184	0.959184
713 	2     	0.959184	0        	0.959184	0.959184
714 	2     	0.959184	0        	0.959184	0.959184
715 	2     	0.959184	0        	0.959184	0.959184
716 	2     	0.959184	0        	0.959184	0.959184
717 	2     	0.959184	0        	0.959184	0.959184
718 	2     	0.959184	0        	0.959184	0.959184
719 	2     	0.959184	0        	0.959184	0.959184
720 	2     	0.959184	0        	0.959184	0.959184
721 	2     	0.959184	0        	0.959184	0.959184
722 	2     	0.959184	0        	0.959184	0.959184
723 	2     	0.959184	0        	0.959184	0.959184
724 	2     	0.959184	0        	0.959184	0.959184
725 	2     	0.959184	0        	0.959184	0.959184
726 	2     	0.959184	0        	0.959184	0.959184
727 	2     	0.959184	0        	0.959184	0.959184
728 	2     	0.959184	0        	0.959184	0.959184
729 	2     	0.959184	0        	0.959184	0.959184
730 	2     	0.959184	0        	0.959184	0.959184
731 	2     	0.959184	0        	0.959184	0.959184
732 	2     	0.959184	0        	0.959184	0.959184
733 	2     	0.959184	0        	0.959184	0.959184
734 	2     	0.959184	0        	0.959184	0.959184
735 	2     	0.959184	0        	0.959184	0.959184
736 	2     	0.959184	0        	0.959184	0.959184
737 	2     	0.959184	0        	0.959184	0.959184
738 	2     	0.959184	0        	0.959184	0.959184
739 	2     	0.959184	0        	0.959184	0.959184
740 	2     	0.959184	0        	0.959184	0.959184
741 	2     	0.959184	0        	0.959184	0.959184
742 	2     	0.959184	0        	0.959184	0.959184
743 	2     	0.959184	0        	0.959184	0.959184
744 	2     	0.959184	0        	0.959184	0.959184
745 	2     	0.959184	0        	0.959184	0.959184
746 	2     	0.959184	0        	0.959184	0.959184
747 	2     	0.959184	0        	0.959184	0.959184
748 	2     	0.959184	0        	0.959184	0.959184
749 	2     	0.959184	0        	0.959184	0.959184
750 	2     	0.959184	0        	0.959184	0.959184
751 	2     	0.959184	0        	0.959184	0.959184
752 	2     	0.959184	0        	0.959184	0.959184
753 	2     	0.959184	0        	0.959184	0.959184
754 	2     	0.959184	0        	0.959184	0.959184
755 	2     	0.959184	0        	0.959184	0.959184
756 	2     	0.959184	0        	0.959184	0.959184
757 	2     	0.959184	0        	0.959184	0.959184
758 	2     	0.959184	0        	0.959184	0.959184
759 	2     	0.959184	0        	0.959184	0.959184
760 	2     	0.959184	0        	0.959184	0.959184
761 	2     	0.959184	0        	0.959184	0.959184
762 	2     	0.959184	0        	0.959184	0.959184
763 	2     	0.959184	0        	0.959184	0.959184
764 	2     	0.959184	0        	0.959184	0.959184
765 	2     	0.959184	0        	0.959184	0.959184
766 	2     	0.959184	0        	0.959184	0.959184
767 	2     	0.959184	0        	0.959184	0.959184
768 	2     	0.959184	0        	0.959184	0.959184
769 	2     	0.959184	0        	0.959184	0.959184
770 	2     	0.959184	0        	0.959184	0.959184
771 	2     	0.959184	0        	0.959184	0.959184
772 	2     	0.959184	0        	0.959184	0.959184
773 	2     	0.959184	0        	0.959184	0.959184
774 	2     	0.959184	0        	0.959184	0.959184
775 	2     	0.959184	0        	0.959184	0.959184
776 	2     	0.959184	0        	0.959184	0.959184
777 	2     	0.959184	0        	0.959184	0.959184
778 	2     	0.959184	0        	0.959184	0.959184
779 	2     	0.959184	0        	0.959184	0.959184
780 	2     	0.959184	0        	0.959184	0.959184
781 	2     	0.959184	0        	0.959184	0.959184
782 	2     	0.959184	0        	0.959184	0.959184
783 	2     	0.959184	0        	0.959184	0.959184
784 	2     	0.959184	0        	0.959184	0.959184
785 	2     	0.959184	0        	0.959184	0.959184
786 	2     	0.959184	0        	0.959184	0.959184
787 	2     	0.959184	0        	0.959184	0.959184
788 	2     	0.959184	0        	0.959184	0.959184
789 	2     	0.959184	0        	0.959184	0.959184
790 	2     	0.959184	0        	0.959184	0.959184
791 	2     	0.959184	0        	0.959184	0.959184
792 	2     	0.959184	0        	0.959184	0.959184
793 	2     	0.959184	0        	0.959184	0.959184
794 	2     	0.959184	0        	0.959184	0.959184
795 	2     	0.959184	0        	0.959184	0.959184
796 	2     	0.959184	0        	0.959184	0.959184
797 	2     	0.959184	0        	0.959184	0.959184
798 	2     	0.959184	0        	0.959184	0.959184
799 	2     	0.959184	0        	0.959184	0.959184
800 	2     	0.959184	0        	0.959184	0.959184
801 	2     	0.959184	0        	0.959184	0.959184
802 	2     	0.959184	0        	0.959184	0.959184
803 	2     	0.959184	0        	0.959184	0.959184
804 	2     	0.959184	0        	0.959184	0.959184
805 	2     	0.959184	0        	0.959184	0.959184
806 	2     	0.959184	0        	0.959184	0.959184
807 	2     	0.959184	0        	0.959184	0.959184
808 	2     	0.959184	0        	0.959184	0.959184
809 	2     	0.959184	0        	0.959184	0.959184
810 	2     	0.959184	0        	0.959184	0.959184
811 	2     	0.959184	0        	0.959184	0.959184
812 	2     	0.959184	0        	0.959184	0.959184
813 	2     	0.959184	0        	0.959184	0.959184
814 	2     	0.959184	0        	0.959184	0.959184
815 	2     	0.959184	0        	0.959184	0.959184
816 	2     	0.959184	0        	0.959184	0.959184
817 	2     	0.959184	0        	0.959184	0.959184
818 	2     	0.959184	0        	0.959184	0.959184
819 	2     	0.959184	0        	0.959184	0.959184
820 	2     	0.959184	0        	0.959184	0.959184
821 	2     	0.959184	0        	0.959184	0.959184
822 	2     	0.959184	0        	0.959184	0.959184
823 	2     	0.959184	0        	0.959184	0.959184
824 	2     	0.959184	0        	0.959184	0.959184
825 	2     	0.959184	0        	0.959184	0.959184
826 	2     	0.959184	0        	0.959184	0.959184
827 	2     	0.959184	0        	0.959184	0.959184
828 	2     	0.959184	0        	0.959184	0.959184
829 	2     	0.959184	0        	0.959184	0.959184
830 	2     	0.959184	0        	0.959184	0.959184
831 	2     	0.959184	0        	0.959184	0.959184
832 	2     	0.959184	0        	0.959184	0.959184
833 	2     	0.959184	0        	0.959184	0.959184
834 	2     	0.959184	0        	0.959184	0.959184
835 	2     	0.959184	0        	0.959184	0.959184
836 	2     	0.959184	0        	0.959184	0.959184
837 	2     	0.959184	0        	0.959184	0.959184
838 	2     	0.959184	0        	0.959184	0.959184
839 	2     	0.959184	0        	0.959184	0.959184
840 	2     	0.959184	0        	0.959184	0.959184
841 	2     	0.959184	0        	0.959184	0.959184
842 	2     	0.959184	0        	0.959184	0.959184
843 	2     	0.959184	0        	0.959184	0.959184
844 	2     	0.959184	0        	0.959184	0.959184
845 	2     	0.959184	0        	0.959184	0.959184
846 	2     	0.959184	0        	0.959184	0.959184
847 	2     	0.959184	0        	0.959184	0.959184
848 	2     	0.959184	0        	0.959184	0.959184
849 	2     	0.959184	0        	0.959184	0.959184
850 	2     	0.959184	0        	0.959184	0.959184
851 	2     	0.959184	0        	0.959184	0.959184
852 	2     	0.959184	0        	0.959184	0.959184
853 	2     	0.959184	0        	0.959184	0.959184
854 	2     	0.959184	0        	0.959184	0.959184
855 	2     	0.959184	0        	0.959184	0.959184
856 	2     	0.959184	0        	0.959184	0.959184
857 	2     	0.959184	0        	0.959184	0.959184
858 	2     	0.959184	0        	0.959184	0.959184
859 	2     	0.959184	0        	0.959184	0.959184
860 	2     	0.959184	0        	0.959184	0.959184
861 	2     	0.959184	0        	0.959184	0.959184
862 	2     	0.959184	0        	0.959184	0.959184
863 	2     	0.959184	0        	0.959184	0.959184
864 	2     	0.959184	0        	0.959184	0.959184
865 	2     	0.959184	0        	0.959184	0.959184
866 	2     	0.959184	0        	0.959184	0.959184
867 	2     	0.959184	0        	0.959184	0.959184
868 	2     	0.959184	0        	0.959184	0.959184
869 	2     	0.959184	0        	0.959184	0.959184
870 	2     	0.959184	0        	0.959184	0.959184
871 	2     	0.959184	0        	0.959184	0.959184
872 	2     	0.959184	0        	0.959184	0.959184
873 	2     	0.959184	0        	0.959184	0.959184
874 	2     	0.959184	0        	0.959184	0.959184
875 	2     	0.959184	0        	0.959184	0.959184
876 	2     	0.959184	0        	0.959184	0.959184
877 	2     	0.959184	0        	0.959184	0.959184
878 	2     	0.959184	0        	0.959184	0.959184
879 	2     	0.959184	0        	0.959184	0.959184
880 	2     	0.959184	0        	0.959184	0.959184
881 	2     	0.959184	0        	0.959184	0.959184
882 	2     	0.959184	0        	0.959184	0.959184
883 	2     	0.959184	0        	0.959184	0.959184
884 	2     	0.959184	0        	0.959184	0.959184
885 	2     	0.959184	0        	0.959184	0.959184
886 	2     	0.959184	0        	0.959184	0.959184
887 	2     	0.959184	0        	0.959184	0.959184
888 	2     	0.959184	0        	0.959184	0.959184
889 	2     	0.959184	0        	0.959184	0.959184
890 	2     	0.959184	0        	0.959184	0.959184
891 	2     	0.959184	0        	0.959184	0.959184
892 	2     	0.959184	0        	0.959184	0.959184
893 	2     	0.959184	0        	0.959184	0.959184
894 	2     	0.959184	0        	0.959184	0.959184
895 	2     	0.959184	0        	0.959184	0.959184
896 	2     	0.959184	0        	0.959184	0.959184
897 	2     	0.959184	0        	0.959184	0.959184
898 	2     	0.959184	0        	0.959184	0.959184
899 	2     	0.959184	0        	0.959184	0.959184
900 	2     	0.959184	0        	0.959184	0.959184
901 	2     	0.959184	0        	0.959184	0.959184
902 	2     	0.959184	0        	0.959184	0.959184
903 	2     	0.959184	0        	0.959184	0.959184
904 	2     	0.959184	0        	0.959184	0.959184
905 	2     	0.959184	0        	0.959184	0.959184
906 	2     	0.959184	0        	0.959184	0.959184
907 	2     	0.959184	0        	0.959184	0.959184
908 	2     	0.959184	0        	0.959184	0.959184
909 	2     	0.959184	0        	0.959184	0.959184
910 	2     	0.959184	0        	0.959184	0.959184
911 	2     	0.959184	0        	0.959184	0.959184
912 	2     	0.959184	0        	0.959184	0.959184
913 	2     	0.959184	0        	0.959184	0.959184
914 	2     	0.959184	0        	0.959184	0.959184
915 	2     	0.959184	0        	0.959184	0.959184
916 	2     	0.959184	0        	0.959184	0.959184
917 	2     	0.959184	0        	0.959184	0.959184
918 	2     	0.959184	0        	0.959184	0.959184
919 	2     	0.959184	0        	0.959184	0.959184
920 	2     	0.959184	0        	0.959184	0.959184
921 	2     	0.959184	0        	0.959184	0.959184
922 	2     	0.959184	0        	0.959184	0.959184
923 	2     	0.959184	0        	0.959184	0.959184
924 	2     	0.959184	0        	0.959184	0.959184
925 	2     	0.959184	0        	0.959184	0.959184
926 	2     	0.959184	0        	0.959184	0.959184
927 	2     	0.959184	0        	0.959184	0.959184
928 	2     	0.959184	0        	0.959184	0.959184
929 	2     	0.959184	0        	0.959184	0.959184
930 	2     	0.959184	0        	0.959184	0.959184
931 	2     	0.959184	0        	0.959184	0.959184
932 	2     	0.959184	0        	0.959184	0.959184
933 	2     	0.959184	0        	0.959184	0.959184
934 	2     	0.959184	0        	0.959184	0.959184
935 	2     	0.959184	0        	0.959184	0.959184
936 	2     	0.959184	0        	0.959184	0.959184
937 	2     	0.959184	0        	0.959184	0.959184
938 	2     	0.959184	0        	0.959184	0.959184
939 	2     	0.959184	0        	0.959184	0.959184
940 	2     	0.959184	0        	0.959184	0.959184
941 	2     	0.959184	0        	0.959184	0.959184
942 	2     	0.959184	0        	0.959184	0.959184
943 	2     	0.959184	0        	0.959184	0.959184
944 	2     	0.959184	0        	0.959184	0.959184
945 	2     	0.959184	0        	0.959184	0.959184
946 	2     	0.959184	0        	0.959184	0.959184
947 	2     	0.959184	0        	0.959184	0.959184
948 	2     	0.959184	0        	0.959184	0.959184
949 	2     	0.959184	0        	0.959184	0.959184
950 	2     	0.959184	0        	0.959184	0.959184
951 	2     	0.959184	0        	0.959184	0.959184
952 	2     	0.959184	0        	0.959184	0.959184
953 	2     	0.959184	0        	0.959184	0.959184
954 	2     	0.959184	0        	0.959184	0.959184
955 	2     	0.959184	0        	0.959184	0.959184
956 	2     	0.959184	0        	0.959184	0.959184
957 	2     	0.959184	0        	0.959184	0.959184
958 	2     	0.959184	0        	0.959184	0.959184
959 	2     	0.959184	0        	0.959184	0.959184
960 	2     	0.959184	0        	0.959184	0.959184
961 	2     	0.959184	0        	0.959184	0.959184
962 	2     	0.959184	0        	0.959184	0.959184
963 	2     	0.959184	0        	0.959184	0.959184
964 	2     	0.959184	0        	0.959184	0.959184
965 	2     	0.959184	0        	0.959184	0.959184
966 	2     	0.959184	0        	0.959184	0.959184
967 	2     	0.959184	0        	0.959184	0.959184
968 	2     	0.959184	0        	0.959184	0.959184
969 	2     	0.959184	0        	0.959184	0.959184
970 	2     	0.959184	0        	0.959184	0.959184
971 	2     	0.959184	0        	0.959184	0.959184
972 	2     	0.959184	0        	0.959184	0.959184
973 	2     	0.959184	0        	0.959184	0.959184
974 	2     	0.959184	0        	0.959184	0.959184
975 	2     	0.959184	0        	0.959184	0.959184
976 	2     	0.959184	0        	0.959184	0.959184
977 	2     	0.959184	0        	0.959184	0.959184
978 	2     	0.959184	0        	0.959184	0.959184
979 	2     	0.959184	0        	0.959184	0.959184
980 	2     	0.959184	0        	0.959184	0.959184
981 	2     	0.959184	0        	0.959184	0.959184
982 	2     	0.959184	0        	0.959184	0.959184
983 	2     	0.959184	0        	0.959184	0.959184
984 	2     	0.959184	0        	0.959184	0.959184
985 	2     	0.959184	0        	0.959184	0.959184
986 	2     	0.959184	0        	0.959184	0.959184
987 	2     	0.959184	0        	0.959184	0.959184
988 	2     	0.959184	0        	0.959184	0.959184
989 	2     	0.959184	0        	0.959184	0.959184
990 	2     	0.959184	0        	0.959184	0.959184
991 	2     	0.959184	0        	0.959184	0.959184
992 	2     	0.959184	0        	0.959184	0.959184
993 	2     	0.959184	0        	0.959184	0.959184
994 	2     	0.959184	0        	0.959184	0.959184
995 	2     	0.959184	0        	0.959184	0.959184
996 	2     	0.959184	0        	0.959184	0.959184
997 	2     	0.959184	0        	0.959184	0.959184
998 	2     	0.959184	0        	0.959184	0.959184
999 	2     	0.959184	0        	0.959184	0.959184
1000	2     	0.959184	0        	0.959184	0.959184
1001	2     	0.959184	0        	0.959184	0.959184
1002	2     	0.959184	0        	0.959184	0.959184
1003	2     	0.959184	0        	0.959184	0.959184
1004	2     	0.959184	0        	0.959184	0.959184
1005	2     	0.959184	0        	0.959184	0.959184
1006	2     	0.959184	0        	0.959184	0.959184
1007	2     	0.959184	0        	0.959184	0.959184
1008	2     	0.959184	0        	0.959184	0.959184
1009	2     	0.959184	0        	0.959184	0.959184
1010	2     	0.959184	0        	0.959184	0.959184
1011	2     	0.959184	0        	0.959184	0.959184
1012	2     	0.959184	0        	0.959184	0.959184
1013	2     	0.959184	0        	0.959184	0.959184
1014	2     	0.959184	0        	0.959184	0.959184
1015	2     	0.959184	0        	0.959184	0.959184
1016	2     	0.959184	0        	0.959184	0.959184
1017	2     	0.959184	0        	0.959184	0.959184
1018	2     	0.959184	0        	0.959184	0.959184
1019	2     	0.959184	0        	0.959184	0.959184
1020	2     	0.959184	0        	0.959184	0.959184
1021	2     	0.959184	0        	0.959184	0.959184
1022	2     	0.959184	0        	0.959184	0.959184
1023	2     	0.959184	0        	0.959184	0.959184
1024	2     	0.959184	0        	0.959184	0.959184
1025	2     	0.959184	0        	0.959184	0.959184
1026	2     	0.959184	0        	0.959184	0.959184
1027	2     	0.959184	0        	0.959184	0.959184
1028	2     	0.959184	0        	0.959184	0.959184
1029	2     	0.959184	0        	0.959184	0.959184
1030	2     	0.959184	0        	0.959184	0.959184
1031	2     	0.959184	0        	0.959184	0.959184
1032	2     	0.959184	0        	0.959184	0.959184
1033	2     	0.959184	0        	0.959184	0.959184
1034	2     	0.959184	0        	0.959184	0.959184
1035	2     	0.959184	0        	0.959184	0.959184
1036	2     	0.959184	0        	0.959184	0.959184
1037	2     	0.959184	0        	0.959184	0.959184
1038	2     	0.959184	0        	0.959184	0.959184
1039	2     	0.959184	0        	0.959184	0.959184
1040	2     	0.959184	0        	0.959184	0.959184
1041	2     	0.959184	0        	0.959184	0.959184
1042	2     	0.959184	0        	0.959184	0.959184
1043	2     	0.959184	0        	0.959184	0.959184
1044	2     	0.959184	0        	0.959184	0.959184
1045	2     	0.959184	0        	0.959184	0.959184
1046	2     	0.959184	0        	0.959184	0.959184
1047	2     	0.959184	0        	0.959184	0.959184
1048	2     	0.959184	0        	0.959184	0.959184
1049	2     	0.959184	0        	0.959184	0.959184
1050	2     	0.959184	0        	0.959184	0.959184
1051	2     	0.959184	0        	0.959184	0.959184
1052	2     	0.959184	0        	0.959184	0.959184
1053	2     	0.959184	0        	0.959184	0.959184
1054	2     	0.959184	0        	0.959184	0.959184
1055	2     	0.959184	0        	0.959184	0.959184
1056	2     	0.959184	0        	0.959184	0.959184
1057	2     	0.959184	0        	0.959184	0.959184
1058	2     	0.959184	0        	0.959184	0.959184
1059	2     	0.959184	0        	0.959184	0.959184
1060	2     	0.959184	0        	0.959184	0.959184
1061	2     	0.959184	0        	0.959184	0.959184
1062	2     	0.959184	0        	0.959184	0.959184
1063	2     	0.959184	0        	0.959184	0.959184
1064	2     	0.959184	0        	0.959184	0.959184
1065	2     	0.959184	0        	0.959184	0.959184
1066	2     	0.959184	0        	0.959184	0.959184
1067	2     	0.959184	0        	0.959184	0.959184
1068	2     	0.959184	0        	0.959184	0.959184
1069	2     	0.959184	0        	0.959184	0.959184
1070	2     	0.959184	0        	0.959184	0.959184
1071	2     	0.959184	0        	0.959184	0.959184
1072	2     	0.959184	0        	0.959184	0.959184
1073	2     	0.959184	0        	0.959184	0.959184
1074	2     	0.959184	0        	0.959184	0.959184
1075	2     	0.959184	0        	0.959184	0.959184
1076	2     	0.959184	0        	0.959184	0.959184
1077	2     	0.959184	0        	0.959184	0.959184
1078	2     	0.959184	0        	0.959184	0.959184
1079	2     	0.959184	0        	0.959184	0.959184
1080	2     	0.959184	0        	0.959184	0.959184
1081	2     	0.959184	0        	0.959184	0.959184
1082	2     	0.959184	0        	0.959184	0.959184
1083	2     	0.959184	0        	0.959184	0.959184
1084	2     	0.959184	0        	0.959184	0.959184
1085	2     	0.959184	0        	0.959184	0.959184
1086	2     	0.959184	0        	0.959184	0.959184
1087	2     	0.959184	0        	0.959184	0.959184
1088	2     	0.959184	0        	0.959184	0.959184
1089	2     	0.959184	0        	0.959184	0.959184
1090	2     	0.959184	0        	0.959184	0.959184
1091	2     	0.959184	0        	0.959184	0.959184
1092	2     	0.959184	0        	0.959184	0.959184
1093	2     	0.959184	0        	0.959184	0.959184
1094	2     	0.959184	0        	0.959184	0.959184
1095	2     	0.959184	0        	0.959184	0.959184
1096	2     	0.959184	0        	0.959184	0.959184
1097	2     	0.959184	0        	0.959184	0.959184
1098	2     	0.959184	0        	0.959184	0.959184
1099	2     	0.959184	0        	0.959184	0.959184
1100	2     	0.959184	0        	0.959184	0.959184
1101	2     	0.959184	0        	0.959184	0.959184
1102	2     	0.959184	0        	0.959184	0.959184
1103	2     	0.959184	0        	0.959184	0.959184
1104	2     	0.959184	0        	0.959184	0.959184
1105	2     	0.959184	0        	0.959184	0.959184
1106	2     	0.959184	0        	0.959184	0.959184
1107	2     	0.959184	0        	0.959184	0.959184
1108	2     	0.959184	0        	0.959184	0.959184
1109	2     	0.959184	0        	0.959184	0.959184
1110	2     	0.959184	0        	0.959184	0.959184
1111	2     	0.959184	0        	0.959184	0.959184
1112	2     	0.959184	0        	0.959184	0.959184
1113	2     	0.959184	0        	0.959184	0.959184
1114	2     	0.959184	0        	0.959184	0.959184
1115	2     	0.959184	0        	0.959184	0.959184
1116	2     	0.959184	0        	0.959184	0.959184
1117	2     	0.959184	0        	0.959184	0.959184
1118	2     	0.959184	0        	0.959184	0.959184
1119	2     	0.959184	0        	0.959184	0.959184
1120	2     	0.959184	0        	0.959184	0.959184
1121	2     	0.959184	0        	0.959184	0.959184
1122	2     	0.959184	0        	0.959184	0.959184
1123	2     	0.959184	0        	0.959184	0.959184
1124	2     	0.959184	0        	0.959184	0.959184
1125	2     	0.959184	0        	0.959184	0.959184
1126	2     	0.959184	0        	0.959184	0.959184
1127	2     	0.959184	0        	0.959184	0.959184
1128	2     	0.959184	0        	0.959184	0.959184
1129	2     	0.959184	0        	0.959184	0.959184
1130	2     	0.959184	0        	0.959184	0.959184
1131	2     	0.959184	0        	0.959184	0.959184
1132	2     	0.959184	0        	0.959184	0.959184
1133	2     	0.959184	0        	0.959184	0.959184
1134	2     	0.959184	0        	0.959184	0.959184
1135	2     	0.959184	0        	0.959184	0.959184
1136	2     	0.959184	0        	0.959184	0.959184
1137	2     	0.959184	0        	0.959184	0.959184
1138	2     	0.959184	0        	0.959184	0.959184
1139	2     	0.959184	0        	0.959184	0.959184
1140	2     	0.959184	0        	0.959184	0.959184
1141	2     	0.969388	0.0102041	0.959184	0.979592
1142	2     	0.969388	0.0102041	0.959184	0.979592
1143	2     	0.969388	0.0102041	0.959184	0.979592
1144	2     	0.969388	0.0102041	0.959184	0.979592
1145	2     	0.969388	0.0102041	0.959184	0.979592
1146	2     	0.969388	0.0102041	0.959184	0.979592
1147	2     	0.969388	0.0102041	0.959184	0.979592
1148	2     	0.969388	0.0102041	0.959184	0.979592
1149	2     	0.969388	0.0102041	0.959184	0.979592
1150	2     	0.969388	0.0102041	0.959184	0.979592
1151	2     	0.969388	0.0102041	0.959184	0.979592
1152	2     	0.969388	0.0102041	0.959184	0.979592
1153	2     	0.969388	0.0102041	0.959184	0.979592
1154	2     	0.969388	0.0102041	0.959184	0.979592
1155	2     	0.969388	0.0102041	0.959184	0.979592
1156	2     	0.969388	0.0102041	0.959184	0.979592
1157	2     	0.969388	0.0102041	0.959184	0.979592
1158	2     	0.969388	0.0102041	0.959184	0.979592
1159	2     	0.969388	0.0102041	0.959184	0.979592
1160	2     	0.969388	0.0102041	0.959184	0.979592
1161	2     	0.969388	0.0102041	0.959184	0.979592
1162	2     	0.969388	0.0102041	0.959184	0.979592
1163	2     	0.969388	0.0102041	0.959184	0.979592
1164	2     	0.969388	0.0102041	0.959184	0.979592
1165	2     	0.969388	0.0102041	0.959184	0.979592
1166	2     	0.969388	0.0102041	0.959184	0.979592
1167	2     	0.969388	0.0102041	0.959184	0.979592
1168	2     	0.969388	0.0102041	0.959184	0.979592
1169	2     	0.969388	0.0102041	0.959184	0.979592
1170	2     	0.969388	0.0102041	0.959184	0.979592
1171	2     	0.969388	0.0102041	0.959184	0.979592
1172	2     	0.969388	0.0102041	0.959184	0.979592
1173	2     	0.969388	0.0102041	0.959184	0.979592
1174	2     	0.969388	0.0102041	0.959184	0.979592
1175	2     	0.969388	0.0102041	0.959184	0.979592
1176	2     	0.969388	0.0102041	0.959184	0.979592
1177	2     	0.969388	0.0102041	0.959184	0.979592
1178	2     	0.969388	0.0102041	0.959184	0.979592
1179	2     	0.969388	0.0102041	0.959184	0.979592
1180	2     	0.969388	0.0102041	0.959184	0.979592
1181	2     	0.969388	0.0102041	0.959184	0.979592
1182	2     	0.969388	0.0102041	0.959184	0.979592
1183	2     	0.969388	0.0102041	0.959184	0.979592
1184	2     	0.969388	0.0102041	0.959184	0.979592
1185	2     	0.969388	0.0102041	0.959184	0.979592
1186	2     	0.969388	0.0102041	0.959184	0.979592
1187	2     	0.969388	0.0102041	0.959184	0.979592
1188	2     	0.969388	0.0102041	0.959184	0.979592
1189	2     	0.969388	0.0102041	0.959184	0.979592
1190	2     	0.969388	0.0102041	0.959184	0.979592
1191	2     	0.969388	0.0102041	0.959184	0.979592
1192	2     	0.969388	0.0102041	0.959184	0.979592
1193	2     	0.969388	0.0102041	0.959184	0.979592
1194	2     	0.969388	0.0102041	0.959184	0.979592
1195	2     	0.969388	0.0102041	0.959184	0.979592
1196	2     	0.969388	0.0102041	0.959184	0.979592
1197	2     	0.969388	0.0102041	0.959184	0.979592
1198	2     	0.969388	0.0102041	0.959184	0.979592
1199	2     	0.969388	0.0102041	0.959184	0.979592
1200	2     	0.969388	0.0102041	0.959184	0.979592
1201	2     	0.969388	0.0102041	0.959184	0.979592
1202	2     	0.969388	0.0102041	0.959184	0.979592
1203	2     	0.969388	0.0102041	0.959184	0.979592
1204	2     	0.969388	0.0102041	0.959184	0.979592
1205	2     	0.969388	0.0102041	0.959184	0.979592
1206	2     	0.969388	0.0102041	0.959184	0.979592
1207	2     	0.969388	0.0102041	0.959184	0.979592
1208	2     	0.969388	0.0102041	0.959184	0.979592
1209	2     	0.969388	0.0102041	0.959184	0.979592
1210	2     	0.969388	0.0102041	0.959184	0.979592
1211	2     	0.969388	0.0102041	0.959184	0.979592
1212	2     	0.969388	0.0102041	0.959184	0.979592
1213	2     	0.969388	0.0102041	0.959184	0.979592
1214	2     	0.969388	0.0102041	0.959184	0.979592
1215	2     	0.969388	0.0102041	0.959184	0.979592
1216	2     	0.969388	0.0102041	0.959184	0.979592
1217	2     	0.969388	0.0102041	0.959184	0.979592
1218	2     	0.969388	0.0102041	0.959184	0.979592
1219	2     	0.969388	0.0102041	0.959184	0.979592
1220	2     	0.969388	0.0102041	0.959184	0.979592
1221	2     	0.969388	0.0102041	0.959184	0.979592
1222	2     	0.969388	0.0102041	0.959184	0.979592
1223	2     	0.969388	0.0102041	0.959184	0.979592
1224	2     	0.969388	0.0102041	0.959184	0.979592
1225	2     	0.969388	0.0102041	0.959184	0.979592
1226	2     	0.969388	0.0102041	0.959184	0.979592
1227	2     	0.969388	0.0102041	0.959184	0.979592
1228	2     	0.969388	0.0102041	0.959184	0.979592
1229	2     	0.969388	0.0102041	0.959184	0.979592
1230	2     	0.969388	0.0102041	0.959184	0.979592
1231	2     	0.969388	0.0102041	0.959184	0.979592
1232	2     	0.969388	0.0102041	0.959184	0.979592
1233	2     	0.969388	0.0102041	0.959184	0.979592
1234	2     	0.969388	0.0102041	0.959184	0.979592
1235	2     	0.969388	0.0102041	0.959184	0.979592
1236	2     	0.969388	0.0102041	0.959184	0.979592
1237	2     	0.969388	0.0102041	0.959184	0.979592
1238	2     	0.969388	0.0102041	0.959184	0.979592
1239	2     	0.969388	0.0102041	0.959184	0.979592
1240	2     	0.969388	0.0102041	0.959184	0.979592
1241	2     	0.969388	0.0102041	0.959184	0.979592
1242	2     	0.969388	0.0102041	0.959184	0.979592
1243	2     	0.969388	0.0102041	0.959184	0.979592
1244	2     	0.969388	0.0102041	0.959184	0.979592
1245	2     	0.969388	0.0102041	0.959184	0.979592
1246	2     	0.969388	0.0102041	0.959184	0.979592
1247	2     	0.969388	0.0102041	0.959184	0.979592
1248	2     	0.969388	0.0102041	0.959184	0.979592
1249	2     	0.969388	0.0102041	0.959184	0.979592
1250	2     	0.969388	0.0102041	0.959184	0.979592
1251	2     	0.969388	0.0102041	0.959184	0.979592
1252	2     	0.969388	0.0102041	0.959184	0.979592
1253	2     	0.969388	0.0102041	0.959184	0.979592
1254	2     	0.969388	0.0102041	0.959184	0.979592
1255	2     	0.969388	0.0102041	0.959184	0.979592
1256	2     	0.969388	0.0102041	0.959184	0.979592
1257	2     	0.969388	0.0102041	0.959184	0.979592
1258	2     	0.969388	0.0102041	0.959184	0.979592
1259	2     	0.969388	0.0102041	0.959184	0.979592
1260	2     	0.969388	0.0102041	0.959184	0.979592
1261	2     	0.969388	0.0102041	0.959184	0.979592
1262	2     	0.969388	0.0102041	0.959184	0.979592
1263	2     	0.969388	0.0102041	0.959184	0.979592
1264	2     	0.969388	0.0102041	0.959184	0.979592
1265	2     	0.969388	0.0102041	0.959184	0.979592
1266	2     	0.969388	0.0102041	0.959184	0.979592
1267	2     	0.969388	0.0102041	0.959184	0.979592
1268	2     	0.969388	0.0102041	0.959184	0.979592
1269	2     	0.969388	0.0102041	0.959184	0.979592
1270	2     	0.969388	0.0102041	0.959184	0.979592
1271	2     	0.969388	0.0102041	0.959184	0.979592
1272	2     	0.969388	0.0102041	0.959184	0.979592
1273	2     	0.969388	0.0102041	0.959184	0.979592
1274	2     	0.969388	0.0102041	0.959184	0.979592
1275	2     	0.969388	0.0102041	0.959184	0.979592
1276	2     	0.969388	0.0102041	0.959184	0.979592
1277	2     	0.969388	0.0102041	0.959184	0.979592
1278	2     	0.969388	0.0102041	0.959184	0.979592
1279	2     	0.969388	0.0102041	0.959184	0.979592
1280	2     	0.969388	0.0102041	0.959184	0.979592
1281	2     	0.969388	0.0102041	0.959184	0.979592
1282	2     	0.969388	0.0102041	0.959184	0.979592
1283	2     	0.969388	0.0102041	0.959184	0.979592
1284	2     	0.969388	0.0102041	0.959184	0.979592
1285	2     	0.969388	0.0102041	0.959184	0.979592
1286	2     	0.969388	0.0102041	0.959184	0.979592
1287	2     	0.969388	0.0102041	0.959184	0.979592
1288	2     	0.969388	0.0102041	0.959184	0.979592
1289	2     	0.969388	0.0102041	0.959184	0.979592
1290	2     	0.969388	0.0102041	0.959184	0.979592
1291	2     	0.969388	0.0102041	0.959184	0.979592
1292	2     	0.969388	0.0102041	0.959184	0.979592
1293	2     	0.969388	0.0102041	0.959184	0.979592
1294	2     	0.969388	0.0102041	0.959184	0.979592
1295	2     	0.969388	0.0102041	0.959184	0.979592
1296	2     	0.969388	0.0102041	0.959184	0.979592
1297	2     	0.969388	0.0102041	0.959184	0.979592
1298	2     	0.969388	0.0102041	0.959184	0.979592
1299	2     	0.969388	0.0102041	0.959184	0.979592
1300	2     	0.969388	0.0102041	0.959184	0.979592
1301	2     	0.969388	0.0102041	0.959184	0.979592
1302	2     	0.969388	0.0102041	0.959184	0.979592
1303	2     	0.969388	0.0102041	0.959184	0.979592
1304	2     	0.969388	0.0102041	0.959184	0.979592
1305	2     	0.969388	0.0102041	0.959184	0.979592
1306	2     	0.969388	0.0102041	0.959184	0.979592
1307	2     	0.969388	0.0102041	0.959184	0.979592
1308	2     	0.969388	0.0102041	0.959184	0.979592
1309	2     	0.969388	0.0102041	0.959184	0.979592
1310	2     	0.969388	0.0102041	0.959184	0.979592
1311	2     	0.969388	0.0102041	0.959184	0.979592
1312	2     	0.969388	0.0102041	0.959184	0.979592
1313	2     	0.969388	0.0102041	0.959184	0.979592
1314	2     	0.969388	0.0102041	0.959184	0.979592
1315	2     	0.969388	0.0102041	0.959184	0.979592
1316	2     	0.969388	0.0102041	0.959184	0.979592
1317	2     	0.969388	0.0102041	0.959184	0.979592
1318	2     	0.969388	0.0102041	0.959184	0.979592
1319	2     	0.969388	0.0102041	0.959184	0.979592
1320	2     	0.969388	0.0102041	0.959184	0.979592
1321	2     	0.969388	0.0102041	0.959184	0.979592
1322	2     	0.969388	0.0102041	0.959184	0.979592
1323	2     	0.969388	0.0102041	0.959184	0.979592
1324	2     	0.969388	0.0102041	0.959184	0.979592
1325	2     	0.969388	0.0102041	0.959184	0.979592
1326	2     	0.969388	0.0102041	0.959184	0.979592
1327	2     	0.969388	0.0102041	0.959184	0.979592
1328	2     	0.969388	0.0102041	0.959184	0.979592
1329	2     	0.969388	0.0102041	0.959184	0.979592
1330	2     	0.969388	0.0102041	0.959184	0.979592
1331	2     	0.969388	0.0102041	0.959184	0.979592
1332	2     	0.969388	0.0102041	0.959184	0.979592
1333	2     	0.969388	0.0102041	0.959184	0.979592
1334	2     	0.969388	0.0102041	0.959184	0.979592
1335	2     	0.969388	0.0102041	0.959184	0.979592
1336	2     	0.969388	0.0102041	0.959184	0.979592
1337	2     	0.969388	0.0102041	0.959184	0.979592
1338	2     	0.969388	0.0102041	0.959184	0.979592
1339	2     	0.969388	0.0102041	0.959184	0.979592
1340	2     	0.969388	0.0102041	0.959184	0.979592
1341	2     	0.969388	0.0102041	0.959184	0.979592
1342	2     	0.969388	0.0102041	0.959184	0.979592
1343	2     	0.969388	0.0102041	0.959184	0.979592
1344	2     	0.969388	0.0102041	0.959184	0.979592
1345	2     	0.969388	0.0102041	0.959184	0.979592
1346	2     	0.969388	0.0102041	0.959184	0.979592
1347	2     	0.969388	0.0102041	0.959184	0.979592
1348	2     	0.969388	0.0102041	0.959184	0.979592
1349	2     	0.969388	0.0102041	0.959184	0.979592
1350	2     	0.969388	0.0102041	0.959184	0.979592
1351	2     	0.969388	0.0102041	0.959184	0.979592
1352	2     	0.969388	0.0102041	0.959184	0.979592
1353	2     	0.969388	0.0102041	0.959184	0.979592
1354	2     	0.969388	0.0102041	0.959184	0.979592
1355	2     	0.969388	0.0102041	0.959184	0.979592
1356	2     	0.969388	0.0102041	0.959184	0.979592
1357	2     	0.969388	0.0102041	0.959184	0.979592
1358	2     	0.969388	0.0102041	0.959184	0.979592
1359	2     	0.969388	0.0102041	0.959184	0.979592
1360	2     	0.969388	0.0102041	0.959184	0.979592
1361	2     	0.969388	0.0102041	0.959184	0.979592
1362	2     	0.969388	0.0102041	0.959184	0.979592
1363	2     	0.969388	0.0102041	0.959184	0.979592
1364	2     	0.969388	0.0102041	0.959184	0.979592
1365	2     	0.969388	0.0102041	0.959184	0.979592
1366	2     	0.969388	0.0102041	0.959184	0.979592
1367	2     	0.969388	0.0102041	0.959184	0.979592
1368	2     	0.969388	0.0102041	0.959184	0.979592
1369	2     	0.969388	0.0102041	0.959184	0.979592
1370	2     	0.969388	0.0102041	0.959184	0.979592
1371	2     	0.969388	0.0102041	0.959184	0.979592
1372	2     	0.969388	0.0102041	0.959184	0.979592
1373	2     	0.969388	0.0102041	0.959184	0.979592
1374	2     	0.969388	0.0102041	0.959184	0.979592
1375	2     	0.969388	0.0102041	0.959184	0.979592
1376	2     	0.969388	0.0102041	0.959184	0.979592
1377	2     	0.969388	0.0102041	0.959184	0.979592
1378	2     	0.969388	0.0102041	0.959184	0.979592
1379	2     	0.969388	0.0102041	0.959184	0.979592
1380	2     	0.969388	0.0102041	0.959184	0.979592
1381	2     	0.969388	0.0102041	0.959184	0.979592
1382	2     	0.969388	0.0102041	0.959184	0.979592
1383	2     	0.969388	0.0102041	0.959184	0.979592
1384	2     	0.969388	0.0102041	0.959184	0.979592
1385	2     	0.969388	0.0102041	0.959184	0.979592
1386	2     	0.969388	0.0102041	0.959184	0.979592
1387	2     	0.969388	0.0102041	0.959184	0.979592
1388	2     	0.969388	0.0102041	0.959184	0.979592
1389	2     	0.969388	0.0102041	0.959184	0.979592
1390	2     	0.969388	0.0102041	0.959184	0.979592
1391	2     	0.969388	0.0102041	0.959184	0.979592
1392	2     	0.969388	0.0102041	0.959184	0.979592
1393	2     	0.969388	0.0102041	0.959184	0.979592
1394	2     	0.969388	0.0102041	0.959184	0.979592
1395	2     	0.969388	0.0102041	0.959184	0.979592
1396	2     	0.969388	0.0102041	0.959184	0.979592
1397	2     	0.969388	0.0102041	0.959184	0.979592
1398	2     	0.969388	0.0102041	0.959184	0.979592
1399	2     	0.969388	0.0102041	0.959184	0.979592
1400	2     	0.969388	0.0102041	0.959184	0.979592
1401	2     	0.969388	0.0102041	0.959184	0.979592
1402	2     	0.969388	0.0102041	0.959184	0.979592
1403	2     	0.969388	0.0102041	0.959184	0.979592
1404	2     	0.969388	0.0102041	0.959184	0.979592
1405	2     	0.969388	0.0102041	0.959184	0.979592
1406	2     	0.969388	0.0102041	0.959184	0.979592
1407	2     	0.969388	0.0102041	0.959184	0.979592
1408	2     	0.969388	0.0102041	0.959184	0.979592
1409	2     	0.969388	0.0102041	0.959184	0.979592
1410	2     	0.969388	0.0102041	0.959184	0.979592
1411	2     	0.969388	0.0102041	0.959184	0.979592
1412	2     	0.969388	0.0102041	0.959184	0.979592
1413	2     	0.969388	0.0102041	0.959184	0.979592
1414	2     	0.969388	0.0102041	0.959184	0.979592
1415	2     	0.969388	0.0102041	0.959184	0.979592
1416	2     	0.969388	0.0102041	0.959184	0.979592
1417	2     	0.969388	0.0102041	0.959184	0.979592
1418	2     	0.969388	0.0102041	0.959184	0.979592
1419	2     	0.969388	0.0102041	0.959184	0.979592
1420	2     	0.969388	0.0102041	0.959184	0.979592
1421	2     	0.969388	0.0102041	0.959184	0.979592
1422	2     	0.969388	0.0102041	0.959184	0.979592
1423	2     	0.969388	0.0102041	0.959184	0.979592
1424	2     	0.969388	0.0102041	0.959184	0.979592
1425	2     	0.969388	0.0102041	0.959184	0.979592
1426	2     	0.969388	0.0102041	0.959184	0.979592
1427	2     	0.969388	0.0102041	0.959184	0.979592
1428	2     	0.969388	0.0102041	0.959184	0.979592
1429	2     	0.969388	0.0102041	0.959184	0.979592
1430	2     	0.969388	0.0102041	0.959184	0.979592
1431	2     	0.969388	0.0102041	0.959184	0.979592
1432	2     	0.969388	0.0102041	0.959184	0.979592
1433	2     	0.969388	0.0102041	0.959184	0.979592
1434	2     	0.969388	0.0102041	0.959184	0.979592
1435	2     	0.969388	0.0102041	0.959184	0.979592
1436	2     	0.969388	0.0102041	0.959184	0.979592
1437	2     	0.969388	0.0102041	0.959184	0.979592
1438	2     	0.969388	0.0102041	0.959184	0.979592
1439	2     	0.969388	0.0102041	0.959184	0.979592
1440	2     	0.969388	0.0102041	0.959184	0.979592
1441	2     	0.969388	0.0102041	0.959184	0.979592
1442	2     	0.969388	0.0102041	0.959184	0.979592
1443	2     	0.969388	0.0102041	0.959184	0.979592
1444	2     	0.969388	0.0102041	0.959184	0.979592
1445	2     	0.969388	0.0102041	0.959184	0.979592
1446	2     	0.979592	0        	0.979592	0.979592
1447	2     	0.979592	0        	0.979592	0.979592
1448	2     	0.979592	0        	0.979592	0.979592
1449	2     	0.979592	0        	0.979592	0.979592
1450	2     	0.979592	0        	0.979592	0.979592
1451	2     	0.979592	0        	0.979592	0.979592
1452	2     	0.979592	0        	0.979592	0.979592
1453	2     	0.979592	0        	0.979592	0.979592
1454	2     	0.979592	0        	0.979592	0.979592
1455	2     	0.979592	0        	0.979592	0.979592
1456	2     	0.979592	0        	0.979592	0.979592
1457	2     	0.979592	0        	0.979592	0.979592
1458	2     	0.979592	0        	0.979592	0.979592
1459	2     	0.979592	0        	0.979592	0.979592
1460	2     	0.979592	0        	0.979592	0.979592
1461	2     	0.979592	0        	0.979592	0.979592
1462	2     	0.979592	0        	0.979592	0.979592
1463	2     	0.979592	0        	0.979592	0.979592
1464	2     	0.979592	0        	0.979592	0.979592
1465	2     	0.979592	0        	0.979592	0.979592
1466	2     	0.979592	0        	0.979592	0.979592
1467	2     	0.979592	0        	0.979592	0.979592
1468	2     	0.979592	0        	0.979592	0.979592
1469	2     	0.979592	0        	0.979592	0.979592
1470	2     	0.979592	0        	0.979592	0.979592
1471	2     	0.979592	0        	0.979592	0.979592
1472	2     	0.979592	0        	0.979592	0.979592
1473	2     	0.979592	0        	0.979592	0.979592
1474	2     	0.979592	0        	0.979592	0.979592
1475	2     	0.979592	0        	0.979592	0.979592
1476	2     	0.979592	0        	0.979592	0.979592
1477	2     	0.979592	0        	0.979592	0.979592
1478	2     	0.979592	0        	0.979592	0.979592
1479	2     	0.979592	0        	0.979592	0.979592
1480	2     	0.979592	0        	0.979592	0.979592
1481	2     	0.979592	0        	0.979592	0.979592
1482	2     	0.979592	0        	0.979592	0.979592
1483	2     	0.979592	0        	0.979592	0.979592
1484	2     	0.979592	0        	0.979592	0.979592
1485	2     	0.979592	0        	0.979592	0.979592
1486	2     	0.979592	0        	0.979592	0.979592
1487	2     	0.979592	0        	0.979592	0.979592
1488	2     	0.979592	0        	0.979592	0.979592
1489	2     	0.979592	0        	0.979592	0.979592
1490	2     	0.979592	0        	0.979592	0.979592
1491	2     	0.979592	0        	0.979592	0.979592
1492	2     	0.979592	0        	0.979592	0.979592
1493	2     	0.979592	0        	0.979592	0.979592
1494	2     	0.979592	0        	0.979592	0.979592
1495	2     	0.979592	0        	0.979592	0.979592
1496	2     	0.979592	0        	0.979592	0.979592
1497	2     	0.979592	0        	0.979592	0.979592
1498	2     	0.979592	0        	0.979592	0.979592
1499	2     	0.979592	0        	0.979592	0.979592
1500	2     	0.979592	0        	0.979592	0.979592
1501	2     	0.979592	0        	0.979592	0.979592
1502	2     	0.979592	0        	0.979592	0.979592
1503	2     	0.979592	0        	0.979592	0.979592
1504	2     	0.979592	0        	0.979592	0.979592
1505	2     	0.979592	0        	0.979592	0.979592