gen	nevals	avg 	std 	min 	max 
0  	2     	0.6 	0.12	0.48	0.72
1  	2     	0.66	0.06	0.6 	0.72
2  	2     	0.66	0.06	0.6 	0.72
3  	2     	0.72	0   	0.72	0.72
4  	2     	0.72	0   	0.72	0.72
5  	2     	0.72	0   	0.72	0.72
6  	2     	0.72	0   	0.72	0.72
7  	2     	0.74	0.02	0.72	0.76
8  	2     	0.74	0.02	0.72	0.76
9  	2     	0.74	0.02	0.72	0.76
10 	2     	0.74	0.02	0.72	0.76
11 	2     	0.74	0.02	0.72	0.76
12 	2     	0.74	0.02	0.72	0.76
13 	2     	0.74	0.02	0.72	0.76
14 	2     	0.74	0.02	0.72	0.76
15 	2     	0.76	0   	0.76	0.76
16 	2     	0.76	0   	0.76	0.76
17 	2     	0.76	0   	0.76	0.76