gen	nevals	avg 	std 	min 	max 
0  	2     	0.62	0.18	0.44	0.8 
1  	2     	0.76	0.04	0.72	0.8 
2  	2     	0.76	0.04	0.72	0.8 
3  	2     	0.82	0.02	0.8 	0.84
4  	2     	0.82	0.02	0.8 	0.84
5  	2     	0.82	0.02	0.8 	0.84
6  	2     	0.82	0.02	0.8 	0.84
7  	2     	0.82	0.02	0.8 	0.84
8  	2     	0.82	0.02	0.8 	0.84
9  	2     	0.82	0.02	0.8 	0.84
10 	2     	0.86	0.02	0.84	0.88
11 	2     	0.86	0.02	0.84	0.88
12 	2     	0.86	0.02	0.84	0.88
13 	2     	0.88	0   	0.88	0.88
14 	2     	0.88	0   	0.88	0.88
15 	2     	0.88	0   	0.88	0.88
16 	2     	0.88	0   	0.88	0.88
17 	2     	0.88	0   	0.88	0.88
18 	2     	0.88	0   	0.88	0.88
19 	2     	0.88	0   	0.88	0.88
20 	2     	0.88	0   	0.88	0.88
21 	2     	0.88	0   	0.88	0.88
22 	2     	0.88	0   	0.88	0.88
23 	2     	0.88	0   	0.88	0.88
24 	2     	0.88	0   	0.88	0.88
25 	2     	0.88	0   	0.88	0.88
26 	2     	0.88	0   	0.88	0.88
27 	2     	0.88	0   	0.88	0.88
28 	2     	0.88	0   	0.88	0.88
29 	2     	0.88	0   	0.88	0.88
30 	2     	0.88	0   	0.88	0.88
31 	2     	0.88	0   	0.88	0.88
32 	2     	0.88	0   	0.88	0.88
33 	2     	0.88	0   	0.88	0.88
34 	2     	0.88	0   	0.88	0.88
35 	2     	0.88	0   	0.88	0.88
36 	2     	0.9 	0.02	0.88	0.92
37 	2     	0.9 	0.02	0.88	0.92
38 	2     	0.9 	0.02	0.88	0.92
39 	2     	0.9 	0.02	0.88	0.92
40 	2     	0.9 	0.02	0.88	0.92
41 	2     	0.9 	0.02	0.88	0.92
42 	2     	0.9 	0.02	0.88	0.92
43 	2     	0.9 	0.02	0.88	0.92
44 	2     	0.9 	0.02	0.88	0.92
45 	2     	0.9 	0.02	0.88	0.92
46 	2     	0.9 	0.02	0.88	0.92
47 	2     	0.9 	0.02	0.88	0.92
48 	2     	0.9 	0.02	0.88	0.92
49 	2     	0.9 	0.02	0.88	0.92
50 	2     	0.9 	0.02	0.88	0.92
51 	2     	0.9 	0.02	0.88	0.92
52 	2     	0.9 	0.02	0.88	0.92
53 	2     	0.9 	0.02	0.88	0.92
54 	2     	0.9 	0.02	0.88	0.92
55 	2     	0.9 	0.02	0.88	0.92
56 	2     	0.9 	0.02	0.88	0.92
57 	2     	0.9 	0.02	0.88	0.92
58 	2     	0.9 	0.02	0.88	0.92
59 	2     	0.9 	0.02	0.88	0.92
60 	2     	0.9 	0.02	0.88	0.92
61 	2     	0.9 	0.02	0.88	0.92
62 	2     	0.9 	0.02	0.88	0.92
63 	2     	0.9 	0.02	0.88	0.92
64 	2     	0.9 	0.02	0.88	0.92
65 	2     	0.9 	0.02	0.88	0.92
66 	2     	0.9 	0.02	0.88	0.92
67 	2     	0.92	0   	0.92	0.92
68 	2     	0.92	0   	0.92	0.92
69 	2     	0.92	0   	0.92	0.92
70 	2     	0.92	0   	0.92	0.92
71 	2     	0.92	0   	0.92	0.92
72 	2     	0.92	0   	0.92	0.92
73 	2     	0.92	0   	0.92	0.92
74 	2     	0.92	0   	0.92	0.92
75 	2     	0.92	0   	0.92	0.92
76 	2     	0.92	0   	0.92	0.92
77 	2     	0.92	0   	0.92	0.92
78 	2     	0.92	0   	0.92	0.92
79 	2     	0.92	0   	0.92	0.92
80 	2     	0.92	0   	0.92	0.92
81 	2     	0.92	0   	0.92	0.92
82 	2     	0.94	0.02	0.92	0.96
83 	2     	0.94	0.02	0.92	0.96
84 	2     	0.94	0.02	0.92	0.96
85 	2     	0.94	0.02	0.92	0.96
86 	2     	0.94	0.02	0.92	0.96
87 	2     	0.94	0.02	0.92	0.96
88 	2     	0.94	0.02	0.92	0.96
89 	2     	0.98	0.02	0.96	1   