gen	nevals	avg    	std    	min   	max   
0  	2     	0.5    	0.0625 	0.4375	0.5625
1  	2     	0.625  	0.0625 	0.5625	0.6875
2  	2     	0.6875 	0      	0.6875	0.6875
3  	2     	0.6875 	0      	0.6875	0.6875
4  	2     	0.6875 	0      	0.6875	0.6875
5  	2     	0.6875 	0      	0.6875	0.6875
6  	2     	0.75   	0.0625 	0.6875	0.8125
7  	2     	0.84375	0.03125	0.8125	0.875 
8  	2     	0.875  	0      	0.875 	0.875 
9  	2     	0.875  	0      	0.875 	0.875 
10 	2     	0.875  	0      	0.875 	0.875 
11 	2     	0.875  	0      	0.875 	0.875 