gen	nevals	avg     	std      	min     	max     
0  	2     	0.583333	0.0555556	0.527778	0.638889
1  	2     	0.638889	0        	0.638889	0.638889
2  	2     	0.652778	0.0138889	0.638889	0.666667
3  	2     	0.652778	0.0138889	0.638889	0.666667
4  	2     	0.652778	0.0138889	0.638889	0.666667
5  	2     	0.652778	0.0138889	0.638889	0.666667
6  	2     	0.652778	0.0138889	0.638889	0.666667
7  	2     	0.652778	0.0138889	0.638889	0.666667
8  	2     	0.666667	0        	0.666667	0.666667
9  	2     	0.666667	0        	0.666667	0.666667
10 	2     	0.666667	0        	0.666667	0.666667
11 	2     	0.680556	0.0138889	0.666667	0.694444
12 	2     	0.694444	0        	0.694444	0.694444
13 	2     	0.694444	0        	0.694444	0.694444
14 	2     	0.694444	0        	0.694444	0.694444
15 	2     	0.694444	0        	0.694444	0.694444
16 	2     	0.694444	0        	0.694444	0.694444
17 	2     	0.694444	0        	0.694444	0.694444
18 	2     	0.694444	0        	0.694444	0.694444
19 	2     	0.694444	0        	0.694444	0.694444
20 	2     	0.708333	0.0138889	0.694444	0.722222
21 	2     	0.708333	0.0138889	0.694444	0.722222
22 	2     	0.708333	0.0138889	0.694444	0.722222
23 	2     	0.708333	0.0138889	0.694444	0.722222
24 	2     	0.708333	0.0138889	0.694444	0.722222
25 	2     	0.708333	0.0138889	0.694444	0.722222
26 	2     	0.708333	0.0138889	0.694444	0.722222
27 	2     	0.708333	0.0138889	0.694444	0.722222
28 	2     	0.708333	0.0138889	0.694444	0.722222
29 	2     	0.722222	0        	0.722222	0.722222
30 	2     	0.722222	0        	0.722222	0.722222
31 	2     	0.736111	0.0138889	0.722222	0.75    
32 	2     	0.736111	0.0138889	0.722222	0.75    
33 	2     	0.736111	0.0138889	0.722222	0.75    
34 	2     	0.736111	0.0138889	0.722222	0.75    
35 	2     	0.736111	0.0138889	0.722222	0.75    
36 	2     	0.736111	0.0138889	0.722222	0.75    
37 	2     	0.736111	0.0138889	0.722222	0.75    
38 	2     	0.736111	0.0138889	0.722222	0.75    
39 	2     	0.736111	0.0138889	0.722222	0.75    
40 	2     	0.736111	0.0138889	0.722222	0.75    
41 	2     	0.763889	0.0138889	0.75    	0.777778
42 	2     	0.763889	0.0138889	0.75    	0.777778
43 	2     	0.763889	0.0138889	0.75    	0.777778
44 	2     	0.763889	0.0138889	0.75    	0.777778
45 	2     	0.763889	0.0138889	0.75    	0.777778
46 	2     	0.763889	0.0138889	0.75    	0.777778
47 	2     	0.763889	0.0138889	0.75    	0.777778
48 	2     	0.763889	0.0138889	0.75    	0.777778
49 	2     	0.763889	0.0138889	0.75    	0.777778
50 	2     	0.763889	0.0138889	0.75    	0.777778
51 	2     	0.763889	0.0138889	0.75    	0.777778
52 	2     	0.763889	0.0138889	0.75    	0.777778
53 	2     	0.763889	0.0138889	0.75    	0.777778
54 	2     	0.763889	0.0138889	0.75    	0.777778
55 	2     	0.763889	0.0138889	0.75    	0.777778
56 	2     	0.763889	0.0138889	0.75    	0.777778
57 	2     	0.763889	0.0138889	0.75    	0.777778
58 	2     	0.791667	0.0138889	0.777778	0.805556
59 	2     	0.791667	0.0138889	0.777778	0.805556
60 	2     	0.791667	0.0138889	0.777778	0.805556
61 	2     	0.805556	0        	0.805556	0.805556
62 	2     	0.805556	0        	0.805556	0.805556
63 	2     	0.805556	0        	0.805556	0.805556
64 	2     	0.805556	0        	0.805556	0.805556
65 	2     	0.805556	0        	0.805556	0.805556
66 	2     	0.805556	0        	0.805556	0.805556
67 	2     	0.805556	0        	0.805556	0.805556
68 	2     	0.805556	0        	0.805556	0.805556
69 	2     	0.805556	0        	0.805556	0.805556
70 	2     	0.805556	0        	0.805556	0.805556
71 	2     	0.805556	0        	0.805556	0.805556
72 	2     	0.805556	0        	0.805556	0.805556
73 	2     	0.805556	0        	0.805556	0.805556
74 	2     	0.805556	0        	0.805556	0.805556
75 	2     	0.805556	0        	0.805556	0.805556
76 	2     	0.805556	0        	0.805556	0.805556
77 	2     	0.805556	0        	0.805556	0.805556
78 	2     	0.805556	0        	0.805556	0.805556
79 	2     	0.805556	0        	0.805556	0.805556
80 	2     	0.805556	0        	0.805556	0.805556
81 	2     	0.805556	0        	0.805556	0.805556
82 	2     	0.805556	0        	0.805556	0.805556
83 	2     	0.805556	0        	0.805556	0.805556
84 	2     	0.805556	0        	0.805556	0.805556
85 	2     	0.805556	0        	0.805556	0.805556
86 	2     	0.805556	0        	0.805556	0.805556
87 	2     	0.805556	0        	0.805556	0.805556
88 	2     	0.805556	0        	0.805556	0.805556
89 	2     	0.805556	0        	0.805556	0.805556
90 	2     	0.805556	0        	0.805556	0.805556
91 	2     	0.805556	0        	0.805556	0.805556
92 	2     	0.805556	0        	0.805556	0.805556
93 	2     	0.805556	0        	0.805556	0.805556
94 	2     	0.805556	0        	0.805556	0.805556
95 	2     	0.805556	0        	0.805556	0.805556
96 	2     	0.805556	0        	0.805556	0.805556
97 	2     	0.805556	0        	0.805556	0.805556
98 	2     	0.805556	0        	0.805556	0.805556
99 	2     	0.805556	0        	0.805556	0.805556
100	2     	0.805556	0        	0.805556	0.805556
101	2     	0.805556	0        	0.805556	0.805556
102	2     	0.805556	0        	0.805556	0.805556
103	2     	0.805556	0        	0.805556	0.805556
104	2     	0.805556	0        	0.805556	0.805556
105	2     	0.805556	0        	0.805556	0.805556
106	2     	0.805556	0        	0.805556	0.805556
107	2     	0.805556	0        	0.805556	0.805556
108	2     	0.805556	0        	0.805556	0.805556
109	2     	0.805556	0        	0.805556	0.805556
110	2     	0.805556	0        	0.805556	0.805556
111	2     	0.805556	0        	0.805556	0.805556
112	2     	0.805556	0        	0.805556	0.805556
113	2     	0.805556	0        	0.805556	0.805556
114	2     	0.805556	0        	0.805556	0.805556
115	2     	0.805556	0        	0.805556	0.805556
116	2     	0.805556	0        	0.805556	0.805556
117	2     	0.805556	0        	0.805556	0.805556
118	2     	0.805556	0        	0.805556	0.805556
119	2     	0.805556	0        	0.805556	0.805556
120	2     	0.805556	0        	0.805556	0.805556
121	2     	0.805556	0        	0.805556	0.805556
122	2     	0.833333	0.0277778	0.805556	0.861111
123	2     	0.833333	0.0277778	0.805556	0.861111
124	2     	0.847222	0.0138889	0.833333	0.861111
125	2     	0.847222	0.0138889	0.833333	0.861111
126	2     	0.847222	0.0138889	0.833333	0.861111
127	2     	0.847222	0.0138889	0.833333	0.861111
128	2     	0.875   	0.0138889	0.861111	0.888889
129	2     	0.875   	0.0138889	0.861111	0.888889
130	2     	0.875   	0.0138889	0.861111	0.888889
131	2     	0.875   	0.0138889	0.861111	0.888889
132	2     	0.875   	0.0138889	0.861111	0.888889
133	2     	0.875   	0.0138889	0.861111	0.888889
134	2     	0.875   	0.0138889	0.861111	0.888889
135	2     	0.875   	0.0138889	0.861111	0.888889
136	2     	0.888889	0        	0.888889	0.888889
137	2     	0.888889	0        	0.888889	0.888889
138	2     	0.888889	0        	0.888889	0.888889
139	2     	0.888889	0        	0.888889	0.888889
140	2     	0.888889	0        	0.888889	0.888889
141	2     	0.888889	0        	0.888889	0.888889
142	2     	0.888889	0        	0.888889	0.888889
143	2     	0.888889	0        	0.888889	0.888889
144	2     	0.888889	0        	0.888889	0.888889
145	2     	0.888889	0        	0.888889	0.888889
146	2     	0.888889	0        	0.888889	0.888889
147	2     	0.888889	0        	0.888889	0.888889
148	2     	0.888889	0        	0.888889	0.888889
149	2     	0.888889	0        	0.888889	0.888889
150	2     	0.888889	0        	0.888889	0.888889
151	2     	0.888889	0        	0.888889	0.888889
152	2     	0.888889	0        	0.888889	0.888889
153	2     	0.888889	0        	0.888889	0.888889
154	2     	0.888889	0        	0.888889	0.888889
155	2     	0.888889	0        	0.888889	0.888889
156	2     	0.888889	0        	0.888889	0.888889
157	2     	0.888889	0        	0.888889	0.888889
158	2     	0.888889	0        	0.888889	0.888889
159	2     	0.888889	0        	0.888889	0.888889
160	2     	0.888889	0        	0.888889	0.888889
161	2     	0.888889	0        	0.888889	0.888889
162	2     	0.888889	0        	0.888889	0.888889
163	2     	0.888889	0        	0.888889	0.888889
164	2     	0.888889	0        	0.888889	0.888889
165	2     	0.888889	0        	0.888889	0.888889
166	2     	0.888889	0        	0.888889	0.888889
167	2     	0.888889	0        	0.888889	0.888889
168	2     	0.888889	0        	0.888889	0.888889
169	2     	0.888889	0        	0.888889	0.888889
170	2     	0.902778	0.0138889	0.888889	0.916667
171	2     	0.916667	0        	0.916667	0.916667
172	2     	0.916667	0        	0.916667	0.916667
173	2     	0.916667	0        	0.916667	0.916667
174	2     	0.916667	0        	0.916667	0.916667
175	2     	0.916667	0        	0.916667	0.916667
176	2     	0.916667	0        	0.916667	0.916667
177	2     	0.916667	0        	0.916667	0.916667
178	2     	0.916667	0        	0.916667	0.916667
179	2     	0.916667	0        	0.916667	0.916667
180	2     	0.916667	0        	0.916667	0.916667
181	2     	0.916667	0        	0.916667	0.916667
182	2     	0.916667	0        	0.916667	0.916667
183	2     	0.916667	0        	0.916667	0.916667
184	2     	0.916667	0        	0.916667	0.916667
185	2     	0.916667	0        	0.916667	0.916667
186	2     	0.916667	0        	0.916667	0.916667
187	2     	0.916667	0        	0.916667	0.916667
188	2     	0.916667	0        	0.916667	0.916667
189	2     	0.916667	0        	0.916667	0.916667
190	2     	0.916667	0        	0.916667	0.916667
191	2     	0.916667	0        	0.916667	0.916667
192	2     	0.916667	0        	0.916667	0.916667
193	2     	0.916667	0        	0.916667	0.916667
194	2     	0.916667	0        	0.916667	0.916667
195	2     	0.916667	0        	0.916667	0.916667
196	2     	0.916667	0        	0.916667	0.916667
197	2     	0.916667	0        	0.916667	0.916667
198	2     	0.916667	0        	0.916667	0.916667
199	2     	0.916667	0        	0.916667	0.916667
200	2     	0.916667	0        	0.916667	0.916667
201	2     	0.916667	0        	0.916667	0.916667
202	2     	0.916667	0        	0.916667	0.916667
203	2     	0.916667	0        	0.916667	0.916667
204	2     	0.916667	0        	0.916667	0.916667
205	2     	0.916667	0        	0.916667	0.916667
206	2     	0.916667	0        	0.916667	0.916667
207	2     	0.916667	0        	0.916667	0.916667
208	2     	0.916667	0        	0.916667	0.916667
209	2     	0.916667	0        	0.916667	0.916667
210	2     	0.916667	0        	0.916667	0.916667
211	2     	0.916667	0        	0.916667	0.916667
212	2     	0.916667	0        	0.916667	0.916667
213	2     	0.916667	0        	0.916667	0.916667
214	2     	0.916667	0        	0.916667	0.916667
215	2     	0.916667	0        	0.916667	0.916667
216	2     	0.916667	0        	0.916667	0.916667
217	2     	0.916667	0        	0.916667	0.916667
218	2     	0.916667	0        	0.916667	0.916667
219	2     	0.916667	0        	0.916667	0.916667
220	2     	0.916667	0        	0.916667	0.916667
221	2     	0.916667	0        	0.916667	0.916667
222	2     	0.916667	0        	0.916667	0.916667
223	2     	0.916667	0        	0.916667	0.916667
224	2     	0.916667	0        	0.916667	0.916667
225	2     	0.916667	0        	0.916667	0.916667
226	2     	0.916667	0        	0.916667	0.916667
227	2     	0.916667	0        	0.916667	0.916667
228	2     	0.916667	0        	0.916667	0.916667
229	2     	0.916667	0        	0.916667	0.916667
230	2     	0.916667	0        	0.916667	0.916667
231	2     	0.916667	0        	0.916667	0.916667
232	2     	0.916667	0        	0.916667	0.916667
233	2     	0.916667	0        	0.916667	0.916667
234	2     	0.916667	0        	0.916667	0.916667
235	2     	0.916667	0        	0.916667	0.916667
236	2     	0.916667	0        	0.916667	0.916667
237	2     	0.916667	0        	0.916667	0.916667
238	2     	0.916667	0        	0.916667	0.916667
239	2     	0.916667	0        	0.916667	0.916667
240	2     	0.916667	0        	0.916667	0.916667
241	2     	0.916667	0        	0.916667	0.916667
242	2     	0.916667	0        	0.916667	0.916667
243	2     	0.916667	0        	0.916667	0.916667
244	2     	0.916667	0        	0.916667	0.916667
245	2     	0.916667	0        	0.916667	0.916667
246	2     	0.916667	0        	0.916667	0.916667
247	2     	0.916667	0        	0.916667	0.916667
248	2     	0.916667	0        	0.916667	0.916667
249	2     	0.916667	0        	0.916667	0.916667
250	2     	0.916667	0        	0.916667	0.916667
251	2     	0.916667	0        	0.916667	0.916667
252	2     	0.916667	0        	0.916667	0.916667
253	2     	0.916667	0        	0.916667	0.916667
254	2     	0.916667	0        	0.916667	0.916667
255	2     	0.916667	0        	0.916667	0.916667
256	2     	0.916667	0        	0.916667	0.916667
257	2     	0.916667	0        	0.916667	0.916667
258	2     	0.916667	0        	0.916667	0.916667
259	2     	0.916667	0        	0.916667	0.916667
260	2     	0.916667	0        	0.916667	0.916667
261	2     	0.916667	0        	0.916667	0.916667
262	2     	0.916667	0        	0.916667	0.916667
263	2     	0.916667	0        	0.916667	0.916667
264	2     	0.916667	0        	0.916667	0.916667
265	2     	0.916667	0        	0.916667	0.916667
266	2     	0.916667	0        	0.916667	0.916667
267	2     	0.916667	0        	0.916667	0.916667
268	2     	0.916667	0        	0.916667	0.916667
269	2     	0.916667	0        	0.916667	0.916667
270	2     	0.916667	0        	0.916667	0.916667
271	2     	0.916667	0        	0.916667	0.916667
272	2     	0.916667	0        	0.916667	0.916667
273	2     	0.916667	0        	0.916667	0.916667
274	2     	0.916667	0        	0.916667	0.916667
275	2     	0.916667	0        	0.916667	0.916667
276	2     	0.916667	0        	0.916667	0.916667
277	2     	0.916667	0        	0.916667	0.916667
278	2     	0.916667	0        	0.916667	0.916667
279	2     	0.916667	0        	0.916667	0.916667
280	2     	0.916667	0        	0.916667	0.916667
281	2     	0.916667	0        	0.916667	0.916667
282	2     	0.916667	0        	0.916667	0.916667
283	2     	0.916667	0        	0.916667	0.916667
284	2     	0.930556	0.0138889	0.916667	0.944444
285	2     	0.930556	0.0138889	0.916667	0.944444
286	2     	0.930556	0.0138889	0.916667	0.944444
287	2     	0.930556	0.0138889	0.916667	0.944444
288	2     	0.930556	0.0138889	0.916667	0.944444
289	2     	0.930556	0.0138889	0.916667	0.944444
290	2     	0.930556	0.0138889	0.916667	0.944444
291	2     	0.930556	0.0138889	0.916667	0.944444
292	2     	0.930556	0.0138889	0.916667	0.944444
293	2     	0.930556	0.0138889	0.916667	0.944444
294	2     	0.930556	0.0138889	0.916667	0.944444
295	2     	0.930556	0.0138889	0.916667	0.944444
296	2     	0.930556	0.0138889	0.916667	0.944444
297	2     	0.930556	0.0138889	0.916667	0.944444
298	2     	0.930556	0.0138889	0.916667	0.944444
299	2     	0.930556	0.0138889	0.916667	0.944444
300	2     	0.930556	0.0138889	0.916667	0.944444
301	2     	0.930556	0.0138889	0.916667	0.944444
302	2     	0.930556	0.0138889	0.916667	0.944444
303	2     	0.930556	0.0138889	0.916667	0.944444
304	2     	0.930556	0.0138889	0.916667	0.944444
305	2     	0.930556	0.0138889	0.916667	0.944444
306	2     	0.930556	0.0138889	0.916667	0.944444
307	2     	0.930556	0.0138889	0.916667	0.944444
308	2     	0.930556	0.0138889	0.916667	0.944444
309	2     	0.930556	0.0138889	0.916667	0.944444
310	2     	0.930556	0.0138889	0.916667	0.944444
311	2     	0.930556	0.0138889	0.916667	0.944444
312	2     	0.930556	0.0138889	0.916667	0.944444
313	2     	0.930556	0.0138889	0.916667	0.944444
314	2     	0.930556	0.0138889	0.916667	0.944444
315	2     	0.930556	0.0138889	0.916667	0.944444
316	2     	0.930556	0.0138889	0.916667	0.944444
317	2     	0.930556	0.0138889	0.916667	0.944444
318	2     	0.930556	0.0138889	0.916667	0.944444
319	2     	0.930556	0.0138889	0.916667	0.944444
320	2     	0.944444	0        	0.944444	0.944444
321	2     	0.944444	0        	0.944444	0.944444
322	2     	0.944444	0        	0.944444	0.944444
323	2     	0.958333	0.0138889	0.944444	0.972222
324	2     	0.958333	0.0138889	0.944444	0.972222
325	2     	0.958333	0.0138889	0.944444	0.972222
326	2     	0.958333	0.0138889	0.944444	0.972222
327	2     	0.958333	0.0138889	0.944444	0.972222
328	2     	0.958333	0.0138889	0.944444	0.972222
329	2     	0.958333	0.0138889	0.944444	0.972222
330	2     	0.958333	0.0138889	0.944444	0.972222
331	2     	0.958333	0.0138889	0.944444	0.972222
332	2     	0.958333	0.0138889	0.944444	0.972222
333	2     	0.958333	0.0138889	0.944444	0.972222
334	2     	0.958333	0.0138889	0.944444	0.972222
335	2     	0.958333	0.0138889	0.944444	0.972222
336	2     	0.958333	0.0138889	0.944444	0.972222
337	2     	0.958333	0.0138889	0.944444	0.972222
338	2     	0.958333	0.0138889	0.944444	0.972222
339	2     	0.958333	0.0138889	0.944444	0.972222
340	2     	0.958333	0.0138889	0.944444	0.972222
341	2     	0.958333	0.0138889	0.944444	0.972222
342	2     	0.958333	0.0138889	0.944444	0.972222
343	2     	0.958333	0.0138889	0.944444	0.972222
344	2     	0.958333	0.0138889	0.944444	0.972222
345	2     	0.958333	0.0138889	0.944444	0.972222
346	2     	0.958333	0.0138889	0.944444	0.972222
347	2     	0.958333	0.0138889	0.944444	0.972222
348	2     	0.958333	0.0138889	0.944444	0.972222
349	2     	0.958333	0.0138889	0.944444	0.972222
350	2     	0.958333	0.0138889	0.944444	0.972222
351	2     	0.958333	0.0138889	0.944444	0.972222
352	2     	0.958333	0.0138889	0.944444	0.972222
353	2     	0.958333	0.0138889	0.944444	0.972222
354	2     	0.958333	0.0138889	0.944444	0.972222
355	2     	0.958333	0.0138889	0.944444	0.972222
356	2     	0.958333	0.0138889	0.944444	0.972222
357	2     	0.958333	0.0138889	0.944444	0.972222
358	2     	0.958333	0.0138889	0.944444	0.972222
359	2     	0.958333	0.0138889	0.944444	0.972222
360	2     	0.958333	0.0138889	0.944444	0.972222
361	2     	0.958333	0.0138889	0.944444	0.972222
362	2     	0.958333	0.0138889	0.944444	0.972222
363	2     	0.958333	0.0138889	0.944444	0.972222
364	2     	0.958333	0.0138889	0.944444	0.972222
365	2     	0.958333	0.0138889	0.944444	0.972222
366	2     	0.958333	0.0138889	0.944444	0.972222
367	2     	0.958333	0.0138889	0.944444	0.972222
368	2     	0.972222	0        	0.972222	0.972222
369	2     	0.972222	0        	0.972222	0.972222
370	2     	0.972222	0        	0.972222	0.972222
371	2     	0.972222	0        	0.972222	0.972222
372	2     	0.972222	0        	0.972222	0.972222
373	2     	0.972222	0        	0.972222	0.972222
374	2     	0.972222	0        	0.972222	0.972222
375	2     	0.972222	0        	0.972222	0.972222