gen	nevals	avg 	std 	min 	max 
0  	2     	0.58	0.14	0.44	0.72
1  	2     	0.68	0.04	0.64	0.72
2  	2     	0.68	0.04	0.64	0.72
3  	2     	0.68	0.04	0.64	0.72
4  	2     	0.68	0.04	0.64	0.72
5  	2     	0.68	0.04	0.64	0.72
6  	2     	0.72	0   	0.72	0.72
7  	2     	0.72	0   	0.72	0.72
8  	2     	0.76	0.04	0.72	0.8 
9  	2     	0.8 	0   	0.8 	0.8 
10 	2     	0.8 	0   	0.8 	0.8 
11 	2     	0.8 	0   	0.8 	0.8 
12 	2     	0.8 	0   	0.8 	0.8 
13 	2     	0.8 	0   	0.8 	0.8 
14 	2     	0.8 	0   	0.8 	0.8 
15 	2     	0.8 	0   	0.8 	0.8 
16 	2     	0.8 	0   	0.8 	0.8 
17 	2     	0.8 	0   	0.8 	0.8 
18 	2     	0.8 	0   	0.8 	0.8 
19 	2     	0.8 	0   	0.8 	0.8 
20 	2     	0.8 	0   	0.8 	0.8 
21 	2     	0.8 	0   	0.8 	0.8 
22 	2     	0.8 	0   	0.8 	0.8 
23 	2     	0.8 	0   	0.8 	0.8 
24 	2     	0.8 	0   	0.8 	0.8 
25 	2     	0.8 	0   	0.8 	0.8 
26 	2     	0.8 	0   	0.8 	0.8 
27 	2     	0.8 	0   	0.8 	0.8 
28 	2     	0.8 	0   	0.8 	0.8 
29 	2     	0.8 	0   	0.8 	0.8 
30 	2     	0.8 	0   	0.8 	0.8 
31 	2     	0.8 	0   	0.8 	0.8 
32 	2     	0.8 	0   	0.8 	0.8 
33 	2     	0.8 	0   	0.8 	0.8 
34 	2     	0.8 	0   	0.8 	0.8 
35 	2     	0.8 	0   	0.8 	0.8 
36 	2     	0.8 	0   	0.8 	0.8 
37 	2     	0.8 	0   	0.8 	0.8 
38 	2     	0.8 	0   	0.8 	0.8 
39 	2     	0.8 	0   	0.8 	0.8 
40 	2     	0.8 	0   	0.8 	0.8 
41 	2     	0.8 	0   	0.8 	0.8 
42 	2     	0.8 	0   	0.8 	0.8 
43 	2     	0.82	0.02	0.8 	0.84
44 	2     	0.82	0.02	0.8 	0.84
45 	2     	0.82	0.02	0.8 	0.84
46 	2     	0.82	0.02	0.8 	0.84
47 	2     	0.82	0.02	0.8 	0.84
48 	2     	0.82	0.02	0.8 	0.84
49 	2     	0.82	0.02	0.8 	0.84
50 	2     	0.82	0.02	0.8 	0.84
51 	2     	0.82	0.02	0.8 	0.84
52 	2     	0.84	0   	0.84	0.84