gen	nevals	avg     	std      	min     	max     
0  	2     	0.472222	0.0555556	0.416667	0.527778
1  	2     	0.527778	0        	0.527778	0.527778
2  	2     	0.527778	0        	0.527778	0.527778
3  	2     	0.527778	0        	0.527778	0.527778
4  	2     	0.527778	0        	0.527778	0.527778
5  	2     	0.527778	0        	0.527778	0.527778
6  	2     	0.527778	0        	0.527778	0.527778
7  	2     	0.569444	0.0416667	0.527778	0.611111
8  	2     	0.583333	0.0277778	0.555556	0.611111
9  	2     	0.638889	0.0277778	0.611111	0.666667
10 	2     	0.638889	0.0277778	0.611111	0.666667
11 	2     	0.666667	0        	0.666667	0.666667
12 	2     	0.666667	0        	0.666667	0.666667
13 	2     	0.666667	0        	0.666667	0.666667
14 	2     	0.666667	0        	0.666667	0.666667
15 	2     	0.666667	0        	0.666667	0.666667
16 	2     	0.666667	0        	0.666667	0.666667
17 	2     	0.680556	0.0138889	0.666667	0.694444
18 	2     	0.680556	0.0138889	0.666667	0.694444
19 	2     	0.680556	0.0138889	0.666667	0.694444
20 	2     	0.680556	0.0138889	0.666667	0.694444
21 	2     	0.680556	0.0138889	0.666667	0.694444
22 	2     	0.680556	0.0138889	0.666667	0.694444
23 	2     	0.680556	0.0138889	0.666667	0.694444
24 	2     	0.680556	0.0138889	0.666667	0.694444
25 	2     	0.680556	0.0138889	0.666667	0.694444
26 	2     	0.694444	0        	0.694444	0.694444
27 	2     	0.694444	0        	0.694444	0.694444
28 	2     	0.736111	0.0416667	0.694444	0.777778
29 	2     	0.763889	0.0138889	0.75    	0.777778
30 	2     	0.763889	0.0138889	0.75    	0.777778
31 	2     	0.763889	0.0138889	0.75    	0.777778
32 	2     	0.763889	0.0138889	0.75    	0.777778
33 	2     	0.777778	0        	0.777778	0.777778
34 	2     	0.777778	0        	0.777778	0.777778
35 	2     	0.777778	0        	0.777778	0.777778
36 	2     	0.777778	0        	0.777778	0.777778
37 	2     	0.777778	0        	0.777778	0.777778
38 	2     	0.777778	0        	0.777778	0.777778
39 	2     	0.777778	0        	0.777778	0.777778
40 	2     	0.777778	0        	0.777778	0.777778
41 	2     	0.777778	0        	0.777778	0.777778
42 	2     	0.777778	0        	0.777778	0.777778
43 	2     	0.777778	0        	0.777778	0.777778
44 	2     	0.777778	0        	0.777778	0.777778
45 	2     	0.777778	0        	0.777778	0.777778
46 	2     	0.777778	0        	0.777778	0.777778
47 	2     	0.777778	0        	0.777778	0.777778
48 	2     	0.777778	0        	0.777778	0.777778
49 	2     	0.777778	0        	0.777778	0.777778
50 	2     	0.777778	0        	0.777778	0.777778
51 	2     	0.777778	0        	0.777778	0.777778
52 	2     	0.777778	0        	0.777778	0.777778
53 	2     	0.777778	0        	0.777778	0.777778
54 	2     	0.777778	0        	0.777778	0.777778
55 	2     	0.777778	0        	0.777778	0.777778
56 	2     	0.777778	0        	0.777778	0.777778
57 	2     	0.777778	0        	0.777778	0.777778
58 	2     	0.777778	0        	0.777778	0.777778
59 	2     	0.777778	0        	0.777778	0.777778
60 	2     	0.777778	0        	0.777778	0.777778
61 	2     	0.777778	0        	0.777778	0.777778
62 	2     	0.805556	0.0277778	0.777778	0.833333
63 	2     	0.805556	0.0277778	0.777778	0.833333
64 	2     	0.805556	0.0277778	0.777778	0.833333
65 	2     	0.805556	0.0277778	0.777778	0.833333
66 	2     	0.805556	0.0277778	0.777778	0.833333
67 	2     	0.805556	0.0277778	0.777778	0.833333
68 	2     	0.805556	0.0277778	0.777778	0.833333
69 	2     	0.805556	0.0277778	0.777778	0.833333
70 	2     	0.805556	0.0277778	0.777778	0.833333
71 	2     	0.805556	0.0277778	0.777778	0.833333
72 	2     	0.805556	0.0277778	0.777778	0.833333
73 	2     	0.805556	0.0277778	0.777778	0.833333
74 	2     	0.805556	0.0277778	0.777778	0.833333
75 	2     	0.805556	0.0277778	0.777778	0.833333
76 	2     	0.819444	0.0138889	0.805556	0.833333
77 	2     	0.819444	0.0138889	0.805556	0.833333
78 	2     	0.819444	0.0138889	0.805556	0.833333
79 	2     	0.819444	0.0138889	0.805556	0.833333
80 	2     	0.819444	0.0138889	0.805556	0.833333
81 	2     	0.819444	0.0138889	0.805556	0.833333
82 	2     	0.819444	0.0138889	0.805556	0.833333
83 	2     	0.819444	0.0138889	0.805556	0.833333
84 	2     	0.819444	0.0138889	0.805556	0.833333
85 	2     	0.819444	0.0138889	0.805556	0.833333
86 	2     	0.819444	0.0138889	0.805556	0.833333
87 	2     	0.819444	0.0138889	0.805556	0.833333
88 	2     	0.819444	0.0138889	0.805556	0.833333
89 	2     	0.819444	0.0138889	0.805556	0.833333
90 	2     	0.819444	0.0138889	0.805556	0.833333
91 	2     	0.819444	0.0138889	0.805556	0.833333
92 	2     	0.819444	0.0138889	0.805556	0.833333
93 	2     	0.819444	0.0138889	0.805556	0.833333
94 	2     	0.819444	0.0138889	0.805556	0.833333
95 	2     	0.833333	0        	0.833333	0.833333
96 	2     	0.833333	0        	0.833333	0.833333
97 	2     	0.833333	0        	0.833333	0.833333
98 	2     	0.833333	0        	0.833333	0.833333
99 	2     	0.833333	0        	0.833333	0.833333
100	2     	0.833333	0        	0.833333	0.833333
101	2     	0.833333	0        	0.833333	0.833333
102	2     	0.833333	0        	0.833333	0.833333
103	2     	0.833333	0        	0.833333	0.833333
104	2     	0.833333	0        	0.833333	0.833333
105	2     	0.833333	0        	0.833333	0.833333
106	2     	0.833333	0        	0.833333	0.833333
107	2     	0.833333	0        	0.833333	0.833333
108	2     	0.833333	0        	0.833333	0.833333
109	2     	0.833333	0        	0.833333	0.833333
110	2     	0.833333	0        	0.833333	0.833333
111	2     	0.833333	0        	0.833333	0.833333
112	2     	0.833333	0        	0.833333	0.833333
113	2     	0.833333	0        	0.833333	0.833333
114	2     	0.833333	0        	0.833333	0.833333
115	2     	0.833333	0        	0.833333	0.833333
116	2     	0.833333	0        	0.833333	0.833333
117	2     	0.833333	0        	0.833333	0.833333
118	2     	0.833333	0        	0.833333	0.833333
119	2     	0.833333	0        	0.833333	0.833333
120	2     	0.833333	0        	0.833333	0.833333
121	2     	0.833333	0        	0.833333	0.833333
122	2     	0.833333	0        	0.833333	0.833333
123	2     	0.833333	0        	0.833333	0.833333
124	2     	0.833333	0        	0.833333	0.833333
125	2     	0.833333	0        	0.833333	0.833333
126	2     	0.833333	0        	0.833333	0.833333
127	2     	0.833333	0        	0.833333	0.833333
128	2     	0.833333	0        	0.833333	0.833333
129	2     	0.847222	0.0138889	0.833333	0.861111
130	2     	0.847222	0.0138889	0.833333	0.861111
131	2     	0.847222	0.0138889	0.833333	0.861111
132	2     	0.847222	0.0138889	0.833333	0.861111
133	2     	0.847222	0.0138889	0.833333	0.861111
134	2     	0.847222	0.0138889	0.833333	0.861111
135	2     	0.861111	0        	0.861111	0.861111
136	2     	0.861111	0        	0.861111	0.861111
137	2     	0.861111	0        	0.861111	0.861111
138	2     	0.861111	0        	0.861111	0.861111
139	2     	0.861111	0        	0.861111	0.861111
140	2     	0.875   	0.0138889	0.861111	0.888889
141	2     	0.875   	0.0138889	0.861111	0.888889
142	2     	0.875   	0.0138889	0.861111	0.888889
143	2     	0.875   	0.0138889	0.861111	0.888889
144	2     	0.888889	0        	0.888889	0.888889
145	2     	0.888889	0        	0.888889	0.888889
146	2     	0.888889	0        	0.888889	0.888889
147	2     	0.888889	0        	0.888889	0.888889
148	2     	0.888889	0        	0.888889	0.888889
149	2     	0.888889	0        	0.888889	0.888889
150	2     	0.888889	0        	0.888889	0.888889
151	2     	0.888889	0        	0.888889	0.888889
152	2     	0.888889	0        	0.888889	0.888889
153	2     	0.888889	0        	0.888889	0.888889
154	2     	0.888889	0        	0.888889	0.888889
155	2     	0.888889	0        	0.888889	0.888889
156	2     	0.888889	0        	0.888889	0.888889
157	2     	0.888889	0        	0.888889	0.888889
158	2     	0.888889	0        	0.888889	0.888889
159	2     	0.888889	0        	0.888889	0.888889
160	2     	0.888889	0        	0.888889	0.888889
161	2     	0.888889	0        	0.888889	0.888889
162	2     	0.888889	0        	0.888889	0.888889
163	2     	0.888889	0        	0.888889	0.888889
164	2     	0.888889	0        	0.888889	0.888889
165	2     	0.902778	0.0138889	0.888889	0.916667
166	2     	0.902778	0.0138889	0.888889	0.916667
167	2     	0.902778	0.0138889	0.888889	0.916667
168	2     	0.902778	0.0138889	0.888889	0.916667
169	2     	0.902778	0.0138889	0.888889	0.916667
170	2     	0.902778	0.0138889	0.888889	0.916667
171	2     	0.902778	0.0138889	0.888889	0.916667
172	2     	0.902778	0.0138889	0.888889	0.916667
173	2     	0.902778	0.0138889	0.888889	0.916667
174	2     	0.902778	0.0138889	0.888889	0.916667
175	2     	0.902778	0.0138889	0.888889	0.916667
176	2     	0.902778	0.0138889	0.888889	0.916667
177	2     	0.902778	0.0138889	0.888889	0.916667
178	2     	0.902778	0.0138889	0.888889	0.916667
179	2     	0.902778	0.0138889	0.888889	0.916667
180	2     	0.902778	0.0138889	0.888889	0.916667
181	2     	0.902778	0.0138889	0.888889	0.916667
182	2     	0.902778	0.0138889	0.888889	0.916667
183	2     	0.902778	0.0138889	0.888889	0.916667
184	2     	0.902778	0.0138889	0.888889	0.916667
185	2     	0.902778	0.0138889	0.888889	0.916667
186	2     	0.902778	0.0138889	0.888889	0.916667
187	2     	0.902778	0.0138889	0.888889	0.916667
188	2     	0.902778	0.0138889	0.888889	0.916667
189	2     	0.902778	0.0138889	0.888889	0.916667
190	2     	0.902778	0.0138889	0.888889	0.916667
191	2     	0.902778	0.0138889	0.888889	0.916667
192	2     	0.902778	0.0138889	0.888889	0.916667
193	2     	0.902778	0.0138889	0.888889	0.916667
194	2     	0.902778	0.0138889	0.888889	0.916667
195	2     	0.902778	0.0138889	0.888889	0.916667
196	2     	0.902778	0.0138889	0.888889	0.916667
197	2     	0.902778	0.0138889	0.888889	0.916667
198	2     	0.902778	0.0138889	0.888889	0.916667
199	2     	0.902778	0.0138889	0.888889	0.916667
200	2     	0.902778	0.0138889	0.888889	0.916667
201	2     	0.902778	0.0138889	0.888889	0.916667
202	2     	0.902778	0.0138889	0.888889	0.916667
203	2     	0.902778	0.0138889	0.888889	0.916667
204	2     	0.902778	0.0138889	0.888889	0.916667
205	2     	0.902778	0.0138889	0.888889	0.916667
206	2     	0.902778	0.0138889	0.888889	0.916667
207	2     	0.902778	0.0138889	0.888889	0.916667
208	2     	0.902778	0.0138889	0.888889	0.916667
209	2     	0.902778	0.0138889	0.888889	0.916667
210	2     	0.902778	0.0138889	0.888889	0.916667
211	2     	0.902778	0.0138889	0.888889	0.916667
212	2     	0.916667	0        	0.916667	0.916667
213	2     	0.916667	0        	0.916667	0.916667
214	2     	0.916667	0        	0.916667	0.916667
215	2     	0.916667	0        	0.916667	0.916667
216	2     	0.916667	0        	0.916667	0.916667
217	2     	0.916667	0        	0.916667	0.916667
218	2     	0.916667	0        	0.916667	0.916667
219	2     	0.916667	0        	0.916667	0.916667
220	2     	0.916667	0        	0.916667	0.916667
221	2     	0.916667	0        	0.916667	0.916667
222	2     	0.916667	0        	0.916667	0.916667
223	2     	0.916667	0        	0.916667	0.916667
224	2     	0.916667	0        	0.916667	0.916667
225	2     	0.916667	0        	0.916667	0.916667
226	2     	0.916667	0        	0.916667	0.916667
227	2     	0.916667	0        	0.916667	0.916667
228	2     	0.916667	0        	0.916667	0.916667
229	2     	0.916667	0        	0.916667	0.916667
230	2     	0.916667	0        	0.916667	0.916667
231	2     	0.916667	0        	0.916667	0.916667
232	2     	0.916667	0        	0.916667	0.916667
233	2     	0.916667	0        	0.916667	0.916667
234	2     	0.916667	0        	0.916667	0.916667
235	2     	0.916667	0        	0.916667	0.916667
236	2     	0.916667	0        	0.916667	0.916667
237	2     	0.916667	0        	0.916667	0.916667
238	2     	0.916667	0        	0.916667	0.916667
239	2     	0.916667	0        	0.916667	0.916667
240	2     	0.916667	0        	0.916667	0.916667
241	2     	0.916667	0        	0.916667	0.916667
242	2     	0.916667	0        	0.916667	0.916667
243	2     	0.916667	0        	0.916667	0.916667
244	2     	0.916667	0        	0.916667	0.916667
245	2     	0.916667	0        	0.916667	0.916667
246	2     	0.916667	0        	0.916667	0.916667
247	2     	0.916667	0        	0.916667	0.916667
248	2     	0.916667	0        	0.916667	0.916667
249	2     	0.916667	0        	0.916667	0.916667
250	2     	0.916667	0        	0.916667	0.916667
251	2     	0.916667	0        	0.916667	0.916667
252	2     	0.916667	0        	0.916667	0.916667
253	2     	0.916667	0        	0.916667	0.916667
254	2     	0.916667	0        	0.916667	0.916667
255	2     	0.916667	0        	0.916667	0.916667
256	2     	0.916667	0        	0.916667	0.916667
257	2     	0.916667	0        	0.916667	0.916667
258	2     	0.916667	0        	0.916667	0.916667
259	2     	0.916667	0        	0.916667	0.916667
260	2     	0.916667	0        	0.916667	0.916667
261	2     	0.916667	0        	0.916667	0.916667
262	2     	0.916667	0        	0.916667	0.916667
263	2     	0.916667	0        	0.916667	0.916667
264	2     	0.916667	0        	0.916667	0.916667
265	2     	0.916667	0        	0.916667	0.916667
266	2     	0.916667	0        	0.916667	0.916667
267	2     	0.916667	0        	0.916667	0.916667
268	2     	0.916667	0        	0.916667	0.916667
269	2     	0.916667	0        	0.916667	0.916667
270	2     	0.916667	0        	0.916667	0.916667
271	2     	0.916667	0        	0.916667	0.916667
272	2     	0.916667	0        	0.916667	0.916667
273	2     	0.916667	0        	0.916667	0.916667
274	2     	0.916667	0        	0.916667	0.916667
275	2     	0.916667	0        	0.916667	0.916667
276	2     	0.916667	0        	0.916667	0.916667
277	2     	0.916667	0        	0.916667	0.916667
278	2     	0.916667	0        	0.916667	0.916667
279	2     	0.916667	0        	0.916667	0.916667
280	2     	0.916667	0        	0.916667	0.916667
281	2     	0.916667	0        	0.916667	0.916667
282	2     	0.916667	0        	0.916667	0.916667
283	2     	0.916667	0        	0.916667	0.916667
284	2     	0.916667	0        	0.916667	0.916667
285	2     	0.916667	0        	0.916667	0.916667
286	2     	0.916667	0        	0.916667	0.916667
287	2     	0.916667	0        	0.916667	0.916667
288	2     	0.916667	0        	0.916667	0.916667
289	2     	0.916667	0        	0.916667	0.916667
290	2     	0.916667	0        	0.916667	0.916667
291	2     	0.916667	0        	0.916667	0.916667
292	2     	0.916667	0        	0.916667	0.916667
293	2     	0.916667	0        	0.916667	0.916667
294	2     	0.916667	0        	0.916667	0.916667
295	2     	0.916667	0        	0.916667	0.916667
296	2     	0.916667	0        	0.916667	0.916667
297	2     	0.916667	0        	0.916667	0.916667
298	2     	0.916667	0        	0.916667	0.916667
299	2     	0.916667	0        	0.916667	0.916667
300	2     	0.916667	0        	0.916667	0.916667
301	2     	0.916667	0        	0.916667	0.916667
302	2     	0.916667	0        	0.916667	0.916667
303	2     	0.916667	0        	0.916667	0.916667
304	2     	0.916667	0        	0.916667	0.916667
305	2     	0.916667	0        	0.916667	0.916667
306	2     	0.916667	0        	0.916667	0.916667
307	2     	0.916667	0        	0.916667	0.916667
308	2     	0.916667	0        	0.916667	0.916667
309	2     	0.916667	0        	0.916667	0.916667
310	2     	0.916667	0        	0.916667	0.916667
311	2     	0.916667	0        	0.916667	0.916667
312	2     	0.916667	0        	0.916667	0.916667
313	2     	0.916667	0        	0.916667	0.916667
314	2     	0.916667	0        	0.916667	0.916667
315	2     	0.916667	0        	0.916667	0.916667
316	2     	0.916667	0        	0.916667	0.916667
317	2     	0.916667	0        	0.916667	0.916667
318	2     	0.916667	0        	0.916667	0.916667
319	2     	0.916667	0        	0.916667	0.916667
320	2     	0.916667	0        	0.916667	0.916667
321	2     	0.916667	0        	0.916667	0.916667
322	2     	0.916667	0        	0.916667	0.916667
323	2     	0.916667	0        	0.916667	0.916667
324	2     	0.916667	0        	0.916667	0.916667
325	2     	0.930556	0.0138889	0.916667	0.944444
326	2     	0.930556	0.0138889	0.916667	0.944444
327	2     	0.930556	0.0138889	0.916667	0.944444
328	2     	0.930556	0.0138889	0.916667	0.944444
329	2     	0.930556	0.0138889	0.916667	0.944444
330	2     	0.930556	0.0138889	0.916667	0.944444
331	2     	0.930556	0.0138889	0.916667	0.944444
332	2     	0.930556	0.0138889	0.916667	0.944444
333	2     	0.930556	0.0138889	0.916667	0.944444
334	2     	0.944444	0        	0.944444	0.944444
335	2     	0.944444	0        	0.944444	0.944444
336	2     	0.944444	0        	0.944444	0.944444
337	2     	0.944444	0        	0.944444	0.944444
338	2     	0.944444	0        	0.944444	0.944444
339	2     	0.944444	0        	0.944444	0.944444
340	2     	0.944444	0        	0.944444	0.944444
341	2     	0.944444	0        	0.944444	0.944444
342	2     	0.944444	0        	0.944444	0.944444
343	2     	0.944444	0        	0.944444	0.944444
344	2     	0.944444	0        	0.944444	0.944444
345	2     	0.944444	0        	0.944444	0.944444
346	2     	0.944444	0        	0.944444	0.944444
347	2     	0.944444	0        	0.944444	0.944444
348	2     	0.944444	0        	0.944444	0.944444
349	2     	0.944444	0        	0.944444	0.944444
350	2     	0.944444	0        	0.944444	0.944444
351	2     	0.944444	0        	0.944444	0.944444
352	2     	0.944444	0        	0.944444	0.944444
353	2     	0.944444	0        	0.944444	0.944444
354	2     	0.944444	0        	0.944444	0.944444
355	2     	0.944444	0        	0.944444	0.944444
356	2     	0.944444	0        	0.944444	0.944444
357	2     	0.944444	0        	0.944444	0.944444
358	2     	0.944444	0        	0.944444	0.944444
359	2     	0.944444	0        	0.944444	0.944444
360	2     	0.944444	0        	0.944444	0.944444
361	2     	0.944444	0        	0.944444	0.944444
362	2     	0.944444	0        	0.944444	0.944444