gen	nevals	avg    	std    	min   	max   
0  	2     	0.59375	0.15625	0.4375	0.75  
1  	2     	0.75   	0      	0.75  	0.75  
2  	2     	0.75   	0      	0.75  	0.75  
3  	2     	0.75   	0      	0.75  	0.75  
4  	2     	0.75   	0      	0.75  	0.75  
5  	2     	0.75   	0      	0.75  	0.75  
6  	2     	0.75   	0      	0.75  	0.75  
7  	2     	0.75   	0      	0.75  	0.75  
8  	2     	0.75   	0      	0.75  	0.75  
9  	2     	0.75   	0      	0.75  	0.75  
10 	2     	0.75   	0      	0.75  	0.75  
11 	2     	0.75   	0      	0.75  	0.75  
12 	2     	0.75   	0      	0.75  	0.75  
13 	2     	0.75   	0      	0.75  	0.75  
14 	2     	0.75   	0      	0.75  	0.75  
15 	2     	0.75   	0      	0.75  	0.75  
16 	2     	0.78125	0.03125	0.75  	0.8125
17 	2     	0.8125 	0      	0.8125	0.8125
18 	2     	0.84375	0.03125	0.8125	0.875 
19 	2     	0.84375	0.03125	0.8125	0.875 
20 	2     	0.84375	0.03125	0.8125	0.875 
21 	2     	0.84375	0.03125	0.8125	0.875 
22 	2     	0.875  	0      	0.875 	0.875 
23 	2     	0.875  	0      	0.875 	0.875 
24 	2     	0.875  	0      	0.875 	0.875 
25 	2     	0.875  	0      	0.875 	0.875 
26 	2     	0.875  	0      	0.875 	0.875 
27 	2     	0.875  	0      	0.875 	0.875 
28 	2     	0.9375 	0.0625 	0.875 	1     