gen	nevals	avg    	std    	min   	max   
0  	2     	0.5    	0      	0.5   	0.5   
1  	2     	0.5    	0      	0.5   	0.5   
2  	2     	0.5    	0      	0.5   	0.5   
3  	2     	0.59375	0.09375	0.5   	0.6875
4  	2     	0.6875 	0      	0.6875	0.6875
5  	2     	0.6875 	0      	0.6875	0.6875
6  	2     	0.6875 	0      	0.6875	0.6875
7  	2     	0.6875 	0      	0.6875	0.6875
8  	2     	0.71875	0.03125	0.6875	0.75  
9  	2     	0.75   	0      	0.75  	0.75  
10 	2     	0.75   	0      	0.75  	0.75  
11 	2     	0.75   	0      	0.75  	0.75  
12 	2     	0.75   	0      	0.75  	0.75  