gen	nevals	avg    	std    	min   	max   
0  	2     	0.5625 	0.0625 	0.5   	0.625 
1  	2     	0.625  	0      	0.625 	0.625 
2  	2     	0.625  	0      	0.625 	0.625 
3  	2     	0.65625	0.03125	0.625 	0.6875
4  	2     	0.6875 	0      	0.6875	0.6875
5  	2     	0.6875 	0      	0.6875	0.6875
6  	2     	0.6875 	0      	0.6875	0.6875
7  	2     	0.6875 	0      	0.6875	0.6875
8  	2     	0.75   	0.0625 	0.6875	0.8125
9  	2     	0.75   	0.0625 	0.6875	0.8125
10 	2     	0.78125	0.03125	0.75  	0.8125
11 	2     	0.78125	0.03125	0.75  	0.8125
12 	2     	0.78125	0.03125	0.75  	0.8125
13 	2     	0.78125	0.03125	0.75  	0.8125
14 	2     	0.875  	0.0625 	0.8125	0.9375
15 	2     	0.90625	0.03125	0.875 	0.9375
16 	2     	0.90625	0.03125	0.875 	0.9375
17 	2     	0.9375 	0      	0.9375	0.9375
18 	2     	0.9375 	0      	0.9375	0.9375
19 	2     	0.9375 	0      	0.9375	0.9375
20 	2     	0.9375 	0      	0.9375	0.9375