gen	nevals	avg     	std      	min     	max     
0  	2     	0.486111	0.0416667	0.444444	0.527778
1  	2     	0.541667	0.0138889	0.527778	0.555556
2  	2     	0.569444	0.0138889	0.555556	0.583333
3  	2     	0.569444	0.0138889	0.555556	0.583333
4  	2     	0.583333	0        	0.583333	0.583333
5  	2     	0.583333	0        	0.583333	0.583333
6  	2     	0.583333	0        	0.583333	0.583333
7  	2     	0.583333	0        	0.583333	0.583333
8  	2     	0.597222	0.0138889	0.583333	0.611111
9  	2     	0.597222	0.0138889	0.583333	0.611111
10 	2     	0.597222	0.0138889	0.583333	0.611111
11 	2     	0.597222	0.0138889	0.583333	0.611111
12 	2     	0.611111	0        	0.611111	0.611111
13 	2     	0.625   	0.0138889	0.611111	0.638889
14 	2     	0.625   	0.0138889	0.611111	0.638889
15 	2     	0.625   	0.0138889	0.611111	0.638889
16 	2     	0.625   	0.0138889	0.611111	0.638889
17 	2     	0.652778	0.0138889	0.638889	0.666667
18 	2     	0.652778	0.0138889	0.638889	0.666667
19 	2     	0.652778	0.0138889	0.638889	0.666667
20 	2     	0.680556	0.0138889	0.666667	0.694444
21 	2     	0.708333	0.0138889	0.694444	0.722222
22 	2     	0.708333	0.0138889	0.694444	0.722222
23 	2     	0.708333	0.0138889	0.694444	0.722222
24 	2     	0.708333	0.0138889	0.694444	0.722222
25 	2     	0.736111	0.0138889	0.722222	0.75    
26 	2     	0.736111	0.0138889	0.722222	0.75    
27 	2     	0.736111	0.0138889	0.722222	0.75    
28 	2     	0.736111	0.0138889	0.722222	0.75    
29 	2     	0.75    	0        	0.75    	0.75    
30 	2     	0.75    	0        	0.75    	0.75    
31 	2     	0.75    	0        	0.75    	0.75    
32 	2     	0.75    	0        	0.75    	0.75    
33 	2     	0.777778	0.0277778	0.75    	0.805556
34 	2     	0.791667	0.0138889	0.777778	0.805556
35 	2     	0.791667	0.0138889	0.777778	0.805556
36 	2     	0.791667	0.0138889	0.777778	0.805556
37 	2     	0.791667	0.0138889	0.777778	0.805556
38 	2     	0.791667	0.0138889	0.777778	0.805556
39 	2     	0.791667	0.0138889	0.777778	0.805556
40 	2     	0.791667	0.0138889	0.777778	0.805556
41 	2     	0.805556	0        	0.805556	0.805556
42 	2     	0.805556	0        	0.805556	0.805556
43 	2     	0.805556	0        	0.805556	0.805556
44 	2     	0.805556	0        	0.805556	0.805556
45 	2     	0.805556	0        	0.805556	0.805556
46 	2     	0.805556	0        	0.805556	0.805556
47 	2     	0.805556	0        	0.805556	0.805556
48 	2     	0.805556	0        	0.805556	0.805556
49 	2     	0.805556	0        	0.805556	0.805556
50 	2     	0.805556	0        	0.805556	0.805556
51 	2     	0.805556	0        	0.805556	0.805556
52 	2     	0.805556	0        	0.805556	0.805556
53 	2     	0.805556	0        	0.805556	0.805556
54 	2     	0.805556	0        	0.805556	0.805556
55 	2     	0.805556	0        	0.805556	0.805556
56 	2     	0.805556	0        	0.805556	0.805556
57 	2     	0.805556	0        	0.805556	0.805556
58 	2     	0.805556	0        	0.805556	0.805556
59 	2     	0.805556	0        	0.805556	0.805556
60 	2     	0.833333	0.0277778	0.805556	0.861111
61 	2     	0.833333	0.0277778	0.805556	0.861111
62 	2     	0.833333	0.0277778	0.805556	0.861111
63 	2     	0.833333	0.0277778	0.805556	0.861111
64 	2     	0.833333	0.0277778	0.805556	0.861111
65 	2     	0.833333	0.0277778	0.805556	0.861111
66 	2     	0.833333	0.0277778	0.805556	0.861111
67 	2     	0.833333	0.0277778	0.805556	0.861111
68 	2     	0.833333	0.0277778	0.805556	0.861111
69 	2     	0.875   	0.0138889	0.861111	0.888889
70 	2     	0.875   	0.0138889	0.861111	0.888889
71 	2     	0.875   	0.0138889	0.861111	0.888889
72 	2     	0.902778	0.0138889	0.888889	0.916667
73 	2     	0.902778	0.0138889	0.888889	0.916667
74 	2     	0.902778	0.0138889	0.888889	0.916667
75 	2     	0.916667	0        	0.916667	0.916667
76 	2     	0.916667	0        	0.916667	0.916667
77 	2     	0.916667	0        	0.916667	0.916667
78 	2     	0.916667	0        	0.916667	0.916667
79 	2     	0.916667	0        	0.916667	0.916667
80 	2     	0.916667	0        	0.916667	0.916667
81 	2     	0.916667	0        	0.916667	0.916667
82 	2     	0.916667	0        	0.916667	0.916667
83 	2     	0.916667	0        	0.916667	0.916667
84 	2     	0.916667	0        	0.916667	0.916667
85 	2     	0.916667	0        	0.916667	0.916667
86 	2     	0.916667	0        	0.916667	0.916667
87 	2     	0.916667	0        	0.916667	0.916667
88 	2     	0.916667	0        	0.916667	0.916667
89 	2     	0.916667	0        	0.916667	0.916667
90 	2     	0.916667	0        	0.916667	0.916667
91 	2     	0.916667	0        	0.916667	0.916667
92 	2     	0.916667	0        	0.916667	0.916667
93 	2     	0.916667	0        	0.916667	0.916667
94 	2     	0.916667	0        	0.916667	0.916667
95 	2     	0.916667	0        	0.916667	0.916667
96 	2     	0.916667	0        	0.916667	0.916667
97 	2     	0.916667	0        	0.916667	0.916667
98 	2     	0.916667	0        	0.916667	0.916667
99 	2     	0.916667	0        	0.916667	0.916667
100	2     	0.916667	0        	0.916667	0.916667
101	2     	0.916667	0        	0.916667	0.916667
102	2     	0.916667	0        	0.916667	0.916667
103	2     	0.916667	0        	0.916667	0.916667
104	2     	0.916667	0        	0.916667	0.916667
105	2     	0.916667	0        	0.916667	0.916667
106	2     	0.916667	0        	0.916667	0.916667
107	2     	0.916667	0        	0.916667	0.916667
108	2     	0.916667	0        	0.916667	0.916667
109	2     	0.916667	0        	0.916667	0.916667
110	2     	0.916667	0        	0.916667	0.916667
111	2     	0.916667	0        	0.916667	0.916667
112	2     	0.916667	0        	0.916667	0.916667
113	2     	0.916667	0        	0.916667	0.916667
114	2     	0.916667	0        	0.916667	0.916667
115	2     	0.916667	0        	0.916667	0.916667
116	2     	0.916667	0        	0.916667	0.916667
117	2     	0.916667	0        	0.916667	0.916667
118	2     	0.916667	0        	0.916667	0.916667
119	2     	0.916667	0        	0.916667	0.916667
120	2     	0.916667	0        	0.916667	0.916667
121	2     	0.916667	0        	0.916667	0.916667
122	2     	0.916667	0        	0.916667	0.916667
123	2     	0.916667	0        	0.916667	0.916667
124	2     	0.916667	0        	0.916667	0.916667
125	2     	0.916667	0        	0.916667	0.916667
126	2     	0.916667	0        	0.916667	0.916667
127	2     	0.916667	0        	0.916667	0.916667
128	2     	0.916667	0        	0.916667	0.916667
129	2     	0.916667	0        	0.916667	0.916667
130	2     	0.916667	0        	0.916667	0.916667
131	2     	0.916667	0        	0.916667	0.916667
132	2     	0.916667	0        	0.916667	0.916667
133	2     	0.916667	0        	0.916667	0.916667
134	2     	0.916667	0        	0.916667	0.916667
135	2     	0.916667	0        	0.916667	0.916667
136	2     	0.916667	0        	0.916667	0.916667
137	2     	0.916667	0        	0.916667	0.916667
138	2     	0.916667	0        	0.916667	0.916667
139	2     	0.916667	0        	0.916667	0.916667
140	2     	0.916667	0        	0.916667	0.916667
141	2     	0.916667	0        	0.916667	0.916667
142	2     	0.916667	0        	0.916667	0.916667
143	2     	0.916667	0        	0.916667	0.916667
144	2     	0.916667	0        	0.916667	0.916667
145	2     	0.916667	0        	0.916667	0.916667
146	2     	0.916667	0        	0.916667	0.916667
147	2     	0.916667	0        	0.916667	0.916667
148	2     	0.916667	0        	0.916667	0.916667
149	2     	0.916667	0        	0.916667	0.916667
150	2     	0.930556	0.0138889	0.916667	0.944444
151	2     	0.930556	0.0138889	0.916667	0.944444
152	2     	0.930556	0.0138889	0.916667	0.944444
153	2     	0.930556	0.0138889	0.916667	0.944444
154	2     	0.930556	0.0138889	0.916667	0.944444
155	2     	0.930556	0.0138889	0.916667	0.944444
156	2     	0.930556	0.0138889	0.916667	0.944444
157	2     	0.944444	0        	0.944444	0.944444
158	2     	0.944444	0        	0.944444	0.944444
159	2     	0.944444	0        	0.944444	0.944444
160	2     	0.944444	0        	0.944444	0.944444
161	2     	0.944444	0        	0.944444	0.944444
162	2     	0.944444	0        	0.944444	0.944444
163	2     	0.944444	0        	0.944444	0.944444
164	2     	0.944444	0        	0.944444	0.944444
165	2     	0.944444	0        	0.944444	0.944444
166	2     	0.944444	0        	0.944444	0.944444
167	2     	0.944444	0        	0.944444	0.944444
168	2     	0.944444	0        	0.944444	0.944444
169	2     	0.944444	0        	0.944444	0.944444
170	2     	0.944444	0        	0.944444	0.944444
171	2     	0.944444	0        	0.944444	0.944444
172	2     	0.944444	0        	0.944444	0.944444
173	2     	0.944444	0        	0.944444	0.944444
174	2     	0.944444	0        	0.944444	0.944444
175	2     	0.944444	0        	0.944444	0.944444
176	2     	0.944444	0        	0.944444	0.944444
177	2     	0.944444	0        	0.944444	0.944444
178	2     	0.944444	0        	0.944444	0.944444
179	2     	0.944444	0        	0.944444	0.944444
180	2     	0.944444	0        	0.944444	0.944444
181	2     	0.944444	0        	0.944444	0.944444
182	2     	0.944444	0        	0.944444	0.944444
183	2     	0.944444	0        	0.944444	0.944444
184	2     	0.944444	0        	0.944444	0.944444
185	2     	0.944444	0        	0.944444	0.944444
186	2     	0.944444	0        	0.944444	0.944444
187	2     	0.944444	0        	0.944444	0.944444
188	2     	0.944444	0        	0.944444	0.944444
189	2     	0.944444	0        	0.944444	0.944444
190	2     	0.944444	0        	0.944444	0.944444
191	2     	0.944444	0        	0.944444	0.944444
192	2     	0.944444	0        	0.944444	0.944444
193	2     	0.944444	0        	0.944444	0.944444
194	2     	0.944444	0        	0.944444	0.944444
195	2     	0.944444	0        	0.944444	0.944444
196	2     	0.944444	0        	0.944444	0.944444
197	2     	0.944444	0        	0.944444	0.944444
198	2     	0.944444	0        	0.944444	0.944444
199	2     	0.944444	0        	0.944444	0.944444
200	2     	0.944444	0        	0.944444	0.944444
201	2     	0.944444	0        	0.944444	0.944444
202	2     	0.944444	0        	0.944444	0.944444
203	2     	0.944444	0        	0.944444	0.944444
204	2     	0.944444	0        	0.944444	0.944444
205	2     	0.944444	0        	0.944444	0.944444
206	2     	0.944444	0        	0.944444	0.944444
207	2     	0.944444	0        	0.944444	0.944444
208	2     	0.944444	0        	0.944444	0.944444
209	2     	0.944444	0        	0.944444	0.944444
210	2     	0.944444	0        	0.944444	0.944444
211	2     	0.944444	0        	0.944444	0.944444
212	2     	0.944444	0        	0.944444	0.944444
213	2     	0.944444	0        	0.944444	0.944444
214	2     	0.944444	0        	0.944444	0.944444
215	2     	0.944444	0        	0.944444	0.944444
216	2     	0.944444	0        	0.944444	0.944444
217	2     	0.944444	0        	0.944444	0.944444
218	2     	0.944444	0        	0.944444	0.944444
219	2     	0.944444	0        	0.944444	0.944444
220	2     	0.944444	0        	0.944444	0.944444
221	2     	0.944444	0        	0.944444	0.944444
222	2     	0.944444	0        	0.944444	0.944444
223	2     	0.944444	0        	0.944444	0.944444
224	2     	0.944444	0        	0.944444	0.944444
225	2     	0.944444	0        	0.944444	0.944444
226	2     	0.944444	0        	0.944444	0.944444
227	2     	0.944444	0        	0.944444	0.944444
228	2     	0.944444	0        	0.944444	0.944444
229	2     	0.944444	0        	0.944444	0.944444
230	2     	0.944444	0        	0.944444	0.944444
231	2     	0.944444	0        	0.944444	0.944444
232	2     	0.944444	0        	0.944444	0.944444
233	2     	0.944444	0        	0.944444	0.944444
234	2     	0.944444	0        	0.944444	0.944444
235	2     	0.958333	0.0138889	0.944444	0.972222
236	2     	0.958333	0.0138889	0.944444	0.972222
237	2     	0.958333	0.0138889	0.944444	0.972222
238	2     	0.958333	0.0138889	0.944444	0.972222
239	2     	0.958333	0.0138889	0.944444	0.972222
240	2     	0.958333	0.0138889	0.944444	0.972222
241	2     	0.958333	0.0138889	0.944444	0.972222
242	2     	0.958333	0.0138889	0.944444	0.972222
243	2     	0.958333	0.0138889	0.944444	0.972222
244	2     	0.958333	0.0138889	0.944444	0.972222
245	2     	0.958333	0.0138889	0.944444	0.972222
246	2     	0.958333	0.0138889	0.944444	0.972222
247	2     	0.958333	0.0138889	0.944444	0.972222
248	2     	0.958333	0.0138889	0.944444	0.972222
249	2     	0.958333	0.0138889	0.944444	0.972222
250	2     	0.972222	0        	0.972222	0.972222
251	2     	0.972222	0        	0.972222	0.972222
252	2     	0.972222	0        	0.972222	0.972222
253	2     	0.972222	0        	0.972222	0.972222
254	2     	0.972222	0        	0.972222	0.972222
255	2     	0.972222	0        	0.972222	0.972222
256	2     	0.972222	0        	0.972222	0.972222
257	2     	0.972222	0        	0.972222	0.972222
258	2     	0.972222	0        	0.972222	0.972222
259	2     	0.972222	0        	0.972222	0.972222
260	2     	0.972222	0        	0.972222	0.972222
261	2     	0.972222	0        	0.972222	0.972222
262	2     	0.972222	0        	0.972222	0.972222
263	2     	0.972222	0        	0.972222	0.972222
264	2     	0.972222	0        	0.972222	0.972222
265	2     	0.972222	0        	0.972222	0.972222
266	2     	0.972222	0        	0.972222	0.972222
267	2     	0.972222	0        	0.972222	0.972222
268	2     	0.972222	0        	0.972222	0.972222
269	2     	0.972222	0        	0.972222	0.972222
270	2     	0.972222	0        	0.972222	0.972222
271	2     	0.972222	0        	0.972222	0.972222
272	2     	0.972222	0        	0.972222	0.972222
273	2     	0.972222	0        	0.972222	0.972222
274	2     	0.972222	0        	0.972222	0.972222
275	2     	0.972222	0        	0.972222	0.972222
276	2     	0.972222	0        	0.972222	0.972222
277	2     	0.972222	0        	0.972222	0.972222
278	2     	0.972222	0        	0.972222	0.972222
279	2     	0.972222	0        	0.972222	0.972222
280	2     	0.972222	0        	0.972222	0.972222
281	2     	0.972222	0        	0.972222	0.972222
282	2     	0.972222	0        	0.972222	0.972222
283	2     	0.972222	0        	0.972222	0.972222
284	2     	0.972222	0        	0.972222	0.972222
285	2     	0.972222	0        	0.972222	0.972222
286	2     	0.972222	0        	0.972222	0.972222
287	2     	0.972222	0        	0.972222	0.972222
288	2     	0.972222	0        	0.972222	0.972222
289	2     	0.972222	0        	0.972222	0.972222
290	2     	0.972222	0        	0.972222	0.972222
291	2     	0.972222	0        	0.972222	0.972222
292	2     	0.972222	0        	0.972222	0.972222
293	2     	0.972222	0        	0.972222	0.972222
294	2     	0.972222	0        	0.972222	0.972222
295	2     	0.972222	0        	0.972222	0.972222
296	2     	0.972222	0        	0.972222	0.972222
297	2     	0.972222	0        	0.972222	0.972222
298	2     	0.972222	0        	0.972222	0.972222
299	2     	0.972222	0        	0.972222	0.972222
300	2     	0.972222	0        	0.972222	0.972222
301	2     	0.972222	0        	0.972222	0.972222
302	2     	0.972222	0        	0.972222	0.972222
303	2     	0.972222	0        	0.972222	0.972222
304	2     	0.972222	0        	0.972222	0.972222
305	2     	0.972222	0        	0.972222	0.972222
306	2     	0.972222	0        	0.972222	0.972222
307	2     	0.972222	0        	0.972222	0.972222
308	2     	0.972222	0        	0.972222	0.972222
309	2     	0.972222	0        	0.972222	0.972222
310	2     	0.972222	0        	0.972222	0.972222
311	2     	0.972222	0        	0.972222	0.972222
312	2     	0.972222	0        	0.972222	0.972222
313	2     	0.972222	0        	0.972222	0.972222
314	2     	0.972222	0        	0.972222	0.972222
315	2     	0.972222	0        	0.972222	0.972222
316	2     	0.972222	0        	0.972222	0.972222
317	2     	0.972222	0        	0.972222	0.972222
318	2     	0.972222	0        	0.972222	0.972222
319	2     	0.972222	0        	0.972222	0.972222
320	2     	0.972222	0        	0.972222	0.972222
321	2     	0.972222	0        	0.972222	0.972222
322	2     	0.972222	0        	0.972222	0.972222
323	2     	0.972222	0        	0.972222	0.972222
324	2     	0.972222	0        	0.972222	0.972222
325	2     	0.972222	0        	0.972222	0.972222
326	2     	0.972222	0        	0.972222	0.972222
327	2     	0.972222	0        	0.972222	0.972222
328	2     	0.972222	0        	0.972222	0.972222
329	2     	0.972222	0        	0.972222	0.972222
330	2     	0.972222	0        	0.972222	0.972222
331	2     	0.972222	0        	0.972222	0.972222
332	2     	0.972222	0        	0.972222	0.972222
333	2     	0.972222	0        	0.972222	0.972222
334	2     	0.972222	0        	0.972222	0.972222
335	2     	0.972222	0        	0.972222	0.972222
336	2     	0.972222	0        	0.972222	0.972222
337	2     	0.972222	0        	0.972222	0.972222
338	2     	0.972222	0        	0.972222	0.972222
339	2     	0.986111	0.0138889	0.972222	1       