gen	nevals	avg    	std    	min   	max   
0  	2     	0.59375	0.09375	0.5   	0.6875
1  	2     	0.6875 	0      	0.6875	0.6875
2  	2     	0.6875 	0      	0.6875	0.6875
3  	2     	0.6875 	0      	0.6875	0.6875
4  	2     	0.6875 	0      	0.6875	0.6875