gen	nevals	avg     	std      	min     	max     
0  	2     	0.55102 	0.0612245	0.489796	0.612245
1  	2     	0.622449	0.0102041	0.612245	0.632653
2  	2     	0.622449	0.0102041	0.612245	0.632653
3  	2     	0.632653	0        	0.632653	0.632653
4  	2     	0.632653	0        	0.632653	0.632653
5  	2     	0.632653	0        	0.632653	0.632653
6  	2     	0.632653	0        	0.632653	0.632653
7  	2     	0.632653	0        	0.632653	0.632653
8  	2     	0.632653	0        	0.632653	0.632653
9  	2     	0.632653	0        	0.632653	0.632653
10 	2     	0.642857	0.0102041	0.632653	0.653061
11 	2     	0.642857	0.0102041	0.632653	0.653061
12 	2     	0.642857	0.0102041	0.632653	0.653061
13 	2     	0.642857	0.0102041	0.632653	0.653061
14 	2     	0.642857	0.0102041	0.632653	0.653061
15 	2     	0.642857	0.0102041	0.632653	0.653061
16 	2     	0.642857	0.0102041	0.632653	0.653061
17 	2     	0.642857	0.0102041	0.632653	0.653061
18 	2     	0.663265	0.0102041	0.653061	0.673469
19 	2     	0.663265	0.0102041	0.653061	0.673469
20 	2     	0.663265	0.0102041	0.653061	0.673469
21 	2     	0.663265	0.0102041	0.653061	0.673469
22 	2     	0.683673	0.0102041	0.673469	0.693878
23 	2     	0.704082	0.0102041	0.693878	0.714286
24 	2     	0.704082	0.0102041	0.693878	0.714286
25 	2     	0.72449 	0.0102041	0.714286	0.734694
26 	2     	0.72449 	0.0102041	0.714286	0.734694
27 	2     	0.72449 	0.0102041	0.714286	0.734694
28 	2     	0.72449 	0.0102041	0.714286	0.734694
29 	2     	0.72449 	0.0102041	0.714286	0.734694
30 	2     	0.72449 	0.0102041	0.714286	0.734694
31 	2     	0.72449 	0.0102041	0.714286	0.734694
32 	2     	0.72449 	0.0102041	0.714286	0.734694
33 	2     	0.744898	0.0102041	0.734694	0.755102
34 	2     	0.744898	0.0102041	0.734694	0.755102
35 	2     	0.744898	0.0102041	0.734694	0.755102
36 	2     	0.744898	0.0102041	0.734694	0.755102
37 	2     	0.744898	0.0102041	0.734694	0.755102
38 	2     	0.744898	0.0102041	0.734694	0.755102
39 	2     	0.744898	0.0102041	0.734694	0.755102
40 	2     	0.765306	0.0102041	0.755102	0.77551 
41 	2     	0.765306	0.0102041	0.755102	0.77551 
42 	2     	0.77551 	0        	0.77551 	0.77551 
43 	2     	0.77551 	0        	0.77551 	0.77551 
44 	2     	0.77551 	0        	0.77551 	0.77551 
45 	2     	0.77551 	0        	0.77551 	0.77551 
46 	2     	0.77551 	0        	0.77551 	0.77551 
47 	2     	0.77551 	0        	0.77551 	0.77551 
48 	2     	0.77551 	0        	0.77551 	0.77551 
49 	2     	0.77551 	0        	0.77551 	0.77551 
50 	2     	0.77551 	0        	0.77551 	0.77551 
51 	2     	0.77551 	0        	0.77551 	0.77551 
52 	2     	0.77551 	0        	0.77551 	0.77551 
53 	2     	0.77551 	0        	0.77551 	0.77551 
54 	2     	0.77551 	0        	0.77551 	0.77551 
55 	2     	0.77551 	0        	0.77551 	0.77551 
56 	2     	0.77551 	0        	0.77551 	0.77551 
57 	2     	0.77551 	0        	0.77551 	0.77551 
58 	2     	0.77551 	0        	0.77551 	0.77551 
59 	2     	0.77551 	0        	0.77551 	0.77551 
60 	2     	0.77551 	0        	0.77551 	0.77551 
61 	2     	0.77551 	0        	0.77551 	0.77551 
62 	2     	0.785714	0.0102041	0.77551 	0.795918
63 	2     	0.785714	0.0102041	0.77551 	0.795918
64 	2     	0.785714	0.0102041	0.77551 	0.795918
65 	2     	0.795918	0        	0.795918	0.795918
66 	2     	0.806122	0.0102041	0.795918	0.816327
67 	2     	0.806122	0.0102041	0.795918	0.816327
68 	2     	0.816327	0        	0.816327	0.816327
69 	2     	0.816327	0        	0.816327	0.816327
70 	2     	0.816327	0        	0.816327	0.816327
71 	2     	0.816327	0        	0.816327	0.816327
72 	2     	0.816327	0        	0.816327	0.816327
73 	2     	0.816327	0        	0.816327	0.816327
74 	2     	0.816327	0        	0.816327	0.816327
75 	2     	0.816327	0        	0.816327	0.816327
76 	2     	0.816327	0        	0.816327	0.816327
77 	2     	0.816327	0        	0.816327	0.816327
78 	2     	0.816327	0        	0.816327	0.816327
79 	2     	0.816327	0        	0.816327	0.816327
80 	2     	0.816327	0        	0.816327	0.816327
81 	2     	0.816327	0        	0.816327	0.816327
82 	2     	0.816327	0        	0.816327	0.816327
83 	2     	0.816327	0        	0.816327	0.816327
84 	2     	0.816327	0        	0.816327	0.816327
85 	2     	0.816327	0        	0.816327	0.816327
86 	2     	0.816327	0        	0.816327	0.816327
87 	2     	0.816327	0        	0.816327	0.816327
88 	2     	0.816327	0        	0.816327	0.816327
89 	2     	0.816327	0        	0.816327	0.816327
90 	2     	0.816327	0        	0.816327	0.816327
91 	2     	0.816327	0        	0.816327	0.816327
92 	2     	0.816327	0        	0.816327	0.816327
93 	2     	0.816327	0        	0.816327	0.816327
94 	2     	0.816327	0        	0.816327	0.816327
95 	2     	0.816327	0        	0.816327	0.816327
96 	2     	0.816327	0        	0.816327	0.816327
97 	2     	0.816327	0        	0.816327	0.816327
98 	2     	0.816327	0        	0.816327	0.816327
99 	2     	0.816327	0        	0.816327	0.816327
100	2     	0.816327	0        	0.816327	0.816327
101	2     	0.816327	0        	0.816327	0.816327
102	2     	0.816327	0        	0.816327	0.816327
103	2     	0.816327	0        	0.816327	0.816327
104	2     	0.816327	0        	0.816327	0.816327
105	2     	0.836735	0.0204082	0.816327	0.857143
106	2     	0.836735	0.0204082	0.816327	0.857143
107	2     	0.836735	0.0204082	0.816327	0.857143
108	2     	0.836735	0.0204082	0.816327	0.857143
109	2     	0.867347	0.0102041	0.857143	0.877551
110	2     	0.867347	0.0102041	0.857143	0.877551
111	2     	0.867347	0.0102041	0.857143	0.877551
112	2     	0.867347	0.0102041	0.857143	0.877551
113	2     	0.867347	0.0102041	0.857143	0.877551
114	2     	0.867347	0.0102041	0.857143	0.877551
115	2     	0.867347	0.0102041	0.857143	0.877551
116	2     	0.867347	0.0102041	0.857143	0.877551
117	2     	0.867347	0.0102041	0.857143	0.877551
118	2     	0.867347	0.0102041	0.857143	0.877551
119	2     	0.867347	0.0102041	0.857143	0.877551
120	2     	0.867347	0.0102041	0.857143	0.877551
121	2     	0.867347	0.0102041	0.857143	0.877551
122	2     	0.867347	0.0102041	0.857143	0.877551
123	2     	0.867347	0.0102041	0.857143	0.877551
124	2     	0.867347	0.0102041	0.857143	0.877551
125	2     	0.867347	0.0102041	0.857143	0.877551
126	2     	0.867347	0.0102041	0.857143	0.877551
127	2     	0.867347	0.0102041	0.857143	0.877551
128	2     	0.867347	0.0102041	0.857143	0.877551
129	2     	0.867347	0.0102041	0.857143	0.877551
130	2     	0.867347	0.0102041	0.857143	0.877551
131	2     	0.867347	0.0102041	0.857143	0.877551
132	2     	0.867347	0.0102041	0.857143	0.877551
133	2     	0.867347	0.0102041	0.857143	0.877551
134	2     	0.897959	0.0204082	0.877551	0.918367
135	2     	0.918367	0        	0.918367	0.918367
136	2     	0.918367	0        	0.918367	0.918367
137	2     	0.918367	0        	0.918367	0.918367
138	2     	0.918367	0        	0.918367	0.918367
139	2     	0.918367	0        	0.918367	0.918367
140	2     	0.918367	0        	0.918367	0.918367
141	2     	0.918367	0        	0.918367	0.918367
142	2     	0.918367	0        	0.918367	0.918367
143	2     	0.918367	0        	0.918367	0.918367
144	2     	0.918367	0        	0.918367	0.918367
145	2     	0.918367	0        	0.918367	0.918367
146	2     	0.918367	0        	0.918367	0.918367
147	2     	0.918367	0        	0.918367	0.918367
148	2     	0.918367	0        	0.918367	0.918367
149	2     	0.918367	0        	0.918367	0.918367
150	2     	0.918367	0        	0.918367	0.918367
151	2     	0.918367	0        	0.918367	0.918367
152	2     	0.918367	0        	0.918367	0.918367
153	2     	0.918367	0        	0.918367	0.918367
154	2     	0.918367	0        	0.918367	0.918367
155	2     	0.918367	0        	0.918367	0.918367
156	2     	0.918367	0        	0.918367	0.918367
157	2     	0.918367	0        	0.918367	0.918367
158	2     	0.918367	0        	0.918367	0.918367
159	2     	0.918367	0        	0.918367	0.918367
160	2     	0.918367	0        	0.918367	0.918367
161	2     	0.918367	0        	0.918367	0.918367
162	2     	0.918367	0        	0.918367	0.918367
163	2     	0.918367	0        	0.918367	0.918367
164	2     	0.918367	0        	0.918367	0.918367
165	2     	0.918367	0        	0.918367	0.918367
166	2     	0.918367	0        	0.918367	0.918367
167	2     	0.918367	0        	0.918367	0.918367
168	2     	0.918367	0        	0.918367	0.918367
169	2     	0.918367	0        	0.918367	0.918367
170	2     	0.918367	0        	0.918367	0.918367
171	2     	0.918367	0        	0.918367	0.918367
172	2     	0.918367	0        	0.918367	0.918367
173	2     	0.918367	0        	0.918367	0.918367
174	2     	0.918367	0        	0.918367	0.918367
175	2     	0.918367	0        	0.918367	0.918367
176	2     	0.918367	0        	0.918367	0.918367
177	2     	0.918367	0        	0.918367	0.918367
178	2     	0.918367	0        	0.918367	0.918367
179	2     	0.918367	0        	0.918367	0.918367
180	2     	0.918367	0        	0.918367	0.918367
181	2     	0.918367	0        	0.918367	0.918367
182	2     	0.918367	0        	0.918367	0.918367
183	2     	0.918367	0        	0.918367	0.918367
184	2     	0.918367	0        	0.918367	0.918367
185	2     	0.918367	0        	0.918367	0.918367
186	2     	0.918367	0        	0.918367	0.918367
187	2     	0.918367	0        	0.918367	0.918367
188	2     	0.918367	0        	0.918367	0.918367
189	2     	0.918367	0        	0.918367	0.918367
190	2     	0.918367	0        	0.918367	0.918367
191	2     	0.918367	0        	0.918367	0.918367
192	2     	0.918367	0        	0.918367	0.918367
193	2     	0.918367	0        	0.918367	0.918367
194	2     	0.918367	0        	0.918367	0.918367
195	2     	0.918367	0        	0.918367	0.918367
196	2     	0.918367	0        	0.918367	0.918367
197	2     	0.918367	0        	0.918367	0.918367
198	2     	0.918367	0        	0.918367	0.918367
199	2     	0.918367	0        	0.918367	0.918367
200	2     	0.918367	0        	0.918367	0.918367
201	2     	0.918367	0        	0.918367	0.918367
202	2     	0.918367	0        	0.918367	0.918367
203	2     	0.918367	0        	0.918367	0.918367
204	2     	0.918367	0        	0.918367	0.918367
205	2     	0.918367	0        	0.918367	0.918367
206	2     	0.918367	0        	0.918367	0.918367
207	2     	0.918367	0        	0.918367	0.918367
208	2     	0.918367	0        	0.918367	0.918367
209	2     	0.918367	0        	0.918367	0.918367
210	2     	0.918367	0        	0.918367	0.918367
211	2     	0.918367	0        	0.918367	0.918367
212	2     	0.918367	0        	0.918367	0.918367
213	2     	0.918367	0        	0.918367	0.918367
214	2     	0.918367	0        	0.918367	0.918367
215	2     	0.918367	0        	0.918367	0.918367
216	2     	0.918367	0        	0.918367	0.918367
217	2     	0.918367	0        	0.918367	0.918367
218	2     	0.918367	0        	0.918367	0.918367
219	2     	0.918367	0        	0.918367	0.918367
220	2     	0.918367	0        	0.918367	0.918367
221	2     	0.918367	0        	0.918367	0.918367
222	2     	0.918367	0        	0.918367	0.918367
223	2     	0.918367	0        	0.918367	0.918367
224	2     	0.918367	0        	0.918367	0.918367
225	2     	0.918367	0        	0.918367	0.918367
226	2     	0.918367	0        	0.918367	0.918367
227	2     	0.918367	0        	0.918367	0.918367
228	2     	0.918367	0        	0.918367	0.918367
229	2     	0.918367	0        	0.918367	0.918367
230	2     	0.918367	0        	0.918367	0.918367
231	2     	0.918367	0        	0.918367	0.918367
232	2     	0.918367	0        	0.918367	0.918367
233	2     	0.918367	0        	0.918367	0.918367
234	2     	0.918367	0        	0.918367	0.918367
235	2     	0.918367	0        	0.918367	0.918367
236	2     	0.918367	0        	0.918367	0.918367
237	2     	0.918367	0        	0.918367	0.918367
238	2     	0.918367	0        	0.918367	0.918367
239	2     	0.918367	0        	0.918367	0.918367
240	2     	0.918367	0        	0.918367	0.918367
241	2     	0.918367	0        	0.918367	0.918367
242	2     	0.918367	0        	0.918367	0.918367
243	2     	0.918367	0        	0.918367	0.918367
244	2     	0.918367	0        	0.918367	0.918367
245	2     	0.918367	0        	0.918367	0.918367
246	2     	0.918367	0        	0.918367	0.918367
247	2     	0.918367	0        	0.918367	0.918367
248	2     	0.918367	0        	0.918367	0.918367
249	2     	0.918367	0        	0.918367	0.918367
250	2     	0.918367	0        	0.918367	0.918367
251	2     	0.918367	0        	0.918367	0.918367
252	2     	0.918367	0        	0.918367	0.918367
253	2     	0.918367	0        	0.918367	0.918367
254	2     	0.918367	0        	0.918367	0.918367
255	2     	0.918367	0        	0.918367	0.918367
256	2     	0.918367	0        	0.918367	0.918367
257	2     	0.918367	0        	0.918367	0.918367
258	2     	0.918367	0        	0.918367	0.918367
259	2     	0.928571	0.0102041	0.918367	0.938776
260	2     	0.928571	0.0102041	0.918367	0.938776
261	2     	0.928571	0.0102041	0.918367	0.938776
262	2     	0.928571	0.0102041	0.918367	0.938776
263	2     	0.928571	0.0102041	0.918367	0.938776
264	2     	0.928571	0.0102041	0.918367	0.938776
265	2     	0.928571	0.0102041	0.918367	0.938776
266	2     	0.928571	0.0102041	0.918367	0.938776
267	2     	0.928571	0.0102041	0.918367	0.938776
268	2     	0.928571	0.0102041	0.918367	0.938776
269	2     	0.938776	0        	0.938776	0.938776
270	2     	0.938776	0        	0.938776	0.938776
271	2     	0.938776	0        	0.938776	0.938776
272	2     	0.938776	0        	0.938776	0.938776
273	2     	0.938776	0        	0.938776	0.938776
274	2     	0.938776	0        	0.938776	0.938776
275	2     	0.938776	0        	0.938776	0.938776
276	2     	0.938776	0        	0.938776	0.938776
277	2     	0.938776	0        	0.938776	0.938776
278	2     	0.94898 	0.0102041	0.938776	0.959184
279	2     	0.94898 	0.0102041	0.938776	0.959184
280	2     	0.94898 	0.0102041	0.938776	0.959184
281	2     	0.94898 	0.0102041	0.938776	0.959184
282	2     	0.94898 	0.0102041	0.938776	0.959184
283	2     	0.94898 	0.0102041	0.938776	0.959184
284	2     	0.94898 	0.0102041	0.938776	0.959184
285	2     	0.94898 	0.0102041	0.938776	0.959184
286	2     	0.94898 	0.0102041	0.938776	0.959184
287	2     	0.94898 	0.0102041	0.938776	0.959184
288	2     	0.94898 	0.0102041	0.938776	0.959184
289	2     	0.959184	0        	0.959184	0.959184
290	2     	0.959184	0        	0.959184	0.959184
291	2     	0.959184	0        	0.959184	0.959184
292	2     	0.959184	0        	0.959184	0.959184
293	2     	0.959184	0        	0.959184	0.959184
294	2     	0.959184	0        	0.959184	0.959184
295	2     	0.959184	0        	0.959184	0.959184
296	2     	0.959184	0        	0.959184	0.959184
297	2     	0.959184	0        	0.959184	0.959184
298	2     	0.959184	0        	0.959184	0.959184
299	2     	0.959184	0        	0.959184	0.959184
300	2     	0.959184	0        	0.959184	0.959184
301	2     	0.959184	0        	0.959184	0.959184
302	2     	0.959184	0        	0.959184	0.959184
303	2     	0.959184	0        	0.959184	0.959184
304	2     	0.959184	0        	0.959184	0.959184
305	2     	0.959184	0        	0.959184	0.959184
306	2     	0.959184	0        	0.959184	0.959184