gen	nevals	avg     	std      	min     	max     
0  	2     	0.469388	0.0612245	0.408163	0.530612
1  	2     	0.540816	0.0102041	0.530612	0.55102 
2  	2     	0.540816	0.0102041	0.530612	0.55102 
3  	2     	0.55102 	0        	0.55102 	0.55102 
4  	2     	0.561224	0.0102041	0.55102 	0.571429
5  	2     	0.561224	0.0102041	0.55102 	0.571429
6  	2     	0.561224	0.0102041	0.55102 	0.571429
7  	2     	0.561224	0.0102041	0.55102 	0.571429
8  	2     	0.591837	0.0204082	0.571429	0.612245
9  	2     	0.632653	0.0204082	0.612245	0.653061
10 	2     	0.632653	0.0204082	0.612245	0.653061
11 	2     	0.632653	0.0204082	0.612245	0.653061
12 	2     	0.653061	0        	0.653061	0.653061
13 	2     	0.653061	0        	0.653061	0.653061
14 	2     	0.653061	0        	0.653061	0.653061
15 	2     	0.653061	0        	0.653061	0.653061
16 	2     	0.673469	0.0204082	0.653061	0.693878
17 	2     	0.673469	0.0204082	0.653061	0.693878
18 	2     	0.673469	0.0204082	0.653061	0.693878
19 	2     	0.673469	0.0204082	0.653061	0.693878
20 	2     	0.673469	0.0204082	0.653061	0.693878
21 	2     	0.704082	0.0102041	0.693878	0.714286
22 	2     	0.704082	0.0102041	0.693878	0.714286
23 	2     	0.704082	0.0102041	0.693878	0.714286
24 	2     	0.72449 	0.0102041	0.714286	0.734694
25 	2     	0.72449 	0.0102041	0.714286	0.734694
26 	2     	0.72449 	0.0102041	0.714286	0.734694
27 	2     	0.734694	0        	0.734694	0.734694
28 	2     	0.734694	0        	0.734694	0.734694
29 	2     	0.734694	0        	0.734694	0.734694
30 	2     	0.734694	0        	0.734694	0.734694
31 	2     	0.734694	0        	0.734694	0.734694
32 	2     	0.734694	0        	0.734694	0.734694
33 	2     	0.734694	0        	0.734694	0.734694
34 	2     	0.734694	0        	0.734694	0.734694
35 	2     	0.734694	0        	0.734694	0.734694
36 	2     	0.734694	0        	0.734694	0.734694
37 	2     	0.755102	0.0204082	0.734694	0.77551 
38 	2     	0.755102	0.0204082	0.734694	0.77551 
39 	2     	0.755102	0.0204082	0.734694	0.77551 
40 	2     	0.755102	0.0204082	0.734694	0.77551 
41 	2     	0.755102	0.0204082	0.734694	0.77551 
42 	2     	0.755102	0.0204082	0.734694	0.77551 
43 	2     	0.755102	0.0204082	0.734694	0.77551 
44 	2     	0.755102	0.0204082	0.734694	0.77551 
45 	2     	0.765306	0.0102041	0.755102	0.77551 
46 	2     	0.765306	0.0102041	0.755102	0.77551 
47 	2     	0.765306	0.0102041	0.755102	0.77551 
48 	2     	0.765306	0.0102041	0.755102	0.77551 
49 	2     	0.765306	0.0102041	0.755102	0.77551 
50 	2     	0.785714	0.0102041	0.77551 	0.795918
51 	2     	0.785714	0.0102041	0.77551 	0.795918
52 	2     	0.785714	0.0102041	0.77551 	0.795918
53 	2     	0.785714	0.0102041	0.77551 	0.795918
54 	2     	0.785714	0.0102041	0.77551 	0.795918
55 	2     	0.795918	0        	0.795918	0.795918
56 	2     	0.795918	0        	0.795918	0.795918
57 	2     	0.826531	0.0306122	0.795918	0.857143
58 	2     	0.826531	0.0306122	0.795918	0.857143
59 	2     	0.826531	0.0306122	0.795918	0.857143
60 	2     	0.826531	0.0306122	0.795918	0.857143
61 	2     	0.846939	0.0102041	0.836735	0.857143
62 	2     	0.846939	0.0102041	0.836735	0.857143
63 	2     	0.846939	0.0102041	0.836735	0.857143
64 	2     	0.846939	0.0102041	0.836735	0.857143
65 	2     	0.846939	0.0102041	0.836735	0.857143
66 	2     	0.846939	0.0102041	0.836735	0.857143
67 	2     	0.846939	0.0102041	0.836735	0.857143
68 	2     	0.846939	0.0102041	0.836735	0.857143
69 	2     	0.857143	0        	0.857143	0.857143
70 	2     	0.857143	0        	0.857143	0.857143
71 	2     	0.857143	0        	0.857143	0.857143
72 	2     	0.857143	0        	0.857143	0.857143
73 	2     	0.857143	0        	0.857143	0.857143
74 	2     	0.857143	0        	0.857143	0.857143
75 	2     	0.857143	0        	0.857143	0.857143
76 	2     	0.857143	0        	0.857143	0.857143
77 	2     	0.857143	0        	0.857143	0.857143
78 	2     	0.857143	0        	0.857143	0.857143
79 	2     	0.857143	0        	0.857143	0.857143
80 	2     	0.857143	0        	0.857143	0.857143
81 	2     	0.857143	0        	0.857143	0.857143
82 	2     	0.857143	0        	0.857143	0.857143
83 	2     	0.857143	0        	0.857143	0.857143
84 	2     	0.857143	0        	0.857143	0.857143
85 	2     	0.857143	0        	0.857143	0.857143
86 	2     	0.857143	0        	0.857143	0.857143
87 	2     	0.857143	0        	0.857143	0.857143
88 	2     	0.857143	0        	0.857143	0.857143
89 	2     	0.857143	0        	0.857143	0.857143
90 	2     	0.857143	0        	0.857143	0.857143
91 	2     	0.857143	0        	0.857143	0.857143
92 	2     	0.857143	0        	0.857143	0.857143
93 	2     	0.857143	0        	0.857143	0.857143
94 	2     	0.857143	0        	0.857143	0.857143
95 	2     	0.857143	0        	0.857143	0.857143
96 	2     	0.857143	0        	0.857143	0.857143
97 	2     	0.857143	0        	0.857143	0.857143
98 	2     	0.857143	0        	0.857143	0.857143
99 	2     	0.857143	0        	0.857143	0.857143
100	2     	0.857143	0        	0.857143	0.857143
101	2     	0.857143	0        	0.857143	0.857143
102	2     	0.857143	0        	0.857143	0.857143
103	2     	0.857143	0        	0.857143	0.857143
104	2     	0.867347	0.0102041	0.857143	0.877551
105	2     	0.867347	0.0102041	0.857143	0.877551
106	2     	0.867347	0.0102041	0.857143	0.877551
107	2     	0.867347	0.0102041	0.857143	0.877551
108	2     	0.867347	0.0102041	0.857143	0.877551
109	2     	0.867347	0.0102041	0.857143	0.877551
110	2     	0.867347	0.0102041	0.857143	0.877551
111	2     	0.867347	0.0102041	0.857143	0.877551
112	2     	0.867347	0.0102041	0.857143	0.877551
113	2     	0.867347	0.0102041	0.857143	0.877551
114	2     	0.867347	0.0102041	0.857143	0.877551
115	2     	0.867347	0.0102041	0.857143	0.877551
116	2     	0.867347	0.0102041	0.857143	0.877551
117	2     	0.867347	0.0102041	0.857143	0.877551
118	2     	0.867347	0.0102041	0.857143	0.877551
119	2     	0.867347	0.0102041	0.857143	0.877551
120	2     	0.867347	0.0102041	0.857143	0.877551
121	2     	0.867347	0.0102041	0.857143	0.877551
122	2     	0.867347	0.0102041	0.857143	0.877551
123	2     	0.867347	0.0102041	0.857143	0.877551
124	2     	0.867347	0.0102041	0.857143	0.877551
125	2     	0.867347	0.0102041	0.857143	0.877551
126	2     	0.867347	0.0102041	0.857143	0.877551
127	2     	0.867347	0.0102041	0.857143	0.877551
128	2     	0.867347	0.0102041	0.857143	0.877551
129	2     	0.867347	0.0102041	0.857143	0.877551
130	2     	0.867347	0.0102041	0.857143	0.877551
131	2     	0.867347	0.0102041	0.857143	0.877551
132	2     	0.867347	0.0102041	0.857143	0.877551
133	2     	0.867347	0.0102041	0.857143	0.877551
134	2     	0.867347	0.0102041	0.857143	0.877551
135	2     	0.867347	0.0102041	0.857143	0.877551
136	2     	0.867347	0.0102041	0.857143	0.877551
137	2     	0.867347	0.0102041	0.857143	0.877551
138	2     	0.867347	0.0102041	0.857143	0.877551
139	2     	0.867347	0.0102041	0.857143	0.877551
140	2     	0.867347	0.0102041	0.857143	0.877551
141	2     	0.867347	0.0102041	0.857143	0.877551
142	2     	0.867347	0.0102041	0.857143	0.877551
143	2     	0.867347	0.0102041	0.857143	0.877551
144	2     	0.867347	0.0102041	0.857143	0.877551
145	2     	0.867347	0.0102041	0.857143	0.877551
146	2     	0.867347	0.0102041	0.857143	0.877551
147	2     	0.867347	0.0102041	0.857143	0.877551
148	2     	0.867347	0.0102041	0.857143	0.877551
149	2     	0.867347	0.0102041	0.857143	0.877551
150	2     	0.867347	0.0102041	0.857143	0.877551
151	2     	0.867347	0.0102041	0.857143	0.877551
152	2     	0.867347	0.0102041	0.857143	0.877551
153	2     	0.867347	0.0102041	0.857143	0.877551
154	2     	0.867347	0.0102041	0.857143	0.877551
155	2     	0.867347	0.0102041	0.857143	0.877551
156	2     	0.867347	0.0102041	0.857143	0.877551
157	2     	0.867347	0.0102041	0.857143	0.877551
158	2     	0.867347	0.0102041	0.857143	0.877551
159	2     	0.867347	0.0102041	0.857143	0.877551
160	2     	0.867347	0.0102041	0.857143	0.877551
161	2     	0.867347	0.0102041	0.857143	0.877551
162	2     	0.867347	0.0102041	0.857143	0.877551
163	2     	0.867347	0.0102041	0.857143	0.877551
164	2     	0.867347	0.0102041	0.857143	0.877551
165	2     	0.867347	0.0102041	0.857143	0.877551
166	2     	0.877551	0        	0.877551	0.877551
167	2     	0.877551	0        	0.877551	0.877551
168	2     	0.877551	0        	0.877551	0.877551
169	2     	0.877551	0        	0.877551	0.877551
170	2     	0.877551	0        	0.877551	0.877551
171	2     	0.897959	0.0204082	0.877551	0.918367
172	2     	0.897959	0.0204082	0.877551	0.918367
173	2     	0.897959	0.0204082	0.877551	0.918367
174	2     	0.897959	0.0204082	0.877551	0.918367
175	2     	0.897959	0.0204082	0.877551	0.918367
176	2     	0.897959	0.0204082	0.877551	0.918367
177	2     	0.897959	0.0204082	0.877551	0.918367
178	2     	0.897959	0.0204082	0.877551	0.918367
179	2     	0.897959	0.0204082	0.877551	0.918367
180	2     	0.897959	0.0204082	0.877551	0.918367
181	2     	0.897959	0.0204082	0.877551	0.918367
182	2     	0.897959	0.0204082	0.877551	0.918367
183	2     	0.908163	0.0102041	0.897959	0.918367
184	2     	0.908163	0.0102041	0.897959	0.918367
185	2     	0.908163	0.0102041	0.897959	0.918367
186	2     	0.908163	0.0102041	0.897959	0.918367
187	2     	0.908163	0.0102041	0.897959	0.918367
188	2     	0.908163	0.0102041	0.897959	0.918367
189	2     	0.908163	0.0102041	0.897959	0.918367
190	2     	0.908163	0.0102041	0.897959	0.918367
191	2     	0.908163	0.0102041	0.897959	0.918367
192	2     	0.908163	0.0102041	0.897959	0.918367
193	2     	0.908163	0.0102041	0.897959	0.918367
194	2     	0.908163	0.0102041	0.897959	0.918367
195	2     	0.908163	0.0102041	0.897959	0.918367
196	2     	0.908163	0.0102041	0.897959	0.918367
197	2     	0.908163	0.0102041	0.897959	0.918367
198	2     	0.908163	0.0102041	0.897959	0.918367
199	2     	0.908163	0.0102041	0.897959	0.918367
200	2     	0.908163	0.0102041	0.897959	0.918367
201	2     	0.908163	0.0102041	0.897959	0.918367
202	2     	0.908163	0.0102041	0.897959	0.918367
203	2     	0.908163	0.0102041	0.897959	0.918367
204	2     	0.908163	0.0102041	0.897959	0.918367
205	2     	0.908163	0.0102041	0.897959	0.918367
206	2     	0.908163	0.0102041	0.897959	0.918367
207	2     	0.908163	0.0102041	0.897959	0.918367
208	2     	0.908163	0.0102041	0.897959	0.918367
209	2     	0.908163	0.0102041	0.897959	0.918367
210	2     	0.908163	0.0102041	0.897959	0.918367
211	2     	0.908163	0.0102041	0.897959	0.918367
212	2     	0.908163	0.0102041	0.897959	0.918367
213	2     	0.908163	0.0102041	0.897959	0.918367
214	2     	0.908163	0.0102041	0.897959	0.918367
215	2     	0.908163	0.0102041	0.897959	0.918367
216	2     	0.908163	0.0102041	0.897959	0.918367
217	2     	0.908163	0.0102041	0.897959	0.918367
218	2     	0.908163	0.0102041	0.897959	0.918367
219	2     	0.908163	0.0102041	0.897959	0.918367
220	2     	0.918367	0        	0.918367	0.918367
221	2     	0.918367	0        	0.918367	0.918367
222	2     	0.918367	0        	0.918367	0.918367
223	2     	0.918367	0        	0.918367	0.918367
224	2     	0.918367	0        	0.918367	0.918367
225	2     	0.918367	0        	0.918367	0.918367
226	2     	0.918367	0        	0.918367	0.918367
227	2     	0.918367	0        	0.918367	0.918367
228	2     	0.918367	0        	0.918367	0.918367
229	2     	0.918367	0        	0.918367	0.918367
230	2     	0.918367	0        	0.918367	0.918367
231	2     	0.918367	0        	0.918367	0.918367
232	2     	0.918367	0        	0.918367	0.918367
233	2     	0.918367	0        	0.918367	0.918367
234	2     	0.918367	0        	0.918367	0.918367
235	2     	0.918367	0        	0.918367	0.918367
236	2     	0.918367	0        	0.918367	0.918367
237	2     	0.918367	0        	0.918367	0.918367
238	2     	0.918367	0        	0.918367	0.918367
239	2     	0.918367	0        	0.918367	0.918367
240	2     	0.918367	0        	0.918367	0.918367
241	2     	0.918367	0        	0.918367	0.918367
242	2     	0.918367	0        	0.918367	0.918367
243	2     	0.918367	0        	0.918367	0.918367
244	2     	0.918367	0        	0.918367	0.918367
245	2     	0.918367	0        	0.918367	0.918367
246	2     	0.918367	0        	0.918367	0.918367
247	2     	0.918367	0        	0.918367	0.918367
248	2     	0.918367	0        	0.918367	0.918367
249	2     	0.918367	0        	0.918367	0.918367
250	2     	0.918367	0        	0.918367	0.918367
251	2     	0.918367	0        	0.918367	0.918367
252	2     	0.918367	0        	0.918367	0.918367
253	2     	0.918367	0        	0.918367	0.918367
254	2     	0.918367	0        	0.918367	0.918367
255	2     	0.918367	0        	0.918367	0.918367
256	2     	0.918367	0        	0.918367	0.918367
257	2     	0.918367	0        	0.918367	0.918367
258	2     	0.918367	0        	0.918367	0.918367
259	2     	0.918367	0        	0.918367	0.918367
260	2     	0.918367	0        	0.918367	0.918367
261	2     	0.918367	0        	0.918367	0.918367