gen	nevals	avg    	std    	min   	max  
0  	2     	0.5    	0      	0.5   	0.5  
1  	2     	0.5    	0      	0.5   	0.5  
2  	2     	0.5    	0      	0.5   	0.5  
3  	2     	0.5625 	0.0625 	0.5   	0.625
4  	2     	0.59375	0.03125	0.5625	0.625
5  	2     	0.625  	0      	0.625 	0.625
6  	2     	0.625  	0      	0.625 	0.625
7  	2     	0.625  	0      	0.625 	0.625