gen	nevals	avg     	std      	min     	max     
0  	2     	0.430556	0.0138889	0.416667	0.444444
1  	2     	0.444444	0        	0.444444	0.444444
2  	2     	0.472222	0.0277778	0.444444	0.5     
3  	2     	0.486111	0.0138889	0.472222	0.5     
4  	2     	0.513889	0.0138889	0.5     	0.527778
5  	2     	0.513889	0.0138889	0.5     	0.527778
6  	2     	0.513889	0.0138889	0.5     	0.527778
7  	2     	0.527778	0        	0.527778	0.527778
8  	2     	0.541667	0.0138889	0.527778	0.555556
9  	2     	0.583333	0.0277778	0.555556	0.611111
10 	2     	0.597222	0.0138889	0.583333	0.611111
11 	2     	0.597222	0.0138889	0.583333	0.611111
12 	2     	0.597222	0.0138889	0.583333	0.611111
13 	2     	0.625   	0.0138889	0.611111	0.638889
14 	2     	0.652778	0.0138889	0.638889	0.666667
15 	2     	0.666667	0        	0.666667	0.666667
16 	2     	0.694444	0.0277778	0.666667	0.722222
17 	2     	0.694444	0.0277778	0.666667	0.722222
18 	2     	0.694444	0.0277778	0.666667	0.722222
19 	2     	0.694444	0.0277778	0.666667	0.722222
20 	2     	0.722222	0        	0.722222	0.722222
21 	2     	0.722222	0        	0.722222	0.722222
22 	2     	0.722222	0        	0.722222	0.722222
23 	2     	0.722222	0        	0.722222	0.722222
24 	2     	0.722222	0        	0.722222	0.722222
25 	2     	0.722222	0        	0.722222	0.722222
26 	2     	0.736111	0.0138889	0.722222	0.75    
27 	2     	0.736111	0.0138889	0.722222	0.75    
28 	2     	0.736111	0.0138889	0.722222	0.75    
29 	2     	0.736111	0.0138889	0.722222	0.75    
30 	2     	0.736111	0.0138889	0.722222	0.75    
31 	2     	0.736111	0.0138889	0.722222	0.75    
32 	2     	0.736111	0.0138889	0.722222	0.75    
33 	2     	0.763889	0.0138889	0.75    	0.777778
34 	2     	0.763889	0.0138889	0.75    	0.777778
35 	2     	0.763889	0.0138889	0.75    	0.777778
36 	2     	0.763889	0.0138889	0.75    	0.777778
37 	2     	0.763889	0.0138889	0.75    	0.777778
38 	2     	0.777778	0        	0.777778	0.777778
39 	2     	0.777778	0        	0.777778	0.777778
40 	2     	0.777778	0        	0.777778	0.777778
41 	2     	0.777778	0        	0.777778	0.777778
42 	2     	0.777778	0        	0.777778	0.777778
43 	2     	0.777778	0        	0.777778	0.777778
44 	2     	0.777778	0        	0.777778	0.777778
45 	2     	0.777778	0        	0.777778	0.777778
46 	2     	0.777778	0        	0.777778	0.777778
47 	2     	0.791667	0.0138889	0.777778	0.805556
48 	2     	0.791667	0.0138889	0.777778	0.805556
49 	2     	0.791667	0.0138889	0.777778	0.805556
50 	2     	0.819444	0.0138889	0.805556	0.833333
51 	2     	0.819444	0.0138889	0.805556	0.833333
52 	2     	0.819444	0.0138889	0.805556	0.833333
53 	2     	0.819444	0.0138889	0.805556	0.833333
54 	2     	0.819444	0.0138889	0.805556	0.833333
55 	2     	0.819444	0.0138889	0.805556	0.833333
56 	2     	0.819444	0.0138889	0.805556	0.833333
57 	2     	0.819444	0.0138889	0.805556	0.833333
58 	2     	0.819444	0.0138889	0.805556	0.833333
59 	2     	0.819444	0.0138889	0.805556	0.833333
60 	2     	0.819444	0.0138889	0.805556	0.833333
61 	2     	0.819444	0.0138889	0.805556	0.833333
62 	2     	0.819444	0.0138889	0.805556	0.833333
63 	2     	0.819444	0.0138889	0.805556	0.833333
64 	2     	0.819444	0.0138889	0.805556	0.833333
65 	2     	0.819444	0.0138889	0.805556	0.833333
66 	2     	0.819444	0.0138889	0.805556	0.833333
67 	2     	0.833333	0        	0.833333	0.833333
68 	2     	0.833333	0        	0.833333	0.833333
69 	2     	0.833333	0        	0.833333	0.833333
70 	2     	0.833333	0        	0.833333	0.833333
71 	2     	0.833333	0        	0.833333	0.833333
72 	2     	0.833333	0        	0.833333	0.833333
73 	2     	0.847222	0.0138889	0.833333	0.861111
74 	2     	0.847222	0.0138889	0.833333	0.861111
75 	2     	0.847222	0.0138889	0.833333	0.861111
76 	2     	0.847222	0.0138889	0.833333	0.861111
77 	2     	0.847222	0.0138889	0.833333	0.861111
78 	2     	0.847222	0.0138889	0.833333	0.861111
79 	2     	0.847222	0.0138889	0.833333	0.861111
80 	2     	0.847222	0.0138889	0.833333	0.861111
81 	2     	0.847222	0.0138889	0.833333	0.861111
82 	2     	0.847222	0.0138889	0.833333	0.861111
83 	2     	0.847222	0.0138889	0.833333	0.861111
84 	2     	0.847222	0.0138889	0.833333	0.861111
85 	2     	0.847222	0.0138889	0.833333	0.861111
86 	2     	0.847222	0.0138889	0.833333	0.861111
87 	2     	0.847222	0.0138889	0.833333	0.861111
88 	2     	0.847222	0.0138889	0.833333	0.861111
89 	2     	0.847222	0.0138889	0.833333	0.861111
90 	2     	0.847222	0.0138889	0.833333	0.861111
91 	2     	0.847222	0.0138889	0.833333	0.861111
92 	2     	0.847222	0.0138889	0.833333	0.861111
93 	2     	0.847222	0.0138889	0.833333	0.861111
94 	2     	0.847222	0.0138889	0.833333	0.861111
95 	2     	0.847222	0.0138889	0.833333	0.861111
96 	2     	0.861111	0        	0.861111	0.861111
97 	2     	0.861111	0        	0.861111	0.861111
98 	2     	0.861111	0        	0.861111	0.861111
99 	2     	0.861111	0        	0.861111	0.861111
100	2     	0.861111	0        	0.861111	0.861111
101	2     	0.861111	0        	0.861111	0.861111
102	2     	0.861111	0        	0.861111	0.861111
103	2     	0.861111	0        	0.861111	0.861111
104	2     	0.861111	0        	0.861111	0.861111
105	2     	0.861111	0        	0.861111	0.861111
106	2     	0.861111	0        	0.861111	0.861111
107	2     	0.861111	0        	0.861111	0.861111
108	2     	0.861111	0        	0.861111	0.861111
109	2     	0.861111	0        	0.861111	0.861111
110	2     	0.861111	0        	0.861111	0.861111
111	2     	0.861111	0        	0.861111	0.861111
112	2     	0.861111	0        	0.861111	0.861111
113	2     	0.861111	0        	0.861111	0.861111
114	2     	0.861111	0        	0.861111	0.861111
115	2     	0.861111	0        	0.861111	0.861111
116	2     	0.861111	0        	0.861111	0.861111
117	2     	0.875   	0.0138889	0.861111	0.888889
118	2     	0.875   	0.0138889	0.861111	0.888889
119	2     	0.875   	0.0138889	0.861111	0.888889
120	2     	0.888889	0        	0.888889	0.888889
121	2     	0.888889	0        	0.888889	0.888889
122	2     	0.888889	0        	0.888889	0.888889
123	2     	0.888889	0        	0.888889	0.888889
124	2     	0.888889	0        	0.888889	0.888889
125	2     	0.888889	0        	0.888889	0.888889
126	2     	0.888889	0        	0.888889	0.888889
127	2     	0.888889	0        	0.888889	0.888889
128	2     	0.888889	0        	0.888889	0.888889
129	2     	0.888889	0        	0.888889	0.888889
130	2     	0.888889	0        	0.888889	0.888889
131	2     	0.888889	0        	0.888889	0.888889
132	2     	0.888889	0        	0.888889	0.888889
133	2     	0.888889	0        	0.888889	0.888889
134	2     	0.888889	0        	0.888889	0.888889
135	2     	0.888889	0        	0.888889	0.888889
136	2     	0.888889	0        	0.888889	0.888889
137	2     	0.888889	0        	0.888889	0.888889
138	2     	0.888889	0        	0.888889	0.888889
139	2     	0.888889	0        	0.888889	0.888889
140	2     	0.888889	0        	0.888889	0.888889
141	2     	0.888889	0        	0.888889	0.888889
142	2     	0.888889	0        	0.888889	0.888889
143	2     	0.888889	0        	0.888889	0.888889
144	2     	0.888889	0        	0.888889	0.888889
145	2     	0.888889	0        	0.888889	0.888889
146	2     	0.888889	0        	0.888889	0.888889
147	2     	0.888889	0        	0.888889	0.888889
148	2     	0.888889	0        	0.888889	0.888889
149	2     	0.888889	0        	0.888889	0.888889
150	2     	0.888889	0        	0.888889	0.888889
151	2     	0.888889	0        	0.888889	0.888889
152	2     	0.888889	0        	0.888889	0.888889
153	2     	0.888889	0        	0.888889	0.888889
154	2     	0.888889	0        	0.888889	0.888889
155	2     	0.888889	0        	0.888889	0.888889
156	2     	0.888889	0        	0.888889	0.888889
157	2     	0.888889	0        	0.888889	0.888889
158	2     	0.888889	0        	0.888889	0.888889
159	2     	0.902778	0.0138889	0.888889	0.916667
160	2     	0.902778	0.0138889	0.888889	0.916667
161	2     	0.902778	0.0138889	0.888889	0.916667
162	2     	0.902778	0.0138889	0.888889	0.916667
163	2     	0.902778	0.0138889	0.888889	0.916667
164	2     	0.902778	0.0138889	0.888889	0.916667
165	2     	0.902778	0.0138889	0.888889	0.916667
166	2     	0.902778	0.0138889	0.888889	0.916667
167	2     	0.916667	0        	0.916667	0.916667
168	2     	0.916667	0        	0.916667	0.916667
169	2     	0.916667	0        	0.916667	0.916667
170	2     	0.916667	0        	0.916667	0.916667
171	2     	0.916667	0        	0.916667	0.916667
172	2     	0.916667	0        	0.916667	0.916667
173	2     	0.916667	0        	0.916667	0.916667
174	2     	0.916667	0        	0.916667	0.916667