gen	nevals	avg     	std      	min     	max     
0  	2     	0.55102 	0.0204082	0.530612	0.571429
1  	2     	0.591837	0.0204082	0.571429	0.612245
2  	2     	0.602041	0.0102041	0.591837	0.612245
3  	2     	0.602041	0.0102041	0.591837	0.612245
4  	2     	0.632653	0.0204082	0.612245	0.653061
5  	2     	0.632653	0.0204082	0.612245	0.653061
6  	2     	0.653061	0        	0.653061	0.653061
7  	2     	0.673469	0.0204082	0.653061	0.693878
8  	2     	0.673469	0.0204082	0.653061	0.693878
9  	2     	0.693878	0        	0.693878	0.693878
10 	2     	0.693878	0        	0.693878	0.693878
11 	2     	0.693878	0        	0.693878	0.693878
12 	2     	0.693878	0        	0.693878	0.693878
13 	2     	0.693878	0        	0.693878	0.693878
14 	2     	0.693878	0        	0.693878	0.693878
15 	2     	0.693878	0        	0.693878	0.693878
16 	2     	0.693878	0        	0.693878	0.693878
17 	2     	0.693878	0        	0.693878	0.693878
18 	2     	0.693878	0        	0.693878	0.693878
19 	2     	0.693878	0        	0.693878	0.693878
20 	2     	0.693878	0        	0.693878	0.693878
21 	2     	0.714286	0.0204082	0.693878	0.734694
22 	2     	0.72449 	0.0102041	0.714286	0.734694
23 	2     	0.72449 	0.0102041	0.714286	0.734694
24 	2     	0.72449 	0.0102041	0.714286	0.734694
25 	2     	0.72449 	0.0102041	0.714286	0.734694
26 	2     	0.72449 	0.0102041	0.714286	0.734694
27 	2     	0.72449 	0.0102041	0.714286	0.734694
28 	2     	0.72449 	0.0102041	0.714286	0.734694
29 	2     	0.72449 	0.0102041	0.714286	0.734694
30 	2     	0.72449 	0.0102041	0.714286	0.734694
31 	2     	0.734694	0        	0.734694	0.734694
32 	2     	0.734694	0        	0.734694	0.734694
33 	2     	0.734694	0        	0.734694	0.734694
34 	2     	0.734694	0        	0.734694	0.734694
35 	2     	0.734694	0        	0.734694	0.734694
36 	2     	0.734694	0        	0.734694	0.734694
37 	2     	0.734694	0        	0.734694	0.734694
38 	2     	0.734694	0        	0.734694	0.734694
39 	2     	0.734694	0        	0.734694	0.734694
40 	2     	0.734694	0        	0.734694	0.734694
41 	2     	0.734694	0        	0.734694	0.734694
42 	2     	0.734694	0        	0.734694	0.734694
43 	2     	0.734694	0        	0.734694	0.734694
44 	2     	0.734694	0        	0.734694	0.734694
45 	2     	0.734694	0        	0.734694	0.734694
46 	2     	0.734694	0        	0.734694	0.734694
47 	2     	0.734694	0        	0.734694	0.734694
48 	2     	0.734694	0        	0.734694	0.734694
49 	2     	0.734694	0        	0.734694	0.734694
50 	2     	0.744898	0.0102041	0.734694	0.755102
51 	2     	0.744898	0.0102041	0.734694	0.755102
52 	2     	0.744898	0.0102041	0.734694	0.755102
53 	2     	0.744898	0.0102041	0.734694	0.755102
54 	2     	0.744898	0.0102041	0.734694	0.755102
55 	2     	0.744898	0.0102041	0.734694	0.755102
56 	2     	0.744898	0.0102041	0.734694	0.755102
57 	2     	0.755102	0        	0.755102	0.755102
58 	2     	0.755102	0        	0.755102	0.755102
59 	2     	0.755102	0        	0.755102	0.755102
60 	2     	0.755102	0        	0.755102	0.755102
61 	2     	0.755102	0        	0.755102	0.755102
62 	2     	0.755102	0        	0.755102	0.755102
63 	2     	0.755102	0        	0.755102	0.755102
64 	2     	0.755102	0        	0.755102	0.755102
65 	2     	0.755102	0        	0.755102	0.755102
66 	2     	0.755102	0        	0.755102	0.755102
67 	2     	0.755102	0        	0.755102	0.755102
68 	2     	0.755102	0        	0.755102	0.755102
69 	2     	0.755102	0        	0.755102	0.755102
70 	2     	0.755102	0        	0.755102	0.755102
71 	2     	0.755102	0        	0.755102	0.755102
72 	2     	0.755102	0        	0.755102	0.755102
73 	2     	0.755102	0        	0.755102	0.755102
74 	2     	0.77551 	0.0204082	0.755102	0.795918
75 	2     	0.77551 	0.0204082	0.755102	0.795918
76 	2     	0.77551 	0.0204082	0.755102	0.795918
77 	2     	0.785714	0.0102041	0.77551 	0.795918
78 	2     	0.785714	0.0102041	0.77551 	0.795918
79 	2     	0.785714	0.0102041	0.77551 	0.795918
80 	2     	0.785714	0.0102041	0.77551 	0.795918
81 	2     	0.785714	0.0102041	0.77551 	0.795918
82 	2     	0.785714	0.0102041	0.77551 	0.795918
83 	2     	0.785714	0.0102041	0.77551 	0.795918
84 	2     	0.785714	0.0102041	0.77551 	0.795918
85 	2     	0.785714	0.0102041	0.77551 	0.795918
86 	2     	0.785714	0.0102041	0.77551 	0.795918
87 	2     	0.785714	0.0102041	0.77551 	0.795918
88 	2     	0.785714	0.0102041	0.77551 	0.795918
89 	2     	0.785714	0.0102041	0.77551 	0.795918
90 	2     	0.785714	0.0102041	0.77551 	0.795918
91 	2     	0.785714	0.0102041	0.77551 	0.795918
92 	2     	0.785714	0.0102041	0.77551 	0.795918
93 	2     	0.785714	0.0102041	0.77551 	0.795918
94 	2     	0.785714	0.0102041	0.77551 	0.795918
95 	2     	0.785714	0.0102041	0.77551 	0.795918
96 	2     	0.785714	0.0102041	0.77551 	0.795918
97 	2     	0.785714	0.0102041	0.77551 	0.795918
98 	2     	0.785714	0.0102041	0.77551 	0.795918
99 	2     	0.785714	0.0102041	0.77551 	0.795918
100	2     	0.785714	0.0102041	0.77551 	0.795918
101	2     	0.785714	0.0102041	0.77551 	0.795918
102	2     	0.785714	0.0102041	0.77551 	0.795918
103	2     	0.785714	0.0102041	0.77551 	0.795918
104	2     	0.785714	0.0102041	0.77551 	0.795918
105	2     	0.785714	0.0102041	0.77551 	0.795918
106	2     	0.785714	0.0102041	0.77551 	0.795918
107	2     	0.785714	0.0102041	0.77551 	0.795918
108	2     	0.785714	0.0102041	0.77551 	0.795918
109	2     	0.785714	0.0102041	0.77551 	0.795918
110	2     	0.785714	0.0102041	0.77551 	0.795918
111	2     	0.795918	0        	0.795918	0.795918
112	2     	0.795918	0        	0.795918	0.795918
113	2     	0.806122	0.0102041	0.795918	0.816327
114	2     	0.826531	0.0102041	0.816327	0.836735
115	2     	0.826531	0.0102041	0.816327	0.836735
116	2     	0.836735	0        	0.836735	0.836735
117	2     	0.836735	0        	0.836735	0.836735
118	2     	0.836735	0        	0.836735	0.836735
119	2     	0.836735	0        	0.836735	0.836735
120	2     	0.836735	0        	0.836735	0.836735
121	2     	0.836735	0        	0.836735	0.836735
122	2     	0.836735	0        	0.836735	0.836735
123	2     	0.836735	0        	0.836735	0.836735
124	2     	0.836735	0        	0.836735	0.836735
125	2     	0.836735	0        	0.836735	0.836735
126	2     	0.836735	0        	0.836735	0.836735
127	2     	0.836735	0        	0.836735	0.836735
128	2     	0.836735	0        	0.836735	0.836735
129	2     	0.836735	0        	0.836735	0.836735
130	2     	0.836735	0        	0.836735	0.836735
131	2     	0.836735	0        	0.836735	0.836735
132	2     	0.836735	0        	0.836735	0.836735
133	2     	0.836735	0        	0.836735	0.836735
134	2     	0.836735	0        	0.836735	0.836735
135	2     	0.836735	0        	0.836735	0.836735
136	2     	0.836735	0        	0.836735	0.836735
137	2     	0.836735	0        	0.836735	0.836735
138	2     	0.836735	0        	0.836735	0.836735
139	2     	0.836735	0        	0.836735	0.836735
140	2     	0.836735	0        	0.836735	0.836735
141	2     	0.836735	0        	0.836735	0.836735
142	2     	0.836735	0        	0.836735	0.836735
143	2     	0.836735	0        	0.836735	0.836735
144	2     	0.836735	0        	0.836735	0.836735
145	2     	0.836735	0        	0.836735	0.836735
146	2     	0.836735	0        	0.836735	0.836735
147	2     	0.836735	0        	0.836735	0.836735
148	2     	0.836735	0        	0.836735	0.836735
149	2     	0.836735	0        	0.836735	0.836735
150	2     	0.836735	0        	0.836735	0.836735
151	2     	0.836735	0        	0.836735	0.836735
152	2     	0.836735	0        	0.836735	0.836735
153	2     	0.836735	0        	0.836735	0.836735
154	2     	0.836735	0        	0.836735	0.836735
155	2     	0.836735	0        	0.836735	0.836735
156	2     	0.836735	0        	0.836735	0.836735
157	2     	0.836735	0        	0.836735	0.836735
158	2     	0.836735	0        	0.836735	0.836735
159	2     	0.836735	0        	0.836735	0.836735
160	2     	0.836735	0        	0.836735	0.836735
161	2     	0.836735	0        	0.836735	0.836735
162	2     	0.836735	0        	0.836735	0.836735
163	2     	0.836735	0        	0.836735	0.836735
164	2     	0.836735	0        	0.836735	0.836735
165	2     	0.836735	0        	0.836735	0.836735
166	2     	0.836735	0        	0.836735	0.836735
167	2     	0.836735	0        	0.836735	0.836735
168	2     	0.836735	0        	0.836735	0.836735
169	2     	0.836735	0        	0.836735	0.836735
170	2     	0.836735	0        	0.836735	0.836735
171	2     	0.836735	0        	0.836735	0.836735
172	2     	0.836735	0        	0.836735	0.836735
173	2     	0.836735	0        	0.836735	0.836735
174	2     	0.836735	0        	0.836735	0.836735
175	2     	0.836735	0        	0.836735	0.836735
176	2     	0.836735	0        	0.836735	0.836735
177	2     	0.836735	0        	0.836735	0.836735
178	2     	0.836735	0        	0.836735	0.836735
179	2     	0.836735	0        	0.836735	0.836735
180	2     	0.836735	0        	0.836735	0.836735
181	2     	0.836735	0        	0.836735	0.836735
182	2     	0.836735	0        	0.836735	0.836735
183	2     	0.846939	0.0102041	0.836735	0.857143
184	2     	0.846939	0.0102041	0.836735	0.857143
185	2     	0.846939	0.0102041	0.836735	0.857143
186	2     	0.846939	0.0102041	0.836735	0.857143
187	2     	0.846939	0.0102041	0.836735	0.857143
188	2     	0.846939	0.0102041	0.836735	0.857143
189	2     	0.846939	0.0102041	0.836735	0.857143
190	2     	0.846939	0.0102041	0.836735	0.857143
191	2     	0.846939	0.0102041	0.836735	0.857143
192	2     	0.846939	0.0102041	0.836735	0.857143
193	2     	0.846939	0.0102041	0.836735	0.857143
194	2     	0.846939	0.0102041	0.836735	0.857143
195	2     	0.846939	0.0102041	0.836735	0.857143
196	2     	0.846939	0.0102041	0.836735	0.857143
197	2     	0.846939	0.0102041	0.836735	0.857143
198	2     	0.846939	0.0102041	0.836735	0.857143
199	2     	0.846939	0.0102041	0.836735	0.857143
200	2     	0.857143	0        	0.857143	0.857143
201	2     	0.857143	0        	0.857143	0.857143
202	2     	0.867347	0.0102041	0.857143	0.877551
203	2     	0.867347	0.0102041	0.857143	0.877551
204	2     	0.867347	0.0102041	0.857143	0.877551
205	2     	0.887755	0.0102041	0.877551	0.897959
206	2     	0.887755	0.0102041	0.877551	0.897959
207	2     	0.887755	0.0102041	0.877551	0.897959
208	2     	0.887755	0.0102041	0.877551	0.897959
209	2     	0.887755	0.0102041	0.877551	0.897959
210	2     	0.887755	0.0102041	0.877551	0.897959
211	2     	0.887755	0.0102041	0.877551	0.897959
212	2     	0.887755	0.0102041	0.877551	0.897959
213	2     	0.887755	0.0102041	0.877551	0.897959
214	2     	0.887755	0.0102041	0.877551	0.897959
215	2     	0.887755	0.0102041	0.877551	0.897959
216	2     	0.887755	0.0102041	0.877551	0.897959
217	2     	0.887755	0.0102041	0.877551	0.897959
218	2     	0.887755	0.0102041	0.877551	0.897959
219	2     	0.887755	0.0102041	0.877551	0.897959
220	2     	0.887755	0.0102041	0.877551	0.897959
221	2     	0.887755	0.0102041	0.877551	0.897959
222	2     	0.908163	0.0102041	0.897959	0.918367
223	2     	0.908163	0.0102041	0.897959	0.918367
224	2     	0.908163	0.0102041	0.897959	0.918367
225	2     	0.908163	0.0102041	0.897959	0.918367
226	2     	0.908163	0.0102041	0.897959	0.918367
227	2     	0.908163	0.0102041	0.897959	0.918367
228	2     	0.908163	0.0102041	0.897959	0.918367
229	2     	0.908163	0.0102041	0.897959	0.918367
230	2     	0.908163	0.0102041	0.897959	0.918367
231	2     	0.908163	0.0102041	0.897959	0.918367
232	2     	0.908163	0.0102041	0.897959	0.918367
233	2     	0.908163	0.0102041	0.897959	0.918367
234	2     	0.908163	0.0102041	0.897959	0.918367
235	2     	0.908163	0.0102041	0.897959	0.918367
236	2     	0.908163	0.0102041	0.897959	0.918367
237	2     	0.908163	0.0102041	0.897959	0.918367
238	2     	0.908163	0.0102041	0.897959	0.918367
239	2     	0.908163	0.0102041	0.897959	0.918367
240	2     	0.908163	0.0102041	0.897959	0.918367
241	2     	0.908163	0.0102041	0.897959	0.918367
242	2     	0.908163	0.0102041	0.897959	0.918367
243	2     	0.908163	0.0102041	0.897959	0.918367
244	2     	0.908163	0.0102041	0.897959	0.918367
245	2     	0.908163	0.0102041	0.897959	0.918367
246	2     	0.908163	0.0102041	0.897959	0.918367
247	2     	0.908163	0.0102041	0.897959	0.918367
248	2     	0.908163	0.0102041	0.897959	0.918367
249	2     	0.908163	0.0102041	0.897959	0.918367
250	2     	0.908163	0.0102041	0.897959	0.918367
251	2     	0.908163	0.0102041	0.897959	0.918367
252	2     	0.908163	0.0102041	0.897959	0.918367
253	2     	0.908163	0.0102041	0.897959	0.918367
254	2     	0.908163	0.0102041	0.897959	0.918367
255	2     	0.918367	0        	0.918367	0.918367
256	2     	0.918367	0        	0.918367	0.918367
257	2     	0.918367	0        	0.918367	0.918367
258	2     	0.918367	0        	0.918367	0.918367
259	2     	0.918367	0        	0.918367	0.918367
260	2     	0.918367	0        	0.918367	0.918367
261	2     	0.918367	0        	0.918367	0.918367
262	2     	0.918367	0        	0.918367	0.918367
263	2     	0.918367	0        	0.918367	0.918367
264	2     	0.918367	0        	0.918367	0.918367
265	2     	0.918367	0        	0.918367	0.918367
266	2     	0.918367	0        	0.918367	0.918367
267	2     	0.918367	0        	0.918367	0.918367
268	2     	0.918367	0        	0.918367	0.918367
269	2     	0.918367	0        	0.918367	0.918367
270	2     	0.918367	0        	0.918367	0.918367
271	2     	0.918367	0        	0.918367	0.918367
272	2     	0.918367	0        	0.918367	0.918367
273	2     	0.918367	0        	0.918367	0.918367
274	2     	0.918367	0        	0.918367	0.918367
275	2     	0.918367	0        	0.918367	0.918367
276	2     	0.918367	0        	0.918367	0.918367
277	2     	0.918367	0        	0.918367	0.918367
278	2     	0.918367	0        	0.918367	0.918367
279	2     	0.918367	0        	0.918367	0.918367
280	2     	0.918367	0        	0.918367	0.918367
281	2     	0.918367	0        	0.918367	0.918367
282	2     	0.918367	0        	0.918367	0.918367
283	2     	0.918367	0        	0.918367	0.918367
284	2     	0.918367	0        	0.918367	0.918367
285	2     	0.918367	0        	0.918367	0.918367
286	2     	0.918367	0        	0.918367	0.918367
287	2     	0.918367	0        	0.918367	0.918367
288	2     	0.918367	0        	0.918367	0.918367
289	2     	0.918367	0        	0.918367	0.918367
290	2     	0.918367	0        	0.918367	0.918367
291	2     	0.918367	0        	0.918367	0.918367
292	2     	0.918367	0        	0.918367	0.918367
293	2     	0.918367	0        	0.918367	0.918367
294	2     	0.918367	0        	0.918367	0.918367
295	2     	0.918367	0        	0.918367	0.918367
296	2     	0.918367	0        	0.918367	0.918367
297	2     	0.918367	0        	0.918367	0.918367
298	2     	0.918367	0        	0.918367	0.918367
299	2     	0.918367	0        	0.918367	0.918367
300	2     	0.918367	0        	0.918367	0.918367
301	2     	0.918367	0        	0.918367	0.918367
302	2     	0.918367	0        	0.918367	0.918367
303	2     	0.918367	0        	0.918367	0.918367
304	2     	0.918367	0        	0.918367	0.918367
305	2     	0.918367	0        	0.918367	0.918367
306	2     	0.918367	0        	0.918367	0.918367
307	2     	0.918367	0        	0.918367	0.918367
308	2     	0.918367	0        	0.918367	0.918367
309	2     	0.918367	0        	0.918367	0.918367
310	2     	0.918367	0        	0.918367	0.918367
311	2     	0.918367	0        	0.918367	0.918367
312	2     	0.918367	0        	0.918367	0.918367
313	2     	0.918367	0        	0.918367	0.918367
314	2     	0.918367	0        	0.918367	0.918367
315	2     	0.918367	0        	0.918367	0.918367
316	2     	0.918367	0        	0.918367	0.918367
317	2     	0.918367	0        	0.918367	0.918367
318	2     	0.918367	0        	0.918367	0.918367
319	2     	0.918367	0        	0.918367	0.918367
320	2     	0.918367	0        	0.918367	0.918367
321	2     	0.918367	0        	0.918367	0.918367
322	2     	0.918367	0        	0.918367	0.918367
323	2     	0.918367	0        	0.918367	0.918367
324	2     	0.918367	0        	0.918367	0.918367
325	2     	0.918367	0        	0.918367	0.918367
326	2     	0.918367	0        	0.918367	0.918367
327	2     	0.918367	0        	0.918367	0.918367
328	2     	0.918367	0        	0.918367	0.918367
329	2     	0.918367	0        	0.918367	0.918367
330	2     	0.918367	0        	0.918367	0.918367
331	2     	0.918367	0        	0.918367	0.918367
332	2     	0.918367	0        	0.918367	0.918367
333	2     	0.918367	0        	0.918367	0.918367
334	2     	0.918367	0        	0.918367	0.918367
335	2     	0.918367	0        	0.918367	0.918367
336	2     	0.918367	0        	0.918367	0.918367
337	2     	0.918367	0        	0.918367	0.918367
338	2     	0.918367	0        	0.918367	0.918367
339	2     	0.918367	0        	0.918367	0.918367
340	2     	0.918367	0        	0.918367	0.918367
341	2     	0.918367	0        	0.918367	0.918367
342	2     	0.918367	0        	0.918367	0.918367
343	2     	0.918367	0        	0.918367	0.918367
344	2     	0.918367	0        	0.918367	0.918367
345	2     	0.918367	0        	0.918367	0.918367
346	2     	0.918367	0        	0.918367	0.918367
347	2     	0.918367	0        	0.918367	0.918367
348	2     	0.918367	0        	0.918367	0.918367
349	2     	0.918367	0        	0.918367	0.918367
350	2     	0.918367	0        	0.918367	0.918367
351	2     	0.918367	0        	0.918367	0.918367
352	2     	0.918367	0        	0.918367	0.918367
353	2     	0.918367	0        	0.918367	0.918367
354	2     	0.918367	0        	0.918367	0.918367
355	2     	0.918367	0        	0.918367	0.918367
356	2     	0.918367	0        	0.918367	0.918367
357	2     	0.918367	0        	0.918367	0.918367
358	2     	0.918367	0        	0.918367	0.918367
359	2     	0.918367	0        	0.918367	0.918367
360	2     	0.918367	0        	0.918367	0.918367
361	2     	0.918367	0        	0.918367	0.918367
362	2     	0.918367	0        	0.918367	0.918367
363	2     	0.918367	0        	0.918367	0.918367
364	2     	0.918367	0        	0.918367	0.918367
365	2     	0.918367	0        	0.918367	0.918367
366	2     	0.918367	0        	0.918367	0.918367
367	2     	0.918367	0        	0.918367	0.918367
368	2     	0.918367	0        	0.918367	0.918367
369	2     	0.918367	0        	0.918367	0.918367
370	2     	0.918367	0        	0.918367	0.918367
371	2     	0.918367	0        	0.918367	0.918367
372	2     	0.918367	0        	0.918367	0.918367
373	2     	0.918367	0        	0.918367	0.918367
374	2     	0.918367	0        	0.918367	0.918367
375	2     	0.918367	0        	0.918367	0.918367
376	2     	0.918367	0        	0.918367	0.918367
377	2     	0.918367	0        	0.918367	0.918367
378	2     	0.918367	0        	0.918367	0.918367
379	2     	0.918367	0        	0.918367	0.918367
380	2     	0.918367	0        	0.918367	0.918367
381	2     	0.918367	0        	0.918367	0.918367
382	2     	0.918367	0        	0.918367	0.918367
383	2     	0.918367	0        	0.918367	0.918367
384	2     	0.918367	0        	0.918367	0.918367
385	2     	0.918367	0        	0.918367	0.918367
386	2     	0.918367	0        	0.918367	0.918367
387	2     	0.918367	0        	0.918367	0.918367
388	2     	0.918367	0        	0.918367	0.918367
389	2     	0.918367	0        	0.918367	0.918367
390	2     	0.918367	0        	0.918367	0.918367
391	2     	0.918367	0        	0.918367	0.918367
392	2     	0.918367	0        	0.918367	0.918367
393	2     	0.918367	0        	0.918367	0.918367
394	2     	0.918367	0        	0.918367	0.918367
395	2     	0.918367	0        	0.918367	0.918367
396	2     	0.918367	0        	0.918367	0.918367
397	2     	0.918367	0        	0.918367	0.918367
398	2     	0.918367	0        	0.918367	0.918367
399	2     	0.918367	0        	0.918367	0.918367
400	2     	0.918367	0        	0.918367	0.918367
401	2     	0.918367	0        	0.918367	0.918367
402	2     	0.918367	0        	0.918367	0.918367
403	2     	0.918367	0        	0.918367	0.918367
404	2     	0.918367	0        	0.918367	0.918367
405	2     	0.918367	0        	0.918367	0.918367
406	2     	0.918367	0        	0.918367	0.918367
407	2     	0.918367	0        	0.918367	0.918367
408	2     	0.918367	0        	0.918367	0.918367
409	2     	0.918367	0        	0.918367	0.918367
410	2     	0.918367	0        	0.918367	0.918367
411	2     	0.918367	0        	0.918367	0.918367
412	2     	0.918367	0        	0.918367	0.918367
413	2     	0.918367	0        	0.918367	0.918367
414	2     	0.918367	0        	0.918367	0.918367
415	2     	0.918367	0        	0.918367	0.918367
416	2     	0.918367	0        	0.918367	0.918367
417	2     	0.918367	0        	0.918367	0.918367
418	2     	0.918367	0        	0.918367	0.918367
419	2     	0.918367	0        	0.918367	0.918367
420	2     	0.918367	0        	0.918367	0.918367
421	2     	0.918367	0        	0.918367	0.918367
422	2     	0.918367	0        	0.918367	0.918367
423	2     	0.918367	0        	0.918367	0.918367
424	2     	0.918367	0        	0.918367	0.918367
425	2     	0.918367	0        	0.918367	0.918367
426	2     	0.918367	0        	0.918367	0.918367
427	2     	0.918367	0        	0.918367	0.918367
428	2     	0.918367	0        	0.918367	0.918367
429	2     	0.918367	0        	0.918367	0.918367
430	2     	0.918367	0        	0.918367	0.918367
431	2     	0.918367	0        	0.918367	0.918367
432	2     	0.918367	0        	0.918367	0.918367
433	2     	0.918367	0        	0.918367	0.918367
434	2     	0.918367	0        	0.918367	0.918367
435	2     	0.918367	0        	0.918367	0.918367
436	2     	0.918367	0        	0.918367	0.918367
437	2     	0.918367	0        	0.918367	0.918367
438	2     	0.918367	0        	0.918367	0.918367
439	2     	0.938776	0.0204082	0.918367	0.959184
440	2     	0.938776	0.0204082	0.918367	0.959184
441	2     	0.938776	0.0204082	0.918367	0.959184
442	2     	0.938776	0.0204082	0.918367	0.959184
443	2     	0.938776	0.0204082	0.918367	0.959184
444	2     	0.938776	0.0204082	0.918367	0.959184
445	2     	0.938776	0.0204082	0.918367	0.959184
446	2     	0.938776	0.0204082	0.918367	0.959184
447	2     	0.938776	0.0204082	0.918367	0.959184
448	2     	0.938776	0.0204082	0.918367	0.959184
449	2     	0.938776	0.0204082	0.918367	0.959184
450	2     	0.938776	0.0204082	0.918367	0.959184
451	2     	0.938776	0.0204082	0.918367	0.959184
452	2     	0.938776	0.0204082	0.918367	0.959184
453	2     	0.938776	0.0204082	0.918367	0.959184
454	2     	0.938776	0.0204082	0.918367	0.959184
455	2     	0.938776	0.0204082	0.918367	0.959184
456	2     	0.938776	0.0204082	0.918367	0.959184
457	2     	0.938776	0.0204082	0.918367	0.959184
458	2     	0.938776	0.0204082	0.918367	0.959184
459	2     	0.938776	0.0204082	0.918367	0.959184
460	2     	0.938776	0.0204082	0.918367	0.959184
461	2     	0.938776	0.0204082	0.918367	0.959184
462	2     	0.938776	0.0204082	0.918367	0.959184
463	2     	0.938776	0.0204082	0.918367	0.959184
464	2     	0.94898 	0.0102041	0.938776	0.959184
465	2     	0.94898 	0.0102041	0.938776	0.959184
466	2     	0.94898 	0.0102041	0.938776	0.959184
467	2     	0.94898 	0.0102041	0.938776	0.959184
468	2     	0.94898 	0.0102041	0.938776	0.959184
469	2     	0.94898 	0.0102041	0.938776	0.959184
470	2     	0.94898 	0.0102041	0.938776	0.959184
471	2     	0.94898 	0.0102041	0.938776	0.959184
472	2     	0.94898 	0.0102041	0.938776	0.959184
473	2     	0.94898 	0.0102041	0.938776	0.959184
474	2     	0.94898 	0.0102041	0.938776	0.959184
475	2     	0.94898 	0.0102041	0.938776	0.959184
476	2     	0.94898 	0.0102041	0.938776	0.959184
477	2     	0.94898 	0.0102041	0.938776	0.959184
478	2     	0.94898 	0.0102041	0.938776	0.959184
479	2     	0.94898 	0.0102041	0.938776	0.959184
480	2     	0.94898 	0.0102041	0.938776	0.959184
481	2     	0.94898 	0.0102041	0.938776	0.959184
482	2     	0.94898 	0.0102041	0.938776	0.959184
483	2     	0.94898 	0.0102041	0.938776	0.959184
484	2     	0.94898 	0.0102041	0.938776	0.959184
485	2     	0.94898 	0.0102041	0.938776	0.959184
486	2     	0.94898 	0.0102041	0.938776	0.959184
487	2     	0.94898 	0.0102041	0.938776	0.959184
488	2     	0.94898 	0.0102041	0.938776	0.959184
489	2     	0.94898 	0.0102041	0.938776	0.959184
490	2     	0.94898 	0.0102041	0.938776	0.959184
491	2     	0.94898 	0.0102041	0.938776	0.959184
492	2     	0.94898 	0.0102041	0.938776	0.959184
493	2     	0.94898 	0.0102041	0.938776	0.959184
494	2     	0.94898 	0.0102041	0.938776	0.959184
495	2     	0.94898 	0.0102041	0.938776	0.959184
496	2     	0.94898 	0.0102041	0.938776	0.959184
497	2     	0.94898 	0.0102041	0.938776	0.959184
498	2     	0.94898 	0.0102041	0.938776	0.959184
499	2     	0.94898 	0.0102041	0.938776	0.959184
500	2     	0.94898 	0.0102041	0.938776	0.959184
501	2     	0.94898 	0.0102041	0.938776	0.959184
502	2     	0.94898 	0.0102041	0.938776	0.959184
503	2     	0.94898 	0.0102041	0.938776	0.959184
504	2     	0.94898 	0.0102041	0.938776	0.959184
505	2     	0.94898 	0.0102041	0.938776	0.959184
506	2     	0.94898 	0.0102041	0.938776	0.959184
507	2     	0.94898 	0.0102041	0.938776	0.959184
508	2     	0.94898 	0.0102041	0.938776	0.959184
509	2     	0.94898 	0.0102041	0.938776	0.959184
510	2     	0.94898 	0.0102041	0.938776	0.959184
511	2     	0.94898 	0.0102041	0.938776	0.959184
512	2     	0.94898 	0.0102041	0.938776	0.959184
513	2     	0.94898 	0.0102041	0.938776	0.959184
514	2     	0.94898 	0.0102041	0.938776	0.959184
515	2     	0.94898 	0.0102041	0.938776	0.959184
516	2     	0.94898 	0.0102041	0.938776	0.959184
517	2     	0.94898 	0.0102041	0.938776	0.959184
518	2     	0.94898 	0.0102041	0.938776	0.959184
519	2     	0.94898 	0.0102041	0.938776	0.959184
520	2     	0.94898 	0.0102041	0.938776	0.959184
521	2     	0.94898 	0.0102041	0.938776	0.959184
522	2     	0.94898 	0.0102041	0.938776	0.959184
523	2     	0.94898 	0.0102041	0.938776	0.959184
524	2     	0.94898 	0.0102041	0.938776	0.959184
525	2     	0.94898 	0.0102041	0.938776	0.959184
526	2     	0.94898 	0.0102041	0.938776	0.959184
527	2     	0.94898 	0.0102041	0.938776	0.959184
528	2     	0.969388	0.0102041	0.959184	0.979592
529	2     	0.969388	0.0102041	0.959184	0.979592
530	2     	0.969388	0.0102041	0.959184	0.979592
531	2     	0.969388	0.0102041	0.959184	0.979592
532	2     	0.969388	0.0102041	0.959184	0.979592
533	2     	0.969388	0.0102041	0.959184	0.979592
534	2     	0.969388	0.0102041	0.959184	0.979592
535	2     	0.969388	0.0102041	0.959184	0.979592
536	2     	0.969388	0.0102041	0.959184	0.979592
537	2     	0.969388	0.0102041	0.959184	0.979592
538	2     	0.969388	0.0102041	0.959184	0.979592
539	2     	0.969388	0.0102041	0.959184	0.979592
540	2     	0.969388	0.0102041	0.959184	0.979592
541	2     	0.969388	0.0102041	0.959184	0.979592
542	2     	0.969388	0.0102041	0.959184	0.979592
543	2     	0.969388	0.0102041	0.959184	0.979592
544	2     	0.969388	0.0102041	0.959184	0.979592
545	2     	0.969388	0.0102041	0.959184	0.979592
546	2     	0.969388	0.0102041	0.959184	0.979592
547	2     	0.969388	0.0102041	0.959184	0.979592
548	2     	0.969388	0.0102041	0.959184	0.979592
549	2     	0.969388	0.0102041	0.959184	0.979592
550	2     	0.969388	0.0102041	0.959184	0.979592
551	2     	0.969388	0.0102041	0.959184	0.979592
552	2     	0.969388	0.0102041	0.959184	0.979592
553	2     	0.969388	0.0102041	0.959184	0.979592
554	2     	0.969388	0.0102041	0.959184	0.979592
555	2     	0.969388	0.0102041	0.959184	0.979592
556	2     	0.969388	0.0102041	0.959184	0.979592
557	2     	0.969388	0.0102041	0.959184	0.979592
558	2     	0.969388	0.0102041	0.959184	0.979592
559	2     	0.969388	0.0102041	0.959184	0.979592
560	2     	0.969388	0.0102041	0.959184	0.979592
561	2     	0.969388	0.0102041	0.959184	0.979592
562	2     	0.969388	0.0102041	0.959184	0.979592
563	2     	0.969388	0.0102041	0.959184	0.979592
564	2     	0.969388	0.0102041	0.959184	0.979592
565	2     	0.969388	0.0102041	0.959184	0.979592
566	2     	0.969388	0.0102041	0.959184	0.979592
567	2     	0.969388	0.0102041	0.959184	0.979592
568	2     	0.969388	0.0102041	0.959184	0.979592
569	2     	0.969388	0.0102041	0.959184	0.979592
570	2     	0.969388	0.0102041	0.959184	0.979592
571	2     	0.969388	0.0102041	0.959184	0.979592
572	2     	0.969388	0.0102041	0.959184	0.979592
573	2     	0.969388	0.0102041	0.959184	0.979592
574	2     	0.969388	0.0102041	0.959184	0.979592
575	2     	0.969388	0.0102041	0.959184	0.979592
576	2     	0.969388	0.0102041	0.959184	0.979592
577	2     	0.969388	0.0102041	0.959184	0.979592
578	2     	0.979592	0        	0.979592	0.979592
579	2     	0.979592	0        	0.979592	0.979592
580	2     	0.979592	0        	0.979592	0.979592
581	2     	0.979592	0        	0.979592	0.979592
582	2     	0.979592	0        	0.979592	0.979592
583	2     	0.979592	0        	0.979592	0.979592
584	2     	0.979592	0        	0.979592	0.979592
585	2     	0.979592	0        	0.979592	0.979592
586	2     	0.979592	0        	0.979592	0.979592
587	2     	0.979592	0        	0.979592	0.979592
588	2     	0.979592	0        	0.979592	0.979592
589	2     	0.979592	0        	0.979592	0.979592
590	2     	0.979592	0        	0.979592	0.979592
591	2     	0.979592	0        	0.979592	0.979592
592	2     	0.979592	0        	0.979592	0.979592
593	2     	0.979592	0        	0.979592	0.979592
594	2     	0.979592	0        	0.979592	0.979592
595	2     	0.979592	0        	0.979592	0.979592
596	2     	0.979592	0        	0.979592	0.979592
597	2     	0.979592	0        	0.979592	0.979592
598	2     	0.979592	0        	0.979592	0.979592
599	2     	0.979592	0        	0.979592	0.979592
600	2     	0.979592	0        	0.979592	0.979592
601	2     	0.979592	0        	0.979592	0.979592
602	2     	0.979592	0        	0.979592	0.979592
603	2     	0.979592	0        	0.979592	0.979592
604	2     	0.979592	0        	0.979592	0.979592
605	2     	0.979592	0        	0.979592	0.979592
606	2     	0.979592	0        	0.979592	0.979592
607	2     	0.979592	0        	0.979592	0.979592
608	2     	0.979592	0        	0.979592	0.979592
609	2     	0.979592	0        	0.979592	0.979592
610	2     	0.979592	0        	0.979592	0.979592
611	2     	0.979592	0        	0.979592	0.979592
612	2     	0.979592	0        	0.979592	0.979592
613	2     	0.979592	0        	0.979592	0.979592
614	2     	0.979592	0        	0.979592	0.979592
615	2     	0.979592	0        	0.979592	0.979592
616	2     	0.979592	0        	0.979592	0.979592
617	2     	0.979592	0        	0.979592	0.979592
618	2     	0.979592	0        	0.979592	0.979592
619	2     	0.979592	0        	0.979592	0.979592
620	2     	0.979592	0        	0.979592	0.979592
621	2     	0.979592	0        	0.979592	0.979592
622	2     	0.979592	0        	0.979592	0.979592
623	2     	0.979592	0        	0.979592	0.979592
624	2     	0.979592	0        	0.979592	0.979592
625	2     	0.979592	0        	0.979592	0.979592
626	2     	0.979592	0        	0.979592	0.979592
627	2     	0.979592	0        	0.979592	0.979592
628	2     	0.979592	0        	0.979592	0.979592
629	2     	0.979592	0        	0.979592	0.979592
630	2     	0.979592	0        	0.979592	0.979592
631	2     	0.979592	0        	0.979592	0.979592
632	2     	0.979592	0        	0.979592	0.979592
633	2     	0.979592	0        	0.979592	0.979592
634	2     	0.979592	0        	0.979592	0.979592
635	2     	0.979592	0        	0.979592	0.979592
636	2     	0.979592	0        	0.979592	0.979592
637	2     	0.979592	0        	0.979592	0.979592
638	2     	0.979592	0        	0.979592	0.979592
639	2     	0.979592	0        	0.979592	0.979592
640	2     	0.979592	0        	0.979592	0.979592
641	2     	0.979592	0        	0.979592	0.979592
642	2     	0.979592	0        	0.979592	0.979592
643	2     	0.979592	0        	0.979592	0.979592
644	2     	0.979592	0        	0.979592	0.979592
645	2     	0.979592	0        	0.979592	0.979592
646	2     	0.979592	0        	0.979592	0.979592
647	2     	0.979592	0        	0.979592	0.979592
648	2     	0.979592	0        	0.979592	0.979592
649	2     	0.979592	0        	0.979592	0.979592
650	2     	0.979592	0        	0.979592	0.979592
651	2     	0.979592	0        	0.979592	0.979592
652	2     	0.979592	0        	0.979592	0.979592
653	2     	0.979592	0        	0.979592	0.979592
654	2     	0.979592	0        	0.979592	0.979592
655	2     	0.979592	0        	0.979592	0.979592
656	2     	0.979592	0        	0.979592	0.979592
657	2     	0.979592	0        	0.979592	0.979592
658	2     	0.979592	0        	0.979592	0.979592
659	2     	0.979592	0        	0.979592	0.979592
660	2     	0.979592	0        	0.979592	0.979592
661	2     	0.979592	0        	0.979592	0.979592
662	2     	0.979592	0        	0.979592	0.979592
663	2     	0.979592	0        	0.979592	0.979592
664	2     	0.979592	0        	0.979592	0.979592
665	2     	0.979592	0        	0.979592	0.979592
666	2     	0.979592	0        	0.979592	0.979592
667	2     	0.979592	0        	0.979592	0.979592
668	2     	0.979592	0        	0.979592	0.979592
669	2     	0.979592	0        	0.979592	0.979592
670	2     	0.979592	0        	0.979592	0.979592
671	2     	0.979592	0        	0.979592	0.979592
672	2     	0.979592	0        	0.979592	0.979592
673	2     	0.979592	0        	0.979592	0.979592
674	2     	0.979592	0        	0.979592	0.979592
675	2     	0.979592	0        	0.979592	0.979592
676	2     	0.979592	0        	0.979592	0.979592
677	2     	0.979592	0        	0.979592	0.979592
678	2     	0.979592	0        	0.979592	0.979592
679	2     	0.979592	0        	0.979592	0.979592
680	2     	0.979592	0        	0.979592	0.979592
681	2     	0.979592	0        	0.979592	0.979592
682	2     	0.979592	0        	0.979592	0.979592
683	2     	0.979592	0        	0.979592	0.979592
684	2     	0.979592	0        	0.979592	0.979592
685	2     	0.979592	0        	0.979592	0.979592
686	2     	0.979592	0        	0.979592	0.979592
687	2     	0.979592	0        	0.979592	0.979592
688	2     	0.979592	0        	0.979592	0.979592
689	2     	0.979592	0        	0.979592	0.979592
690	2     	0.979592	0        	0.979592	0.979592
691	2     	0.979592	0        	0.979592	0.979592
692	2     	0.979592	0        	0.979592	0.979592
693	2     	0.979592	0        	0.979592	0.979592
694	2     	0.979592	0        	0.979592	0.979592
695	2     	0.979592	0        	0.979592	0.979592
696	2     	0.979592	0        	0.979592	0.979592
697	2     	0.979592	0        	0.979592	0.979592
698	2     	0.979592	0        	0.979592	0.979592
699	2     	0.979592	0        	0.979592	0.979592
700	2     	0.979592	0        	0.979592	0.979592
701	2     	0.979592	0        	0.979592	0.979592
702	2     	0.979592	0        	0.979592	0.979592
703	2     	0.979592	0        	0.979592	0.979592
704	2     	0.979592	0        	0.979592	0.979592
705	2     	0.979592	0        	0.979592	0.979592
706	2     	0.979592	0        	0.979592	0.979592
707	2     	0.979592	0        	0.979592	0.979592
708	2     	0.979592	0        	0.979592	0.979592
709	2     	0.979592	0        	0.979592	0.979592
710	2     	0.979592	0        	0.979592	0.979592
711	2     	0.979592	0        	0.979592	0.979592
712	2     	0.979592	0        	0.979592	0.979592
713	2     	0.979592	0        	0.979592	0.979592
714	2     	0.979592	0        	0.979592	0.979592
715	2     	0.979592	0        	0.979592	0.979592
716	2     	0.979592	0        	0.979592	0.979592
717	2     	0.979592	0        	0.979592	0.979592
718	2     	0.989796	0.0102041	0.979592	1       