gen	nevals	avg    	std    	min   	max   
0  	2     	0.625  	0.0625 	0.5625	0.6875
1  	2     	0.75   	0.0625 	0.6875	0.8125
2  	2     	0.84375	0.03125	0.8125	0.875 
3  	2     	0.84375	0.03125	0.8125	0.875 
4  	2     	0.84375	0.03125	0.8125	0.875 
5  	2     	0.875  	0      	0.875 	0.875 
6  	2     	0.875  	0      	0.875 	0.875 
7  	2     	0.875  	0      	0.875 	0.875 
8  	2     	0.875  	0      	0.875 	0.875 
9  	2     	0.875  	0      	0.875 	0.875 
10 	2     	0.875  	0      	0.875 	0.875 
11 	2     	0.90625	0.03125	0.875 	0.9375
12 	2     	0.9375 	0      	0.9375	0.9375
13 	2     	0.9375 	0      	0.9375	0.9375
14 	2     	0.9375 	0      	0.9375	0.9375
15 	2     	0.9375 	0      	0.9375	0.9375
16 	2     	0.9375 	0      	0.9375	0.9375
17 	2     	0.9375 	0      	0.9375	0.9375