gen	nevals	avg     	std      	min     	max     
0  	2     	0.530612	0        	0.530612	0.530612
1  	2     	0.530612	0        	0.530612	0.530612
2  	2     	0.561224	0.0306122	0.530612	0.591837
3  	2     	0.591837	0        	0.591837	0.591837
4  	2     	0.602041	0.0102041	0.591837	0.612245
5  	2     	0.612245	0        	0.612245	0.612245
6  	2     	0.612245	0        	0.612245	0.612245
7  	2     	0.632653	0.0204082	0.612245	0.653061
8  	2     	0.632653	0.0204082	0.612245	0.653061
9  	2     	0.642857	0.0102041	0.632653	0.653061
10 	2     	0.642857	0.0102041	0.632653	0.653061
11 	2     	0.653061	0        	0.653061	0.653061
12 	2     	0.663265	0.0102041	0.653061	0.673469
13 	2     	0.673469	0        	0.673469	0.673469
14 	2     	0.673469	0        	0.673469	0.673469
15 	2     	0.673469	0        	0.673469	0.673469
16 	2     	0.673469	0        	0.673469	0.673469
17 	2     	0.673469	0        	0.673469	0.673469
18 	2     	0.673469	0        	0.673469	0.673469
19 	2     	0.673469	0        	0.673469	0.673469
20 	2     	0.673469	0        	0.673469	0.673469
21 	2     	0.673469	0        	0.673469	0.673469
22 	2     	0.673469	0        	0.673469	0.673469
23 	2     	0.673469	0        	0.673469	0.673469
24 	2     	0.673469	0        	0.673469	0.673469
25 	2     	0.683673	0.0102041	0.673469	0.693878
26 	2     	0.683673	0.0102041	0.673469	0.693878
27 	2     	0.683673	0.0102041	0.673469	0.693878
28 	2     	0.683673	0.0102041	0.673469	0.693878
29 	2     	0.693878	0        	0.693878	0.693878
30 	2     	0.693878	0        	0.693878	0.693878
31 	2     	0.693878	0        	0.693878	0.693878
32 	2     	0.693878	0        	0.693878	0.693878
33 	2     	0.704082	0.0102041	0.693878	0.714286
34 	2     	0.734694	0.0204082	0.714286	0.755102
35 	2     	0.744898	0.0102041	0.734694	0.755102
36 	2     	0.755102	0        	0.755102	0.755102
37 	2     	0.755102	0        	0.755102	0.755102
38 	2     	0.755102	0        	0.755102	0.755102
39 	2     	0.755102	0        	0.755102	0.755102
40 	2     	0.755102	0        	0.755102	0.755102
41 	2     	0.765306	0.0102041	0.755102	0.77551 
42 	2     	0.765306	0.0102041	0.755102	0.77551 
43 	2     	0.765306	0.0102041	0.755102	0.77551 
44 	2     	0.765306	0.0102041	0.755102	0.77551 
45 	2     	0.765306	0.0102041	0.755102	0.77551 
46 	2     	0.765306	0.0102041	0.755102	0.77551 
47 	2     	0.765306	0.0102041	0.755102	0.77551 
48 	2     	0.765306	0.0102041	0.755102	0.77551 
49 	2     	0.765306	0.0102041	0.755102	0.77551 
50 	2     	0.765306	0.0102041	0.755102	0.77551 
51 	2     	0.765306	0.0102041	0.755102	0.77551 
52 	2     	0.765306	0.0102041	0.755102	0.77551 
53 	2     	0.765306	0.0102041	0.755102	0.77551 
54 	2     	0.765306	0.0102041	0.755102	0.77551 
55 	2     	0.765306	0.0102041	0.755102	0.77551 
56 	2     	0.765306	0.0102041	0.755102	0.77551 
57 	2     	0.765306	0.0102041	0.755102	0.77551 
58 	2     	0.765306	0.0102041	0.755102	0.77551 
59 	2     	0.765306	0.0102041	0.755102	0.77551 
60 	2     	0.765306	0.0102041	0.755102	0.77551 
61 	2     	0.765306	0.0102041	0.755102	0.77551 
62 	2     	0.765306	0.0102041	0.755102	0.77551 
63 	2     	0.765306	0.0102041	0.755102	0.77551 
64 	2     	0.765306	0.0102041	0.755102	0.77551 
65 	2     	0.785714	0.0102041	0.77551 	0.795918
66 	2     	0.785714	0.0102041	0.77551 	0.795918
67 	2     	0.785714	0.0102041	0.77551 	0.795918
68 	2     	0.785714	0.0102041	0.77551 	0.795918
69 	2     	0.785714	0.0102041	0.77551 	0.795918
70 	2     	0.785714	0.0102041	0.77551 	0.795918
71 	2     	0.785714	0.0102041	0.77551 	0.795918
72 	2     	0.785714	0.0102041	0.77551 	0.795918
73 	2     	0.826531	0.0306122	0.795918	0.857143
74 	2     	0.826531	0.0306122	0.795918	0.857143
75 	2     	0.857143	0        	0.857143	0.857143
76 	2     	0.857143	0        	0.857143	0.857143
77 	2     	0.857143	0        	0.857143	0.857143
78 	2     	0.857143	0        	0.857143	0.857143
79 	2     	0.867347	0.0102041	0.857143	0.877551
80 	2     	0.867347	0.0102041	0.857143	0.877551
81 	2     	0.867347	0.0102041	0.857143	0.877551
82 	2     	0.867347	0.0102041	0.857143	0.877551
83 	2     	0.867347	0.0102041	0.857143	0.877551
84 	2     	0.867347	0.0102041	0.857143	0.877551
85 	2     	0.867347	0.0102041	0.857143	0.877551
86 	2     	0.867347	0.0102041	0.857143	0.877551
87 	2     	0.867347	0.0102041	0.857143	0.877551
88 	2     	0.867347	0.0102041	0.857143	0.877551
89 	2     	0.867347	0.0102041	0.857143	0.877551
90 	2     	0.867347	0.0102041	0.857143	0.877551
91 	2     	0.867347	0.0102041	0.857143	0.877551
92 	2     	0.867347	0.0102041	0.857143	0.877551
93 	2     	0.867347	0.0102041	0.857143	0.877551
94 	2     	0.867347	0.0102041	0.857143	0.877551
95 	2     	0.867347	0.0102041	0.857143	0.877551
96 	2     	0.867347	0.0102041	0.857143	0.877551
97 	2     	0.867347	0.0102041	0.857143	0.877551
98 	2     	0.867347	0.0102041	0.857143	0.877551
99 	2     	0.877551	0        	0.877551	0.877551
100	2     	0.877551	0        	0.877551	0.877551
101	2     	0.877551	0        	0.877551	0.877551
102	2     	0.877551	0        	0.877551	0.877551
103	2     	0.877551	0        	0.877551	0.877551
104	2     	0.877551	0        	0.877551	0.877551
105	2     	0.877551	0        	0.877551	0.877551
106	2     	0.877551	0        	0.877551	0.877551
107	2     	0.877551	0        	0.877551	0.877551
108	2     	0.877551	0        	0.877551	0.877551
109	2     	0.877551	0        	0.877551	0.877551
110	2     	0.877551	0        	0.877551	0.877551
111	2     	0.877551	0        	0.877551	0.877551
112	2     	0.877551	0        	0.877551	0.877551
113	2     	0.877551	0        	0.877551	0.877551
114	2     	0.877551	0        	0.877551	0.877551
115	2     	0.877551	0        	0.877551	0.877551
116	2     	0.877551	0        	0.877551	0.877551
117	2     	0.877551	0        	0.877551	0.877551
118	2     	0.877551	0        	0.877551	0.877551
119	2     	0.877551	0        	0.877551	0.877551
120	2     	0.877551	0        	0.877551	0.877551
121	2     	0.877551	0        	0.877551	0.877551
122	2     	0.877551	0        	0.877551	0.877551
123	2     	0.877551	0        	0.877551	0.877551
124	2     	0.877551	0        	0.877551	0.877551
125	2     	0.877551	0        	0.877551	0.877551
126	2     	0.877551	0        	0.877551	0.877551
127	2     	0.877551	0        	0.877551	0.877551
128	2     	0.877551	0        	0.877551	0.877551
129	2     	0.877551	0        	0.877551	0.877551
130	2     	0.877551	0        	0.877551	0.877551
131	2     	0.877551	0        	0.877551	0.877551
132	2     	0.877551	0        	0.877551	0.877551
133	2     	0.877551	0        	0.877551	0.877551
134	2     	0.877551	0        	0.877551	0.877551
135	2     	0.877551	0        	0.877551	0.877551
136	2     	0.877551	0        	0.877551	0.877551
137	2     	0.877551	0        	0.877551	0.877551
138	2     	0.877551	0        	0.877551	0.877551
139	2     	0.877551	0        	0.877551	0.877551
140	2     	0.877551	0        	0.877551	0.877551
141	2     	0.877551	0        	0.877551	0.877551
142	2     	0.877551	0        	0.877551	0.877551
143	2     	0.877551	0        	0.877551	0.877551
144	2     	0.877551	0        	0.877551	0.877551
145	2     	0.877551	0        	0.877551	0.877551
146	2     	0.877551	0        	0.877551	0.877551
147	2     	0.877551	0        	0.877551	0.877551
148	2     	0.877551	0        	0.877551	0.877551
149	2     	0.877551	0        	0.877551	0.877551
150	2     	0.877551	0        	0.877551	0.877551
151	2     	0.877551	0        	0.877551	0.877551
152	2     	0.877551	0        	0.877551	0.877551
153	2     	0.877551	0        	0.877551	0.877551
154	2     	0.877551	0        	0.877551	0.877551
155	2     	0.877551	0        	0.877551	0.877551
156	2     	0.877551	0        	0.877551	0.877551
157	2     	0.877551	0        	0.877551	0.877551
158	2     	0.877551	0        	0.877551	0.877551
159	2     	0.877551	0        	0.877551	0.877551
160	2     	0.877551	0        	0.877551	0.877551
161	2     	0.877551	0        	0.877551	0.877551
162	2     	0.877551	0        	0.877551	0.877551
163	2     	0.877551	0        	0.877551	0.877551
164	2     	0.877551	0        	0.877551	0.877551
165	2     	0.877551	0        	0.877551	0.877551
166	2     	0.877551	0        	0.877551	0.877551
167	2     	0.877551	0        	0.877551	0.877551
168	2     	0.877551	0        	0.877551	0.877551
169	2     	0.877551	0        	0.877551	0.877551
170	2     	0.877551	0        	0.877551	0.877551
171	2     	0.877551	0        	0.877551	0.877551
172	2     	0.877551	0        	0.877551	0.877551
173	2     	0.877551	0        	0.877551	0.877551
174	2     	0.877551	0        	0.877551	0.877551
175	2     	0.877551	0        	0.877551	0.877551
176	2     	0.877551	0        	0.877551	0.877551
177	2     	0.877551	0        	0.877551	0.877551
178	2     	0.877551	0        	0.877551	0.877551
179	2     	0.877551	0        	0.877551	0.877551
180	2     	0.877551	0        	0.877551	0.877551
181	2     	0.877551	0        	0.877551	0.877551
182	2     	0.877551	0        	0.877551	0.877551
183	2     	0.877551	0        	0.877551	0.877551
184	2     	0.877551	0        	0.877551	0.877551
185	2     	0.877551	0        	0.877551	0.877551
186	2     	0.877551	0        	0.877551	0.877551
187	2     	0.877551	0        	0.877551	0.877551
188	2     	0.877551	0        	0.877551	0.877551
189	2     	0.877551	0        	0.877551	0.877551
190	2     	0.877551	0        	0.877551	0.877551
191	2     	0.877551	0        	0.877551	0.877551
192	2     	0.877551	0        	0.877551	0.877551
193	2     	0.877551	0        	0.877551	0.877551
194	2     	0.877551	0        	0.877551	0.877551
195	2     	0.877551	0        	0.877551	0.877551
196	2     	0.877551	0        	0.877551	0.877551
197	2     	0.877551	0        	0.877551	0.877551
198	2     	0.877551	0        	0.877551	0.877551
199	2     	0.877551	0        	0.877551	0.877551
200	2     	0.877551	0        	0.877551	0.877551
201	2     	0.877551	0        	0.877551	0.877551
202	2     	0.877551	0        	0.877551	0.877551
203	2     	0.877551	0        	0.877551	0.877551
204	2     	0.877551	0        	0.877551	0.877551
205	2     	0.877551	0        	0.877551	0.877551
206	2     	0.877551	0        	0.877551	0.877551
207	2     	0.877551	0        	0.877551	0.877551
208	2     	0.877551	0        	0.877551	0.877551
209	2     	0.877551	0        	0.877551	0.877551
210	2     	0.877551	0        	0.877551	0.877551
211	2     	0.877551	0        	0.877551	0.877551
212	2     	0.877551	0        	0.877551	0.877551
213	2     	0.877551	0        	0.877551	0.877551
214	2     	0.877551	0        	0.877551	0.877551
215	2     	0.877551	0        	0.877551	0.877551
216	2     	0.887755	0.0102041	0.877551	0.897959
217	2     	0.887755	0.0102041	0.877551	0.897959
218	2     	0.887755	0.0102041	0.877551	0.897959
219	2     	0.887755	0.0102041	0.877551	0.897959
220	2     	0.887755	0.0102041	0.877551	0.897959
221	2     	0.887755	0.0102041	0.877551	0.897959
222	2     	0.887755	0.0102041	0.877551	0.897959
223	2     	0.887755	0.0102041	0.877551	0.897959
224	2     	0.887755	0.0102041	0.877551	0.897959
225	2     	0.887755	0.0102041	0.877551	0.897959
226	2     	0.887755	0.0102041	0.877551	0.897959
227	2     	0.887755	0.0102041	0.877551	0.897959
228	2     	0.887755	0.0102041	0.877551	0.897959
229	2     	0.887755	0.0102041	0.877551	0.897959
230	2     	0.887755	0.0102041	0.877551	0.897959
231	2     	0.887755	0.0102041	0.877551	0.897959
232	2     	0.887755	0.0102041	0.877551	0.897959
233	2     	0.887755	0.0102041	0.877551	0.897959
234	2     	0.887755	0.0102041	0.877551	0.897959
235	2     	0.887755	0.0102041	0.877551	0.897959
236	2     	0.887755	0.0102041	0.877551	0.897959
237	2     	0.887755	0.0102041	0.877551	0.897959
238	2     	0.887755	0.0102041	0.877551	0.897959
239	2     	0.887755	0.0102041	0.877551	0.897959
240	2     	0.887755	0.0102041	0.877551	0.897959
241	2     	0.887755	0.0102041	0.877551	0.897959
242	2     	0.887755	0.0102041	0.877551	0.897959
243	2     	0.887755	0.0102041	0.877551	0.897959
244	2     	0.887755	0.0102041	0.877551	0.897959
245	2     	0.887755	0.0102041	0.877551	0.897959
246	2     	0.887755	0.0102041	0.877551	0.897959
247	2     	0.887755	0.0102041	0.877551	0.897959
248	2     	0.887755	0.0102041	0.877551	0.897959
249	2     	0.887755	0.0102041	0.877551	0.897959
250	2     	0.887755	0.0102041	0.877551	0.897959
251	2     	0.887755	0.0102041	0.877551	0.897959
252	2     	0.887755	0.0102041	0.877551	0.897959
253	2     	0.887755	0.0102041	0.877551	0.897959
254	2     	0.887755	0.0102041	0.877551	0.897959
255	2     	0.887755	0.0102041	0.877551	0.897959
256	2     	0.887755	0.0102041	0.877551	0.897959
257	2     	0.887755	0.0102041	0.877551	0.897959
258	2     	0.887755	0.0102041	0.877551	0.897959
259	2     	0.887755	0.0102041	0.877551	0.897959
260	2     	0.887755	0.0102041	0.877551	0.897959
261	2     	0.887755	0.0102041	0.877551	0.897959
262	2     	0.887755	0.0102041	0.877551	0.897959
263	2     	0.887755	0.0102041	0.877551	0.897959
264	2     	0.887755	0.0102041	0.877551	0.897959
265	2     	0.887755	0.0102041	0.877551	0.897959
266	2     	0.887755	0.0102041	0.877551	0.897959
267	2     	0.887755	0.0102041	0.877551	0.897959
268	2     	0.887755	0.0102041	0.877551	0.897959
269	2     	0.887755	0.0102041	0.877551	0.897959
270	2     	0.887755	0.0102041	0.877551	0.897959
271	2     	0.887755	0.0102041	0.877551	0.897959
272	2     	0.897959	0        	0.897959	0.897959
273	2     	0.897959	0        	0.897959	0.897959
274	2     	0.897959	0        	0.897959	0.897959
275	2     	0.897959	0        	0.897959	0.897959
276	2     	0.897959	0        	0.897959	0.897959
277	2     	0.897959	0        	0.897959	0.897959
278	2     	0.908163	0.0102041	0.897959	0.918367
279	2     	0.908163	0.0102041	0.897959	0.918367
280	2     	0.908163	0.0102041	0.897959	0.918367
281	2     	0.908163	0.0102041	0.897959	0.918367
282	2     	0.908163	0.0102041	0.897959	0.918367
283	2     	0.918367	0        	0.918367	0.918367
284	2     	0.918367	0        	0.918367	0.918367
285	2     	0.918367	0        	0.918367	0.918367
286	2     	0.918367	0        	0.918367	0.918367
287	2     	0.918367	0        	0.918367	0.918367
288	2     	0.918367	0        	0.918367	0.918367
289	2     	0.918367	0        	0.918367	0.918367
290	2     	0.918367	0        	0.918367	0.918367
291	2     	0.918367	0        	0.918367	0.918367
292	2     	0.918367	0        	0.918367	0.918367
293	2     	0.918367	0        	0.918367	0.918367
294	2     	0.918367	0        	0.918367	0.918367
295	2     	0.918367	0        	0.918367	0.918367
296	2     	0.918367	0        	0.918367	0.918367
297	2     	0.918367	0        	0.918367	0.918367
298	2     	0.918367	0        	0.918367	0.918367
299	2     	0.918367	0        	0.918367	0.918367
300	2     	0.918367	0        	0.918367	0.918367
301	2     	0.918367	0        	0.918367	0.918367
302	2     	0.918367	0        	0.918367	0.918367
303	2     	0.918367	0        	0.918367	0.918367
304	2     	0.918367	0        	0.918367	0.918367
305	2     	0.918367	0        	0.918367	0.918367
306	2     	0.918367	0        	0.918367	0.918367
307	2     	0.918367	0        	0.918367	0.918367
308	2     	0.918367	0        	0.918367	0.918367
309	2     	0.918367	0        	0.918367	0.918367
310	2     	0.918367	0        	0.918367	0.918367
311	2     	0.918367	0        	0.918367	0.918367
312	2     	0.918367	0        	0.918367	0.918367
313	2     	0.918367	0        	0.918367	0.918367
314	2     	0.918367	0        	0.918367	0.918367
315	2     	0.918367	0        	0.918367	0.918367
316	2     	0.918367	0        	0.918367	0.918367
317	2     	0.918367	0        	0.918367	0.918367
318	2     	0.918367	0        	0.918367	0.918367
319	2     	0.918367	0        	0.918367	0.918367
320	2     	0.918367	0        	0.918367	0.918367
321	2     	0.918367	0        	0.918367	0.918367
322	2     	0.918367	0        	0.918367	0.918367
323	2     	0.918367	0        	0.918367	0.918367
324	2     	0.918367	0        	0.918367	0.918367
325	2     	0.918367	0        	0.918367	0.918367
326	2     	0.918367	0        	0.918367	0.918367
327	2     	0.918367	0        	0.918367	0.918367
328	2     	0.918367	0        	0.918367	0.918367
329	2     	0.918367	0        	0.918367	0.918367
330	2     	0.918367	0        	0.918367	0.918367
331	2     	0.918367	0        	0.918367	0.918367
332	2     	0.938776	0.0204082	0.918367	0.959184
333	2     	0.938776	0.0204082	0.918367	0.959184
334	2     	0.938776	0.0204082	0.918367	0.959184
335	2     	0.938776	0.0204082	0.918367	0.959184
336	2     	0.94898 	0.0102041	0.938776	0.959184
337	2     	0.94898 	0.0102041	0.938776	0.959184
338	2     	0.94898 	0.0102041	0.938776	0.959184
339	2     	0.94898 	0.0102041	0.938776	0.959184
340	2     	0.94898 	0.0102041	0.938776	0.959184
341	2     	0.94898 	0.0102041	0.938776	0.959184
342	2     	0.94898 	0.0102041	0.938776	0.959184
343	2     	0.94898 	0.0102041	0.938776	0.959184
344	2     	0.94898 	0.0102041	0.938776	0.959184
345	2     	0.94898 	0.0102041	0.938776	0.959184
346	2     	0.94898 	0.0102041	0.938776	0.959184
347	2     	0.94898 	0.0102041	0.938776	0.959184
348	2     	0.94898 	0.0102041	0.938776	0.959184
349	2     	0.94898 	0.0102041	0.938776	0.959184
350	2     	0.94898 	0.0102041	0.938776	0.959184
351	2     	0.94898 	0.0102041	0.938776	0.959184
352	2     	0.94898 	0.0102041	0.938776	0.959184
353	2     	0.94898 	0.0102041	0.938776	0.959184
354	2     	0.94898 	0.0102041	0.938776	0.959184
355	2     	0.94898 	0.0102041	0.938776	0.959184
356	2     	0.94898 	0.0102041	0.938776	0.959184
357	2     	0.94898 	0.0102041	0.938776	0.959184
358	2     	0.94898 	0.0102041	0.938776	0.959184
359	2     	0.94898 	0.0102041	0.938776	0.959184
360	2     	0.94898 	0.0102041	0.938776	0.959184
361	2     	0.94898 	0.0102041	0.938776	0.959184
362	2     	0.94898 	0.0102041	0.938776	0.959184
363	2     	0.94898 	0.0102041	0.938776	0.959184
364	2     	0.94898 	0.0102041	0.938776	0.959184
365	2     	0.94898 	0.0102041	0.938776	0.959184
366	2     	0.94898 	0.0102041	0.938776	0.959184
367	2     	0.94898 	0.0102041	0.938776	0.959184
368	2     	0.94898 	0.0102041	0.938776	0.959184
369	2     	0.94898 	0.0102041	0.938776	0.959184
370	2     	0.94898 	0.0102041	0.938776	0.959184
371	2     	0.94898 	0.0102041	0.938776	0.959184
372	2     	0.94898 	0.0102041	0.938776	0.959184
373	2     	0.959184	0        	0.959184	0.959184
374	2     	0.959184	0        	0.959184	0.959184
375	2     	0.959184	0        	0.959184	0.959184
376	2     	0.959184	0        	0.959184	0.959184
377	2     	0.959184	0        	0.959184	0.959184
378	2     	0.959184	0        	0.959184	0.959184
379	2     	0.959184	0        	0.959184	0.959184
380	2     	0.959184	0        	0.959184	0.959184
381	2     	0.959184	0        	0.959184	0.959184
382	2     	0.969388	0.0102041	0.959184	0.979592
383	2     	0.969388	0.0102041	0.959184	0.979592
384	2     	0.969388	0.0102041	0.959184	0.979592
385	2     	0.969388	0.0102041	0.959184	0.979592
386	2     	0.969388	0.0102041	0.959184	0.979592
387	2     	0.969388	0.0102041	0.959184	0.979592
388	2     	0.969388	0.0102041	0.959184	0.979592
389	2     	0.969388	0.0102041	0.959184	0.979592
390	2     	0.969388	0.0102041	0.959184	0.979592
391	2     	0.969388	0.0102041	0.959184	0.979592
392	2     	0.969388	0.0102041	0.959184	0.979592
393	2     	0.969388	0.0102041	0.959184	0.979592
394	2     	0.969388	0.0102041	0.959184	0.979592
395	2     	0.969388	0.0102041	0.959184	0.979592
396	2     	0.969388	0.0102041	0.959184	0.979592
397	2     	0.969388	0.0102041	0.959184	0.979592
398	2     	0.969388	0.0102041	0.959184	0.979592
399	2     	0.969388	0.0102041	0.959184	0.979592
400	2     	0.969388	0.0102041	0.959184	0.979592
401	2     	0.969388	0.0102041	0.959184	0.979592
402	2     	0.969388	0.0102041	0.959184	0.979592
403	2     	0.969388	0.0102041	0.959184	0.979592
404	2     	0.969388	0.0102041	0.959184	0.979592
405	2     	0.969388	0.0102041	0.959184	0.979592
406	2     	0.969388	0.0102041	0.959184	0.979592
407	2     	0.969388	0.0102041	0.959184	0.979592
408	2     	0.969388	0.0102041	0.959184	0.979592
409	2     	0.969388	0.0102041	0.959184	0.979592
410	2     	0.969388	0.0102041	0.959184	0.979592
411	2     	0.969388	0.0102041	0.959184	0.979592
412	2     	0.969388	0.0102041	0.959184	0.979592
413	2     	0.969388	0.0102041	0.959184	0.979592
414	2     	0.969388	0.0102041	0.959184	0.979592
415	2     	0.969388	0.0102041	0.959184	0.979592
416	2     	0.969388	0.0102041	0.959184	0.979592
417	2     	0.969388	0.0102041	0.959184	0.979592
418	2     	0.969388	0.0102041	0.959184	0.979592
419	2     	0.969388	0.0102041	0.959184	0.979592
420	2     	0.969388	0.0102041	0.959184	0.979592
421	2     	0.969388	0.0102041	0.959184	0.979592
422	2     	0.969388	0.0102041	0.959184	0.979592
423	2     	0.969388	0.0102041	0.959184	0.979592
424	2     	0.969388	0.0102041	0.959184	0.979592
425	2     	0.969388	0.0102041	0.959184	0.979592
426	2     	0.969388	0.0102041	0.959184	0.979592
427	2     	0.969388	0.0102041	0.959184	0.979592
428	2     	0.969388	0.0102041	0.959184	0.979592
429	2     	0.969388	0.0102041	0.959184	0.979592
430	2     	0.969388	0.0102041	0.959184	0.979592
431	2     	0.969388	0.0102041	0.959184	0.979592
432	2     	0.969388	0.0102041	0.959184	0.979592
433	2     	0.969388	0.0102041	0.959184	0.979592
434	2     	0.969388	0.0102041	0.959184	0.979592
435	2     	0.969388	0.0102041	0.959184	0.979592
436	2     	0.969388	0.0102041	0.959184	0.979592
437	2     	0.969388	0.0102041	0.959184	0.979592
438	2     	0.969388	0.0102041	0.959184	0.979592
439	2     	0.969388	0.0102041	0.959184	0.979592
440	2     	0.969388	0.0102041	0.959184	0.979592
441	2     	0.969388	0.0102041	0.959184	0.979592
442	2     	0.969388	0.0102041	0.959184	0.979592
443	2     	0.969388	0.0102041	0.959184	0.979592
444	2     	0.969388	0.0102041	0.959184	0.979592
445	2     	0.969388	0.0102041	0.959184	0.979592
446	2     	0.969388	0.0102041	0.959184	0.979592
447	2     	0.969388	0.0102041	0.959184	0.979592
448	2     	0.969388	0.0102041	0.959184	0.979592
449	2     	0.969388	0.0102041	0.959184	0.979592
450	2     	0.969388	0.0102041	0.959184	0.979592
451	2     	0.969388	0.0102041	0.959184	0.979592
452	2     	0.969388	0.0102041	0.959184	0.979592
453	2     	0.969388	0.0102041	0.959184	0.979592
454	2     	0.969388	0.0102041	0.959184	0.979592
455	2     	0.969388	0.0102041	0.959184	0.979592
456	2     	0.969388	0.0102041	0.959184	0.979592
457	2     	0.969388	0.0102041	0.959184	0.979592
458	2     	0.969388	0.0102041	0.959184	0.979592
459	2     	0.969388	0.0102041	0.959184	0.979592
460	2     	0.979592	0        	0.979592	0.979592
461	2     	0.979592	0        	0.979592	0.979592
462	2     	0.979592	0        	0.979592	0.979592
463	2     	0.979592	0        	0.979592	0.979592
464	2     	0.979592	0        	0.979592	0.979592
465	2     	0.979592	0        	0.979592	0.979592
466	2     	0.979592	0        	0.979592	0.979592
467	2     	0.979592	0        	0.979592	0.979592
468	2     	0.979592	0        	0.979592	0.979592
469	2     	0.979592	0        	0.979592	0.979592
470	2     	0.979592	0        	0.979592	0.979592
471	2     	0.979592	0        	0.979592	0.979592
472	2     	0.979592	0        	0.979592	0.979592
473	2     	0.979592	0        	0.979592	0.979592
474	2     	0.979592	0        	0.979592	0.979592
475	2     	0.979592	0        	0.979592	0.979592
476	2     	0.979592	0        	0.979592	0.979592
477	2     	0.979592	0        	0.979592	0.979592
478	2     	0.979592	0        	0.979592	0.979592
479	2     	0.979592	0        	0.979592	0.979592
480	2     	0.979592	0        	0.979592	0.979592
481	2     	0.979592	0        	0.979592	0.979592
482	2     	0.979592	0        	0.979592	0.979592
483	2     	0.979592	0        	0.979592	0.979592
484	2     	0.979592	0        	0.979592	0.979592
485	2     	0.979592	0        	0.979592	0.979592
486	2     	0.979592	0        	0.979592	0.979592
487	2     	0.979592	0        	0.979592	0.979592
488	2     	0.979592	0        	0.979592	0.979592
489	2     	0.979592	0        	0.979592	0.979592
490	2     	0.979592	0        	0.979592	0.979592
491	2     	0.979592	0        	0.979592	0.979592
492	2     	0.979592	0        	0.979592	0.979592
493	2     	0.979592	0        	0.979592	0.979592
494	2     	0.979592	0        	0.979592	0.979592
495	2     	0.979592	0        	0.979592	0.979592
496	2     	0.979592	0        	0.979592	0.979592
497	2     	0.979592	0        	0.979592	0.979592
498	2     	0.979592	0        	0.979592	0.979592
499	2     	0.979592	0        	0.979592	0.979592
500	2     	0.979592	0        	0.979592	0.979592
501	2     	0.979592	0        	0.979592	0.979592
502	2     	0.979592	0        	0.979592	0.979592
503	2     	0.979592	0        	0.979592	0.979592
504	2     	0.979592	0        	0.979592	0.979592
505	2     	0.979592	0        	0.979592	0.979592
506	2     	0.979592	0        	0.979592	0.979592
507	2     	0.979592	0        	0.979592	0.979592
508	2     	0.979592	0        	0.979592	0.979592
509	2     	0.979592	0        	0.979592	0.979592
510	2     	0.979592	0        	0.979592	0.979592
511	2     	0.979592	0        	0.979592	0.979592
512	2     	0.979592	0        	0.979592	0.979592
513	2     	0.979592	0        	0.979592	0.979592
514	2     	0.979592	0        	0.979592	0.979592
515	2     	0.979592	0        	0.979592	0.979592
516	2     	0.979592	0        	0.979592	0.979592
517	2     	0.979592	0        	0.979592	0.979592
518	2     	0.979592	0        	0.979592	0.979592
519	2     	0.979592	0        	0.979592	0.979592
520	2     	0.979592	0        	0.979592	0.979592
521	2     	0.979592	0        	0.979592	0.979592
522	2     	0.979592	0        	0.979592	0.979592
523	2     	0.979592	0        	0.979592	0.979592
524	2     	0.979592	0        	0.979592	0.979592
525	2     	0.979592	0        	0.979592	0.979592
526	2     	0.979592	0        	0.979592	0.979592
527	2     	0.979592	0        	0.979592	0.979592
528	2     	0.979592	0        	0.979592	0.979592
529	2     	0.979592	0        	0.979592	0.979592
530	2     	0.979592	0        	0.979592	0.979592
531	2     	0.979592	0        	0.979592	0.979592
532	2     	0.979592	0        	0.979592	0.979592
533	2     	0.979592	0        	0.979592	0.979592
534	2     	0.979592	0        	0.979592	0.979592
535	2     	0.979592	0        	0.979592	0.979592
536	2     	0.979592	0        	0.979592	0.979592
537	2     	0.979592	0        	0.979592	0.979592
538	2     	0.979592	0        	0.979592	0.979592
539	2     	0.979592	0        	0.979592	0.979592
540	2     	0.979592	0        	0.979592	0.979592
541	2     	0.979592	0        	0.979592	0.979592
542	2     	0.979592	0        	0.979592	0.979592
543	2     	0.979592	0        	0.979592	0.979592
544	2     	0.979592	0        	0.979592	0.979592
545	2     	0.979592	0        	0.979592	0.979592
546	2     	0.979592	0        	0.979592	0.979592
547	2     	0.979592	0        	0.979592	0.979592
548	2     	0.979592	0        	0.979592	0.979592
549	2     	0.979592	0        	0.979592	0.979592
550	2     	0.979592	0        	0.979592	0.979592
551	2     	0.979592	0        	0.979592	0.979592
552	2     	0.979592	0        	0.979592	0.979592
553	2     	0.979592	0        	0.979592	0.979592
554	2     	0.979592	0        	0.979592	0.979592
555	2     	0.979592	0        	0.979592	0.979592
556	2     	0.979592	0        	0.979592	0.979592
557	2     	0.979592	0        	0.979592	0.979592
558	2     	0.979592	0        	0.979592	0.979592
559	2     	0.979592	0        	0.979592	0.979592
560	2     	0.979592	0        	0.979592	0.979592
561	2     	0.979592	0        	0.979592	0.979592
562	2     	0.979592	0        	0.979592	0.979592
563	2     	0.979592	0        	0.979592	0.979592
564	2     	0.979592	0        	0.979592	0.979592
565	2     	0.979592	0        	0.979592	0.979592
566	2     	0.979592	0        	0.979592	0.979592
567	2     	0.979592	0        	0.979592	0.979592
568	2     	0.979592	0        	0.979592	0.979592
569	2     	0.979592	0        	0.979592	0.979592
570	2     	0.979592	0        	0.979592	0.979592
571	2     	0.979592	0        	0.979592	0.979592
572	2     	0.979592	0        	0.979592	0.979592
573	2     	0.979592	0        	0.979592	0.979592
574	2     	0.979592	0        	0.979592	0.979592
575	2     	0.979592	0        	0.979592	0.979592
576	2     	0.979592	0        	0.979592	0.979592
577	2     	0.979592	0        	0.979592	0.979592
578	2     	0.979592	0        	0.979592	0.979592
579	2     	0.979592	0        	0.979592	0.979592
580	2     	0.979592	0        	0.979592	0.979592
581	2     	0.979592	0        	0.979592	0.979592
582	2     	0.979592	0        	0.979592	0.979592
583	2     	0.979592	0        	0.979592	0.979592
584	2     	0.979592	0        	0.979592	0.979592
585	2     	0.979592	0        	0.979592	0.979592
586	2     	0.979592	0        	0.979592	0.979592
587	2     	0.979592	0        	0.979592	0.979592
588	2     	0.979592	0        	0.979592	0.979592
589	2     	0.979592	0        	0.979592	0.979592
590	2     	0.979592	0        	0.979592	0.979592
591	2     	0.979592	0        	0.979592	0.979592
592	2     	0.979592	0        	0.979592	0.979592
593	2     	0.979592	0        	0.979592	0.979592
594	2     	0.979592	0        	0.979592	0.979592
595	2     	0.979592	0        	0.979592	0.979592
596	2     	0.979592	0        	0.979592	0.979592
597	2     	0.979592	0        	0.979592	0.979592
598	2     	0.979592	0        	0.979592	0.979592
599	2     	0.979592	0        	0.979592	0.979592
600	2     	0.979592	0        	0.979592	0.979592
601	2     	0.979592	0        	0.979592	0.979592
602	2     	0.979592	0        	0.979592	0.979592
603	2     	0.979592	0        	0.979592	0.979592
604	2     	0.979592	0        	0.979592	0.979592
605	2     	0.989796	0.0102041	0.979592	1       