gen	nevals	avg 	std 	min 	max 
0  	2     	0.5 	0.06	0.44	0.56
1  	2     	0.54	0.02	0.52	0.56
2  	2     	0.54	0.02	0.52	0.56
3  	2     	0.54	0.02	0.52	0.56
4  	2     	0.56	0   	0.56	0.56
5  	2     	0.56	0   	0.56	0.56
6  	2     	0.56	0   	0.56	0.56
7  	2     	0.56	0   	0.56	0.56
8  	2     	0.56	0   	0.56	0.56
9  	2     	0.56	0   	0.56	0.56
10 	2     	0.6 	0.04	0.56	0.64
11 	2     	0.6 	0.04	0.56	0.64
12 	2     	0.62	0.02	0.6 	0.64
13 	2     	0.64	0   	0.64	0.64
14 	2     	0.64	0   	0.64	0.64
15 	2     	0.64	0   	0.64	0.64
16 	2     	0.64	0   	0.64	0.64
17 	2     	0.64	0   	0.64	0.64
18 	2     	0.64	0   	0.64	0.64
19 	2     	0.64	0   	0.64	0.64
20 	2     	0.64	0   	0.64	0.64
21 	2     	0.68	0.04	0.64	0.72
22 	2     	0.74	0.02	0.72	0.76
23 	2     	0.74	0.02	0.72	0.76
24 	2     	0.74	0.02	0.72	0.76
25 	2     	0.74	0.02	0.72	0.76
26 	2     	0.74	0.02	0.72	0.76
27 	2     	0.78	0.02	0.76	0.8 
28 	2     	0.78	0.02	0.76	0.8 
29 	2     	0.78	0.02	0.76	0.8 
30 	2     	0.78	0.02	0.76	0.8 
31 	2     	0.78	0.02	0.76	0.8 
32 	2     	0.78	0.02	0.76	0.8 
33 	2     	0.82	0.02	0.8 	0.84
34 	2     	0.84	0   	0.84	0.84
35 	2     	0.84	0   	0.84	0.84
36 	2     	0.84	0   	0.84	0.84
37 	2     	0.84	0   	0.84	0.84
38 	2     	0.84	0   	0.84	0.84
39 	2     	0.84	0   	0.84	0.84
40 	2     	0.84	0   	0.84	0.84
41 	2     	0.84	0   	0.84	0.84
42 	2     	0.84	0   	0.84	0.84
43 	2     	0.84	0   	0.84	0.84
44 	2     	0.84	0   	0.84	0.84
45 	2     	0.84	0   	0.84	0.84
46 	2     	0.84	0   	0.84	0.84
47 	2     	0.84	0   	0.84	0.84
48 	2     	0.84	0   	0.84	0.84
49 	2     	0.84	0   	0.84	0.84
50 	2     	0.84	0   	0.84	0.84
51 	2     	0.84	0   	0.84	0.84
52 	2     	0.84	0   	0.84	0.84
53 	2     	0.84	0   	0.84	0.84
54 	2     	0.84	0   	0.84	0.84
55 	2     	0.84	0   	0.84	0.84
56 	2     	0.84	0   	0.84	0.84
57 	2     	0.84	0   	0.84	0.84
58 	2     	0.84	0   	0.84	0.84
59 	2     	0.84	0   	0.84	0.84
60 	2     	0.84	0   	0.84	0.84
61 	2     	0.86	0.02	0.84	0.88
62 	2     	0.86	0.02	0.84	0.88
63 	2     	0.86	0.02	0.84	0.88
64 	2     	0.86	0.02	0.84	0.88
65 	2     	0.86	0.02	0.84	0.88
66 	2     	0.88	0   	0.88	0.88
67 	2     	0.88	0   	0.88	0.88
68 	2     	0.88	0   	0.88	0.88
69 	2     	0.88	0   	0.88	0.88
70 	2     	0.88	0   	0.88	0.88
71 	2     	0.88	0   	0.88	0.88
72 	2     	0.88	0   	0.88	0.88