gen	nevals	avg     	std      	min     	max     
0  	2     	0.5     	0.0555556	0.444444	0.555556
1  	2     	0.569444	0.0138889	0.555556	0.583333
2  	2     	0.569444	0.0138889	0.555556	0.583333
3  	2     	0.625   	0.0416667	0.583333	0.666667
4  	2     	0.652778	0.0138889	0.638889	0.666667
5  	2     	0.652778	0.0138889	0.638889	0.666667
6  	2     	0.666667	0        	0.666667	0.666667
7  	2     	0.666667	0        	0.666667	0.666667
8  	2     	0.666667	0        	0.666667	0.666667
9  	2     	0.708333	0.0416667	0.666667	0.75    
10 	2     	0.75    	0        	0.75    	0.75    
11 	2     	0.75    	0        	0.75    	0.75    
12 	2     	0.75    	0        	0.75    	0.75    
13 	2     	0.75    	0        	0.75    	0.75    
14 	2     	0.75    	0        	0.75    	0.75    
15 	2     	0.75    	0        	0.75    	0.75    
16 	2     	0.75    	0        	0.75    	0.75    
17 	2     	0.763889	0.0138889	0.75    	0.777778
18 	2     	0.777778	0        	0.777778	0.777778
19 	2     	0.777778	0        	0.777778	0.777778
20 	2     	0.777778	0        	0.777778	0.777778
21 	2     	0.777778	0        	0.777778	0.777778
22 	2     	0.777778	0        	0.777778	0.777778
23 	2     	0.777778	0        	0.777778	0.777778
24 	2     	0.777778	0        	0.777778	0.777778
25 	2     	0.777778	0        	0.777778	0.777778
26 	2     	0.777778	0        	0.777778	0.777778
27 	2     	0.777778	0        	0.777778	0.777778
28 	2     	0.777778	0        	0.777778	0.777778
29 	2     	0.777778	0        	0.777778	0.777778
30 	2     	0.777778	0        	0.777778	0.777778
31 	2     	0.777778	0        	0.777778	0.777778
32 	2     	0.777778	0        	0.777778	0.777778
33 	2     	0.777778	0        	0.777778	0.777778
34 	2     	0.777778	0        	0.777778	0.777778
35 	2     	0.777778	0        	0.777778	0.777778
36 	2     	0.777778	0        	0.777778	0.777778
37 	2     	0.777778	0        	0.777778	0.777778
38 	2     	0.777778	0        	0.777778	0.777778
39 	2     	0.777778	0        	0.777778	0.777778
40 	2     	0.777778	0        	0.777778	0.777778
41 	2     	0.777778	0        	0.777778	0.777778
42 	2     	0.777778	0        	0.777778	0.777778
43 	2     	0.777778	0        	0.777778	0.777778
44 	2     	0.777778	0        	0.777778	0.777778
45 	2     	0.777778	0        	0.777778	0.777778
46 	2     	0.777778	0        	0.777778	0.777778
47 	2     	0.777778	0        	0.777778	0.777778
48 	2     	0.777778	0        	0.777778	0.777778
49 	2     	0.777778	0        	0.777778	0.777778
50 	2     	0.777778	0        	0.777778	0.777778
51 	2     	0.777778	0        	0.777778	0.777778
52 	2     	0.777778	0        	0.777778	0.777778
53 	2     	0.777778	0        	0.777778	0.777778
54 	2     	0.777778	0        	0.777778	0.777778
55 	2     	0.805556	0.0277778	0.777778	0.833333
56 	2     	0.819444	0.0138889	0.805556	0.833333
57 	2     	0.819444	0.0138889	0.805556	0.833333
58 	2     	0.819444	0.0138889	0.805556	0.833333
59 	2     	0.819444	0.0138889	0.805556	0.833333
60 	2     	0.819444	0.0138889	0.805556	0.833333
61 	2     	0.819444	0.0138889	0.805556	0.833333
62 	2     	0.819444	0.0138889	0.805556	0.833333
63 	2     	0.819444	0.0138889	0.805556	0.833333
64 	2     	0.833333	0        	0.833333	0.833333
65 	2     	0.833333	0        	0.833333	0.833333
66 	2     	0.833333	0        	0.833333	0.833333
67 	2     	0.833333	0        	0.833333	0.833333
68 	2     	0.833333	0        	0.833333	0.833333
69 	2     	0.833333	0        	0.833333	0.833333
70 	2     	0.833333	0        	0.833333	0.833333
71 	2     	0.833333	0        	0.833333	0.833333