gen	nevals	avg     	std      	min     	max     
0  	2     	0.569444	0.125    	0.444444	0.694444
1  	2     	0.666667	0.0277778	0.638889	0.694444
2  	2     	0.708333	0.0138889	0.694444	0.722222
3  	2     	0.708333	0.0138889	0.694444	0.722222
4  	2     	0.708333	0.0138889	0.694444	0.722222
5  	2     	0.708333	0.0138889	0.694444	0.722222
6  	2     	0.708333	0.0138889	0.694444	0.722222
7  	2     	0.708333	0.0138889	0.694444	0.722222
8  	2     	0.722222	0        	0.722222	0.722222
9  	2     	0.722222	0        	0.722222	0.722222
10 	2     	0.722222	0        	0.722222	0.722222
11 	2     	0.722222	0        	0.722222	0.722222
12 	2     	0.722222	0        	0.722222	0.722222
13 	2     	0.722222	0        	0.722222	0.722222
14 	2     	0.722222	0        	0.722222	0.722222
15 	2     	0.722222	0        	0.722222	0.722222
16 	2     	0.722222	0        	0.722222	0.722222
17 	2     	0.722222	0        	0.722222	0.722222
18 	2     	0.722222	0        	0.722222	0.722222
19 	2     	0.722222	0        	0.722222	0.722222
20 	2     	0.722222	0        	0.722222	0.722222
21 	2     	0.722222	0        	0.722222	0.722222
22 	2     	0.722222	0        	0.722222	0.722222
23 	2     	0.722222	0        	0.722222	0.722222
24 	2     	0.722222	0        	0.722222	0.722222
25 	2     	0.722222	0        	0.722222	0.722222
26 	2     	0.722222	0        	0.722222	0.722222
27 	2     	0.736111	0.0138889	0.722222	0.75    
28 	2     	0.736111	0.0138889	0.722222	0.75    
29 	2     	0.75    	0        	0.75    	0.75    
30 	2     	0.75    	0        	0.75    	0.75    
31 	2     	0.75    	0        	0.75    	0.75    
32 	2     	0.75    	0        	0.75    	0.75    
33 	2     	0.75    	0        	0.75    	0.75    
34 	2     	0.75    	0        	0.75    	0.75    
35 	2     	0.75    	0        	0.75    	0.75    
36 	2     	0.75    	0        	0.75    	0.75    
37 	2     	0.75    	0        	0.75    	0.75    
38 	2     	0.75    	0        	0.75    	0.75    
39 	2     	0.75    	0        	0.75    	0.75    
40 	2     	0.75    	0        	0.75    	0.75    
41 	2     	0.75    	0        	0.75    	0.75    
42 	2     	0.75    	0        	0.75    	0.75    
43 	2     	0.75    	0        	0.75    	0.75    
44 	2     	0.75    	0        	0.75    	0.75    
45 	2     	0.75    	0        	0.75    	0.75    
46 	2     	0.75    	0        	0.75    	0.75    
47 	2     	0.75    	0        	0.75    	0.75    
48 	2     	0.75    	0        	0.75    	0.75    
49 	2     	0.75    	0        	0.75    	0.75    
50 	2     	0.75    	0        	0.75    	0.75    
51 	2     	0.75    	0        	0.75    	0.75    
52 	2     	0.75    	0        	0.75    	0.75    
53 	2     	0.75    	0        	0.75    	0.75    
54 	2     	0.75    	0        	0.75    	0.75    
55 	2     	0.75    	0        	0.75    	0.75    
56 	2     	0.75    	0        	0.75    	0.75    
57 	2     	0.75    	0        	0.75    	0.75    
58 	2     	0.75    	0        	0.75    	0.75    
59 	2     	0.75    	0        	0.75    	0.75    
60 	2     	0.75    	0        	0.75    	0.75    
61 	2     	0.75    	0        	0.75    	0.75    
62 	2     	0.75    	0        	0.75    	0.75    
63 	2     	0.75    	0        	0.75    	0.75    
64 	2     	0.75    	0        	0.75    	0.75    
65 	2     	0.75    	0        	0.75    	0.75    
66 	2     	0.75    	0        	0.75    	0.75    
67 	2     	0.75    	0        	0.75    	0.75    
68 	2     	0.75    	0        	0.75    	0.75    
69 	2     	0.75    	0        	0.75    	0.75    
70 	2     	0.75    	0        	0.75    	0.75    
71 	2     	0.75    	0        	0.75    	0.75    
72 	2     	0.763889	0.0138889	0.75    	0.777778
73 	2     	0.763889	0.0138889	0.75    	0.777778
74 	2     	0.763889	0.0138889	0.75    	0.777778
75 	2     	0.763889	0.0138889	0.75    	0.777778
76 	2     	0.763889	0.0138889	0.75    	0.777778
77 	2     	0.777778	0        	0.777778	0.777778
78 	2     	0.777778	0        	0.777778	0.777778
79 	2     	0.777778	0        	0.777778	0.777778
80 	2     	0.777778	0        	0.777778	0.777778
81 	2     	0.777778	0        	0.777778	0.777778
82 	2     	0.777778	0        	0.777778	0.777778
83 	2     	0.777778	0        	0.777778	0.777778
84 	2     	0.777778	0        	0.777778	0.777778
85 	2     	0.777778	0        	0.777778	0.777778
86 	2     	0.777778	0        	0.777778	0.777778
87 	2     	0.777778	0        	0.777778	0.777778
88 	2     	0.777778	0        	0.777778	0.777778
89 	2     	0.791667	0.0138889	0.777778	0.805556
90 	2     	0.791667	0.0138889	0.777778	0.805556
91 	2     	0.791667	0.0138889	0.777778	0.805556
92 	2     	0.791667	0.0138889	0.777778	0.805556
93 	2     	0.791667	0.0138889	0.777778	0.805556
94 	2     	0.791667	0.0138889	0.777778	0.805556
95 	2     	0.791667	0.0138889	0.777778	0.805556
96 	2     	0.791667	0.0138889	0.777778	0.805556
97 	2     	0.791667	0.0138889	0.777778	0.805556
98 	2     	0.791667	0.0138889	0.777778	0.805556
99 	2     	0.819444	0.0138889	0.805556	0.833333
100	2     	0.819444	0.0138889	0.805556	0.833333
101	2     	0.819444	0.0138889	0.805556	0.833333
102	2     	0.819444	0.0138889	0.805556	0.833333
103	2     	0.819444	0.0138889	0.805556	0.833333
104	2     	0.819444	0.0138889	0.805556	0.833333
105	2     	0.819444	0.0138889	0.805556	0.833333
106	2     	0.819444	0.0138889	0.805556	0.833333
107	2     	0.819444	0.0138889	0.805556	0.833333
108	2     	0.819444	0.0138889	0.805556	0.833333
109	2     	0.833333	0        	0.833333	0.833333
110	2     	0.833333	0        	0.833333	0.833333
111	2     	0.833333	0        	0.833333	0.833333
112	2     	0.833333	0        	0.833333	0.833333
113	2     	0.833333	0        	0.833333	0.833333
114	2     	0.833333	0        	0.833333	0.833333
115	2     	0.833333	0        	0.833333	0.833333
116	2     	0.833333	0        	0.833333	0.833333
117	2     	0.833333	0        	0.833333	0.833333
118	2     	0.833333	0        	0.833333	0.833333
119	2     	0.833333	0        	0.833333	0.833333
120	2     	0.833333	0        	0.833333	0.833333
121	2     	0.833333	0        	0.833333	0.833333
122	2     	0.833333	0        	0.833333	0.833333
123	2     	0.833333	0        	0.833333	0.833333
124	2     	0.833333	0        	0.833333	0.833333
125	2     	0.833333	0        	0.833333	0.833333
126	2     	0.833333	0        	0.833333	0.833333
127	2     	0.833333	0        	0.833333	0.833333
128	2     	0.847222	0.0138889	0.833333	0.861111
129	2     	0.847222	0.0138889	0.833333	0.861111
130	2     	0.847222	0.0138889	0.833333	0.861111
131	2     	0.847222	0.0138889	0.833333	0.861111
132	2     	0.875   	0.0138889	0.861111	0.888889
133	2     	0.875   	0.0138889	0.861111	0.888889
134	2     	0.875   	0.0138889	0.861111	0.888889
135	2     	0.875   	0.0138889	0.861111	0.888889
136	2     	0.875   	0.0138889	0.861111	0.888889
137	2     	0.875   	0.0138889	0.861111	0.888889
138	2     	0.875   	0.0138889	0.861111	0.888889
139	2     	0.875   	0.0138889	0.861111	0.888889
140	2     	0.888889	0        	0.888889	0.888889
141	2     	0.888889	0        	0.888889	0.888889
142	2     	0.888889	0        	0.888889	0.888889
143	2     	0.888889	0        	0.888889	0.888889
144	2     	0.888889	0        	0.888889	0.888889
145	2     	0.888889	0        	0.888889	0.888889
146	2     	0.888889	0        	0.888889	0.888889
147	2     	0.888889	0        	0.888889	0.888889
148	2     	0.888889	0        	0.888889	0.888889
149	2     	0.888889	0        	0.888889	0.888889
150	2     	0.888889	0        	0.888889	0.888889
151	2     	0.888889	0        	0.888889	0.888889
152	2     	0.888889	0        	0.888889	0.888889
153	2     	0.902778	0.0138889	0.888889	0.916667
154	2     	0.902778	0.0138889	0.888889	0.916667
155	2     	0.902778	0.0138889	0.888889	0.916667
156	2     	0.916667	0        	0.916667	0.916667
157	2     	0.916667	0        	0.916667	0.916667
158	2     	0.916667	0        	0.916667	0.916667
159	2     	0.916667	0        	0.916667	0.916667
160	2     	0.916667	0        	0.916667	0.916667
161	2     	0.916667	0        	0.916667	0.916667
162	2     	0.916667	0        	0.916667	0.916667
163	2     	0.916667	0        	0.916667	0.916667
164	2     	0.916667	0        	0.916667	0.916667
165	2     	0.916667	0        	0.916667	0.916667
166	2     	0.916667	0        	0.916667	0.916667
167	2     	0.916667	0        	0.916667	0.916667
168	2     	0.916667	0        	0.916667	0.916667
169	2     	0.916667	0        	0.916667	0.916667
170	2     	0.916667	0        	0.916667	0.916667
171	2     	0.916667	0        	0.916667	0.916667
172	2     	0.916667	0        	0.916667	0.916667
173	2     	0.916667	0        	0.916667	0.916667
174	2     	0.916667	0        	0.916667	0.916667
175	2     	0.916667	0        	0.916667	0.916667
176	2     	0.916667	0        	0.916667	0.916667
177	2     	0.916667	0        	0.916667	0.916667
178	2     	0.916667	0        	0.916667	0.916667
179	2     	0.916667	0        	0.916667	0.916667
180	2     	0.916667	0        	0.916667	0.916667
181	2     	0.916667	0        	0.916667	0.916667
182	2     	0.916667	0        	0.916667	0.916667
183	2     	0.916667	0        	0.916667	0.916667
184	2     	0.916667	0        	0.916667	0.916667
185	2     	0.930556	0.0138889	0.916667	0.944444
186	2     	0.930556	0.0138889	0.916667	0.944444
187	2     	0.930556	0.0138889	0.916667	0.944444
188	2     	0.930556	0.0138889	0.916667	0.944444
189	2     	0.930556	0.0138889	0.916667	0.944444
190	2     	0.930556	0.0138889	0.916667	0.944444
191	2     	0.930556	0.0138889	0.916667	0.944444
192	2     	0.930556	0.0138889	0.916667	0.944444
193	2     	0.930556	0.0138889	0.916667	0.944444
194	2     	0.930556	0.0138889	0.916667	0.944444
195	2     	0.930556	0.0138889	0.916667	0.944444
196	2     	0.958333	0.0138889	0.944444	0.972222
197	2     	0.958333	0.0138889	0.944444	0.972222
198	2     	0.958333	0.0138889	0.944444	0.972222
199	2     	0.958333	0.0138889	0.944444	0.972222
200	2     	0.958333	0.0138889	0.944444	0.972222
201	2     	0.958333	0.0138889	0.944444	0.972222
202	2     	0.958333	0.0138889	0.944444	0.972222
203	2     	0.958333	0.0138889	0.944444	0.972222
204	2     	0.958333	0.0138889	0.944444	0.972222
205	2     	0.958333	0.0138889	0.944444	0.972222
206	2     	0.958333	0.0138889	0.944444	0.972222
207	2     	0.958333	0.0138889	0.944444	0.972222
208	2     	0.958333	0.0138889	0.944444	0.972222
209	2     	0.958333	0.0138889	0.944444	0.972222
210	2     	0.958333	0.0138889	0.944444	0.972222
211	2     	0.958333	0.0138889	0.944444	0.972222
212	2     	0.958333	0.0138889	0.944444	0.972222
213	2     	0.958333	0.0138889	0.944444	0.972222
214	2     	0.958333	0.0138889	0.944444	0.972222
215	2     	0.958333	0.0138889	0.944444	0.972222
216	2     	0.958333	0.0138889	0.944444	0.972222
217	2     	0.958333	0.0138889	0.944444	0.972222
218	2     	0.958333	0.0138889	0.944444	0.972222
219	2     	0.958333	0.0138889	0.944444	0.972222
220	2     	0.958333	0.0138889	0.944444	0.972222
221	2     	0.958333	0.0138889	0.944444	0.972222
222	2     	0.958333	0.0138889	0.944444	0.972222
223	2     	0.958333	0.0138889	0.944444	0.972222
224	2     	0.972222	0        	0.972222	0.972222
225	2     	0.972222	0        	0.972222	0.972222
226	2     	0.972222	0        	0.972222	0.972222
227	2     	0.972222	0        	0.972222	0.972222
228	2     	0.972222	0        	0.972222	0.972222
229	2     	0.972222	0        	0.972222	0.972222
230	2     	0.972222	0        	0.972222	0.972222
231	2     	0.972222	0        	0.972222	0.972222
232	2     	0.972222	0        	0.972222	0.972222
233	2     	0.972222	0        	0.972222	0.972222
234	2     	0.972222	0        	0.972222	0.972222
235	2     	0.972222	0        	0.972222	0.972222
236	2     	0.972222	0        	0.972222	0.972222
237	2     	0.972222	0        	0.972222	0.972222
238	2     	0.972222	0        	0.972222	0.972222
239	2     	0.972222	0        	0.972222	0.972222
240	2     	0.972222	0        	0.972222	0.972222
241	2     	0.972222	0        	0.972222	0.972222
242	2     	0.972222	0        	0.972222	0.972222
243	2     	0.972222	0        	0.972222	0.972222
244	2     	0.972222	0        	0.972222	0.972222
245	2     	0.972222	0        	0.972222	0.972222
246	2     	0.972222	0        	0.972222	0.972222
247	2     	0.972222	0        	0.972222	0.972222
248	2     	0.972222	0        	0.972222	0.972222
249	2     	0.972222	0        	0.972222	0.972222
250	2     	0.972222	0        	0.972222	0.972222
251	2     	0.972222	0        	0.972222	0.972222
252	2     	0.972222	0        	0.972222	0.972222
253	2     	0.972222	0        	0.972222	0.972222
254	2     	0.972222	0        	0.972222	0.972222
255	2     	0.972222	0        	0.972222	0.972222
256	2     	0.972222	0        	0.972222	0.972222
257	2     	0.972222	0        	0.972222	0.972222
258	2     	0.972222	0        	0.972222	0.972222
259	2     	0.972222	0        	0.972222	0.972222
260	2     	0.972222	0        	0.972222	0.972222
261	2     	0.972222	0        	0.972222	0.972222
262	2     	0.972222	0        	0.972222	0.972222
263	2     	0.972222	0        	0.972222	0.972222
264	2     	0.972222	0        	0.972222	0.972222
265	2     	0.972222	0        	0.972222	0.972222
266	2     	0.972222	0        	0.972222	0.972222
267	2     	0.972222	0        	0.972222	0.972222
268	2     	0.972222	0        	0.972222	0.972222
269	2     	0.972222	0        	0.972222	0.972222
270	2     	0.972222	0        	0.972222	0.972222
271	2     	0.972222	0        	0.972222	0.972222
272	2     	0.972222	0        	0.972222	0.972222
273	2     	0.972222	0        	0.972222	0.972222
274	2     	0.972222	0        	0.972222	0.972222
275	2     	0.972222	0        	0.972222	0.972222
276	2     	0.972222	0        	0.972222	0.972222
277	2     	0.972222	0        	0.972222	0.972222
278	2     	0.972222	0        	0.972222	0.972222
279	2     	0.972222	0        	0.972222	0.972222
280	2     	0.972222	0        	0.972222	0.972222
281	2     	0.972222	0        	0.972222	0.972222
282	2     	0.972222	0        	0.972222	0.972222
283	2     	0.972222	0        	0.972222	0.972222
284	2     	0.972222	0        	0.972222	0.972222
285	2     	0.972222	0        	0.972222	0.972222
286	2     	0.972222	0        	0.972222	0.972222
287	2     	0.972222	0        	0.972222	0.972222
288	2     	0.972222	0        	0.972222	0.972222
289	2     	0.986111	0.0138889	0.972222	1       