gen	nevals	avg     	std      	min     	max     
0  	2     	0.597222	0.0694444	0.527778	0.666667
1  	2     	0.638889	0.0277778	0.611111	0.666667
2  	2     	0.680556	0.0138889	0.666667	0.694444
3  	2     	0.680556	0.0138889	0.666667	0.694444
4  	2     	0.680556	0.0138889	0.666667	0.694444
5  	2     	0.708333	0.0138889	0.694444	0.722222
6  	2     	0.763889	0.0416667	0.722222	0.805556
7  	2     	0.777778	0.0277778	0.75    	0.805556
8  	2     	0.777778	0.0277778	0.75    	0.805556
9  	2     	0.777778	0.0277778	0.75    	0.805556
10 	2     	0.777778	0.0277778	0.75    	0.805556
11 	2     	0.777778	0.0277778	0.75    	0.805556
12 	2     	0.777778	0.0277778	0.75    	0.805556
13 	2     	0.777778	0.0277778	0.75    	0.805556
14 	2     	0.777778	0.0277778	0.75    	0.805556
15 	2     	0.791667	0.0138889	0.777778	0.805556
16 	2     	0.791667	0.0138889	0.777778	0.805556
17 	2     	0.791667	0.0138889	0.777778	0.805556
18 	2     	0.791667	0.0138889	0.777778	0.805556
19 	2     	0.805556	0        	0.805556	0.805556
20 	2     	0.805556	0        	0.805556	0.805556
21 	2     	0.805556	0        	0.805556	0.805556
22 	2     	0.805556	0        	0.805556	0.805556
23 	2     	0.805556	0        	0.805556	0.805556
24 	2     	0.805556	0        	0.805556	0.805556
25 	2     	0.805556	0        	0.805556	0.805556
26 	2     	0.805556	0        	0.805556	0.805556
27 	2     	0.819444	0.0138889	0.805556	0.833333
28 	2     	0.819444	0.0138889	0.805556	0.833333
29 	2     	0.819444	0.0138889	0.805556	0.833333
30 	2     	0.833333	0        	0.833333	0.833333
31 	2     	0.833333	0        	0.833333	0.833333
32 	2     	0.833333	0        	0.833333	0.833333
33 	2     	0.833333	0        	0.833333	0.833333
34 	2     	0.833333	0        	0.833333	0.833333
35 	2     	0.833333	0        	0.833333	0.833333
36 	2     	0.833333	0        	0.833333	0.833333
37 	2     	0.833333	0        	0.833333	0.833333
38 	2     	0.833333	0        	0.833333	0.833333
39 	2     	0.833333	0        	0.833333	0.833333
40 	2     	0.833333	0        	0.833333	0.833333
41 	2     	0.847222	0.0138889	0.833333	0.861111
42 	2     	0.847222	0.0138889	0.833333	0.861111
43 	2     	0.847222	0.0138889	0.833333	0.861111
44 	2     	0.847222	0.0138889	0.833333	0.861111
45 	2     	0.847222	0.0138889	0.833333	0.861111
46 	2     	0.847222	0.0138889	0.833333	0.861111
47 	2     	0.847222	0.0138889	0.833333	0.861111
48 	2     	0.847222	0.0138889	0.833333	0.861111
49 	2     	0.847222	0.0138889	0.833333	0.861111
50 	2     	0.847222	0.0138889	0.833333	0.861111
51 	2     	0.847222	0.0138889	0.833333	0.861111
52 	2     	0.847222	0.0138889	0.833333	0.861111
53 	2     	0.847222	0.0138889	0.833333	0.861111
54 	2     	0.847222	0.0138889	0.833333	0.861111
55 	2     	0.847222	0.0138889	0.833333	0.861111
56 	2     	0.847222	0.0138889	0.833333	0.861111
57 	2     	0.847222	0.0138889	0.833333	0.861111
58 	2     	0.847222	0.0138889	0.833333	0.861111
59 	2     	0.861111	0        	0.861111	0.861111
60 	2     	0.861111	0        	0.861111	0.861111
61 	2     	0.861111	0        	0.861111	0.861111
62 	2     	0.861111	0        	0.861111	0.861111
63 	2     	0.861111	0        	0.861111	0.861111
64 	2     	0.861111	0        	0.861111	0.861111
65 	2     	0.861111	0        	0.861111	0.861111
66 	2     	0.861111	0        	0.861111	0.861111
67 	2     	0.861111	0        	0.861111	0.861111
68 	2     	0.861111	0        	0.861111	0.861111
69 	2     	0.861111	0        	0.861111	0.861111
70 	2     	0.861111	0        	0.861111	0.861111
71 	2     	0.861111	0        	0.861111	0.861111
72 	2     	0.861111	0        	0.861111	0.861111
73 	2     	0.861111	0        	0.861111	0.861111
74 	2     	0.861111	0        	0.861111	0.861111
75 	2     	0.861111	0        	0.861111	0.861111
76 	2     	0.861111	0        	0.861111	0.861111
77 	2     	0.861111	0        	0.861111	0.861111
78 	2     	0.875   	0.0138889	0.861111	0.888889
79 	2     	0.888889	0        	0.888889	0.888889
80 	2     	0.888889	0        	0.888889	0.888889
81 	2     	0.888889	0        	0.888889	0.888889
82 	2     	0.888889	0        	0.888889	0.888889
83 	2     	0.888889	0        	0.888889	0.888889
84 	2     	0.888889	0        	0.888889	0.888889
85 	2     	0.888889	0        	0.888889	0.888889
86 	2     	0.888889	0        	0.888889	0.888889
87 	2     	0.888889	0        	0.888889	0.888889
88 	2     	0.888889	0        	0.888889	0.888889
89 	2     	0.888889	0        	0.888889	0.888889
90 	2     	0.888889	0        	0.888889	0.888889
91 	2     	0.888889	0        	0.888889	0.888889
92 	2     	0.888889	0        	0.888889	0.888889
93 	2     	0.888889	0        	0.888889	0.888889
94 	2     	0.888889	0        	0.888889	0.888889
95 	2     	0.888889	0        	0.888889	0.888889
96 	2     	0.888889	0        	0.888889	0.888889
97 	2     	0.888889	0        	0.888889	0.888889
98 	2     	0.888889	0        	0.888889	0.888889
99 	2     	0.888889	0        	0.888889	0.888889
100	2     	0.888889	0        	0.888889	0.888889
101	2     	0.888889	0        	0.888889	0.888889
102	2     	0.888889	0        	0.888889	0.888889
103	2     	0.888889	0        	0.888889	0.888889
104	2     	0.888889	0        	0.888889	0.888889
105	2     	0.888889	0        	0.888889	0.888889
106	2     	0.888889	0        	0.888889	0.888889
107	2     	0.888889	0        	0.888889	0.888889
108	2     	0.888889	0        	0.888889	0.888889
109	2     	0.888889	0        	0.888889	0.888889
110	2     	0.888889	0        	0.888889	0.888889
111	2     	0.888889	0        	0.888889	0.888889
112	2     	0.888889	0        	0.888889	0.888889
113	2     	0.888889	0        	0.888889	0.888889
114	2     	0.888889	0        	0.888889	0.888889
115	2     	0.888889	0        	0.888889	0.888889
116	2     	0.888889	0        	0.888889	0.888889
117	2     	0.888889	0        	0.888889	0.888889
118	2     	0.888889	0        	0.888889	0.888889
119	2     	0.888889	0        	0.888889	0.888889
120	2     	0.888889	0        	0.888889	0.888889
121	2     	0.888889	0        	0.888889	0.888889
122	2     	0.888889	0        	0.888889	0.888889
123	2     	0.888889	0        	0.888889	0.888889
124	2     	0.888889	0        	0.888889	0.888889
125	2     	0.888889	0        	0.888889	0.888889
126	2     	0.888889	0        	0.888889	0.888889
127	2     	0.888889	0        	0.888889	0.888889
128	2     	0.888889	0        	0.888889	0.888889
129	2     	0.902778	0.0138889	0.888889	0.916667
130	2     	0.902778	0.0138889	0.888889	0.916667
131	2     	0.902778	0.0138889	0.888889	0.916667
132	2     	0.902778	0.0138889	0.888889	0.916667
133	2     	0.902778	0.0138889	0.888889	0.916667
134	2     	0.902778	0.0138889	0.888889	0.916667
135	2     	0.902778	0.0138889	0.888889	0.916667
136	2     	0.902778	0.0138889	0.888889	0.916667
137	2     	0.902778	0.0138889	0.888889	0.916667
138	2     	0.902778	0.0138889	0.888889	0.916667
139	2     	0.902778	0.0138889	0.888889	0.916667
140	2     	0.902778	0.0138889	0.888889	0.916667
141	2     	0.916667	0        	0.916667	0.916667
142	2     	0.916667	0        	0.916667	0.916667
143	2     	0.916667	0        	0.916667	0.916667
144	2     	0.916667	0        	0.916667	0.916667
145	2     	0.916667	0        	0.916667	0.916667
146	2     	0.916667	0        	0.916667	0.916667
147	2     	0.916667	0        	0.916667	0.916667
148	2     	0.916667	0        	0.916667	0.916667
149	2     	0.916667	0        	0.916667	0.916667
150	2     	0.916667	0        	0.916667	0.916667
151	2     	0.916667	0        	0.916667	0.916667
152	2     	0.916667	0        	0.916667	0.916667
153	2     	0.916667	0        	0.916667	0.916667
154	2     	0.916667	0        	0.916667	0.916667
155	2     	0.916667	0        	0.916667	0.916667
156	2     	0.916667	0        	0.916667	0.916667
157	2     	0.916667	0        	0.916667	0.916667
158	2     	0.916667	0        	0.916667	0.916667
159	2     	0.916667	0        	0.916667	0.916667
160	2     	0.916667	0        	0.916667	0.916667
161	2     	0.916667	0        	0.916667	0.916667
162	2     	0.916667	0        	0.916667	0.916667
163	2     	0.916667	0        	0.916667	0.916667
164	2     	0.916667	0        	0.916667	0.916667
165	2     	0.916667	0        	0.916667	0.916667
166	2     	0.916667	0        	0.916667	0.916667
167	2     	0.916667	0        	0.916667	0.916667
168	2     	0.916667	0        	0.916667	0.916667
169	2     	0.916667	0        	0.916667	0.916667
170	2     	0.916667	0        	0.916667	0.916667
171	2     	0.916667	0        	0.916667	0.916667
172	2     	0.916667	0        	0.916667	0.916667
173	2     	0.916667	0        	0.916667	0.916667
174	2     	0.916667	0        	0.916667	0.916667
175	2     	0.916667	0        	0.916667	0.916667
176	2     	0.916667	0        	0.916667	0.916667
177	2     	0.916667	0        	0.916667	0.916667
178	2     	0.916667	0        	0.916667	0.916667
179	2     	0.916667	0        	0.916667	0.916667
180	2     	0.916667	0        	0.916667	0.916667
181	2     	0.916667	0        	0.916667	0.916667
182	2     	0.916667	0        	0.916667	0.916667
183	2     	0.916667	0        	0.916667	0.916667
184	2     	0.916667	0        	0.916667	0.916667
185	2     	0.916667	0        	0.916667	0.916667
186	2     	0.916667	0        	0.916667	0.916667
187	2     	0.916667	0        	0.916667	0.916667
188	2     	0.916667	0        	0.916667	0.916667
189	2     	0.916667	0        	0.916667	0.916667
190	2     	0.916667	0        	0.916667	0.916667
191	2     	0.916667	0        	0.916667	0.916667
192	2     	0.916667	0        	0.916667	0.916667
193	2     	0.916667	0        	0.916667	0.916667
194	2     	0.916667	0        	0.916667	0.916667
195	2     	0.916667	0        	0.916667	0.916667
196	2     	0.916667	0        	0.916667	0.916667
197	2     	0.916667	0        	0.916667	0.916667
198	2     	0.916667	0        	0.916667	0.916667
199	2     	0.916667	0        	0.916667	0.916667
200	2     	0.916667	0        	0.916667	0.916667
201	2     	0.916667	0        	0.916667	0.916667
202	2     	0.916667	0        	0.916667	0.916667
203	2     	0.916667	0        	0.916667	0.916667
204	2     	0.916667	0        	0.916667	0.916667
205	2     	0.916667	0        	0.916667	0.916667
206	2     	0.916667	0        	0.916667	0.916667
207	2     	0.916667	0        	0.916667	0.916667
208	2     	0.916667	0        	0.916667	0.916667
209	2     	0.916667	0        	0.916667	0.916667
210	2     	0.916667	0        	0.916667	0.916667
211	2     	0.916667	0        	0.916667	0.916667
212	2     	0.916667	0        	0.916667	0.916667
213	2     	0.916667	0        	0.916667	0.916667
214	2     	0.916667	0        	0.916667	0.916667
215	2     	0.916667	0        	0.916667	0.916667
216	2     	0.916667	0        	0.916667	0.916667
217	2     	0.916667	0        	0.916667	0.916667
218	2     	0.916667	0        	0.916667	0.916667
219	2     	0.916667	0        	0.916667	0.916667
220	2     	0.916667	0        	0.916667	0.916667
221	2     	0.916667	0        	0.916667	0.916667
222	2     	0.916667	0        	0.916667	0.916667
223	2     	0.916667	0        	0.916667	0.916667
224	2     	0.916667	0        	0.916667	0.916667
225	2     	0.916667	0        	0.916667	0.916667
226	2     	0.916667	0        	0.916667	0.916667
227	2     	0.916667	0        	0.916667	0.916667
228	2     	0.916667	0        	0.916667	0.916667
229	2     	0.916667	0        	0.916667	0.916667
230	2     	0.916667	0        	0.916667	0.916667
231	2     	0.916667	0        	0.916667	0.916667
232	2     	0.916667	0        	0.916667	0.916667
233	2     	0.916667	0        	0.916667	0.916667
234	2     	0.916667	0        	0.916667	0.916667
235	2     	0.916667	0        	0.916667	0.916667
236	2     	0.916667	0        	0.916667	0.916667
237	2     	0.916667	0        	0.916667	0.916667
238	2     	0.916667	0        	0.916667	0.916667
239	2     	0.916667	0        	0.916667	0.916667
240	2     	0.916667	0        	0.916667	0.916667
241	2     	0.916667	0        	0.916667	0.916667
242	2     	0.916667	0        	0.916667	0.916667
243	2     	0.916667	0        	0.916667	0.916667
244	2     	0.916667	0        	0.916667	0.916667
245	2     	0.916667	0        	0.916667	0.916667
246	2     	0.916667	0        	0.916667	0.916667
247	2     	0.916667	0        	0.916667	0.916667
248	2     	0.916667	0        	0.916667	0.916667
249	2     	0.916667	0        	0.916667	0.916667
250	2     	0.916667	0        	0.916667	0.916667
251	2     	0.916667	0        	0.916667	0.916667
252	2     	0.916667	0        	0.916667	0.916667
253	2     	0.916667	0        	0.916667	0.916667
254	2     	0.916667	0        	0.916667	0.916667
255	2     	0.916667	0        	0.916667	0.916667
256	2     	0.916667	0        	0.916667	0.916667
257	2     	0.916667	0        	0.916667	0.916667
258	2     	0.916667	0        	0.916667	0.916667
259	2     	0.916667	0        	0.916667	0.916667
260	2     	0.916667	0        	0.916667	0.916667
261	2     	0.916667	0        	0.916667	0.916667
262	2     	0.916667	0        	0.916667	0.916667
263	2     	0.916667	0        	0.916667	0.916667
264	2     	0.916667	0        	0.916667	0.916667
265	2     	0.916667	0        	0.916667	0.916667
266	2     	0.916667	0        	0.916667	0.916667
267	2     	0.916667	0        	0.916667	0.916667
268	2     	0.916667	0        	0.916667	0.916667
269	2     	0.916667	0        	0.916667	0.916667
270	2     	0.916667	0        	0.916667	0.916667
271	2     	0.916667	0        	0.916667	0.916667
272	2     	0.916667	0        	0.916667	0.916667
273	2     	0.916667	0        	0.916667	0.916667
274	2     	0.916667	0        	0.916667	0.916667
275	2     	0.916667	0        	0.916667	0.916667
276	2     	0.916667	0        	0.916667	0.916667
277	2     	0.916667	0        	0.916667	0.916667
278	2     	0.916667	0        	0.916667	0.916667
279	2     	0.916667	0        	0.916667	0.916667
280	2     	0.916667	0        	0.916667	0.916667
281	2     	0.916667	0        	0.916667	0.916667
282	2     	0.916667	0        	0.916667	0.916667
283	2     	0.916667	0        	0.916667	0.916667
284	2     	0.916667	0        	0.916667	0.916667
285	2     	0.916667	0        	0.916667	0.916667
286	2     	0.916667	0        	0.916667	0.916667
287	2     	0.916667	0        	0.916667	0.916667
288	2     	0.916667	0        	0.916667	0.916667
289	2     	0.916667	0        	0.916667	0.916667
290	2     	0.916667	0        	0.916667	0.916667
291	2     	0.916667	0        	0.916667	0.916667
292	2     	0.916667	0        	0.916667	0.916667
293	2     	0.916667	0        	0.916667	0.916667
294	2     	0.916667	0        	0.916667	0.916667
295	2     	0.916667	0        	0.916667	0.916667
296	2     	0.916667	0        	0.916667	0.916667
297	2     	0.916667	0        	0.916667	0.916667
298	2     	0.916667	0        	0.916667	0.916667
299	2     	0.916667	0        	0.916667	0.916667
300	2     	0.916667	0        	0.916667	0.916667
301	2     	0.916667	0        	0.916667	0.916667
302	2     	0.916667	0        	0.916667	0.916667
303	2     	0.916667	0        	0.916667	0.916667
304	2     	0.916667	0        	0.916667	0.916667
305	2     	0.916667	0        	0.916667	0.916667
306	2     	0.916667	0        	0.916667	0.916667
307	2     	0.916667	0        	0.916667	0.916667
308	2     	0.916667	0        	0.916667	0.916667
309	2     	0.916667	0        	0.916667	0.916667
310	2     	0.916667	0        	0.916667	0.916667
311	2     	0.916667	0        	0.916667	0.916667
312	2     	0.916667	0        	0.916667	0.916667
313	2     	0.944444	0.0277778	0.916667	0.972222
314	2     	0.944444	0.0277778	0.916667	0.972222
315	2     	0.944444	0.0277778	0.916667	0.972222
316	2     	0.944444	0.0277778	0.916667	0.972222
317	2     	0.944444	0.0277778	0.916667	0.972222
318	2     	0.944444	0.0277778	0.916667	0.972222
319	2     	0.944444	0.0277778	0.916667	0.972222
320	2     	0.944444	0.0277778	0.916667	0.972222
321	2     	0.944444	0.0277778	0.916667	0.972222
322	2     	0.944444	0.0277778	0.916667	0.972222
323	2     	0.944444	0.0277778	0.916667	0.972222
324	2     	0.944444	0.0277778	0.916667	0.972222
325	2     	0.944444	0.0277778	0.916667	0.972222
326	2     	0.944444	0.0277778	0.916667	0.972222
327	2     	0.944444	0.0277778	0.916667	0.972222
328	2     	0.958333	0.0138889	0.944444	0.972222
329	2     	0.958333	0.0138889	0.944444	0.972222
330	2     	0.958333	0.0138889	0.944444	0.972222
331	2     	0.958333	0.0138889	0.944444	0.972222
332	2     	0.958333	0.0138889	0.944444	0.972222
333	2     	0.958333	0.0138889	0.944444	0.972222
334	2     	0.958333	0.0138889	0.944444	0.972222
335	2     	0.958333	0.0138889	0.944444	0.972222
336	2     	0.958333	0.0138889	0.944444	0.972222
337	2     	0.958333	0.0138889	0.944444	0.972222
338	2     	0.958333	0.0138889	0.944444	0.972222
339	2     	0.958333	0.0138889	0.944444	0.972222
340	2     	0.958333	0.0138889	0.944444	0.972222
341	2     	0.972222	0        	0.972222	0.972222
342	2     	0.972222	0        	0.972222	0.972222
343	2     	0.972222	0        	0.972222	0.972222
344	2     	0.972222	0        	0.972222	0.972222
345	2     	0.972222	0        	0.972222	0.972222
346	2     	0.972222	0        	0.972222	0.972222
347	2     	0.972222	0        	0.972222	0.972222
348	2     	0.972222	0        	0.972222	0.972222
349	2     	0.972222	0        	0.972222	0.972222
350	2     	0.972222	0        	0.972222	0.972222
351	2     	0.972222	0        	0.972222	0.972222
352	2     	0.972222	0        	0.972222	0.972222
353	2     	0.972222	0        	0.972222	0.972222
354	2     	0.972222	0        	0.972222	0.972222
355	2     	0.972222	0        	0.972222	0.972222
356	2     	0.972222	0        	0.972222	0.972222
357	2     	0.972222	0        	0.972222	0.972222
358	2     	0.972222	0        	0.972222	0.972222
359	2     	0.972222	0        	0.972222	0.972222
360	2     	0.972222	0        	0.972222	0.972222
361	2     	0.972222	0        	0.972222	0.972222
362	2     	0.972222	0        	0.972222	0.972222
363	2     	0.972222	0        	0.972222	0.972222
364	2     	0.972222	0        	0.972222	0.972222
365	2     	0.972222	0        	0.972222	0.972222
366	2     	0.972222	0        	0.972222	0.972222
367	2     	0.972222	0        	0.972222	0.972222
368	2     	0.972222	0        	0.972222	0.972222
369	2     	0.972222	0        	0.972222	0.972222
370	2     	0.972222	0        	0.972222	0.972222
371	2     	0.972222	0        	0.972222	0.972222
372	2     	0.972222	0        	0.972222	0.972222
373	2     	0.972222	0        	0.972222	0.972222
374	2     	0.972222	0        	0.972222	0.972222
375	2     	0.972222	0        	0.972222	0.972222
376	2     	0.972222	0        	0.972222	0.972222
377	2     	0.972222	0        	0.972222	0.972222
378	2     	0.972222	0        	0.972222	0.972222
379	2     	0.972222	0        	0.972222	0.972222
380	2     	0.972222	0        	0.972222	0.972222
381	2     	0.972222	0        	0.972222	0.972222
382	2     	0.972222	0        	0.972222	0.972222
383	2     	0.972222	0        	0.972222	0.972222
384	2     	0.972222	0        	0.972222	0.972222
385	2     	0.972222	0        	0.972222	0.972222
386	2     	0.972222	0        	0.972222	0.972222
387	2     	0.972222	0        	0.972222	0.972222
388	2     	0.972222	0        	0.972222	0.972222
389	2     	0.972222	0        	0.972222	0.972222
390	2     	0.972222	0        	0.972222	0.972222
391	2     	0.972222	0        	0.972222	0.972222
392	2     	0.972222	0        	0.972222	0.972222
393	2     	0.972222	0        	0.972222	0.972222
394	2     	0.972222	0        	0.972222	0.972222