gen	nevals	avg    	std    	min   	max   
0  	2     	0.53125	0.09375	0.4375	0.625 
1  	2     	0.625  	0      	0.625 	0.625 
2  	2     	0.65625	0.03125	0.625 	0.6875
3  	2     	0.65625	0.03125	0.625 	0.6875
4  	2     	0.6875 	0      	0.6875	0.6875
5  	2     	0.6875 	0      	0.6875	0.6875
6  	2     	0.6875 	0      	0.6875	0.6875
7  	2     	0.71875	0.03125	0.6875	0.75  
8  	2     	0.71875	0.03125	0.6875	0.75  
9  	2     	0.78125	0.03125	0.75  	0.8125
10 	2     	0.78125	0.03125	0.75  	0.8125
11 	2     	0.78125	0.03125	0.75  	0.8125
12 	2     	0.78125	0.03125	0.75  	0.8125
13 	2     	0.78125	0.03125	0.75  	0.8125
14 	2     	0.84375	0.03125	0.8125	0.875 
15 	2     	0.84375	0.03125	0.8125	0.875 
16 	2     	0.875  	0      	0.875 	0.875 
17 	2     	0.875  	0      	0.875 	0.875 
18 	2     	0.875  	0      	0.875 	0.875 
19 	2     	0.875  	0      	0.875 	0.875 
20 	2     	0.9375 	0.0625 	0.875 	1     