gen	nevals	avg 	std 	min 	max 
0  	2     	0.46	0.06	0.4 	0.52
1  	2     	0.54	0.02	0.52	0.56
2  	2     	0.56	0   	0.56	0.56
3  	2     	0.56	0   	0.56	0.56
4  	2     	0.56	0   	0.56	0.56
5  	2     	0.56	0   	0.56	0.56
6  	2     	0.56	0   	0.56	0.56
7  	2     	0.56	0   	0.56	0.56
8  	2     	0.58	0.02	0.56	0.6 
9  	2     	0.6 	0   	0.6 	0.6 
10 	2     	0.6 	0   	0.6 	0.6 
11 	2     	0.6 	0   	0.6 	0.6 
12 	2     	0.6 	0   	0.6 	0.6 
13 	2     	0.6 	0   	0.6 	0.6 
14 	2     	0.6 	0   	0.6 	0.6 
15 	2     	0.6 	0   	0.6 	0.6 
16 	2     	0.6 	0   	0.6 	0.6 
17 	2     	0.6 	0   	0.6 	0.6 
18 	2     	0.6 	0   	0.6 	0.6 
19 	2     	0.64	0.04	0.6 	0.68
20 	2     	0.64	0.04	0.6 	0.68
21 	2     	0.68	0   	0.68	0.68
22 	2     	0.68	0   	0.68	0.68
23 	2     	0.68	0   	0.68	0.68
24 	2     	0.68	0   	0.68	0.68
25 	2     	0.68	0   	0.68	0.68
26 	2     	0.68	0   	0.68	0.68
27 	2     	0.68	0   	0.68	0.68
28 	2     	0.72	0.04	0.68	0.76
29 	2     	0.76	0   	0.76	0.76
30 	2     	0.76	0   	0.76	0.76
31 	2     	0.76	0   	0.76	0.76
32 	2     	0.76	0   	0.76	0.76
33 	2     	0.76	0   	0.76	0.76
34 	2     	0.76	0   	0.76	0.76
35 	2     	0.76	0   	0.76	0.76
36 	2     	0.76	0   	0.76	0.76
37 	2     	0.76	0   	0.76	0.76
38 	2     	0.76	0   	0.76	0.76
39 	2     	0.76	0   	0.76	0.76
40 	2     	0.76	0   	0.76	0.76
41 	2     	0.76	0   	0.76	0.76
42 	2     	0.76	0   	0.76	0.76
43 	2     	0.76	0   	0.76	0.76
44 	2     	0.76	0   	0.76	0.76
45 	2     	0.76	0   	0.76	0.76
46 	2     	0.76	0   	0.76	0.76
47 	2     	0.76	0   	0.76	0.76
48 	2     	0.76	0   	0.76	0.76
49 	2     	0.76	0   	0.76	0.76
50 	2     	0.76	0   	0.76	0.76
51 	2     	0.76	0   	0.76	0.76
52 	2     	0.76	0   	0.76	0.76
53 	2     	0.76	0   	0.76	0.76
54 	2     	0.76	0   	0.76	0.76
55 	2     	0.76	0   	0.76	0.76
56 	2     	0.76	0   	0.76	0.76
57 	2     	0.76	0   	0.76	0.76
58 	2     	0.76	0   	0.76	0.76
59 	2     	0.76	0   	0.76	0.76
60 	2     	0.76	0   	0.76	0.76
61 	2     	0.76	0   	0.76	0.76
62 	2     	0.76	0   	0.76	0.76
63 	2     	0.82	0.06	0.76	0.88
64 	2     	0.82	0.06	0.76	0.88
65 	2     	0.86	0.02	0.84	0.88
66 	2     	0.86	0.02	0.84	0.88
67 	2     	0.9 	0.02	0.88	0.92
68 	2     	0.9 	0.02	0.88	0.92
69 	2     	0.9 	0.02	0.88	0.92
70 	2     	0.9 	0.02	0.88	0.92
71 	2     	0.9 	0.02	0.88	0.92
72 	2     	0.9 	0.02	0.88	0.92
73 	2     	0.9 	0.02	0.88	0.92
74 	2     	0.9 	0.02	0.88	0.92
75 	2     	0.9 	0.02	0.88	0.92
76 	2     	0.9 	0.02	0.88	0.92
77 	2     	0.9 	0.02	0.88	0.92
78 	2     	0.9 	0.02	0.88	0.92
79 	2     	0.9 	0.02	0.88	0.92
80 	2     	0.9 	0.02	0.88	0.92
81 	2     	0.9 	0.02	0.88	0.92
82 	2     	0.9 	0.02	0.88	0.92
83 	2     	0.9 	0.02	0.88	0.92
84 	2     	0.9 	0.02	0.88	0.92
85 	2     	0.9 	0.02	0.88	0.92
86 	2     	0.9 	0.02	0.88	0.92
87 	2     	0.9 	0.02	0.88	0.92
88 	2     	0.9 	0.02	0.88	0.92
89 	2     	0.9 	0.02	0.88	0.92
90 	2     	0.9 	0.02	0.88	0.92
91 	2     	0.9 	0.02	0.88	0.92
92 	2     	0.9 	0.02	0.88	0.92
93 	2     	0.9 	0.02	0.88	0.92
94 	2     	0.9 	0.02	0.88	0.92
95 	2     	0.9 	0.02	0.88	0.92
96 	2     	0.94	0.02	0.92	0.96
97 	2     	0.94	0.02	0.92	0.96
98 	2     	0.94	0.02	0.92	0.96
99 	2     	0.94	0.02	0.92	0.96
100	2     	0.94	0.02	0.92	0.96
101	2     	0.94	0.02	0.92	0.96
102	2     	0.94	0.02	0.92	0.96
103	2     	0.94	0.02	0.92	0.96
104	2     	0.94	0.02	0.92	0.96
105	2     	0.94	0.02	0.92	0.96
106	2     	0.94	0.02	0.92	0.96
107	2     	0.94	0.02	0.92	0.96
108	2     	0.94	0.02	0.92	0.96
109	2     	0.94	0.02	0.92	0.96
110	2     	0.94	0.02	0.92	0.96
111	2     	0.94	0.02	0.92	0.96
112	2     	0.94	0.02	0.92	0.96
113	2     	0.94	0.02	0.92	0.96
114	2     	0.94	0.02	0.92	0.96
115	2     	0.94	0.02	0.92	0.96
116	2     	0.94	0.02	0.92	0.96
117	2     	0.94	0.02	0.92	0.96
118	2     	0.94	0.02	0.92	0.96
119	2     	0.94	0.02	0.92	0.96
120	2     	0.94	0.02	0.92	0.96
121	2     	0.94	0.02	0.92	0.96
122	2     	0.94	0.02	0.92	0.96
123	2     	0.94	0.02	0.92	0.96
124	2     	0.96	0   	0.96	0.96
125	2     	0.96	0   	0.96	0.96
126	2     	0.96	0   	0.96	0.96
127	2     	0.96	0   	0.96	0.96
128	2     	0.96	0   	0.96	0.96
129	2     	0.96	0   	0.96	0.96
130	2     	0.96	0   	0.96	0.96
131	2     	0.96	0   	0.96	0.96
132	2     	0.96	0   	0.96	0.96
133	2     	0.96	0   	0.96	0.96
134	2     	0.96	0   	0.96	0.96
135	2     	0.96	0   	0.96	0.96
136	2     	0.96	0   	0.96	0.96
137	2     	0.96	0   	0.96	0.96
138	2     	0.96	0   	0.96	0.96
139	2     	0.96	0   	0.96	0.96
140	2     	0.96	0   	0.96	0.96
141	2     	0.96	0   	0.96	0.96
142	2     	0.96	0   	0.96	0.96
143	2     	0.96	0   	0.96	0.96
144	2     	0.96	0   	0.96	0.96
145	2     	0.96	0   	0.96	0.96
146	2     	0.96	0   	0.96	0.96
147	2     	0.96	0   	0.96	0.96
148	2     	0.96	0   	0.96	0.96
149	2     	0.96	0   	0.96	0.96
150	2     	0.96	0   	0.96	0.96
151	2     	0.96	0   	0.96	0.96
152	2     	0.96	0   	0.96	0.96
153	2     	0.96	0   	0.96	0.96
154	2     	0.96	0   	0.96	0.96
155	2     	0.96	0   	0.96	0.96
156	2     	0.96	0   	0.96	0.96
157	2     	0.96	0   	0.96	0.96
158	2     	0.96	0   	0.96	0.96
159	2     	0.96	0   	0.96	0.96
160	2     	0.96	0   	0.96	0.96
161	2     	0.96	0   	0.96	0.96
162	2     	0.96	0   	0.96	0.96
163	2     	0.96	0   	0.96	0.96
164	2     	0.96	0   	0.96	0.96
165	2     	0.96	0   	0.96	0.96
166	2     	0.96	0   	0.96	0.96
167	2     	0.96	0   	0.96	0.96
168	2     	0.96	0   	0.96	0.96
169	2     	0.96	0   	0.96	0.96
170	2     	0.96	0   	0.96	0.96
171	2     	0.96	0   	0.96	0.96
172	2     	0.96	0   	0.96	0.96
173	2     	0.96	0   	0.96	0.96
174	2     	0.96	0   	0.96	0.96
175	2     	0.96	0   	0.96	0.96
176	2     	0.96	0   	0.96	0.96
177	2     	0.96	0   	0.96	0.96
178	2     	0.96	0   	0.96	0.96
179	2     	0.96	0   	0.96	0.96
180	2     	0.96	0   	0.96	0.96
181	2     	0.96	0   	0.96	0.96
182	2     	0.96	0   	0.96	0.96
183	2     	0.96	0   	0.96	0.96
184	2     	0.96	0   	0.96	0.96
185	2     	0.96	0   	0.96	0.96
186	2     	0.96	0   	0.96	0.96
187	2     	0.96	0   	0.96	0.96
188	2     	0.96	0   	0.96	0.96
189	2     	0.96	0   	0.96	0.96
190	2     	0.96	0   	0.96	0.96
191	2     	0.96	0   	0.96	0.96
192	2     	0.96	0   	0.96	0.96
193	2     	0.96	0   	0.96	0.96
194	2     	0.96	0   	0.96	0.96
195	2     	0.96	0   	0.96	0.96
196	2     	0.96	0   	0.96	0.96
197	2     	0.96	0   	0.96	0.96
198	2     	0.96	0   	0.96	0.96
199	2     	0.96	0   	0.96	0.96
200	2     	0.96	0   	0.96	0.96
201	2     	0.96	0   	0.96	0.96
202	2     	0.96	0   	0.96	0.96
203	2     	0.96	0   	0.96	0.96
204	2     	0.96	0   	0.96	0.96
205	2     	0.96	0   	0.96	0.96
206	2     	0.96	0   	0.96	0.96
207	2     	0.96	0   	0.96	0.96
208	2     	0.96	0   	0.96	0.96
209	2     	0.96	0   	0.96	0.96
210	2     	0.96	0   	0.96	0.96
211	2     	0.96	0   	0.96	0.96
212	2     	0.96	0   	0.96	0.96
213	2     	0.96	0   	0.96	0.96
214	2     	0.96	0   	0.96	0.96
215	2     	0.96	0   	0.96	0.96
216	2     	0.96	0   	0.96	0.96
217	2     	0.96	0   	0.96	0.96
218	2     	0.96	0   	0.96	0.96
219	2     	0.96	0   	0.96	0.96
220	2     	0.96	0   	0.96	0.96
221	2     	0.96	0   	0.96	0.96
222	2     	0.96	0   	0.96	0.96
223	2     	0.96	0   	0.96	0.96
224	2     	0.96	0   	0.96	0.96
225	2     	0.96	0   	0.96	0.96
226	2     	0.96	0   	0.96	0.96
227	2     	0.96	0   	0.96	0.96
228	2     	0.96	0   	0.96	0.96
229	2     	0.96	0   	0.96	0.96
230	2     	0.96	0   	0.96	0.96
231	2     	0.96	0   	0.96	0.96
232	2     	0.98	0.02	0.96	1   