gen 	nevals	avg     	std      	min     	max     
0   	2     	0.408163	0.0204082	0.387755	0.428571
1   	2     	0.5     	0.0714286	0.428571	0.571429
2   	2     	0.55102 	0.0204082	0.530612	0.571429
3   	2     	0.55102 	0.0204082	0.530612	0.571429
4   	2     	0.55102 	0.0204082	0.530612	0.571429
5   	2     	0.591837	0.0204082	0.571429	0.612245
6   	2     	0.591837	0.0204082	0.571429	0.612245
7   	2     	0.591837	0.0204082	0.571429	0.612245
8   	2     	0.591837	0.0204082	0.571429	0.612245
9   	2     	0.632653	0.0204082	0.612245	0.653061
10  	2     	0.663265	0.0102041	0.653061	0.673469
11  	2     	0.663265	0.0102041	0.653061	0.673469
12  	2     	0.663265	0.0102041	0.653061	0.673469
13  	2     	0.683673	0.0102041	0.673469	0.693878
14  	2     	0.683673	0.0102041	0.673469	0.693878
15  	2     	0.683673	0.0102041	0.673469	0.693878
16  	2     	0.683673	0.0102041	0.673469	0.693878
17  	2     	0.683673	0.0102041	0.673469	0.693878
18  	2     	0.683673	0.0102041	0.673469	0.693878
19  	2     	0.683673	0.0102041	0.673469	0.693878
20  	2     	0.693878	0        	0.693878	0.693878
21  	2     	0.693878	0        	0.693878	0.693878
22  	2     	0.693878	0        	0.693878	0.693878
23  	2     	0.693878	0        	0.693878	0.693878
24  	2     	0.693878	0        	0.693878	0.693878
25  	2     	0.693878	0        	0.693878	0.693878
26  	2     	0.693878	0        	0.693878	0.693878
27  	2     	0.693878	0        	0.693878	0.693878
28  	2     	0.693878	0        	0.693878	0.693878
29  	2     	0.693878	0        	0.693878	0.693878
30  	2     	0.693878	0        	0.693878	0.693878
31  	2     	0.693878	0        	0.693878	0.693878
32  	2     	0.714286	0.0204082	0.693878	0.734694
33  	2     	0.734694	0        	0.734694	0.734694
34  	2     	0.734694	0        	0.734694	0.734694
35  	2     	0.734694	0        	0.734694	0.734694
36  	2     	0.734694	0        	0.734694	0.734694
37  	2     	0.765306	0.0306122	0.734694	0.795918
38  	2     	0.765306	0.0306122	0.734694	0.795918
39  	2     	0.765306	0.0306122	0.734694	0.795918
40  	2     	0.795918	0        	0.795918	0.795918
41  	2     	0.795918	0        	0.795918	0.795918
42  	2     	0.795918	0        	0.795918	0.795918
43  	2     	0.795918	0        	0.795918	0.795918
44  	2     	0.795918	0        	0.795918	0.795918
45  	2     	0.795918	0        	0.795918	0.795918
46  	2     	0.795918	0        	0.795918	0.795918
47  	2     	0.795918	0        	0.795918	0.795918
48  	2     	0.795918	0        	0.795918	0.795918
49  	2     	0.795918	0        	0.795918	0.795918
50  	2     	0.795918	0        	0.795918	0.795918
51  	2     	0.795918	0        	0.795918	0.795918
52  	2     	0.795918	0        	0.795918	0.795918
53  	2     	0.795918	0        	0.795918	0.795918
54  	2     	0.795918	0        	0.795918	0.795918
55  	2     	0.795918	0        	0.795918	0.795918
56  	2     	0.795918	0        	0.795918	0.795918
57  	2     	0.795918	0        	0.795918	0.795918
58  	2     	0.795918	0        	0.795918	0.795918
59  	2     	0.795918	0        	0.795918	0.795918
60  	2     	0.795918	0        	0.795918	0.795918
61  	2     	0.795918	0        	0.795918	0.795918
62  	2     	0.795918	0        	0.795918	0.795918
63  	2     	0.795918	0        	0.795918	0.795918
64  	2     	0.795918	0        	0.795918	0.795918
65  	2     	0.795918	0        	0.795918	0.795918
66  	2     	0.795918	0        	0.795918	0.795918
67  	2     	0.795918	0        	0.795918	0.795918
68  	2     	0.795918	0        	0.795918	0.795918
69  	2     	0.795918	0        	0.795918	0.795918
70  	2     	0.795918	0        	0.795918	0.795918
71  	2     	0.795918	0        	0.795918	0.795918
72  	2     	0.795918	0        	0.795918	0.795918
73  	2     	0.795918	0        	0.795918	0.795918
74  	2     	0.795918	0        	0.795918	0.795918
75  	2     	0.795918	0        	0.795918	0.795918
76  	2     	0.795918	0        	0.795918	0.795918
77  	2     	0.795918	0        	0.795918	0.795918
78  	2     	0.795918	0        	0.795918	0.795918
79  	2     	0.795918	0        	0.795918	0.795918
80  	2     	0.795918	0        	0.795918	0.795918
81  	2     	0.795918	0        	0.795918	0.795918
82  	2     	0.795918	0        	0.795918	0.795918
83  	2     	0.795918	0        	0.795918	0.795918
84  	2     	0.795918	0        	0.795918	0.795918
85  	2     	0.795918	0        	0.795918	0.795918
86  	2     	0.795918	0        	0.795918	0.795918
87  	2     	0.795918	0        	0.795918	0.795918
88  	2     	0.795918	0        	0.795918	0.795918
89  	2     	0.795918	0        	0.795918	0.795918
90  	2     	0.795918	0        	0.795918	0.795918
91  	2     	0.795918	0        	0.795918	0.795918
92  	2     	0.795918	0        	0.795918	0.795918
93  	2     	0.795918	0        	0.795918	0.795918
94  	2     	0.795918	0        	0.795918	0.795918
95  	2     	0.795918	0        	0.795918	0.795918
96  	2     	0.795918	0        	0.795918	0.795918
97  	2     	0.795918	0        	0.795918	0.795918
98  	2     	0.795918	0        	0.795918	0.795918
99  	2     	0.795918	0        	0.795918	0.795918
100 	2     	0.795918	0        	0.795918	0.795918
101 	2     	0.795918	0        	0.795918	0.795918
102 	2     	0.795918	0        	0.795918	0.795918
103 	2     	0.795918	0        	0.795918	0.795918
104 	2     	0.795918	0        	0.795918	0.795918
105 	2     	0.795918	0        	0.795918	0.795918
106 	2     	0.795918	0        	0.795918	0.795918
107 	2     	0.806122	0.0102041	0.795918	0.816327
108 	2     	0.806122	0.0102041	0.795918	0.816327
109 	2     	0.806122	0.0102041	0.795918	0.816327
110 	2     	0.806122	0.0102041	0.795918	0.816327
111 	2     	0.806122	0.0102041	0.795918	0.816327
112 	2     	0.806122	0.0102041	0.795918	0.816327
113 	2     	0.806122	0.0102041	0.795918	0.816327
114 	2     	0.806122	0.0102041	0.795918	0.816327
115 	2     	0.806122	0.0102041	0.795918	0.816327
116 	2     	0.806122	0.0102041	0.795918	0.816327
117 	2     	0.806122	0.0102041	0.795918	0.816327
118 	2     	0.806122	0.0102041	0.795918	0.816327
119 	2     	0.806122	0.0102041	0.795918	0.816327
120 	2     	0.806122	0.0102041	0.795918	0.816327
121 	2     	0.806122	0.0102041	0.795918	0.816327
122 	2     	0.806122	0.0102041	0.795918	0.816327
123 	2     	0.806122	0.0102041	0.795918	0.816327
124 	2     	0.806122	0.0102041	0.795918	0.816327
125 	2     	0.806122	0.0102041	0.795918	0.816327
126 	2     	0.806122	0.0102041	0.795918	0.816327
127 	2     	0.806122	0.0102041	0.795918	0.816327
128 	2     	0.806122	0.0102041	0.795918	0.816327
129 	2     	0.806122	0.0102041	0.795918	0.816327
130 	2     	0.806122	0.0102041	0.795918	0.816327
131 	2     	0.806122	0.0102041	0.795918	0.816327
132 	2     	0.806122	0.0102041	0.795918	0.816327
133 	2     	0.806122	0.0102041	0.795918	0.816327
134 	2     	0.806122	0.0102041	0.795918	0.816327
135 	2     	0.806122	0.0102041	0.795918	0.816327
136 	2     	0.826531	0.0102041	0.816327	0.836735
137 	2     	0.826531	0.0102041	0.816327	0.836735
138 	2     	0.826531	0.0102041	0.816327	0.836735
139 	2     	0.826531	0.0102041	0.816327	0.836735
140 	2     	0.826531	0.0102041	0.816327	0.836735
141 	2     	0.826531	0.0102041	0.816327	0.836735
142 	2     	0.826531	0.0102041	0.816327	0.836735
143 	2     	0.826531	0.0102041	0.816327	0.836735
144 	2     	0.826531	0.0102041	0.816327	0.836735
145 	2     	0.826531	0.0102041	0.816327	0.836735
146 	2     	0.826531	0.0102041	0.816327	0.836735
147 	2     	0.826531	0.0102041	0.816327	0.836735
148 	2     	0.826531	0.0102041	0.816327	0.836735
149 	2     	0.826531	0.0102041	0.816327	0.836735
150 	2     	0.826531	0.0102041	0.816327	0.836735
151 	2     	0.826531	0.0102041	0.816327	0.836735
152 	2     	0.826531	0.0102041	0.816327	0.836735
153 	2     	0.826531	0.0102041	0.816327	0.836735
154 	2     	0.826531	0.0102041	0.816327	0.836735
155 	2     	0.826531	0.0102041	0.816327	0.836735
156 	2     	0.826531	0.0102041	0.816327	0.836735
157 	2     	0.826531	0.0102041	0.816327	0.836735
158 	2     	0.826531	0.0102041	0.816327	0.836735
159 	2     	0.846939	0.0102041	0.836735	0.857143
160 	2     	0.846939	0.0102041	0.836735	0.857143
161 	2     	0.846939	0.0102041	0.836735	0.857143
162 	2     	0.846939	0.0102041	0.836735	0.857143
163 	2     	0.846939	0.0102041	0.836735	0.857143
164 	2     	0.846939	0.0102041	0.836735	0.857143
165 	2     	0.846939	0.0102041	0.836735	0.857143
166 	2     	0.846939	0.0102041	0.836735	0.857143
167 	2     	0.846939	0.0102041	0.836735	0.857143
168 	2     	0.846939	0.0102041	0.836735	0.857143
169 	2     	0.846939	0.0102041	0.836735	0.857143
170 	2     	0.846939	0.0102041	0.836735	0.857143
171 	2     	0.846939	0.0102041	0.836735	0.857143
172 	2     	0.846939	0.0102041	0.836735	0.857143
173 	2     	0.846939	0.0102041	0.836735	0.857143
174 	2     	0.846939	0.0102041	0.836735	0.857143
175 	2     	0.846939	0.0102041	0.836735	0.857143
176 	2     	0.846939	0.0102041	0.836735	0.857143
177 	2     	0.846939	0.0102041	0.836735	0.857143
178 	2     	0.846939	0.0102041	0.836735	0.857143
179 	2     	0.846939	0.0102041	0.836735	0.857143
180 	2     	0.846939	0.0102041	0.836735	0.857143
181 	2     	0.846939	0.0102041	0.836735	0.857143
182 	2     	0.846939	0.0102041	0.836735	0.857143
183 	2     	0.846939	0.0102041	0.836735	0.857143
184 	2     	0.846939	0.0102041	0.836735	0.857143
185 	2     	0.846939	0.0102041	0.836735	0.857143
186 	2     	0.846939	0.0102041	0.836735	0.857143
187 	2     	0.846939	0.0102041	0.836735	0.857143
188 	2     	0.846939	0.0102041	0.836735	0.857143
189 	2     	0.846939	0.0102041	0.836735	0.857143
190 	2     	0.846939	0.0102041	0.836735	0.857143
191 	2     	0.846939	0.0102041	0.836735	0.857143
192 	2     	0.846939	0.0102041	0.836735	0.857143
193 	2     	0.846939	0.0102041	0.836735	0.857143
194 	2     	0.867347	0.0102041	0.857143	0.877551
195 	2     	0.867347	0.0102041	0.857143	0.877551
196 	2     	0.867347	0.0102041	0.857143	0.877551
197 	2     	0.867347	0.0102041	0.857143	0.877551
198 	2     	0.867347	0.0102041	0.857143	0.877551
199 	2     	0.867347	0.0102041	0.857143	0.877551
200 	2     	0.867347	0.0102041	0.857143	0.877551
201 	2     	0.867347	0.0102041	0.857143	0.877551
202 	2     	0.867347	0.0102041	0.857143	0.877551
203 	2     	0.867347	0.0102041	0.857143	0.877551
204 	2     	0.867347	0.0102041	0.857143	0.877551
205 	2     	0.867347	0.0102041	0.857143	0.877551
206 	2     	0.867347	0.0102041	0.857143	0.877551
207 	2     	0.867347	0.0102041	0.857143	0.877551
208 	2     	0.867347	0.0102041	0.857143	0.877551
209 	2     	0.867347	0.0102041	0.857143	0.877551
210 	2     	0.867347	0.0102041	0.857143	0.877551
211 	2     	0.867347	0.0102041	0.857143	0.877551
212 	2     	0.867347	0.0102041	0.857143	0.877551
213 	2     	0.867347	0.0102041	0.857143	0.877551
214 	2     	0.867347	0.0102041	0.857143	0.877551
215 	2     	0.867347	0.0102041	0.857143	0.877551
216 	2     	0.867347	0.0102041	0.857143	0.877551
217 	2     	0.867347	0.0102041	0.857143	0.877551
218 	2     	0.867347	0.0102041	0.857143	0.877551
219 	2     	0.867347	0.0102041	0.857143	0.877551
220 	2     	0.867347	0.0102041	0.857143	0.877551
221 	2     	0.867347	0.0102041	0.857143	0.877551
222 	2     	0.887755	0.0102041	0.877551	0.897959
223 	2     	0.887755	0.0102041	0.877551	0.897959
224 	2     	0.887755	0.0102041	0.877551	0.897959
225 	2     	0.887755	0.0102041	0.877551	0.897959
226 	2     	0.887755	0.0102041	0.877551	0.897959
227 	2     	0.887755	0.0102041	0.877551	0.897959
228 	2     	0.887755	0.0102041	0.877551	0.897959
229 	2     	0.887755	0.0102041	0.877551	0.897959
230 	2     	0.887755	0.0102041	0.877551	0.897959
231 	2     	0.887755	0.0102041	0.877551	0.897959
232 	2     	0.887755	0.0102041	0.877551	0.897959
233 	2     	0.887755	0.0102041	0.877551	0.897959
234 	2     	0.887755	0.0102041	0.877551	0.897959
235 	2     	0.887755	0.0102041	0.877551	0.897959
236 	2     	0.887755	0.0102041	0.877551	0.897959
237 	2     	0.887755	0.0102041	0.877551	0.897959
238 	2     	0.887755	0.0102041	0.877551	0.897959
239 	2     	0.887755	0.0102041	0.877551	0.897959
240 	2     	0.887755	0.0102041	0.877551	0.897959
241 	2     	0.887755	0.0102041	0.877551	0.897959
242 	2     	0.887755	0.0102041	0.877551	0.897959
243 	2     	0.887755	0.0102041	0.877551	0.897959
244 	2     	0.887755	0.0102041	0.877551	0.897959
245 	2     	0.887755	0.0102041	0.877551	0.897959
246 	2     	0.887755	0.0102041	0.877551	0.897959
247 	2     	0.887755	0.0102041	0.877551	0.897959
248 	2     	0.887755	0.0102041	0.877551	0.897959
249 	2     	0.887755	0.0102041	0.877551	0.897959
250 	2     	0.887755	0.0102041	0.877551	0.897959
251 	2     	0.887755	0.0102041	0.877551	0.897959
252 	2     	0.887755	0.0102041	0.877551	0.897959
253 	2     	0.887755	0.0102041	0.877551	0.897959
254 	2     	0.887755	0.0102041	0.877551	0.897959
255 	2     	0.887755	0.0102041	0.877551	0.897959
256 	2     	0.887755	0.0102041	0.877551	0.897959
257 	2     	0.887755	0.0102041	0.877551	0.897959
258 	2     	0.887755	0.0102041	0.877551	0.897959
259 	2     	0.887755	0.0102041	0.877551	0.897959
260 	2     	0.887755	0.0102041	0.877551	0.897959
261 	2     	0.887755	0.0102041	0.877551	0.897959
262 	2     	0.887755	0.0102041	0.877551	0.897959
263 	2     	0.887755	0.0102041	0.877551	0.897959
264 	2     	0.887755	0.0102041	0.877551	0.897959
265 	2     	0.897959	0        	0.897959	0.897959
266 	2     	0.897959	0        	0.897959	0.897959
267 	2     	0.897959	0        	0.897959	0.897959
268 	2     	0.897959	0        	0.897959	0.897959
269 	2     	0.897959	0        	0.897959	0.897959
270 	2     	0.897959	0        	0.897959	0.897959
271 	2     	0.897959	0        	0.897959	0.897959
272 	2     	0.897959	0        	0.897959	0.897959
273 	2     	0.897959	0        	0.897959	0.897959
274 	2     	0.897959	0        	0.897959	0.897959
275 	2     	0.897959	0        	0.897959	0.897959
276 	2     	0.897959	0        	0.897959	0.897959
277 	2     	0.897959	0        	0.897959	0.897959
278 	2     	0.897959	0        	0.897959	0.897959
279 	2     	0.897959	0        	0.897959	0.897959
280 	2     	0.897959	0        	0.897959	0.897959
281 	2     	0.897959	0        	0.897959	0.897959
282 	2     	0.897959	0        	0.897959	0.897959
283 	2     	0.897959	0        	0.897959	0.897959
284 	2     	0.897959	0        	0.897959	0.897959
285 	2     	0.897959	0        	0.897959	0.897959
286 	2     	0.897959	0        	0.897959	0.897959
287 	2     	0.897959	0        	0.897959	0.897959
288 	2     	0.897959	0        	0.897959	0.897959
289 	2     	0.897959	0        	0.897959	0.897959
290 	2     	0.897959	0        	0.897959	0.897959
291 	2     	0.897959	0        	0.897959	0.897959
292 	2     	0.897959	0        	0.897959	0.897959
293 	2     	0.897959	0        	0.897959	0.897959
294 	2     	0.897959	0        	0.897959	0.897959
295 	2     	0.897959	0        	0.897959	0.897959
296 	2     	0.897959	0        	0.897959	0.897959
297 	2     	0.897959	0        	0.897959	0.897959
298 	2     	0.897959	0        	0.897959	0.897959
299 	2     	0.897959	0        	0.897959	0.897959
300 	2     	0.897959	0        	0.897959	0.897959
301 	2     	0.897959	0        	0.897959	0.897959
302 	2     	0.897959	0        	0.897959	0.897959
303 	2     	0.897959	0        	0.897959	0.897959
304 	2     	0.897959	0        	0.897959	0.897959
305 	2     	0.897959	0        	0.897959	0.897959
306 	2     	0.897959	0        	0.897959	0.897959
307 	2     	0.897959	0        	0.897959	0.897959
308 	2     	0.897959	0        	0.897959	0.897959
309 	2     	0.897959	0        	0.897959	0.897959
310 	2     	0.897959	0        	0.897959	0.897959
311 	2     	0.897959	0        	0.897959	0.897959
312 	2     	0.897959	0        	0.897959	0.897959
313 	2     	0.897959	0        	0.897959	0.897959
314 	2     	0.897959	0        	0.897959	0.897959
315 	2     	0.897959	0        	0.897959	0.897959
316 	2     	0.897959	0        	0.897959	0.897959
317 	2     	0.897959	0        	0.897959	0.897959
318 	2     	0.897959	0        	0.897959	0.897959
319 	2     	0.897959	0        	0.897959	0.897959
320 	2     	0.897959	0        	0.897959	0.897959
321 	2     	0.897959	0        	0.897959	0.897959
322 	2     	0.897959	0        	0.897959	0.897959
323 	2     	0.897959	0        	0.897959	0.897959
324 	2     	0.897959	0        	0.897959	0.897959
325 	2     	0.897959	0        	0.897959	0.897959
326 	2     	0.897959	0        	0.897959	0.897959
327 	2     	0.897959	0        	0.897959	0.897959
328 	2     	0.897959	0        	0.897959	0.897959
329 	2     	0.897959	0        	0.897959	0.897959
330 	2     	0.897959	0        	0.897959	0.897959
331 	2     	0.897959	0        	0.897959	0.897959
332 	2     	0.897959	0        	0.897959	0.897959
333 	2     	0.897959	0        	0.897959	0.897959
334 	2     	0.897959	0        	0.897959	0.897959
335 	2     	0.897959	0        	0.897959	0.897959
336 	2     	0.897959	0        	0.897959	0.897959
337 	2     	0.897959	0        	0.897959	0.897959
338 	2     	0.897959	0        	0.897959	0.897959
339 	2     	0.897959	0        	0.897959	0.897959
340 	2     	0.897959	0        	0.897959	0.897959
341 	2     	0.897959	0        	0.897959	0.897959
342 	2     	0.897959	0        	0.897959	0.897959
343 	2     	0.897959	0        	0.897959	0.897959
344 	2     	0.897959	0        	0.897959	0.897959
345 	2     	0.897959	0        	0.897959	0.897959
346 	2     	0.897959	0        	0.897959	0.897959
347 	2     	0.897959	0        	0.897959	0.897959
348 	2     	0.897959	0        	0.897959	0.897959
349 	2     	0.897959	0        	0.897959	0.897959
350 	2     	0.897959	0        	0.897959	0.897959
351 	2     	0.897959	0        	0.897959	0.897959
352 	2     	0.897959	0        	0.897959	0.897959
353 	2     	0.908163	0.0102041	0.897959	0.918367
354 	2     	0.908163	0.0102041	0.897959	0.918367
355 	2     	0.908163	0.0102041	0.897959	0.918367
356 	2     	0.918367	0        	0.918367	0.918367
357 	2     	0.918367	0        	0.918367	0.918367
358 	2     	0.918367	0        	0.918367	0.918367
359 	2     	0.918367	0        	0.918367	0.918367
360 	2     	0.918367	0        	0.918367	0.918367
361 	2     	0.918367	0        	0.918367	0.918367
362 	2     	0.918367	0        	0.918367	0.918367
363 	2     	0.918367	0        	0.918367	0.918367
364 	2     	0.918367	0        	0.918367	0.918367
365 	2     	0.918367	0        	0.918367	0.918367
366 	2     	0.918367	0        	0.918367	0.918367
367 	2     	0.918367	0        	0.918367	0.918367
368 	2     	0.918367	0        	0.918367	0.918367
369 	2     	0.918367	0        	0.918367	0.918367
370 	2     	0.918367	0        	0.918367	0.918367
371 	2     	0.918367	0        	0.918367	0.918367
372 	2     	0.918367	0        	0.918367	0.918367
373 	2     	0.918367	0        	0.918367	0.918367
374 	2     	0.918367	0        	0.918367	0.918367
375 	2     	0.918367	0        	0.918367	0.918367
376 	2     	0.918367	0        	0.918367	0.918367
377 	2     	0.918367	0        	0.918367	0.918367
378 	2     	0.918367	0        	0.918367	0.918367
379 	2     	0.918367	0        	0.918367	0.918367
380 	2     	0.918367	0        	0.918367	0.918367
381 	2     	0.918367	0        	0.918367	0.918367
382 	2     	0.918367	0        	0.918367	0.918367
383 	2     	0.918367	0        	0.918367	0.918367
384 	2     	0.918367	0        	0.918367	0.918367
385 	2     	0.918367	0        	0.918367	0.918367
386 	2     	0.918367	0        	0.918367	0.918367
387 	2     	0.918367	0        	0.918367	0.918367
388 	2     	0.918367	0        	0.918367	0.918367
389 	2     	0.918367	0        	0.918367	0.918367
390 	2     	0.918367	0        	0.918367	0.918367
391 	2     	0.918367	0        	0.918367	0.918367
392 	2     	0.918367	0        	0.918367	0.918367
393 	2     	0.918367	0        	0.918367	0.918367
394 	2     	0.918367	0        	0.918367	0.918367
395 	2     	0.918367	0        	0.918367	0.918367
396 	2     	0.918367	0        	0.918367	0.918367
397 	2     	0.918367	0        	0.918367	0.918367
398 	2     	0.918367	0        	0.918367	0.918367
399 	2     	0.918367	0        	0.918367	0.918367
400 	2     	0.918367	0        	0.918367	0.918367
401 	2     	0.918367	0        	0.918367	0.918367
402 	2     	0.918367	0        	0.918367	0.918367
403 	2     	0.918367	0        	0.918367	0.918367
404 	2     	0.918367	0        	0.918367	0.918367
405 	2     	0.918367	0        	0.918367	0.918367
406 	2     	0.918367	0        	0.918367	0.918367
407 	2     	0.918367	0        	0.918367	0.918367
408 	2     	0.918367	0        	0.918367	0.918367
409 	2     	0.918367	0        	0.918367	0.918367
410 	2     	0.918367	0        	0.918367	0.918367
411 	2     	0.918367	0        	0.918367	0.918367
412 	2     	0.918367	0        	0.918367	0.918367
413 	2     	0.918367	0        	0.918367	0.918367
414 	2     	0.918367	0        	0.918367	0.918367
415 	2     	0.918367	0        	0.918367	0.918367
416 	2     	0.918367	0        	0.918367	0.918367
417 	2     	0.918367	0        	0.918367	0.918367
418 	2     	0.918367	0        	0.918367	0.918367
419 	2     	0.918367	0        	0.918367	0.918367
420 	2     	0.918367	0        	0.918367	0.918367
421 	2     	0.918367	0        	0.918367	0.918367
422 	2     	0.918367	0        	0.918367	0.918367
423 	2     	0.918367	0        	0.918367	0.918367
424 	2     	0.918367	0        	0.918367	0.918367
425 	2     	0.918367	0        	0.918367	0.918367
426 	2     	0.918367	0        	0.918367	0.918367
427 	2     	0.918367	0        	0.918367	0.918367
428 	2     	0.918367	0        	0.918367	0.918367
429 	2     	0.918367	0        	0.918367	0.918367
430 	2     	0.918367	0        	0.918367	0.918367
431 	2     	0.918367	0        	0.918367	0.918367
432 	2     	0.918367	0        	0.918367	0.918367
433 	2     	0.918367	0        	0.918367	0.918367
434 	2     	0.918367	0        	0.918367	0.918367
435 	2     	0.918367	0        	0.918367	0.918367
436 	2     	0.918367	0        	0.918367	0.918367
437 	2     	0.918367	0        	0.918367	0.918367
438 	2     	0.918367	0        	0.918367	0.918367
439 	2     	0.918367	0        	0.918367	0.918367
440 	2     	0.918367	0        	0.918367	0.918367
441 	2     	0.918367	0        	0.918367	0.918367
442 	2     	0.918367	0        	0.918367	0.918367
443 	2     	0.918367	0        	0.918367	0.918367
444 	2     	0.918367	0        	0.918367	0.918367
445 	2     	0.918367	0        	0.918367	0.918367
446 	2     	0.918367	0        	0.918367	0.918367
447 	2     	0.918367	0        	0.918367	0.918367
448 	2     	0.918367	0        	0.918367	0.918367
449 	2     	0.918367	0        	0.918367	0.918367
450 	2     	0.918367	0        	0.918367	0.918367
451 	2     	0.918367	0        	0.918367	0.918367
452 	2     	0.918367	0        	0.918367	0.918367
453 	2     	0.918367	0        	0.918367	0.918367
454 	2     	0.918367	0        	0.918367	0.918367
455 	2     	0.918367	0        	0.918367	0.918367
456 	2     	0.918367	0        	0.918367	0.918367
457 	2     	0.918367	0        	0.918367	0.918367
458 	2     	0.918367	0        	0.918367	0.918367
459 	2     	0.918367	0        	0.918367	0.918367
460 	2     	0.918367	0        	0.918367	0.918367
461 	2     	0.918367	0        	0.918367	0.918367
462 	2     	0.918367	0        	0.918367	0.918367
463 	2     	0.918367	0        	0.918367	0.918367
464 	2     	0.918367	0        	0.918367	0.918367
465 	2     	0.918367	0        	0.918367	0.918367
466 	2     	0.918367	0        	0.918367	0.918367
467 	2     	0.918367	0        	0.918367	0.918367
468 	2     	0.918367	0        	0.918367	0.918367
469 	2     	0.918367	0        	0.918367	0.918367
470 	2     	0.918367	0        	0.918367	0.918367
471 	2     	0.918367	0        	0.918367	0.918367
472 	2     	0.918367	0        	0.918367	0.918367
473 	2     	0.918367	0        	0.918367	0.918367
474 	2     	0.918367	0        	0.918367	0.918367
475 	2     	0.918367	0        	0.918367	0.918367
476 	2     	0.918367	0        	0.918367	0.918367
477 	2     	0.918367	0        	0.918367	0.918367
478 	2     	0.918367	0        	0.918367	0.918367
479 	2     	0.918367	0        	0.918367	0.918367
480 	2     	0.918367	0        	0.918367	0.918367
481 	2     	0.918367	0        	0.918367	0.918367
482 	2     	0.918367	0        	0.918367	0.918367
483 	2     	0.918367	0        	0.918367	0.918367
484 	2     	0.918367	0        	0.918367	0.918367
485 	2     	0.918367	0        	0.918367	0.918367
486 	2     	0.918367	0        	0.918367	0.918367
487 	2     	0.918367	0        	0.918367	0.918367
488 	2     	0.918367	0        	0.918367	0.918367
489 	2     	0.918367	0        	0.918367	0.918367
490 	2     	0.918367	0        	0.918367	0.918367
491 	2     	0.918367	0        	0.918367	0.918367
492 	2     	0.918367	0        	0.918367	0.918367
493 	2     	0.918367	0        	0.918367	0.918367
494 	2     	0.918367	0        	0.918367	0.918367
495 	2     	0.918367	0        	0.918367	0.918367
496 	2     	0.918367	0        	0.918367	0.918367
497 	2     	0.918367	0        	0.918367	0.918367
498 	2     	0.918367	0        	0.918367	0.918367
499 	2     	0.918367	0        	0.918367	0.918367
500 	2     	0.918367	0        	0.918367	0.918367
501 	2     	0.918367	0        	0.918367	0.918367
502 	2     	0.918367	0        	0.918367	0.918367
503 	2     	0.918367	0        	0.918367	0.918367
504 	2     	0.918367	0        	0.918367	0.918367
505 	2     	0.918367	0        	0.918367	0.918367
506 	2     	0.918367	0        	0.918367	0.918367
507 	2     	0.918367	0        	0.918367	0.918367
508 	2     	0.918367	0        	0.918367	0.918367
509 	2     	0.918367	0        	0.918367	0.918367
510 	2     	0.918367	0        	0.918367	0.918367
511 	2     	0.918367	0        	0.918367	0.918367
512 	2     	0.918367	0        	0.918367	0.918367
513 	2     	0.918367	0        	0.918367	0.918367
514 	2     	0.918367	0        	0.918367	0.918367
515 	2     	0.918367	0        	0.918367	0.918367
516 	2     	0.918367	0        	0.918367	0.918367
517 	2     	0.918367	0        	0.918367	0.918367
518 	2     	0.918367	0        	0.918367	0.918367
519 	2     	0.918367	0        	0.918367	0.918367
520 	2     	0.918367	0        	0.918367	0.918367
521 	2     	0.918367	0        	0.918367	0.918367
522 	2     	0.918367	0        	0.918367	0.918367
523 	2     	0.918367	0        	0.918367	0.918367
524 	2     	0.918367	0        	0.918367	0.918367
525 	2     	0.918367	0        	0.918367	0.918367
526 	2     	0.918367	0        	0.918367	0.918367
527 	2     	0.918367	0        	0.918367	0.918367
528 	2     	0.918367	0        	0.918367	0.918367
529 	2     	0.918367	0        	0.918367	0.918367
530 	2     	0.918367	0        	0.918367	0.918367
531 	2     	0.918367	0        	0.918367	0.918367
532 	2     	0.918367	0        	0.918367	0.918367
533 	2     	0.918367	0        	0.918367	0.918367
534 	2     	0.918367	0        	0.918367	0.918367
535 	2     	0.918367	0        	0.918367	0.918367
536 	2     	0.918367	0        	0.918367	0.918367
537 	2     	0.918367	0        	0.918367	0.918367
538 	2     	0.918367	0        	0.918367	0.918367
539 	2     	0.918367	0        	0.918367	0.918367
540 	2     	0.918367	0        	0.918367	0.918367
541 	2     	0.918367	0        	0.918367	0.918367
542 	2     	0.918367	0        	0.918367	0.918367
543 	2     	0.918367	0        	0.918367	0.918367
544 	2     	0.918367	0        	0.918367	0.918367
545 	2     	0.918367	0        	0.918367	0.918367
546 	2     	0.918367	0        	0.918367	0.918367
547 	2     	0.918367	0        	0.918367	0.918367
548 	2     	0.918367	0        	0.918367	0.918367
549 	2     	0.918367	0        	0.918367	0.918367
550 	2     	0.918367	0        	0.918367	0.918367
551 	2     	0.918367	0        	0.918367	0.918367
552 	2     	0.918367	0        	0.918367	0.918367
553 	2     	0.918367	0        	0.918367	0.918367
554 	2     	0.918367	0        	0.918367	0.918367
555 	2     	0.918367	0        	0.918367	0.918367
556 	2     	0.918367	0        	0.918367	0.918367
557 	2     	0.918367	0        	0.918367	0.918367
558 	2     	0.918367	0        	0.918367	0.918367
559 	2     	0.918367	0        	0.918367	0.918367
560 	2     	0.918367	0        	0.918367	0.918367
561 	2     	0.918367	0        	0.918367	0.918367
562 	2     	0.918367	0        	0.918367	0.918367
563 	2     	0.918367	0        	0.918367	0.918367
564 	2     	0.918367	0        	0.918367	0.918367
565 	2     	0.918367	0        	0.918367	0.918367
566 	2     	0.918367	0        	0.918367	0.918367
567 	2     	0.918367	0        	0.918367	0.918367
568 	2     	0.918367	0        	0.918367	0.918367
569 	2     	0.918367	0        	0.918367	0.918367
570 	2     	0.918367	0        	0.918367	0.918367
571 	2     	0.918367	0        	0.918367	0.918367
572 	2     	0.918367	0        	0.918367	0.918367
573 	2     	0.918367	0        	0.918367	0.918367
574 	2     	0.918367	0        	0.918367	0.918367
575 	2     	0.918367	0        	0.918367	0.918367
576 	2     	0.918367	0        	0.918367	0.918367
577 	2     	0.918367	0        	0.918367	0.918367
578 	2     	0.918367	0        	0.918367	0.918367
579 	2     	0.918367	0        	0.918367	0.918367
580 	2     	0.918367	0        	0.918367	0.918367
581 	2     	0.918367	0        	0.918367	0.918367
582 	2     	0.918367	0        	0.918367	0.918367
583 	2     	0.918367	0        	0.918367	0.918367
584 	2     	0.918367	0        	0.918367	0.918367
585 	2     	0.918367	0        	0.918367	0.918367
586 	2     	0.918367	0        	0.918367	0.918367
587 	2     	0.918367	0        	0.918367	0.918367
588 	2     	0.918367	0        	0.918367	0.918367
589 	2     	0.918367	0        	0.918367	0.918367
590 	2     	0.918367	0        	0.918367	0.918367
591 	2     	0.918367	0        	0.918367	0.918367
592 	2     	0.918367	0        	0.918367	0.918367
593 	2     	0.918367	0        	0.918367	0.918367
594 	2     	0.918367	0        	0.918367	0.918367
595 	2     	0.918367	0        	0.918367	0.918367
596 	2     	0.918367	0        	0.918367	0.918367
597 	2     	0.918367	0        	0.918367	0.918367
598 	2     	0.918367	0        	0.918367	0.918367
599 	2     	0.918367	0        	0.918367	0.918367
600 	2     	0.918367	0        	0.918367	0.918367
601 	2     	0.918367	0        	0.918367	0.918367
602 	2     	0.918367	0        	0.918367	0.918367
603 	2     	0.918367	0        	0.918367	0.918367
604 	2     	0.918367	0        	0.918367	0.918367
605 	2     	0.918367	0        	0.918367	0.918367
606 	2     	0.918367	0        	0.918367	0.918367
607 	2     	0.918367	0        	0.918367	0.918367
608 	2     	0.918367	0        	0.918367	0.918367
609 	2     	0.918367	0        	0.918367	0.918367
610 	2     	0.918367	0        	0.918367	0.918367
611 	2     	0.918367	0        	0.918367	0.918367
612 	2     	0.918367	0        	0.918367	0.918367
613 	2     	0.918367	0        	0.918367	0.918367
614 	2     	0.918367	0        	0.918367	0.918367
615 	2     	0.918367	0        	0.918367	0.918367
616 	2     	0.918367	0        	0.918367	0.918367
617 	2     	0.918367	0        	0.918367	0.918367
618 	2     	0.918367	0        	0.918367	0.918367
619 	2     	0.918367	0        	0.918367	0.918367
620 	2     	0.918367	0        	0.918367	0.918367
621 	2     	0.918367	0        	0.918367	0.918367
622 	2     	0.918367	0        	0.918367	0.918367
623 	2     	0.918367	0        	0.918367	0.918367
624 	2     	0.918367	0        	0.918367	0.918367
625 	2     	0.918367	0        	0.918367	0.918367
626 	2     	0.918367	0        	0.918367	0.918367
627 	2     	0.918367	0        	0.918367	0.918367
628 	2     	0.918367	0        	0.918367	0.918367
629 	2     	0.918367	0        	0.918367	0.918367
630 	2     	0.918367	0        	0.918367	0.918367
631 	2     	0.918367	0        	0.918367	0.918367
632 	2     	0.918367	0        	0.918367	0.918367
633 	2     	0.918367	0        	0.918367	0.918367
634 	2     	0.918367	0        	0.918367	0.918367
635 	2     	0.918367	0        	0.918367	0.918367
636 	2     	0.918367	0        	0.918367	0.918367
637 	2     	0.918367	0        	0.918367	0.918367
638 	2     	0.918367	0        	0.918367	0.918367
639 	2     	0.918367	0        	0.918367	0.918367
640 	2     	0.918367	0        	0.918367	0.918367
641 	2     	0.918367	0        	0.918367	0.918367
642 	2     	0.918367	0        	0.918367	0.918367
643 	2     	0.918367	0        	0.918367	0.918367
644 	2     	0.918367	0        	0.918367	0.918367
645 	2     	0.918367	0        	0.918367	0.918367
646 	2     	0.918367	0        	0.918367	0.918367
647 	2     	0.918367	0        	0.918367	0.918367
648 	2     	0.918367	0        	0.918367	0.918367
649 	2     	0.918367	0        	0.918367	0.918367
650 	2     	0.918367	0        	0.918367	0.918367
651 	2     	0.918367	0        	0.918367	0.918367
652 	2     	0.918367	0        	0.918367	0.918367
653 	2     	0.918367	0        	0.918367	0.918367
654 	2     	0.918367	0        	0.918367	0.918367
655 	2     	0.918367	0        	0.918367	0.918367
656 	2     	0.918367	0        	0.918367	0.918367
657 	2     	0.918367	0        	0.918367	0.918367
658 	2     	0.918367	0        	0.918367	0.918367
659 	2     	0.918367	0        	0.918367	0.918367
660 	2     	0.918367	0        	0.918367	0.918367
661 	2     	0.918367	0        	0.918367	0.918367
662 	2     	0.918367	0        	0.918367	0.918367
663 	2     	0.918367	0        	0.918367	0.918367
664 	2     	0.918367	0        	0.918367	0.918367
665 	2     	0.918367	0        	0.918367	0.918367
666 	2     	0.918367	0        	0.918367	0.918367
667 	2     	0.928571	0.0102041	0.918367	0.938776
668 	2     	0.928571	0.0102041	0.918367	0.938776
669 	2     	0.928571	0.0102041	0.918367	0.938776
670 	2     	0.928571	0.0102041	0.918367	0.938776
671 	2     	0.928571	0.0102041	0.918367	0.938776
672 	2     	0.928571	0.0102041	0.918367	0.938776
673 	2     	0.928571	0.0102041	0.918367	0.938776
674 	2     	0.928571	0.0102041	0.918367	0.938776
675 	2     	0.928571	0.0102041	0.918367	0.938776
676 	2     	0.928571	0.0102041	0.918367	0.938776
677 	2     	0.928571	0.0102041	0.918367	0.938776
678 	2     	0.928571	0.0102041	0.918367	0.938776
679 	2     	0.928571	0.0102041	0.918367	0.938776
680 	2     	0.928571	0.0102041	0.918367	0.938776
681 	2     	0.928571	0.0102041	0.918367	0.938776
682 	2     	0.928571	0.0102041	0.918367	0.938776
683 	2     	0.928571	0.0102041	0.918367	0.938776
684 	2     	0.928571	0.0102041	0.918367	0.938776
685 	2     	0.928571	0.0102041	0.918367	0.938776
686 	2     	0.928571	0.0102041	0.918367	0.938776
687 	2     	0.928571	0.0102041	0.918367	0.938776
688 	2     	0.928571	0.0102041	0.918367	0.938776
689 	2     	0.928571	0.0102041	0.918367	0.938776
690 	2     	0.928571	0.0102041	0.918367	0.938776
691 	2     	0.928571	0.0102041	0.918367	0.938776
692 	2     	0.928571	0.0102041	0.918367	0.938776
693 	2     	0.928571	0.0102041	0.918367	0.938776
694 	2     	0.928571	0.0102041	0.918367	0.938776
695 	2     	0.928571	0.0102041	0.918367	0.938776
696 	2     	0.928571	0.0102041	0.918367	0.938776
697 	2     	0.928571	0.0102041	0.918367	0.938776
698 	2     	0.928571	0.0102041	0.918367	0.938776
699 	2     	0.928571	0.0102041	0.918367	0.938776
700 	2     	0.928571	0.0102041	0.918367	0.938776
701 	2     	0.928571	0.0102041	0.918367	0.938776
702 	2     	0.928571	0.0102041	0.918367	0.938776
703 	2     	0.928571	0.0102041	0.918367	0.938776
704 	2     	0.928571	0.0102041	0.918367	0.938776
705 	2     	0.928571	0.0102041	0.918367	0.938776
706 	2     	0.928571	0.0102041	0.918367	0.938776
707 	2     	0.928571	0.0102041	0.918367	0.938776
708 	2     	0.928571	0.0102041	0.918367	0.938776
709 	2     	0.928571	0.0102041	0.918367	0.938776
710 	2     	0.928571	0.0102041	0.918367	0.938776
711 	2     	0.928571	0.0102041	0.918367	0.938776
712 	2     	0.938776	0        	0.938776	0.938776
713 	2     	0.938776	0        	0.938776	0.938776
714 	2     	0.938776	0        	0.938776	0.938776
715 	2     	0.938776	0        	0.938776	0.938776
716 	2     	0.938776	0        	0.938776	0.938776
717 	2     	0.938776	0        	0.938776	0.938776
718 	2     	0.938776	0        	0.938776	0.938776
719 	2     	0.938776	0        	0.938776	0.938776
720 	2     	0.938776	0        	0.938776	0.938776
721 	2     	0.938776	0        	0.938776	0.938776
722 	2     	0.938776	0        	0.938776	0.938776
723 	2     	0.938776	0        	0.938776	0.938776
724 	2     	0.938776	0        	0.938776	0.938776
725 	2     	0.938776	0        	0.938776	0.938776
726 	2     	0.938776	0        	0.938776	0.938776
727 	2     	0.938776	0        	0.938776	0.938776
728 	2     	0.938776	0        	0.938776	0.938776
729 	2     	0.938776	0        	0.938776	0.938776
730 	2     	0.938776	0        	0.938776	0.938776
731 	2     	0.938776	0        	0.938776	0.938776
732 	2     	0.938776	0        	0.938776	0.938776
733 	2     	0.938776	0        	0.938776	0.938776
734 	2     	0.938776	0        	0.938776	0.938776
735 	2     	0.938776	0        	0.938776	0.938776
736 	2     	0.938776	0        	0.938776	0.938776
737 	2     	0.938776	0        	0.938776	0.938776
738 	2     	0.938776	0        	0.938776	0.938776
739 	2     	0.938776	0        	0.938776	0.938776
740 	2     	0.938776	0        	0.938776	0.938776
741 	2     	0.938776	0        	0.938776	0.938776
742 	2     	0.938776	0        	0.938776	0.938776
743 	2     	0.938776	0        	0.938776	0.938776
744 	2     	0.938776	0        	0.938776	0.938776
745 	2     	0.938776	0        	0.938776	0.938776
746 	2     	0.938776	0        	0.938776	0.938776
747 	2     	0.938776	0        	0.938776	0.938776
748 	2     	0.938776	0        	0.938776	0.938776
749 	2     	0.938776	0        	0.938776	0.938776
750 	2     	0.938776	0        	0.938776	0.938776
751 	2     	0.938776	0        	0.938776	0.938776
752 	2     	0.938776	0        	0.938776	0.938776
753 	2     	0.938776	0        	0.938776	0.938776
754 	2     	0.938776	0        	0.938776	0.938776
755 	2     	0.938776	0        	0.938776	0.938776
756 	2     	0.938776	0        	0.938776	0.938776
757 	2     	0.938776	0        	0.938776	0.938776
758 	2     	0.938776	0        	0.938776	0.938776
759 	2     	0.938776	0        	0.938776	0.938776
760 	2     	0.938776	0        	0.938776	0.938776
761 	2     	0.938776	0        	0.938776	0.938776
762 	2     	0.938776	0        	0.938776	0.938776
763 	2     	0.938776	0        	0.938776	0.938776
764 	2     	0.938776	0        	0.938776	0.938776
765 	2     	0.938776	0        	0.938776	0.938776
766 	2     	0.938776	0        	0.938776	0.938776
767 	2     	0.938776	0        	0.938776	0.938776
768 	2     	0.938776	0        	0.938776	0.938776
769 	2     	0.938776	0        	0.938776	0.938776
770 	2     	0.938776	0        	0.938776	0.938776
771 	2     	0.938776	0        	0.938776	0.938776
772 	2     	0.938776	0        	0.938776	0.938776
773 	2     	0.94898 	0.0102041	0.938776	0.959184
774 	2     	0.94898 	0.0102041	0.938776	0.959184
775 	2     	0.94898 	0.0102041	0.938776	0.959184
776 	2     	0.94898 	0.0102041	0.938776	0.959184
777 	2     	0.94898 	0.0102041	0.938776	0.959184
778 	2     	0.94898 	0.0102041	0.938776	0.959184
779 	2     	0.94898 	0.0102041	0.938776	0.959184
780 	2     	0.94898 	0.0102041	0.938776	0.959184
781 	2     	0.94898 	0.0102041	0.938776	0.959184
782 	2     	0.94898 	0.0102041	0.938776	0.959184
783 	2     	0.94898 	0.0102041	0.938776	0.959184
784 	2     	0.94898 	0.0102041	0.938776	0.959184
785 	2     	0.94898 	0.0102041	0.938776	0.959184
786 	2     	0.94898 	0.0102041	0.938776	0.959184
787 	2     	0.94898 	0.0102041	0.938776	0.959184
788 	2     	0.94898 	0.0102041	0.938776	0.959184
789 	2     	0.94898 	0.0102041	0.938776	0.959184
790 	2     	0.94898 	0.0102041	0.938776	0.959184
791 	2     	0.94898 	0.0102041	0.938776	0.959184
792 	2     	0.94898 	0.0102041	0.938776	0.959184
793 	2     	0.94898 	0.0102041	0.938776	0.959184
794 	2     	0.94898 	0.0102041	0.938776	0.959184
795 	2     	0.94898 	0.0102041	0.938776	0.959184
796 	2     	0.94898 	0.0102041	0.938776	0.959184
797 	2     	0.94898 	0.0102041	0.938776	0.959184
798 	2     	0.94898 	0.0102041	0.938776	0.959184
799 	2     	0.94898 	0.0102041	0.938776	0.959184
800 	2     	0.94898 	0.0102041	0.938776	0.959184
801 	2     	0.94898 	0.0102041	0.938776	0.959184
802 	2     	0.94898 	0.0102041	0.938776	0.959184
803 	2     	0.94898 	0.0102041	0.938776	0.959184
804 	2     	0.94898 	0.0102041	0.938776	0.959184
805 	2     	0.94898 	0.0102041	0.938776	0.959184
806 	2     	0.94898 	0.0102041	0.938776	0.959184
807 	2     	0.94898 	0.0102041	0.938776	0.959184
808 	2     	0.94898 	0.0102041	0.938776	0.959184
809 	2     	0.94898 	0.0102041	0.938776	0.959184
810 	2     	0.94898 	0.0102041	0.938776	0.959184
811 	2     	0.94898 	0.0102041	0.938776	0.959184
812 	2     	0.94898 	0.0102041	0.938776	0.959184
813 	2     	0.94898 	0.0102041	0.938776	0.959184
814 	2     	0.94898 	0.0102041	0.938776	0.959184
815 	2     	0.94898 	0.0102041	0.938776	0.959184
816 	2     	0.94898 	0.0102041	0.938776	0.959184
817 	2     	0.94898 	0.0102041	0.938776	0.959184
818 	2     	0.94898 	0.0102041	0.938776	0.959184
819 	2     	0.94898 	0.0102041	0.938776	0.959184
820 	2     	0.94898 	0.0102041	0.938776	0.959184
821 	2     	0.94898 	0.0102041	0.938776	0.959184
822 	2     	0.94898 	0.0102041	0.938776	0.959184
823 	2     	0.94898 	0.0102041	0.938776	0.959184
824 	2     	0.94898 	0.0102041	0.938776	0.959184
825 	2     	0.94898 	0.0102041	0.938776	0.959184
826 	2     	0.94898 	0.0102041	0.938776	0.959184
827 	2     	0.94898 	0.0102041	0.938776	0.959184
828 	2     	0.94898 	0.0102041	0.938776	0.959184
829 	2     	0.94898 	0.0102041	0.938776	0.959184
830 	2     	0.94898 	0.0102041	0.938776	0.959184
831 	2     	0.94898 	0.0102041	0.938776	0.959184
832 	2     	0.94898 	0.0102041	0.938776	0.959184
833 	2     	0.94898 	0.0102041	0.938776	0.959184
834 	2     	0.94898 	0.0102041	0.938776	0.959184
835 	2     	0.959184	0        	0.959184	0.959184
836 	2     	0.959184	0        	0.959184	0.959184
837 	2     	0.959184	0        	0.959184	0.959184
838 	2     	0.959184	0        	0.959184	0.959184
839 	2     	0.959184	0        	0.959184	0.959184
840 	2     	0.959184	0        	0.959184	0.959184
841 	2     	0.959184	0        	0.959184	0.959184
842 	2     	0.959184	0        	0.959184	0.959184
843 	2     	0.959184	0        	0.959184	0.959184
844 	2     	0.959184	0        	0.959184	0.959184
845 	2     	0.959184	0        	0.959184	0.959184
846 	2     	0.959184	0        	0.959184	0.959184
847 	2     	0.959184	0        	0.959184	0.959184
848 	2     	0.959184	0        	0.959184	0.959184
849 	2     	0.959184	0        	0.959184	0.959184
850 	2     	0.959184	0        	0.959184	0.959184
851 	2     	0.959184	0        	0.959184	0.959184
852 	2     	0.959184	0        	0.959184	0.959184
853 	2     	0.959184	0        	0.959184	0.959184
854 	2     	0.959184	0        	0.959184	0.959184
855 	2     	0.959184	0        	0.959184	0.959184
856 	2     	0.959184	0        	0.959184	0.959184
857 	2     	0.959184	0        	0.959184	0.959184
858 	2     	0.959184	0        	0.959184	0.959184
859 	2     	0.959184	0        	0.959184	0.959184
860 	2     	0.959184	0        	0.959184	0.959184
861 	2     	0.959184	0        	0.959184	0.959184
862 	2     	0.959184	0        	0.959184	0.959184
863 	2     	0.959184	0        	0.959184	0.959184
864 	2     	0.959184	0        	0.959184	0.959184
865 	2     	0.959184	0        	0.959184	0.959184
866 	2     	0.959184	0        	0.959184	0.959184
867 	2     	0.959184	0        	0.959184	0.959184
868 	2     	0.959184	0        	0.959184	0.959184
869 	2     	0.959184	0        	0.959184	0.959184
870 	2     	0.959184	0        	0.959184	0.959184
871 	2     	0.959184	0        	0.959184	0.959184
872 	2     	0.959184	0        	0.959184	0.959184
873 	2     	0.959184	0        	0.959184	0.959184
874 	2     	0.959184	0        	0.959184	0.959184
875 	2     	0.959184	0        	0.959184	0.959184
876 	2     	0.959184	0        	0.959184	0.959184
877 	2     	0.959184	0        	0.959184	0.959184
878 	2     	0.959184	0        	0.959184	0.959184
879 	2     	0.959184	0        	0.959184	0.959184
880 	2     	0.959184	0        	0.959184	0.959184
881 	2     	0.959184	0        	0.959184	0.959184
882 	2     	0.959184	0        	0.959184	0.959184
883 	2     	0.959184	0        	0.959184	0.959184
884 	2     	0.959184	0        	0.959184	0.959184
885 	2     	0.959184	0        	0.959184	0.959184
886 	2     	0.959184	0        	0.959184	0.959184
887 	2     	0.959184	0        	0.959184	0.959184
888 	2     	0.959184	0        	0.959184	0.959184
889 	2     	0.959184	0        	0.959184	0.959184
890 	2     	0.959184	0        	0.959184	0.959184
891 	2     	0.959184	0        	0.959184	0.959184
892 	2     	0.959184	0        	0.959184	0.959184
893 	2     	0.959184	0        	0.959184	0.959184
894 	2     	0.959184	0        	0.959184	0.959184
895 	2     	0.959184	0        	0.959184	0.959184
896 	2     	0.959184	0        	0.959184	0.959184
897 	2     	0.959184	0        	0.959184	0.959184
898 	2     	0.959184	0        	0.959184	0.959184
899 	2     	0.959184	0        	0.959184	0.959184
900 	2     	0.959184	0        	0.959184	0.959184
901 	2     	0.959184	0        	0.959184	0.959184
902 	2     	0.959184	0        	0.959184	0.959184
903 	2     	0.959184	0        	0.959184	0.959184
904 	2     	0.959184	0        	0.959184	0.959184
905 	2     	0.959184	0        	0.959184	0.959184
906 	2     	0.959184	0        	0.959184	0.959184
907 	2     	0.959184	0        	0.959184	0.959184
908 	2     	0.959184	0        	0.959184	0.959184
909 	2     	0.959184	0        	0.959184	0.959184
910 	2     	0.959184	0        	0.959184	0.959184
911 	2     	0.959184	0        	0.959184	0.959184
912 	2     	0.959184	0        	0.959184	0.959184
913 	2     	0.959184	0        	0.959184	0.959184
914 	2     	0.959184	0        	0.959184	0.959184
915 	2     	0.959184	0        	0.959184	0.959184
916 	2     	0.959184	0        	0.959184	0.959184
917 	2     	0.959184	0        	0.959184	0.959184
918 	2     	0.959184	0        	0.959184	0.959184
919 	2     	0.959184	0        	0.959184	0.959184
920 	2     	0.959184	0        	0.959184	0.959184
921 	2     	0.959184	0        	0.959184	0.959184
922 	2     	0.959184	0        	0.959184	0.959184
923 	2     	0.959184	0        	0.959184	0.959184
924 	2     	0.959184	0        	0.959184	0.959184
925 	2     	0.959184	0        	0.959184	0.959184
926 	2     	0.959184	0        	0.959184	0.959184
927 	2     	0.959184	0        	0.959184	0.959184
928 	2     	0.959184	0        	0.959184	0.959184
929 	2     	0.959184	0        	0.959184	0.959184
930 	2     	0.959184	0        	0.959184	0.959184
931 	2     	0.959184	0        	0.959184	0.959184
932 	2     	0.959184	0        	0.959184	0.959184
933 	2     	0.959184	0        	0.959184	0.959184
934 	2     	0.959184	0        	0.959184	0.959184
935 	2     	0.959184	0        	0.959184	0.959184
936 	2     	0.959184	0        	0.959184	0.959184
937 	2     	0.959184	0        	0.959184	0.959184
938 	2     	0.959184	0        	0.959184	0.959184
939 	2     	0.959184	0        	0.959184	0.959184
940 	2     	0.959184	0        	0.959184	0.959184
941 	2     	0.959184	0        	0.959184	0.959184
942 	2     	0.959184	0        	0.959184	0.959184
943 	2     	0.959184	0        	0.959184	0.959184
944 	2     	0.959184	0        	0.959184	0.959184
945 	2     	0.959184	0        	0.959184	0.959184
946 	2     	0.959184	0        	0.959184	0.959184
947 	2     	0.959184	0        	0.959184	0.959184
948 	2     	0.959184	0        	0.959184	0.959184
949 	2     	0.959184	0        	0.959184	0.959184
950 	2     	0.959184	0        	0.959184	0.959184
951 	2     	0.959184	0        	0.959184	0.959184
952 	2     	0.959184	0        	0.959184	0.959184
953 	2     	0.959184	0        	0.959184	0.959184
954 	2     	0.959184	0        	0.959184	0.959184
955 	2     	0.959184	0        	0.959184	0.959184
956 	2     	0.959184	0        	0.959184	0.959184
957 	2     	0.959184	0        	0.959184	0.959184
958 	2     	0.959184	0        	0.959184	0.959184
959 	2     	0.959184	0        	0.959184	0.959184
960 	2     	0.959184	0        	0.959184	0.959184
961 	2     	0.959184	0        	0.959184	0.959184
962 	2     	0.959184	0        	0.959184	0.959184
963 	2     	0.959184	0        	0.959184	0.959184
964 	2     	0.959184	0        	0.959184	0.959184
965 	2     	0.959184	0        	0.959184	0.959184
966 	2     	0.959184	0        	0.959184	0.959184
967 	2     	0.959184	0        	0.959184	0.959184
968 	2     	0.959184	0        	0.959184	0.959184
969 	2     	0.959184	0        	0.959184	0.959184
970 	2     	0.959184	0        	0.959184	0.959184
971 	2     	0.959184	0        	0.959184	0.959184
972 	2     	0.959184	0        	0.959184	0.959184
973 	2     	0.959184	0        	0.959184	0.959184
974 	2     	0.959184	0        	0.959184	0.959184
975 	2     	0.959184	0        	0.959184	0.959184
976 	2     	0.959184	0        	0.959184	0.959184
977 	2     	0.959184	0        	0.959184	0.959184
978 	2     	0.959184	0        	0.959184	0.959184
979 	2     	0.959184	0        	0.959184	0.959184
980 	2     	0.959184	0        	0.959184	0.959184
981 	2     	0.959184	0        	0.959184	0.959184
982 	2     	0.969388	0.0102041	0.959184	0.979592
983 	2     	0.969388	0.0102041	0.959184	0.979592
984 	2     	0.969388	0.0102041	0.959184	0.979592
985 	2     	0.969388	0.0102041	0.959184	0.979592
986 	2     	0.969388	0.0102041	0.959184	0.979592
987 	2     	0.969388	0.0102041	0.959184	0.979592
988 	2     	0.969388	0.0102041	0.959184	0.979592
989 	2     	0.969388	0.0102041	0.959184	0.979592
990 	2     	0.969388	0.0102041	0.959184	0.979592
991 	2     	0.969388	0.0102041	0.959184	0.979592
992 	2     	0.969388	0.0102041	0.959184	0.979592
993 	2     	0.969388	0.0102041	0.959184	0.979592
994 	2     	0.969388	0.0102041	0.959184	0.979592
995 	2     	0.969388	0.0102041	0.959184	0.979592
996 	2     	0.969388	0.0102041	0.959184	0.979592
997 	2     	0.969388	0.0102041	0.959184	0.979592
998 	2     	0.969388	0.0102041	0.959184	0.979592
999 	2     	0.969388	0.0102041	0.959184	0.979592
1000	2     	0.969388	0.0102041	0.959184	0.979592
1001	2     	0.969388	0.0102041	0.959184	0.979592
1002	2     	0.969388	0.0102041	0.959184	0.979592
1003	2     	0.969388	0.0102041	0.959184	0.979592
1004	2     	0.969388	0.0102041	0.959184	0.979592
1005	2     	0.969388	0.0102041	0.959184	0.979592
1006	2     	0.969388	0.0102041	0.959184	0.979592
1007	2     	0.969388	0.0102041	0.959184	0.979592
1008	2     	0.969388	0.0102041	0.959184	0.979592
1009	2     	0.969388	0.0102041	0.959184	0.979592
1010	2     	0.969388	0.0102041	0.959184	0.979592
1011	2     	0.969388	0.0102041	0.959184	0.979592
1012	2     	0.969388	0.0102041	0.959184	0.979592
1013	2     	0.969388	0.0102041	0.959184	0.979592
1014	2     	0.969388	0.0102041	0.959184	0.979592
1015	2     	0.969388	0.0102041	0.959184	0.979592
1016	2     	0.969388	0.0102041	0.959184	0.979592
1017	2     	0.969388	0.0102041	0.959184	0.979592
1018	2     	0.969388	0.0102041	0.959184	0.979592
1019	2     	0.969388	0.0102041	0.959184	0.979592
1020	2     	0.969388	0.0102041	0.959184	0.979592
1021	2     	0.969388	0.0102041	0.959184	0.979592
1022	2     	0.969388	0.0102041	0.959184	0.979592
1023	2     	0.969388	0.0102041	0.959184	0.979592
1024	2     	0.969388	0.0102041	0.959184	0.979592
1025	2     	0.969388	0.0102041	0.959184	0.979592
1026	2     	0.969388	0.0102041	0.959184	0.979592
1027	2     	0.969388	0.0102041	0.959184	0.979592
1028	2     	0.969388	0.0102041	0.959184	0.979592
1029	2     	0.969388	0.0102041	0.959184	0.979592
1030	2     	0.969388	0.0102041	0.959184	0.979592
1031	2     	0.969388	0.0102041	0.959184	0.979592
1032	2     	0.969388	0.0102041	0.959184	0.979592
1033	2     	0.969388	0.0102041	0.959184	0.979592
1034	2     	0.969388	0.0102041	0.959184	0.979592
1035	2     	0.969388	0.0102041	0.959184	0.979592
1036	2     	0.969388	0.0102041	0.959184	0.979592
1037	2     	0.969388	0.0102041	0.959184	0.979592
1038	2     	0.969388	0.0102041	0.959184	0.979592
1039	2     	0.969388	0.0102041	0.959184	0.979592
1040	2     	0.969388	0.0102041	0.959184	0.979592
1041	2     	0.969388	0.0102041	0.959184	0.979592
1042	2     	0.969388	0.0102041	0.959184	0.979592
1043	2     	0.969388	0.0102041	0.959184	0.979592
1044	2     	0.969388	0.0102041	0.959184	0.979592
1045	2     	0.969388	0.0102041	0.959184	0.979592
1046	2     	0.969388	0.0102041	0.959184	0.979592
1047	2     	0.969388	0.0102041	0.959184	0.979592
1048	2     	0.969388	0.0102041	0.959184	0.979592
1049	2     	0.969388	0.0102041	0.959184	0.979592
1050	2     	0.969388	0.0102041	0.959184	0.979592
1051	2     	0.969388	0.0102041	0.959184	0.979592
1052	2     	0.969388	0.0102041	0.959184	0.979592
1053	2     	0.969388	0.0102041	0.959184	0.979592
1054	2     	0.969388	0.0102041	0.959184	0.979592
1055	2     	0.969388	0.0102041	0.959184	0.979592
1056	2     	0.969388	0.0102041	0.959184	0.979592
1057	2     	0.969388	0.0102041	0.959184	0.979592
1058	2     	0.969388	0.0102041	0.959184	0.979592
1059	2     	0.969388	0.0102041	0.959184	0.979592
1060	2     	0.969388	0.0102041	0.959184	0.979592
1061	2     	0.969388	0.0102041	0.959184	0.979592
1062	2     	0.969388	0.0102041	0.959184	0.979592
1063	2     	0.969388	0.0102041	0.959184	0.979592
1064	2     	0.969388	0.0102041	0.959184	0.979592
1065	2     	0.969388	0.0102041	0.959184	0.979592
1066	2     	0.969388	0.0102041	0.959184	0.979592
1067	2     	0.969388	0.0102041	0.959184	0.979592
1068	2     	0.969388	0.0102041	0.959184	0.979592
1069	2     	0.969388	0.0102041	0.959184	0.979592
1070	2     	0.969388	0.0102041	0.959184	0.979592
1071	2     	0.969388	0.0102041	0.959184	0.979592
1072	2     	0.969388	0.0102041	0.959184	0.979592
1073	2     	0.969388	0.0102041	0.959184	0.979592
1074	2     	0.969388	0.0102041	0.959184	0.979592
1075	2     	0.969388	0.0102041	0.959184	0.979592
1076	2     	0.969388	0.0102041	0.959184	0.979592
1077	2     	0.969388	0.0102041	0.959184	0.979592
1078	2     	0.969388	0.0102041	0.959184	0.979592
1079	2     	0.969388	0.0102041	0.959184	0.979592
1080	2     	0.969388	0.0102041	0.959184	0.979592
1081	2     	0.969388	0.0102041	0.959184	0.979592
1082	2     	0.969388	0.0102041	0.959184	0.979592
1083	2     	0.969388	0.0102041	0.959184	0.979592
1084	2     	0.969388	0.0102041	0.959184	0.979592
1085	2     	0.969388	0.0102041	0.959184	0.979592
1086	2     	0.969388	0.0102041	0.959184	0.979592
1087	2     	0.969388	0.0102041	0.959184	0.979592
1088	2     	0.969388	0.0102041	0.959184	0.979592
1089	2     	0.969388	0.0102041	0.959184	0.979592
1090	2     	0.969388	0.0102041	0.959184	0.979592
1091	2     	0.969388	0.0102041	0.959184	0.979592
1092	2     	0.969388	0.0102041	0.959184	0.979592
1093	2     	0.969388	0.0102041	0.959184	0.979592
1094	2     	0.969388	0.0102041	0.959184	0.979592
1095	2     	0.969388	0.0102041	0.959184	0.979592
1096	2     	0.969388	0.0102041	0.959184	0.979592
1097	2     	0.969388	0.0102041	0.959184	0.979592
1098	2     	0.969388	0.0102041	0.959184	0.979592
1099	2     	0.969388	0.0102041	0.959184	0.979592
1100	2     	0.969388	0.0102041	0.959184	0.979592
1101	2     	0.969388	0.0102041	0.959184	0.979592
1102	2     	0.969388	0.0102041	0.959184	0.979592
1103	2     	0.969388	0.0102041	0.959184	0.979592
1104	2     	0.969388	0.0102041	0.959184	0.979592
1105	2     	0.969388	0.0102041	0.959184	0.979592
1106	2     	0.969388	0.0102041	0.959184	0.979592
1107	2     	0.969388	0.0102041	0.959184	0.979592
1108	2     	0.969388	0.0102041	0.959184	0.979592
1109	2     	0.969388	0.0102041	0.959184	0.979592
1110	2     	0.969388	0.0102041	0.959184	0.979592
1111	2     	0.969388	0.0102041	0.959184	0.979592
1112	2     	0.969388	0.0102041	0.959184	0.979592
1113	2     	0.969388	0.0102041	0.959184	0.979592
1114	2     	0.969388	0.0102041	0.959184	0.979592
1115	2     	0.969388	0.0102041	0.959184	0.979592
1116	2     	0.969388	0.0102041	0.959184	0.979592
1117	2     	0.969388	0.0102041	0.959184	0.979592
1118	2     	0.969388	0.0102041	0.959184	0.979592
1119	2     	0.969388	0.0102041	0.959184	0.979592
1120	2     	0.969388	0.0102041	0.959184	0.979592
1121	2     	0.969388	0.0102041	0.959184	0.979592
1122	2     	0.969388	0.0102041	0.959184	0.979592
1123	2     	0.969388	0.0102041	0.959184	0.979592
1124	2     	0.969388	0.0102041	0.959184	0.979592
1125	2     	0.969388	0.0102041	0.959184	0.979592
1126	2     	0.969388	0.0102041	0.959184	0.979592
1127	2     	0.969388	0.0102041	0.959184	0.979592
1128	2     	0.969388	0.0102041	0.959184	0.979592
1129	2     	0.969388	0.0102041	0.959184	0.979592
1130	2     	0.969388	0.0102041	0.959184	0.979592
1131	2     	0.969388	0.0102041	0.959184	0.979592
1132	2     	0.969388	0.0102041	0.959184	0.979592
1133	2     	0.969388	0.0102041	0.959184	0.979592
1134	2     	0.969388	0.0102041	0.959184	0.979592
1135	2     	0.969388	0.0102041	0.959184	0.979592
1136	2     	0.969388	0.0102041	0.959184	0.979592
1137	2     	0.969388	0.0102041	0.959184	0.979592
1138	2     	0.969388	0.0102041	0.959184	0.979592
1139	2     	0.969388	0.0102041	0.959184	0.979592
1140	2     	0.969388	0.0102041	0.959184	0.979592
1141	2     	0.969388	0.0102041	0.959184	0.979592
1142	2     	0.969388	0.0102041	0.959184	0.979592
1143	2     	0.969388	0.0102041	0.959184	0.979592
1144	2     	0.969388	0.0102041	0.959184	0.979592
1145	2     	0.969388	0.0102041	0.959184	0.979592
1146	2     	0.969388	0.0102041	0.959184	0.979592
1147	2     	0.969388	0.0102041	0.959184	0.979592
1148	2     	0.969388	0.0102041	0.959184	0.979592
1149	2     	0.969388	0.0102041	0.959184	0.979592
1150	2     	0.969388	0.0102041	0.959184	0.979592
1151	2     	0.969388	0.0102041	0.959184	0.979592
1152	2     	0.969388	0.0102041	0.959184	0.979592
1153	2     	0.969388	0.0102041	0.959184	0.979592
1154	2     	0.969388	0.0102041	0.959184	0.979592
1155	2     	0.969388	0.0102041	0.959184	0.979592
1156	2     	0.969388	0.0102041	0.959184	0.979592
1157	2     	0.969388	0.0102041	0.959184	0.979592
1158	2     	0.969388	0.0102041	0.959184	0.979592
1159	2     	0.969388	0.0102041	0.959184	0.979592
1160	2     	0.969388	0.0102041	0.959184	0.979592
1161	2     	0.969388	0.0102041	0.959184	0.979592
1162	2     	0.969388	0.0102041	0.959184	0.979592
1163	2     	0.969388	0.0102041	0.959184	0.979592
1164	2     	0.969388	0.0102041	0.959184	0.979592
1165	2     	0.969388	0.0102041	0.959184	0.979592
1166	2     	0.969388	0.0102041	0.959184	0.979592
1167	2     	0.979592	0        	0.979592	0.979592
1168	2     	0.979592	0        	0.979592	0.979592
1169	2     	0.979592	0        	0.979592	0.979592
1170	2     	0.979592	0        	0.979592	0.979592
1171	2     	0.979592	0        	0.979592	0.979592
1172	2     	0.979592	0        	0.979592	0.979592
1173	2     	0.979592	0        	0.979592	0.979592
1174	2     	0.979592	0        	0.979592	0.979592
1175	2     	0.979592	0        	0.979592	0.979592
1176	2     	0.979592	0        	0.979592	0.979592
1177	2     	0.979592	0        	0.979592	0.979592
1178	2     	0.979592	0        	0.979592	0.979592
1179	2     	0.979592	0        	0.979592	0.979592
1180	2     	0.979592	0        	0.979592	0.979592
1181	2     	0.979592	0        	0.979592	0.979592
1182	2     	0.979592	0        	0.979592	0.979592
1183	2     	0.979592	0        	0.979592	0.979592
1184	2     	0.979592	0        	0.979592	0.979592
1185	2     	0.979592	0        	0.979592	0.979592
1186	2     	0.979592	0        	0.979592	0.979592
1187	2     	0.979592	0        	0.979592	0.979592
1188	2     	0.979592	0        	0.979592	0.979592
1189	2     	0.979592	0        	0.979592	0.979592
1190	2     	0.979592	0        	0.979592	0.979592
1191	2     	0.979592	0        	0.979592	0.979592
1192	2     	0.979592	0        	0.979592	0.979592
1193	2     	0.979592	0        	0.979592	0.979592
1194	2     	0.979592	0        	0.979592	0.979592
1195	2     	0.979592	0        	0.979592	0.979592
1196	2     	0.979592	0        	0.979592	0.979592
1197	2     	0.979592	0        	0.979592	0.979592
1198	2     	0.979592	0        	0.979592	0.979592
1199	2     	0.979592	0        	0.979592	0.979592
1200	2     	0.979592	0        	0.979592	0.979592
1201	2     	0.979592	0        	0.979592	0.979592
1202	2     	0.979592	0        	0.979592	0.979592
1203	2     	0.979592	0        	0.979592	0.979592
1204	2     	0.979592	0        	0.979592	0.979592
1205	2     	0.979592	0        	0.979592	0.979592
1206	2     	0.979592	0        	0.979592	0.979592
1207	2     	0.979592	0        	0.979592	0.979592
1208	2     	0.979592	0        	0.979592	0.979592
1209	2     	0.979592	0        	0.979592	0.979592
1210	2     	0.979592	0        	0.979592	0.979592
1211	2     	0.979592	0        	0.979592	0.979592
1212	2     	0.979592	0        	0.979592	0.979592
1213	2     	0.979592	0        	0.979592	0.979592
1214	2     	0.979592	0        	0.979592	0.979592
1215	2     	0.979592	0        	0.979592	0.979592
1216	2     	0.979592	0        	0.979592	0.979592
1217	2     	0.979592	0        	0.979592	0.979592
1218	2     	0.979592	0        	0.979592	0.979592
1219	2     	0.979592	0        	0.979592	0.979592
1220	2     	0.979592	0        	0.979592	0.979592
1221	2     	0.979592	0        	0.979592	0.979592
1222	2     	0.979592	0        	0.979592	0.979592
1223	2     	0.979592	0        	0.979592	0.979592
1224	2     	0.979592	0        	0.979592	0.979592
1225	2     	0.979592	0        	0.979592	0.979592
1226	2     	0.979592	0        	0.979592	0.979592
1227	2     	0.979592	0        	0.979592	0.979592
1228	2     	0.979592	0        	0.979592	0.979592
1229	2     	0.979592	0        	0.979592	0.979592
1230	2     	0.979592	0        	0.979592	0.979592
1231	2     	0.979592	0        	0.979592	0.979592
1232	2     	0.979592	0        	0.979592	0.979592
1233	2     	0.979592	0        	0.979592	0.979592
1234	2     	0.979592	0        	0.979592	0.979592
1235	2     	0.979592	0        	0.979592	0.979592
1236	2     	0.979592	0        	0.979592	0.979592
1237	2     	0.979592	0        	0.979592	0.979592
1238	2     	0.979592	0        	0.979592	0.979592
1239	2     	0.979592	0        	0.979592	0.979592
1240	2     	0.979592	0        	0.979592	0.979592
1241	2     	0.979592	0        	0.979592	0.979592
1242	2     	0.979592	0        	0.979592	0.979592
1243	2     	0.979592	0        	0.979592	0.979592
1244	2     	0.979592	0        	0.979592	0.979592
1245	2     	0.979592	0        	0.979592	0.979592
1246	2     	0.979592	0        	0.979592	0.979592
1247	2     	0.979592	0        	0.979592	0.979592
1248	2     	0.979592	0        	0.979592	0.979592
1249	2     	0.979592	0        	0.979592	0.979592
1250	2     	0.979592	0        	0.979592	0.979592
1251	2     	0.979592	0        	0.979592	0.979592
1252	2     	0.979592	0        	0.979592	0.979592
1253	2     	0.979592	0        	0.979592	0.979592
1254	2     	0.979592	0        	0.979592	0.979592
1255	2     	0.979592	0        	0.979592	0.979592
1256	2     	0.979592	0        	0.979592	0.979592
1257	2     	0.979592	0        	0.979592	0.979592
1258	2     	0.979592	0        	0.979592	0.979592
1259	2     	0.979592	0        	0.979592	0.979592
1260	2     	0.979592	0        	0.979592	0.979592
1261	2     	0.979592	0        	0.979592	0.979592
1262	2     	0.979592	0        	0.979592	0.979592
1263	2     	0.979592	0        	0.979592	0.979592
1264	2     	0.979592	0        	0.979592	0.979592
1265	2     	0.979592	0        	0.979592	0.979592
1266	2     	0.979592	0        	0.979592	0.979592
1267	2     	0.979592	0        	0.979592	0.979592
1268	2     	0.979592	0        	0.979592	0.979592
1269	2     	0.979592	0        	0.979592	0.979592
1270	2     	0.979592	0        	0.979592	0.979592
1271	2     	0.979592	0        	0.979592	0.979592
1272	2     	0.979592	0        	0.979592	0.979592
1273	2     	0.979592	0        	0.979592	0.979592
1274	2     	0.979592	0        	0.979592	0.979592
1275	2     	0.979592	0        	0.979592	0.979592
1276	2     	0.979592	0        	0.979592	0.979592
1277	2     	0.979592	0        	0.979592	0.979592
1278	2     	0.979592	0        	0.979592	0.979592
1279	2     	0.979592	0        	0.979592	0.979592
1280	2     	0.979592	0        	0.979592	0.979592
1281	2     	0.979592	0        	0.979592	0.979592
1282	2     	0.979592	0        	0.979592	0.979592
1283	2     	0.979592	0        	0.979592	0.979592
1284	2     	0.979592	0        	0.979592	0.979592
1285	2     	0.979592	0        	0.979592	0.979592
1286	2     	0.979592	0        	0.979592	0.979592
1287	2     	0.979592	0        	0.979592	0.979592
1288	2     	0.979592	0        	0.979592	0.979592
1289	2     	0.979592	0        	0.979592	0.979592
1290	2     	0.979592	0        	0.979592	0.979592
1291	2     	0.979592	0        	0.979592	0.979592
1292	2     	0.979592	0        	0.979592	0.979592
1293	2     	0.979592	0        	0.979592	0.979592
1294	2     	0.979592	0        	0.979592	0.979592
1295	2     	0.979592	0        	0.979592	0.979592
1296	2     	0.979592	0        	0.979592	0.979592
1297	2     	0.979592	0        	0.979592	0.979592
1298	2     	0.979592	0        	0.979592	0.979592
1299	2     	0.979592	0        	0.979592	0.979592
1300	2     	0.979592	0        	0.979592	0.979592
1301	2     	0.979592	0        	0.979592	0.979592
1302	2     	0.979592	0        	0.979592	0.979592
1303	2     	0.979592	0        	0.979592	0.979592
1304	2     	0.979592	0        	0.979592	0.979592
1305	2     	0.979592	0        	0.979592	0.979592
1306	2     	0.979592	0        	0.979592	0.979592
1307	2     	0.979592	0        	0.979592	0.979592
1308	2     	0.979592	0        	0.979592	0.979592
1309	2     	0.979592	0        	0.979592	0.979592
1310	2     	0.979592	0        	0.979592	0.979592
1311	2     	0.979592	0        	0.979592	0.979592
1312	2     	0.979592	0        	0.979592	0.979592
1313	2     	0.979592	0        	0.979592	0.979592
1314	2     	0.979592	0        	0.979592	0.979592
1315	2     	0.979592	0        	0.979592	0.979592
1316	2     	0.979592	0        	0.979592	0.979592
1317	2     	0.979592	0        	0.979592	0.979592
1318	2     	0.979592	0        	0.979592	0.979592
1319	2     	0.979592	0        	0.979592	0.979592
1320	2     	0.979592	0        	0.979592	0.979592
1321	2     	0.979592	0        	0.979592	0.979592
1322	2     	0.979592	0        	0.979592	0.979592
1323	2     	0.979592	0        	0.979592	0.979592
1324	2     	0.979592	0        	0.979592	0.979592
1325	2     	0.979592	0        	0.979592	0.979592
1326	2     	0.979592	0        	0.979592	0.979592
1327	2     	0.979592	0        	0.979592	0.979592
1328	2     	0.979592	0        	0.979592	0.979592
1329	2     	0.979592	0        	0.979592	0.979592
1330	2     	0.979592	0        	0.979592	0.979592
1331	2     	0.979592	0        	0.979592	0.979592
1332	2     	0.979592	0        	0.979592	0.979592
1333	2     	0.979592	0        	0.979592	0.979592
1334	2     	0.979592	0        	0.979592	0.979592
1335	2     	0.979592	0        	0.979592	0.979592
1336	2     	0.979592	0        	0.979592	0.979592
1337	2     	0.979592	0        	0.979592	0.979592
1338	2     	0.979592	0        	0.979592	0.979592
1339	2     	0.979592	0        	0.979592	0.979592
1340	2     	0.979592	0        	0.979592	0.979592
1341	2     	0.979592	0        	0.979592	0.979592
1342	2     	0.979592	0        	0.979592	0.979592
1343	2     	0.979592	0        	0.979592	0.979592
1344	2     	0.979592	0        	0.979592	0.979592
1345	2     	0.979592	0        	0.979592	0.979592
1346	2     	0.979592	0        	0.979592	0.979592
1347	2     	0.979592	0        	0.979592	0.979592
1348	2     	0.979592	0        	0.979592	0.979592
1349	2     	0.979592	0        	0.979592	0.979592
1350	2     	0.979592	0        	0.979592	0.979592
1351	2     	0.979592	0        	0.979592	0.979592
1352	2     	0.979592	0        	0.979592	0.979592
1353	2     	0.979592	0        	0.979592	0.979592
1354	2     	0.979592	0        	0.979592	0.979592
1355	2     	0.979592	0        	0.979592	0.979592
1356	2     	0.979592	0        	0.979592	0.979592
1357	2     	0.979592	0        	0.979592	0.979592
1358	2     	0.979592	0        	0.979592	0.979592
1359	2     	0.979592	0        	0.979592	0.979592
1360	2     	0.979592	0        	0.979592	0.979592
1361	2     	0.979592	0        	0.979592	0.979592
1362	2     	0.979592	0        	0.979592	0.979592
1363	2     	0.979592	0        	0.979592	0.979592
1364	2     	0.979592	0        	0.979592	0.979592
1365	2     	0.979592	0        	0.979592	0.979592
1366	2     	0.979592	0        	0.979592	0.979592
1367	2     	0.979592	0        	0.979592	0.979592
1368	2     	0.979592	0        	0.979592	0.979592
1369	2     	0.979592	0        	0.979592	0.979592
1370	2     	0.979592	0        	0.979592	0.979592
1371	2     	0.979592	0        	0.979592	0.979592
1372	2     	0.979592	0        	0.979592	0.979592
1373	2     	0.979592	0        	0.979592	0.979592
1374	2     	0.979592	0        	0.979592	0.979592
1375	2     	0.979592	0        	0.979592	0.979592
1376	2     	0.979592	0        	0.979592	0.979592
1377	2     	0.979592	0        	0.979592	0.979592
1378	2     	0.979592	0        	0.979592	0.979592
1379	2     	0.979592	0        	0.979592	0.979592
1380	2     	0.979592	0        	0.979592	0.979592
1381	2     	0.979592	0        	0.979592	0.979592
1382	2     	0.979592	0        	0.979592	0.979592
1383	2     	0.979592	0        	0.979592	0.979592
1384	2     	0.979592	0        	0.979592	0.979592
1385	2     	0.979592	0        	0.979592	0.979592
1386	2     	0.979592	0        	0.979592	0.979592
1387	2     	0.979592	0        	0.979592	0.979592
1388	2     	0.979592	0        	0.979592	0.979592
1389	2     	0.979592	0        	0.979592	0.979592
1390	2     	0.979592	0        	0.979592	0.979592
1391	2     	0.979592	0        	0.979592	0.979592
1392	2     	0.979592	0        	0.979592	0.979592
1393	2     	0.979592	0        	0.979592	0.979592
1394	2     	0.979592	0        	0.979592	0.979592
1395	2     	0.979592	0        	0.979592	0.979592
1396	2     	0.979592	0        	0.979592	0.979592
1397	2     	0.979592	0        	0.979592	0.979592
1398	2     	0.979592	0        	0.979592	0.979592
1399	2     	0.979592	0        	0.979592	0.979592
1400	2     	0.979592	0        	0.979592	0.979592
1401	2     	0.979592	0        	0.979592	0.979592
1402	2     	0.979592	0        	0.979592	0.979592
1403	2     	0.979592	0        	0.979592	0.979592
1404	2     	0.979592	0        	0.979592	0.979592
1405	2     	0.979592	0        	0.979592	0.979592
1406	2     	0.979592	0        	0.979592	0.979592
1407	2     	0.979592	0        	0.979592	0.979592
1408	2     	0.979592	0        	0.979592	0.979592
1409	2     	0.979592	0        	0.979592	0.979592
1410	2     	0.979592	0        	0.979592	0.979592
1411	2     	0.979592	0        	0.979592	0.979592
1412	2     	0.979592	0        	0.979592	0.979592
1413	2     	0.979592	0        	0.979592	0.979592
1414	2     	0.979592	0        	0.979592	0.979592
1415	2     	0.979592	0        	0.979592	0.979592
1416	2     	0.979592	0        	0.979592	0.979592
1417	2     	0.979592	0        	0.979592	0.979592
1418	2     	0.979592	0        	0.979592	0.979592
1419	2     	0.979592	0        	0.979592	0.979592
1420	2     	0.979592	0        	0.979592	0.979592
1421	2     	0.979592	0        	0.979592	0.979592
1422	2     	0.979592	0        	0.979592	0.979592
1423	2     	0.979592	0        	0.979592	0.979592
1424	2     	0.979592	0        	0.979592	0.979592
1425	2     	0.979592	0        	0.979592	0.979592
1426	2     	0.979592	0        	0.979592	0.979592
1427	2     	0.979592	0        	0.979592	0.979592
1428	2     	0.979592	0        	0.979592	0.979592
1429	2     	0.979592	0        	0.979592	0.979592
1430	2     	0.979592	0        	0.979592	0.979592
1431	2     	0.979592	0        	0.979592	0.979592
1432	2     	0.979592	0        	0.979592	0.979592
1433	2     	0.979592	0        	0.979592	0.979592
1434	2     	0.979592	0        	0.979592	0.979592
1435	2     	0.979592	0        	0.979592	0.979592
1436	2     	0.979592	0        	0.979592	0.979592
1437	2     	0.979592	0        	0.979592	0.979592
1438	2     	0.979592	0        	0.979592	0.979592
1439	2     	0.979592	0        	0.979592	0.979592
1440	2     	0.979592	0        	0.979592	0.979592
1441	2     	0.979592	0        	0.979592	0.979592
1442	2     	0.979592	0        	0.979592	0.979592
1443	2     	0.979592	0        	0.979592	0.979592
1444	2     	0.979592	0        	0.979592	0.979592
1445	2     	0.979592	0        	0.979592	0.979592
1446	2     	0.979592	0        	0.979592	0.979592
1447	2     	0.979592	0        	0.979592	0.979592
1448	2     	0.979592	0        	0.979592	0.979592
1449	2     	0.979592	0        	0.979592	0.979592
1450	2     	0.979592	0        	0.979592	0.979592
1451	2     	0.979592	0        	0.979592	0.979592
1452	2     	0.979592	0        	0.979592	0.979592
1453	2     	0.979592	0        	0.979592	0.979592
1454	2     	0.979592	0        	0.979592	0.979592
1455	2     	0.979592	0        	0.979592	0.979592
1456	2     	0.979592	0        	0.979592	0.979592
1457	2     	0.979592	0        	0.979592	0.979592
1458	2     	0.979592	0        	0.979592	0.979592
1459	2     	0.979592	0        	0.979592	0.979592
1460	2     	0.979592	0        	0.979592	0.979592
1461	2     	0.979592	0        	0.979592	0.979592
1462	2     	0.979592	0        	0.979592	0.979592
1463	2     	0.979592	0        	0.979592	0.979592
1464	2     	0.979592	0        	0.979592	0.979592
1465	2     	0.979592	0        	0.979592	0.979592
1466	2     	0.979592	0        	0.979592	0.979592
1467	2     	0.979592	0        	0.979592	0.979592
1468	2     	0.979592	0        	0.979592	0.979592
1469	2     	0.979592	0        	0.979592	0.979592
1470	2     	0.979592	0        	0.979592	0.979592
1471	2     	0.979592	0        	0.979592	0.979592
1472	2     	0.979592	0        	0.979592	0.979592
1473	2     	0.979592	0        	0.979592	0.979592
1474	2     	0.979592	0        	0.979592	0.979592
1475	2     	0.979592	0        	0.979592	0.979592
1476	2     	0.979592	0        	0.979592	0.979592
1477	2     	0.979592	0        	0.979592	0.979592
1478	2     	0.979592	0        	0.979592	0.979592
1479	2     	0.979592	0        	0.979592	0.979592
1480	2     	0.979592	0        	0.979592	0.979592
1481	2     	0.979592	0        	0.979592	0.979592
1482	2     	0.979592	0        	0.979592	0.979592
1483	2     	0.979592	0        	0.979592	0.979592
1484	2     	0.979592	0        	0.979592	0.979592
1485	2     	0.979592	0        	0.979592	0.979592
1486	2     	0.979592	0        	0.979592	0.979592
1487	2     	0.979592	0        	0.979592	0.979592
1488	2     	0.979592	0        	0.979592	0.979592
1489	2     	0.979592	0        	0.979592	0.979592
1490	2     	0.979592	0        	0.979592	0.979592
1491	2     	0.979592	0        	0.979592	0.979592
1492	2     	0.979592	0        	0.979592	0.979592
1493	2     	0.979592	0        	0.979592	0.979592
1494	2     	0.979592	0        	0.979592	0.979592
1495	2     	0.979592	0        	0.979592	0.979592
1496	2     	0.979592	0        	0.979592	0.979592
1497	2     	0.979592	0        	0.979592	0.979592
1498	2     	0.979592	0        	0.979592	0.979592
1499	2     	0.979592	0        	0.979592	0.979592
1500	2     	0.979592	0        	0.979592	0.979592
1501	2     	0.979592	0        	0.979592	0.979592
1502	2     	0.979592	0        	0.979592	0.979592
1503	2     	0.979592	0        	0.979592	0.979592
1504	2     	0.979592	0        	0.979592	0.979592
1505	2     	0.979592	0        	0.979592	0.979592
1506	2     	0.979592	0        	0.979592	0.979592
1507	2     	0.979592	0        	0.979592	0.979592
1508	2     	0.979592	0        	0.979592	0.979592
1509	2     	0.979592	0        	0.979592	0.979592
1510	2     	0.979592	0        	0.979592	0.979592
1511	2     	0.979592	0        	0.979592	0.979592
1512	2     	0.979592	0        	0.979592	0.979592
1513	2     	0.979592	0        	0.979592	0.979592
1514	2     	0.979592	0        	0.979592	0.979592
1515	2     	0.979592	0        	0.979592	0.979592
1516	2     	0.979592	0        	0.979592	0.979592
1517	2     	0.979592	0        	0.979592	0.979592
1518	2     	0.979592	0        	0.979592	0.979592
1519	2     	0.979592	0        	0.979592	0.979592
1520	2     	0.979592	0        	0.979592	0.979592
1521	2     	0.979592	0        	0.979592	0.979592
1522	2     	0.979592	0        	0.979592	0.979592
1523	2     	0.979592	0        	0.979592	0.979592
1524	2     	0.979592	0        	0.979592	0.979592
1525	2     	0.979592	0        	0.979592	0.979592
1526	2     	0.979592	0        	0.979592	0.979592
1527	2     	0.979592	0        	0.979592	0.979592
1528	2     	0.979592	0        	0.979592	0.979592
1529	2     	0.979592	0        	0.979592	0.979592
1530	2     	0.979592	0        	0.979592	0.979592
1531	2     	0.979592	0        	0.979592	0.979592
1532	2     	0.979592	0        	0.979592	0.979592
1533	2     	0.979592	0        	0.979592	0.979592
1534	2     	0.979592	0        	0.979592	0.979592
1535	2     	0.979592	0        	0.979592	0.979592
1536	2     	0.979592	0        	0.979592	0.979592
1537	2     	0.979592	0        	0.979592	0.979592
1538	2     	0.979592	0        	0.979592	0.979592
1539	2     	0.979592	0        	0.979592	0.979592
1540	2     	0.979592	0        	0.979592	0.979592
1541	2     	0.979592	0        	0.979592	0.979592
1542	2     	0.979592	0        	0.979592	0.979592
1543	2     	0.979592	0        	0.979592	0.979592
1544	2     	0.979592	0        	0.979592	0.979592
1545	2     	0.979592	0        	0.979592	0.979592
1546	2     	0.979592	0        	0.979592	0.979592
1547	2     	0.979592	0        	0.979592	0.979592
1548	2     	0.979592	0        	0.979592	0.979592
1549	2     	0.979592	0        	0.979592	0.979592
1550	2     	0.979592	0        	0.979592	0.979592
1551	2     	0.979592	0        	0.979592	0.979592
1552	2     	0.979592	0        	0.979592	0.979592
1553	2     	0.979592	0        	0.979592	0.979592
1554	2     	0.979592	0        	0.979592	0.979592
1555	2     	0.979592	0        	0.979592	0.979592
1556	2     	0.979592	0        	0.979592	0.979592
1557	2     	0.979592	0        	0.979592	0.979592
1558	2     	0.979592	0        	0.979592	0.979592
1559	2     	0.979592	0        	0.979592	0.979592
1560	2     	0.979592	0        	0.979592	0.979592
1561	2     	0.979592	0        	0.979592	0.979592
1562	2     	0.979592	0        	0.979592	0.979592
1563	2     	0.979592	0        	0.979592	0.979592
1564	2     	0.979592	0        	0.979592	0.979592
1565	2     	0.979592	0        	0.979592	0.979592
1566	2     	0.979592	0        	0.979592	0.979592
1567	2     	0.979592	0        	0.979592	0.979592
1568	2     	0.979592	0        	0.979592	0.979592
1569	2     	0.979592	0        	0.979592	0.979592
1570	2     	0.979592	0        	0.979592	0.979592
1571	2     	0.979592	0        	0.979592	0.979592
1572	2     	0.979592	0        	0.979592	0.979592
1573	2     	0.979592	0        	0.979592	0.979592
1574	2     	0.979592	0        	0.979592	0.979592
1575	2     	0.979592	0        	0.979592	0.979592
1576	2     	0.979592	0        	0.979592	0.979592
1577	2     	0.979592	0        	0.979592	0.979592
1578	2     	0.979592	0        	0.979592	0.979592
1579	2     	0.979592	0        	0.979592	0.979592
1580	2     	0.979592	0        	0.979592	0.979592
1581	2     	0.979592	0        	0.979592	0.979592
1582	2     	0.979592	0        	0.979592	0.979592
1583	2     	0.979592	0        	0.979592	0.979592
1584	2     	0.979592	0        	0.979592	0.979592
1585	2     	0.979592	0        	0.979592	0.979592
1586	2     	0.979592	0        	0.979592	0.979592
1587	2     	0.979592	0        	0.979592	0.979592
1588	2     	0.979592	0        	0.979592	0.979592
1589	2     	0.979592	0        	0.979592	0.979592
1590	2     	0.979592	0        	0.979592	0.979592
1591	2     	0.979592	0        	0.979592	0.979592
1592	2     	0.979592	0        	0.979592	0.979592
1593	2     	0.979592	0        	0.979592	0.979592
1594	2     	0.979592	0        	0.979592	0.979592
1595	2     	0.979592	0        	0.979592	0.979592
1596	2     	0.979592	0        	0.979592	0.979592
1597	2     	0.979592	0        	0.979592	0.979592
1598	2     	0.979592	0        	0.979592	0.979592
1599	2     	0.979592	0        	0.979592	0.979592
1600	2     	0.979592	0        	0.979592	0.979592
1601	2     	0.979592	0        	0.979592	0.979592
1602	2     	0.979592	0        	0.979592	0.979592
1603	2     	0.979592	0        	0.979592	0.979592
1604	2     	0.979592	0        	0.979592	0.979592
1605	2     	0.979592	0        	0.979592	0.979592
1606	2     	0.979592	0        	0.979592	0.979592
1607	2     	0.979592	0        	0.979592	0.979592
1608	2     	0.979592	0        	0.979592	0.979592
1609	2     	0.979592	0        	0.979592	0.979592
1610	2     	0.979592	0        	0.979592	0.979592
1611	2     	0.979592	0        	0.979592	0.979592
1612	2     	0.979592	0        	0.979592	0.979592
1613	2     	0.979592	0        	0.979592	0.979592
1614	2     	0.979592	0        	0.979592	0.979592
1615	2     	0.979592	0        	0.979592	0.979592
1616	2     	0.979592	0        	0.979592	0.979592
1617	2     	0.979592	0        	0.979592	0.979592
1618	2     	0.979592	0        	0.979592	0.979592
1619	2     	0.979592	0        	0.979592	0.979592
1620	2     	0.979592	0        	0.979592	0.979592
1621	2     	0.979592	0        	0.979592	0.979592
1622	2     	0.979592	0        	0.979592	0.979592
1623	2     	0.979592	0        	0.979592	0.979592
1624	2     	0.979592	0        	0.979592	0.979592
1625	2     	0.979592	0        	0.979592	0.979592
1626	2     	0.979592	0        	0.979592	0.979592
1627	2     	0.979592	0        	0.979592	0.979592
1628	2     	0.979592	0        	0.979592	0.979592
1629	2     	0.979592	0        	0.979592	0.979592
1630	2     	0.979592	0        	0.979592	0.979592
1631	2     	0.979592	0        	0.979592	0.979592
1632	2     	0.979592	0        	0.979592	0.979592
1633	2     	0.989796	0.0102041	0.979592	1       