gen	nevals	avg    	std    	min   	max   
0  	2     	0.40625	0.09375	0.3125	0.5   
1  	2     	0.5    	0      	0.5   	0.5   
2  	2     	0.5    	0      	0.5   	0.5   
3  	2     	0.5    	0      	0.5   	0.5   
4  	2     	0.5    	0      	0.5   	0.5   
5  	2     	0.53125	0.03125	0.5   	0.5625
6  	2     	0.5625 	0      	0.5625	0.5625
7  	2     	0.5625 	0      	0.5625	0.5625
8  	2     	0.59375	0.03125	0.5625	0.625 
9  	2     	0.59375	0.03125	0.5625	0.625 
10 	2     	0.59375	0.03125	0.5625	0.625 
11 	2     	0.6875 	0.0625 	0.625 	0.75  
12 	2     	0.78125	0.03125	0.75  	0.8125
13 	2     	0.84375	0.03125	0.8125	0.875 
14 	2     	0.84375	0.03125	0.8125	0.875 
15 	2     	0.84375	0.03125	0.8125	0.875 
16 	2     	0.84375	0.03125	0.8125	0.875 
17 	2     	0.84375	0.03125	0.8125	0.875 
18 	2     	0.84375	0.03125	0.8125	0.875 
19 	2     	0.84375	0.03125	0.8125	0.875 
20 	2     	0.84375	0.03125	0.8125	0.875 
21 	2     	0.875  	0      	0.875 	0.875 
22 	2     	0.875  	0      	0.875 	0.875 
23 	2     	0.875  	0      	0.875 	0.875 
24 	2     	0.875  	0      	0.875 	0.875 
25 	2     	0.90625	0.03125	0.875 	0.9375
26 	2     	0.90625	0.03125	0.875 	0.9375
27 	2     	0.9375 	0      	0.9375	0.9375
28 	2     	0.9375 	0      	0.9375	0.9375
29 	2     	0.9375 	0      	0.9375	0.9375
30 	2     	0.9375 	0      	0.9375	0.9375
31 	2     	0.9375 	0      	0.9375	0.9375
32 	2     	0.9375 	0      	0.9375	0.9375
33 	2     	0.9375 	0      	0.9375	0.9375
34 	2     	0.9375 	0      	0.9375	0.9375