gen	nevals	avg     	std      	min     	max     
0  	2     	0.515625	0.03125  	0.484375	0.546875
1  	2     	0.515625	0.03125  	0.484375	0.546875
2  	2     	0.5625  	0.015625 	0.546875	0.578125
3  	2     	0.570312	0.0078125	0.5625  	0.578125
4  	2     	0.601562	0.0234375	0.578125	0.625   
5  	2     	0.648438	0.0234375	0.625   	0.671875
6  	2     	0.648438	0.0234375	0.625   	0.671875
7  	2     	0.648438	0.0234375	0.625   	0.671875
8  	2     	0.648438	0.0234375	0.625   	0.671875
9  	2     	0.648438	0.0234375	0.625   	0.671875
10 	2     	0.671875	0        	0.671875	0.671875
11 	2     	0.671875	0        	0.671875	0.671875
12 	2     	0.671875	0        	0.671875	0.671875
13 	2     	0.679688	0.0078125	0.671875	0.6875  
14 	2     	0.6875  	0        	0.6875  	0.6875  
15 	2     	0.6875  	0        	0.6875  	0.6875  
16 	2     	0.6875  	0        	0.6875  	0.6875  
17 	2     	0.6875  	0        	0.6875  	0.6875  
18 	2     	0.695312	0.0078125	0.6875  	0.703125
19 	2     	0.695312	0.0078125	0.6875  	0.703125
20 	2     	0.695312	0.0078125	0.6875  	0.703125
21 	2     	0.695312	0.0078125	0.6875  	0.703125
22 	2     	0.734375	0.03125  	0.703125	0.765625
23 	2     	0.734375	0.03125  	0.703125	0.765625
24 	2     	0.734375	0.03125  	0.703125	0.765625
25 	2     	0.742188	0.0234375	0.71875 	0.765625
26 	2     	0.742188	0.0234375	0.71875 	0.765625
27 	2     	0.765625	0        	0.765625	0.765625
28 	2     	0.765625	0        	0.765625	0.765625
29 	2     	0.765625	0        	0.765625	0.765625
30 	2     	0.765625	0        	0.765625	0.765625
31 	2     	0.765625	0        	0.765625	0.765625
32 	2     	0.765625	0        	0.765625	0.765625
33 	2     	0.765625	0        	0.765625	0.765625
34 	2     	0.765625	0        	0.765625	0.765625
35 	2     	0.765625	0        	0.765625	0.765625
36 	2     	0.765625	0        	0.765625	0.765625
37 	2     	0.78125 	0.015625 	0.765625	0.796875
38 	2     	0.78125 	0.015625 	0.765625	0.796875
39 	2     	0.78125 	0.015625 	0.765625	0.796875
40 	2     	0.78125 	0.015625 	0.765625	0.796875
41 	2     	0.78125 	0.015625 	0.765625	0.796875
42 	2     	0.78125 	0.015625 	0.765625	0.796875
43 	2     	0.78125 	0.015625 	0.765625	0.796875
44 	2     	0.78125 	0.015625 	0.765625	0.796875
45 	2     	0.78125 	0.015625 	0.765625	0.796875
46 	2     	0.78125 	0.015625 	0.765625	0.796875
47 	2     	0.78125 	0.015625 	0.765625	0.796875
48 	2     	0.78125 	0.015625 	0.765625	0.796875
49 	2     	0.804688	0.0078125	0.796875	0.8125  
50 	2     	0.804688	0.0078125	0.796875	0.8125  
51 	2     	0.804688	0.0078125	0.796875	0.8125  
52 	2     	0.804688	0.0078125	0.796875	0.8125  
53 	2     	0.804688	0.0078125	0.796875	0.8125  
54 	2     	0.804688	0.0078125	0.796875	0.8125  
55 	2     	0.804688	0.0078125	0.796875	0.8125  
56 	2     	0.820312	0.0078125	0.8125  	0.828125
57 	2     	0.820312	0.0078125	0.8125  	0.828125
58 	2     	0.820312	0.0078125	0.8125  	0.828125
59 	2     	0.820312	0.0078125	0.8125  	0.828125
60 	2     	0.820312	0.0078125	0.8125  	0.828125
61 	2     	0.820312	0.0078125	0.8125  	0.828125
62 	2     	0.828125	0        	0.828125	0.828125
63 	2     	0.828125	0        	0.828125	0.828125
64 	2     	0.828125	0        	0.828125	0.828125
65 	2     	0.828125	0        	0.828125	0.828125
66 	2     	0.828125	0        	0.828125	0.828125
67 	2     	0.84375 	0.015625 	0.828125	0.859375
68 	2     	0.84375 	0.015625 	0.828125	0.859375
69 	2     	0.84375 	0.015625 	0.828125	0.859375
70 	2     	0.851562	0.0078125	0.84375 	0.859375
71 	2     	0.851562	0.0078125	0.84375 	0.859375
72 	2     	0.851562	0.0078125	0.84375 	0.859375
73 	2     	0.851562	0.0078125	0.84375 	0.859375
74 	2     	0.851562	0.0078125	0.84375 	0.859375
75 	2     	0.851562	0.0078125	0.84375 	0.859375
76 	2     	0.851562	0.0078125	0.84375 	0.859375
77 	2     	0.851562	0.0078125	0.84375 	0.859375
78 	2     	0.851562	0.0078125	0.84375 	0.859375
79 	2     	0.851562	0.0078125	0.84375 	0.859375
80 	2     	0.851562	0.0078125	0.84375 	0.859375
81 	2     	0.851562	0.0078125	0.84375 	0.859375
82 	2     	0.851562	0.0078125	0.84375 	0.859375
83 	2     	0.851562	0.0078125	0.84375 	0.859375
84 	2     	0.851562	0.0078125	0.84375 	0.859375
85 	2     	0.851562	0.0078125	0.84375 	0.859375
86 	2     	0.851562	0.0078125	0.84375 	0.859375
87 	2     	0.851562	0.0078125	0.84375 	0.859375
88 	2     	0.851562	0.0078125	0.84375 	0.859375
89 	2     	0.851562	0.0078125	0.84375 	0.859375
90 	2     	0.851562	0.0078125	0.84375 	0.859375
91 	2     	0.851562	0.0078125	0.84375 	0.859375
92 	2     	0.851562	0.0078125	0.84375 	0.859375
93 	2     	0.851562	0.0078125	0.84375 	0.859375
94 	2     	0.851562	0.0078125	0.84375 	0.859375
95 	2     	0.851562	0.0078125	0.84375 	0.859375
96 	2     	0.851562	0.0078125	0.84375 	0.859375
97 	2     	0.851562	0.0078125	0.84375 	0.859375
98 	2     	0.851562	0.0078125	0.84375 	0.859375
99 	2     	0.851562	0.0078125	0.84375 	0.859375
100	2     	0.851562	0.0078125	0.84375 	0.859375
101	2     	0.851562	0.0078125	0.84375 	0.859375
102	2     	0.851562	0.0078125	0.84375 	0.859375
103	2     	0.851562	0.0078125	0.84375 	0.859375
104	2     	0.851562	0.0078125	0.84375 	0.859375
105	2     	0.851562	0.0078125	0.84375 	0.859375
106	2     	0.851562	0.0078125	0.84375 	0.859375
107	2     	0.851562	0.0078125	0.84375 	0.859375
108	2     	0.851562	0.0078125	0.84375 	0.859375
109	2     	0.851562	0.0078125	0.84375 	0.859375
110	2     	0.851562	0.0078125	0.84375 	0.859375
111	2     	0.851562	0.0078125	0.84375 	0.859375
112	2     	0.851562	0.0078125	0.84375 	0.859375
113	2     	0.851562	0.0078125	0.84375 	0.859375
114	2     	0.851562	0.0078125	0.84375 	0.859375
115	2     	0.851562	0.0078125	0.84375 	0.859375
116	2     	0.851562	0.0078125	0.84375 	0.859375
117	2     	0.851562	0.0078125	0.84375 	0.859375
118	2     	0.851562	0.0078125	0.84375 	0.859375
119	2     	0.851562	0.0078125	0.84375 	0.859375
120	2     	0.851562	0.0078125	0.84375 	0.859375
121	2     	0.851562	0.0078125	0.84375 	0.859375
122	2     	0.851562	0.0078125	0.84375 	0.859375
123	2     	0.851562	0.0078125	0.84375 	0.859375
124	2     	0.851562	0.0078125	0.84375 	0.859375
125	2     	0.851562	0.0078125	0.84375 	0.859375
126	2     	0.851562	0.0078125	0.84375 	0.859375
127	2     	0.851562	0.0078125	0.84375 	0.859375
128	2     	0.851562	0.0078125	0.84375 	0.859375
129	2     	0.851562	0.0078125	0.84375 	0.859375
130	2     	0.851562	0.0078125	0.84375 	0.859375
131	2     	0.851562	0.0078125	0.84375 	0.859375
132	2     	0.851562	0.0078125	0.84375 	0.859375
133	2     	0.851562	0.0078125	0.84375 	0.859375
134	2     	0.851562	0.0078125	0.84375 	0.859375
135	2     	0.851562	0.0078125	0.84375 	0.859375
136	2     	0.851562	0.0078125	0.84375 	0.859375
137	2     	0.851562	0.0078125	0.84375 	0.859375
138	2     	0.851562	0.0078125	0.84375 	0.859375
139	2     	0.851562	0.0078125	0.84375 	0.859375
140	2     	0.851562	0.0078125	0.84375 	0.859375
141	2     	0.851562	0.0078125	0.84375 	0.859375
142	2     	0.851562	0.0078125	0.84375 	0.859375
143	2     	0.851562	0.0078125	0.84375 	0.859375
144	2     	0.851562	0.0078125	0.84375 	0.859375
145	2     	0.851562	0.0078125	0.84375 	0.859375
146	2     	0.851562	0.0078125	0.84375 	0.859375
147	2     	0.851562	0.0078125	0.84375 	0.859375
148	2     	0.851562	0.0078125	0.84375 	0.859375
149	2     	0.851562	0.0078125	0.84375 	0.859375
150	2     	0.851562	0.0078125	0.84375 	0.859375
151	2     	0.851562	0.0078125	0.84375 	0.859375
152	2     	0.851562	0.0078125	0.84375 	0.859375
153	2     	0.851562	0.0078125	0.84375 	0.859375
154	2     	0.851562	0.0078125	0.84375 	0.859375
155	2     	0.851562	0.0078125	0.84375 	0.859375
156	2     	0.851562	0.0078125	0.84375 	0.859375
157	2     	0.851562	0.0078125	0.84375 	0.859375
158	2     	0.851562	0.0078125	0.84375 	0.859375
159	2     	0.851562	0.0078125	0.84375 	0.859375
160	2     	0.851562	0.0078125	0.84375 	0.859375
161	2     	0.851562	0.0078125	0.84375 	0.859375
162	2     	0.851562	0.0078125	0.84375 	0.859375
163	2     	0.851562	0.0078125	0.84375 	0.859375
164	2     	0.851562	0.0078125	0.84375 	0.859375
165	2     	0.851562	0.0078125	0.84375 	0.859375
166	2     	0.851562	0.0078125	0.84375 	0.859375
167	2     	0.851562	0.0078125	0.84375 	0.859375
168	2     	0.851562	0.0078125	0.84375 	0.859375
169	2     	0.851562	0.0078125	0.84375 	0.859375
170	2     	0.851562	0.0078125	0.84375 	0.859375
171	2     	0.851562	0.0078125	0.84375 	0.859375
172	2     	0.851562	0.0078125	0.84375 	0.859375
173	2     	0.851562	0.0078125	0.84375 	0.859375
174	2     	0.851562	0.0078125	0.84375 	0.859375
175	2     	0.851562	0.0078125	0.84375 	0.859375
176	2     	0.851562	0.0078125	0.84375 	0.859375
177	2     	0.851562	0.0078125	0.84375 	0.859375
178	2     	0.851562	0.0078125	0.84375 	0.859375
179	2     	0.851562	0.0078125	0.84375 	0.859375
180	2     	0.851562	0.0078125	0.84375 	0.859375
181	2     	0.851562	0.0078125	0.84375 	0.859375
182	2     	0.851562	0.0078125	0.84375 	0.859375
183	2     	0.851562	0.0078125	0.84375 	0.859375
184	2     	0.851562	0.0078125	0.84375 	0.859375
185	2     	0.851562	0.0078125	0.84375 	0.859375
186	2     	0.851562	0.0078125	0.84375 	0.859375
187	2     	0.851562	0.0078125	0.84375 	0.859375
188	2     	0.851562	0.0078125	0.84375 	0.859375
189	2     	0.851562	0.0078125	0.84375 	0.859375
190	2     	0.851562	0.0078125	0.84375 	0.859375
191	2     	0.851562	0.0078125	0.84375 	0.859375
192	2     	0.851562	0.0078125	0.84375 	0.859375
193	2     	0.851562	0.0078125	0.84375 	0.859375
194	2     	0.851562	0.0078125	0.84375 	0.859375
195	2     	0.851562	0.0078125	0.84375 	0.859375
196	2     	0.851562	0.0078125	0.84375 	0.859375
197	2     	0.851562	0.0078125	0.84375 	0.859375
198	2     	0.851562	0.0078125	0.84375 	0.859375
199	2     	0.851562	0.0078125	0.84375 	0.859375
200	2     	0.867188	0.0078125	0.859375	0.875   
201	2     	0.867188	0.0078125	0.859375	0.875   
202	2     	0.867188	0.0078125	0.859375	0.875   
203	2     	0.867188	0.0078125	0.859375	0.875   
204	2     	0.882812	0.0078125	0.875   	0.890625
205	2     	0.882812	0.0078125	0.875   	0.890625
206	2     	0.890625	0        	0.890625	0.890625
207	2     	0.890625	0        	0.890625	0.890625
208	2     	0.890625	0        	0.890625	0.890625
209	2     	0.890625	0        	0.890625	0.890625
210	2     	0.890625	0        	0.890625	0.890625
211	2     	0.890625	0        	0.890625	0.890625
212	2     	0.890625	0        	0.890625	0.890625
213	2     	0.890625	0        	0.890625	0.890625
214	2     	0.890625	0        	0.890625	0.890625
215	2     	0.890625	0        	0.890625	0.890625
216	2     	0.890625	0        	0.890625	0.890625
217	2     	0.890625	0        	0.890625	0.890625
218	2     	0.890625	0        	0.890625	0.890625
219	2     	0.890625	0        	0.890625	0.890625
220	2     	0.890625	0        	0.890625	0.890625
221	2     	0.890625	0        	0.890625	0.890625
222	2     	0.890625	0        	0.890625	0.890625
223	2     	0.890625	0        	0.890625	0.890625
224	2     	0.890625	0        	0.890625	0.890625
225	2     	0.890625	0        	0.890625	0.890625
226	2     	0.890625	0        	0.890625	0.890625
227	2     	0.890625	0        	0.890625	0.890625
228	2     	0.890625	0        	0.890625	0.890625
229	2     	0.890625	0        	0.890625	0.890625
230	2     	0.890625	0        	0.890625	0.890625
231	2     	0.890625	0        	0.890625	0.890625
232	2     	0.890625	0        	0.890625	0.890625
233	2     	0.890625	0        	0.890625	0.890625
234	2     	0.890625	0        	0.890625	0.890625
235	2     	0.890625	0        	0.890625	0.890625
236	2     	0.890625	0        	0.890625	0.890625
237	2     	0.890625	0        	0.890625	0.890625
238	2     	0.890625	0        	0.890625	0.890625
239	2     	0.890625	0        	0.890625	0.890625
240	2     	0.890625	0        	0.890625	0.890625
241	2     	0.890625	0        	0.890625	0.890625
242	2     	0.890625	0        	0.890625	0.890625
243	2     	0.890625	0        	0.890625	0.890625
244	2     	0.890625	0        	0.890625	0.890625
245	2     	0.890625	0        	0.890625	0.890625
246	2     	0.890625	0        	0.890625	0.890625
247	2     	0.890625	0        	0.890625	0.890625
248	2     	0.890625	0        	0.890625	0.890625
249	2     	0.890625	0        	0.890625	0.890625
250	2     	0.890625	0        	0.890625	0.890625
251	2     	0.890625	0        	0.890625	0.890625
252	2     	0.890625	0        	0.890625	0.890625
253	2     	0.890625	0        	0.890625	0.890625
254	2     	0.890625	0        	0.890625	0.890625
255	2     	0.890625	0        	0.890625	0.890625
256	2     	0.890625	0        	0.890625	0.890625
257	2     	0.890625	0        	0.890625	0.890625
258	2     	0.890625	0        	0.890625	0.890625
259	2     	0.890625	0        	0.890625	0.890625
260	2     	0.890625	0        	0.890625	0.890625
261	2     	0.890625	0        	0.890625	0.890625
262	2     	0.890625	0        	0.890625	0.890625
263	2     	0.890625	0        	0.890625	0.890625
264	2     	0.890625	0        	0.890625	0.890625
265	2     	0.890625	0        	0.890625	0.890625
266	2     	0.890625	0        	0.890625	0.890625
267	2     	0.890625	0        	0.890625	0.890625
268	2     	0.890625	0        	0.890625	0.890625
269	2     	0.890625	0        	0.890625	0.890625
270	2     	0.890625	0        	0.890625	0.890625
271	2     	0.890625	0        	0.890625	0.890625
272	2     	0.890625	0        	0.890625	0.890625
273	2     	0.890625	0        	0.890625	0.890625
274	2     	0.890625	0        	0.890625	0.890625
275	2     	0.890625	0        	0.890625	0.890625
276	2     	0.890625	0        	0.890625	0.890625
277	2     	0.890625	0        	0.890625	0.890625
278	2     	0.890625	0        	0.890625	0.890625
279	2     	0.890625	0        	0.890625	0.890625
280	2     	0.890625	0        	0.890625	0.890625
281	2     	0.890625	0        	0.890625	0.890625
282	2     	0.890625	0        	0.890625	0.890625
283	2     	0.890625	0        	0.890625	0.890625
284	2     	0.890625	0        	0.890625	0.890625
285	2     	0.890625	0        	0.890625	0.890625
286	2     	0.890625	0        	0.890625	0.890625
287	2     	0.890625	0        	0.890625	0.890625
288	2     	0.890625	0        	0.890625	0.890625
289	2     	0.890625	0        	0.890625	0.890625
290	2     	0.898438	0.0078125	0.890625	0.90625 
291	2     	0.898438	0.0078125	0.890625	0.90625 
292	2     	0.898438	0.0078125	0.890625	0.90625 
293	2     	0.898438	0.0078125	0.890625	0.90625 
294	2     	0.898438	0.0078125	0.890625	0.90625 
295	2     	0.898438	0.0078125	0.890625	0.90625 
296	2     	0.898438	0.0078125	0.890625	0.90625 
297	2     	0.898438	0.0078125	0.890625	0.90625 
298	2     	0.898438	0.0078125	0.890625	0.90625 
299	2     	0.898438	0.0078125	0.890625	0.90625 
300	2     	0.898438	0.0078125	0.890625	0.90625 
301	2     	0.898438	0.0078125	0.890625	0.90625 
302	2     	0.898438	0.0078125	0.890625	0.90625 
303	2     	0.898438	0.0078125	0.890625	0.90625 
304	2     	0.898438	0.0078125	0.890625	0.90625 
305	2     	0.898438	0.0078125	0.890625	0.90625 
306	2     	0.898438	0.0078125	0.890625	0.90625 
307	2     	0.898438	0.0078125	0.890625	0.90625 
308	2     	0.898438	0.0078125	0.890625	0.90625 
309	2     	0.898438	0.0078125	0.890625	0.90625 
310	2     	0.898438	0.0078125	0.890625	0.90625 
311	2     	0.898438	0.0078125	0.890625	0.90625 
312	2     	0.898438	0.0078125	0.890625	0.90625 
313	2     	0.898438	0.0078125	0.890625	0.90625 
314	2     	0.898438	0.0078125	0.890625	0.90625 
315	2     	0.898438	0.0078125	0.890625	0.90625 
316	2     	0.898438	0.0078125	0.890625	0.90625 
317	2     	0.898438	0.0078125	0.890625	0.90625 
318	2     	0.898438	0.0078125	0.890625	0.90625 
319	2     	0.898438	0.0078125	0.890625	0.90625 
320	2     	0.898438	0.0078125	0.890625	0.90625 
321	2     	0.898438	0.0078125	0.890625	0.90625 
322	2     	0.898438	0.0078125	0.890625	0.90625 
323	2     	0.898438	0.0078125	0.890625	0.90625 
324	2     	0.898438	0.0078125	0.890625	0.90625 
325	2     	0.90625 	0        	0.90625 	0.90625 
326	2     	0.90625 	0        	0.90625 	0.90625 
327	2     	0.90625 	0        	0.90625 	0.90625 
328	2     	0.90625 	0        	0.90625 	0.90625 
329	2     	0.90625 	0        	0.90625 	0.90625 
330	2     	0.90625 	0        	0.90625 	0.90625 
331	2     	0.90625 	0        	0.90625 	0.90625 
332	2     	0.90625 	0        	0.90625 	0.90625 
333	2     	0.90625 	0        	0.90625 	0.90625 
334	2     	0.90625 	0        	0.90625 	0.90625 
335	2     	0.90625 	0        	0.90625 	0.90625 
336	2     	0.90625 	0        	0.90625 	0.90625 
337	2     	0.90625 	0        	0.90625 	0.90625 
338	2     	0.90625 	0        	0.90625 	0.90625 
339	2     	0.90625 	0        	0.90625 	0.90625 
340	2     	0.90625 	0        	0.90625 	0.90625 
341	2     	0.90625 	0        	0.90625 	0.90625 
342	2     	0.90625 	0        	0.90625 	0.90625 
343	2     	0.90625 	0        	0.90625 	0.90625 
344	2     	0.90625 	0        	0.90625 	0.90625 
345	2     	0.90625 	0        	0.90625 	0.90625 
346	2     	0.90625 	0        	0.90625 	0.90625 
347	2     	0.90625 	0        	0.90625 	0.90625 
348	2     	0.90625 	0        	0.90625 	0.90625 
349	2     	0.90625 	0        	0.90625 	0.90625 
350	2     	0.90625 	0        	0.90625 	0.90625 
351	2     	0.90625 	0        	0.90625 	0.90625 
352	2     	0.90625 	0        	0.90625 	0.90625 
353	2     	0.90625 	0        	0.90625 	0.90625 
354	2     	0.90625 	0        	0.90625 	0.90625 
355	2     	0.90625 	0        	0.90625 	0.90625 
356	2     	0.90625 	0        	0.90625 	0.90625 
357	2     	0.90625 	0        	0.90625 	0.90625 
358	2     	0.90625 	0        	0.90625 	0.90625 
359	2     	0.90625 	0        	0.90625 	0.90625 
360	2     	0.90625 	0        	0.90625 	0.90625 
361	2     	0.90625 	0        	0.90625 	0.90625 
362	2     	0.90625 	0        	0.90625 	0.90625 
363	2     	0.90625 	0        	0.90625 	0.90625 
364	2     	0.90625 	0        	0.90625 	0.90625 
365	2     	0.90625 	0        	0.90625 	0.90625 
366	2     	0.90625 	0        	0.90625 	0.90625 