gen	nevals	avg     	std      	min     	max     
0  	2     	0.361111	0.0277778	0.333333	0.388889
1  	2     	0.388889	0        	0.388889	0.388889
2  	2     	0.388889	0        	0.388889	0.388889
3  	2     	0.388889	0        	0.388889	0.388889
4  	2     	0.416667	0.0277778	0.388889	0.444444
5  	2     	0.472222	0.0277778	0.444444	0.5     
6  	2     	0.5     	0        	0.5     	0.5     
7  	2     	0.5     	0        	0.5     	0.5     
8  	2     	0.527778	0.0277778	0.5     	0.555556
9  	2     	0.555556	0        	0.555556	0.555556
10 	2     	0.555556	0        	0.555556	0.555556
11 	2     	0.555556	0        	0.555556	0.555556
12 	2     	0.555556	0        	0.555556	0.555556
13 	2     	0.555556	0        	0.555556	0.555556
14 	2     	0.555556	0        	0.555556	0.555556
15 	2     	0.555556	0        	0.555556	0.555556
16 	2     	0.625   	0.0694444	0.555556	0.694444
17 	2     	0.625   	0.0694444	0.555556	0.694444
18 	2     	0.680556	0.0138889	0.666667	0.694444
19 	2     	0.680556	0.0138889	0.666667	0.694444
20 	2     	0.680556	0.0138889	0.666667	0.694444
21 	2     	0.680556	0.0138889	0.666667	0.694444
22 	2     	0.722222	0.0277778	0.694444	0.75    
23 	2     	0.777778	0.0277778	0.75    	0.805556
24 	2     	0.777778	0.0277778	0.75    	0.805556
25 	2     	0.777778	0.0277778	0.75    	0.805556
26 	2     	0.791667	0.0138889	0.777778	0.805556
27 	2     	0.819444	0.0138889	0.805556	0.833333
28 	2     	0.819444	0.0138889	0.805556	0.833333
29 	2     	0.819444	0.0138889	0.805556	0.833333
30 	2     	0.819444	0.0138889	0.805556	0.833333
31 	2     	0.819444	0.0138889	0.805556	0.833333
32 	2     	0.819444	0.0138889	0.805556	0.833333
33 	2     	0.819444	0.0138889	0.805556	0.833333
34 	2     	0.819444	0.0138889	0.805556	0.833333
35 	2     	0.833333	0        	0.833333	0.833333
36 	2     	0.833333	0        	0.833333	0.833333
37 	2     	0.833333	0        	0.833333	0.833333
38 	2     	0.833333	0        	0.833333	0.833333
39 	2     	0.833333	0        	0.833333	0.833333
40 	2     	0.833333	0        	0.833333	0.833333
41 	2     	0.833333	0        	0.833333	0.833333
42 	2     	0.833333	0        	0.833333	0.833333
43 	2     	0.833333	0        	0.833333	0.833333
44 	2     	0.833333	0        	0.833333	0.833333
45 	2     	0.833333	0        	0.833333	0.833333
46 	2     	0.833333	0        	0.833333	0.833333
47 	2     	0.833333	0        	0.833333	0.833333
48 	2     	0.833333	0        	0.833333	0.833333
49 	2     	0.833333	0        	0.833333	0.833333
50 	2     	0.833333	0        	0.833333	0.833333
51 	2     	0.833333	0        	0.833333	0.833333
52 	2     	0.833333	0        	0.833333	0.833333
53 	2     	0.833333	0        	0.833333	0.833333
54 	2     	0.833333	0        	0.833333	0.833333
55 	2     	0.833333	0        	0.833333	0.833333
56 	2     	0.847222	0.0138889	0.833333	0.861111
57 	2     	0.847222	0.0138889	0.833333	0.861111
58 	2     	0.847222	0.0138889	0.833333	0.861111
59 	2     	0.847222	0.0138889	0.833333	0.861111
60 	2     	0.847222	0.0138889	0.833333	0.861111
61 	2     	0.847222	0.0138889	0.833333	0.861111
62 	2     	0.847222	0.0138889	0.833333	0.861111
63 	2     	0.847222	0.0138889	0.833333	0.861111
64 	2     	0.847222	0.0138889	0.833333	0.861111
65 	2     	0.847222	0.0138889	0.833333	0.861111
66 	2     	0.847222	0.0138889	0.833333	0.861111
67 	2     	0.847222	0.0138889	0.833333	0.861111
68 	2     	0.847222	0.0138889	0.833333	0.861111
69 	2     	0.847222	0.0138889	0.833333	0.861111
70 	2     	0.847222	0.0138889	0.833333	0.861111
71 	2     	0.847222	0.0138889	0.833333	0.861111
72 	2     	0.847222	0.0138889	0.833333	0.861111
73 	2     	0.847222	0.0138889	0.833333	0.861111
74 	2     	0.847222	0.0138889	0.833333	0.861111
75 	2     	0.861111	0        	0.861111	0.861111
76 	2     	0.861111	0        	0.861111	0.861111
77 	2     	0.861111	0        	0.861111	0.861111
78 	2     	0.861111	0        	0.861111	0.861111
79 	2     	0.861111	0        	0.861111	0.861111
80 	2     	0.861111	0        	0.861111	0.861111
81 	2     	0.861111	0        	0.861111	0.861111
82 	2     	0.861111	0        	0.861111	0.861111
83 	2     	0.861111	0        	0.861111	0.861111
84 	2     	0.861111	0        	0.861111	0.861111
85 	2     	0.861111	0        	0.861111	0.861111
86 	2     	0.861111	0        	0.861111	0.861111
87 	2     	0.861111	0        	0.861111	0.861111
88 	2     	0.861111	0        	0.861111	0.861111
89 	2     	0.861111	0        	0.861111	0.861111
90 	2     	0.861111	0        	0.861111	0.861111
91 	2     	0.861111	0        	0.861111	0.861111
92 	2     	0.861111	0        	0.861111	0.861111
93 	2     	0.861111	0        	0.861111	0.861111
94 	2     	0.861111	0        	0.861111	0.861111
95 	2     	0.861111	0        	0.861111	0.861111
96 	2     	0.861111	0        	0.861111	0.861111
97 	2     	0.861111	0        	0.861111	0.861111
98 	2     	0.861111	0        	0.861111	0.861111
99 	2     	0.861111	0        	0.861111	0.861111
100	2     	0.861111	0        	0.861111	0.861111
101	2     	0.861111	0        	0.861111	0.861111
102	2     	0.861111	0        	0.861111	0.861111
103	2     	0.861111	0        	0.861111	0.861111
104	2     	0.875   	0.0138889	0.861111	0.888889
105	2     	0.875   	0.0138889	0.861111	0.888889
106	2     	0.875   	0.0138889	0.861111	0.888889
107	2     	0.875   	0.0138889	0.861111	0.888889
108	2     	0.875   	0.0138889	0.861111	0.888889
109	2     	0.875   	0.0138889	0.861111	0.888889
110	2     	0.875   	0.0138889	0.861111	0.888889
111	2     	0.875   	0.0138889	0.861111	0.888889
112	2     	0.875   	0.0138889	0.861111	0.888889
113	2     	0.875   	0.0138889	0.861111	0.888889
114	2     	0.875   	0.0138889	0.861111	0.888889
115	2     	0.875   	0.0138889	0.861111	0.888889
116	2     	0.875   	0.0138889	0.861111	0.888889
117	2     	0.875   	0.0138889	0.861111	0.888889
118	2     	0.875   	0.0138889	0.861111	0.888889
119	2     	0.875   	0.0138889	0.861111	0.888889
120	2     	0.875   	0.0138889	0.861111	0.888889
121	2     	0.875   	0.0138889	0.861111	0.888889
122	2     	0.875   	0.0138889	0.861111	0.888889
123	2     	0.875   	0.0138889	0.861111	0.888889
124	2     	0.875   	0.0138889	0.861111	0.888889
125	2     	0.875   	0.0138889	0.861111	0.888889
126	2     	0.875   	0.0138889	0.861111	0.888889
127	2     	0.875   	0.0138889	0.861111	0.888889
128	2     	0.875   	0.0138889	0.861111	0.888889
129	2     	0.875   	0.0138889	0.861111	0.888889
130	2     	0.875   	0.0138889	0.861111	0.888889
131	2     	0.875   	0.0138889	0.861111	0.888889
132	2     	0.875   	0.0138889	0.861111	0.888889
133	2     	0.888889	0        	0.888889	0.888889
134	2     	0.888889	0        	0.888889	0.888889
135	2     	0.888889	0        	0.888889	0.888889
136	2     	0.888889	0        	0.888889	0.888889
137	2     	0.888889	0        	0.888889	0.888889
138	2     	0.888889	0        	0.888889	0.888889
139	2     	0.888889	0        	0.888889	0.888889
140	2     	0.888889	0        	0.888889	0.888889
141	2     	0.888889	0        	0.888889	0.888889
142	2     	0.888889	0        	0.888889	0.888889
143	2     	0.888889	0        	0.888889	0.888889
144	2     	0.888889	0        	0.888889	0.888889
145	2     	0.888889	0        	0.888889	0.888889
146	2     	0.888889	0        	0.888889	0.888889
147	2     	0.888889	0        	0.888889	0.888889
148	2     	0.888889	0        	0.888889	0.888889
149	2     	0.888889	0        	0.888889	0.888889
150	2     	0.888889	0        	0.888889	0.888889
151	2     	0.902778	0.0138889	0.888889	0.916667
152	2     	0.902778	0.0138889	0.888889	0.916667
153	2     	0.902778	0.0138889	0.888889	0.916667
154	2     	0.902778	0.0138889	0.888889	0.916667
155	2     	0.902778	0.0138889	0.888889	0.916667
156	2     	0.902778	0.0138889	0.888889	0.916667
157	2     	0.902778	0.0138889	0.888889	0.916667
158	2     	0.902778	0.0138889	0.888889	0.916667
159	2     	0.902778	0.0138889	0.888889	0.916667
160	2     	0.902778	0.0138889	0.888889	0.916667
161	2     	0.902778	0.0138889	0.888889	0.916667
162	2     	0.902778	0.0138889	0.888889	0.916667
163	2     	0.902778	0.0138889	0.888889	0.916667
164	2     	0.902778	0.0138889	0.888889	0.916667
165	2     	0.902778	0.0138889	0.888889	0.916667
166	2     	0.902778	0.0138889	0.888889	0.916667
167	2     	0.902778	0.0138889	0.888889	0.916667
168	2     	0.902778	0.0138889	0.888889	0.916667
169	2     	0.902778	0.0138889	0.888889	0.916667
170	2     	0.902778	0.0138889	0.888889	0.916667
171	2     	0.902778	0.0138889	0.888889	0.916667
172	2     	0.902778	0.0138889	0.888889	0.916667
173	2     	0.902778	0.0138889	0.888889	0.916667
174	2     	0.902778	0.0138889	0.888889	0.916667
175	2     	0.902778	0.0138889	0.888889	0.916667
176	2     	0.902778	0.0138889	0.888889	0.916667
177	2     	0.902778	0.0138889	0.888889	0.916667
178	2     	0.902778	0.0138889	0.888889	0.916667
179	2     	0.902778	0.0138889	0.888889	0.916667
180	2     	0.902778	0.0138889	0.888889	0.916667
181	2     	0.902778	0.0138889	0.888889	0.916667
182	2     	0.902778	0.0138889	0.888889	0.916667
183	2     	0.902778	0.0138889	0.888889	0.916667
184	2     	0.902778	0.0138889	0.888889	0.916667
185	2     	0.902778	0.0138889	0.888889	0.916667
186	2     	0.902778	0.0138889	0.888889	0.916667
187	2     	0.902778	0.0138889	0.888889	0.916667
188	2     	0.944444	0.0277778	0.916667	0.972222
189	2     	0.944444	0.0277778	0.916667	0.972222
190	2     	0.944444	0.0277778	0.916667	0.972222
191	2     	0.944444	0.0277778	0.916667	0.972222
192	2     	0.944444	0.0277778	0.916667	0.972222
193	2     	0.944444	0.0277778	0.916667	0.972222
194	2     	0.944444	0.0277778	0.916667	0.972222
195	2     	0.944444	0.0277778	0.916667	0.972222
196	2     	0.944444	0.0277778	0.916667	0.972222
197	2     	0.944444	0.0277778	0.916667	0.972222
198	2     	0.944444	0.0277778	0.916667	0.972222
199	2     	0.944444	0.0277778	0.916667	0.972222
200	2     	0.944444	0.0277778	0.916667	0.972222
201	2     	0.944444	0.0277778	0.916667	0.972222
202	2     	0.944444	0.0277778	0.916667	0.972222
203	2     	0.944444	0.0277778	0.916667	0.972222
204	2     	0.944444	0.0277778	0.916667	0.972222
205	2     	0.944444	0.0277778	0.916667	0.972222
206	2     	0.944444	0.0277778	0.916667	0.972222
207	2     	0.944444	0.0277778	0.916667	0.972222
208	2     	0.944444	0.0277778	0.916667	0.972222
209	2     	0.944444	0.0277778	0.916667	0.972222
210	2     	0.944444	0.0277778	0.916667	0.972222
211	2     	0.944444	0.0277778	0.916667	0.972222
212	2     	0.944444	0.0277778	0.916667	0.972222
213	2     	0.944444	0.0277778	0.916667	0.972222
214	2     	0.958333	0.0138889	0.944444	0.972222
215	2     	0.958333	0.0138889	0.944444	0.972222
216	2     	0.958333	0.0138889	0.944444	0.972222
217	2     	0.958333	0.0138889	0.944444	0.972222
218	2     	0.958333	0.0138889	0.944444	0.972222
219	2     	0.958333	0.0138889	0.944444	0.972222
220	2     	0.958333	0.0138889	0.944444	0.972222
221	2     	0.958333	0.0138889	0.944444	0.972222
222	2     	0.958333	0.0138889	0.944444	0.972222
223	2     	0.958333	0.0138889	0.944444	0.972222
224	2     	0.958333	0.0138889	0.944444	0.972222
225	2     	0.958333	0.0138889	0.944444	0.972222
226	2     	0.958333	0.0138889	0.944444	0.972222
227	2     	0.958333	0.0138889	0.944444	0.972222
228	2     	0.958333	0.0138889	0.944444	0.972222
229	2     	0.958333	0.0138889	0.944444	0.972222
230	2     	0.958333	0.0138889	0.944444	0.972222
231	2     	0.958333	0.0138889	0.944444	0.972222
232	2     	0.958333	0.0138889	0.944444	0.972222
233	2     	0.958333	0.0138889	0.944444	0.972222
234	2     	0.958333	0.0138889	0.944444	0.972222
235	2     	0.958333	0.0138889	0.944444	0.972222
236	2     	0.958333	0.0138889	0.944444	0.972222
237	2     	0.958333	0.0138889	0.944444	0.972222
238	2     	0.958333	0.0138889	0.944444	0.972222
239	2     	0.958333	0.0138889	0.944444	0.972222
240	2     	0.958333	0.0138889	0.944444	0.972222
241	2     	0.958333	0.0138889	0.944444	0.972222
242	2     	0.958333	0.0138889	0.944444	0.972222
243	2     	0.958333	0.0138889	0.944444	0.972222
244	2     	0.958333	0.0138889	0.944444	0.972222
245	2     	0.958333	0.0138889	0.944444	0.972222
246	2     	0.958333	0.0138889	0.944444	0.972222
247	2     	0.958333	0.0138889	0.944444	0.972222
248	2     	0.958333	0.0138889	0.944444	0.972222
249	2     	0.958333	0.0138889	0.944444	0.972222
250	2     	0.972222	0        	0.972222	0.972222
251	2     	0.972222	0        	0.972222	0.972222
252	2     	0.972222	0        	0.972222	0.972222
253	2     	0.972222	0        	0.972222	0.972222
254	2     	0.972222	0        	0.972222	0.972222
255	2     	0.972222	0        	0.972222	0.972222