gen	nevals	avg     	std      	min     	max     
0  	2     	0.530612	0.0408163	0.489796	0.571429
1  	2     	0.561224	0.0102041	0.55102 	0.571429
2  	2     	0.561224	0.0102041	0.55102 	0.571429
3  	2     	0.561224	0.0102041	0.55102 	0.571429
4  	2     	0.591837	0.0204082	0.571429	0.612245
5  	2     	0.622449	0.0102041	0.612245	0.632653
6  	2     	0.622449	0.0102041	0.612245	0.632653
7  	2     	0.622449	0.0102041	0.612245	0.632653
8  	2     	0.622449	0.0102041	0.612245	0.632653
9  	2     	0.622449	0.0102041	0.612245	0.632653
10 	2     	0.673469	0.0408163	0.632653	0.714286
11 	2     	0.673469	0.0408163	0.632653	0.714286
12 	2     	0.693878	0.0204082	0.673469	0.714286
13 	2     	0.714286	0        	0.714286	0.714286
14 	2     	0.714286	0        	0.714286	0.714286
15 	2     	0.714286	0        	0.714286	0.714286
16 	2     	0.714286	0        	0.714286	0.714286
17 	2     	0.714286	0        	0.714286	0.714286
18 	2     	0.714286	0        	0.714286	0.714286
19 	2     	0.714286	0        	0.714286	0.714286
20 	2     	0.714286	0        	0.714286	0.714286
21 	2     	0.714286	0        	0.714286	0.714286
22 	2     	0.714286	0        	0.714286	0.714286
23 	2     	0.714286	0        	0.714286	0.714286
24 	2     	0.714286	0        	0.714286	0.714286
25 	2     	0.714286	0        	0.714286	0.714286
26 	2     	0.714286	0        	0.714286	0.714286
27 	2     	0.714286	0        	0.714286	0.714286
28 	2     	0.714286	0        	0.714286	0.714286
29 	2     	0.714286	0        	0.714286	0.714286
30 	2     	0.714286	0        	0.714286	0.714286
31 	2     	0.714286	0        	0.714286	0.714286
32 	2     	0.714286	0        	0.714286	0.714286
33 	2     	0.714286	0        	0.714286	0.714286
34 	2     	0.72449 	0.0102041	0.714286	0.734694
35 	2     	0.72449 	0.0102041	0.714286	0.734694
36 	2     	0.72449 	0.0102041	0.714286	0.734694
37 	2     	0.72449 	0.0102041	0.714286	0.734694
38 	2     	0.72449 	0.0102041	0.714286	0.734694
39 	2     	0.72449 	0.0102041	0.714286	0.734694
40 	2     	0.744898	0.0102041	0.734694	0.755102
41 	2     	0.744898	0.0102041	0.734694	0.755102
42 	2     	0.755102	0        	0.755102	0.755102
43 	2     	0.795918	0.0408163	0.755102	0.836735
44 	2     	0.795918	0.0408163	0.755102	0.836735
45 	2     	0.806122	0.0306122	0.77551 	0.836735
46 	2     	0.826531	0.0102041	0.816327	0.836735
47 	2     	0.826531	0.0102041	0.816327	0.836735
48 	2     	0.826531	0.0102041	0.816327	0.836735
49 	2     	0.826531	0.0102041	0.816327	0.836735
50 	2     	0.826531	0.0102041	0.816327	0.836735
51 	2     	0.826531	0.0102041	0.816327	0.836735
52 	2     	0.826531	0.0102041	0.816327	0.836735
53 	2     	0.846939	0.0102041	0.836735	0.857143
54 	2     	0.846939	0.0102041	0.836735	0.857143
55 	2     	0.846939	0.0102041	0.836735	0.857143
56 	2     	0.867347	0.0102041	0.857143	0.877551
57 	2     	0.867347	0.0102041	0.857143	0.877551
58 	2     	0.867347	0.0102041	0.857143	0.877551
59 	2     	0.867347	0.0102041	0.857143	0.877551
60 	2     	0.867347	0.0102041	0.857143	0.877551
61 	2     	0.867347	0.0102041	0.857143	0.877551
62 	2     	0.867347	0.0102041	0.857143	0.877551
63 	2     	0.867347	0.0102041	0.857143	0.877551
64 	2     	0.867347	0.0102041	0.857143	0.877551
65 	2     	0.867347	0.0102041	0.857143	0.877551
66 	2     	0.867347	0.0102041	0.857143	0.877551
67 	2     	0.867347	0.0102041	0.857143	0.877551
68 	2     	0.867347	0.0102041	0.857143	0.877551
69 	2     	0.867347	0.0102041	0.857143	0.877551
70 	2     	0.867347	0.0102041	0.857143	0.877551
71 	2     	0.867347	0.0102041	0.857143	0.877551
72 	2     	0.867347	0.0102041	0.857143	0.877551
73 	2     	0.867347	0.0102041	0.857143	0.877551
74 	2     	0.867347	0.0102041	0.857143	0.877551
75 	2     	0.867347	0.0102041	0.857143	0.877551
76 	2     	0.867347	0.0102041	0.857143	0.877551
77 	2     	0.867347	0.0102041	0.857143	0.877551
78 	2     	0.867347	0.0102041	0.857143	0.877551
79 	2     	0.867347	0.0102041	0.857143	0.877551
80 	2     	0.867347	0.0102041	0.857143	0.877551
81 	2     	0.867347	0.0102041	0.857143	0.877551
82 	2     	0.867347	0.0102041	0.857143	0.877551
83 	2     	0.867347	0.0102041	0.857143	0.877551
84 	2     	0.867347	0.0102041	0.857143	0.877551
85 	2     	0.867347	0.0102041	0.857143	0.877551
86 	2     	0.867347	0.0102041	0.857143	0.877551
87 	2     	0.867347	0.0102041	0.857143	0.877551
88 	2     	0.867347	0.0102041	0.857143	0.877551
89 	2     	0.867347	0.0102041	0.857143	0.877551
90 	2     	0.867347	0.0102041	0.857143	0.877551
91 	2     	0.867347	0.0102041	0.857143	0.877551
92 	2     	0.867347	0.0102041	0.857143	0.877551
93 	2     	0.867347	0.0102041	0.857143	0.877551
94 	2     	0.867347	0.0102041	0.857143	0.877551
95 	2     	0.867347	0.0102041	0.857143	0.877551
96 	2     	0.867347	0.0102041	0.857143	0.877551
97 	2     	0.867347	0.0102041	0.857143	0.877551
98 	2     	0.867347	0.0102041	0.857143	0.877551
99 	2     	0.867347	0.0102041	0.857143	0.877551
100	2     	0.867347	0.0102041	0.857143	0.877551
101	2     	0.867347	0.0102041	0.857143	0.877551
102	2     	0.887755	0.0102041	0.877551	0.897959
103	2     	0.887755	0.0102041	0.877551	0.897959
104	2     	0.887755	0.0102041	0.877551	0.897959
105	2     	0.887755	0.0102041	0.877551	0.897959
106	2     	0.887755	0.0102041	0.877551	0.897959
107	2     	0.887755	0.0102041	0.877551	0.897959
108	2     	0.887755	0.0102041	0.877551	0.897959
109	2     	0.887755	0.0102041	0.877551	0.897959
110	2     	0.887755	0.0102041	0.877551	0.897959
111	2     	0.887755	0.0102041	0.877551	0.897959
112	2     	0.887755	0.0102041	0.877551	0.897959
113	2     	0.887755	0.0102041	0.877551	0.897959
114	2     	0.887755	0.0102041	0.877551	0.897959
115	2     	0.887755	0.0102041	0.877551	0.897959
116	2     	0.887755	0.0102041	0.877551	0.897959
117	2     	0.887755	0.0102041	0.877551	0.897959
118	2     	0.887755	0.0102041	0.877551	0.897959
119	2     	0.887755	0.0102041	0.877551	0.897959
120	2     	0.897959	0        	0.897959	0.897959
121	2     	0.897959	0        	0.897959	0.897959
122	2     	0.897959	0        	0.897959	0.897959
123	2     	0.897959	0        	0.897959	0.897959
124	2     	0.897959	0        	0.897959	0.897959
125	2     	0.897959	0        	0.897959	0.897959
126	2     	0.897959	0        	0.897959	0.897959
127	2     	0.897959	0        	0.897959	0.897959
128	2     	0.897959	0        	0.897959	0.897959
129	2     	0.897959	0        	0.897959	0.897959
130	2     	0.897959	0        	0.897959	0.897959
131	2     	0.897959	0        	0.897959	0.897959
132	2     	0.897959	0        	0.897959	0.897959
133	2     	0.897959	0        	0.897959	0.897959
134	2     	0.897959	0        	0.897959	0.897959
135	2     	0.897959	0        	0.897959	0.897959
136	2     	0.897959	0        	0.897959	0.897959
137	2     	0.897959	0        	0.897959	0.897959
138	2     	0.897959	0        	0.897959	0.897959
139	2     	0.897959	0        	0.897959	0.897959
140	2     	0.897959	0        	0.897959	0.897959
141	2     	0.897959	0        	0.897959	0.897959
142	2     	0.897959	0        	0.897959	0.897959
143	2     	0.897959	0        	0.897959	0.897959
144	2     	0.897959	0        	0.897959	0.897959
145	2     	0.897959	0        	0.897959	0.897959
146	2     	0.897959	0        	0.897959	0.897959
147	2     	0.897959	0        	0.897959	0.897959
148	2     	0.897959	0        	0.897959	0.897959
149	2     	0.897959	0        	0.897959	0.897959
150	2     	0.897959	0        	0.897959	0.897959
151	2     	0.897959	0        	0.897959	0.897959
152	2     	0.897959	0        	0.897959	0.897959
153	2     	0.897959	0        	0.897959	0.897959
154	2     	0.897959	0        	0.897959	0.897959
155	2     	0.897959	0        	0.897959	0.897959
156	2     	0.897959	0        	0.897959	0.897959
157	2     	0.897959	0        	0.897959	0.897959
158	2     	0.897959	0        	0.897959	0.897959
159	2     	0.897959	0        	0.897959	0.897959
160	2     	0.897959	0        	0.897959	0.897959
161	2     	0.897959	0        	0.897959	0.897959
162	2     	0.897959	0        	0.897959	0.897959
163	2     	0.897959	0        	0.897959	0.897959
164	2     	0.897959	0        	0.897959	0.897959
165	2     	0.897959	0        	0.897959	0.897959
166	2     	0.897959	0        	0.897959	0.897959
167	2     	0.897959	0        	0.897959	0.897959
168	2     	0.897959	0        	0.897959	0.897959
169	2     	0.897959	0        	0.897959	0.897959
170	2     	0.897959	0        	0.897959	0.897959
171	2     	0.897959	0        	0.897959	0.897959
172	2     	0.897959	0        	0.897959	0.897959
173	2     	0.897959	0        	0.897959	0.897959
174	2     	0.897959	0        	0.897959	0.897959
175	2     	0.897959	0        	0.897959	0.897959
176	2     	0.897959	0        	0.897959	0.897959
177	2     	0.897959	0        	0.897959	0.897959
178	2     	0.897959	0        	0.897959	0.897959
179	2     	0.897959	0        	0.897959	0.897959
180	2     	0.897959	0        	0.897959	0.897959
181	2     	0.897959	0        	0.897959	0.897959
182	2     	0.897959	0        	0.897959	0.897959
183	2     	0.897959	0        	0.897959	0.897959
184	2     	0.897959	0        	0.897959	0.897959
185	2     	0.897959	0        	0.897959	0.897959
186	2     	0.897959	0        	0.897959	0.897959
187	2     	0.897959	0        	0.897959	0.897959
188	2     	0.897959	0        	0.897959	0.897959
189	2     	0.897959	0        	0.897959	0.897959
190	2     	0.897959	0        	0.897959	0.897959
191	2     	0.897959	0        	0.897959	0.897959
192	2     	0.897959	0        	0.897959	0.897959
193	2     	0.897959	0        	0.897959	0.897959
194	2     	0.897959	0        	0.897959	0.897959
195	2     	0.897959	0        	0.897959	0.897959
196	2     	0.897959	0        	0.897959	0.897959
197	2     	0.897959	0        	0.897959	0.897959
198	2     	0.897959	0        	0.897959	0.897959
199	2     	0.897959	0        	0.897959	0.897959
200	2     	0.897959	0        	0.897959	0.897959
201	2     	0.897959	0        	0.897959	0.897959
202	2     	0.897959	0        	0.897959	0.897959
203	2     	0.897959	0        	0.897959	0.897959
204	2     	0.897959	0        	0.897959	0.897959
205	2     	0.897959	0        	0.897959	0.897959
206	2     	0.897959	0        	0.897959	0.897959
207	2     	0.897959	0        	0.897959	0.897959
208	2     	0.897959	0        	0.897959	0.897959
209	2     	0.897959	0        	0.897959	0.897959
210	2     	0.897959	0        	0.897959	0.897959
211	2     	0.897959	0        	0.897959	0.897959
212	2     	0.897959	0        	0.897959	0.897959
213	2     	0.897959	0        	0.897959	0.897959
214	2     	0.897959	0        	0.897959	0.897959
215	2     	0.897959	0        	0.897959	0.897959
216	2     	0.897959	0        	0.897959	0.897959
217	2     	0.897959	0        	0.897959	0.897959
218	2     	0.897959	0        	0.897959	0.897959
219	2     	0.897959	0        	0.897959	0.897959
220	2     	0.897959	0        	0.897959	0.897959
221	2     	0.897959	0        	0.897959	0.897959
222	2     	0.897959	0        	0.897959	0.897959
223	2     	0.897959	0        	0.897959	0.897959
224	2     	0.897959	0        	0.897959	0.897959
225	2     	0.897959	0        	0.897959	0.897959
226	2     	0.897959	0        	0.897959	0.897959
227	2     	0.897959	0        	0.897959	0.897959
228	2     	0.897959	0        	0.897959	0.897959
229	2     	0.897959	0        	0.897959	0.897959
230	2     	0.897959	0        	0.897959	0.897959
231	2     	0.897959	0        	0.897959	0.897959
232	2     	0.897959	0        	0.897959	0.897959
233	2     	0.897959	0        	0.897959	0.897959
234	2     	0.897959	0        	0.897959	0.897959
235	2     	0.897959	0        	0.897959	0.897959
236	2     	0.897959	0        	0.897959	0.897959
237	2     	0.897959	0        	0.897959	0.897959
238	2     	0.897959	0        	0.897959	0.897959
239	2     	0.897959	0        	0.897959	0.897959
240	2     	0.897959	0        	0.897959	0.897959
241	2     	0.897959	0        	0.897959	0.897959
242	2     	0.897959	0        	0.897959	0.897959
243	2     	0.897959	0        	0.897959	0.897959
244	2     	0.897959	0        	0.897959	0.897959
245	2     	0.897959	0        	0.897959	0.897959
246	2     	0.897959	0        	0.897959	0.897959
247	2     	0.897959	0        	0.897959	0.897959
248	2     	0.897959	0        	0.897959	0.897959
249	2     	0.897959	0        	0.897959	0.897959
250	2     	0.908163	0.0102041	0.897959	0.918367
251	2     	0.908163	0.0102041	0.897959	0.918367
252	2     	0.908163	0.0102041	0.897959	0.918367
253	2     	0.908163	0.0102041	0.897959	0.918367
254	2     	0.908163	0.0102041	0.897959	0.918367
255	2     	0.908163	0.0102041	0.897959	0.918367
256	2     	0.908163	0.0102041	0.897959	0.918367
257	2     	0.908163	0.0102041	0.897959	0.918367
258	2     	0.908163	0.0102041	0.897959	0.918367
259	2     	0.908163	0.0102041	0.897959	0.918367
260	2     	0.908163	0.0102041	0.897959	0.918367
261	2     	0.908163	0.0102041	0.897959	0.918367
262	2     	0.908163	0.0102041	0.897959	0.918367
263	2     	0.908163	0.0102041	0.897959	0.918367
264	2     	0.908163	0.0102041	0.897959	0.918367
265	2     	0.908163	0.0102041	0.897959	0.918367
266	2     	0.908163	0.0102041	0.897959	0.918367
267	2     	0.908163	0.0102041	0.897959	0.918367
268	2     	0.908163	0.0102041	0.897959	0.918367
269	2     	0.908163	0.0102041	0.897959	0.918367
270	2     	0.908163	0.0102041	0.897959	0.918367
271	2     	0.908163	0.0102041	0.897959	0.918367
272	2     	0.908163	0.0102041	0.897959	0.918367
273	2     	0.908163	0.0102041	0.897959	0.918367
274	2     	0.908163	0.0102041	0.897959	0.918367
275	2     	0.908163	0.0102041	0.897959	0.918367
276	2     	0.908163	0.0102041	0.897959	0.918367
277	2     	0.908163	0.0102041	0.897959	0.918367
278	2     	0.908163	0.0102041	0.897959	0.918367
279	2     	0.908163	0.0102041	0.897959	0.918367
280	2     	0.908163	0.0102041	0.897959	0.918367
281	2     	0.908163	0.0102041	0.897959	0.918367
282	2     	0.908163	0.0102041	0.897959	0.918367
283	2     	0.908163	0.0102041	0.897959	0.918367
284	2     	0.908163	0.0102041	0.897959	0.918367
285	2     	0.908163	0.0102041	0.897959	0.918367
286	2     	0.908163	0.0102041	0.897959	0.918367
287	2     	0.908163	0.0102041	0.897959	0.918367
288	2     	0.908163	0.0102041	0.897959	0.918367
289	2     	0.908163	0.0102041	0.897959	0.918367
290	2     	0.908163	0.0102041	0.897959	0.918367
291	2     	0.908163	0.0102041	0.897959	0.918367
292	2     	0.908163	0.0102041	0.897959	0.918367
293	2     	0.908163	0.0102041	0.897959	0.918367
294	2     	0.908163	0.0102041	0.897959	0.918367
295	2     	0.908163	0.0102041	0.897959	0.918367
296	2     	0.908163	0.0102041	0.897959	0.918367
297	2     	0.908163	0.0102041	0.897959	0.918367
298	2     	0.908163	0.0102041	0.897959	0.918367
299	2     	0.908163	0.0102041	0.897959	0.918367
300	2     	0.908163	0.0102041	0.897959	0.918367
301	2     	0.908163	0.0102041	0.897959	0.918367
302	2     	0.908163	0.0102041	0.897959	0.918367
303	2     	0.908163	0.0102041	0.897959	0.918367
304	2     	0.908163	0.0102041	0.897959	0.918367
305	2     	0.908163	0.0102041	0.897959	0.918367
306	2     	0.908163	0.0102041	0.897959	0.918367
307	2     	0.908163	0.0102041	0.897959	0.918367
308	2     	0.908163	0.0102041	0.897959	0.918367
309	2     	0.908163	0.0102041	0.897959	0.918367
310	2     	0.908163	0.0102041	0.897959	0.918367
311	2     	0.908163	0.0102041	0.897959	0.918367
312	2     	0.908163	0.0102041	0.897959	0.918367
313	2     	0.908163	0.0102041	0.897959	0.918367
314	2     	0.908163	0.0102041	0.897959	0.918367
315	2     	0.908163	0.0102041	0.897959	0.918367
316	2     	0.918367	0        	0.918367	0.918367
317	2     	0.918367	0        	0.918367	0.918367
318	2     	0.918367	0        	0.918367	0.918367
319	2     	0.918367	0        	0.918367	0.918367
320	2     	0.918367	0        	0.918367	0.918367
321	2     	0.918367	0        	0.918367	0.918367
322	2     	0.918367	0        	0.918367	0.918367
323	2     	0.918367	0        	0.918367	0.918367
324	2     	0.918367	0        	0.918367	0.918367
325	2     	0.918367	0        	0.918367	0.918367
326	2     	0.918367	0        	0.918367	0.918367
327	2     	0.918367	0        	0.918367	0.918367
328	2     	0.918367	0        	0.918367	0.918367
329	2     	0.918367	0        	0.918367	0.918367
330	2     	0.918367	0        	0.918367	0.918367
331	2     	0.918367	0        	0.918367	0.918367
332	2     	0.918367	0        	0.918367	0.918367
333	2     	0.918367	0        	0.918367	0.918367
334	2     	0.918367	0        	0.918367	0.918367
335	2     	0.918367	0        	0.918367	0.918367
336	2     	0.918367	0        	0.918367	0.918367
337	2     	0.918367	0        	0.918367	0.918367
338	2     	0.918367	0        	0.918367	0.918367
339	2     	0.918367	0        	0.918367	0.918367
340	2     	0.918367	0        	0.918367	0.918367
341	2     	0.918367	0        	0.918367	0.918367
342	2     	0.918367	0        	0.918367	0.918367
343	2     	0.918367	0        	0.918367	0.918367
344	2     	0.918367	0        	0.918367	0.918367
345	2     	0.918367	0        	0.918367	0.918367
346	2     	0.918367	0        	0.918367	0.918367
347	2     	0.918367	0        	0.918367	0.918367
348	2     	0.918367	0        	0.918367	0.918367
349	2     	0.918367	0        	0.918367	0.918367
350	2     	0.918367	0        	0.918367	0.918367
351	2     	0.918367	0        	0.918367	0.918367
352	2     	0.918367	0        	0.918367	0.918367
353	2     	0.918367	0        	0.918367	0.918367
354	2     	0.918367	0        	0.918367	0.918367
355	2     	0.918367	0        	0.918367	0.918367
356	2     	0.918367	0        	0.918367	0.918367
357	2     	0.918367	0        	0.918367	0.918367
358	2     	0.918367	0        	0.918367	0.918367
359	2     	0.918367	0        	0.918367	0.918367
360	2     	0.918367	0        	0.918367	0.918367
361	2     	0.918367	0        	0.918367	0.918367
362	2     	0.918367	0        	0.918367	0.918367
363	2     	0.918367	0        	0.918367	0.918367
364	2     	0.918367	0        	0.918367	0.918367
365	2     	0.918367	0        	0.918367	0.918367
366	2     	0.918367	0        	0.918367	0.918367
367	2     	0.918367	0        	0.918367	0.918367
368	2     	0.918367	0        	0.918367	0.918367
369	2     	0.918367	0        	0.918367	0.918367
370	2     	0.918367	0        	0.918367	0.918367
371	2     	0.918367	0        	0.918367	0.918367
372	2     	0.918367	0        	0.918367	0.918367
373	2     	0.918367	0        	0.918367	0.918367
374	2     	0.918367	0        	0.918367	0.918367
375	2     	0.918367	0        	0.918367	0.918367
376	2     	0.918367	0        	0.918367	0.918367
377	2     	0.918367	0        	0.918367	0.918367
378	2     	0.918367	0        	0.918367	0.918367
379	2     	0.918367	0        	0.918367	0.918367
380	2     	0.918367	0        	0.918367	0.918367
381	2     	0.918367	0        	0.918367	0.918367
382	2     	0.918367	0        	0.918367	0.918367
383	2     	0.918367	0        	0.918367	0.918367
384	2     	0.918367	0        	0.918367	0.918367
385	2     	0.918367	0        	0.918367	0.918367
386	2     	0.918367	0        	0.918367	0.918367
387	2     	0.918367	0        	0.918367	0.918367
388	2     	0.918367	0        	0.918367	0.918367
389	2     	0.918367	0        	0.918367	0.918367
390	2     	0.918367	0        	0.918367	0.918367
391	2     	0.918367	0        	0.918367	0.918367
392	2     	0.918367	0        	0.918367	0.918367
393	2     	0.918367	0        	0.918367	0.918367
394	2     	0.918367	0        	0.918367	0.918367
395	2     	0.918367	0        	0.918367	0.918367
396	2     	0.918367	0        	0.918367	0.918367
397	2     	0.918367	0        	0.918367	0.918367
398	2     	0.918367	0        	0.918367	0.918367
399	2     	0.918367	0        	0.918367	0.918367
400	2     	0.918367	0        	0.918367	0.918367
401	2     	0.918367	0        	0.918367	0.918367
402	2     	0.918367	0        	0.918367	0.918367
403	2     	0.918367	0        	0.918367	0.918367
404	2     	0.928571	0.0102041	0.918367	0.938776
405	2     	0.928571	0.0102041	0.918367	0.938776
406	2     	0.928571	0.0102041	0.918367	0.938776
407	2     	0.928571	0.0102041	0.918367	0.938776
408	2     	0.928571	0.0102041	0.918367	0.938776
409	2     	0.928571	0.0102041	0.918367	0.938776
410	2     	0.928571	0.0102041	0.918367	0.938776
411	2     	0.928571	0.0102041	0.918367	0.938776
412	2     	0.928571	0.0102041	0.918367	0.938776
413	2     	0.928571	0.0102041	0.918367	0.938776
414	2     	0.928571	0.0102041	0.918367	0.938776
415	2     	0.928571	0.0102041	0.918367	0.938776
416	2     	0.928571	0.0102041	0.918367	0.938776
417	2     	0.928571	0.0102041	0.918367	0.938776
418	2     	0.928571	0.0102041	0.918367	0.938776
419	2     	0.928571	0.0102041	0.918367	0.938776
420	2     	0.928571	0.0102041	0.918367	0.938776
421	2     	0.928571	0.0102041	0.918367	0.938776
422	2     	0.928571	0.0102041	0.918367	0.938776
423	2     	0.928571	0.0102041	0.918367	0.938776
424	2     	0.928571	0.0102041	0.918367	0.938776
425	2     	0.928571	0.0102041	0.918367	0.938776
426	2     	0.928571	0.0102041	0.918367	0.938776
427	2     	0.928571	0.0102041	0.918367	0.938776
428	2     	0.928571	0.0102041	0.918367	0.938776
429	2     	0.928571	0.0102041	0.918367	0.938776
430	2     	0.928571	0.0102041	0.918367	0.938776
431	2     	0.928571	0.0102041	0.918367	0.938776
432	2     	0.928571	0.0102041	0.918367	0.938776
433	2     	0.928571	0.0102041	0.918367	0.938776
434	2     	0.928571	0.0102041	0.918367	0.938776
435	2     	0.928571	0.0102041	0.918367	0.938776
436	2     	0.928571	0.0102041	0.918367	0.938776
437	2     	0.928571	0.0102041	0.918367	0.938776
438	2     	0.928571	0.0102041	0.918367	0.938776
439	2     	0.928571	0.0102041	0.918367	0.938776
440	2     	0.928571	0.0102041	0.918367	0.938776
441	2     	0.928571	0.0102041	0.918367	0.938776
442	2     	0.928571	0.0102041	0.918367	0.938776
443	2     	0.928571	0.0102041	0.918367	0.938776
444	2     	0.928571	0.0102041	0.918367	0.938776
445	2     	0.928571	0.0102041	0.918367	0.938776
446	2     	0.928571	0.0102041	0.918367	0.938776
447	2     	0.928571	0.0102041	0.918367	0.938776
448	2     	0.928571	0.0102041	0.918367	0.938776
449	2     	0.928571	0.0102041	0.918367	0.938776
450	2     	0.928571	0.0102041	0.918367	0.938776
451	2     	0.928571	0.0102041	0.918367	0.938776
452	2     	0.928571	0.0102041	0.918367	0.938776
453	2     	0.928571	0.0102041	0.918367	0.938776
454	2     	0.928571	0.0102041	0.918367	0.938776
455	2     	0.928571	0.0102041	0.918367	0.938776
456	2     	0.928571	0.0102041	0.918367	0.938776
457	2     	0.928571	0.0102041	0.918367	0.938776
458	2     	0.928571	0.0102041	0.918367	0.938776
459	2     	0.928571	0.0102041	0.918367	0.938776
460	2     	0.928571	0.0102041	0.918367	0.938776
461	2     	0.928571	0.0102041	0.918367	0.938776
462	2     	0.928571	0.0102041	0.918367	0.938776
463	2     	0.928571	0.0102041	0.918367	0.938776
464	2     	0.928571	0.0102041	0.918367	0.938776
465	2     	0.928571	0.0102041	0.918367	0.938776
466	2     	0.928571	0.0102041	0.918367	0.938776
467	2     	0.928571	0.0102041	0.918367	0.938776
468	2     	0.928571	0.0102041	0.918367	0.938776
469	2     	0.928571	0.0102041	0.918367	0.938776
470	2     	0.928571	0.0102041	0.918367	0.938776
471	2     	0.928571	0.0102041	0.918367	0.938776
472	2     	0.928571	0.0102041	0.918367	0.938776
473	2     	0.928571	0.0102041	0.918367	0.938776
474	2     	0.928571	0.0102041	0.918367	0.938776
475	2     	0.928571	0.0102041	0.918367	0.938776
476	2     	0.928571	0.0102041	0.918367	0.938776
477	2     	0.928571	0.0102041	0.918367	0.938776
478	2     	0.928571	0.0102041	0.918367	0.938776
479	2     	0.928571	0.0102041	0.918367	0.938776
480	2     	0.928571	0.0102041	0.918367	0.938776
481	2     	0.928571	0.0102041	0.918367	0.938776
482	2     	0.928571	0.0102041	0.918367	0.938776
483	2     	0.928571	0.0102041	0.918367	0.938776
484	2     	0.928571	0.0102041	0.918367	0.938776
485	2     	0.928571	0.0102041	0.918367	0.938776
486	2     	0.928571	0.0102041	0.918367	0.938776
487	2     	0.928571	0.0102041	0.918367	0.938776
488	2     	0.928571	0.0102041	0.918367	0.938776
489	2     	0.928571	0.0102041	0.918367	0.938776
490	2     	0.928571	0.0102041	0.918367	0.938776
491	2     	0.928571	0.0102041	0.918367	0.938776
492	2     	0.928571	0.0102041	0.918367	0.938776
493	2     	0.928571	0.0102041	0.918367	0.938776
494	2     	0.928571	0.0102041	0.918367	0.938776
495	2     	0.928571	0.0102041	0.918367	0.938776
496	2     	0.94898 	0.0102041	0.938776	0.959184
497	2     	0.94898 	0.0102041	0.938776	0.959184
498	2     	0.94898 	0.0102041	0.938776	0.959184
499	2     	0.94898 	0.0102041	0.938776	0.959184
500	2     	0.94898 	0.0102041	0.938776	0.959184
501	2     	0.94898 	0.0102041	0.938776	0.959184
502	2     	0.959184	0        	0.959184	0.959184
503	2     	0.959184	0        	0.959184	0.959184
504	2     	0.959184	0        	0.959184	0.959184
505	2     	0.959184	0        	0.959184	0.959184
506	2     	0.959184	0        	0.959184	0.959184
507	2     	0.959184	0        	0.959184	0.959184
508	2     	0.959184	0        	0.959184	0.959184
509	2     	0.959184	0        	0.959184	0.959184
510	2     	0.959184	0        	0.959184	0.959184
511	2     	0.959184	0        	0.959184	0.959184
512	2     	0.959184	0        	0.959184	0.959184
513	2     	0.959184	0        	0.959184	0.959184
514	2     	0.959184	0        	0.959184	0.959184
515	2     	0.959184	0        	0.959184	0.959184
516	2     	0.959184	0        	0.959184	0.959184
517	2     	0.959184	0        	0.959184	0.959184
518	2     	0.959184	0        	0.959184	0.959184
519	2     	0.959184	0        	0.959184	0.959184
520	2     	0.959184	0        	0.959184	0.959184
521	2     	0.959184	0        	0.959184	0.959184
522	2     	0.959184	0        	0.959184	0.959184
523	2     	0.959184	0        	0.959184	0.959184
524	2     	0.959184	0        	0.959184	0.959184
525	2     	0.959184	0        	0.959184	0.959184
526	2     	0.959184	0        	0.959184	0.959184
527	2     	0.959184	0        	0.959184	0.959184
528	2     	0.959184	0        	0.959184	0.959184
529	2     	0.959184	0        	0.959184	0.959184
530	2     	0.959184	0        	0.959184	0.959184
531	2     	0.959184	0        	0.959184	0.959184
532	2     	0.959184	0        	0.959184	0.959184
533	2     	0.959184	0        	0.959184	0.959184
534	2     	0.959184	0        	0.959184	0.959184
535	2     	0.959184	0        	0.959184	0.959184
536	2     	0.959184	0        	0.959184	0.959184
537	2     	0.959184	0        	0.959184	0.959184
538	2     	0.959184	0        	0.959184	0.959184
539	2     	0.959184	0        	0.959184	0.959184
540	2     	0.959184	0        	0.959184	0.959184
541	2     	0.959184	0        	0.959184	0.959184
542	2     	0.959184	0        	0.959184	0.959184
543	2     	0.959184	0        	0.959184	0.959184
544	2     	0.959184	0        	0.959184	0.959184
545	2     	0.959184	0        	0.959184	0.959184
546	2     	0.969388	0.0102041	0.959184	0.979592
547	2     	0.969388	0.0102041	0.959184	0.979592
548	2     	0.969388	0.0102041	0.959184	0.979592
549	2     	0.969388	0.0102041	0.959184	0.979592
550	2     	0.969388	0.0102041	0.959184	0.979592
551	2     	0.969388	0.0102041	0.959184	0.979592
552	2     	0.969388	0.0102041	0.959184	0.979592
553	2     	0.969388	0.0102041	0.959184	0.979592
554	2     	0.979592	0        	0.979592	0.979592
555	2     	0.979592	0        	0.979592	0.979592
556	2     	0.979592	0        	0.979592	0.979592
557	2     	0.979592	0        	0.979592	0.979592
558	2     	0.979592	0        	0.979592	0.979592
559	2     	0.979592	0        	0.979592	0.979592
560	2     	0.979592	0        	0.979592	0.979592
561	2     	0.979592	0        	0.979592	0.979592
562	2     	0.979592	0        	0.979592	0.979592
563	2     	0.979592	0        	0.979592	0.979592
564	2     	0.979592	0        	0.979592	0.979592
565	2     	0.979592	0        	0.979592	0.979592
566	2     	0.979592	0        	0.979592	0.979592
567	2     	0.979592	0        	0.979592	0.979592
568	2     	0.979592	0        	0.979592	0.979592
569	2     	0.979592	0        	0.979592	0.979592
570	2     	0.979592	0        	0.979592	0.979592
571	2     	0.979592	0        	0.979592	0.979592
572	2     	0.979592	0        	0.979592	0.979592
573	2     	0.979592	0        	0.979592	0.979592
574	2     	0.979592	0        	0.979592	0.979592
575	2     	0.979592	0        	0.979592	0.979592
576	2     	0.979592	0        	0.979592	0.979592
577	2     	0.979592	0        	0.979592	0.979592
578	2     	0.979592	0        	0.979592	0.979592
579	2     	0.979592	0        	0.979592	0.979592
580	2     	0.979592	0        	0.979592	0.979592
581	2     	0.979592	0        	0.979592	0.979592
582	2     	0.979592	0        	0.979592	0.979592
583	2     	0.979592	0        	0.979592	0.979592
584	2     	0.979592	0        	0.979592	0.979592
585	2     	0.979592	0        	0.979592	0.979592
586	2     	0.979592	0        	0.979592	0.979592
587	2     	0.979592	0        	0.979592	0.979592
588	2     	0.979592	0        	0.979592	0.979592
589	2     	0.979592	0        	0.979592	0.979592
590	2     	0.979592	0        	0.979592	0.979592
591	2     	0.979592	0        	0.979592	0.979592
592	2     	0.979592	0        	0.979592	0.979592
593	2     	0.979592	0        	0.979592	0.979592
594	2     	0.979592	0        	0.979592	0.979592
595	2     	0.979592	0        	0.979592	0.979592
596	2     	0.979592	0        	0.979592	0.979592
597	2     	0.979592	0        	0.979592	0.979592
598	2     	0.979592	0        	0.979592	0.979592
599	2     	0.979592	0        	0.979592	0.979592
600	2     	0.979592	0        	0.979592	0.979592
601	2     	0.979592	0        	0.979592	0.979592
602	2     	0.979592	0        	0.979592	0.979592
603	2     	0.979592	0        	0.979592	0.979592
604	2     	0.979592	0        	0.979592	0.979592
605	2     	0.979592	0        	0.979592	0.979592
606	2     	0.979592	0        	0.979592	0.979592
607	2     	0.979592	0        	0.979592	0.979592
608	2     	0.979592	0        	0.979592	0.979592
609	2     	0.979592	0        	0.979592	0.979592
610	2     	0.979592	0        	0.979592	0.979592
611	2     	0.979592	0        	0.979592	0.979592
612	2     	0.979592	0        	0.979592	0.979592
613	2     	0.979592	0        	0.979592	0.979592
614	2     	0.979592	0        	0.979592	0.979592
615	2     	0.979592	0        	0.979592	0.979592
616	2     	0.979592	0        	0.979592	0.979592
617	2     	0.979592	0        	0.979592	0.979592
618	2     	0.979592	0        	0.979592	0.979592
619	2     	0.979592	0        	0.979592	0.979592
620	2     	0.979592	0        	0.979592	0.979592
621	2     	0.979592	0        	0.979592	0.979592
622	2     	0.979592	0        	0.979592	0.979592
623	2     	0.979592	0        	0.979592	0.979592
624	2     	0.979592	0        	0.979592	0.979592
625	2     	0.979592	0        	0.979592	0.979592
626	2     	0.979592	0        	0.979592	0.979592
627	2     	0.979592	0        	0.979592	0.979592
628	2     	0.979592	0        	0.979592	0.979592
629	2     	0.979592	0        	0.979592	0.979592
630	2     	0.979592	0        	0.979592	0.979592
631	2     	0.979592	0        	0.979592	0.979592
632	2     	0.979592	0        	0.979592	0.979592
633	2     	0.979592	0        	0.979592	0.979592
634	2     	0.979592	0        	0.979592	0.979592
635	2     	0.979592	0        	0.979592	0.979592
636	2     	0.979592	0        	0.979592	0.979592
637	2     	0.979592	0        	0.979592	0.979592
638	2     	0.979592	0        	0.979592	0.979592
639	2     	0.979592	0        	0.979592	0.979592
640	2     	0.979592	0        	0.979592	0.979592
641	2     	0.979592	0        	0.979592	0.979592
642	2     	0.979592	0        	0.979592	0.979592
643	2     	0.979592	0        	0.979592	0.979592
644	2     	0.979592	0        	0.979592	0.979592
645	2     	0.979592	0        	0.979592	0.979592
646	2     	0.979592	0        	0.979592	0.979592
647	2     	0.979592	0        	0.979592	0.979592
648	2     	0.979592	0        	0.979592	0.979592
649	2     	0.979592	0        	0.979592	0.979592
650	2     	0.979592	0        	0.979592	0.979592
651	2     	0.979592	0        	0.979592	0.979592
652	2     	0.979592	0        	0.979592	0.979592
653	2     	0.979592	0        	0.979592	0.979592
654	2     	0.979592	0        	0.979592	0.979592
655	2     	0.979592	0        	0.979592	0.979592
656	2     	0.979592	0        	0.979592	0.979592
657	2     	0.979592	0        	0.979592	0.979592
658	2     	0.979592	0        	0.979592	0.979592
659	2     	0.979592	0        	0.979592	0.979592
660	2     	0.979592	0        	0.979592	0.979592
661	2     	0.979592	0        	0.979592	0.979592
662	2     	0.979592	0        	0.979592	0.979592
663	2     	0.979592	0        	0.979592	0.979592
664	2     	0.979592	0        	0.979592	0.979592
665	2     	0.979592	0        	0.979592	0.979592
666	2     	0.979592	0        	0.979592	0.979592
667	2     	0.979592	0        	0.979592	0.979592
668	2     	0.979592	0        	0.979592	0.979592
669	2     	0.979592	0        	0.979592	0.979592
670	2     	0.979592	0        	0.979592	0.979592
671	2     	0.979592	0        	0.979592	0.979592
672	2     	0.979592	0        	0.979592	0.979592
673	2     	0.979592	0        	0.979592	0.979592
674	2     	0.979592	0        	0.979592	0.979592
675	2     	0.979592	0        	0.979592	0.979592
676	2     	0.979592	0        	0.979592	0.979592
677	2     	0.979592	0        	0.979592	0.979592
678	2     	0.979592	0        	0.979592	0.979592
679	2     	0.979592	0        	0.979592	0.979592
680	2     	0.979592	0        	0.979592	0.979592
681	2     	0.979592	0        	0.979592	0.979592
682	2     	0.979592	0        	0.979592	0.979592
683	2     	0.979592	0        	0.979592	0.979592
684	2     	0.979592	0        	0.979592	0.979592
685	2     	0.979592	0        	0.979592	0.979592
686	2     	0.979592	0        	0.979592	0.979592
687	2     	0.979592	0        	0.979592	0.979592
688	2     	0.979592	0        	0.979592	0.979592
689	2     	0.979592	0        	0.979592	0.979592
690	2     	0.979592	0        	0.979592	0.979592
691	2     	0.979592	0        	0.979592	0.979592
692	2     	0.979592	0        	0.979592	0.979592
693	2     	0.979592	0        	0.979592	0.979592
694	2     	0.979592	0        	0.979592	0.979592
695	2     	0.979592	0        	0.979592	0.979592
696	2     	0.979592	0        	0.979592	0.979592
697	2     	0.979592	0        	0.979592	0.979592
698	2     	0.979592	0        	0.979592	0.979592
699	2     	0.979592	0        	0.979592	0.979592
700	2     	0.979592	0        	0.979592	0.979592
701	2     	0.979592	0        	0.979592	0.979592
702	2     	0.979592	0        	0.979592	0.979592
703	2     	0.979592	0        	0.979592	0.979592
704	2     	0.979592	0        	0.979592	0.979592
705	2     	0.979592	0        	0.979592	0.979592
706	2     	0.979592	0        	0.979592	0.979592
707	2     	0.979592	0        	0.979592	0.979592
708	2     	0.979592	0        	0.979592	0.979592
709	2     	0.979592	0        	0.979592	0.979592
710	2     	0.979592	0        	0.979592	0.979592
711	2     	0.979592	0        	0.979592	0.979592
712	2     	0.979592	0        	0.979592	0.979592
713	2     	0.979592	0        	0.979592	0.979592
714	2     	0.979592	0        	0.979592	0.979592
715	2     	0.979592	0        	0.979592	0.979592
716	2     	0.979592	0        	0.979592	0.979592
717	2     	0.979592	0        	0.979592	0.979592
718	2     	0.979592	0        	0.979592	0.979592
719	2     	0.979592	0        	0.979592	0.979592
720	2     	0.979592	0        	0.979592	0.979592
721	2     	0.979592	0        	0.979592	0.979592
722	2     	0.979592	0        	0.979592	0.979592
723	2     	0.979592	0        	0.979592	0.979592
724	2     	0.979592	0        	0.979592	0.979592
725	2     	0.979592	0        	0.979592	0.979592
726	2     	0.979592	0        	0.979592	0.979592
727	2     	0.979592	0        	0.979592	0.979592
728	2     	0.979592	0        	0.979592	0.979592
729	2     	0.979592	0        	0.979592	0.979592
730	2     	0.979592	0        	0.979592	0.979592
731	2     	0.979592	0        	0.979592	0.979592
732	2     	0.979592	0        	0.979592	0.979592
733	2     	0.979592	0        	0.979592	0.979592
734	2     	0.979592	0        	0.979592	0.979592
735	2     	0.979592	0        	0.979592	0.979592
736	2     	0.979592	0        	0.979592	0.979592
737	2     	0.979592	0        	0.979592	0.979592
738	2     	0.979592	0        	0.979592	0.979592
739	2     	0.979592	0        	0.979592	0.979592
740	2     	0.979592	0        	0.979592	0.979592
741	2     	0.979592	0        	0.979592	0.979592
742	2     	0.979592	0        	0.979592	0.979592
743	2     	0.979592	0        	0.979592	0.979592
744	2     	0.979592	0        	0.979592	0.979592
745	2     	0.979592	0        	0.979592	0.979592
746	2     	0.979592	0        	0.979592	0.979592
747	2     	0.979592	0        	0.979592	0.979592
748	2     	0.979592	0        	0.979592	0.979592
749	2     	0.979592	0        	0.979592	0.979592
750	2     	0.979592	0        	0.979592	0.979592
751	2     	0.979592	0        	0.979592	0.979592
752	2     	0.979592	0        	0.979592	0.979592
753	2     	0.979592	0        	0.979592	0.979592
754	2     	0.979592	0        	0.979592	0.979592
755	2     	0.979592	0        	0.979592	0.979592
756	2     	0.979592	0        	0.979592	0.979592
757	2     	0.979592	0        	0.979592	0.979592
758	2     	0.979592	0        	0.979592	0.979592
759	2     	0.979592	0        	0.979592	0.979592
760	2     	0.979592	0        	0.979592	0.979592
761	2     	0.979592	0        	0.979592	0.979592
762	2     	0.979592	0        	0.979592	0.979592
763	2     	0.979592	0        	0.979592	0.979592
764	2     	0.979592	0        	0.979592	0.979592
765	2     	0.979592	0        	0.979592	0.979592
766	2     	0.979592	0        	0.979592	0.979592
767	2     	0.979592	0        	0.979592	0.979592
768	2     	0.979592	0        	0.979592	0.979592
769	2     	0.979592	0        	0.979592	0.979592
770	2     	0.979592	0        	0.979592	0.979592
771	2     	0.979592	0        	0.979592	0.979592
772	2     	0.979592	0        	0.979592	0.979592
773	2     	0.979592	0        	0.979592	0.979592
774	2     	0.979592	0        	0.979592	0.979592
775	2     	0.979592	0        	0.979592	0.979592
776	2     	0.979592	0        	0.979592	0.979592
777	2     	0.979592	0        	0.979592	0.979592
778	2     	0.979592	0        	0.979592	0.979592
779	2     	0.979592	0        	0.979592	0.979592
780	2     	0.979592	0        	0.979592	0.979592
781	2     	0.979592	0        	0.979592	0.979592
782	2     	0.979592	0        	0.979592	0.979592
783	2     	0.979592	0        	0.979592	0.979592
784	2     	0.979592	0        	0.979592	0.979592
785	2     	0.979592	0        	0.979592	0.979592
786	2     	0.979592	0        	0.979592	0.979592
787	2     	0.979592	0        	0.979592	0.979592
788	2     	0.979592	0        	0.979592	0.979592
789	2     	0.979592	0        	0.979592	0.979592
790	2     	0.979592	0        	0.979592	0.979592
791	2     	0.979592	0        	0.979592	0.979592
792	2     	0.979592	0        	0.979592	0.979592
793	2     	0.979592	0        	0.979592	0.979592
794	2     	0.979592	0        	0.979592	0.979592
795	2     	0.979592	0        	0.979592	0.979592
796	2     	0.979592	0        	0.979592	0.979592
797	2     	0.979592	0        	0.979592	0.979592
798	2     	0.979592	0        	0.979592	0.979592
799	2     	0.979592	0        	0.979592	0.979592
800	2     	0.979592	0        	0.979592	0.979592
801	2     	0.979592	0        	0.979592	0.979592
802	2     	0.979592	0        	0.979592	0.979592
803	2     	0.979592	0        	0.979592	0.979592
804	2     	0.989796	0.0102041	0.979592	1       