gen	nevals	avg 	std 	min 	max 
0  	2     	0.6 	0   	0.6 	0.6 
1  	2     	0.6 	0   	0.6 	0.6 
2  	2     	0.6 	0   	0.6 	0.6 
3  	2     	0.6 	0   	0.6 	0.6 
4  	2     	0.6 	0   	0.6 	0.6 
5  	2     	0.6 	0   	0.6 	0.6 
6  	2     	0.6 	0   	0.6 	0.6 
7  	2     	0.6 	0   	0.6 	0.6 
8  	2     	0.6 	0   	0.6 	0.6 
9  	2     	0.6 	0   	0.6 	0.6 
10 	2     	0.62	0.02	0.6 	0.64
11 	2     	0.64	0   	0.64	0.64
12 	2     	0.64	0   	0.64	0.64
13 	2     	0.66	0.02	0.64	0.68
14 	2     	0.66	0.02	0.64	0.68
15 	2     	0.66	0.02	0.64	0.68
16 	2     	0.66	0.02	0.64	0.68
17 	2     	0.66	0.02	0.64	0.68
18 	2     	0.68	0   	0.68	0.68
19 	2     	0.72	0.04	0.68	0.76
20 	2     	0.76	0   	0.76	0.76
21 	2     	0.76	0   	0.76	0.76
22 	2     	0.76	0   	0.76	0.76
23 	2     	0.76	0   	0.76	0.76
24 	2     	0.76	0   	0.76	0.76
25 	2     	0.76	0   	0.76	0.76
26 	2     	0.76	0   	0.76	0.76
27 	2     	0.76	0   	0.76	0.76
28 	2     	0.76	0   	0.76	0.76
29 	2     	0.76	0   	0.76	0.76
30 	2     	0.76	0   	0.76	0.76
31 	2     	0.76	0   	0.76	0.76
32 	2     	0.76	0   	0.76	0.76
33 	2     	0.76	0   	0.76	0.76
34 	2     	0.76	0   	0.76	0.76
35 	2     	0.76	0   	0.76	0.76
36 	2     	0.76	0   	0.76	0.76
37 	2     	0.76	0   	0.76	0.76
38 	2     	0.76	0   	0.76	0.76
39 	2     	0.76	0   	0.76	0.76
40 	2     	0.76	0   	0.76	0.76
41 	2     	0.76	0   	0.76	0.76
42 	2     	0.76	0   	0.76	0.76
43 	2     	0.76	0   	0.76	0.76
44 	2     	0.76	0   	0.76	0.76
45 	2     	0.76	0   	0.76	0.76
46 	2     	0.76	0   	0.76	0.76
47 	2     	0.76	0   	0.76	0.76
48 	2     	0.76	0   	0.76	0.76
49 	2     	0.76	0   	0.76	0.76
50 	2     	0.76	0   	0.76	0.76
51 	2     	0.76	0   	0.76	0.76
52 	2     	0.76	0   	0.76	0.76
53 	2     	0.78	0.02	0.76	0.8 
54 	2     	0.78	0.02	0.76	0.8 
55 	2     	0.78	0.02	0.76	0.8 
56 	2     	0.78	0.02	0.76	0.8 
57 	2     	0.78	0.02	0.76	0.8 
58 	2     	0.78	0.02	0.76	0.8 
59 	2     	0.78	0.02	0.76	0.8 
60 	2     	0.78	0.02	0.76	0.8 
61 	2     	0.8 	0   	0.8 	0.8 
62 	2     	0.8 	0   	0.8 	0.8 
63 	2     	0.8 	0   	0.8 	0.8 
64 	2     	0.8 	0   	0.8 	0.8 
65 	2     	0.8 	0   	0.8 	0.8 
66 	2     	0.8 	0   	0.8 	0.8 
67 	2     	0.8 	0   	0.8 	0.8 
68 	2     	0.8 	0   	0.8 	0.8 
69 	2     	0.8 	0   	0.8 	0.8 
70 	2     	0.8 	0   	0.8 	0.8 
71 	2     	0.8 	0   	0.8 	0.8 
72 	2     	0.8 	0   	0.8 	0.8 
73 	2     	0.8 	0   	0.8 	0.8 
74 	2     	0.8 	0   	0.8 	0.8 
75 	2     	0.8 	0   	0.8 	0.8 
76 	2     	0.8 	0   	0.8 	0.8 
77 	2     	0.8 	0   	0.8 	0.8 
78 	2     	0.8 	0   	0.8 	0.8 
79 	2     	0.8 	0   	0.8 	0.8 
80 	2     	0.8 	0   	0.8 	0.8 
81 	2     	0.8 	0   	0.8 	0.8 
82 	2     	0.8 	0   	0.8 	0.8 
83 	2     	0.8 	0   	0.8 	0.8 
84 	2     	0.8 	0   	0.8 	0.8 
85 	2     	0.8 	0   	0.8 	0.8 
86 	2     	0.8 	0   	0.8 	0.8 
87 	2     	0.8 	0   	0.8 	0.8 
88 	2     	0.8 	0   	0.8 	0.8 
89 	2     	0.8 	0   	0.8 	0.8 
90 	2     	0.8 	0   	0.8 	0.8 
91 	2     	0.8 	0   	0.8 	0.8 
92 	2     	0.8 	0   	0.8 	0.8 
93 	2     	0.8 	0   	0.8 	0.8 
94 	2     	0.8 	0   	0.8 	0.8 
95 	2     	0.8 	0   	0.8 	0.8 
96 	2     	0.8 	0   	0.8 	0.8 
97 	2     	0.8 	0   	0.8 	0.8 
98 	2     	0.82	0.02	0.8 	0.84
99 	2     	0.84	0   	0.84	0.84
100	2     	0.84	0   	0.84	0.84
101	2     	0.84	0   	0.84	0.84
102	2     	0.84	0   	0.84	0.84
103	2     	0.84	0   	0.84	0.84