gen	nevals	avg    	std    	min   	max   
0  	2     	0.53125	0.09375	0.4375	0.625 
1  	2     	0.5625 	0.0625 	0.5   	0.625 
2  	2     	0.5625 	0.0625 	0.5   	0.625 
3  	2     	0.65625	0.03125	0.625 	0.6875
4  	2     	0.65625	0.03125	0.625 	0.6875
5  	2     	0.6875 	0      	0.6875	0.6875