gen	nevals	avg     	std      	min     	max     
0  	2     	0.5     	0.0277778	0.472222	0.527778
1  	2     	0.541667	0.0138889	0.527778	0.555556
2  	2     	0.541667	0.0138889	0.527778	0.555556
3  	2     	0.541667	0.0138889	0.527778	0.555556
4  	2     	0.555556	0        	0.555556	0.555556
5  	2     	0.583333	0.0277778	0.555556	0.611111
6  	2     	0.638889	0.0277778	0.611111	0.666667
7  	2     	0.680556	0.0138889	0.666667	0.694444
8  	2     	0.680556	0.0138889	0.666667	0.694444
9  	2     	0.680556	0.0138889	0.666667	0.694444
10 	2     	0.708333	0.0138889	0.694444	0.722222
11 	2     	0.736111	0.0138889	0.722222	0.75    
12 	2     	0.736111	0.0138889	0.722222	0.75    
13 	2     	0.777778	0.0277778	0.75    	0.805556
14 	2     	0.777778	0.0277778	0.75    	0.805556
15 	2     	0.777778	0.0277778	0.75    	0.805556
16 	2     	0.791667	0.0138889	0.777778	0.805556
17 	2     	0.791667	0.0138889	0.777778	0.805556
18 	2     	0.791667	0.0138889	0.777778	0.805556
19 	2     	0.791667	0.0138889	0.777778	0.805556
20 	2     	0.791667	0.0138889	0.777778	0.805556
21 	2     	0.791667	0.0138889	0.777778	0.805556
22 	2     	0.791667	0.0138889	0.777778	0.805556
23 	2     	0.847222	0.0416667	0.805556	0.888889
24 	2     	0.861111	0.0277778	0.833333	0.888889
25 	2     	0.861111	0.0277778	0.833333	0.888889
26 	2     	0.861111	0.0277778	0.833333	0.888889
27 	2     	0.861111	0.0277778	0.833333	0.888889
28 	2     	0.875   	0.0138889	0.861111	0.888889
29 	2     	0.875   	0.0138889	0.861111	0.888889
30 	2     	0.875   	0.0138889	0.861111	0.888889
31 	2     	0.875   	0.0138889	0.861111	0.888889
32 	2     	0.875   	0.0138889	0.861111	0.888889
33 	2     	0.875   	0.0138889	0.861111	0.888889
34 	2     	0.875   	0.0138889	0.861111	0.888889
35 	2     	0.875   	0.0138889	0.861111	0.888889
36 	2     	0.875   	0.0138889	0.861111	0.888889
37 	2     	0.875   	0.0138889	0.861111	0.888889
38 	2     	0.875   	0.0138889	0.861111	0.888889
39 	2     	0.875   	0.0138889	0.861111	0.888889
40 	2     	0.875   	0.0138889	0.861111	0.888889
41 	2     	0.875   	0.0138889	0.861111	0.888889
42 	2     	0.875   	0.0138889	0.861111	0.888889
43 	2     	0.875   	0.0138889	0.861111	0.888889
44 	2     	0.875   	0.0138889	0.861111	0.888889
45 	2     	0.875   	0.0138889	0.861111	0.888889
46 	2     	0.875   	0.0138889	0.861111	0.888889
47 	2     	0.875   	0.0138889	0.861111	0.888889
48 	2     	0.875   	0.0138889	0.861111	0.888889
49 	2     	0.875   	0.0138889	0.861111	0.888889
50 	2     	0.875   	0.0138889	0.861111	0.888889
51 	2     	0.875   	0.0138889	0.861111	0.888889
52 	2     	0.875   	0.0138889	0.861111	0.888889
53 	2     	0.875   	0.0138889	0.861111	0.888889
54 	2     	0.875   	0.0138889	0.861111	0.888889
55 	2     	0.875   	0.0138889	0.861111	0.888889
56 	2     	0.875   	0.0138889	0.861111	0.888889
57 	2     	0.875   	0.0138889	0.861111	0.888889
58 	2     	0.875   	0.0138889	0.861111	0.888889
59 	2     	0.888889	0        	0.888889	0.888889
60 	2     	0.888889	0        	0.888889	0.888889
61 	2     	0.888889	0        	0.888889	0.888889
62 	2     	0.888889	0        	0.888889	0.888889
63 	2     	0.888889	0        	0.888889	0.888889
64 	2     	0.888889	0        	0.888889	0.888889
65 	2     	0.888889	0        	0.888889	0.888889
66 	2     	0.888889	0        	0.888889	0.888889
67 	2     	0.888889	0        	0.888889	0.888889
68 	2     	0.888889	0        	0.888889	0.888889
69 	2     	0.888889	0        	0.888889	0.888889
70 	2     	0.888889	0        	0.888889	0.888889
71 	2     	0.888889	0        	0.888889	0.888889
72 	2     	0.888889	0        	0.888889	0.888889
73 	2     	0.888889	0        	0.888889	0.888889
74 	2     	0.888889	0        	0.888889	0.888889
75 	2     	0.888889	0        	0.888889	0.888889
76 	2     	0.888889	0        	0.888889	0.888889
77 	2     	0.888889	0        	0.888889	0.888889
78 	2     	0.888889	0        	0.888889	0.888889
79 	2     	0.888889	0        	0.888889	0.888889
80 	2     	0.888889	0        	0.888889	0.888889
81 	2     	0.888889	0        	0.888889	0.888889
82 	2     	0.888889	0        	0.888889	0.888889
83 	2     	0.888889	0        	0.888889	0.888889
84 	2     	0.888889	0        	0.888889	0.888889
85 	2     	0.888889	0        	0.888889	0.888889
86 	2     	0.888889	0        	0.888889	0.888889
87 	2     	0.888889	0        	0.888889	0.888889
88 	2     	0.888889	0        	0.888889	0.888889
89 	2     	0.888889	0        	0.888889	0.888889
90 	2     	0.888889	0        	0.888889	0.888889
91 	2     	0.888889	0        	0.888889	0.888889
92 	2     	0.888889	0        	0.888889	0.888889
93 	2     	0.888889	0        	0.888889	0.888889
94 	2     	0.888889	0        	0.888889	0.888889
95 	2     	0.888889	0        	0.888889	0.888889
96 	2     	0.888889	0        	0.888889	0.888889
97 	2     	0.888889	0        	0.888889	0.888889
98 	2     	0.888889	0        	0.888889	0.888889
99 	2     	0.888889	0        	0.888889	0.888889
100	2     	0.888889	0        	0.888889	0.888889
101	2     	0.888889	0        	0.888889	0.888889
102	2     	0.888889	0        	0.888889	0.888889
103	2     	0.888889	0        	0.888889	0.888889
104	2     	0.888889	0        	0.888889	0.888889
105	2     	0.888889	0        	0.888889	0.888889
106	2     	0.888889	0        	0.888889	0.888889
107	2     	0.888889	0        	0.888889	0.888889
108	2     	0.888889	0        	0.888889	0.888889
109	2     	0.888889	0        	0.888889	0.888889
110	2     	0.888889	0        	0.888889	0.888889
111	2     	0.888889	0        	0.888889	0.888889
112	2     	0.888889	0        	0.888889	0.888889
113	2     	0.888889	0        	0.888889	0.888889
114	2     	0.888889	0        	0.888889	0.888889
115	2     	0.888889	0        	0.888889	0.888889
116	2     	0.888889	0        	0.888889	0.888889
117	2     	0.888889	0        	0.888889	0.888889
118	2     	0.888889	0        	0.888889	0.888889
119	2     	0.888889	0        	0.888889	0.888889
120	2     	0.888889	0        	0.888889	0.888889
121	2     	0.888889	0        	0.888889	0.888889
122	2     	0.888889	0        	0.888889	0.888889
123	2     	0.888889	0        	0.888889	0.888889
124	2     	0.888889	0        	0.888889	0.888889
125	2     	0.888889	0        	0.888889	0.888889
126	2     	0.888889	0        	0.888889	0.888889
127	2     	0.888889	0        	0.888889	0.888889
128	2     	0.888889	0        	0.888889	0.888889
129	2     	0.888889	0        	0.888889	0.888889
130	2     	0.888889	0        	0.888889	0.888889
131	2     	0.888889	0        	0.888889	0.888889
132	2     	0.888889	0        	0.888889	0.888889
133	2     	0.888889	0        	0.888889	0.888889
134	2     	0.888889	0        	0.888889	0.888889
135	2     	0.888889	0        	0.888889	0.888889
136	2     	0.888889	0        	0.888889	0.888889
137	2     	0.888889	0        	0.888889	0.888889
138	2     	0.888889	0        	0.888889	0.888889
139	2     	0.888889	0        	0.888889	0.888889
140	2     	0.888889	0        	0.888889	0.888889
141	2     	0.888889	0        	0.888889	0.888889
142	2     	0.888889	0        	0.888889	0.888889
143	2     	0.888889	0        	0.888889	0.888889
144	2     	0.902778	0.0138889	0.888889	0.916667
145	2     	0.902778	0.0138889	0.888889	0.916667
146	2     	0.902778	0.0138889	0.888889	0.916667
147	2     	0.902778	0.0138889	0.888889	0.916667
148	2     	0.902778	0.0138889	0.888889	0.916667
149	2     	0.902778	0.0138889	0.888889	0.916667
150	2     	0.902778	0.0138889	0.888889	0.916667
151	2     	0.902778	0.0138889	0.888889	0.916667
152	2     	0.930556	0.0138889	0.916667	0.944444
153	2     	0.930556	0.0138889	0.916667	0.944444
154	2     	0.930556	0.0138889	0.916667	0.944444
155	2     	0.930556	0.0138889	0.916667	0.944444
156	2     	0.930556	0.0138889	0.916667	0.944444
157	2     	0.930556	0.0138889	0.916667	0.944444
158	2     	0.930556	0.0138889	0.916667	0.944444
159	2     	0.930556	0.0138889	0.916667	0.944444
160	2     	0.930556	0.0138889	0.916667	0.944444
161	2     	0.930556	0.0138889	0.916667	0.944444
162	2     	0.930556	0.0138889	0.916667	0.944444
163	2     	0.930556	0.0138889	0.916667	0.944444
164	2     	0.930556	0.0138889	0.916667	0.944444
165	2     	0.930556	0.0138889	0.916667	0.944444
166	2     	0.930556	0.0138889	0.916667	0.944444
167	2     	0.930556	0.0138889	0.916667	0.944444
168	2     	0.930556	0.0138889	0.916667	0.944444
169	2     	0.930556	0.0138889	0.916667	0.944444
170	2     	0.930556	0.0138889	0.916667	0.944444
171	2     	0.930556	0.0138889	0.916667	0.944444
172	2     	0.944444	0        	0.944444	0.944444
173	2     	0.944444	0        	0.944444	0.944444
174	2     	0.944444	0        	0.944444	0.944444
175	2     	0.944444	0        	0.944444	0.944444
176	2     	0.944444	0        	0.944444	0.944444
177	2     	0.944444	0        	0.944444	0.944444
178	2     	0.944444	0        	0.944444	0.944444
179	2     	0.944444	0        	0.944444	0.944444
180	2     	0.944444	0        	0.944444	0.944444
181	2     	0.944444	0        	0.944444	0.944444
182	2     	0.944444	0        	0.944444	0.944444
183	2     	0.944444	0        	0.944444	0.944444
184	2     	0.958333	0.0138889	0.944444	0.972222
185	2     	0.958333	0.0138889	0.944444	0.972222
186	2     	0.958333	0.0138889	0.944444	0.972222
187	2     	0.958333	0.0138889	0.944444	0.972222
188	2     	0.958333	0.0138889	0.944444	0.972222
189	2     	0.958333	0.0138889	0.944444	0.972222
190	2     	0.958333	0.0138889	0.944444	0.972222
191	2     	0.972222	0        	0.972222	0.972222
192	2     	0.972222	0        	0.972222	0.972222
193	2     	0.972222	0        	0.972222	0.972222
194	2     	0.972222	0        	0.972222	0.972222
195	2     	0.972222	0        	0.972222	0.972222
196	2     	0.972222	0        	0.972222	0.972222
197	2     	0.972222	0        	0.972222	0.972222
198	2     	0.972222	0        	0.972222	0.972222
199	2     	0.972222	0        	0.972222	0.972222
200	2     	0.972222	0        	0.972222	0.972222
201	2     	0.972222	0        	0.972222	0.972222
202	2     	0.972222	0        	0.972222	0.972222
203	2     	0.972222	0        	0.972222	0.972222
204	2     	0.972222	0        	0.972222	0.972222
205	2     	0.972222	0        	0.972222	0.972222
206	2     	0.972222	0        	0.972222	0.972222
207	2     	0.972222	0        	0.972222	0.972222
208	2     	0.972222	0        	0.972222	0.972222
209	2     	0.972222	0        	0.972222	0.972222
210	2     	0.972222	0        	0.972222	0.972222
211	2     	0.972222	0        	0.972222	0.972222