gen	nevals	avg 	std 	min 	max 
0  	2     	0.58	0.02	0.56	0.6 
1  	2     	0.64	0.04	0.6 	0.68
2  	2     	0.7 	0.02	0.68	0.72
3  	2     	0.7 	0.02	0.68	0.72
4  	2     	0.74	0.02	0.72	0.76
5  	2     	0.74	0.02	0.72	0.76
6  	2     	0.74	0.02	0.72	0.76
7  	2     	0.74	0.02	0.72	0.76
8  	2     	0.76	0   	0.76	0.76
9  	2     	0.76	0   	0.76	0.76
10 	2     	0.76	0   	0.76	0.76
11 	2     	0.76	0   	0.76	0.76
12 	2     	0.76	0   	0.76	0.76
13 	2     	0.76	0   	0.76	0.76
14 	2     	0.76	0   	0.76	0.76
15 	2     	0.76	0   	0.76	0.76
16 	2     	0.76	0   	0.76	0.76
17 	2     	0.76	0   	0.76	0.76
18 	2     	0.76	0   	0.76	0.76
19 	2     	0.76	0   	0.76	0.76
20 	2     	0.76	0   	0.76	0.76
21 	2     	0.76	0   	0.76	0.76
22 	2     	0.76	0   	0.76	0.76
23 	2     	0.76	0   	0.76	0.76
24 	2     	0.76	0   	0.76	0.76
25 	2     	0.76	0   	0.76	0.76
26 	2     	0.76	0   	0.76	0.76
27 	2     	0.76	0   	0.76	0.76
28 	2     	0.76	0   	0.76	0.76
29 	2     	0.76	0   	0.76	0.76
30 	2     	0.76	0   	0.76	0.76
31 	2     	0.76	0   	0.76	0.76
32 	2     	0.76	0   	0.76	0.76
33 	2     	0.76	0   	0.76	0.76
34 	2     	0.76	0   	0.76	0.76
35 	2     	0.76	0   	0.76	0.76
36 	2     	0.76	0   	0.76	0.76
37 	2     	0.76	0   	0.76	0.76
38 	2     	0.76	0   	0.76	0.76
39 	2     	0.76	0   	0.76	0.76
40 	2     	0.76	0   	0.76	0.76
41 	2     	0.76	0   	0.76	0.76
42 	2     	0.76	0   	0.76	0.76
43 	2     	0.8 	0.04	0.76	0.84
44 	2     	0.8 	0.04	0.76	0.84
45 	2     	0.8 	0.04	0.76	0.84
46 	2     	0.8 	0.04	0.76	0.84
47 	2     	0.82	0.02	0.8 	0.84
48 	2     	0.82	0.02	0.8 	0.84
49 	2     	0.82	0.02	0.8 	0.84
50 	2     	0.82	0.02	0.8 	0.84
51 	2     	0.82	0.02	0.8 	0.84
52 	2     	0.84	0   	0.84	0.84
53 	2     	0.84	0   	0.84	0.84
54 	2     	0.84	0   	0.84	0.84
55 	2     	0.84	0   	0.84	0.84
56 	2     	0.84	0   	0.84	0.84
57 	2     	0.84	0   	0.84	0.84
58 	2     	0.84	0   	0.84	0.84
59 	2     	0.84	0   	0.84	0.84
60 	2     	0.84	0   	0.84	0.84
61 	2     	0.84	0   	0.84	0.84
62 	2     	0.84	0   	0.84	0.84
63 	2     	0.84	0   	0.84	0.84
64 	2     	0.84	0   	0.84	0.84
65 	2     	0.84	0   	0.84	0.84
66 	2     	0.84	0   	0.84	0.84
67 	2     	0.86	0.02	0.84	0.88
68 	2     	0.86	0.02	0.84	0.88
69 	2     	0.86	0.02	0.84	0.88
70 	2     	0.86	0.02	0.84	0.88
71 	2     	0.86	0.02	0.84	0.88
72 	2     	0.86	0.02	0.84	0.88
73 	2     	0.86	0.02	0.84	0.88
74 	2     	0.86	0.02	0.84	0.88
75 	2     	0.86	0.02	0.84	0.88
76 	2     	0.86	0.02	0.84	0.88
77 	2     	0.86	0.02	0.84	0.88
78 	2     	0.86	0.02	0.84	0.88
79 	2     	0.9 	0.02	0.88	0.92
80 	2     	0.9 	0.02	0.88	0.92
81 	2     	0.9 	0.02	0.88	0.92
82 	2     	0.9 	0.02	0.88	0.92
83 	2     	0.9 	0.02	0.88	0.92
84 	2     	0.9 	0.02	0.88	0.92
85 	2     	0.9 	0.02	0.88	0.92
86 	2     	0.9 	0.02	0.88	0.92
87 	2     	0.9 	0.02	0.88	0.92
88 	2     	0.9 	0.02	0.88	0.92
89 	2     	0.9 	0.02	0.88	0.92
90 	2     	0.9 	0.02	0.88	0.92
91 	2     	0.9 	0.02	0.88	0.92
92 	2     	0.94	0.02	0.92	0.96
93 	2     	0.94	0.02	0.92	0.96
94 	2     	0.94	0.02	0.92	0.96
95 	2     	0.96	0   	0.96	0.96
96 	2     	0.96	0   	0.96	0.96
97 	2     	0.96	0   	0.96	0.96