gen	nevals	avg     	std      	min     	max     
0  	2     	0.5     	0.0102041	0.489796	0.510204
1  	2     	0.510204	0        	0.510204	0.510204
2  	2     	0.520408	0.0102041	0.510204	0.530612
3  	2     	0.55102 	0.0204082	0.530612	0.571429
4  	2     	0.571429	0        	0.571429	0.571429
5  	2     	0.591837	0.0204082	0.571429	0.612245
6  	2     	0.602041	0.0102041	0.591837	0.612245
7  	2     	0.612245	0        	0.612245	0.612245
8  	2     	0.612245	0        	0.612245	0.612245
9  	2     	0.612245	0        	0.612245	0.612245
10 	2     	0.622449	0.0102041	0.612245	0.632653
11 	2     	0.653061	0.0204082	0.632653	0.673469
12 	2     	0.653061	0.0204082	0.632653	0.673469
13 	2     	0.653061	0.0204082	0.632653	0.673469
14 	2     	0.653061	0.0204082	0.632653	0.673469
15 	2     	0.663265	0.0102041	0.653061	0.673469
16 	2     	0.663265	0.0102041	0.653061	0.673469
17 	2     	0.663265	0.0102041	0.653061	0.673469
18 	2     	0.663265	0.0102041	0.653061	0.673469
19 	2     	0.673469	0        	0.673469	0.673469
20 	2     	0.673469	0        	0.673469	0.673469
21 	2     	0.673469	0        	0.673469	0.673469
22 	2     	0.673469	0        	0.673469	0.673469
23 	2     	0.673469	0        	0.673469	0.673469
24 	2     	0.704082	0.0306122	0.673469	0.734694
25 	2     	0.72449 	0.0102041	0.714286	0.734694
26 	2     	0.72449 	0.0102041	0.714286	0.734694
27 	2     	0.755102	0.0204082	0.734694	0.77551 
28 	2     	0.77551 	0        	0.77551 	0.77551 
29 	2     	0.77551 	0        	0.77551 	0.77551 
30 	2     	0.77551 	0        	0.77551 	0.77551 
31 	2     	0.77551 	0        	0.77551 	0.77551 
32 	2     	0.77551 	0        	0.77551 	0.77551 
33 	2     	0.77551 	0        	0.77551 	0.77551 
34 	2     	0.795918	0.0204082	0.77551 	0.816327
35 	2     	0.806122	0.0102041	0.795918	0.816327
36 	2     	0.806122	0.0102041	0.795918	0.816327
37 	2     	0.806122	0.0102041	0.795918	0.816327
38 	2     	0.806122	0.0102041	0.795918	0.816327
39 	2     	0.806122	0.0102041	0.795918	0.816327
40 	2     	0.806122	0.0102041	0.795918	0.816327
41 	2     	0.806122	0.0102041	0.795918	0.816327
42 	2     	0.806122	0.0102041	0.795918	0.816327
43 	2     	0.806122	0.0102041	0.795918	0.816327
44 	2     	0.806122	0.0102041	0.795918	0.816327
45 	2     	0.806122	0.0102041	0.795918	0.816327
46 	2     	0.806122	0.0102041	0.795918	0.816327
47 	2     	0.806122	0.0102041	0.795918	0.816327
48 	2     	0.806122	0.0102041	0.795918	0.816327
49 	2     	0.806122	0.0102041	0.795918	0.816327
50 	2     	0.806122	0.0102041	0.795918	0.816327
51 	2     	0.806122	0.0102041	0.795918	0.816327
52 	2     	0.806122	0.0102041	0.795918	0.816327
53 	2     	0.806122	0.0102041	0.795918	0.816327
54 	2     	0.806122	0.0102041	0.795918	0.816327
55 	2     	0.806122	0.0102041	0.795918	0.816327
56 	2     	0.816327	0        	0.816327	0.816327
57 	2     	0.816327	0        	0.816327	0.816327
58 	2     	0.816327	0        	0.816327	0.816327
59 	2     	0.816327	0        	0.816327	0.816327
60 	2     	0.816327	0        	0.816327	0.816327
61 	2     	0.816327	0        	0.816327	0.816327
62 	2     	0.816327	0        	0.816327	0.816327
63 	2     	0.816327	0        	0.816327	0.816327
64 	2     	0.816327	0        	0.816327	0.816327
65 	2     	0.816327	0        	0.816327	0.816327
66 	2     	0.816327	0        	0.816327	0.816327
67 	2     	0.816327	0        	0.816327	0.816327
68 	2     	0.816327	0        	0.816327	0.816327
69 	2     	0.816327	0        	0.816327	0.816327
70 	2     	0.816327	0        	0.816327	0.816327
71 	2     	0.816327	0        	0.816327	0.816327
72 	2     	0.816327	0        	0.816327	0.816327
73 	2     	0.816327	0        	0.816327	0.816327
74 	2     	0.816327	0        	0.816327	0.816327
75 	2     	0.816327	0        	0.816327	0.816327
76 	2     	0.816327	0        	0.816327	0.816327
77 	2     	0.816327	0        	0.816327	0.816327
78 	2     	0.816327	0        	0.816327	0.816327
79 	2     	0.816327	0        	0.816327	0.816327
80 	2     	0.816327	0        	0.816327	0.816327
81 	2     	0.816327	0        	0.816327	0.816327
82 	2     	0.816327	0        	0.816327	0.816327
83 	2     	0.826531	0.0102041	0.816327	0.836735
84 	2     	0.836735	0        	0.836735	0.836735
85 	2     	0.836735	0        	0.836735	0.836735
86 	2     	0.836735	0        	0.836735	0.836735
87 	2     	0.836735	0        	0.836735	0.836735
88 	2     	0.836735	0        	0.836735	0.836735
89 	2     	0.836735	0        	0.836735	0.836735
90 	2     	0.836735	0        	0.836735	0.836735
91 	2     	0.836735	0        	0.836735	0.836735
92 	2     	0.836735	0        	0.836735	0.836735
93 	2     	0.846939	0.0102041	0.836735	0.857143
94 	2     	0.846939	0.0102041	0.836735	0.857143
95 	2     	0.846939	0.0102041	0.836735	0.857143
96 	2     	0.846939	0.0102041	0.836735	0.857143
97 	2     	0.846939	0.0102041	0.836735	0.857143
98 	2     	0.846939	0.0102041	0.836735	0.857143
99 	2     	0.846939	0.0102041	0.836735	0.857143
100	2     	0.846939	0.0102041	0.836735	0.857143
101	2     	0.846939	0.0102041	0.836735	0.857143
102	2     	0.846939	0.0102041	0.836735	0.857143
103	2     	0.846939	0.0102041	0.836735	0.857143
104	2     	0.846939	0.0102041	0.836735	0.857143
105	2     	0.846939	0.0102041	0.836735	0.857143
106	2     	0.846939	0.0102041	0.836735	0.857143
107	2     	0.846939	0.0102041	0.836735	0.857143
108	2     	0.846939	0.0102041	0.836735	0.857143
109	2     	0.857143	0        	0.857143	0.857143
110	2     	0.857143	0        	0.857143	0.857143
111	2     	0.857143	0        	0.857143	0.857143
112	2     	0.857143	0        	0.857143	0.857143
113	2     	0.857143	0        	0.857143	0.857143
114	2     	0.857143	0        	0.857143	0.857143
115	2     	0.857143	0        	0.857143	0.857143
116	2     	0.857143	0        	0.857143	0.857143
117	2     	0.857143	0        	0.857143	0.857143
118	2     	0.857143	0        	0.857143	0.857143
119	2     	0.857143	0        	0.857143	0.857143
120	2     	0.857143	0        	0.857143	0.857143
121	2     	0.857143	0        	0.857143	0.857143
122	2     	0.867347	0.0102041	0.857143	0.877551
123	2     	0.867347	0.0102041	0.857143	0.877551
124	2     	0.867347	0.0102041	0.857143	0.877551
125	2     	0.867347	0.0102041	0.857143	0.877551
126	2     	0.887755	0.0102041	0.877551	0.897959
127	2     	0.887755	0.0102041	0.877551	0.897959
128	2     	0.887755	0.0102041	0.877551	0.897959
129	2     	0.887755	0.0102041	0.877551	0.897959
130	2     	0.887755	0.0102041	0.877551	0.897959
131	2     	0.887755	0.0102041	0.877551	0.897959
132	2     	0.887755	0.0102041	0.877551	0.897959
133	2     	0.887755	0.0102041	0.877551	0.897959
134	2     	0.887755	0.0102041	0.877551	0.897959
135	2     	0.887755	0.0102041	0.877551	0.897959
136	2     	0.887755	0.0102041	0.877551	0.897959
137	2     	0.887755	0.0102041	0.877551	0.897959
138	2     	0.887755	0.0102041	0.877551	0.897959
139	2     	0.887755	0.0102041	0.877551	0.897959
140	2     	0.887755	0.0102041	0.877551	0.897959
141	2     	0.887755	0.0102041	0.877551	0.897959
142	2     	0.887755	0.0102041	0.877551	0.897959
143	2     	0.897959	0        	0.897959	0.897959
144	2     	0.897959	0        	0.897959	0.897959
145	2     	0.897959	0        	0.897959	0.897959
146	2     	0.897959	0        	0.897959	0.897959
147	2     	0.897959	0        	0.897959	0.897959
148	2     	0.897959	0        	0.897959	0.897959
149	2     	0.897959	0        	0.897959	0.897959
150	2     	0.897959	0        	0.897959	0.897959
151	2     	0.897959	0        	0.897959	0.897959
152	2     	0.897959	0        	0.897959	0.897959
153	2     	0.897959	0        	0.897959	0.897959
154	2     	0.897959	0        	0.897959	0.897959
155	2     	0.897959	0        	0.897959	0.897959
156	2     	0.897959	0        	0.897959	0.897959
157	2     	0.897959	0        	0.897959	0.897959
158	2     	0.897959	0        	0.897959	0.897959
159	2     	0.897959	0        	0.897959	0.897959
160	2     	0.897959	0        	0.897959	0.897959
161	2     	0.897959	0        	0.897959	0.897959
162	2     	0.897959	0        	0.897959	0.897959
163	2     	0.897959	0        	0.897959	0.897959
164	2     	0.897959	0        	0.897959	0.897959
165	2     	0.897959	0        	0.897959	0.897959
166	2     	0.897959	0        	0.897959	0.897959
167	2     	0.897959	0        	0.897959	0.897959
168	2     	0.897959	0        	0.897959	0.897959
169	2     	0.897959	0        	0.897959	0.897959
170	2     	0.897959	0        	0.897959	0.897959
171	2     	0.897959	0        	0.897959	0.897959
172	2     	0.897959	0        	0.897959	0.897959
173	2     	0.897959	0        	0.897959	0.897959
174	2     	0.897959	0        	0.897959	0.897959
175	2     	0.897959	0        	0.897959	0.897959
176	2     	0.897959	0        	0.897959	0.897959
177	2     	0.897959	0        	0.897959	0.897959
178	2     	0.897959	0        	0.897959	0.897959
179	2     	0.897959	0        	0.897959	0.897959
180	2     	0.897959	0        	0.897959	0.897959
181	2     	0.897959	0        	0.897959	0.897959
182	2     	0.897959	0        	0.897959	0.897959
183	2     	0.897959	0        	0.897959	0.897959
184	2     	0.897959	0        	0.897959	0.897959
185	2     	0.897959	0        	0.897959	0.897959
186	2     	0.897959	0        	0.897959	0.897959
187	2     	0.897959	0        	0.897959	0.897959
188	2     	0.897959	0        	0.897959	0.897959
189	2     	0.897959	0        	0.897959	0.897959
190	2     	0.897959	0        	0.897959	0.897959
191	2     	0.897959	0        	0.897959	0.897959
192	2     	0.897959	0        	0.897959	0.897959
193	2     	0.897959	0        	0.897959	0.897959
194	2     	0.897959	0        	0.897959	0.897959
195	2     	0.897959	0        	0.897959	0.897959
196	2     	0.897959	0        	0.897959	0.897959
197	2     	0.897959	0        	0.897959	0.897959
198	2     	0.897959	0        	0.897959	0.897959
199	2     	0.897959	0        	0.897959	0.897959
200	2     	0.897959	0        	0.897959	0.897959
201	2     	0.897959	0        	0.897959	0.897959
202	2     	0.897959	0        	0.897959	0.897959
203	2     	0.897959	0        	0.897959	0.897959
204	2     	0.897959	0        	0.897959	0.897959
205	2     	0.897959	0        	0.897959	0.897959
206	2     	0.897959	0        	0.897959	0.897959
207	2     	0.897959	0        	0.897959	0.897959
208	2     	0.897959	0        	0.897959	0.897959
209	2     	0.897959	0        	0.897959	0.897959
210	2     	0.897959	0        	0.897959	0.897959
211	2     	0.897959	0        	0.897959	0.897959
212	2     	0.897959	0        	0.897959	0.897959
213	2     	0.897959	0        	0.897959	0.897959
214	2     	0.897959	0        	0.897959	0.897959
215	2     	0.897959	0        	0.897959	0.897959
216	2     	0.897959	0        	0.897959	0.897959
217	2     	0.897959	0        	0.897959	0.897959
218	2     	0.897959	0        	0.897959	0.897959
219	2     	0.897959	0        	0.897959	0.897959
220	2     	0.897959	0        	0.897959	0.897959
221	2     	0.897959	0        	0.897959	0.897959
222	2     	0.897959	0        	0.897959	0.897959
223	2     	0.897959	0        	0.897959	0.897959
224	2     	0.897959	0        	0.897959	0.897959
225	2     	0.897959	0        	0.897959	0.897959
226	2     	0.897959	0        	0.897959	0.897959
227	2     	0.897959	0        	0.897959	0.897959
228	2     	0.897959	0        	0.897959	0.897959
229	2     	0.897959	0        	0.897959	0.897959
230	2     	0.897959	0        	0.897959	0.897959
231	2     	0.897959	0        	0.897959	0.897959
232	2     	0.897959	0        	0.897959	0.897959
233	2     	0.897959	0        	0.897959	0.897959
234	2     	0.897959	0        	0.897959	0.897959
235	2     	0.897959	0        	0.897959	0.897959
236	2     	0.897959	0        	0.897959	0.897959
237	2     	0.897959	0        	0.897959	0.897959
238	2     	0.897959	0        	0.897959	0.897959
239	2     	0.897959	0        	0.897959	0.897959
240	2     	0.908163	0.0102041	0.897959	0.918367
241	2     	0.908163	0.0102041	0.897959	0.918367
242	2     	0.908163	0.0102041	0.897959	0.918367
243	2     	0.908163	0.0102041	0.897959	0.918367
244	2     	0.908163	0.0102041	0.897959	0.918367
245	2     	0.908163	0.0102041	0.897959	0.918367
246	2     	0.908163	0.0102041	0.897959	0.918367
247	2     	0.908163	0.0102041	0.897959	0.918367
248	2     	0.908163	0.0102041	0.897959	0.918367
249	2     	0.908163	0.0102041	0.897959	0.918367
250	2     	0.908163	0.0102041	0.897959	0.918367
251	2     	0.908163	0.0102041	0.897959	0.918367
252	2     	0.908163	0.0102041	0.897959	0.918367
253	2     	0.908163	0.0102041	0.897959	0.918367
254	2     	0.908163	0.0102041	0.897959	0.918367
255	2     	0.908163	0.0102041	0.897959	0.918367
256	2     	0.908163	0.0102041	0.897959	0.918367
257	2     	0.908163	0.0102041	0.897959	0.918367
258	2     	0.908163	0.0102041	0.897959	0.918367
259	2     	0.908163	0.0102041	0.897959	0.918367
260	2     	0.908163	0.0102041	0.897959	0.918367
261	2     	0.908163	0.0102041	0.897959	0.918367
262	2     	0.908163	0.0102041	0.897959	0.918367
263	2     	0.908163	0.0102041	0.897959	0.918367
264	2     	0.908163	0.0102041	0.897959	0.918367
265	2     	0.908163	0.0102041	0.897959	0.918367
266	2     	0.918367	0        	0.918367	0.918367
267	2     	0.918367	0        	0.918367	0.918367
268	2     	0.918367	0        	0.918367	0.918367
269	2     	0.918367	0        	0.918367	0.918367
270	2     	0.918367	0        	0.918367	0.918367
271	2     	0.918367	0        	0.918367	0.918367
272	2     	0.918367	0        	0.918367	0.918367
273	2     	0.918367	0        	0.918367	0.918367
274	2     	0.918367	0        	0.918367	0.918367
275	2     	0.918367	0        	0.918367	0.918367
276	2     	0.918367	0        	0.918367	0.918367
277	2     	0.918367	0        	0.918367	0.918367
278	2     	0.918367	0        	0.918367	0.918367
279	2     	0.918367	0        	0.918367	0.918367
280	2     	0.918367	0        	0.918367	0.918367
281	2     	0.918367	0        	0.918367	0.918367
282	2     	0.918367	0        	0.918367	0.918367
283	2     	0.918367	0        	0.918367	0.918367
284	2     	0.918367	0        	0.918367	0.918367
285	2     	0.918367	0        	0.918367	0.918367
286	2     	0.918367	0        	0.918367	0.918367
287	2     	0.918367	0        	0.918367	0.918367
288	2     	0.918367	0        	0.918367	0.918367
289	2     	0.918367	0        	0.918367	0.918367
290	2     	0.918367	0        	0.918367	0.918367
291	2     	0.918367	0        	0.918367	0.918367
292	2     	0.918367	0        	0.918367	0.918367
293	2     	0.918367	0        	0.918367	0.918367
294	2     	0.918367	0        	0.918367	0.918367
295	2     	0.918367	0        	0.918367	0.918367
296	2     	0.918367	0        	0.918367	0.918367
297	2     	0.918367	0        	0.918367	0.918367
298	2     	0.918367	0        	0.918367	0.918367
299	2     	0.918367	0        	0.918367	0.918367
300	2     	0.918367	0        	0.918367	0.918367
301	2     	0.918367	0        	0.918367	0.918367
302	2     	0.918367	0        	0.918367	0.918367
303	2     	0.918367	0        	0.918367	0.918367
304	2     	0.918367	0        	0.918367	0.918367
305	2     	0.918367	0        	0.918367	0.918367
306	2     	0.918367	0        	0.918367	0.918367
307	2     	0.918367	0        	0.918367	0.918367
308	2     	0.918367	0        	0.918367	0.918367
309	2     	0.918367	0        	0.918367	0.918367
310	2     	0.918367	0        	0.918367	0.918367
311	2     	0.918367	0        	0.918367	0.918367
312	2     	0.918367	0        	0.918367	0.918367
313	2     	0.918367	0        	0.918367	0.918367
314	2     	0.918367	0        	0.918367	0.918367
315	2     	0.918367	0        	0.918367	0.918367
316	2     	0.918367	0        	0.918367	0.918367
317	2     	0.918367	0        	0.918367	0.918367
318	2     	0.918367	0        	0.918367	0.918367
319	2     	0.918367	0        	0.918367	0.918367
320	2     	0.918367	0        	0.918367	0.918367
321	2     	0.918367	0        	0.918367	0.918367
322	2     	0.918367	0        	0.918367	0.918367
323	2     	0.918367	0        	0.918367	0.918367
324	2     	0.918367	0        	0.918367	0.918367
325	2     	0.918367	0        	0.918367	0.918367
326	2     	0.918367	0        	0.918367	0.918367
327	2     	0.918367	0        	0.918367	0.918367
328	2     	0.918367	0        	0.918367	0.918367
329	2     	0.918367	0        	0.918367	0.918367
330	2     	0.918367	0        	0.918367	0.918367
331	2     	0.918367	0        	0.918367	0.918367
332	2     	0.918367	0        	0.918367	0.918367
333	2     	0.918367	0        	0.918367	0.918367
334	2     	0.918367	0        	0.918367	0.918367
335	2     	0.918367	0        	0.918367	0.918367
336	2     	0.918367	0        	0.918367	0.918367
337	2     	0.918367	0        	0.918367	0.918367
338	2     	0.918367	0        	0.918367	0.918367
339	2     	0.918367	0        	0.918367	0.918367
340	2     	0.918367	0        	0.918367	0.918367
341	2     	0.918367	0        	0.918367	0.918367
342	2     	0.918367	0        	0.918367	0.918367
343	2     	0.918367	0        	0.918367	0.918367
344	2     	0.918367	0        	0.918367	0.918367
345	2     	0.918367	0        	0.918367	0.918367
346	2     	0.918367	0        	0.918367	0.918367
347	2     	0.918367	0        	0.918367	0.918367
348	2     	0.918367	0        	0.918367	0.918367
349	2     	0.918367	0        	0.918367	0.918367
350	2     	0.918367	0        	0.918367	0.918367
351	2     	0.918367	0        	0.918367	0.918367
352	2     	0.918367	0        	0.918367	0.918367
353	2     	0.918367	0        	0.918367	0.918367
354	2     	0.918367	0        	0.918367	0.918367
355	2     	0.918367	0        	0.918367	0.918367
356	2     	0.918367	0        	0.918367	0.918367
357	2     	0.918367	0        	0.918367	0.918367
358	2     	0.918367	0        	0.918367	0.918367
359	2     	0.918367	0        	0.918367	0.918367
360	2     	0.918367	0        	0.918367	0.918367
361	2     	0.918367	0        	0.918367	0.918367
362	2     	0.918367	0        	0.918367	0.918367
363	2     	0.918367	0        	0.918367	0.918367
364	2     	0.918367	0        	0.918367	0.918367
365	2     	0.918367	0        	0.918367	0.918367
366	2     	0.918367	0        	0.918367	0.918367
367	2     	0.918367	0        	0.918367	0.918367
368	2     	0.918367	0        	0.918367	0.918367
369	2     	0.918367	0        	0.918367	0.918367
370	2     	0.918367	0        	0.918367	0.918367
371	2     	0.918367	0        	0.918367	0.918367
372	2     	0.918367	0        	0.918367	0.918367
373	2     	0.918367	0        	0.918367	0.918367
374	2     	0.918367	0        	0.918367	0.918367
375	2     	0.918367	0        	0.918367	0.918367
376	2     	0.918367	0        	0.918367	0.918367
377	2     	0.918367	0        	0.918367	0.918367
378	2     	0.918367	0        	0.918367	0.918367
379	2     	0.918367	0        	0.918367	0.918367
380	2     	0.918367	0        	0.918367	0.918367
381	2     	0.918367	0        	0.918367	0.918367
382	2     	0.918367	0        	0.918367	0.918367
383	2     	0.918367	0        	0.918367	0.918367
384	2     	0.918367	0        	0.918367	0.918367
385	2     	0.918367	0        	0.918367	0.918367
386	2     	0.918367	0        	0.918367	0.918367
387	2     	0.918367	0        	0.918367	0.918367
388	2     	0.918367	0        	0.918367	0.918367
389	2     	0.918367	0        	0.918367	0.918367
390	2     	0.918367	0        	0.918367	0.918367
391	2     	0.918367	0        	0.918367	0.918367
392	2     	0.918367	0        	0.918367	0.918367
393	2     	0.918367	0        	0.918367	0.918367
394	2     	0.918367	0        	0.918367	0.918367
395	2     	0.918367	0        	0.918367	0.918367
396	2     	0.918367	0        	0.918367	0.918367
397	2     	0.918367	0        	0.918367	0.918367
398	2     	0.918367	0        	0.918367	0.918367
399	2     	0.918367	0        	0.918367	0.918367
400	2     	0.918367	0        	0.918367	0.918367
401	2     	0.918367	0        	0.918367	0.918367
402	2     	0.918367	0        	0.918367	0.918367
403	2     	0.918367	0        	0.918367	0.918367
404	2     	0.918367	0        	0.918367	0.918367
405	2     	0.918367	0        	0.918367	0.918367
406	2     	0.918367	0        	0.918367	0.918367
407	2     	0.918367	0        	0.918367	0.918367
408	2     	0.918367	0        	0.918367	0.918367
409	2     	0.918367	0        	0.918367	0.918367
410	2     	0.918367	0        	0.918367	0.918367
411	2     	0.918367	0        	0.918367	0.918367
412	2     	0.918367	0        	0.918367	0.918367
413	2     	0.918367	0        	0.918367	0.918367
414	2     	0.918367	0        	0.918367	0.918367
415	2     	0.918367	0        	0.918367	0.918367
416	2     	0.918367	0        	0.918367	0.918367
417	2     	0.918367	0        	0.918367	0.918367
418	2     	0.918367	0        	0.918367	0.918367
419	2     	0.918367	0        	0.918367	0.918367
420	2     	0.918367	0        	0.918367	0.918367
421	2     	0.918367	0        	0.918367	0.918367
422	2     	0.918367	0        	0.918367	0.918367
423	2     	0.918367	0        	0.918367	0.918367
424	2     	0.918367	0        	0.918367	0.918367
425	2     	0.918367	0        	0.918367	0.918367
426	2     	0.918367	0        	0.918367	0.918367
427	2     	0.918367	0        	0.918367	0.918367
428	2     	0.918367	0        	0.918367	0.918367
429	2     	0.918367	0        	0.918367	0.918367
430	2     	0.918367	0        	0.918367	0.918367
431	2     	0.918367	0        	0.918367	0.918367
432	2     	0.918367	0        	0.918367	0.918367
433	2     	0.918367	0        	0.918367	0.918367
434	2     	0.918367	0        	0.918367	0.918367
435	2     	0.918367	0        	0.918367	0.918367
436	2     	0.918367	0        	0.918367	0.918367
437	2     	0.918367	0        	0.918367	0.918367
438	2     	0.918367	0        	0.918367	0.918367
439	2     	0.918367	0        	0.918367	0.918367
440	2     	0.918367	0        	0.918367	0.918367
441	2     	0.918367	0        	0.918367	0.918367
442	2     	0.918367	0        	0.918367	0.918367
443	2     	0.918367	0        	0.918367	0.918367
444	2     	0.928571	0.0102041	0.918367	0.938776
445	2     	0.928571	0.0102041	0.918367	0.938776
446	2     	0.928571	0.0102041	0.918367	0.938776
447	2     	0.928571	0.0102041	0.918367	0.938776
448	2     	0.928571	0.0102041	0.918367	0.938776
449	2     	0.928571	0.0102041	0.918367	0.938776
450	2     	0.928571	0.0102041	0.918367	0.938776
451	2     	0.928571	0.0102041	0.918367	0.938776
452	2     	0.928571	0.0102041	0.918367	0.938776
453	2     	0.928571	0.0102041	0.918367	0.938776
454	2     	0.928571	0.0102041	0.918367	0.938776
455	2     	0.928571	0.0102041	0.918367	0.938776
456	2     	0.928571	0.0102041	0.918367	0.938776
457	2     	0.928571	0.0102041	0.918367	0.938776
458	2     	0.928571	0.0102041	0.918367	0.938776
459	2     	0.928571	0.0102041	0.918367	0.938776
460	2     	0.928571	0.0102041	0.918367	0.938776
461	2     	0.928571	0.0102041	0.918367	0.938776
462	2     	0.928571	0.0102041	0.918367	0.938776
463	2     	0.928571	0.0102041	0.918367	0.938776
464	2     	0.928571	0.0102041	0.918367	0.938776
465	2     	0.928571	0.0102041	0.918367	0.938776
466	2     	0.928571	0.0102041	0.918367	0.938776
467	2     	0.928571	0.0102041	0.918367	0.938776
468	2     	0.928571	0.0102041	0.918367	0.938776
469	2     	0.928571	0.0102041	0.918367	0.938776
470	2     	0.928571	0.0102041	0.918367	0.938776
471	2     	0.928571	0.0102041	0.918367	0.938776
472	2     	0.928571	0.0102041	0.918367	0.938776
473	2     	0.928571	0.0102041	0.918367	0.938776
474	2     	0.928571	0.0102041	0.918367	0.938776
475	2     	0.928571	0.0102041	0.918367	0.938776
476	2     	0.928571	0.0102041	0.918367	0.938776
477	2     	0.928571	0.0102041	0.918367	0.938776
478	2     	0.928571	0.0102041	0.918367	0.938776
479	2     	0.928571	0.0102041	0.918367	0.938776
480	2     	0.928571	0.0102041	0.918367	0.938776
481	2     	0.928571	0.0102041	0.918367	0.938776
482	2     	0.928571	0.0102041	0.918367	0.938776
483	2     	0.928571	0.0102041	0.918367	0.938776
484	2     	0.928571	0.0102041	0.918367	0.938776
485	2     	0.928571	0.0102041	0.918367	0.938776
486	2     	0.928571	0.0102041	0.918367	0.938776
487	2     	0.928571	0.0102041	0.918367	0.938776
488	2     	0.928571	0.0102041	0.918367	0.938776
489	2     	0.928571	0.0102041	0.918367	0.938776
490	2     	0.928571	0.0102041	0.918367	0.938776
491	2     	0.928571	0.0102041	0.918367	0.938776
492	2     	0.928571	0.0102041	0.918367	0.938776
493	2     	0.928571	0.0102041	0.918367	0.938776
494	2     	0.928571	0.0102041	0.918367	0.938776
495	2     	0.928571	0.0102041	0.918367	0.938776
496	2     	0.928571	0.0102041	0.918367	0.938776
497	2     	0.928571	0.0102041	0.918367	0.938776
498	2     	0.928571	0.0102041	0.918367	0.938776
499	2     	0.928571	0.0102041	0.918367	0.938776
500	2     	0.928571	0.0102041	0.918367	0.938776
501	2     	0.928571	0.0102041	0.918367	0.938776
502	2     	0.928571	0.0102041	0.918367	0.938776
503	2     	0.928571	0.0102041	0.918367	0.938776
504	2     	0.928571	0.0102041	0.918367	0.938776
505	2     	0.928571	0.0102041	0.918367	0.938776
506	2     	0.928571	0.0102041	0.918367	0.938776
507	2     	0.928571	0.0102041	0.918367	0.938776
508	2     	0.928571	0.0102041	0.918367	0.938776
509	2     	0.928571	0.0102041	0.918367	0.938776
510	2     	0.928571	0.0102041	0.918367	0.938776
511	2     	0.928571	0.0102041	0.918367	0.938776
512	2     	0.928571	0.0102041	0.918367	0.938776
513	2     	0.928571	0.0102041	0.918367	0.938776
514	2     	0.928571	0.0102041	0.918367	0.938776
515	2     	0.928571	0.0102041	0.918367	0.938776
516	2     	0.928571	0.0102041	0.918367	0.938776
517	2     	0.928571	0.0102041	0.918367	0.938776
518	2     	0.928571	0.0102041	0.918367	0.938776
519	2     	0.959184	0.0204082	0.938776	0.979592
520	2     	0.959184	0.0204082	0.938776	0.979592
521	2     	0.979592	0        	0.979592	0.979592
522	2     	0.979592	0        	0.979592	0.979592
523	2     	0.979592	0        	0.979592	0.979592
524	2     	0.979592	0        	0.979592	0.979592
525	2     	0.979592	0        	0.979592	0.979592
526	2     	0.979592	0        	0.979592	0.979592
527	2     	0.979592	0        	0.979592	0.979592
528	2     	0.979592	0        	0.979592	0.979592
529	2     	0.979592	0        	0.979592	0.979592
530	2     	0.979592	0        	0.979592	0.979592
531	2     	0.979592	0        	0.979592	0.979592
532	2     	0.979592	0        	0.979592	0.979592
533	2     	0.979592	0        	0.979592	0.979592
534	2     	0.979592	0        	0.979592	0.979592
535	2     	0.979592	0        	0.979592	0.979592
536	2     	0.979592	0        	0.979592	0.979592
537	2     	0.979592	0        	0.979592	0.979592
538	2     	0.979592	0        	0.979592	0.979592
539	2     	0.979592	0        	0.979592	0.979592
540	2     	0.979592	0        	0.979592	0.979592
541	2     	0.979592	0        	0.979592	0.979592
542	2     	0.979592	0        	0.979592	0.979592
543	2     	0.979592	0        	0.979592	0.979592
544	2     	0.979592	0        	0.979592	0.979592
545	2     	0.979592	0        	0.979592	0.979592
546	2     	0.979592	0        	0.979592	0.979592
547	2     	0.979592	0        	0.979592	0.979592
548	2     	0.979592	0        	0.979592	0.979592
549	2     	0.979592	0        	0.979592	0.979592
550	2     	0.979592	0        	0.979592	0.979592
551	2     	0.979592	0        	0.979592	0.979592
552	2     	0.979592	0        	0.979592	0.979592
553	2     	0.979592	0        	0.979592	0.979592
554	2     	0.979592	0        	0.979592	0.979592
555	2     	0.979592	0        	0.979592	0.979592
556	2     	0.979592	0        	0.979592	0.979592
557	2     	0.979592	0        	0.979592	0.979592
558	2     	0.979592	0        	0.979592	0.979592
559	2     	0.979592	0        	0.979592	0.979592
560	2     	0.979592	0        	0.979592	0.979592
561	2     	0.979592	0        	0.979592	0.979592
562	2     	0.979592	0        	0.979592	0.979592
563	2     	0.979592	0        	0.979592	0.979592
564	2     	0.979592	0        	0.979592	0.979592
565	2     	0.979592	0        	0.979592	0.979592
566	2     	0.979592	0        	0.979592	0.979592
567	2     	0.979592	0        	0.979592	0.979592
568	2     	0.979592	0        	0.979592	0.979592
569	2     	0.979592	0        	0.979592	0.979592
570	2     	0.979592	0        	0.979592	0.979592
571	2     	0.979592	0        	0.979592	0.979592
572	2     	0.979592	0        	0.979592	0.979592
573	2     	0.979592	0        	0.979592	0.979592
574	2     	0.979592	0        	0.979592	0.979592
575	2     	0.979592	0        	0.979592	0.979592
576	2     	0.979592	0        	0.979592	0.979592
577	2     	0.979592	0        	0.979592	0.979592
578	2     	0.979592	0        	0.979592	0.979592
579	2     	0.979592	0        	0.979592	0.979592
580	2     	0.979592	0        	0.979592	0.979592
581	2     	0.979592	0        	0.979592	0.979592
582	2     	0.979592	0        	0.979592	0.979592
583	2     	0.979592	0        	0.979592	0.979592
584	2     	0.979592	0        	0.979592	0.979592
585	2     	0.979592	0        	0.979592	0.979592
586	2     	0.979592	0        	0.979592	0.979592
587	2     	0.979592	0        	0.979592	0.979592
588	2     	0.979592	0        	0.979592	0.979592
589	2     	0.979592	0        	0.979592	0.979592
590	2     	0.979592	0        	0.979592	0.979592
591	2     	0.979592	0        	0.979592	0.979592
592	2     	0.979592	0        	0.979592	0.979592
593	2     	0.979592	0        	0.979592	0.979592
594	2     	0.979592	0        	0.979592	0.979592
595	2     	0.979592	0        	0.979592	0.979592
596	2     	0.979592	0        	0.979592	0.979592
597	2     	0.979592	0        	0.979592	0.979592
598	2     	0.979592	0        	0.979592	0.979592
599	2     	0.979592	0        	0.979592	0.979592
600	2     	0.979592	0        	0.979592	0.979592
601	2     	0.979592	0        	0.979592	0.979592
602	2     	0.979592	0        	0.979592	0.979592
603	2     	0.979592	0        	0.979592	0.979592
604	2     	0.979592	0        	0.979592	0.979592
605	2     	0.979592	0        	0.979592	0.979592
606	2     	0.979592	0        	0.979592	0.979592
607	2     	0.979592	0        	0.979592	0.979592
608	2     	0.979592	0        	0.979592	0.979592
609	2     	0.979592	0        	0.979592	0.979592
610	2     	0.979592	0        	0.979592	0.979592
611	2     	0.979592	0        	0.979592	0.979592
612	2     	0.979592	0        	0.979592	0.979592
613	2     	0.979592	0        	0.979592	0.979592
614	2     	0.979592	0        	0.979592	0.979592
615	2     	0.979592	0        	0.979592	0.979592
616	2     	0.979592	0        	0.979592	0.979592
617	2     	0.979592	0        	0.979592	0.979592
618	2     	0.979592	0        	0.979592	0.979592
619	2     	0.979592	0        	0.979592	0.979592
620	2     	0.979592	0        	0.979592	0.979592
621	2     	0.979592	0        	0.979592	0.979592
622	2     	0.979592	0        	0.979592	0.979592
623	2     	0.979592	0        	0.979592	0.979592
624	2     	0.979592	0        	0.979592	0.979592
625	2     	0.979592	0        	0.979592	0.979592
626	2     	0.979592	0        	0.979592	0.979592
627	2     	0.979592	0        	0.979592	0.979592
628	2     	0.979592	0        	0.979592	0.979592
629	2     	0.979592	0        	0.979592	0.979592
630	2     	0.979592	0        	0.979592	0.979592
631	2     	0.979592	0        	0.979592	0.979592
632	2     	0.979592	0        	0.979592	0.979592
633	2     	0.979592	0        	0.979592	0.979592
634	2     	0.979592	0        	0.979592	0.979592
635	2     	0.979592	0        	0.979592	0.979592
636	2     	0.979592	0        	0.979592	0.979592
637	2     	0.979592	0        	0.979592	0.979592
638	2     	0.979592	0        	0.979592	0.979592
639	2     	0.979592	0        	0.979592	0.979592
640	2     	0.979592	0        	0.979592	0.979592
641	2     	0.979592	0        	0.979592	0.979592
642	2     	0.979592	0        	0.979592	0.979592
643	2     	0.979592	0        	0.979592	0.979592
644	2     	0.979592	0        	0.979592	0.979592
645	2     	0.979592	0        	0.979592	0.979592
646	2     	0.979592	0        	0.979592	0.979592
647	2     	0.979592	0        	0.979592	0.979592
648	2     	0.979592	0        	0.979592	0.979592
649	2     	0.979592	0        	0.979592	0.979592
650	2     	0.979592	0        	0.979592	0.979592
651	2     	0.979592	0        	0.979592	0.979592
652	2     	0.979592	0        	0.979592	0.979592
653	2     	0.979592	0        	0.979592	0.979592
654	2     	0.979592	0        	0.979592	0.979592
655	2     	0.979592	0        	0.979592	0.979592
656	2     	0.979592	0        	0.979592	0.979592
657	2     	0.979592	0        	0.979592	0.979592
658	2     	0.979592	0        	0.979592	0.979592
659	2     	0.979592	0        	0.979592	0.979592
660	2     	0.979592	0        	0.979592	0.979592
661	2     	0.979592	0        	0.979592	0.979592
662	2     	0.979592	0        	0.979592	0.979592
663	2     	0.979592	0        	0.979592	0.979592
664	2     	0.979592	0        	0.979592	0.979592
665	2     	0.979592	0        	0.979592	0.979592
666	2     	0.979592	0        	0.979592	0.979592
667	2     	0.979592	0        	0.979592	0.979592
668	2     	0.979592	0        	0.979592	0.979592
669	2     	0.979592	0        	0.979592	0.979592
670	2     	0.979592	0        	0.979592	0.979592
671	2     	0.979592	0        	0.979592	0.979592
672	2     	0.979592	0        	0.979592	0.979592
673	2     	0.979592	0        	0.979592	0.979592
674	2     	0.979592	0        	0.979592	0.979592
675	2     	0.979592	0        	0.979592	0.979592
676	2     	0.979592	0        	0.979592	0.979592
677	2     	0.979592	0        	0.979592	0.979592
678	2     	0.979592	0        	0.979592	0.979592
679	2     	0.979592	0        	0.979592	0.979592
680	2     	0.979592	0        	0.979592	0.979592
681	2     	0.979592	0        	0.979592	0.979592
682	2     	0.979592	0        	0.979592	0.979592
683	2     	0.979592	0        	0.979592	0.979592
684	2     	0.979592	0        	0.979592	0.979592
685	2     	0.979592	0        	0.979592	0.979592
686	2     	0.979592	0        	0.979592	0.979592
687	2     	0.979592	0        	0.979592	0.979592
688	2     	0.979592	0        	0.979592	0.979592
689	2     	0.979592	0        	0.979592	0.979592
690	2     	0.979592	0        	0.979592	0.979592
691	2     	0.979592	0        	0.979592	0.979592
692	2     	0.979592	0        	0.979592	0.979592
693	2     	0.979592	0        	0.979592	0.979592
694	2     	0.979592	0        	0.979592	0.979592
695	2     	0.979592	0        	0.979592	0.979592
696	2     	0.979592	0        	0.979592	0.979592
697	2     	0.979592	0        	0.979592	0.979592
698	2     	0.979592	0        	0.979592	0.979592
699	2     	0.979592	0        	0.979592	0.979592
700	2     	0.979592	0        	0.979592	0.979592
701	2     	0.979592	0        	0.979592	0.979592
702	2     	0.979592	0        	0.979592	0.979592
703	2     	0.979592	0        	0.979592	0.979592
704	2     	0.979592	0        	0.979592	0.979592
705	2     	0.979592	0        	0.979592	0.979592
706	2     	0.979592	0        	0.979592	0.979592
707	2     	0.979592	0        	0.979592	0.979592
708	2     	0.979592	0        	0.979592	0.979592
709	2     	0.979592	0        	0.979592	0.979592
710	2     	0.979592	0        	0.979592	0.979592
711	2     	0.979592	0        	0.979592	0.979592
712	2     	0.979592	0        	0.979592	0.979592
713	2     	0.979592	0        	0.979592	0.979592
714	2     	0.979592	0        	0.979592	0.979592
715	2     	0.979592	0        	0.979592	0.979592
716	2     	0.979592	0        	0.979592	0.979592
717	2     	0.979592	0        	0.979592	0.979592
718	2     	0.979592	0        	0.979592	0.979592
719	2     	0.979592	0        	0.979592	0.979592
720	2     	0.979592	0        	0.979592	0.979592
721	2     	0.979592	0        	0.979592	0.979592
722	2     	0.979592	0        	0.979592	0.979592
723	2     	0.979592	0        	0.979592	0.979592
724	2     	0.979592	0        	0.979592	0.979592
725	2     	0.979592	0        	0.979592	0.979592
726	2     	0.979592	0        	0.979592	0.979592
727	2     	0.979592	0        	0.979592	0.979592
728	2     	0.979592	0        	0.979592	0.979592
729	2     	0.979592	0        	0.979592	0.979592
730	2     	0.979592	0        	0.979592	0.979592
731	2     	0.979592	0        	0.979592	0.979592
732	2     	0.979592	0        	0.979592	0.979592
733	2     	0.979592	0        	0.979592	0.979592
734	2     	0.979592	0        	0.979592	0.979592
735	2     	0.979592	0        	0.979592	0.979592
736	2     	0.979592	0        	0.979592	0.979592
737	2     	0.979592	0        	0.979592	0.979592
738	2     	0.979592	0        	0.979592	0.979592
739	2     	0.979592	0        	0.979592	0.979592
740	2     	0.979592	0        	0.979592	0.979592
741	2     	0.979592	0        	0.979592	0.979592
742	2     	0.979592	0        	0.979592	0.979592
743	2     	0.979592	0        	0.979592	0.979592
744	2     	0.979592	0        	0.979592	0.979592
745	2     	0.979592	0        	0.979592	0.979592
746	2     	0.979592	0        	0.979592	0.979592
747	2     	0.979592	0        	0.979592	0.979592
748	2     	0.979592	0        	0.979592	0.979592
749	2     	0.979592	0        	0.979592	0.979592
750	2     	0.979592	0        	0.979592	0.979592
751	2     	0.979592	0        	0.979592	0.979592
752	2     	0.979592	0        	0.979592	0.979592
753	2     	0.979592	0        	0.979592	0.979592
754	2     	0.979592	0        	0.979592	0.979592
755	2     	0.979592	0        	0.979592	0.979592
756	2     	0.979592	0        	0.979592	0.979592
757	2     	0.979592	0        	0.979592	0.979592
758	2     	0.979592	0        	0.979592	0.979592
759	2     	0.979592	0        	0.979592	0.979592
760	2     	0.979592	0        	0.979592	0.979592
761	2     	0.979592	0        	0.979592	0.979592
762	2     	0.979592	0        	0.979592	0.979592
763	2     	0.979592	0        	0.979592	0.979592
764	2     	0.979592	0        	0.979592	0.979592
765	2     	0.979592	0        	0.979592	0.979592
766	2     	0.979592	0        	0.979592	0.979592
767	2     	0.979592	0        	0.979592	0.979592
768	2     	0.979592	0        	0.979592	0.979592
769	2     	0.979592	0        	0.979592	0.979592
770	2     	0.979592	0        	0.979592	0.979592
771	2     	0.979592	0        	0.979592	0.979592
772	2     	0.979592	0        	0.979592	0.979592
773	2     	0.979592	0        	0.979592	0.979592
774	2     	0.979592	0        	0.979592	0.979592
775	2     	0.979592	0        	0.979592	0.979592
776	2     	0.979592	0        	0.979592	0.979592
777	2     	0.979592	0        	0.979592	0.979592
778	2     	0.979592	0        	0.979592	0.979592
779	2     	0.979592	0        	0.979592	0.979592
780	2     	0.979592	0        	0.979592	0.979592
781	2     	0.979592	0        	0.979592	0.979592
782	2     	0.979592	0        	0.979592	0.979592
783	2     	0.979592	0        	0.979592	0.979592
784	2     	0.979592	0        	0.979592	0.979592
785	2     	0.979592	0        	0.979592	0.979592
786	2     	0.979592	0        	0.979592	0.979592
787	2     	0.979592	0        	0.979592	0.979592
788	2     	0.979592	0        	0.979592	0.979592
789	2     	0.979592	0        	0.979592	0.979592
790	2     	0.979592	0        	0.979592	0.979592
791	2     	0.979592	0        	0.979592	0.979592
792	2     	0.979592	0        	0.979592	0.979592
793	2     	0.979592	0        	0.979592	0.979592
794	2     	0.979592	0        	0.979592	0.979592
795	2     	0.979592	0        	0.979592	0.979592
796	2     	0.979592	0        	0.979592	0.979592
797	2     	0.979592	0        	0.979592	0.979592
798	2     	0.979592	0        	0.979592	0.979592
799	2     	0.979592	0        	0.979592	0.979592
800	2     	0.979592	0        	0.979592	0.979592
801	2     	0.979592	0        	0.979592	0.979592
802	2     	0.979592	0        	0.979592	0.979592
803	2     	0.979592	0        	0.979592	0.979592
804	2     	0.979592	0        	0.979592	0.979592
805	2     	0.979592	0        	0.979592	0.979592
806	2     	0.979592	0        	0.979592	0.979592
807	2     	0.979592	0        	0.979592	0.979592
808	2     	0.979592	0        	0.979592	0.979592
809	2     	0.979592	0        	0.979592	0.979592
810	2     	0.979592	0        	0.979592	0.979592
811	2     	0.979592	0        	0.979592	0.979592
812	2     	0.979592	0        	0.979592	0.979592
813	2     	0.979592	0        	0.979592	0.979592
814	2     	0.979592	0        	0.979592	0.979592
815	2     	0.979592	0        	0.979592	0.979592
816	2     	0.979592	0        	0.979592	0.979592
817	2     	0.979592	0        	0.979592	0.979592
818	2     	0.979592	0        	0.979592	0.979592
819	2     	0.979592	0        	0.979592	0.979592
820	2     	0.979592	0        	0.979592	0.979592
821	2     	0.979592	0        	0.979592	0.979592
822	2     	0.979592	0        	0.979592	0.979592
823	2     	0.979592	0        	0.979592	0.979592
824	2     	0.979592	0        	0.979592	0.979592
825	2     	0.979592	0        	0.979592	0.979592
826	2     	0.979592	0        	0.979592	0.979592
827	2     	0.979592	0        	0.979592	0.979592
828	2     	0.979592	0        	0.979592	0.979592
829	2     	0.979592	0        	0.979592	0.979592
830	2     	0.979592	0        	0.979592	0.979592
831	2     	0.979592	0        	0.979592	0.979592
832	2     	0.979592	0        	0.979592	0.979592
833	2     	0.979592	0        	0.979592	0.979592
834	2     	0.979592	0        	0.979592	0.979592
835	2     	0.979592	0        	0.979592	0.979592
836	2     	0.979592	0        	0.979592	0.979592
837	2     	0.979592	0        	0.979592	0.979592
838	2     	0.979592	0        	0.979592	0.979592
839	2     	0.979592	0        	0.979592	0.979592
840	2     	0.979592	0        	0.979592	0.979592
841	2     	0.979592	0        	0.979592	0.979592
842	2     	0.979592	0        	0.979592	0.979592
843	2     	0.979592	0        	0.979592	0.979592
844	2     	0.979592	0        	0.979592	0.979592
845	2     	0.979592	0        	0.979592	0.979592
846	2     	0.979592	0        	0.979592	0.979592
847	2     	0.979592	0        	0.979592	0.979592
848	2     	0.979592	0        	0.979592	0.979592
849	2     	0.979592	0        	0.979592	0.979592
850	2     	0.979592	0        	0.979592	0.979592
851	2     	0.979592	0        	0.979592	0.979592
852	2     	0.979592	0        	0.979592	0.979592
853	2     	0.979592	0        	0.979592	0.979592
854	2     	0.979592	0        	0.979592	0.979592
855	2     	0.979592	0        	0.979592	0.979592
856	2     	0.979592	0        	0.979592	0.979592
857	2     	0.979592	0        	0.979592	0.979592
858	2     	0.979592	0        	0.979592	0.979592
859	2     	0.979592	0        	0.979592	0.979592
860	2     	0.979592	0        	0.979592	0.979592
861	2     	0.979592	0        	0.979592	0.979592
862	2     	0.979592	0        	0.979592	0.979592
863	2     	0.979592	0        	0.979592	0.979592
864	2     	0.979592	0        	0.979592	0.979592
865	2     	0.979592	0        	0.979592	0.979592
866	2     	0.979592	0        	0.979592	0.979592
867	2     	0.979592	0        	0.979592	0.979592
868	2     	0.979592	0        	0.979592	0.979592
869	2     	0.979592	0        	0.979592	0.979592
870	2     	0.979592	0        	0.979592	0.979592
871	2     	0.979592	0        	0.979592	0.979592
872	2     	0.979592	0        	0.979592	0.979592
873	2     	0.979592	0        	0.979592	0.979592
874	2     	0.979592	0        	0.979592	0.979592
875	2     	0.979592	0        	0.979592	0.979592
876	2     	0.979592	0        	0.979592	0.979592
877	2     	0.979592	0        	0.979592	0.979592
878	2     	0.979592	0        	0.979592	0.979592
879	2     	0.979592	0        	0.979592	0.979592
880	2     	0.979592	0        	0.979592	0.979592
881	2     	0.979592	0        	0.979592	0.979592
882	2     	0.979592	0        	0.979592	0.979592
883	2     	0.979592	0        	0.979592	0.979592
884	2     	0.979592	0        	0.979592	0.979592
885	2     	0.979592	0        	0.979592	0.979592
886	2     	0.979592	0        	0.979592	0.979592
887	2     	0.979592	0        	0.979592	0.979592
888	2     	0.979592	0        	0.979592	0.979592
889	2     	0.979592	0        	0.979592	0.979592
890	2     	0.979592	0        	0.979592	0.979592
891	2     	0.979592	0        	0.979592	0.979592
892	2     	0.979592	0        	0.979592	0.979592
893	2     	0.979592	0        	0.979592	0.979592
894	2     	0.979592	0        	0.979592	0.979592
895	2     	0.979592	0        	0.979592	0.979592
896	2     	0.979592	0        	0.979592	0.979592
897	2     	0.979592	0        	0.979592	0.979592
898	2     	0.979592	0        	0.979592	0.979592
899	2     	0.979592	0        	0.979592	0.979592
900	2     	0.979592	0        	0.979592	0.979592
901	2     	0.979592	0        	0.979592	0.979592
902	2     	0.979592	0        	0.979592	0.979592
903	2     	0.979592	0        	0.979592	0.979592
904	2     	0.979592	0        	0.979592	0.979592
905	2     	0.979592	0        	0.979592	0.979592
906	2     	0.979592	0        	0.979592	0.979592
907	2     	0.979592	0        	0.979592	0.979592
908	2     	0.979592	0        	0.979592	0.979592
909	2     	0.979592	0        	0.979592	0.979592
910	2     	0.979592	0        	0.979592	0.979592
911	2     	0.979592	0        	0.979592	0.979592
912	2     	0.979592	0        	0.979592	0.979592
913	2     	0.979592	0        	0.979592	0.979592
914	2     	0.979592	0        	0.979592	0.979592
915	2     	0.979592	0        	0.979592	0.979592
916	2     	0.979592	0        	0.979592	0.979592
917	2     	0.979592	0        	0.979592	0.979592
918	2     	0.979592	0        	0.979592	0.979592
919	2     	0.979592	0        	0.979592	0.979592
920	2     	0.979592	0        	0.979592	0.979592
921	2     	0.979592	0        	0.979592	0.979592
922	2     	0.979592	0        	0.979592	0.979592
923	2     	0.979592	0        	0.979592	0.979592
924	2     	0.979592	0        	0.979592	0.979592
925	2     	0.979592	0        	0.979592	0.979592
926	2     	0.979592	0        	0.979592	0.979592
927	2     	0.979592	0        	0.979592	0.979592
928	2     	0.979592	0        	0.979592	0.979592
929	2     	0.979592	0        	0.979592	0.979592
930	2     	0.979592	0        	0.979592	0.979592
931	2     	0.979592	0        	0.979592	0.979592
932	2     	0.979592	0        	0.979592	0.979592
933	2     	0.979592	0        	0.979592	0.979592
934	2     	0.979592	0        	0.979592	0.979592
935	2     	0.979592	0        	0.979592	0.979592
936	2     	0.979592	0        	0.979592	0.979592
937	2     	0.979592	0        	0.979592	0.979592
938	2     	0.979592	0        	0.979592	0.979592
939	2     	0.979592	0        	0.979592	0.979592
940	2     	0.979592	0        	0.979592	0.979592
941	2     	0.979592	0        	0.979592	0.979592
942	2     	0.979592	0        	0.979592	0.979592
943	2     	0.979592	0        	0.979592	0.979592
944	2     	0.979592	0        	0.979592	0.979592
945	2     	0.979592	0        	0.979592	0.979592
946	2     	0.979592	0        	0.979592	0.979592
947	2     	0.979592	0        	0.979592	0.979592
948	2     	0.979592	0        	0.979592	0.979592
949	2     	0.979592	0        	0.979592	0.979592
950	2     	0.979592	0        	0.979592	0.979592
951	2     	0.979592	0        	0.979592	0.979592
952	2     	0.979592	0        	0.979592	0.979592
953	2     	0.979592	0        	0.979592	0.979592
954	2     	0.979592	0        	0.979592	0.979592
955	2     	0.979592	0        	0.979592	0.979592
956	2     	0.979592	0        	0.979592	0.979592
957	2     	0.979592	0        	0.979592	0.979592
958	2     	0.979592	0        	0.979592	0.979592
959	2     	0.979592	0        	0.979592	0.979592
960	2     	0.979592	0        	0.979592	0.979592
961	2     	0.979592	0        	0.979592	0.979592
962	2     	0.979592	0        	0.979592	0.979592
963	2     	0.979592	0        	0.979592	0.979592
964	2     	0.979592	0        	0.979592	0.979592
965	2     	0.979592	0        	0.979592	0.979592
966	2     	0.979592	0        	0.979592	0.979592
967	2     	0.979592	0        	0.979592	0.979592
968	2     	0.979592	0        	0.979592	0.979592
969	2     	0.979592	0        	0.979592	0.979592
970	2     	0.979592	0        	0.979592	0.979592
971	2     	0.979592	0        	0.979592	0.979592
972	2     	0.979592	0        	0.979592	0.979592
973	2     	0.979592	0        	0.979592	0.979592
974	2     	0.979592	0        	0.979592	0.979592
975	2     	0.979592	0        	0.979592	0.979592
976	2     	0.979592	0        	0.979592	0.979592
977	2     	0.979592	0        	0.979592	0.979592
978	2     	0.979592	0        	0.979592	0.979592
979	2     	0.979592	0        	0.979592	0.979592
980	2     	0.979592	0        	0.979592	0.979592
981	2     	0.979592	0        	0.979592	0.979592
982	2     	0.979592	0        	0.979592	0.979592
983	2     	0.979592	0        	0.979592	0.979592
984	2     	0.979592	0        	0.979592	0.979592
985	2     	0.979592	0        	0.979592	0.979592
986	2     	0.979592	0        	0.979592	0.979592
987	2     	0.979592	0        	0.979592	0.979592
988	2     	0.979592	0        	0.979592	0.979592
989	2     	0.979592	0        	0.979592	0.979592
990	2     	0.979592	0        	0.979592	0.979592
991	2     	0.979592	0        	0.979592	0.979592
992	2     	0.979592	0        	0.979592	0.979592
993	2     	0.979592	0        	0.979592	0.979592
994	2     	0.979592	0        	0.979592	0.979592
995	2     	0.979592	0        	0.979592	0.979592
996	2     	0.979592	0        	0.979592	0.979592
997	2     	0.979592	0        	0.979592	0.979592
998	2     	0.979592	0        	0.979592	0.979592
999	2     	0.989796	0.0102041	0.979592	1       