400
MaxSatProblems/MaxSat_400_120.txt
0.882324	1
0.882904	3
0.883484	4
0.884659	5
0.885239	6
0.886414	7
0.887589	9
0.888168	10
0.889343	11
0.891693	16
0.892853	27
0.894028	30
0.894608	31
0.895203	37
0.895782	40
0.898712	42
0.899292	44
0.899887	49
0.900467	51
0.901642	54
0.904572	56
0.905151	64
0.906326	65
0.906906	70
0.907501	71
0.908081	75
0.909836	80
0.911591	84
0.912766	85
0.913345	90
0.91452	92
0.915695	94
0.916275	95
0.916855	99
0.91745	103
0.91803	107
0.919785	109
0.922134	113
0.922714	115
0.923889	116
0.924469	119
0.925644	121
0.926224	129
0.926819	135
0.929153	139
0.929749	140
0.930328	145
0.931503	148
0.932083	152
0.932663	155
0.933258	159
0.933838	161
0.935013	167
0.935593	172
0.936768	176
0.937347	180
0.937943	183
0.939117	189
0.940872	191
0.941452	192
0.942032	193
0.943787	198
0.944962	199
0.945557	205
0.946136	216
0.946716	218
0.947311	221
0.947891	223
0.949066	224
0.950241	230
0.951996	232
0.952576	233
0.953156	237
0.953751	240
0.95433	243
0.954926	252
0.955505	260
0.956085	262
0.95668	268
0.95784	272
0.959015	280
0.959595	286
0.96019	291
0.96077	292
0.961945	294
0.96312	306
0.963699	313
0.964279	330
0.964874	334
0.965454	345
0.966049	353
0.967209	354
0.967804	363
0.968384	376
0.968964	379
0.969559	380
0.970139	385
0.971313	390
0.971893	413
0.973068	476
0.973648	511
0.974243	623
0.974823	655
0.975403	698
0.975998	754
0.976578	756
0.977173	760
0.977753	771
Run: 0 Evals: 771 MES: 0 MAD: 0 FAILURES: 1
0 0 1
0.977753 771
