676
MaxSatProblems/MaxSat_676_140.txt
0.877335	1
0.877686	2
0.878036	7
0.879074	10
0.879761	11
0.880463	15
0.880798	18
0.881149	20
0.8815	23
0.882538	28
0.882889	33
0.883224	35
0.883575	36
0.883926	40
0.884262	47
0.884964	49
0.885315	50
0.885651	52
0.886002	53
0.888077	59
0.888428	61
0.889114	62
0.889816	63
0.891205	70
0.891891	73
0.892242	76
0.893631	78
0.893967	83
0.894318	92
0.894669	95
0.895004	97
0.895355	99
0.896744	100
0.89743	104
0.897781	108
0.898468	110
0.89917	114
0.899521	117
0.899857	119
0.900208	120
0.900558	124
0.901596	126
0.901947	127
0.902283	129
0.902634	136
0.904022	138
0.904709	139
0.905411	141
0.905746	144
0.906097	145
0.906448	150
0.907135	155
0.908173	159
0.908875	162
0.90921	165
0.909912	169
0.910263	174
0.911301	175
0.911987	181
0.912338	182
0.913025	186
0.913727	191
0.914764	193
0.9151	194
0.915451	197
0.916489	199
0.91684	204
0.917191	210
0.917526	211
0.917877	213
0.918579	219
0.919266	222
0.920303	231
0.921692	233
0.922043	236
0.922729	238
0.92308	240
0.923416	244
0.924118	252
0.924469	254
0.924805	255
0.925842	256
0.926193	257
0.926544	263
0.926895	268
0.927231	279
0.927582	280
0.927933	284
0.928268	287
0.928619	289
0.92897	298
0.929657	299
0.930359	305
0.931046	308
0.931732	309
0.932083	310
0.932434	311
0.933121	312
0.933823	316
0.934158	324
0.934509	326
0.935211	328
0.935547	332
0.935898	333
0.936584	341
0.936935	342
0.937286	344
0.937637	348
0.937973	361
0.938675	364
0.939011	366
0.939362	372
0.940048	376
0.94075	384
0.941101	388
0.941437	390
0.941788	406
0.942139	415
0.942474	422
0.943176	436
0.943863	438
0.944214	440
0.944901	457
0.945251	458
0.945953	465
0.947327	476
0.947678	478
0.948715	487
0.949066	488
0.949417	489
0.950104	494
0.950455	509
0.95079	511
0.951141	520
0.951492	522
0.951843	527
0.952179	528
0.952881	542
0.953217	549
0.953568	558
0.953918	565
0.954269	569
0.954605	573
0.954956	589
0.955643	590
0.957031	594
0.957382	596
0.957733	597
0.958069	605
0.959106	608
0.959457	617
0.960159	625
0.960495	636
0.961533	642
0.961884	648
0.962234	649
0.962585	660
0.963623	666
0.963959	674
0.96431	678
0.964661	682
0.964996	696
0.965347	808
0.965698	912
0.966049	960
0.966385	1017
0.966736	1035
0.967087	1105
0.967422	1120
0.967773	1132
0.968124	1168
0.968475	1223
0.968811	1251
0.969162	1252
0.969513	1308
0.969849	1323
0.9702	1335
0.970551	1428
0.970901	1729
0.971237	3696
0.971588	3711
0.971939	3733
0.972275	3915
0.972626	3937
0.972977	4107
0.973312	4185
0.973663	4258
0.974014	4563
0.974365	4772
0.974701	9586
Run: 0 Evals: 9586 MES: 0 MAD: 0 FAILURES: 1
0 0 1
0.974701 9586
