676
MaxSatProblems/MaxSat_676_100.txt
0.865906	1
0.866257	3
0.866592	4
0.866943	13
0.867294	14
0.86763	15
0.868332	16
0.868683	17
0.86972	18
0.870758	19
0.871445	23
0.871796	25
0.873184	29
0.87352	31
0.873871	35
0.874573	37
0.875259	41
0.87561	44
0.875946	46
0.876648	47
0.877335	50
0.877686	52
0.878036	53
0.878723	57
0.880463	59
0.881149	60
0.8815	61
0.881836	62
0.882187	65
0.882889	66
0.883224	67
0.883575	72
0.883926	73
0.884262	74
0.884613	75
0.884964	76
0.885315	80
0.885651	82
0.886002	85
0.886688	87
0.887039	90
0.887741	91
0.888779	94
0.889114	97
0.889816	98
0.890503	101
0.890854	103
0.891891	109
0.892242	120
0.892578	121
0.892929	127
0.893631	128
0.894318	132
0.894669	134
0.895355	135
0.896744	142
0.897095	144
0.89743	158
0.897781	160
0.898468	164
0.898819	166
0.89917	170
0.899857	172
0.900894	173
0.901245	174
0.901596	175
0.901947	177
0.902283	183
0.90332	191
0.903671	196
0.904709	197
0.90506	200
0.906097	201
0.906448	202
0.906784	205
0.907135	207
0.907837	208
0.908875	210
0.90921	211
0.909561	212
0.910599	214
0.911301	215
0.911636	216
0.912689	221
0.913025	222
0.914413	225
0.914764	228
0.9151	234
0.915451	236
0.916153	245
0.91684	246
0.917191	248
0.917877	254
0.918228	255
0.918579	257
0.919617	262
0.919952	263
0.920303	270
0.920654	275
0.921692	276
0.922379	284
0.922729	304
0.92308	307
0.923416	309
0.923767	318
0.924469	320
0.924805	321
0.925507	334
0.925842	336
0.926193	337
0.926544	343
0.927582	345
0.927933	351
0.92897	355
0.929321	356
0.929657	358
0.930008	362
0.930359	363
0.931396	370
0.932083	378
0.932434	379
0.932785	381
0.933472	382
0.934158	390
0.934509	392
0.935547	398
0.935898	401
0.936249	403
0.936584	410
0.937637	413
0.937973	420
0.938675	421
0.939011	433
0.939713	438
0.940399	448
0.94075	449
0.941101	456
0.941437	458
0.941788	464
0.942139	466
0.942474	469
0.943176	470
0.943527	477
0.944214	485
0.944565	488
0.945251	501
0.945602	509
0.945953	513
0.94664	524
0.946991	537
0.947678	538
0.948715	539
0.949066	543
0.949417	544
0.949753	545
0.950104	557
0.95079	563
0.951141	567
0.951492	568
0.951843	571
0.952179	580
0.95253	584
0.952881	589
0.953918	590
0.954269	592
0.954956	595
0.955643	597
0.95668	601
0.957031	610
0.957382	611
0.958069	628
0.958771	630
0.959106	631
0.959457	633
0.960159	638
0.960495	640
0.960846	649
0.961197	659
0.961884	662
0.962234	664
0.962585	668
0.963272	674
0.963623	727
0.963959	738
0.96431	777
0.964996	837
0.965347	840
0.965698	893
0.966049	901
0.966385	927
0.966736	997
0.967087	1000
0.967422	1054
0.967773	1055
0.968124	1063
0.968475	1081
0.968811	1082
0.969162	1130
0.969513	1134
0.969849	1158
0.9702	1174
0.970901	1202
0.971237	1213
0.971588	1219
0.971939	1282
0.972275	1287
0.972626	1328
0.972977	1348
0.973312	1353
0.973663	1378
0.974014	1468
0.974365	1542
0.974701	1545
0.975052	1604
0.975403	1833
0.975739	1861
0.976089	1974
0.97644	1982
0.976791	1988
0.977127	2300
0.977478	2337
0.977829	2659
0.978165	2679
0.978516	2743
0.978867	2806
0.979218	3149
0.979553	8655
Run: 0 Evals: 8655 MES: 0 MAD: 0 FAILURES: 1
0 0 1
0.979553 8655
