196
MaxSatProblems/MaxSat_196_0.txt
0.885162	1
0.887558	2
0.888763	3
0.889954	5
0.892349	7
0.89473	11
0.895935	20
0.897125	21
0.899521	28
0.900711	32
0.904312	33
0.905502	38
0.906693	39
0.907898	40
0.910294	41
0.913879	46
0.916275	47
0.917465	52
0.919861	55
0.923447	56
0.924637	58
0.925842	62
0.928223	64
0.929428	66
0.931824	68
0.934204	77
0.93541	80
0.9366	82
0.937805	88
0.938995	91
0.940186	93
0.941391	104
0.943787	105
0.947372	109
0.948563	113
0.949768	116
0.950958	117
0.952148	125
0.953354	133
0.954544	139
0.955734	140
0.95694	142
0.95813	143
0.959335	150
0.960526	155
0.961716	160
0.962921	168
0.965317	172
0.967697	184
0.970093	196
0.971298	197
0.973679	268
0.974884	274
0.976074	287
0.97728	294
0.97847	390
0.97966	498
0.980865	1081
0.982056	1207
0.983261	1353
Run: 0 Evals: 1353 MES: 0 MAD: 0 FAILURES: 1
0 0 1
0.983261 1353
