196
MaxSatProblems/MaxSat_196_160.txt
0.880386	1
0.882782	2
0.883972	6
0.885162	7
0.887558	8
0.889954	9
0.893539	12
0.89473	16
0.897125	19
0.899521	20
0.900711	21
0.901917	23
0.905502	24
0.909088	32
0.910294	35
0.911484	39
0.913879	40
0.916275	41
0.917465	42
0.918655	47
0.919861	50
0.921051	59
0.922241	64
0.923447	65
0.924637	69
0.927032	71
0.929428	72
0.931824	79
0.933014	85
0.93541	86
0.937805	88
0.942581	91
0.944977	95
0.946167	98
0.947372	104
0.948563	112
0.949768	130
0.950958	134
0.953354	138
0.954544	142
0.955734	156
0.95694	157
0.961716	164
0.962921	171
0.964111	185
0.965317	196
0.966507	216
0.967697	242
0.968903	342
0.970093	730
0.971298	731
0.972488	766
0.973679	914
0.976074	919
0.97728	921
0.97847	2078
0.97966	2094
0.980865	2095
0.982056	2133
0.983261	2255
0.984451	3231
0.985641	3363
Run: 0 Evals: 3363 MES: 0 MAD: 0 FAILURES: 1
0 0 1
0.985641 3363
