484
MaxSatProblems/MaxSat_484_80.txt
0.873184	1
0.874146	3
0.875122	5
0.876572	13
0.87706	14
0.878021	25
0.87851	28
0.879959	31
0.880936	33
0.881897	36
0.882385	40
0.883835	43
0.885773	45
0.886734	47
0.887711	48
0.888184	51
0.888672	56
0.889648	59
0.890121	60
0.891571	61
0.893036	64
0.893509	72
0.893997	74
0.895447	78
0.896423	79
0.898834	83
0.899811	84
0.900284	85
0.900772	87
0.90126	88
0.902222	89
0.903198	90
0.903671	98
0.904648	105
0.905136	106
0.906097	108
0.907074	119
0.907547	121
0.908035	126
0.908524	129
0.908997	132
0.909485	137
0.909973	139
0.910461	141
0.910934	142
0.911423	147
0.911911	150
0.912384	155
0.912872	156
0.913361	157
0.913849	166
0.914322	167
0.91481	168
0.915787	171
0.917236	172
0.917709	176
0.918198	179
0.919174	181
0.919647	187
0.920624	188
0.922562	189
0.923035	190
0.924011	191
0.924973	192
0.927399	193
0.927887	196
0.92836	200
0.928848	203
0.929337	205
0.92981	207
0.930298	212
0.930786	213
0.931274	214
0.931747	221
0.932236	222
0.932724	225
0.933197	226
0.934174	227
0.935135	229
0.935623	236
0.936111	238
0.9366	240
0.938049	241
0.939499	242
0.939987	245
0.940948	248
0.941437	254
0.943375	256
0.943848	274
0.944824	287
0.945786	290
0.946274	292
0.946762	300
0.947235	302
0.948212	305
0.949173	306
0.949661	308
0.95015	318
0.950623	319
0.951111	323
0.951599	328
0.952087	330
0.95256	332
0.953049	343
0.953537	344
0.95401	348
0.954498	367
0.954987	369
0.955475	370
0.955948	380
0.956436	381
0.957413	390
0.957886	397
0.958374	400
0.958862	404
0.959335	408
0.959824	414
0.960312	416
0.9608	418
0.961273	436
0.961761	449
0.96225	461
0.962723	468
0.963211	470
0.963699	474
0.964661	499
0.965149	522
0.966599	523
0.967087	529
0.967575	550
0.968048	704
0.968536	744
0.969025	752
0.969513	779
0.969986	803
0.970474	812
0.970963	818
0.971924	825
0.972412	846
0.9729	869
0.973373	882
0.973862	901
0.97435	905
0.974823	915
0.975311	921
0.9758	1007
0.976288	1229
0.976761	1297
0.977249	1314
0.977737	1369
0.978226	1510
0.978699	1542
0.979187	1689
0.979675	2031
0.980148	2230
0.980637	2308
0.981125	11414
Run: 0 Evals: 11414 MES: 0 MAD: 0 FAILURES: 1
0 0 1
0.981125 11414
