484
MaxSatProblems/MaxSat_484_40.txt
0.880447	1
0.880936	3
0.881409	4
0.881897	5
0.882385	9
0.883835	11
0.884323	18
0.885773	19
0.886734	21
0.887711	23
0.888184	28
0.889648	33
0.89061	35
0.891098	37
0.891571	38
0.893997	41
0.894485	43
0.895935	45
0.896423	50
0.896896	54
0.897873	58
0.898834	61
0.900772	65
0.90126	66
0.901749	69
0.902222	70
0.90271	77
0.903198	81
0.903671	86
0.90416	88
0.904648	94
0.905136	98
0.906097	99
0.907074	101
0.907547	102
0.908035	107
0.908524	108
0.908997	112
0.910934	115
0.911423	122
0.911911	123
0.912872	126
0.913849	142
0.914322	144
0.915298	145
0.915787	146
0.91626	147
0.917709	151
0.918198	153
0.918686	154
0.919647	155
0.920135	157
0.921585	164
0.922562	165
0.923523	168
0.924011	170
0.924484	172
0.925461	174
0.926422	181
0.92691	182
0.92836	188
0.928848	190
0.929337	195
0.92981	200
0.930298	206
0.931274	212
0.932236	214
0.932724	215
0.933197	216
0.933685	217
0.934174	220
0.934662	223
0.935623	225
0.9366	226
0.937073	227
0.938049	228
0.939499	232
0.94046	236
0.940948	239
0.941437	240
0.94191	252
0.942886	255
0.943848	256
0.944824	258
0.945312	273
0.945786	284
0.946274	285
0.946762	296
0.947235	303
0.947723	308
0.948212	309
0.9487	314
0.949661	321
0.95015	325
0.950623	349
0.951111	350
0.951599	356
0.952087	379
0.95256	384
0.95401	385
0.954498	389
0.954987	394
0.956436	398
0.957413	404
0.957886	410
0.958374	412
0.959335	416
0.9608	418
0.961273	421
0.961761	424
0.96225	453
0.962723	456
0.963211	460
0.963699	469
0.964188	470
0.964661	471
0.965149	530
0.965637	532
0.966125	591
0.966599	630
0.967087	641
0.967575	657
0.968048	687
0.968536	747
0.969025	822
0.969513	850
0.969986	877
0.970474	893
0.970963	962
0.971436	994
0.971924	1300
0.972412	1329
0.9729	1430
0.973373	1664
0.973862	2825
0.97435	2848
0.974823	2877
0.975311	2884
0.9758	2887
0.976288	2898
0.976761	2907
0.977249	2927
0.977737	2975
0.978226	3037
0.978699	3100
0.979187	3124
0.979675	3162
0.980148	3322
Run: 0 Evals: 3322 MES: 0 MAD: 0 FAILURES: 1
0 0 1
0.980148 3322
