529
MaxSatProblems/MaxSat_529_0.txt
0.871567	1
0.873337	2
0.874222	4
0.875992	9
0.876877	10
0.877319	13
0.878204	14
0.878647	18
0.87999	19
0.881317	20
0.88176	21
0.882202	22
0.883087	27
0.88353	32
0.883972	39
0.884415	41
0.884857	43
0.8853	44
0.885742	45
0.886185	48
0.886627	51
0.88707	54
0.887512	55
0.887955	58
0.888397	61
0.889725	63
0.891052	69
0.891495	72
0.891937	74
0.892822	76
0.893265	77
0.893707	78
0.894592	80
0.895035	81
0.895477	89
0.89592	90
0.896362	92
0.896805	93
0.897247	96
0.89769	98
0.89859	100
0.899033	103
0.899918	105
0.90036	108
0.901245	109
0.901688	113
0.90213	115
0.902573	117
0.903015	118
0.903458	121
0.904343	126
0.904785	128
0.905228	130
0.90567	131
0.906113	134
0.906555	136
0.90744	138
0.908768	140
0.909653	142
0.910538	144
0.911423	146
0.911865	148
0.912308	152
0.913193	155
0.914078	156
0.91452	161
0.914963	162
0.915405	165
0.915848	166
0.916748	171
0.917633	175
0.918076	178
0.919403	182
0.920288	185
0.920731	186
0.921616	188
0.922943	190
0.924271	193
0.926483	195
0.927368	201
0.928253	205
0.928696	207
0.929138	216
0.929581	222
0.930023	225
0.930908	226
0.932236	233
0.932678	237
0.933121	238
0.933563	246
0.934891	249
0.935349	257
0.936234	258
0.936676	262
0.937119	269
0.937561	270
0.938004	271
0.938446	276
0.939331	277
0.939774	280
0.940659	302
0.941101	304
0.942429	312
0.943314	313
0.944199	316
0.945084	318
0.946411	322
0.946854	326
0.947296	327
0.948181	341
0.949066	348
0.949509	349
0.949951	353
0.950394	355
0.951279	380
0.951721	382
0.952164	383
0.953049	384
0.953491	387
0.954391	390
0.954834	397
0.955276	413
0.955719	425
0.956161	426
0.956604	428
0.957047	429
0.957932	430
0.958817	450
0.960144	451
0.960587	468
0.961472	476
0.961914	481
0.962357	489
0.963242	493
0.964127	494
0.964569	496
0.965012	500
0.965454	508
0.965897	520
0.966339	524
0.966782	529
0.967224	565
0.967667	602
0.968109	627
0.968552	678
0.968994	769
0.969437	833
0.969879	867
0.970322	919
0.970764	1015
0.971207	1033
0.972092	1058
0.972549	2592
0.972992	2631
0.973434	2801
0.973877	2868
0.974319	2871
0.974762	2896
0.975204	2999
0.975647	3006
0.976089	3041
0.976532	3446
0.976974	3704
0.977417	3777
0.977859	4135
Run: 0 Evals: 4135 MES: 0 MAD: 0 FAILURES: 1
0 0 1
0.977859 4135
