256
MaxSatProblems/MaxSat_256_60.txt
0.870087	1
0.871002	2
0.873749	4
0.87648	5
0.878311	6
0.879227	12
0.881973	17
0.883804	18
0.88472	22
0.885635	34
0.886551	35
0.887466	40
0.891129	43
0.89296	50
0.893875	55
0.894791	56
0.896622	61
0.897537	66
0.898438	67
0.901184	68
0.903015	69
0.903931	72
0.904846	75
0.906677	79
0.908508	81
0.909424	84
0.911255	85
0.913086	86
0.914001	93
0.917664	99
0.918579	103
0.919495	110
0.923141	115
0.924057	117
0.924973	121
0.925888	127
0.926804	128
0.92955	131
0.931381	160
0.932297	162
0.933212	167
0.934128	168
0.935043	170
0.935959	171
0.936874	172
0.938705	174
0.940536	177
0.941452	178
0.942368	179
0.944183	180
0.945099	183
0.946014	184
0.94693	187
0.950592	188
0.951508	191
0.952423	195
0.954254	197
0.956085	200
0.957001	206
0.957916	224
0.958832	227
0.959747	232
0.960663	235
0.961578	238
0.962494	239
0.964325	247
0.96524	251
0.967056	253
0.967972	255
0.969803	256
0.970718	438
0.972549	491
0.973465	643
0.97438	763
0.975296	1646
0.976212	1702
0.977127	2641
0.978043	2865
0.978958	4613
0.979874	4745
0.980789	10474
0.981705	10533
0.98262	10558
Run: 0 Evals: 10558 MES: 0 MAD: 0 FAILURES: 1
0 0 1
0.98262 10558
