324
MaxSatProblems/MaxSat_324_160.txt
0.89444	1
0.895157	2
0.895874	4
0.897324	8
0.89949	15
0.900223	16
0.90239	18
0.903107	19
0.903839	20
0.904556	22
0.906006	29
0.906723	32
0.90744	33
0.90889	42
0.909622	45
0.910339	47
0.911057	49
0.912506	50
0.913956	54
0.914673	69
0.915405	73
0.916855	83
0.917572	84
0.918289	89
0.919022	94
0.919739	95
0.920456	96
0.921188	100
0.922638	101
0.923355	102
0.924072	110
0.924805	119
0.925522	122
0.926971	129
0.927689	135
0.928421	137
0.930588	144
0.932037	145
0.932755	160
0.934204	164
0.937088	171
0.93782	178
0.93927	185
0.940704	191
0.941437	200
0.942154	204
0.942871	205
0.943604	206
0.944321	213
0.945053	216
0.94577	224
0.946487	232
0.947937	234
0.948669	235
0.949387	248
0.950836	263
0.951553	270
0.953003	273
0.95372	274
0.954453	276
0.95517	282
0.956619	284
0.957336	292
0.958069	295
0.959503	300
0.962402	301
0.96312	306
0.963852	313
0.964569	314
0.965286	318
0.966019	325
0.966736	448
0.967468	460
0.968185	469
0.968903	520
0.969635	563
0.970352	584
0.971085	1221
0.971802	1227
0.972519	1229
0.973251	1241
0.973969	1277
0.974686	1282
0.975418	1311
0.976135	1314
0.976868	1389
0.977585	1414
0.978302	1441
0.979034	1508
0.979752	1523
0.980484	1539
Run: 0 Evals: 1539 MES: 0 MAD: 0 FAILURES: 1
0 0 1
0.980484 1539
