196
MaxSatProblems/MaxSat_196_20.txt
0.887558	1
0.888763	3
0.891144	13
0.892349	18
0.89473	22
0.897125	24
0.899521	27
0.901917	28
0.904312	30
0.905502	33
0.906693	36
0.909088	59
0.911484	61
0.912674	63
0.913879	66
0.91507	68
0.918655	75
0.921051	78
0.922241	86
0.924637	88
0.925842	101
0.928223	104
0.929428	105
0.930618	112
0.933014	119
0.93541	120
0.9366	127
0.938995	130
0.940186	138
0.941391	141
0.943787	144
0.944977	148
0.946167	156
0.947372	160
0.950958	167
0.952148	168
0.954544	175
0.955734	176
0.95694	181
0.959335	194
0.960526	205
0.961716	233
0.962921	278
0.964111	311
0.965317	334
0.966507	364
0.967697	457
0.968903	483
0.970093	498
0.971298	685
0.972488	1370
0.973679	1384
0.974884	1881
0.976074	1886
0.97728	2814
0.97847	2825
0.97966	3771
0.980865	7842
0.982056	7870
Run: 0 Evals: 7870 MES: 0 MAD: 0 FAILURES: 1
0 0 1
0.982056 7870
