576
MaxSatProblems/MaxSat_576_160.txt
0.871078	1
0.87149	2
0.871902	4
0.872299	21
0.872711	24
0.873123	27
0.873932	33
0.874741	34
0.875153	37
0.875565	38
0.875961	42
0.876373	43
0.877594	44
0.878403	46
0.878815	47
0.879227	50
0.879623	56
0.880432	60
0.880844	61
0.881256	65
0.881653	71
0.882065	78
0.882477	82
0.883698	83
0.884506	86
0.885315	90
0.886139	95
0.886948	96
0.88736	97
0.888565	98
0.888977	99
0.889786	103
0.890198	104
0.891006	105
0.891418	106
0.89183	107
0.892227	108
0.892639	109
0.893051	111
0.894272	114
0.894669	119
0.895889	122
0.896713	125
0.89711	126
0.897522	129
0.898743	131
0.899139	132
0.899551	134
0.899963	136
0.90036	138
0.902405	142
0.903214	146
0.904434	148
0.904846	150
0.905243	151
0.906067	153
0.906464	159
0.907272	160
0.908493	163
0.908905	165
0.910126	166
0.911346	169
0.912979	171
0.913788	177
0.9142	178
0.914597	197
0.915009	200
0.915405	201
0.916229	202
0.91745	204
0.918671	207
0.919067	216
0.919479	218
0.919891	219
0.921112	222
0.921509	235
0.921921	242
0.922333	246
0.923141	249
0.92395	255
0.924362	258
0.924759	263
0.925171	269
0.925583	274
0.92598	278
0.926392	282
0.926804	287
0.9272	290
0.927612	291
0.928024	295
0.928421	296
0.929245	297
0.929642	300
0.930054	303
0.930466	306
0.930862	308
0.931686	309
0.932083	312
0.932495	316
0.932907	318
0.933304	319
0.933716	321
0.934525	328
0.935333	332
0.935745	333
0.936157	338
0.936554	342
0.936966	346
0.937378	351
0.937775	354
0.938187	357
0.938995	361
0.939819	364
0.940216	373
0.94104	374
0.941437	375
0.942245	377
0.942657	388
0.943878	391
0.94429	393
0.944687	397
0.945099	400
0.946732	401
0.947128	402
0.94754	406
0.947952	422
0.948349	431
0.948761	434
0.949173	435
0.94957	436
0.949982	437
0.950394	441
0.95079	442
0.951202	444
0.951599	461
0.952423	472
0.95282	477
0.953232	479
0.954041	483
0.955261	505
0.955673	512
0.956482	514
0.957306	522
0.957703	546
0.958115	550
0.958527	569
0.958923	572
0.959335	573
0.960144	574
0.960556	608
0.960953	622
0.961365	632
0.961777	705
0.962173	726
0.962585	737
0.962997	740
0.963394	747
0.963806	792
0.964218	801
0.964615	810
0.965027	874
0.965439	883
0.965836	908
0.966248	933
0.96666	955
0.967056	975
0.967468	977
0.968277	1016
0.968689	1068
0.969086	1077
0.969498	1086
0.96991	1116
0.970306	1118
0.970718	1317
0.97113	1440
0.971527	1460
0.971939	1562
0.972351	1800
0.972748	1856
0.97316	1930
0.973572	6346
0.973969	8031
0.974792	8035
0.975189	8047
0.975601	8095
0.976013	8099
0.97641	8126
0.976822	8186
0.977234	8230
0.977631	8295
0.978043	8444
0.978439	8489
0.978851	8499
0.979263	8546
0.97966	8554
0.980072	8757
0.980484	9002
Run: 0 Evals: 9002 MES: 0 MAD: 0 FAILURES: 1
0 0 1
0.980484 9002
