529
MaxSatProblems/MaxSat_529_140.txt
0.887512	1
0.888397	3
0.88884	7
0.889725	8
0.890167	13
0.89061	15
0.891052	22
0.891495	25
0.891937	26
0.892822	31
0.893265	32
0.893707	34
0.89415	37
0.894592	42
0.895477	47
0.89592	52
0.896362	54
0.896805	55
0.89769	56
0.898148	57
0.899033	59
0.899475	60
0.90036	62
0.901688	64
0.902573	70
0.903015	71
0.9039	72
0.904343	77
0.904785	79
0.905228	82
0.90567	87
0.90744	92
0.908325	97
0.90921	100
0.910095	111
0.91098	112
0.911423	115
0.912308	125
0.913635	126
0.914078	130
0.91452	133
0.915405	134
0.915848	135
0.916748	141
0.917633	142
0.918076	158
0.918518	161
0.918961	162
0.919403	165
0.919846	166
0.920731	174
0.921173	178
0.921616	179
0.922058	186
0.922501	189
0.922943	202
0.923386	208
0.924271	209
0.924713	210
0.925156	211
0.925598	213
0.927368	217
0.927811	221
0.929138	222
0.929581	223
0.930466	228
0.930908	237
0.931351	250
0.931793	255
0.932236	258
0.933563	260
0.935349	266
0.935791	271
0.937119	274
0.937561	285
0.938446	295
0.938889	301
0.939331	309
0.940216	310
0.940659	311
0.941101	315
0.941544	318
0.942429	321
0.942871	322
0.943756	327
0.944641	331
0.945084	335
0.945526	340
0.945969	344
0.946411	347
0.946854	348
0.947739	356
0.948624	358
0.949066	364
0.949509	366
0.950394	367
0.950836	374
0.951721	376
0.952164	383
0.953049	392
0.953949	398
0.954391	400
0.954834	401
0.955276	405
0.956604	415
0.957047	418
0.957932	422
0.958374	423
0.958817	426
0.960587	440
0.961029	453
0.961472	460
0.962357	462
0.962799	468
0.963242	470
0.964127	471
0.965454	493
0.965897	511
0.966339	523
0.966782	525
0.967224	530
0.967667	540
0.968109	542
0.968552	598
0.968994	603
0.969437	669
0.969879	733
0.970322	770
0.971207	807
0.972092	896
0.972992	996
0.973434	1053
0.973877	1210
0.974319	1493
0.974762	6930
0.975204	6938
0.975647	6957
0.976532	6960
0.976974	6975
0.977417	6988
0.977859	7199
0.978302	7238
0.978745	7357
0.979187	7370
0.97963	7390
0.980072	7504
Run: 0 Evals: 7504 MES: 0 MAD: 0 FAILURES: 1
0 0 1
0.980072 7504
