289
MaxSatProblems/MaxSat_289_80.txt
0.863052	1
0.86467	2
0.866287	4
0.867096	6
0.867905	7
0.868713	9
0.871155	11
0.871964	13
0.873581	16
0.87439	18
0.87764	22
0.878448	23
0.880066	29
0.880875	32
0.881683	34
0.883301	40
0.885742	44
0.886551	48
0.88736	49
0.888977	50
0.891403	51
0.892227	58
0.893036	59
0.894653	60
0.895462	66
0.896271	67
0.897079	68
0.897888	69
0.898697	70
0.90033	74
0.901138	77
0.902756	82
0.903564	89
0.905182	90
0.905991	94
0.906815	96
0.908432	97
0.910049	98
0.912476	100
0.913284	103
0.914093	105
0.914917	110
0.918152	119
0.919769	120
0.922211	127
0.924637	128
0.926254	134
0.927872	135
0.929504	138
0.931122	140
0.931931	141
0.932739	142
0.933548	145
0.935165	151
0.935974	155
0.936798	157
0.937607	160
0.938416	166
0.939224	170
0.940033	175
0.94165	178
0.942459	184
0.943268	191
0.944092	200
0.945709	201
0.946518	207
0.947327	211
0.948135	212
0.948944	217
0.950562	218
0.95137	237
0.953812	246
0.955429	249
0.957047	252
0.957855	254
0.959488	255
0.960297	263
0.961105	272
0.961914	282
0.963531	284
0.965149	308
0.965958	360
0.966782	367
0.96759	398
0.968399	403
0.969208	416
0.970016	442
0.970825	443
0.971634	450
0.973251	456
0.974884	491
0.976501	503
0.97731	706
0.978119	717
0.978928	849
0.979736	10613
0.980545	10682
0.981369	10709
0.982178	10872
Run: 0 Evals: 10872 MES: 0 MAD: 0 FAILURES: 1
0 0 1
0.982178 10872
