36
MaxSatProblems/MaxSat_36_140.txt
0.882355	1
0.895432	2
0.908493	5
0.915039	7
0.92157	10
0.928101	12
0.934647	17
0.941177	20
0.947708	28
0.960785	30
0.967316	34
0.973862	36
0.980392	871
0.986923	1132
1	1156
Run: 0 Evals: 1156 MES: 1156 MAD: 0 FAILURES: 0
1156 0 0
1 1156
