400
MaxSatProblems/MaxSat_400_80.txt
0.876465	1
0.87822	3
0.879395	4
0.879974	7
0.881729	8
0.882324	14
0.882904	15
0.884659	16
0.885239	19
0.885834	21
0.886414	23
0.887009	26
0.888168	27
0.888763	28
0.890518	30
0.891693	33
0.892273	34
0.892853	35
0.893448	37
0.894028	38
0.894608	45
0.895203	46
0.895782	58
0.896957	59
0.898132	61
0.898712	66
0.899292	68
0.900467	71
0.901047	81
0.901642	84
0.902222	96
0.903976	97
0.904572	100
0.905151	110
0.905731	114
0.907501	117
0.908081	119
0.909256	121
0.910416	122
0.911011	129
0.91394	130
0.91452	135
0.916855	136
0.91745	141
0.91803	142
0.920959	144
0.923889	146
0.925064	153
0.926224	156
0.926819	162
0.927399	165
0.929153	167
0.929749	173
0.930908	193
0.931503	194
0.932083	195
0.932663	198
0.933258	200
0.936188	203
0.937347	211
0.937943	214
0.938522	226
0.939117	231
0.941452	232
0.943207	235
0.944382	238
0.944962	243
0.945557	250
0.946716	260
0.947311	266
0.948471	267
0.949646	270
0.951401	273
0.953156	285
0.953751	289
0.95433	294
0.955505	299
0.956085	307
0.95726	308
0.95784	314
0.958435	327
0.959015	328
0.959595	332
0.96019	333
0.96077	337
0.961365	345
0.961945	352
0.962524	355
0.96312	362
0.963699	364
0.964279	373
0.964874	382
0.965454	389
0.966629	396
0.967209	409
0.967804	578
0.968384	579
0.968964	639
0.969559	654
0.970734	674
0.971313	678
0.971893	696
0.972488	714
0.973068	717
0.973648	756
0.974243	783
0.974823	948
0.975403	958
0.975998	2056
0.976578	2061
0.977173	2172
0.977753	2334
0.978333	2461
0.978928	2512
0.979507	5272
0.980087	5308
0.980682	5315
0.981262	5575
Run: 0 Evals: 5575 MES: 0 MAD: 0 FAILURES: 1
0 0 1
0.981262 5575
