144
MaxSatProblems/MaxSat_144_180.txt
0.858307	1
0.861557	2
0.86319	3
0.864822	5
0.869705	7
0.872971	8
0.879486	10
0.881104	13
0.882736	14
0.887619	17
0.890884	19
0.895767	20
0.8974	23
0.899017	30
0.90065	37
0.902283	39
0.905533	43
0.907166	49
0.910431	50
0.912048	58
0.913681	61
0.916931	67
0.918564	70
0.920197	72
0.925079	74
0.928345	82
0.931595	84
0.933228	89
0.93486	92
0.936478	93
0.939743	98
0.942993	100
0.944626	102
0.946259	104
0.947876	110
0.949509	112
0.951141	113
0.952774	114
0.954391	115
0.956024	117
0.957657	120
0.964172	141
0.969055	145
0.970688	179
0.972305	207
0.975571	257
0.977203	269
0.978821	279
0.980453	287
0.982086	356
0.983719	1067
0.985336	1203
0.986969	3645
0.988602	3855
0.990234	10724
Run: 0 Evals: 10724 MES: 0 MAD: 0 FAILURES: 1
0 0 1
0.990234 10724
