100
MaxSatProblems/MaxSat_100_20.txt
0.87822	1
0.880569	2
0.882904	5
0.887589	6
0.892273	7
0.894608	9
0.896957	14
0.901642	16
0.903976	19
0.906326	21
0.908661	23
0.913345	33
0.91803	34
0.92038	36
0.922714	39
0.925064	44
0.927399	48
0.932083	52
0.936768	55
0.941452	59
0.943787	62
0.946136	63
0.948471	64
0.950821	78
0.955505	87
0.96019	94
0.964874	98
0.967209	99
0.969559	117
0.971893	175
0.974243	191
0.976578	780
0.978928	1035
0.981262	1039
0.983612	2425
0.985947	2542
0.988297	5052
Run: 0 Evals: 5052 MES: 0 MAD: 0 FAILURES: 1
0 0 1
0.988297 5052
