144
MaxSatProblems/MaxSat_144_60.txt
0.848541	1
0.855042	3
0.856674	8
0.858307	11
0.86319	13
0.864822	14
0.866455	17
0.868073	20
0.869705	21
0.871338	22
0.872971	23
0.874588	24
0.881104	25
0.882736	27
0.884369	29
0.885986	30
0.889252	31
0.895767	32
0.90065	33
0.902283	35
0.903915	39
0.907166	42
0.908798	45
0.910431	46
0.913681	49
0.915314	54
0.916931	56
0.918564	66
0.920197	67
0.921829	69
0.923447	76
0.926712	78
0.928345	79
0.931595	82
0.933228	87
0.93486	94
0.936478	97
0.939743	98
0.944626	100
0.946259	101
0.947876	106
0.949509	110
0.951141	113
0.954391	115
0.957657	120
0.95929	121
0.960907	123
0.964172	127
0.965805	190
0.967422	238
0.969055	363
0.970688	718
0.972305	737
0.973938	745
0.977203	769
0.978821	783
0.980453	786
0.982086	896
0.983719	1016
0.985336	7462
0.986969	7469
0.988602	7657
0.990234	7789
Run: 0 Evals: 7789 MES: 0 MAD: 0 FAILURES: 1
0 0 1
0.990234 7789
