144
MaxSatProblems/MaxSat_144_80.txt
0.885986	1
0.890884	5
0.894135	6
0.895767	7
0.90065	8
0.903915	12
0.905533	13
0.908798	16
0.910431	18
0.913681	20
0.915314	26
0.916931	34
0.918564	38
0.920197	41
0.923447	42
0.925079	45
0.926712	49
0.928345	50
0.929962	51
0.931595	55
0.933228	66
0.936478	72
0.93811	83
0.939743	87
0.942993	93
0.944626	94
0.946259	102
0.949509	111
0.952774	116
0.954391	123
0.956024	125
0.957657	132
0.95929	229
0.960907	232
0.96254	268
0.964172	305
0.965805	408
0.967422	465
0.969055	569
0.970688	1197
0.972305	1201
0.973938	1203
0.975571	1224
0.977203	1238
0.980453	1262
0.982086	1273
0.983719	1330
0.985336	4686
0.986969	4868
0.988602	4941
0.990234	4961
Run: 0 Evals: 4961 MES: 0 MAD: 0 FAILURES: 1
0 0 1
0.990234 4961
