256
MaxSatProblems/MaxSat_256_80.txt
0.869171	1
0.871002	2
0.871918	3
0.874664	8
0.87648	10
0.877396	12
0.878311	15
0.879227	19
0.880142	23
0.881058	24
0.881973	26
0.882889	27
0.883804	29
0.885635	33
0.886551	34
0.887466	37
0.888382	41
0.889297	43
0.890213	44
0.89296	47
0.893875	49
0.894791	52
0.897537	53
0.898438	54
0.899353	60
0.900269	66
0.901184	67
0.903015	68
0.904846	71
0.906677	73
0.907593	75
0.910339	81
0.91217	82
0.913086	86
0.916748	95
0.917664	96
0.918579	97
0.92131	102
0.922226	103
0.924057	105
0.924973	107
0.926804	109
0.928635	112
0.92955	115
0.931381	121
0.932297	122
0.934128	126
0.935043	128
0.935959	133
0.93779	134
0.938705	150
0.939621	154
0.941452	158
0.942368	161
0.943268	162
0.945099	168
0.94693	171
0.948761	176
0.950592	180
0.952423	181
0.953339	185
0.956085	198
0.957001	203
0.957916	225
0.958832	227
0.960663	229
0.961578	233
0.962494	242
0.964325	254
0.96524	325
0.966141	378
0.967056	418
0.967972	438
0.968887	449
0.969803	456
0.971634	466
0.972549	469
0.973465	474
0.97438	480
0.976212	485
0.977127	495
0.978043	507
0.978958	529
0.979874	574
0.980789	591
0.981705	634
0.98262	646
0.983536	675
0.984451	745
0.985367	8370
Run: 0 Evals: 8370 MES: 0 MAD: 0 FAILURES: 1
0 0 1
0.985367 8370
