gen 	nevals	avg  	std     	min	max
0   	20    	39   	2.86356 	35 	45 
1   	5     	37.65	2.15116 	32 	41 
2   	5     	37.45	2.01184 	32 	41 
3   	5     	36.85	1.9564  	32 	39 
4   	5     	36.6 	1.88149 	32 	39 
5   	5     	36.6 	1.88149 	32 	39 
6   	5     	36   	2       	32 	39 
7   	5     	35.8 	1.8868  	32 	38 
8   	5     	35.55	1.90984 	32 	38 
9   	5     	35.35	1.85135 	32 	38 
10  	5     	34.95	1.65756 	32 	38 
11  	5     	34.75	1.51245 	32 	37 
12  	5     	34.65	1.4239  	32 	37 
13  	5     	34.45	1.35923 	32 	37 
14  	5     	34.1 	1.26095 	32 	36 
15  	5     	34.1 	1.26095 	32 	36 
16  	5     	34.1 	1.26095 	32 	36 
17  	5     	34.1 	1.26095 	32 	36 
18  	5     	34.1 	1.26095 	32 	36 
19  	5     	34.1 	1.26095 	32 	36 
20  	5     	34.1 	1.26095 	32 	36 
21  	5     	33.85	1.35185 	31 	36 
22  	5     	33.85	1.35185 	31 	36 
23  	5     	33.85	1.35185 	31 	36 
24  	5     	33.85	1.35185 	31 	36 
25  	5     	33.75	1.25996 	31 	36 
26  	5     	33.75	1.25996 	31 	36 
27  	5     	33.75	1.25996 	31 	36 
28  	5     	33.75	1.25996 	31 	36 
29  	5     	33.75	1.25996 	31 	36 
30  	5     	33.5 	1.11803 	31 	35 
31  	5     	33.5 	1.11803 	31 	35 
32  	5     	33.5 	1.11803 	31 	35 
33  	5     	33.35	1.10793 	31 	35 
34  	5     	33.35	1.10793 	31 	35 
35  	5     	33.35	1.10793 	31 	35 
36  	5     	33.2 	1.07703 	31 	35 
37  	5     	33.05	1.02347 	31 	35 
38  	5     	33.05	1.02347 	31 	35 
39  	5     	33.05	1.02347 	31 	35 
40  	5     	33.05	1.02347 	31 	35 
41  	5     	33   	0.948683	31 	34 
42  	5     	33   	0.948683	31 	34 
43  	5     	33   	0.948683	31 	34 
44  	5     	32.95	0.920598	31 	34 
45  	5     	32.9 	0.888819	31 	34 
46  	5     	32.9 	0.888819	31 	34 
47  	5     	32.9 	0.888819	31 	34 
48  	5     	32.9 	0.888819	31 	34 
49  	5     	32.9 	0.888819	31 	34 
50  	5     	32.9 	0.888819	31 	34 
51  	5     	32.85	0.852936	31 	34 
52  	5     	32.85	0.852936	31 	34 
53  	5     	32.85	0.852936	31 	34 
54  	5     	32.75	0.829156	31 	34 
55  	5     	32.75	0.829156	31 	34 
56  	5     	32.75	0.829156	31 	34 
57  	5     	32.75	0.829156	31 	34 
58  	5     	32.75	0.829156	31 	34 
59  	5     	32.75	0.829156	31 	34 
60  	5     	32.75	0.829156	31 	34 
61  	5     	32.55	0.804674	31 	34 
62  	5     	32.55	0.804674	31 	34 
63  	5     	32.55	0.804674	31 	34 
64  	5     	32.55	0.804674	31 	34 
65  	5     	32.55	0.804674	31 	34 
66  	5     	32.55	0.804674	31 	34 
67  	5     	32.55	0.804674	31 	34 
68  	5     	32.55	0.804674	31 	34 
69  	5     	32.55	0.804674	31 	34 
70  	5     	32.55	0.804674	31 	34 
71  	5     	32.55	0.804674	31 	34 
72  	5     	32.55	0.804674	31 	34 
73  	5     	32.55	0.804674	31 	34 
74  	5     	32.55	0.804674	31 	34 
75  	5     	32.55	0.804674	31 	34 
76  	5     	32.55	0.804674	31 	34 
77  	5     	32.55	0.804674	31 	34 
78  	5     	32.55	0.804674	31 	34 
79  	5     	32.55	0.804674	31 	34 
80  	5     	32.55	0.804674	31 	34 
81  	5     	32.55	0.804674	31 	34 
82  	5     	32.35	0.653835	31 	33 
83  	5     	32.35	0.653835	31 	33 
84  	5     	32.35	0.653835	31 	33 
85  	5     	32.2 	0.812404	30 	33 
86  	5     	32.2 	0.812404	30 	33 
87  	5     	32.2 	0.812404	30 	33 
88  	5     	32.2 	0.812404	30 	33 
89  	5     	32.2 	0.812404	30 	33 
90  	5     	32.2 	0.812404	30 	33 
91  	5     	32.2 	0.812404	30 	33 
92  	5     	32.2 	0.812404	30 	33 
93  	5     	32.2 	0.812404	30 	33 
94  	5     	32.2 	0.812404	30 	33 
95  	5     	32.15	0.792149	30 	33 
96  	5     	32.15	0.792149	30 	33 
97  	5     	32.15	0.792149	30 	33 
98  	5     	32.15	0.792149	30 	33 
99  	5     	32.15	0.792149	30 	33 
100 	5     	32.15	0.792149	30 	33 
101 	5     	32.15	0.792149	30 	33 
102 	5     	32.15	0.792149	30 	33 
103 	5     	32.15	0.792149	30 	33 
104 	5     	32.15	0.792149	30 	33 
105 	5     	32.15	0.792149	30 	33 
106 	5     	32.15	0.792149	30 	33 
107 	5     	32.15	0.792149	30 	33 
108 	5     	32.15	0.792149	30 	33 
109 	5     	32.15	0.792149	30 	33 
110 	5     	32.15	0.792149	30 	33 
111 	5     	32.15	0.792149	30 	33 
112 	5     	32.15	0.792149	30 	33 
113 	5     	32.15	0.792149	30 	33 
114 	5     	32.15	0.792149	30 	33 
115 	5     	32.15	0.792149	30 	33 
116 	5     	32.15	0.792149	30 	33 
117 	5     	32.15	0.792149	30 	33 
118 	5     	32.15	0.792149	30 	33 
119 	5     	32.15	0.792149	30 	33 
120 	5     	32.15	0.792149	30 	33 
121 	5     	32.15	0.792149	30 	33 
122 	5     	32   	0.894427	30 	33 
123 	5     	32   	0.894427	30 	33 
124 	5     	32   	0.894427	30 	33 
125 	5     	32   	0.894427	30 	33 
126 	5     	32   	0.894427	30 	33 
127 	5     	32   	0.894427	30 	33 
128 	5     	32   	0.894427	30 	33 
129 	5     	32   	0.894427	30 	33 
130 	5     	32   	0.894427	30 	33 
131 	5     	32   	0.894427	30 	33 
132 	5     	32   	0.894427	30 	33 
133 	5     	32   	0.894427	30 	33 
134 	5     	32   	0.894427	30 	33 
135 	5     	32   	0.894427	30 	33 
136 	5     	32   	0.894427	30 	33 
137 	5     	32   	0.894427	30 	33 
138 	5     	32   	0.894427	30 	33 
139 	5     	32   	0.894427	30 	33 
140 	5     	32   	0.894427	30 	33 
141 	5     	32   	0.894427	30 	33 
142 	5     	31.95	0.864581	30 	33 
143 	5     	31.95	0.864581	30 	33 
144 	5     	31.85	0.852936	30 	33 
145 	5     	31.85	0.852936	30 	33 
146 	5     	31.85	0.852936	30 	33 
147 	5     	31.85	0.852936	30 	33 
148 	5     	31.85	0.852936	30 	33 
149 	5     	31.85	0.852936	30 	33 
150 	5     	31.85	0.852936	30 	33 
151 	5     	31.85	0.852936	30 	33 
152 	5     	31.85	0.852936	30 	33 
153 	5     	31.85	0.852936	30 	33 
154 	5     	31.8 	0.812404	30 	33 
155 	5     	31.8 	0.812404	30 	33 
156 	5     	31.8 	0.812404	30 	33 
157 	5     	31.8 	0.812404	30 	33 
158 	5     	31.8 	0.812404	30 	33 
159 	5     	31.8 	0.812404	30 	33 
160 	5     	31.8 	0.812404	30 	33 
161 	5     	31.8 	0.812404	30 	33 
162 	5     	31.8 	0.812404	30 	33 
163 	5     	31.8 	0.812404	30 	33 
164 	5     	31.8 	0.812404	30 	33 
165 	5     	31.8 	0.812404	30 	33 
166 	5     	31.8 	0.812404	30 	33 
167 	5     	31.8 	0.812404	30 	33 
168 	5     	31.8 	0.812404	30 	33 
169 	5     	31.8 	0.812404	30 	33 
170 	5     	31.8 	0.812404	30 	33 
171 	5     	31.8 	0.812404	30 	33 
172 	5     	31.8 	0.812404	30 	33 
173 	5     	31.8 	0.812404	30 	33 
174 	5     	31.8 	0.812404	30 	33 
175 	5     	31.8 	0.812404	30 	33 
176 	5     	31.8 	0.812404	30 	33 
177 	5     	31.7 	0.781025	30 	33 
178 	5     	31.65	0.726292	30 	33 
179 	5     	31.65	0.726292	30 	33 
180 	5     	31.5 	0.74162 	30 	32 
181 	5     	31.5 	0.74162 	30 	32 
182 	5     	31.5 	0.74162 	30 	32 
183 	5     	31.5 	0.74162 	30 	32 
184 	5     	31.5 	0.74162 	30 	32 
185 	5     	31.5 	0.74162 	30 	32 
186 	5     	31.5 	0.74162 	30 	32 
187 	5     	31.5 	0.74162 	30 	32 
188 	5     	31.5 	0.74162 	30 	32 
189 	5     	31.5 	0.74162 	30 	32 
190 	5     	31.5 	0.74162 	30 	32 
191 	5     	31.5 	0.74162 	30 	32 
192 	5     	31.5 	0.74162 	30 	32 
193 	5     	31.5 	0.74162 	30 	32 
194 	5     	31.5 	0.74162 	30 	32 
195 	5     	31.5 	0.74162 	30 	32 
196 	5     	31.5 	0.74162 	30 	32 
197 	5     	31.5 	0.74162 	30 	32 
198 	5     	31.45	0.739932	30 	32 
199 	5     	31.45	0.739932	30 	32 
200 	5     	31.45	0.739932	30 	32 
201 	5     	31.45	0.739932	30 	32 
202 	5     	31.45	0.739932	30 	32 
203 	5     	31.45	0.739932	30 	32 
204 	5     	31.45	0.739932	30 	32 
205 	5     	31.45	0.739932	30 	32 
206 	5     	31.45	0.739932	30 	32 
207 	5     	31.45	0.739932	30 	32 
208 	5     	31.45	0.739932	30 	32 
209 	5     	31.45	0.739932	30 	32 
210 	5     	31.45	0.739932	30 	32 
211 	5     	31.45	0.739932	30 	32 
212 	5     	31.45	0.739932	30 	32 
213 	5     	31.45	0.739932	30 	32 
214 	5     	31.45	0.739932	30 	32 
215 	5     	31.45	0.739932	30 	32 
216 	5     	31.45	0.739932	30 	32 
217 	5     	31.45	0.739932	30 	32 
218 	5     	31.45	0.739932	30 	32 
219 	5     	31.45	0.739932	30 	32 
220 	5     	31.45	0.739932	30 	32 
221 	5     	31.4 	0.734847	30 	32 
222 	5     	31.4 	0.734847	30 	32 
223 	5     	31.4 	0.734847	30 	32 
224 	5     	31.4 	0.734847	30 	32 
225 	5     	31.4 	0.734847	30 	32 
226 	5     	31.4 	0.734847	30 	32 
227 	5     	31.4 	0.734847	30 	32 
228 	5     	31.4 	0.734847	30 	32 
229 	5     	31.4 	0.734847	30 	32 
230 	5     	31.4 	0.734847	30 	32 
231 	5     	31.4 	0.734847	30 	32 
232 	5     	31.4 	0.734847	30 	32 
233 	5     	31.4 	0.734847	30 	32 
234 	5     	31.4 	0.734847	30 	32 
235 	5     	31.4 	0.734847	30 	32 
236 	5     	31.4 	0.734847	30 	32 
237 	5     	31.4 	0.734847	30 	32 
238 	5     	31.4 	0.734847	30 	32 
239 	5     	31.4 	0.734847	30 	32 
240 	5     	31.4 	0.734847	30 	32 
241 	5     	31.4 	0.734847	30 	32 
242 	5     	31.4 	0.734847	30 	32 
243 	5     	31.4 	0.734847	30 	32 
244 	5     	31.4 	0.734847	30 	32 
245 	5     	31.4 	0.734847	30 	32 
246 	5     	31.4 	0.734847	30 	32 
247 	5     	31.4 	0.734847	30 	32 
248 	5     	31.4 	0.734847	30 	32 
249 	5     	31.4 	0.734847	30 	32 
250 	5     	31.4 	0.734847	30 	32 
251 	5     	31.4 	0.734847	30 	32 
252 	5     	31.4 	0.734847	30 	32 
253 	5     	31.4 	0.734847	30 	32 
254 	5     	31.4 	0.734847	30 	32 
255 	5     	31.3 	0.781025	30 	32 
256 	5     	31.3 	0.781025	30 	32 
257 	5     	31.3 	0.781025	30 	32 
258 	5     	31.3 	0.781025	30 	32 
259 	5     	31.3 	0.781025	30 	32 
260 	5     	31.3 	0.781025	30 	32 
261 	5     	31.3 	0.781025	30 	32 
262 	5     	31.3 	0.781025	30 	32 
263 	5     	31.3 	0.781025	30 	32 
264 	5     	31.3 	0.781025	30 	32 
265 	5     	31.3 	0.781025	30 	32 
266 	5     	31.3 	0.781025	30 	32 
267 	5     	31.2 	0.812404	30 	32 
268 	5     	31.2 	0.812404	30 	32 
269 	5     	31.2 	0.812404	30 	32 
270 	5     	31.2 	0.812404	30 	32 
271 	5     	31.1 	0.830662	30 	32 
272 	5     	31.1 	0.830662	30 	32 
273 	5     	31.1 	0.830662	30 	32 
274 	5     	31.1 	0.830662	30 	32 
275 	5     	31.1 	0.830662	30 	32 
276 	5     	31.1 	0.830662	30 	32 
277 	5     	31.1 	0.830662	30 	32 
278 	5     	31.1 	0.830662	30 	32 
279 	5     	31.1 	0.830662	30 	32 
280 	5     	31.1 	0.830662	30 	32 
281 	5     	31.1 	0.830662	30 	32 
282 	5     	31.1 	0.830662	30 	32 
283 	5     	31.1 	0.830662	30 	32 
284 	5     	31.1 	0.830662	30 	32 
285 	5     	31.1 	0.830662	30 	32 
286 	5     	31.1 	0.830662	30 	32 
287 	5     	31.1 	0.830662	30 	32 
288 	5     	31.05	0.804674	30 	32 
289 	5     	31.05	0.804674	30 	32 
290 	5     	31.05	0.804674	30 	32 
291 	5     	31.05	0.804674	30 	32 
292 	5     	31.05	0.804674	30 	32 
293 	5     	31   	0.774597	30 	32 
294 	5     	31   	0.774597	30 	32 
295 	5     	31   	0.774597	30 	32 
296 	5     	31   	0.774597	30 	32 
297 	5     	31   	0.774597	30 	32 
298 	5     	31   	0.774597	30 	32 
299 	5     	31   	0.774597	30 	32 
300 	5     	31   	0.774597	30 	32 
301 	5     	31   	0.774597	30 	32 
302 	5     	31   	0.774597	30 	32 
303 	5     	31   	0.774597	30 	32 
304 	5     	31   	0.774597	30 	32 
305 	5     	31   	0.774597	30 	32 
306 	5     	31   	0.774597	30 	32 
307 	5     	31   	0.774597	30 	32 
308 	5     	31   	0.774597	30 	32 
309 	5     	31   	0.774597	30 	32 
310 	5     	31   	0.774597	30 	32 
311 	5     	31   	0.774597	30 	32 
312 	5     	31   	0.774597	30 	32 
313 	5     	31   	0.774597	30 	32 
314 	5     	31   	0.774597	30 	32 
315 	5     	31   	0.774597	30 	32 
316 	5     	31   	0.774597	30 	32 
317 	5     	31   	0.774597	30 	32 
318 	5     	31   	0.774597	30 	32 
319 	5     	31   	0.774597	30 	32 
320 	5     	31   	0.774597	30 	32 
321 	5     	31   	0.774597	30 	32 
322 	5     	31   	0.774597	30 	32 
323 	5     	31   	0.774597	30 	32 
324 	5     	31   	0.774597	30 	32 
325 	5     	30.9 	0.768115	30 	32 
326 	5     	30.9 	0.768115	30 	32 
327 	5     	30.9 	0.768115	30 	32 
328 	5     	30.9 	0.768115	30 	32 
329 	5     	30.9 	0.768115	30 	32 
330 	5     	30.9 	0.768115	30 	32 
331 	5     	30.9 	0.768115	30 	32 
332 	5     	30.9 	0.768115	30 	32 
333 	5     	30.9 	0.768115	30 	32 
334 	5     	30.9 	0.768115	30 	32 
335 	5     	30.9 	0.768115	30 	32 
336 	5     	30.9 	0.768115	30 	32 
337 	5     	30.9 	0.768115	30 	32 
338 	5     	30.9 	0.768115	30 	32 
339 	5     	30.75	0.829156	29 	32 
340 	5     	30.75	0.829156	29 	32 
341 	5     	30.75	0.829156	29 	32 
342 	5     	30.75	0.829156	29 	32 
343 	5     	30.75	0.829156	29 	32 
344 	5     	30.75	0.829156	29 	32 
345 	5     	30.75	0.829156	29 	32 
346 	5     	30.7 	0.781025	29 	32 
347 	5     	30.7 	0.781025	29 	32 
348 	5     	30.7 	0.781025	29 	32 
349 	5     	30.7 	0.781025	29 	32 
350 	5     	30.7 	0.781025	29 	32 
351 	5     	30.6 	0.734847	29 	32 
352 	5     	30.6 	0.734847	29 	32 
353 	5     	30.6 	0.734847	29 	32 
354 	5     	30.55	0.668954	29 	32 
355 	5     	30.55	0.668954	29 	32 
356 	5     	30.55	0.668954	29 	32 
357 	5     	30.55	0.668954	29 	32 
358 	5     	30.55	0.668954	29 	32 
359 	5     	30.55	0.668954	29 	32 
360 	5     	30.55	0.668954	29 	32 
361 	5     	30.5 	0.591608	29 	31 
362 	5     	30.5 	0.591608	29 	31 
363 	5     	30.5 	0.591608	29 	31 
364 	5     	30.5 	0.591608	29 	31 
365 	5     	30.5 	0.591608	29 	31 
366 	5     	30.5 	0.591608	29 	31 
367 	5     	30.5 	0.591608	29 	31 
368 	5     	30.5 	0.591608	29 	31 
369 	5     	30.5 	0.591608	29 	31 
370 	5     	30.5 	0.591608	29 	31 
371 	5     	30.5 	0.591608	29 	31 
372 	5     	30.5 	0.591608	29 	31 
373 	5     	30.5 	0.591608	29 	31 
374 	5     	30.5 	0.591608	29 	31 
375 	5     	30.5 	0.591608	29 	31 
376 	5     	30.5 	0.591608	29 	31 
377 	5     	30.5 	0.591608	29 	31 
378 	5     	30.5 	0.591608	29 	31 
379 	5     	30.5 	0.591608	29 	31 
380 	5     	30.5 	0.591608	29 	31 
381 	5     	30.5 	0.591608	29 	31 
382 	5     	30.5 	0.591608	29 	31 
383 	5     	30.5 	0.591608	29 	31 
384 	5     	30.5 	0.591608	29 	31 
385 	5     	30.5 	0.591608	29 	31 
386 	5     	30.5 	0.591608	29 	31 
387 	5     	30.5 	0.591608	29 	31 
388 	5     	30.5 	0.591608	29 	31 
389 	5     	30.5 	0.591608	29 	31 
390 	5     	30.5 	0.591608	29 	31 
391 	5     	30.5 	0.591608	29 	31 
392 	5     	30.5 	0.591608	29 	31 
393 	5     	30.5 	0.591608	29 	31 
394 	5     	30.5 	0.591608	29 	31 
395 	5     	30.5 	0.591608	29 	31 
396 	5     	30.5 	0.591608	29 	31 
397 	5     	30.5 	0.591608	29 	31 
398 	5     	30.5 	0.591608	29 	31 
399 	5     	30.5 	0.591608	29 	31 
400 	5     	30.5 	0.591608	29 	31 
401 	5     	30.5 	0.591608	29 	31 
402 	5     	30.5 	0.591608	29 	31 
403 	5     	30.5 	0.591608	29 	31 
404 	5     	30.5 	0.591608	29 	31 
405 	5     	30.5 	0.591608	29 	31 
406 	5     	30.5 	0.591608	29 	31 
407 	5     	30.5 	0.591608	29 	31 
408 	5     	30.5 	0.591608	29 	31 
409 	5     	30.5 	0.591608	29 	31 
410 	5     	30.5 	0.591608	29 	31 
411 	5     	30.5 	0.591608	29 	31 
412 	5     	30.5 	0.591608	29 	31 
413 	5     	30.45	0.589491	29 	31 
414 	5     	30.45	0.589491	29 	31 
415 	5     	30.45	0.589491	29 	31 
416 	5     	30.45	0.589491	29 	31 
417 	5     	30.45	0.589491	29 	31 
418 	5     	30.45	0.589491	29 	31 
419 	5     	30.45	0.589491	29 	31 
420 	5     	30.45	0.589491	29 	31 
421 	5     	30.45	0.589491	29 	31 
422 	5     	30.45	0.589491	29 	31 
423 	5     	30.45	0.589491	29 	31 
424 	5     	30.45	0.589491	29 	31 
425 	5     	30.45	0.589491	29 	31 
426 	5     	30.45	0.589491	29 	31 
427 	5     	30.45	0.589491	29 	31 
428 	5     	30.45	0.589491	29 	31 
429 	5     	30.45	0.589491	29 	31 
430 	5     	30.45	0.589491	29 	31 
431 	5     	30.45	0.589491	29 	31 
432 	5     	30.45	0.589491	29 	31 
433 	5     	30.45	0.589491	29 	31 
434 	5     	30.45	0.589491	29 	31 
435 	5     	30.45	0.589491	29 	31 
436 	5     	30.45	0.589491	29 	31 
437 	5     	30.45	0.589491	29 	31 
438 	5     	30.45	0.589491	29 	31 
439 	5     	30.45	0.589491	29 	31 
440 	5     	30.45	0.589491	29 	31 
441 	5     	30.45	0.589491	29 	31 
442 	5     	30.45	0.589491	29 	31 
443 	5     	30.45	0.589491	29 	31 
444 	5     	30.35	0.653835	29 	31 
445 	5     	30.35	0.653835	29 	31 
446 	5     	30.35	0.653835	29 	31 
447 	5     	30.35	0.653835	29 	31 
448 	5     	30.35	0.653835	29 	31 
449 	5     	30.35	0.653835	29 	31 
450 	5     	30.35	0.653835	29 	31 
451 	5     	30.35	0.653835	29 	31 
452 	5     	30.35	0.653835	29 	31 
453 	5     	30.35	0.653835	29 	31 
454 	5     	30.35	0.653835	29 	31 
455 	5     	30.35	0.653835	29 	31 
456 	5     	30.35	0.653835	29 	31 
457 	5     	30.35	0.653835	29 	31 
458 	5     	30.35	0.653835	29 	31 
459 	5     	30.35	0.653835	29 	31 
460 	5     	30.35	0.653835	29 	31 
461 	5     	30.35	0.653835	29 	31 
462 	5     	30.35	0.653835	29 	31 
463 	5     	30.35	0.653835	29 	31 
464 	5     	30.35	0.653835	29 	31 
465 	5     	30.35	0.653835	29 	31 
466 	5     	30.35	0.653835	29 	31 
467 	5     	30.35	0.653835	29 	31 
468 	5     	30.35	0.653835	29 	31 
469 	5     	30.35	0.653835	29 	31 
470 	5     	30.35	0.653835	29 	31 
471 	5     	30.35	0.653835	29 	31 
472 	5     	30.35	0.653835	29 	31 
473 	5     	30.35	0.653835	29 	31 
474 	5     	30.35	0.653835	29 	31 
475 	5     	30.35	0.653835	29 	31 
476 	5     	30.3 	0.640312	29 	31 
477 	5     	30.25	0.622495	29 	31 
478 	5     	30.25	0.622495	29 	31 
479 	5     	30.25	0.622495	29 	31 
480 	5     	30.25	0.622495	29 	31 
481 	5     	30.25	0.622495	29 	31 
482 	5     	30.25	0.622495	29 	31 
483 	5     	30.25	0.622495	29 	31 
484 	5     	30.25	0.622495	29 	31 
485 	5     	30.25	0.622495	29 	31 
486 	5     	30.25	0.622495	29 	31 
487 	5     	30.25	0.622495	29 	31 
488 	5     	30.25	0.622495	29 	31 
489 	5     	30.25	0.622495	29 	31 
490 	5     	30.25	0.622495	29 	31 
491 	5     	30.25	0.622495	29 	31 
492 	5     	30.25	0.622495	29 	31 
493 	5     	30.25	0.622495	29 	31 
494 	5     	30.25	0.622495	29 	31 
495 	5     	30.25	0.622495	29 	31 
496 	5     	30.25	0.622495	29 	31 
497 	5     	30.25	0.622495	29 	31 
498 	5     	30.25	0.622495	29 	31 
499 	5     	30.25	0.622495	29 	31 
500 	5     	30.25	0.622495	29 	31 
501 	5     	30.25	0.622495	29 	31 
502 	5     	30.25	0.622495	29 	31 
503 	5     	30.25	0.622495	29 	31 
504 	5     	30.25	0.622495	29 	31 
505 	5     	30.25	0.622495	29 	31 
506 	5     	30.15	0.653835	29 	31 
507 	5     	30.15	0.653835	29 	31 
508 	5     	30.15	0.653835	29 	31 
509 	5     	30.15	0.653835	29 	31 
510 	5     	30.15	0.653835	29 	31 
511 	5     	30.15	0.653835	29 	31 
512 	5     	30.15	0.653835	29 	31 
513 	5     	30.15	0.653835	29 	31 
514 	5     	30.15	0.653835	29 	31 
515 	5     	30.15	0.653835	29 	31 
516 	5     	30.15	0.653835	29 	31 
517 	5     	30.15	0.653835	29 	31 
518 	5     	30.15	0.653835	29 	31 
519 	5     	30.15	0.653835	29 	31 
520 	5     	30.15	0.653835	29 	31 
521 	5     	30.15	0.653835	29 	31 
522 	5     	30.15	0.653835	29 	31 
523 	5     	30.15	0.653835	29 	31 
524 	5     	30.15	0.653835	29 	31 
525 	5     	30.15	0.653835	29 	31 
526 	5     	30.15	0.653835	29 	31 
527 	5     	30.15	0.653835	29 	31 
528 	5     	30.15	0.653835	29 	31 
529 	5     	30.15	0.653835	29 	31 
530 	5     	30.15	0.653835	29 	31 
531 	5     	30.15	0.653835	29 	31 
532 	5     	30.15	0.653835	29 	31 
533 	5     	30.15	0.653835	29 	31 
534 	5     	30.15	0.653835	29 	31 
535 	5     	30.15	0.653835	29 	31 
536 	5     	30.15	0.653835	29 	31 
537 	5     	30.15	0.653835	29 	31 
538 	5     	30.15	0.653835	29 	31 
539 	5     	30.15	0.653835	29 	31 
540 	5     	30.15	0.653835	29 	31 
541 	5     	30.15	0.653835	29 	31 
542 	5     	30.15	0.653835	29 	31 
543 	5     	30.15	0.653835	29 	31 
544 	5     	30.1 	0.6245  	29 	31 
545 	5     	30.1 	0.6245  	29 	31 
546 	5     	30.05	0.589491	29 	31 
547 	5     	30.05	0.589491	29 	31 
548 	5     	30.05	0.589491	29 	31 
549 	5     	30.05	0.589491	29 	31 
550 	5     	30.05	0.589491	29 	31 
551 	5     	30.05	0.589491	29 	31 
552 	5     	30.05	0.589491	29 	31 
553 	5     	30.05	0.589491	29 	31 
554 	5     	30.05	0.589491	29 	31 
555 	5     	30.05	0.589491	29 	31 
556 	5     	30.05	0.589491	29 	31 
557 	5     	30.05	0.589491	29 	31 
558 	5     	30.05	0.589491	29 	31 
559 	5     	30.05	0.589491	29 	31 
560 	5     	30.05	0.589491	29 	31 
561 	5     	30.05	0.589491	29 	31 
562 	5     	30.05	0.589491	29 	31 
563 	5     	30.05	0.589491	29 	31 
564 	5     	30.05	0.589491	29 	31 
565 	5     	30.05	0.589491	29 	31 
566 	5     	30.05	0.589491	29 	31 
567 	5     	30.05	0.589491	29 	31 
568 	5     	30.05	0.589491	29 	31 
569 	5     	30.05	0.589491	29 	31 
570 	5     	30.05	0.589491	29 	31 
571 	5     	30.05	0.589491	29 	31 
572 	5     	30.05	0.589491	29 	31 
573 	5     	30.05	0.589491	29 	31 
574 	5     	30.05	0.589491	29 	31 
575 	5     	30.05	0.589491	29 	31 
576 	5     	30.05	0.589491	29 	31 
577 	5     	30.05	0.589491	29 	31 
578 	5     	30.05	0.589491	29 	31 
579 	5     	30.05	0.589491	29 	31 
580 	5     	30.05	0.589491	29 	31 
581 	5     	30.05	0.589491	29 	31 
582 	5     	30.05	0.589491	29 	31 
583 	5     	30.05	0.589491	29 	31 
584 	5     	30.05	0.589491	29 	31 
585 	5     	30.05	0.589491	29 	31 
586 	5     	30.05	0.589491	29 	31 
587 	5     	30.05	0.589491	29 	31 
588 	5     	30.05	0.589491	29 	31 
589 	5     	30.05	0.589491	29 	31 
590 	5     	30.05	0.589491	29 	31 
591 	5     	30   	0.547723	29 	31 
592 	5     	30   	0.547723	29 	31 
593 	5     	30   	0.547723	29 	31 
594 	5     	30   	0.547723	29 	31 
595 	5     	30   	0.547723	29 	31 
596 	5     	30   	0.547723	29 	31 
597 	5     	30   	0.547723	29 	31 
598 	5     	30   	0.547723	29 	31 
599 	5     	30   	0.547723	29 	31 
600 	5     	30   	0.547723	29 	31 
601 	5     	30   	0.547723	29 	31 
602 	5     	30   	0.547723	29 	31 
603 	5     	30   	0.547723	29 	31 
604 	5     	30   	0.547723	29 	31 
605 	5     	30   	0.547723	29 	31 
606 	5     	30   	0.547723	29 	31 
607 	5     	30   	0.547723	29 	31 
608 	5     	30   	0.547723	29 	31 
609 	5     	30   	0.547723	29 	31 
610 	5     	30   	0.547723	29 	31 
611 	5     	30   	0.547723	29 	31 
612 	5     	30   	0.547723	29 	31 
613 	5     	30   	0.547723	29 	31 
614 	5     	30   	0.547723	29 	31 
615 	5     	30   	0.547723	29 	31 
616 	5     	30   	0.547723	29 	31 
617 	5     	30   	0.547723	29 	31 
618 	5     	30   	0.547723	29 	31 
619 	5     	30   	0.547723	29 	31 
620 	5     	30   	0.547723	29 	31 
621 	5     	30   	0.547723	29 	31 
622 	5     	30   	0.547723	29 	31 
623 	5     	30   	0.547723	29 	31 
624 	5     	30   	0.547723	29 	31 
625 	5     	30   	0.547723	29 	31 
626 	5     	30   	0.547723	29 	31 
627 	5     	30   	0.547723	29 	31 
628 	5     	30   	0.547723	29 	31 
629 	5     	30   	0.547723	29 	31 
630 	5     	30   	0.547723	29 	31 
631 	5     	30   	0.547723	29 	31 
632 	5     	30   	0.547723	29 	31 
633 	5     	30   	0.547723	29 	31 
634 	5     	30   	0.547723	29 	31 
635 	5     	30   	0.547723	29 	31 
636 	5     	30   	0.547723	29 	31 
637 	5     	30   	0.547723	29 	31 
638 	5     	30   	0.547723	29 	31 
639 	5     	30   	0.547723	29 	31 
640 	5     	30   	0.547723	29 	31 
641 	5     	30   	0.547723	29 	31 
642 	5     	30   	0.547723	29 	31 
643 	5     	30   	0.547723	29 	31 
644 	5     	30   	0.547723	29 	31 
645 	5     	30   	0.547723	29 	31 
646 	5     	30   	0.547723	29 	31 
647 	5     	30   	0.547723	29 	31 
648 	5     	30   	0.547723	29 	31 
649 	5     	30   	0.547723	29 	31 
650 	5     	30   	0.547723	29 	31 
651 	5     	30   	0.547723	29 	31 
652 	5     	30   	0.547723	29 	31 
653 	5     	30   	0.547723	29 	31 
654 	5     	30   	0.547723	29 	31 
655 	5     	30   	0.547723	29 	31 
656 	5     	30   	0.547723	29 	31 
657 	5     	30   	0.547723	29 	31 
658 	5     	30   	0.547723	29 	31 
659 	5     	30   	0.547723	29 	31 
660 	5     	30   	0.547723	29 	31 
661 	5     	30   	0.547723	29 	31 
662 	5     	30   	0.547723	29 	31 
663 	5     	30   	0.547723	29 	31 
664 	5     	30   	0.547723	29 	31 
665 	5     	30   	0.547723	29 	31 
666 	5     	30   	0.547723	29 	31 
667 	5     	30   	0.547723	29 	31 
668 	5     	29.95	0.497494	29 	31 
669 	5     	29.95	0.497494	29 	31 
670 	5     	29.95	0.497494	29 	31 
671 	5     	29.95	0.497494	29 	31 
672 	5     	29.95	0.497494	29 	31 
673 	5     	29.95	0.497494	29 	31 
674 	5     	29.95	0.497494	29 	31 
675 	5     	29.95	0.497494	29 	31 
676 	5     	29.95	0.497494	29 	31 
677 	5     	29.95	0.497494	29 	31 
678 	5     	29.95	0.497494	29 	31 
679 	5     	29.95	0.497494	29 	31 
680 	5     	29.95	0.497494	29 	31 
681 	5     	29.95	0.497494	29 	31 
682 	5     	29.95	0.497494	29 	31 
683 	5     	29.95	0.497494	29 	31 
684 	5     	29.95	0.497494	29 	31 
685 	5     	29.95	0.497494	29 	31 
686 	5     	29.95	0.497494	29 	31 
687 	5     	29.95	0.497494	29 	31 
688 	5     	29.95	0.497494	29 	31 
689 	5     	29.95	0.497494	29 	31 
690 	5     	29.95	0.497494	29 	31 
691 	5     	29.95	0.497494	29 	31 
692 	5     	29.95	0.497494	29 	31 
693 	5     	29.95	0.497494	29 	31 
694 	5     	29.95	0.497494	29 	31 
695 	5     	29.95	0.497494	29 	31 
696 	5     	29.95	0.497494	29 	31 
697 	5     	29.95	0.497494	29 	31 
698 	5     	29.95	0.497494	29 	31 
699 	5     	29.95	0.497494	29 	31 
700 	5     	29.95	0.497494	29 	31 
701 	5     	29.95	0.497494	29 	31 
702 	5     	29.95	0.497494	29 	31 
703 	5     	29.95	0.497494	29 	31 
704 	5     	29.95	0.497494	29 	31 
705 	5     	29.95	0.497494	29 	31 
706 	5     	29.95	0.497494	29 	31 
707 	5     	29.95	0.497494	29 	31 
708 	5     	29.95	0.497494	29 	31 
709 	5     	29.95	0.497494	29 	31 
710 	5     	29.95	0.497494	29 	31 
711 	5     	29.95	0.497494	29 	31 
712 	5     	29.95	0.497494	29 	31 
713 	5     	29.95	0.497494	29 	31 
714 	5     	29.95	0.497494	29 	31 
715 	5     	29.95	0.497494	29 	31 
716 	5     	29.95	0.497494	29 	31 
717 	5     	29.95	0.497494	29 	31 
718 	5     	29.95	0.497494	29 	31 
719 	5     	29.95	0.497494	29 	31 
720 	5     	29.95	0.497494	29 	31 
721 	5     	29.95	0.497494	29 	31 
722 	5     	29.95	0.497494	29 	31 
723 	5     	29.95	0.497494	29 	31 
724 	5     	29.95	0.497494	29 	31 
725 	5     	29.95	0.497494	29 	31 
726 	5     	29.95	0.497494	29 	31 
727 	5     	29.95	0.497494	29 	31 
728 	5     	29.95	0.497494	29 	31 
729 	5     	29.95	0.497494	29 	31 
730 	5     	29.95	0.497494	29 	31 
731 	5     	29.95	0.497494	29 	31 
732 	5     	29.95	0.497494	29 	31 
733 	5     	29.95	0.497494	29 	31 
734 	5     	29.95	0.497494	29 	31 
735 	5     	29.95	0.497494	29 	31 
736 	5     	29.95	0.497494	29 	31 
737 	5     	29.95	0.497494	29 	31 
738 	5     	29.95	0.497494	29 	31 
739 	5     	29.95	0.497494	29 	31 
740 	5     	29.95	0.497494	29 	31 
741 	5     	29.9 	0.43589 	29 	31 
742 	5     	29.9 	0.43589 	29 	31 
743 	5     	29.9 	0.43589 	29 	31 
744 	5     	29.9 	0.43589 	29 	31 
745 	5     	29.9 	0.43589 	29 	31 
746 	5     	29.9 	0.43589 	29 	31 
747 	5     	29.9 	0.43589 	29 	31 
748 	5     	29.9 	0.43589 	29 	31 
749 	5     	29.9 	0.43589 	29 	31 
750 	5     	29.9 	0.43589 	29 	31 
751 	5     	29.9 	0.43589 	29 	31 
752 	5     	29.9 	0.43589 	29 	31 
753 	5     	29.9 	0.43589 	29 	31 
754 	5     	29.9 	0.43589 	29 	31 
755 	5     	29.9 	0.43589 	29 	31 
756 	5     	29.9 	0.43589 	29 	31 
757 	5     	29.9 	0.43589 	29 	31 
758 	5     	29.9 	0.43589 	29 	31 
759 	5     	29.9 	0.43589 	29 	31 
760 	5     	29.9 	0.43589 	29 	31 
761 	5     	29.9 	0.43589 	29 	31 
762 	5     	29.9 	0.43589 	29 	31 
763 	5     	29.9 	0.43589 	29 	31 
764 	5     	29.9 	0.43589 	29 	31 
765 	5     	29.9 	0.43589 	29 	31 
766 	5     	29.9 	0.43589 	29 	31 
767 	5     	29.9 	0.43589 	29 	31 
768 	5     	29.9 	0.43589 	29 	31 
769 	5     	29.9 	0.43589 	29 	31 
770 	5     	29.9 	0.43589 	29 	31 
771 	5     	29.9 	0.43589 	29 	31 
772 	5     	29.9 	0.43589 	29 	31 
773 	5     	29.9 	0.43589 	29 	31 
774 	5     	29.9 	0.43589 	29 	31 
775 	5     	29.9 	0.43589 	29 	31 
776 	5     	29.9 	0.43589 	29 	31 
777 	5     	29.9 	0.43589 	29 	31 
778 	5     	29.9 	0.43589 	29 	31 
779 	5     	29.85	0.357071	29 	30 
780 	5     	29.85	0.357071	29 	30 
781 	5     	29.85	0.357071	29 	30 
782 	5     	29.85	0.357071	29 	30 
783 	5     	29.85	0.357071	29 	30 
784 	5     	29.85	0.357071	29 	30 
785 	5     	29.85	0.357071	29 	30 
786 	5     	29.85	0.357071	29 	30 
787 	5     	29.85	0.357071	29 	30 
788 	5     	29.85	0.357071	29 	30 
789 	5     	29.85	0.357071	29 	30 
790 	5     	29.85	0.357071	29 	30 
791 	5     	29.85	0.357071	29 	30 
792 	5     	29.85	0.357071	29 	30 
793 	5     	29.85	0.357071	29 	30 
794 	5     	29.85	0.357071	29 	30 
795 	5     	29.85	0.357071	29 	30 
796 	5     	29.85	0.357071	29 	30 
797 	5     	29.85	0.357071	29 	30 
798 	5     	29.85	0.357071	29 	30 
799 	5     	29.85	0.357071	29 	30 
800 	5     	29.85	0.357071	29 	30 
801 	5     	29.85	0.357071	29 	30 
802 	5     	29.85	0.357071	29 	30 
803 	5     	29.85	0.357071	29 	30 
804 	5     	29.85	0.357071	29 	30 
805 	5     	29.85	0.357071	29 	30 
806 	5     	29.85	0.357071	29 	30 
807 	5     	29.85	0.357071	29 	30 
808 	5     	29.85	0.357071	29 	30 
809 	5     	29.85	0.357071	29 	30 
810 	5     	29.85	0.357071	29 	30 
811 	5     	29.85	0.357071	29 	30 
812 	5     	29.85	0.357071	29 	30 
813 	5     	29.85	0.357071	29 	30 
814 	5     	29.85	0.357071	29 	30 
815 	5     	29.85	0.357071	29 	30 
816 	5     	29.85	0.357071	29 	30 
817 	5     	29.85	0.357071	29 	30 
818 	5     	29.85	0.357071	29 	30 
819 	5     	29.85	0.357071	29 	30 
820 	5     	29.85	0.357071	29 	30 
821 	5     	29.85	0.357071	29 	30 
822 	5     	29.85	0.357071	29 	30 
823 	5     	29.85	0.357071	29 	30 
824 	5     	29.85	0.357071	29 	30 
825 	5     	29.85	0.357071	29 	30 
826 	5     	29.85	0.357071	29 	30 
827 	5     	29.85	0.357071	29 	30 
828 	5     	29.85	0.357071	29 	30 
829 	5     	29.85	0.357071	29 	30 
830 	5     	29.85	0.357071	29 	30 
831 	5     	29.85	0.357071	29 	30 
832 	5     	29.85	0.357071	29 	30 
833 	5     	29.85	0.357071	29 	30 
834 	5     	29.85	0.357071	29 	30 
835 	5     	29.85	0.357071	29 	30 
836 	5     	29.85	0.357071	29 	30 
837 	5     	29.85	0.357071	29 	30 
838 	5     	29.85	0.357071	29 	30 
839 	5     	29.85	0.357071	29 	30 
840 	5     	29.85	0.357071	29 	30 
841 	5     	29.85	0.357071	29 	30 
842 	5     	29.85	0.357071	29 	30 
843 	5     	29.85	0.357071	29 	30 
844 	5     	29.85	0.357071	29 	30 
845 	5     	29.85	0.357071	29 	30 
846 	5     	29.85	0.357071	29 	30 
847 	5     	29.85	0.357071	29 	30 
848 	5     	29.85	0.357071	29 	30 
849 	5     	29.85	0.357071	29 	30 
850 	5     	29.85	0.357071	29 	30 
851 	5     	29.85	0.357071	29 	30 
852 	5     	29.85	0.357071	29 	30 
853 	5     	29.85	0.357071	29 	30 
854 	5     	29.85	0.357071	29 	30 
855 	5     	29.85	0.357071	29 	30 
856 	5     	29.85	0.357071	29 	30 
857 	5     	29.85	0.357071	29 	30 
858 	5     	29.85	0.357071	29 	30 
859 	5     	29.85	0.357071	29 	30 
860 	5     	29.85	0.357071	29 	30 
861 	5     	29.85	0.357071	29 	30 
862 	5     	29.85	0.357071	29 	30 
863 	5     	29.85	0.357071	29 	30 
864 	5     	29.85	0.357071	29 	30 
865 	5     	29.85	0.357071	29 	30 
866 	5     	29.85	0.357071	29 	30 
867 	5     	29.85	0.357071	29 	30 
868 	5     	29.85	0.357071	29 	30 
869 	5     	29.85	0.357071	29 	30 
870 	5     	29.85	0.357071	29 	30 
871 	5     	29.85	0.357071	29 	30 
872 	5     	29.85	0.357071	29 	30 
873 	5     	29.85	0.357071	29 	30 
874 	5     	29.85	0.357071	29 	30 
875 	5     	29.85	0.357071	29 	30 
876 	5     	29.85	0.357071	29 	30 
877 	5     	29.85	0.357071	29 	30 
878 	5     	29.85	0.357071	29 	30 
879 	5     	29.8 	0.4     	29 	30 
880 	5     	29.8 	0.4     	29 	30 
881 	5     	29.8 	0.4     	29 	30 
882 	5     	29.8 	0.4     	29 	30 
883 	5     	29.8 	0.4     	29 	30 
884 	5     	29.8 	0.4     	29 	30 
885 	5     	29.8 	0.4     	29 	30 
886 	5     	29.8 	0.4     	29 	30 
887 	5     	29.8 	0.4     	29 	30 
888 	5     	29.8 	0.4     	29 	30 
889 	5     	29.8 	0.4     	29 	30 
890 	5     	29.8 	0.4     	29 	30 
891 	5     	29.8 	0.4     	29 	30 
892 	5     	29.8 	0.4     	29 	30 
893 	5     	29.8 	0.4     	29 	30 
894 	5     	29.8 	0.4     	29 	30 
895 	5     	29.8 	0.4     	29 	30 
896 	5     	29.8 	0.4     	29 	30 
897 	5     	29.8 	0.4     	29 	30 
898 	5     	29.8 	0.4     	29 	30 
899 	5     	29.8 	0.4     	29 	30 
900 	5     	29.8 	0.4     	29 	30 
901 	5     	29.8 	0.4     	29 	30 
902 	5     	29.8 	0.4     	29 	30 
903 	5     	29.8 	0.4     	29 	30 
904 	5     	29.8 	0.4     	29 	30 
905 	5     	29.7 	0.556776	28 	30 
906 	5     	29.7 	0.556776	28 	30 
907 	5     	29.7 	0.556776	28 	30 
908 	5     	29.7 	0.556776	28 	30 
909 	5     	29.7 	0.556776	28 	30 
910 	5     	29.7 	0.556776	28 	30 
911 	5     	29.7 	0.556776	28 	30 
912 	5     	29.7 	0.556776	28 	30 
913 	5     	29.7 	0.556776	28 	30 
914 	5     	29.7 	0.556776	28 	30 
915 	5     	29.7 	0.556776	28 	30 
916 	5     	29.7 	0.556776	28 	30 
917 	5     	29.7 	0.556776	28 	30 
918 	5     	29.7 	0.556776	28 	30 
919 	5     	29.7 	0.556776	28 	30 
920 	5     	29.7 	0.556776	28 	30 
921 	5     	29.7 	0.556776	28 	30 
922 	5     	29.7 	0.556776	28 	30 
923 	5     	29.7 	0.556776	28 	30 
924 	5     	29.7 	0.556776	28 	30 
925 	5     	29.7 	0.556776	28 	30 
926 	5     	29.7 	0.556776	28 	30 
927 	5     	29.7 	0.556776	28 	30 
928 	5     	29.7 	0.556776	28 	30 
929 	5     	29.7 	0.556776	28 	30 
930 	5     	29.7 	0.556776	28 	30 
931 	5     	29.7 	0.556776	28 	30 
932 	5     	29.7 	0.556776	28 	30 
933 	5     	29.7 	0.556776	28 	30 
934 	5     	29.7 	0.556776	28 	30 
935 	5     	29.7 	0.556776	28 	30 
936 	5     	29.7 	0.556776	28 	30 
937 	5     	29.7 	0.556776	28 	30 
938 	5     	29.7 	0.556776	28 	30 
939 	5     	29.7 	0.556776	28 	30 
940 	5     	29.7 	0.556776	28 	30 
941 	5     	29.7 	0.556776	28 	30 
942 	5     	29.7 	0.556776	28 	30 
943 	5     	29.7 	0.556776	28 	30 
944 	5     	29.7 	0.556776	28 	30 
945 	5     	29.7 	0.556776	28 	30 
946 	5     	29.7 	0.556776	28 	30 
947 	5     	29.7 	0.556776	28 	30 
948 	5     	29.7 	0.556776	28 	30 
949 	5     	29.7 	0.556776	28 	30 
950 	5     	29.7 	0.556776	28 	30 
951 	5     	29.7 	0.556776	28 	30 
952 	5     	29.7 	0.556776	28 	30 
953 	5     	29.7 	0.556776	28 	30 
954 	5     	29.7 	0.556776	28 	30 
955 	5     	29.7 	0.556776	28 	30 
956 	5     	29.7 	0.556776	28 	30 
957 	5     	29.7 	0.556776	28 	30 
958 	5     	29.7 	0.556776	28 	30 
959 	5     	29.7 	0.556776	28 	30 
960 	5     	29.7 	0.556776	28 	30 
961 	5     	29.7 	0.556776	28 	30 
962 	5     	29.7 	0.556776	28 	30 
963 	5     	29.7 	0.556776	28 	30 
964 	5     	29.7 	0.556776	28 	30 
965 	5     	29.7 	0.556776	28 	30 
966 	5     	29.7 	0.556776	28 	30 
967 	5     	29.7 	0.556776	28 	30 
968 	5     	29.7 	0.556776	28 	30 
969 	5     	29.7 	0.556776	28 	30 
970 	5     	29.7 	0.556776	28 	30 
971 	5     	29.7 	0.556776	28 	30 
972 	5     	29.7 	0.556776	28 	30 
973 	5     	29.7 	0.556776	28 	30 
974 	5     	29.7 	0.556776	28 	30 
975 	5     	29.7 	0.556776	28 	30 
976 	5     	29.7 	0.556776	28 	30 
977 	5     	29.7 	0.556776	28 	30 
978 	5     	29.7 	0.556776	28 	30 
979 	5     	29.7 	0.556776	28 	30 
980 	5     	29.7 	0.556776	28 	30 
981 	5     	29.7 	0.556776	28 	30 
982 	5     	29.7 	0.556776	28 	30 
983 	5     	29.7 	0.556776	28 	30 
984 	5     	29.7 	0.556776	28 	30 
985 	5     	29.7 	0.556776	28 	30 
986 	5     	29.7 	0.556776	28 	30 
987 	5     	29.7 	0.556776	28 	30 
988 	5     	29.7 	0.556776	28 	30 
989 	5     	29.7 	0.556776	28 	30 
990 	5     	29.7 	0.556776	28 	30 
991 	5     	29.7 	0.556776	28 	30 
992 	5     	29.7 	0.556776	28 	30 
993 	5     	29.7 	0.556776	28 	30 
994 	5     	29.7 	0.556776	28 	30 
995 	5     	29.7 	0.556776	28 	30 
996 	5     	29.7 	0.556776	28 	30 
997 	5     	29.7 	0.556776	28 	30 
998 	5     	29.7 	0.556776	28 	30 
999 	5     	29.7 	0.556776	28 	30 
1000	5     	29.7 	0.556776	28 	30 
1001	5     	29.7 	0.556776	28 	30 
1002	5     	29.7 	0.556776	28 	30 
1003	5     	29.7 	0.556776	28 	30 
1004	5     	29.7 	0.556776	28 	30 
1005	5     	29.7 	0.556776	28 	30 
1006	5     	29.7 	0.556776	28 	30 
1007	5     	29.7 	0.556776	28 	30 
1008	5     	29.7 	0.556776	28 	30 
1009	5     	29.7 	0.556776	28 	30 
1010	5     	29.7 	0.556776	28 	30 
1011	5     	29.7 	0.556776	28 	30 
1012	5     	29.7 	0.556776	28 	30 
1013	5     	29.7 	0.556776	28 	30 
1014	5     	29.7 	0.556776	28 	30 
1015	5     	29.7 	0.556776	28 	30 
1016	5     	29.7 	0.556776	28 	30 
1017	5     	29.7 	0.556776	28 	30 
1018	5     	29.7 	0.556776	28 	30 
1019	5     	29.7 	0.556776	28 	30 
1020	5     	29.7 	0.556776	28 	30 
1021	5     	29.7 	0.556776	28 	30 
1022	5     	29.7 	0.556776	28 	30 
1023	5     	29.7 	0.556776	28 	30 
1024	5     	29.7 	0.556776	28 	30 
1025	5     	29.7 	0.556776	28 	30 
1026	5     	29.7 	0.556776	28 	30 
1027	5     	29.7 	0.556776	28 	30 
1028	5     	29.7 	0.556776	28 	30 
1029	5     	29.7 	0.556776	28 	30 
1030	5     	29.7 	0.556776	28 	30 
1031	5     	29.7 	0.556776	28 	30 
1032	5     	29.7 	0.556776	28 	30 
1033	5     	29.7 	0.556776	28 	30 
1034	5     	29.7 	0.556776	28 	30 
1035	5     	29.7 	0.556776	28 	30 
1036	5     	29.7 	0.556776	28 	30 
1037	5     	29.7 	0.556776	28 	30 
1038	5     	29.7 	0.556776	28 	30 
1039	5     	29.7 	0.556776	28 	30 
1040	5     	29.7 	0.556776	28 	30 
1041	5     	29.7 	0.556776	28 	30 
1042	5     	29.7 	0.556776	28 	30 
1043	5     	29.7 	0.556776	28 	30 
1044	5     	29.7 	0.556776	28 	30 
1045	5     	29.7 	0.556776	28 	30 
1046	5     	29.7 	0.556776	28 	30 
1047	5     	29.7 	0.556776	28 	30 
1048	5     	29.7 	0.556776	28 	30 
1049	5     	29.7 	0.556776	28 	30 
1050	5     	29.7 	0.556776	28 	30 
1051	5     	29.7 	0.556776	28 	30 
1052	5     	29.7 	0.556776	28 	30 
1053	5     	29.7 	0.556776	28 	30 
1054	5     	29.7 	0.556776	28 	30 
1055	5     	29.7 	0.556776	28 	30 
1056	5     	29.7 	0.556776	28 	30 
1057	5     	29.7 	0.556776	28 	30 
1058	5     	29.7 	0.556776	28 	30 
1059	5     	29.7 	0.556776	28 	30 
1060	5     	29.7 	0.556776	28 	30 
1061	5     	29.7 	0.556776	28 	30 
1062	5     	29.7 	0.556776	28 	30 
1063	5     	29.7 	0.556776	28 	30 
1064	5     	29.7 	0.556776	28 	30 
1065	5     	29.7 	0.556776	28 	30 
1066	5     	29.7 	0.556776	28 	30 
1067	5     	29.7 	0.556776	28 	30 
1068	5     	29.7 	0.556776	28 	30 
1069	5     	29.7 	0.556776	28 	30 
1070	5     	29.7 	0.556776	28 	30 
1071	5     	29.7 	0.556776	28 	30 
1072	5     	29.7 	0.556776	28 	30 
1073	5     	29.7 	0.556776	28 	30 
1074	5     	29.7 	0.556776	28 	30 
1075	5     	29.7 	0.556776	28 	30 
1076	5     	29.7 	0.556776	28 	30 
1077	5     	29.7 	0.556776	28 	30 
1078	5     	29.7 	0.556776	28 	30 
1079	5     	29.7 	0.556776	28 	30 
1080	5     	29.7 	0.556776	28 	30 
1081	5     	29.7 	0.556776	28 	30 
1082	5     	29.7 	0.556776	28 	30 
1083	5     	29.7 	0.556776	28 	30 
1084	5     	29.7 	0.556776	28 	30 
1085	5     	29.7 	0.556776	28 	30 
1086	5     	29.7 	0.556776	28 	30 
1087	5     	29.7 	0.556776	28 	30 
1088	5     	29.7 	0.556776	28 	30 
1089	5     	29.7 	0.556776	28 	30 
1090	5     	29.7 	0.556776	28 	30 
1091	5     	29.7 	0.556776	28 	30 
1092	5     	29.7 	0.556776	28 	30 
1093	5     	29.7 	0.556776	28 	30 
1094	5     	29.7 	0.556776	28 	30 
1095	5     	29.7 	0.556776	28 	30 
1096	5     	29.7 	0.556776	28 	30 
1097	5     	29.7 	0.556776	28 	30 
1098	5     	29.7 	0.556776	28 	30 
1099	5     	29.7 	0.556776	28 	30 
1100	5     	29.7 	0.556776	28 	30 
1101	5     	29.7 	0.556776	28 	30 
1102	5     	29.7 	0.556776	28 	30 
1103	5     	29.7 	0.556776	28 	30 
1104	5     	29.7 	0.556776	28 	30 
1105	5     	29.7 	0.556776	28 	30 
1106	5     	29.7 	0.556776	28 	30 
1107	5     	29.7 	0.556776	28 	30 
1108	5     	29.7 	0.556776	28 	30 
1109	5     	29.7 	0.556776	28 	30 
1110	5     	29.7 	0.556776	28 	30 
1111	5     	29.7 	0.556776	28 	30 
1112	5     	29.7 	0.556776	28 	30 
1113	5     	29.7 	0.556776	28 	30 
1114	5     	29.7 	0.556776	28 	30 
1115	5     	29.7 	0.556776	28 	30 
1116	5     	29.7 	0.556776	28 	30 
1117	5     	29.7 	0.556776	28 	30 
1118	5     	29.7 	0.556776	28 	30 
1119	5     	29.7 	0.556776	28 	30 
1120	5     	29.7 	0.556776	28 	30 
1121	5     	29.7 	0.556776	28 	30 
1122	5     	29.7 	0.556776	28 	30 
1123	5     	29.7 	0.556776	28 	30 
1124	5     	29.7 	0.556776	28 	30 
1125	5     	29.7 	0.556776	28 	30 
1126	5     	29.7 	0.556776	28 	30 
1127	5     	29.7 	0.556776	28 	30 
1128	5     	29.7 	0.556776	28 	30 
1129	5     	29.7 	0.556776	28 	30 
1130	5     	29.7 	0.556776	28 	30 
1131	5     	29.7 	0.556776	28 	30 
1132	5     	29.7 	0.556776	28 	30 
1133	5     	29.7 	0.556776	28 	30 
1134	5     	29.7 	0.556776	28 	30 
1135	5     	29.7 	0.556776	28 	30 
1136	5     	29.7 	0.556776	28 	30 
1137	5     	29.7 	0.556776	28 	30 
1138	5     	29.7 	0.556776	28 	30 
1139	5     	29.7 	0.556776	28 	30 
1140	5     	29.7 	0.556776	28 	30 
1141	5     	29.7 	0.556776	28 	30 
1142	5     	29.7 	0.556776	28 	30 
1143	5     	29.7 	0.556776	28 	30 
1144	5     	29.7 	0.556776	28 	30 
1145	5     	29.7 	0.556776	28 	30 
1146	5     	29.7 	0.556776	28 	30 
1147	5     	29.7 	0.556776	28 	30 
1148	5     	29.7 	0.556776	28 	30 
1149	5     	29.7 	0.556776	28 	30 
1150	5     	29.7 	0.556776	28 	30 
1151	5     	29.7 	0.556776	28 	30 
1152	5     	29.7 	0.556776	28 	30 
1153	5     	29.7 	0.556776	28 	30 
1154	5     	29.7 	0.556776	28 	30 
1155	5     	29.7 	0.556776	28 	30 
1156	5     	29.7 	0.556776	28 	30 
1157	5     	29.7 	0.556776	28 	30 
1158	5     	29.7 	0.556776	28 	30 
1159	5     	29.7 	0.556776	28 	30 
1160	5     	29.7 	0.556776	28 	30 
1161	5     	29.7 	0.556776	28 	30 
1162	5     	29.7 	0.556776	28 	30 
1163	5     	29.7 	0.556776	28 	30 
1164	5     	29.7 	0.556776	28 	30 
1165	5     	29.7 	0.556776	28 	30 
1166	5     	29.7 	0.556776	28 	30 
1167	5     	29.7 	0.556776	28 	30 
1168	5     	29.7 	0.556776	28 	30 
1169	5     	29.7 	0.556776	28 	30 
1170	5     	29.7 	0.556776	28 	30 
1171	5     	29.7 	0.556776	28 	30 
1172	5     	29.7 	0.556776	28 	30 
1173	5     	29.7 	0.556776	28 	30 
1174	5     	29.7 	0.556776	28 	30 
1175	5     	29.7 	0.556776	28 	30 
1176	5     	29.7 	0.556776	28 	30 
1177	5     	29.7 	0.556776	28 	30 
1178	5     	29.7 	0.556776	28 	30 
1179	5     	29.7 	0.556776	28 	30 
1180	5     	29.7 	0.556776	28 	30 
1181	5     	29.7 	0.556776	28 	30 
1182	5     	29.7 	0.556776	28 	30 
1183	5     	29.7 	0.556776	28 	30 
1184	5     	29.7 	0.556776	28 	30 
1185	5     	29.7 	0.556776	28 	30 
1186	5     	29.7 	0.556776	28 	30 
1187	5     	29.7 	0.556776	28 	30 
1188	5     	29.7 	0.556776	28 	30 
1189	5     	29.7 	0.556776	28 	30 
1190	5     	29.7 	0.556776	28 	30 
1191	5     	29.7 	0.556776	28 	30 
1192	5     	29.7 	0.556776	28 	30 
1193	5     	29.7 	0.556776	28 	30 
1194	5     	29.7 	0.556776	28 	30 
1195	5     	29.7 	0.556776	28 	30 
1196	5     	29.7 	0.556776	28 	30 
1197	5     	29.7 	0.556776	28 	30 
1198	5     	29.7 	0.556776	28 	30 
1199	5     	29.7 	0.556776	28 	30 
1200	5     	29.7 	0.556776	28 	30 
1201	5     	29.7 	0.556776	28 	30 
1202	5     	29.7 	0.556776	28 	30 
1203	5     	29.7 	0.556776	28 	30 
1204	5     	29.7 	0.556776	28 	30 
1205	5     	29.7 	0.556776	28 	30 
1206	5     	29.7 	0.556776	28 	30 
1207	5     	29.7 	0.556776	28 	30 
1208	5     	29.7 	0.556776	28 	30 
1209	5     	29.7 	0.556776	28 	30 
1210	5     	29.7 	0.556776	28 	30 
1211	5     	29.7 	0.556776	28 	30 
1212	5     	29.7 	0.556776	28 	30 
1213	5     	29.7 	0.556776	28 	30 
1214	5     	29.7 	0.556776	28 	30 
1215	5     	29.7 	0.556776	28 	30 
1216	5     	29.7 	0.556776	28 	30 
1217	5     	29.7 	0.556776	28 	30 
1218	5     	29.7 	0.556776	28 	30 
1219	5     	29.7 	0.556776	28 	30 
1220	5     	29.7 	0.556776	28 	30 
1221	5     	29.7 	0.556776	28 	30 
1222	5     	29.7 	0.556776	28 	30 
1223	5     	29.7 	0.556776	28 	30 
1224	5     	29.7 	0.556776	28 	30 
1225	5     	29.7 	0.556776	28 	30 
1226	5     	29.7 	0.556776	28 	30 
1227	5     	29.7 	0.556776	28 	30 
1228	5     	29.7 	0.556776	28 	30 
1229	5     	29.7 	0.556776	28 	30 
1230	5     	29.7 	0.556776	28 	30 
1231	5     	29.7 	0.556776	28 	30 
1232	5     	29.7 	0.556776	28 	30 
1233	5     	29.7 	0.556776	28 	30 
1234	5     	29.7 	0.556776	28 	30 
1235	5     	29.7 	0.556776	28 	30 
1236	5     	29.7 	0.556776	28 	30 
1237	5     	29.7 	0.556776	28 	30 
1238	5     	29.7 	0.556776	28 	30 
1239	5     	29.7 	0.556776	28 	30 
1240	5     	29.7 	0.556776	28 	30 
1241	5     	29.7 	0.556776	28 	30 
1242	5     	29.7 	0.556776	28 	30 
1243	5     	29.7 	0.556776	28 	30 
1244	5     	29.7 	0.556776	28 	30 
1245	5     	29.7 	0.556776	28 	30 
1246	5     	29.7 	0.556776	28 	30 
1247	5     	29.7 	0.556776	28 	30 
1248	5     	29.7 	0.556776	28 	30 
1249	5     	29.7 	0.556776	28 	30 
1250	5     	29.7 	0.556776	28 	30 
1251	5     	29.7 	0.556776	28 	30 
1252	5     	29.7 	0.556776	28 	30 
1253	5     	29.7 	0.556776	28 	30 
1254	5     	29.7 	0.556776	28 	30 
1255	5     	29.7 	0.556776	28 	30 
1256	5     	29.7 	0.556776	28 	30 
1257	5     	29.7 	0.556776	28 	30 
1258	5     	29.7 	0.556776	28 	30 
1259	5     	29.7 	0.556776	28 	30 
1260	5     	29.7 	0.556776	28 	30 
1261	5     	29.7 	0.556776	28 	30 
1262	5     	29.7 	0.556776	28 	30 
1263	5     	29.7 	0.556776	28 	30 
1264	5     	29.7 	0.556776	28 	30 
1265	5     	29.7 	0.556776	28 	30 
1266	5     	29.7 	0.556776	28 	30 
1267	5     	29.7 	0.556776	28 	30 
1268	5     	29.7 	0.556776	28 	30 
1269	5     	29.7 	0.556776	28 	30 
1270	5     	29.7 	0.556776	28 	30 
1271	5     	29.7 	0.556776	28 	30 
1272	5     	29.7 	0.556776	28 	30 
1273	5     	29.7 	0.556776	28 	30 
1274	5     	29.7 	0.556776	28 	30 
1275	5     	29.7 	0.556776	28 	30 
1276	5     	29.7 	0.556776	28 	30 
1277	5     	29.7 	0.556776	28 	30 
1278	5     	29.7 	0.556776	28 	30 
1279	5     	29.7 	0.556776	28 	30 
1280	5     	29.7 	0.556776	28 	30 
1281	5     	29.7 	0.556776	28 	30 
1282	5     	29.7 	0.556776	28 	30 
1283	5     	29.7 	0.556776	28 	30 
1284	5     	29.7 	0.556776	28 	30 
1285	5     	29.7 	0.556776	28 	30 
1286	5     	29.7 	0.556776	28 	30 
1287	5     	29.7 	0.556776	28 	30 
1288	5     	29.7 	0.556776	28 	30 
1289	5     	29.7 	0.556776	28 	30 
1290	5     	29.7 	0.556776	28 	30 
1291	5     	29.7 	0.556776	28 	30 
1292	5     	29.7 	0.556776	28 	30 
1293	5     	29.7 	0.556776	28 	30 
1294	5     	29.7 	0.556776	28 	30 
1295	5     	29.7 	0.556776	28 	30 
1296	5     	29.7 	0.556776	28 	30 
1297	5     	29.7 	0.556776	28 	30 
1298	5     	29.7 	0.556776	28 	30 
1299	5     	29.7 	0.556776	28 	30 
1300	5     	29.7 	0.556776	28 	30 
1301	5     	29.7 	0.556776	28 	30 
1302	5     	29.7 	0.556776	28 	30 
1303	5     	29.7 	0.556776	28 	30 
1304	5     	29.7 	0.556776	28 	30 
1305	5     	29.7 	0.556776	28 	30 
1306	5     	29.7 	0.556776	28 	30 
1307	5     	29.7 	0.556776	28 	30 
1308	5     	29.7 	0.556776	28 	30 
1309	5     	29.7 	0.556776	28 	30 
1310	5     	29.7 	0.556776	28 	30 
1311	5     	29.7 	0.556776	28 	30 
1312	5     	29.7 	0.556776	28 	30 
1313	5     	29.7 	0.556776	28 	30 
1314	5     	29.7 	0.556776	28 	30 
1315	5     	29.7 	0.556776	28 	30 
1316	5     	29.7 	0.556776	28 	30 
1317	5     	29.7 	0.556776	28 	30 
1318	5     	29.7 	0.556776	28 	30 
1319	5     	29.7 	0.556776	28 	30 
1320	5     	29.7 	0.556776	28 	30 
1321	5     	29.7 	0.556776	28 	30 
1322	5     	29.7 	0.556776	28 	30 
1323	5     	29.7 	0.556776	28 	30 
1324	5     	29.7 	0.556776	28 	30 
1325	5     	29.7 	0.556776	28 	30 
1326	5     	29.7 	0.556776	28 	30 
1327	5     	29.7 	0.556776	28 	30 
1328	5     	29.7 	0.556776	28 	30 
1329	5     	29.7 	0.556776	28 	30 
1330	5     	29.7 	0.556776	28 	30 
1331	5     	29.7 	0.556776	28 	30 
1332	5     	29.7 	0.556776	28 	30 
1333	5     	29.7 	0.556776	28 	30 
1334	5     	29.7 	0.556776	28 	30 
1335	5     	29.7 	0.556776	28 	30 
1336	5     	29.7 	0.556776	28 	30 
1337	5     	29.7 	0.556776	28 	30 
1338	5     	29.7 	0.556776	28 	30 
1339	5     	29.7 	0.556776	28 	30 
1340	5     	29.7 	0.556776	28 	30 
1341	5     	29.7 	0.556776	28 	30 
1342	5     	29.65	0.572276	28 	30 
1343	5     	29.65	0.572276	28 	30 
1344	5     	29.65	0.572276	28 	30 
1345	5     	29.65	0.572276	28 	30 
1346	5     	29.65	0.572276	28 	30 
1347	5     	29.65	0.572276	28 	30 
1348	5     	29.65	0.572276	28 	30 
1349	5     	29.65	0.572276	28 	30 
1350	5     	29.65	0.572276	28 	30 
1351	5     	29.65	0.572276	28 	30 
1352	5     	29.65	0.572276	28 	30 
1353	5     	29.65	0.572276	28 	30 
1354	5     	29.65	0.572276	28 	30 
1355	5     	29.65	0.572276	28 	30 
1356	5     	29.65	0.572276	28 	30 
1357	5     	29.65	0.572276	28 	30 
1358	5     	29.65	0.572276	28 	30 
1359	5     	29.65	0.572276	28 	30 
1360	5     	29.65	0.572276	28 	30 
1361	5     	29.65	0.572276	28 	30 
1362	5     	29.65	0.572276	28 	30 
1363	5     	29.65	0.572276	28 	30 
1364	5     	29.65	0.572276	28 	30 
1365	5     	29.65	0.572276	28 	30 
1366	5     	29.65	0.572276	28 	30 
1367	5     	29.65	0.572276	28 	30 
1368	5     	29.65	0.572276	28 	30 
1369	5     	29.65	0.572276	28 	30 
1370	5     	29.65	0.572276	28 	30 
1371	5     	29.65	0.572276	28 	30 
1372	5     	29.65	0.572276	28 	30 
1373	5     	29.65	0.572276	28 	30 
1374	5     	29.65	0.572276	28 	30 
1375	5     	29.65	0.572276	28 	30 
1376	5     	29.65	0.572276	28 	30 
1377	5     	29.65	0.572276	28 	30 
1378	5     	29.65	0.572276	28 	30 
1379	5     	29.65	0.572276	28 	30 
1380	5     	29.65	0.572276	28 	30 
1381	5     	29.65	0.572276	28 	30 
1382	5     	29.65	0.572276	28 	30 
1383	5     	29.65	0.572276	28 	30 
1384	5     	29.65	0.572276	28 	30 
1385	5     	29.65	0.572276	28 	30 
1386	5     	29.65	0.572276	28 	30 
1387	5     	29.65	0.572276	28 	30 
1388	5     	29.65	0.572276	28 	30 
1389	5     	29.65	0.572276	28 	30 
1390	5     	29.65	0.572276	28 	30 
1391	5     	29.65	0.572276	28 	30 
1392	5     	29.65	0.572276	28 	30 
1393	5     	29.65	0.572276	28 	30 
1394	5     	29.65	0.572276	28 	30 
1395	5     	29.65	0.572276	28 	30 
1396	5     	29.65	0.572276	28 	30 
1397	5     	29.65	0.572276	28 	30 
1398	5     	29.65	0.572276	28 	30 
1399	5     	29.65	0.572276	28 	30 
1400	5     	29.65	0.572276	28 	30 
1401	5     	29.65	0.572276	28 	30 
1402	5     	29.65	0.572276	28 	30 
1403	5     	29.65	0.572276	28 	30 
1404	5     	29.65	0.572276	28 	30 
1405	5     	29.65	0.572276	28 	30 
1406	5     	29.65	0.572276	28 	30 
1407	5     	29.65	0.572276	28 	30 
1408	5     	29.65	0.572276	28 	30 
1409	5     	29.65	0.572276	28 	30 
1410	5     	29.65	0.572276	28 	30 
1411	5     	29.65	0.572276	28 	30 
1412	5     	29.65	0.572276	28 	30 
1413	5     	29.65	0.572276	28 	30 
1414	5     	29.65	0.572276	28 	30 
1415	5     	29.65	0.572276	28 	30 
1416	5     	29.65	0.572276	28 	30 
1417	5     	29.65	0.572276	28 	30 
1418	5     	29.65	0.572276	28 	30 
1419	5     	29.65	0.572276	28 	30 
1420	5     	29.65	0.572276	28 	30 
1421	5     	29.65	0.572276	28 	30 
1422	5     	29.65	0.572276	28 	30 
1423	5     	29.65	0.572276	28 	30 
1424	5     	29.65	0.572276	28 	30 
1425	5     	29.65	0.572276	28 	30 
1426	5     	29.65	0.572276	28 	30 
1427	5     	29.65	0.572276	28 	30 
1428	5     	29.65	0.572276	28 	30 
1429	5     	29.65	0.572276	28 	30 
1430	5     	29.65	0.572276	28 	30 
1431	5     	29.65	0.572276	28 	30 
1432	5     	29.65	0.572276	28 	30 
1433	5     	29.65	0.572276	28 	30 
1434	5     	29.6 	0.583095	28 	30 
1435	5     	29.6 	0.583095	28 	30 
1436	5     	29.6 	0.583095	28 	30 
1437	5     	29.6 	0.583095	28 	30 
1438	5     	29.6 	0.583095	28 	30 
1439	5     	29.6 	0.583095	28 	30 
1440	5     	29.6 	0.583095	28 	30 
1441	5     	29.6 	0.583095	28 	30 
1442	5     	29.6 	0.583095	28 	30 
1443	5     	29.6 	0.583095	28 	30 
1444	5     	29.6 	0.583095	28 	30 
1445	5     	29.6 	0.583095	28 	30 
1446	5     	29.6 	0.583095	28 	30 
1447	5     	29.6 	0.583095	28 	30 
1448	5     	29.6 	0.583095	28 	30 
1449	5     	29.6 	0.583095	28 	30 
1450	5     	29.6 	0.583095	28 	30 
1451	5     	29.6 	0.583095	28 	30 
1452	5     	29.6 	0.583095	28 	30 
1453	5     	29.6 	0.583095	28 	30 
1454	5     	29.6 	0.583095	28 	30 
1455	5     	29.6 	0.583095	28 	30 
1456	5     	29.6 	0.583095	28 	30 
1457	5     	29.6 	0.583095	28 	30 
1458	5     	29.6 	0.583095	28 	30 
1459	5     	29.6 	0.583095	28 	30 
1460	5     	29.6 	0.583095	28 	30 
1461	5     	29.6 	0.583095	28 	30 
1462	5     	29.6 	0.583095	28 	30 
1463	5     	29.6 	0.583095	28 	30 
1464	5     	29.6 	0.583095	28 	30 
1465	5     	29.6 	0.583095	28 	30 
1466	5     	29.6 	0.583095	28 	30 
1467	5     	29.6 	0.583095	28 	30 
1468	5     	29.6 	0.583095	28 	30 
1469	5     	29.6 	0.583095	28 	30 
1470	5     	29.6 	0.583095	28 	30 
1471	5     	29.6 	0.583095	28 	30 
1472	5     	29.6 	0.583095	28 	30 
1473	5     	29.6 	0.583095	28 	30 
1474	5     	29.6 	0.583095	28 	30 
1475	5     	29.6 	0.583095	28 	30 
1476	5     	29.6 	0.583095	28 	30 
1477	5     	29.6 	0.583095	28 	30 
1478	5     	29.6 	0.583095	28 	30 
1479	5     	29.6 	0.583095	28 	30 
1480	5     	29.6 	0.583095	28 	30 
1481	5     	29.6 	0.583095	28 	30 
1482	5     	29.6 	0.583095	28 	30 
1483	5     	29.6 	0.583095	28 	30 
1484	5     	29.6 	0.583095	28 	30 
1485	5     	29.6 	0.583095	28 	30 
1486	5     	29.6 	0.583095	28 	30 
1487	5     	29.6 	0.583095	28 	30 
1488	5     	29.6 	0.583095	28 	30 
1489	5     	29.6 	0.583095	28 	30 
1490	5     	29.6 	0.583095	28 	30 
1491	5     	29.6 	0.583095	28 	30 
1492	5     	29.6 	0.583095	28 	30 
1493	5     	29.6 	0.583095	28 	30 
1494	5     	29.6 	0.583095	28 	30 
1495	5     	29.6 	0.583095	28 	30 
1496	5     	29.6 	0.583095	28 	30 
1497	5     	29.6 	0.583095	28 	30 
1498	5     	29.6 	0.583095	28 	30 
1499	5     	29.6 	0.583095	28 	30 
1500	5     	29.6 	0.583095	28 	30 
1501	5     	29.6 	0.583095	28 	30 
1502	5     	29.6 	0.583095	28 	30 
1503	5     	29.6 	0.583095	28 	30 
1504	5     	29.6 	0.583095	28 	30 
1505	5     	29.6 	0.583095	28 	30 
1506	5     	29.6 	0.583095	28 	30 
1507	5     	29.6 	0.583095	28 	30 
1508	5     	29.6 	0.583095	28 	30 
1509	5     	29.6 	0.583095	28 	30 
1510	5     	29.6 	0.583095	28 	30 
1511	5     	29.6 	0.583095	28 	30 
1512	5     	29.6 	0.583095	28 	30 
1513	5     	29.6 	0.583095	28 	30 
1514	5     	29.6 	0.583095	28 	30 
1515	5     	29.6 	0.583095	28 	30 
1516	5     	29.6 	0.583095	28 	30 
1517	5     	29.6 	0.583095	28 	30 
1518	5     	29.6 	0.583095	28 	30 
1519	5     	29.6 	0.583095	28 	30 
1520	5     	29.6 	0.583095	28 	30 
1521	5     	29.6 	0.583095	28 	30 
1522	5     	29.6 	0.583095	28 	30 
1523	5     	29.6 	0.583095	28 	30 
1524	5     	29.6 	0.583095	28 	30 
1525	5     	29.6 	0.583095	28 	30 
1526	5     	29.6 	0.583095	28 	30 
1527	5     	29.6 	0.583095	28 	30 
1528	5     	29.6 	0.583095	28 	30 
1529	5     	29.6 	0.583095	28 	30 
1530	5     	29.6 	0.583095	28 	30 
1531	5     	29.6 	0.583095	28 	30 
1532	5     	29.6 	0.583095	28 	30 
1533	5     	29.6 	0.583095	28 	30 
1534	5     	29.6 	0.583095	28 	30 
1535	5     	29.6 	0.583095	28 	30 
1536	5     	29.6 	0.583095	28 	30 
1537	5     	29.6 	0.583095	28 	30 
1538	5     	29.6 	0.583095	28 	30 
1539	5     	29.6 	0.583095	28 	30 
1540	5     	29.6 	0.583095	28 	30 
1541	5     	29.6 	0.583095	28 	30 
1542	5     	29.6 	0.583095	28 	30 
1543	5     	29.6 	0.583095	28 	30 
1544	5     	29.6 	0.583095	28 	30 
1545	5     	29.6 	0.583095	28 	30 
1546	5     	29.6 	0.583095	28 	30 
1547	5     	29.6 	0.583095	28 	30 
1548	5     	29.55	0.589491	28 	30 
1549	5     	29.55	0.589491	28 	30 
1550	5     	29.55	0.589491	28 	30 
1551	5     	29.55	0.589491	28 	30 
1552	5     	29.55	0.589491	28 	30 
1553	5     	29.55	0.589491	28 	30 
1554	5     	29.55	0.589491	28 	30 
1555	5     	29.55	0.589491	28 	30 
1556	5     	29.55	0.589491	28 	30 
1557	5     	29.55	0.589491	28 	30 
1558	5     	29.55	0.589491	28 	30 
1559	5     	29.55	0.589491	28 	30 
1560	5     	29.55	0.589491	28 	30 
1561	5     	29.55	0.589491	28 	30 
1562	5     	29.55	0.589491	28 	30 
1563	5     	29.55	0.589491	28 	30 
1564	5     	29.55	0.589491	28 	30 
1565	5     	29.55	0.589491	28 	30 
1566	5     	29.55	0.589491	28 	30 
1567	5     	29.55	0.589491	28 	30 
1568	5     	29.55	0.589491	28 	30 
1569	5     	29.55	0.589491	28 	30 
1570	5     	29.55	0.589491	28 	30 
1571	5     	29.55	0.589491	28 	30 
1572	5     	29.55	0.589491	28 	30 
1573	5     	29.55	0.589491	28 	30 
1574	5     	29.55	0.589491	28 	30 
1575	5     	29.55	0.589491	28 	30 
1576	5     	29.55	0.589491	28 	30 
1577	5     	29.55	0.589491	28 	30 
1578	5     	29.55	0.589491	28 	30 
1579	5     	29.55	0.589491	28 	30 
1580	5     	29.55	0.589491	28 	30 
1581	5     	29.55	0.589491	28 	30 
1582	5     	29.55	0.589491	28 	30 
1583	5     	29.55	0.589491	28 	30 
1584	5     	29.55	0.589491	28 	30 
1585	5     	29.55	0.589491	28 	30 
1586	5     	29.55	0.589491	28 	30 
1587	5     	29.55	0.589491	28 	30 
1588	5     	29.55	0.589491	28 	30 
1589	5     	29.55	0.589491	28 	30 
1590	5     	29.55	0.589491	28 	30 
1591	5     	29.55	0.589491	28 	30 
1592	5     	29.55	0.589491	28 	30 
1593	5     	29.55	0.589491	28 	30 
1594	5     	29.55	0.589491	28 	30 
1595	5     	29.55	0.589491	28 	30 
1596	5     	29.55	0.589491	28 	30 
1597	5     	29.55	0.589491	28 	30 
1598	5     	29.55	0.589491	28 	30 
1599	5     	29.55	0.589491	28 	30 
1600	5     	29.55	0.589491	28 	30 
1601	5     	29.55	0.589491	28 	30 
1602	5     	29.55	0.589491	28 	30 
1603	5     	29.55	0.589491	28 	30 
1604	5     	29.55	0.589491	28 	30 
1605	5     	29.55	0.589491	28 	30 
1606	5     	29.55	0.589491	28 	30 
1607	5     	29.55	0.589491	28 	30 
1608	5     	29.55	0.589491	28 	30 
1609	5     	29.55	0.589491	28 	30 
1610	5     	29.55	0.589491	28 	30 
1611	5     	29.55	0.589491	28 	30 
1612	5     	29.55	0.589491	28 	30 
1613	5     	29.55	0.589491	28 	30 
1614	5     	29.55	0.589491	28 	30 
1615	5     	29.55	0.589491	28 	30 
1616	5     	29.55	0.589491	28 	30 
1617	5     	29.55	0.589491	28 	30 
1618	5     	29.55	0.589491	28 	30 
1619	5     	29.55	0.589491	28 	30 
1620	5     	29.55	0.589491	28 	30 
1621	5     	29.55	0.589491	28 	30 
1622	5     	29.55	0.589491	28 	30 
1623	5     	29.55	0.589491	28 	30 
1624	5     	29.55	0.589491	28 	30 
1625	5     	29.55	0.589491	28 	30 
1626	5     	29.55	0.589491	28 	30 
1627	5     	29.55	0.589491	28 	30 
1628	5     	29.55	0.589491	28 	30 
1629	5     	29.55	0.589491	28 	30 
1630	5     	29.55	0.589491	28 	30 
1631	5     	29.55	0.589491	28 	30 
1632	5     	29.55	0.589491	28 	30 
1633	5     	29.55	0.589491	28 	30 
1634	5     	29.55	0.589491	28 	30 
1635	5     	29.55	0.589491	28 	30 
1636	5     	29.55	0.589491	28 	30 
1637	5     	29.55	0.589491	28 	30 
1638	5     	29.55	0.589491	28 	30 
1639	5     	29.55	0.589491	28 	30 
1640	5     	29.55	0.589491	28 	30 
1641	5     	29.55	0.589491	28 	30 
1642	5     	29.55	0.589491	28 	30 
1643	5     	29.55	0.589491	28 	30 
1644	5     	29.55	0.589491	28 	30 
1645	5     	29.55	0.589491	28 	30 
1646	5     	29.55	0.589491	28 	30 
1647	5     	29.55	0.589491	28 	30 
1648	5     	29.55	0.589491	28 	30 
1649	5     	29.55	0.589491	28 	30 
1650	5     	29.55	0.589491	28 	30 
1651	5     	29.55	0.589491	28 	30 
1652	5     	29.55	0.589491	28 	30 
1653	5     	29.55	0.589491	28 	30 
1654	5     	29.55	0.589491	28 	30 
1655	5     	29.55	0.589491	28 	30 
1656	5     	29.55	0.589491	28 	30 
1657	5     	29.55	0.589491	28 	30 
1658	5     	29.55	0.589491	28 	30 
1659	5     	29.55	0.589491	28 	30 
1660	5     	29.55	0.589491	28 	30 
1661	5     	29.55	0.589491	28 	30 
1662	5     	29.55	0.589491	28 	30 
1663	5     	29.55	0.589491	28 	30 
1664	5     	29.55	0.589491	28 	30 
1665	5     	29.55	0.589491	28 	30 
1666	5     	29.55	0.589491	28 	30 
1667	5     	29.55	0.589491	28 	30 
1668	5     	29.55	0.589491	28 	30 
1669	5     	29.55	0.589491	28 	30 
1670	5     	29.55	0.589491	28 	30 
1671	5     	29.55	0.589491	28 	30 
1672	5     	29.55	0.589491	28 	30 
1673	5     	29.55	0.589491	28 	30 
1674	5     	29.55	0.589491	28 	30 
1675	5     	29.55	0.589491	28 	30 
1676	5     	29.55	0.589491	28 	30 
1677	5     	29.55	0.589491	28 	30 
1678	5     	29.55	0.589491	28 	30 
1679	5     	29.55	0.589491	28 	30 
1680	5     	29.55	0.589491	28 	30 
1681	5     	29.55	0.589491	28 	30 
1682	5     	29.55	0.589491	28 	30 
1683	5     	29.55	0.589491	28 	30 
1684	5     	29.55	0.589491	28 	30 
1685	5     	29.55	0.589491	28 	30 
1686	5     	29.55	0.589491	28 	30 
1687	5     	29.55	0.589491	28 	30 
1688	5     	29.55	0.589491	28 	30 
1689	5     	29.55	0.589491	28 	30 
1690	5     	29.55	0.589491	28 	30 
1691	5     	29.55	0.589491	28 	30 
1692	5     	29.55	0.589491	28 	30 
1693	5     	29.55	0.589491	28 	30 
1694	5     	29.55	0.589491	28 	30 
1695	5     	29.55	0.589491	28 	30 
1696	5     	29.55	0.589491	28 	30 
1697	5     	29.55	0.589491	28 	30 
1698	5     	29.55	0.589491	28 	30 
1699	5     	29.55	0.589491	28 	30 
1700	5     	29.55	0.589491	28 	30 
1701	5     	29.55	0.589491	28 	30 
1702	5     	29.55	0.589491	28 	30 
1703	5     	29.55	0.589491	28 	30 
1704	5     	29.55	0.589491	28 	30 
1705	5     	29.55	0.589491	28 	30 
1706	5     	29.55	0.589491	28 	30 
1707	5     	29.55	0.589491	28 	30 
1708	5     	29.55	0.589491	28 	30 
1709	5     	29.55	0.589491	28 	30 
1710	5     	29.55	0.589491	28 	30 
1711	5     	29.55	0.589491	28 	30 
1712	5     	29.55	0.589491	28 	30 
1713	5     	29.55	0.589491	28 	30 
1714	5     	29.55	0.589491	28 	30 
1715	5     	29.55	0.589491	28 	30 
1716	5     	29.55	0.589491	28 	30 
1717	5     	29.55	0.589491	28 	30 
1718	5     	29.55	0.589491	28 	30 
1719	5     	29.55	0.589491	28 	30 
1720	5     	29.55	0.589491	28 	30 
1721	5     	29.55	0.589491	28 	30 
1722	5     	29.55	0.589491	28 	30 
1723	5     	29.55	0.589491	28 	30 
1724	5     	29.55	0.589491	28 	30 
1725	5     	29.55	0.589491	28 	30 
1726	5     	29.55	0.589491	28 	30 
1727	5     	29.55	0.589491	28 	30 
1728	5     	29.55	0.589491	28 	30 
1729	5     	29.55	0.589491	28 	30 
1730	5     	29.55	0.589491	28 	30 
1731	5     	29.55	0.589491	28 	30 
1732	5     	29.55	0.589491	28 	30 
1733	5     	29.55	0.589491	28 	30 
1734	5     	29.55	0.589491	28 	30 
1735	5     	29.55	0.589491	28 	30 
1736	5     	29.55	0.589491	28 	30 
1737	5     	29.55	0.589491	28 	30 
1738	5     	29.55	0.589491	28 	30 
1739	5     	29.55	0.589491	28 	30 
1740	5     	29.55	0.589491	28 	30 
1741	5     	29.55	0.589491	28 	30 
1742	5     	29.55	0.589491	28 	30 
1743	5     	29.55	0.589491	28 	30 
1744	5     	29.55	0.589491	28 	30 
1745	5     	29.55	0.589491	28 	30 
1746	5     	29.55	0.589491	28 	30 
1747	5     	29.55	0.589491	28 	30 
1748	5     	29.55	0.589491	28 	30 
1749	5     	29.55	0.589491	28 	30 
1750	5     	29.55	0.589491	28 	30 
1751	5     	29.55	0.589491	28 	30 
1752	5     	29.55	0.589491	28 	30 
1753	5     	29.55	0.589491	28 	30 
1754	5     	29.55	0.589491	28 	30 
1755	5     	29.55	0.589491	28 	30 
1756	5     	29.55	0.589491	28 	30 
1757	5     	29.55	0.589491	28 	30 
1758	5     	29.55	0.589491	28 	30 
1759	5     	29.55	0.589491	28 	30 
1760	5     	29.55	0.589491	28 	30 
1761	5     	29.55	0.589491	28 	30 
1762	5     	29.55	0.589491	28 	30 
1763	5     	29.55	0.589491	28 	30 
1764	5     	29.55	0.589491	28 	30 
1765	5     	29.55	0.589491	28 	30 
1766	5     	29.55	0.589491	28 	30 
1767	5     	29.55	0.589491	28 	30 
1768	5     	29.55	0.589491	28 	30 
1769	5     	29.55	0.589491	28 	30 
1770	5     	29.55	0.589491	28 	30 
1771	5     	29.5 	0.591608	28 	30 
1772	5     	29.5 	0.591608	28 	30 
1773	5     	29.5 	0.591608	28 	30 
1774	5     	29.5 	0.591608	28 	30 
1775	5     	29.5 	0.591608	28 	30 
1776	5     	29.5 	0.591608	28 	30 
1777	5     	29.5 	0.591608	28 	30 
1778	5     	29.5 	0.591608	28 	30 
1779	5     	29.5 	0.591608	28 	30 
1780	5     	29.5 	0.591608	28 	30 
1781	5     	29.5 	0.591608	28 	30 
1782	5     	29.5 	0.591608	28 	30 
1783	5     	29.5 	0.591608	28 	30 
1784	5     	29.5 	0.591608	28 	30 
1785	5     	29.5 	0.591608	28 	30 
1786	5     	29.5 	0.591608	28 	30 
1787	5     	29.5 	0.591608	28 	30 
1788	5     	29.5 	0.591608	28 	30 
1789	5     	29.5 	0.591608	28 	30 
1790	5     	29.5 	0.591608	28 	30 
1791	5     	29.5 	0.591608	28 	30 
1792	5     	29.5 	0.591608	28 	30 
1793	5     	29.5 	0.591608	28 	30 
1794	5     	29.5 	0.591608	28 	30 
1795	5     	29.5 	0.591608	28 	30 
1796	5     	29.5 	0.591608	28 	30 
1797	5     	29.5 	0.591608	28 	30 
1798	5     	29.5 	0.591608	28 	30 
1799	5     	29.5 	0.591608	28 	30 
1800	5     	29.5 	0.591608	28 	30 
1801	5     	29.5 	0.591608	28 	30 
1802	5     	29.5 	0.591608	28 	30 
1803	5     	29.5 	0.591608	28 	30 
1804	5     	29.5 	0.591608	28 	30 
1805	5     	29.5 	0.591608	28 	30 
1806	5     	29.5 	0.591608	28 	30 
1807	5     	29.5 	0.591608	28 	30 
1808	5     	29.5 	0.591608	28 	30 
1809	5     	29.5 	0.591608	28 	30 
1810	5     	29.5 	0.591608	28 	30 
1811	5     	29.5 	0.591608	28 	30 
1812	5     	29.5 	0.591608	28 	30 
1813	5     	29.5 	0.591608	28 	30 
1814	5     	29.5 	0.591608	28 	30 
1815	5     	29.5 	0.591608	28 	30 
1816	5     	29.5 	0.591608	28 	30 
1817	5     	29.5 	0.591608	28 	30 
1818	5     	29.5 	0.591608	28 	30 
1819	5     	29.5 	0.591608	28 	30 
1820	5     	29.5 	0.591608	28 	30 
1821	5     	29.5 	0.591608	28 	30 
1822	5     	29.5 	0.591608	28 	30 
1823	5     	29.5 	0.591608	28 	30 
1824	5     	29.5 	0.591608	28 	30 
1825	5     	29.5 	0.591608	28 	30 
1826	5     	29.5 	0.591608	28 	30 
1827	5     	29.5 	0.591608	28 	30 
1828	5     	29.5 	0.591608	28 	30 
1829	5     	29.5 	0.591608	28 	30 
1830	5     	29.5 	0.591608	28 	30 
1831	5     	29.5 	0.591608	28 	30 
1832	5     	29.5 	0.591608	28 	30 
1833	5     	29.5 	0.591608	28 	30 
1834	5     	29.5 	0.591608	28 	30 
1835	5     	29.5 	0.591608	28 	30 
1836	5     	29.5 	0.591608	28 	30 
1837	5     	29.5 	0.591608	28 	30 
1838	5     	29.5 	0.591608	28 	30 
1839	5     	29.5 	0.591608	28 	30 
1840	5     	29.5 	0.591608	28 	30 
1841	5     	29.5 	0.591608	28 	30 
1842	5     	29.5 	0.591608	28 	30 
1843	5     	29.5 	0.591608	28 	30 
1844	5     	29.5 	0.591608	28 	30 
1845	5     	29.5 	0.591608	28 	30 
1846	5     	29.5 	0.591608	28 	30 
1847	5     	29.5 	0.591608	28 	30 
1848	5     	29.5 	0.591608	28 	30 
1849	5     	29.5 	0.591608	28 	30 
1850	5     	29.5 	0.591608	28 	30 
1851	5     	29.5 	0.591608	28 	30 
1852	5     	29.5 	0.591608	28 	30 
1853	5     	29.5 	0.591608	28 	30 
1854	5     	29.5 	0.591608	28 	30 
1855	5     	29.5 	0.591608	28 	30 
1856	5     	29.5 	0.591608	28 	30 
1857	5     	29.5 	0.591608	28 	30 
1858	5     	29.5 	0.591608	28 	30 
1859	5     	29.5 	0.591608	28 	30 
1860	5     	29.5 	0.591608	28 	30 
1861	5     	29.5 	0.591608	28 	30 
1862	5     	29.5 	0.591608	28 	30 
1863	5     	29.5 	0.591608	28 	30 
1864	5     	29.5 	0.591608	28 	30 
1865	5     	29.5 	0.591608	28 	30 
1866	5     	29.5 	0.591608	28 	30 
1867	5     	29.5 	0.591608	28 	30 
1868	5     	29.5 	0.591608	28 	30 
1869	5     	29.5 	0.591608	28 	30 
1870	5     	29.5 	0.591608	28 	30 
1871	5     	29.5 	0.591608	28 	30 
1872	5     	29.5 	0.591608	28 	30 
1873	5     	29.5 	0.591608	28 	30 
1874	5     	29.5 	0.591608	28 	30 
1875	5     	29.5 	0.591608	28 	30 
1876	5     	29.5 	0.591608	28 	30 
1877	5     	29.5 	0.591608	28 	30 
1878	5     	29.5 	0.591608	28 	30 
1879	5     	29.5 	0.591608	28 	30 
1880	5     	29.5 	0.591608	28 	30 
1881	5     	29.4 	0.663325	28 	30 
1882	5     	29.4 	0.663325	28 	30 
1883	5     	29.4 	0.663325	28 	30 
1884	5     	29.4 	0.663325	28 	30 
1885	5     	29.4 	0.663325	28 	30 
1886	5     	29.4 	0.663325	28 	30 
1887	5     	29.4 	0.663325	28 	30 
1888	5     	29.4 	0.663325	28 	30 
1889	5     	29.4 	0.663325	28 	30 
1890	5     	29.4 	0.663325	28 	30 
1891	5     	29.4 	0.663325	28 	30 
1892	5     	29.4 	0.663325	28 	30 
1893	5     	29.4 	0.663325	28 	30 
1894	5     	29.4 	0.663325	28 	30 
1895	5     	29.4 	0.663325	28 	30 
1896	5     	29.4 	0.663325	28 	30 
1897	5     	29.4 	0.663325	28 	30 
1898	5     	29.4 	0.663325	28 	30 
1899	5     	29.4 	0.663325	28 	30 
1900	5     	29.4 	0.663325	28 	30 
1901	5     	29.4 	0.663325	28 	30 
1902	5     	29.4 	0.663325	28 	30 
1903	5     	29.4 	0.663325	28 	30 
1904	5     	29.4 	0.663325	28 	30 
1905	5     	29.4 	0.663325	28 	30 
1906	5     	29.4 	0.663325	28 	30 
1907	5     	29.4 	0.663325	28 	30 
1908	5     	29.4 	0.663325	28 	30 
1909	5     	29.4 	0.663325	28 	30 
1910	5     	29.4 	0.663325	28 	30 
1911	5     	29.4 	0.663325	28 	30 
1912	5     	29.4 	0.663325	28 	30 
1913	5     	29.4 	0.663325	28 	30 
1914	5     	29.4 	0.663325	28 	30 
1915	5     	29.4 	0.663325	28 	30 
1916	5     	29.4 	0.663325	28 	30 
1917	5     	29.4 	0.663325	28 	30 
1918	5     	29.4 	0.663325	28 	30 
1919	5     	29.4 	0.663325	28 	30 
1920	5     	29.4 	0.663325	28 	30 
1921	5     	29.4 	0.663325	28 	30 
1922	5     	29.4 	0.663325	28 	30 
1923	5     	29.4 	0.663325	28 	30 
1924	5     	29.4 	0.663325	28 	30 
1925	5     	29.4 	0.663325	28 	30 
1926	5     	29.4 	0.663325	28 	30 
1927	5     	29.4 	0.663325	28 	30 
1928	5     	29.4 	0.663325	28 	30 
1929	5     	29.4 	0.663325	28 	30 
1930	5     	29.4 	0.663325	28 	30 
1931	5     	29.4 	0.663325	28 	30 
1932	5     	29.4 	0.663325	28 	30 
1933	5     	29.4 	0.663325	28 	30 
1934	5     	29.4 	0.663325	28 	30 
1935	5     	29.4 	0.663325	28 	30 
1936	5     	29.4 	0.663325	28 	30 
1937	5     	29.4 	0.663325	28 	30 
1938	5     	29.4 	0.663325	28 	30 
1939	5     	29.4 	0.663325	28 	30 
1940	5     	29.4 	0.663325	28 	30 
1941	5     	29.4 	0.663325	28 	30 
1942	5     	29.4 	0.663325	28 	30 
1943	5     	29.4 	0.663325	28 	30 
1944	5     	29.4 	0.663325	28 	30 
1945	5     	29.4 	0.663325	28 	30 
1946	5     	29.4 	0.663325	28 	30 
1947	5     	29.4 	0.663325	28 	30 
1948	5     	29.4 	0.663325	28 	30 
1949	5     	29.4 	0.663325	28 	30 
1950	5     	29.4 	0.663325	28 	30 
1951	5     	29.4 	0.663325	28 	30 
1952	5     	29.4 	0.663325	28 	30 
1953	5     	29.4 	0.663325	28 	30 
1954	5     	29.4 	0.663325	28 	30 
1955	5     	29.4 	0.663325	28 	30 
1956	5     	29.4 	0.663325	28 	30 
1957	5     	29.4 	0.663325	28 	30 
1958	5     	29.4 	0.663325	28 	30 
1959	5     	29.4 	0.663325	28 	30 
1960	5     	29.4 	0.663325	28 	30 
1961	5     	29.4 	0.663325	28 	30 
1962	5     	29.4 	0.663325	28 	30 
1963	5     	29.4 	0.663325	28 	30 
1964	5     	29.4 	0.663325	28 	30 
1965	5     	29.4 	0.663325	28 	30 
1966	5     	29.4 	0.663325	28 	30 
1967	5     	29.4 	0.663325	28 	30 
1968	5     	29.4 	0.663325	28 	30 
1969	5     	29.4 	0.663325	28 	30 
1970	5     	29.4 	0.663325	28 	30 
1971	5     	29.4 	0.663325	28 	30 
1972	5     	29.4 	0.663325	28 	30 
1973	5     	29.4 	0.663325	28 	30 
1974	5     	29.4 	0.663325	28 	30 
1975	5     	29.4 	0.663325	28 	30 
1976	5     	29.4 	0.663325	28 	30 
1977	5     	29.4 	0.663325	28 	30 
1978	5     	29.4 	0.663325	28 	30 
1979	5     	29.4 	0.663325	28 	30 
1980	5     	29.4 	0.663325	28 	30 
1981	5     	29.3 	0.714143	28 	30 
1982	5     	29.3 	0.714143	28 	30 
1983	5     	29.3 	0.714143	28 	30 
1984	5     	29.3 	0.714143	28 	30 
1985	5     	29.3 	0.714143	28 	30 
1986	5     	29.3 	0.714143	28 	30 
1987	5     	29.3 	0.714143	28 	30 
1988	5     	29.3 	0.714143	28 	30 
1989	5     	29.3 	0.714143	28 	30 
1990	5     	29.3 	0.714143	28 	30 
1991	5     	29.3 	0.714143	28 	30 
1992	5     	29.3 	0.714143	28 	30 
1993	5     	29.3 	0.714143	28 	30 
1994	5     	29.3 	0.714143	28 	30 
1995	5     	29.3 	0.714143	28 	30 
1996	5     	29.3 	0.714143	28 	30 
