gen 	nevals	avg  	std     	min	max
0   	20    	31.8 	3.14006 	25 	40 
1   	5     	30.3 	2.1     	25 	33 
2   	5     	30.05	1.9615  	25 	32 
3   	5     	29.15	1.9564  	25 	32 
4   	5     	28.8 	1.66132 	25 	31 
5   	5     	28.8 	1.66132 	25 	31 
6   	5     	28.6 	1.62481 	25 	31 
7   	5     	28.6 	1.62481 	25 	31 
8   	5     	28.6 	1.62481 	25 	31 
9   	5     	28.5 	1.53297 	25 	31 
10  	5     	28.45	1.46544 	25 	30 
11  	5     	28.45	1.46544 	25 	30 
12  	5     	28.35	1.4239  	25 	30 
13  	5     	28.15	1.31434 	25 	30 
14  	5     	27.9 	1.26095 	25 	30 
15  	5     	27.9 	1.26095 	25 	30 
16  	5     	27.6 	1.2     	25 	29 
17  	5     	27.6 	1.2     	25 	29 
18  	5     	27.55	1.16082 	25 	29 
19  	5     	27.55	1.16082 	25 	29 
20  	5     	27.5 	1.11803 	25 	29 
21  	5     	27.05	1.20312 	24 	29 
22  	5     	27.05	1.20312 	24 	29 
23  	5     	26.95	1.11692 	24 	28 
24  	5     	26.95	1.11692 	24 	28 
25  	5     	26.95	1.11692 	24 	28 
26  	5     	26.95	1.11692 	24 	28 
27  	5     	26.95	1.11692 	24 	28 
28  	5     	26.95	1.11692 	24 	28 
29  	5     	26.95	1.11692 	24 	28 
30  	5     	26.95	1.11692 	24 	28 
31  	5     	26.95	1.11692 	24 	28 
32  	5     	26.95	1.11692 	24 	28 
33  	5     	26.95	1.11692 	24 	28 
34  	5     	26.95	1.11692 	24 	28 
35  	5     	26.95	1.11692 	24 	28 
36  	5     	26.95	1.11692 	24 	28 
37  	5     	26.95	1.11692 	24 	28 
38  	5     	26.95	1.11692 	24 	28 
39  	5     	26.95	1.11692 	24 	28 
40  	5     	26.95	1.11692 	24 	28 
41  	5     	26.95	1.11692 	24 	28 
42  	5     	26.9 	1.09087 	24 	28 
43  	5     	26.9 	1.09087 	24 	28 
44  	5     	26.7 	1.22882 	24 	28 
45  	5     	26.7 	1.22882 	24 	28 
46  	5     	26.7 	1.22882 	24 	28 
47  	5     	26.55	1.24399 	24 	28 
48  	5     	26.55	1.24399 	24 	28 
49  	5     	26.55	1.24399 	24 	28 
50  	5     	26.55	1.24399 	24 	28 
51  	5     	26.5 	1.20416 	24 	28 
52  	5     	26.5 	1.20416 	24 	28 
53  	5     	26.5 	1.20416 	24 	28 
54  	5     	26.5 	1.20416 	24 	28 
55  	5     	26.5 	1.20416 	24 	28 
56  	5     	26.45	1.16082 	24 	28 
57  	5     	26.45	1.16082 	24 	28 
58  	5     	26.4 	1.11355 	24 	28 
59  	5     	26.4 	1.11355 	24 	28 
60  	5     	26.4 	1.11355 	24 	28 
61  	5     	26.4 	1.11355 	24 	28 
62  	5     	26.4 	1.11355 	24 	28 
63  	5     	26.4 	1.11355 	24 	28 
64  	5     	26.4 	1.11355 	24 	28 
65  	5     	26.4 	1.11355 	24 	28 
66  	5     	26.4 	1.11355 	24 	28 
67  	5     	26.4 	1.11355 	24 	28 
68  	5     	26.4 	1.11355 	24 	28 
69  	5     	26.4 	1.11355 	24 	28 
70  	5     	26.3 	1.05357 	24 	28 
71  	5     	26.25	0.99373 	24 	27 
72  	5     	26.25	0.99373 	24 	27 
73  	5     	26.1 	1.09087 	24 	27 
74  	5     	26.1 	1.09087 	24 	27 
75  	5     	26.05	1.07121 	24 	27 
76  	5     	26.05	1.07121 	24 	27 
77  	5     	26.05	1.07121 	24 	27 
78  	5     	26.05	1.07121 	24 	27 
79  	5     	26.05	1.07121 	24 	27 
80  	5     	26.05	1.07121 	24 	27 
81  	5     	26.05	1.07121 	24 	27 
82  	5     	26.05	1.07121 	24 	27 
83  	5     	26.05	1.07121 	24 	27 
84  	5     	26.05	1.07121 	24 	27 
85  	5     	26.05	1.07121 	24 	27 
86  	5     	26.05	1.07121 	24 	27 
87  	5     	26.05	1.07121 	24 	27 
88  	5     	26.05	1.07121 	24 	27 
89  	5     	26.05	1.07121 	24 	27 
90  	5     	25.95	1.07121 	24 	27 
91  	5     	25.95	1.07121 	24 	27 
92  	5     	25.95	1.07121 	24 	27 
93  	5     	25.95	1.07121 	24 	27 
94  	5     	25.95	1.07121 	24 	27 
95  	5     	25.95	1.07121 	24 	27 
96  	5     	25.9 	1.04403 	24 	27 
97  	5     	25.9 	1.04403 	24 	27 
98  	5     	25.9 	1.04403 	24 	27 
99  	5     	25.75	1.08972 	24 	27 
100 	5     	25.75	1.08972 	24 	27 
101 	5     	25.75	1.08972 	24 	27 
102 	5     	25.75	1.08972 	24 	27 
103 	5     	25.75	1.08972 	24 	27 
104 	5     	25.75	1.08972 	24 	27 
105 	5     	25.75	1.08972 	24 	27 
106 	5     	25.75	1.08972 	24 	27 
107 	5     	25.75	1.08972 	24 	27 
108 	5     	25.7 	1.05357 	24 	27 
109 	5     	25.7 	1.05357 	24 	27 
110 	5     	25.7 	1.05357 	24 	27 
111 	5     	25.5 	1.1619  	23 	27 
112 	5     	25.5 	1.1619  	23 	27 
113 	5     	25.5 	1.1619  	23 	27 
114 	5     	25.5 	1.1619  	23 	27 
115 	5     	25.5 	1.1619  	23 	27 
116 	5     	25.5 	1.1619  	23 	27 
117 	5     	25.5 	1.1619  	23 	27 
118 	5     	25.5 	1.1619  	23 	27 
119 	5     	25.5 	1.1619  	23 	27 
120 	5     	25.4 	1.11355 	23 	27 
121 	5     	25.4 	1.11355 	23 	27 
122 	5     	25.4 	1.11355 	23 	27 
123 	5     	25.4 	1.11355 	23 	27 
124 	5     	25.4 	1.11355 	23 	27 
125 	5     	25.4 	1.11355 	23 	27 
126 	5     	25.4 	1.11355 	23 	27 
127 	5     	25.4 	1.11355 	23 	27 
128 	5     	25.4 	1.11355 	23 	27 
129 	5     	25.4 	1.11355 	23 	27 
130 	5     	25.4 	1.11355 	23 	27 
131 	5     	25.4 	1.11355 	23 	27 
132 	5     	25.4 	1.11355 	23 	27 
133 	5     	25.35	1.06184 	23 	27 
134 	5     	25.35	1.06184 	23 	27 
135 	5     	25.35	1.06184 	23 	27 
136 	5     	25.35	1.06184 	23 	27 
137 	5     	25.35	1.06184 	23 	27 
138 	5     	25.35	1.06184 	23 	27 
139 	5     	25.35	1.06184 	23 	27 
140 	5     	25.35	1.06184 	23 	27 
141 	5     	25.35	1.06184 	23 	27 
142 	5     	25.35	1.06184 	23 	27 
143 	5     	25.35	1.06184 	23 	27 
144 	5     	25.35	1.06184 	23 	27 
145 	5     	25.2 	1.02956 	23 	27 
146 	5     	25.2 	1.02956 	23 	27 
147 	5     	25.2 	1.02956 	23 	27 
148 	5     	25.2 	1.02956 	23 	27 
149 	5     	25.2 	1.02956 	23 	27 
150 	5     	25.2 	1.02956 	23 	27 
151 	5     	25.2 	1.02956 	23 	27 
152 	5     	25.2 	1.02956 	23 	27 
153 	5     	25.2 	1.02956 	23 	27 
154 	5     	25.2 	1.02956 	23 	27 
155 	5     	25.2 	1.02956 	23 	27 
156 	5     	25.2 	1.02956 	23 	27 
157 	5     	25.2 	1.02956 	23 	27 
158 	5     	25.2 	1.02956 	23 	27 
159 	5     	25.2 	1.02956 	23 	27 
160 	5     	25.2 	1.02956 	23 	27 
161 	5     	25.2 	1.02956 	23 	27 
162 	5     	25.2 	1.02956 	23 	27 
163 	5     	25.2 	1.02956 	23 	27 
164 	5     	25.2 	1.02956 	23 	27 
165 	5     	25.2 	1.02956 	23 	27 
166 	5     	25.2 	1.02956 	23 	27 
167 	5     	25.2 	1.02956 	23 	27 
168 	5     	25.2 	1.02956 	23 	27 
169 	5     	25.15	0.963068	23 	26 
170 	5     	25.15	0.963068	23 	26 
171 	5     	25.15	0.963068	23 	26 
172 	5     	25.15	0.963068	23 	26 
173 	5     	25.15	0.963068	23 	26 
174 	5     	25.15	0.963068	23 	26 
175 	5     	25.15	0.963068	23 	26 
176 	5     	25.15	0.963068	23 	26 
177 	5     	25.15	0.963068	23 	26 
178 	5     	25.15	0.963068	23 	26 
179 	5     	25.15	0.963068	23 	26 
180 	5     	25.15	0.963068	23 	26 
181 	5     	25.15	0.963068	23 	26 
182 	5     	25.15	0.963068	23 	26 
183 	5     	25.1 	0.943398	23 	26 
184 	5     	25.05	0.920598	23 	26 
185 	5     	24.95	0.920598	23 	26 
186 	5     	24.95	0.920598	23 	26 
187 	5     	24.95	0.920598	23 	26 
188 	5     	24.95	0.920598	23 	26 
189 	5     	24.95	0.920598	23 	26 
190 	5     	24.95	0.920598	23 	26 
191 	5     	24.85	0.90967 	23 	26 
192 	5     	24.8 	0.87178 	23 	26 
193 	5     	24.8 	0.87178 	23 	26 
194 	5     	24.8 	0.87178 	23 	26 
195 	5     	24.8 	0.87178 	23 	26 
196 	5     	24.8 	0.87178 	23 	26 
197 	5     	24.8 	0.87178 	23 	26 
198 	5     	24.8 	0.87178 	23 	26 
199 	5     	24.8 	0.87178 	23 	26 
200 	5     	24.8 	0.87178 	23 	26 
201 	5     	24.8 	0.87178 	23 	26 
202 	5     	24.8 	0.87178 	23 	26 
203 	5     	24.7 	0.842615	23 	26 
204 	5     	24.7 	0.842615	23 	26 
205 	5     	24.7 	0.842615	23 	26 
206 	5     	24.7 	0.842615	23 	26 
207 	5     	24.7 	0.842615	23 	26 
208 	5     	24.7 	0.842615	23 	26 
209 	5     	24.65	0.792149	23 	26 
210 	5     	24.65	0.792149	23 	26 
211 	5     	24.6 	0.734847	23 	26 
212 	5     	24.6 	0.734847	23 	26 
213 	5     	24.6 	0.734847	23 	26 
214 	5     	24.6 	0.734847	23 	26 
215 	5     	24.55	0.668954	23 	26 
216 	5     	24.55	0.668954	23 	26 
217 	5     	24.55	0.668954	23 	26 
218 	5     	24.5 	0.591608	23 	25 
219 	5     	24.5 	0.591608	23 	25 
220 	5     	24.5 	0.591608	23 	25 
221 	5     	24.45	0.589491	23 	25 
222 	5     	24.45	0.589491	23 	25 
223 	5     	24.45	0.589491	23 	25 
224 	5     	24.45	0.589491	23 	25 
225 	5     	24.45	0.589491	23 	25 
226 	5     	24.45	0.589491	23 	25 
227 	5     	24.45	0.589491	23 	25 
228 	5     	24.45	0.589491	23 	25 
229 	5     	24.45	0.589491	23 	25 
230 	5     	24.45	0.589491	23 	25 
231 	5     	24.45	0.589491	23 	25 
232 	5     	24.45	0.589491	23 	25 
233 	5     	24.45	0.589491	23 	25 
234 	5     	24.45	0.589491	23 	25 
235 	5     	24.45	0.589491	23 	25 
236 	5     	24.45	0.589491	23 	25 
237 	5     	24.45	0.589491	23 	25 
238 	5     	24.45	0.589491	23 	25 
239 	5     	24.45	0.589491	23 	25 
240 	5     	24.45	0.589491	23 	25 
241 	5     	24.45	0.589491	23 	25 
242 	5     	24.45	0.589491	23 	25 
243 	5     	24.45	0.589491	23 	25 
244 	5     	24.45	0.589491	23 	25 
245 	5     	24.45	0.589491	23 	25 
246 	5     	24.45	0.589491	23 	25 
247 	5     	24.45	0.589491	23 	25 
248 	5     	24.45	0.589491	23 	25 
249 	5     	24.45	0.589491	23 	25 
250 	5     	24.45	0.589491	23 	25 
251 	5     	24.45	0.589491	23 	25 
252 	5     	24.45	0.589491	23 	25 
253 	5     	24.45	0.589491	23 	25 
254 	5     	24.45	0.589491	23 	25 
255 	5     	24.45	0.589491	23 	25 
256 	5     	24.45	0.589491	23 	25 
257 	5     	24.45	0.589491	23 	25 
258 	5     	24.4 	0.583095	23 	25 
259 	5     	24.4 	0.583095	23 	25 
260 	5     	24.4 	0.583095	23 	25 
261 	5     	24.4 	0.583095	23 	25 
262 	5     	24.4 	0.583095	23 	25 
263 	5     	24.4 	0.583095	23 	25 
264 	5     	24.4 	0.583095	23 	25 
265 	5     	24.4 	0.583095	23 	25 
266 	5     	24.35	0.572276	23 	25 
267 	5     	24.35	0.572276	23 	25 
268 	5     	24.35	0.572276	23 	25 
269 	5     	24.35	0.572276	23 	25 
270 	5     	24.35	0.572276	23 	25 
271 	5     	24.35	0.572276	23 	25 
272 	5     	24.35	0.572276	23 	25 
273 	5     	24.35	0.572276	23 	25 
274 	5     	24.35	0.572276	23 	25 
275 	5     	24.35	0.572276	23 	25 
276 	5     	24.35	0.572276	23 	25 
277 	5     	24.35	0.572276	23 	25 
278 	5     	24.35	0.572276	23 	25 
279 	5     	24.35	0.572276	23 	25 
280 	5     	24.35	0.572276	23 	25 
281 	5     	24.35	0.572276	23 	25 
282 	5     	24.35	0.572276	23 	25 
283 	5     	24.35	0.572276	23 	25 
284 	5     	24.35	0.572276	23 	25 
285 	5     	24.35	0.572276	23 	25 
286 	5     	24.35	0.572276	23 	25 
287 	5     	24.35	0.572276	23 	25 
288 	5     	24.35	0.572276	23 	25 
289 	5     	24.35	0.572276	23 	25 
290 	5     	24.35	0.572276	23 	25 
291 	5     	24.35	0.572276	23 	25 
292 	5     	24.25	0.622495	23 	25 
293 	5     	24.25	0.622495	23 	25 
294 	5     	24.25	0.622495	23 	25 
295 	5     	24.2 	0.6     	23 	25 
296 	5     	24.2 	0.6     	23 	25 
297 	5     	24.2 	0.6     	23 	25 
298 	5     	24.2 	0.6     	23 	25 
299 	5     	24.2 	0.6     	23 	25 
300 	5     	24.2 	0.6     	23 	25 
301 	5     	24.2 	0.6     	23 	25 
302 	5     	24.2 	0.6     	23 	25 
303 	5     	24.2 	0.6     	23 	25 
304 	5     	24.2 	0.6     	23 	25 
305 	5     	24.2 	0.6     	23 	25 
306 	5     	24.2 	0.6     	23 	25 
307 	5     	24.2 	0.6     	23 	25 
308 	5     	24.2 	0.6     	23 	25 
309 	5     	24.2 	0.6     	23 	25 
310 	5     	24.2 	0.6     	23 	25 
311 	5     	24.2 	0.6     	23 	25 
312 	5     	24.2 	0.6     	23 	25 
313 	5     	24.2 	0.6     	23 	25 
314 	5     	24.2 	0.6     	23 	25 
315 	5     	24.2 	0.6     	23 	25 
316 	5     	24.05	0.739932	22 	25 
317 	5     	24.05	0.739932	22 	25 
318 	5     	24.05	0.739932	22 	25 
319 	5     	24.05	0.739932	22 	25 
320 	5     	24.05	0.739932	22 	25 
321 	5     	24.05	0.739932	22 	25 
322 	5     	24.05	0.739932	22 	25 
323 	5     	24.05	0.739932	22 	25 
324 	5     	24.05	0.739932	22 	25 
325 	5     	24.05	0.739932	22 	25 
326 	5     	24.05	0.739932	22 	25 
327 	5     	24.05	0.739932	22 	25 
328 	5     	24.05	0.739932	22 	25 
329 	5     	24.05	0.739932	22 	25 
330 	5     	24.05	0.739932	22 	25 
331 	5     	24.05	0.739932	22 	25 
332 	5     	24.05	0.739932	22 	25 
333 	5     	24.05	0.739932	22 	25 
334 	5     	24.05	0.739932	22 	25 
335 	5     	24.05	0.739932	22 	25 
336 	5     	24.05	0.739932	22 	25 
337 	5     	24.05	0.739932	22 	25 
338 	5     	24.05	0.739932	22 	25 
339 	5     	24.05	0.739932	22 	25 
340 	5     	24.05	0.739932	22 	25 
341 	5     	24.05	0.739932	22 	25 
342 	5     	24.05	0.739932	22 	25 
343 	5     	24.05	0.739932	22 	25 
344 	5     	24.05	0.739932	22 	25 
345 	5     	24.05	0.739932	22 	25 
346 	5     	24.05	0.739932	22 	25 
347 	5     	24   	0.707107	22 	25 
348 	5     	24   	0.707107	22 	25 
349 	5     	24   	0.707107	22 	25 
350 	5     	24   	0.707107	22 	25 
351 	5     	24   	0.707107	22 	25 
352 	5     	24   	0.707107	22 	25 
353 	5     	24   	0.707107	22 	25 
354 	5     	24   	0.707107	22 	25 
355 	5     	24   	0.707107	22 	25 
356 	5     	24   	0.707107	22 	25 
357 	5     	24   	0.707107	22 	25 
358 	5     	24   	0.707107	22 	25 
359 	5     	24   	0.707107	22 	25 
360 	5     	24   	0.707107	22 	25 
361 	5     	24   	0.707107	22 	25 
362 	5     	24   	0.707107	22 	25 
363 	5     	24   	0.707107	22 	25 
364 	5     	24   	0.707107	22 	25 
365 	5     	24   	0.707107	22 	25 
366 	5     	24   	0.707107	22 	25 
367 	5     	24   	0.707107	22 	25 
368 	5     	24   	0.707107	22 	25 
369 	5     	24   	0.707107	22 	25 
370 	5     	24   	0.707107	22 	25 
371 	5     	24   	0.707107	22 	25 
372 	5     	24   	0.707107	22 	25 
373 	5     	24   	0.707107	22 	25 
374 	5     	24   	0.707107	22 	25 
375 	5     	24   	0.707107	22 	25 
376 	5     	24   	0.707107	22 	25 
377 	5     	24   	0.707107	22 	25 
378 	5     	23.95	0.668954	22 	25 
379 	5     	23.9 	0.6245  	22 	25 
380 	5     	23.9 	0.6245  	22 	25 
381 	5     	23.9 	0.6245  	22 	25 
382 	5     	23.9 	0.6245  	22 	25 
383 	5     	23.9 	0.6245  	22 	25 
384 	5     	23.8 	0.6     	22 	25 
385 	5     	23.8 	0.6     	22 	25 
386 	5     	23.8 	0.6     	22 	25 
387 	5     	23.8 	0.6     	22 	25 
388 	5     	23.8 	0.6     	22 	25 
389 	5     	23.8 	0.6     	22 	25 
390 	5     	23.8 	0.6     	22 	25 
391 	5     	23.8 	0.6     	22 	25 
392 	5     	23.8 	0.6     	22 	25 
393 	5     	23.8 	0.6     	22 	25 
394 	5     	23.8 	0.6     	22 	25 
395 	5     	23.8 	0.6     	22 	25 
396 	5     	23.8 	0.6     	22 	25 
397 	5     	23.8 	0.6     	22 	25 
398 	5     	23.8 	0.6     	22 	25 
399 	5     	23.8 	0.6     	22 	25 
400 	5     	23.8 	0.6     	22 	25 
401 	5     	23.8 	0.6     	22 	25 
402 	5     	23.8 	0.6     	22 	25 
403 	5     	23.8 	0.6     	22 	25 
404 	5     	23.8 	0.6     	22 	25 
405 	5     	23.8 	0.6     	22 	25 
406 	5     	23.8 	0.6     	22 	25 
407 	5     	23.8 	0.6     	22 	25 
408 	5     	23.8 	0.6     	22 	25 
409 	5     	23.8 	0.6     	22 	25 
410 	5     	23.8 	0.6     	22 	25 
411 	5     	23.8 	0.6     	22 	25 
412 	5     	23.8 	0.6     	22 	25 
413 	5     	23.8 	0.6     	22 	25 
414 	5     	23.8 	0.6     	22 	25 
415 	5     	23.8 	0.6     	22 	25 
416 	5     	23.75	0.53619 	22 	24 
417 	5     	23.75	0.53619 	22 	24 
418 	5     	23.75	0.53619 	22 	24 
419 	5     	23.75	0.53619 	22 	24 
420 	5     	23.75	0.53619 	22 	24 
421 	5     	23.75	0.53619 	22 	24 
422 	5     	23.75	0.53619 	22 	24 
423 	5     	23.75	0.53619 	22 	24 
424 	5     	23.75	0.53619 	22 	24 
425 	5     	23.75	0.53619 	22 	24 
426 	5     	23.75	0.53619 	22 	24 
427 	5     	23.75	0.53619 	22 	24 
428 	5     	23.75	0.53619 	22 	24 
429 	5     	23.75	0.53619 	22 	24 
430 	5     	23.75	0.53619 	22 	24 
431 	5     	23.75	0.53619 	22 	24 
432 	5     	23.75	0.53619 	22 	24 
433 	5     	23.75	0.53619 	22 	24 
434 	5     	23.75	0.53619 	22 	24 
435 	5     	23.75	0.53619 	22 	24 
436 	5     	23.75	0.53619 	22 	24 
437 	5     	23.75	0.53619 	22 	24 
438 	5     	23.75	0.53619 	22 	24 
439 	5     	23.75	0.53619 	22 	24 
440 	5     	23.75	0.53619 	22 	24 
441 	5     	23.75	0.53619 	22 	24 
442 	5     	23.75	0.53619 	22 	24 
443 	5     	23.75	0.53619 	22 	24 
444 	5     	23.75	0.53619 	22 	24 
445 	5     	23.75	0.53619 	22 	24 
446 	5     	23.75	0.53619 	22 	24 
447 	5     	23.75	0.53619 	22 	24 
448 	5     	23.75	0.53619 	22 	24 
449 	5     	23.75	0.53619 	22 	24 
450 	5     	23.7 	0.556776	22 	24 
451 	5     	23.7 	0.556776	22 	24 
452 	5     	23.7 	0.556776	22 	24 
453 	5     	23.7 	0.556776	22 	24 
454 	5     	23.7 	0.556776	22 	24 
455 	5     	23.7 	0.556776	22 	24 
456 	5     	23.7 	0.556776	22 	24 
457 	5     	23.7 	0.556776	22 	24 
458 	5     	23.7 	0.556776	22 	24 
459 	5     	23.7 	0.556776	22 	24 
460 	5     	23.7 	0.556776	22 	24 
461 	5     	23.7 	0.556776	22 	24 
462 	5     	23.7 	0.556776	22 	24 
463 	5     	23.7 	0.556776	22 	24 
464 	5     	23.7 	0.556776	22 	24 
465 	5     	23.7 	0.556776	22 	24 
466 	5     	23.7 	0.556776	22 	24 
467 	5     	23.7 	0.556776	22 	24 
468 	5     	23.7 	0.556776	22 	24 
469 	5     	23.7 	0.556776	22 	24 
470 	5     	23.7 	0.556776	22 	24 
471 	5     	23.7 	0.556776	22 	24 
472 	5     	23.7 	0.556776	22 	24 
473 	5     	23.7 	0.556776	22 	24 
474 	5     	23.7 	0.556776	22 	24 
475 	5     	23.7 	0.556776	22 	24 
476 	5     	23.7 	0.556776	22 	24 
477 	5     	23.7 	0.556776	22 	24 
478 	5     	23.7 	0.556776	22 	24 
479 	5     	23.7 	0.556776	22 	24 
480 	5     	23.7 	0.556776	22 	24 
481 	5     	23.7 	0.556776	22 	24 
482 	5     	23.7 	0.556776	22 	24 
483 	5     	23.7 	0.556776	22 	24 
484 	5     	23.7 	0.556776	22 	24 
485 	5     	23.7 	0.556776	22 	24 
486 	5     	23.7 	0.556776	22 	24 
487 	5     	23.7 	0.556776	22 	24 
488 	5     	23.7 	0.556776	22 	24 
489 	5     	23.7 	0.556776	22 	24 
490 	5     	23.7 	0.556776	22 	24 
491 	5     	23.7 	0.556776	22 	24 
492 	5     	23.7 	0.556776	22 	24 
493 	5     	23.7 	0.556776	22 	24 
494 	5     	23.7 	0.556776	22 	24 
495 	5     	23.7 	0.556776	22 	24 
496 	5     	23.7 	0.556776	22 	24 
497 	5     	23.7 	0.556776	22 	24 
498 	5     	23.7 	0.556776	22 	24 
499 	5     	23.7 	0.556776	22 	24 
500 	5     	23.7 	0.556776	22 	24 
501 	5     	23.7 	0.556776	22 	24 
502 	5     	23.7 	0.556776	22 	24 
503 	5     	23.7 	0.556776	22 	24 
504 	5     	23.7 	0.556776	22 	24 
505 	5     	23.7 	0.556776	22 	24 
506 	5     	23.7 	0.556776	22 	24 
507 	5     	23.7 	0.556776	22 	24 
508 	5     	23.7 	0.556776	22 	24 
509 	5     	23.7 	0.556776	22 	24 
510 	5     	23.7 	0.556776	22 	24 
511 	5     	23.7 	0.556776	22 	24 
512 	5     	23.7 	0.556776	22 	24 
513 	5     	23.7 	0.556776	22 	24 
514 	5     	23.7 	0.556776	22 	24 
515 	5     	23.7 	0.556776	22 	24 
516 	5     	23.7 	0.556776	22 	24 
517 	5     	23.7 	0.556776	22 	24 
518 	5     	23.7 	0.556776	22 	24 
519 	5     	23.7 	0.556776	22 	24 
520 	5     	23.7 	0.556776	22 	24 
521 	5     	23.7 	0.556776	22 	24 
522 	5     	23.7 	0.556776	22 	24 
523 	5     	23.7 	0.556776	22 	24 
524 	5     	23.7 	0.556776	22 	24 
525 	5     	23.7 	0.556776	22 	24 
526 	5     	23.7 	0.556776	22 	24 
527 	5     	23.7 	0.556776	22 	24 
528 	5     	23.7 	0.556776	22 	24 
529 	5     	23.7 	0.556776	22 	24 
530 	5     	23.7 	0.556776	22 	24 
531 	5     	23.7 	0.556776	22 	24 
532 	5     	23.7 	0.556776	22 	24 
533 	5     	23.7 	0.556776	22 	24 
534 	5     	23.7 	0.556776	22 	24 
535 	5     	23.7 	0.556776	22 	24 
536 	5     	23.7 	0.556776	22 	24 
537 	5     	23.7 	0.556776	22 	24 
538 	5     	23.7 	0.556776	22 	24 
539 	5     	23.7 	0.556776	22 	24 
540 	5     	23.7 	0.556776	22 	24 
541 	5     	23.7 	0.556776	22 	24 
542 	5     	23.7 	0.556776	22 	24 
543 	5     	23.7 	0.556776	22 	24 
544 	5     	23.7 	0.556776	22 	24 
545 	5     	23.7 	0.556776	22 	24 
546 	5     	23.7 	0.556776	22 	24 
547 	5     	23.7 	0.556776	22 	24 
548 	5     	23.7 	0.556776	22 	24 
549 	5     	23.7 	0.556776	22 	24 
550 	5     	23.7 	0.556776	22 	24 
551 	5     	23.7 	0.556776	22 	24 
552 	5     	23.7 	0.556776	22 	24 
553 	5     	23.7 	0.556776	22 	24 
554 	5     	23.7 	0.556776	22 	24 
555 	5     	23.7 	0.556776	22 	24 
556 	5     	23.7 	0.556776	22 	24 
557 	5     	23.7 	0.556776	22 	24 
558 	5     	23.7 	0.556776	22 	24 
559 	5     	23.7 	0.556776	22 	24 
560 	5     	23.7 	0.556776	22 	24 
561 	5     	23.7 	0.556776	22 	24 
562 	5     	23.7 	0.556776	22 	24 
563 	5     	23.7 	0.556776	22 	24 
564 	5     	23.7 	0.556776	22 	24 
565 	5     	23.7 	0.556776	22 	24 
566 	5     	23.7 	0.556776	22 	24 
567 	5     	23.7 	0.556776	22 	24 
568 	5     	23.7 	0.556776	22 	24 
569 	5     	23.7 	0.556776	22 	24 
570 	5     	23.7 	0.556776	22 	24 
571 	5     	23.7 	0.556776	22 	24 
572 	5     	23.7 	0.556776	22 	24 
573 	5     	23.7 	0.556776	22 	24 
574 	5     	23.7 	0.556776	22 	24 
575 	5     	23.7 	0.556776	22 	24 
576 	5     	23.7 	0.556776	22 	24 
577 	5     	23.7 	0.556776	22 	24 
578 	5     	23.7 	0.556776	22 	24 
579 	5     	23.7 	0.556776	22 	24 
580 	5     	23.7 	0.556776	22 	24 
581 	5     	23.7 	0.556776	22 	24 
582 	5     	23.7 	0.556776	22 	24 
583 	5     	23.7 	0.556776	22 	24 
584 	5     	23.7 	0.556776	22 	24 
585 	5     	23.7 	0.556776	22 	24 
586 	5     	23.7 	0.556776	22 	24 
587 	5     	23.7 	0.556776	22 	24 
588 	5     	23.7 	0.556776	22 	24 
589 	5     	23.7 	0.556776	22 	24 
590 	5     	23.7 	0.556776	22 	24 
591 	5     	23.7 	0.556776	22 	24 
592 	5     	23.7 	0.556776	22 	24 
593 	5     	23.7 	0.556776	22 	24 
594 	5     	23.7 	0.556776	22 	24 
595 	5     	23.7 	0.556776	22 	24 
596 	5     	23.7 	0.556776	22 	24 
597 	5     	23.7 	0.556776	22 	24 
598 	5     	23.7 	0.556776	22 	24 
599 	5     	23.7 	0.556776	22 	24 
600 	5     	23.7 	0.556776	22 	24 
601 	5     	23.7 	0.556776	22 	24 
602 	5     	23.7 	0.556776	22 	24 
603 	5     	23.7 	0.556776	22 	24 
604 	5     	23.7 	0.556776	22 	24 
605 	5     	23.7 	0.556776	22 	24 
606 	5     	23.7 	0.556776	22 	24 
607 	5     	23.7 	0.556776	22 	24 
608 	5     	23.7 	0.556776	22 	24 
609 	5     	23.7 	0.556776	22 	24 
610 	5     	23.7 	0.556776	22 	24 
611 	5     	23.7 	0.556776	22 	24 
612 	5     	23.7 	0.556776	22 	24 
613 	5     	23.7 	0.556776	22 	24 
614 	5     	23.7 	0.556776	22 	24 
615 	5     	23.7 	0.556776	22 	24 
616 	5     	23.7 	0.556776	22 	24 
617 	5     	23.7 	0.556776	22 	24 
618 	5     	23.7 	0.556776	22 	24 
619 	5     	23.7 	0.556776	22 	24 
620 	5     	23.7 	0.556776	22 	24 
621 	5     	23.7 	0.556776	22 	24 
622 	5     	23.7 	0.556776	22 	24 
623 	5     	23.7 	0.556776	22 	24 
624 	5     	23.7 	0.556776	22 	24 
625 	5     	23.7 	0.556776	22 	24 
626 	5     	23.7 	0.556776	22 	24 
627 	5     	23.7 	0.556776	22 	24 
628 	5     	23.7 	0.556776	22 	24 
629 	5     	23.7 	0.556776	22 	24 
630 	5     	23.7 	0.556776	22 	24 
631 	5     	23.7 	0.556776	22 	24 
632 	5     	23.7 	0.556776	22 	24 
633 	5     	23.7 	0.556776	22 	24 
634 	5     	23.7 	0.556776	22 	24 
635 	5     	23.7 	0.556776	22 	24 
636 	5     	23.7 	0.556776	22 	24 
637 	5     	23.7 	0.556776	22 	24 
638 	5     	23.7 	0.556776	22 	24 
639 	5     	23.7 	0.556776	22 	24 
640 	5     	23.7 	0.556776	22 	24 
641 	5     	23.7 	0.556776	22 	24 
642 	5     	23.7 	0.556776	22 	24 
643 	5     	23.7 	0.556776	22 	24 
644 	5     	23.7 	0.556776	22 	24 
645 	5     	23.7 	0.556776	22 	24 
646 	5     	23.7 	0.556776	22 	24 
647 	5     	23.7 	0.556776	22 	24 
648 	5     	23.7 	0.556776	22 	24 
649 	5     	23.7 	0.556776	22 	24 
650 	5     	23.65	0.572276	22 	24 
651 	5     	23.65	0.572276	22 	24 
652 	5     	23.65	0.572276	22 	24 
653 	5     	23.65	0.572276	22 	24 
654 	5     	23.65	0.572276	22 	24 
655 	5     	23.65	0.572276	22 	24 
656 	5     	23.65	0.572276	22 	24 
657 	5     	23.65	0.572276	22 	24 
658 	5     	23.65	0.572276	22 	24 
659 	5     	23.65	0.572276	22 	24 
660 	5     	23.65	0.572276	22 	24 
661 	5     	23.65	0.572276	22 	24 
662 	5     	23.65	0.572276	22 	24 
663 	5     	23.65	0.572276	22 	24 
664 	5     	23.65	0.572276	22 	24 
665 	5     	23.65	0.572276	22 	24 
666 	5     	23.65	0.572276	22 	24 
667 	5     	23.65	0.572276	22 	24 
668 	5     	23.65	0.572276	22 	24 
669 	5     	23.65	0.572276	22 	24 
670 	5     	23.65	0.572276	22 	24 
671 	5     	23.65	0.572276	22 	24 
672 	5     	23.65	0.572276	22 	24 
673 	5     	23.65	0.572276	22 	24 
674 	5     	23.65	0.572276	22 	24 
675 	5     	23.65	0.572276	22 	24 
676 	5     	23.65	0.572276	22 	24 
677 	5     	23.65	0.572276	22 	24 
678 	5     	23.65	0.572276	22 	24 
679 	5     	23.65	0.572276	22 	24 
680 	5     	23.65	0.572276	22 	24 
681 	5     	23.65	0.572276	22 	24 
682 	5     	23.65	0.572276	22 	24 
683 	5     	23.65	0.572276	22 	24 
684 	5     	23.65	0.572276	22 	24 
685 	5     	23.65	0.572276	22 	24 
686 	5     	23.65	0.572276	22 	24 
687 	5     	23.65	0.572276	22 	24 
688 	5     	23.65	0.572276	22 	24 
689 	5     	23.65	0.572276	22 	24 
690 	5     	23.65	0.572276	22 	24 
691 	5     	23.65	0.572276	22 	24 
692 	5     	23.65	0.572276	22 	24 
693 	5     	23.65	0.572276	22 	24 
694 	5     	23.65	0.572276	22 	24 
695 	5     	23.65	0.572276	22 	24 
696 	5     	23.65	0.572276	22 	24 
697 	5     	23.65	0.572276	22 	24 
698 	5     	23.65	0.572276	22 	24 
699 	5     	23.65	0.572276	22 	24 
700 	5     	23.65	0.572276	22 	24 
701 	5     	23.65	0.572276	22 	24 
702 	5     	23.65	0.572276	22 	24 
703 	5     	23.65	0.572276	22 	24 
704 	5     	23.65	0.572276	22 	24 
705 	5     	23.65	0.572276	22 	24 
706 	5     	23.65	0.572276	22 	24 
707 	5     	23.65	0.572276	22 	24 
708 	5     	23.65	0.572276	22 	24 
709 	5     	23.65	0.572276	22 	24 
710 	5     	23.65	0.572276	22 	24 
711 	5     	23.65	0.572276	22 	24 
712 	5     	23.65	0.572276	22 	24 
713 	5     	23.65	0.572276	22 	24 
714 	5     	23.65	0.572276	22 	24 
715 	5     	23.65	0.572276	22 	24 
716 	5     	23.65	0.572276	22 	24 
717 	5     	23.65	0.572276	22 	24 
718 	5     	23.65	0.572276	22 	24 
719 	5     	23.65	0.572276	22 	24 
720 	5     	23.65	0.572276	22 	24 
721 	5     	23.6 	0.583095	22 	24 
722 	5     	23.6 	0.583095	22 	24 
723 	5     	23.6 	0.583095	22 	24 
724 	5     	23.6 	0.583095	22 	24 
725 	5     	23.45	0.804674	21 	24 
726 	5     	23.45	0.804674	21 	24 
727 	5     	23.45	0.804674	21 	24 
728 	5     	23.45	0.804674	21 	24 
729 	5     	23.45	0.804674	21 	24 
730 	5     	23.45	0.804674	21 	24 
731 	5     	23.45	0.804674	21 	24 
732 	5     	23.45	0.804674	21 	24 
733 	5     	23.45	0.804674	21 	24 
734 	5     	23.45	0.804674	21 	24 
735 	5     	23.45	0.804674	21 	24 
736 	5     	23.45	0.804674	21 	24 
737 	5     	23.45	0.804674	21 	24 
738 	5     	23.45	0.804674	21 	24 
739 	5     	23.45	0.804674	21 	24 
740 	5     	23.45	0.804674	21 	24 
741 	5     	23.45	0.804674	21 	24 
742 	5     	23.45	0.804674	21 	24 
743 	5     	23.45	0.804674	21 	24 
744 	5     	23.45	0.804674	21 	24 
745 	5     	23.45	0.804674	21 	24 
746 	5     	23.45	0.804674	21 	24 
747 	5     	23.45	0.804674	21 	24 
748 	5     	23.45	0.804674	21 	24 
749 	5     	23.45	0.804674	21 	24 
750 	5     	23.45	0.804674	21 	24 
751 	5     	23.45	0.804674	21 	24 
752 	5     	23.45	0.804674	21 	24 
753 	5     	23.45	0.804674	21 	24 
754 	5     	23.45	0.804674	21 	24 
755 	5     	23.45	0.804674	21 	24 
756 	5     	23.45	0.804674	21 	24 
757 	5     	23.45	0.804674	21 	24 
758 	5     	23.45	0.804674	21 	24 
759 	5     	23.45	0.804674	21 	24 
760 	5     	23.45	0.804674	21 	24 
761 	5     	23.45	0.804674	21 	24 
762 	5     	23.45	0.804674	21 	24 
763 	5     	23.45	0.804674	21 	24 
764 	5     	23.45	0.804674	21 	24 
765 	5     	23.45	0.804674	21 	24 
766 	5     	23.45	0.804674	21 	24 
767 	5     	23.45	0.804674	21 	24 
768 	5     	23.45	0.804674	21 	24 
769 	5     	23.45	0.804674	21 	24 
770 	5     	23.45	0.804674	21 	24 
771 	5     	23.45	0.804674	21 	24 
772 	5     	23.45	0.804674	21 	24 
773 	5     	23.45	0.804674	21 	24 
774 	5     	23.45	0.804674	21 	24 
775 	5     	23.45	0.804674	21 	24 
776 	5     	23.45	0.804674	21 	24 
777 	5     	23.45	0.804674	21 	24 
778 	5     	23.45	0.804674	21 	24 
779 	5     	23.45	0.804674	21 	24 
780 	5     	23.45	0.804674	21 	24 
781 	5     	23.45	0.804674	21 	24 
782 	5     	23.45	0.804674	21 	24 
783 	5     	23.45	0.804674	21 	24 
784 	5     	23.45	0.804674	21 	24 
785 	5     	23.45	0.804674	21 	24 
786 	5     	23.45	0.804674	21 	24 
787 	5     	23.45	0.804674	21 	24 
788 	5     	23.45	0.804674	21 	24 
789 	5     	23.45	0.804674	21 	24 
790 	5     	23.45	0.804674	21 	24 
791 	5     	23.45	0.804674	21 	24 
792 	5     	23.45	0.804674	21 	24 
793 	5     	23.45	0.804674	21 	24 
794 	5     	23.45	0.804674	21 	24 
795 	5     	23.45	0.804674	21 	24 
796 	5     	23.4 	0.8     	21 	24 
797 	5     	23.4 	0.8     	21 	24 
798 	5     	23.4 	0.8     	21 	24 
799 	5     	23.4 	0.8     	21 	24 
800 	5     	23.4 	0.8     	21 	24 
801 	5     	23.4 	0.8     	21 	24 
802 	5     	23.4 	0.8     	21 	24 
803 	5     	23.4 	0.8     	21 	24 
804 	5     	23.4 	0.8     	21 	24 
805 	5     	23.4 	0.8     	21 	24 
806 	5     	23.4 	0.8     	21 	24 
807 	5     	23.4 	0.8     	21 	24 
808 	5     	23.4 	0.8     	21 	24 
809 	5     	23.4 	0.8     	21 	24 
810 	5     	23.4 	0.8     	21 	24 
811 	5     	23.4 	0.8     	21 	24 
812 	5     	23.4 	0.8     	21 	24 
813 	5     	23.4 	0.8     	21 	24 
814 	5     	23.4 	0.8     	21 	24 
815 	5     	23.4 	0.8     	21 	24 
816 	5     	23.4 	0.8     	21 	24 
817 	5     	23.4 	0.8     	21 	24 
818 	5     	23.4 	0.8     	21 	24 
819 	5     	23.4 	0.8     	21 	24 
820 	5     	23.4 	0.8     	21 	24 
821 	5     	23.4 	0.8     	21 	24 
822 	5     	23.4 	0.8     	21 	24 
823 	5     	23.4 	0.8     	21 	24 
824 	5     	23.4 	0.8     	21 	24 
825 	5     	23.4 	0.8     	21 	24 
826 	5     	23.4 	0.8     	21 	24 
827 	5     	23.4 	0.8     	21 	24 
828 	5     	23.4 	0.8     	21 	24 
829 	5     	23.4 	0.8     	21 	24 
830 	5     	23.4 	0.8     	21 	24 
831 	5     	23.4 	0.8     	21 	24 
832 	5     	23.4 	0.8     	21 	24 
833 	5     	23.4 	0.8     	21 	24 
834 	5     	23.4 	0.8     	21 	24 
835 	5     	23.4 	0.8     	21 	24 
836 	5     	23.4 	0.8     	21 	24 
837 	5     	23.4 	0.8     	21 	24 
838 	5     	23.4 	0.8     	21 	24 
839 	5     	23.4 	0.8     	21 	24 
840 	5     	23.4 	0.8     	21 	24 
841 	5     	23.4 	0.8     	21 	24 
842 	5     	23.4 	0.8     	21 	24 
843 	5     	23.4 	0.8     	21 	24 
844 	5     	23.4 	0.8     	21 	24 
845 	5     	23.4 	0.8     	21 	24 
846 	5     	23.4 	0.8     	21 	24 
847 	5     	23.4 	0.8     	21 	24 
848 	5     	23.4 	0.8     	21 	24 
849 	5     	23.4 	0.8     	21 	24 
850 	5     	23.4 	0.8     	21 	24 
851 	5     	23.4 	0.8     	21 	24 
852 	5     	23.4 	0.8     	21 	24 
853 	5     	23.4 	0.8     	21 	24 
854 	5     	23.4 	0.8     	21 	24 
855 	5     	23.4 	0.8     	21 	24 
856 	5     	23.4 	0.8     	21 	24 
857 	5     	23.4 	0.8     	21 	24 
858 	5     	23.4 	0.8     	21 	24 
859 	5     	23.4 	0.8     	21 	24 
860 	5     	23.4 	0.8     	21 	24 
861 	5     	23.4 	0.8     	21 	24 
862 	5     	23.4 	0.8     	21 	24 
863 	5     	23.4 	0.8     	21 	24 
864 	5     	23.4 	0.8     	21 	24 
865 	5     	23.4 	0.8     	21 	24 
866 	5     	23.4 	0.8     	21 	24 
867 	5     	23.4 	0.8     	21 	24 
868 	5     	23.4 	0.8     	21 	24 
869 	5     	23.35	0.792149	21 	24 
870 	5     	23.35	0.792149	21 	24 
871 	5     	23.35	0.792149	21 	24 
872 	5     	23.35	0.792149	21 	24 
873 	5     	23.35	0.792149	21 	24 
874 	5     	23.35	0.792149	21 	24 
875 	5     	23.35	0.792149	21 	24 
876 	5     	23.35	0.792149	21 	24 
877 	5     	23.35	0.792149	21 	24 
878 	5     	23.35	0.792149	21 	24 
879 	5     	23.35	0.792149	21 	24 
880 	5     	23.35	0.792149	21 	24 
881 	5     	23.35	0.792149	21 	24 
882 	5     	23.35	0.792149	21 	24 
883 	5     	23.35	0.792149	21 	24 
884 	5     	23.35	0.792149	21 	24 
885 	5     	23.35	0.792149	21 	24 
886 	5     	23.35	0.792149	21 	24 
887 	5     	23.35	0.792149	21 	24 
888 	5     	23.35	0.792149	21 	24 
889 	5     	23.35	0.792149	21 	24 
890 	5     	23.35	0.792149	21 	24 
891 	5     	23.35	0.792149	21 	24 
892 	5     	23.35	0.792149	21 	24 
893 	5     	23.35	0.792149	21 	24 
894 	5     	23.35	0.792149	21 	24 
895 	5     	23.35	0.792149	21 	24 
896 	5     	23.35	0.792149	21 	24 
897 	5     	23.35	0.792149	21 	24 
898 	5     	23.35	0.792149	21 	24 
899 	5     	23.35	0.792149	21 	24 
900 	5     	23.35	0.792149	21 	24 
901 	5     	23.35	0.792149	21 	24 
902 	5     	23.35	0.792149	21 	24 
903 	5     	23.35	0.792149	21 	24 
904 	5     	23.35	0.792149	21 	24 
905 	5     	23.35	0.792149	21 	24 
906 	5     	23.35	0.792149	21 	24 
907 	5     	23.35	0.792149	21 	24 
908 	5     	23.35	0.792149	21 	24 
909 	5     	23.35	0.792149	21 	24 
910 	5     	23.35	0.792149	21 	24 
911 	5     	23.35	0.792149	21 	24 
912 	5     	23.35	0.792149	21 	24 
913 	5     	23.35	0.792149	21 	24 
914 	5     	23.35	0.792149	21 	24 
915 	5     	23.35	0.792149	21 	24 
916 	5     	23.35	0.792149	21 	24 
917 	5     	23.35	0.792149	21 	24 
918 	5     	23.35	0.792149	21 	24 
919 	5     	23.35	0.792149	21 	24 
920 	5     	23.35	0.792149	21 	24 
921 	5     	23.35	0.792149	21 	24 
922 	5     	23.35	0.792149	21 	24 
923 	5     	23.35	0.792149	21 	24 
924 	5     	23.35	0.792149	21 	24 
925 	5     	23.35	0.792149	21 	24 
926 	5     	23.35	0.792149	21 	24 
927 	5     	23.35	0.792149	21 	24 
928 	5     	23.35	0.792149	21 	24 
929 	5     	23.35	0.792149	21 	24 
930 	5     	23.35	0.792149	21 	24 
931 	5     	23.35	0.792149	21 	24 
932 	5     	23.35	0.792149	21 	24 
933 	5     	23.35	0.792149	21 	24 
934 	5     	23.35	0.792149	21 	24 
935 	5     	23.35	0.792149	21 	24 
936 	5     	23.35	0.792149	21 	24 
937 	5     	23.35	0.792149	21 	24 
938 	5     	23.35	0.792149	21 	24 
939 	5     	23.35	0.792149	21 	24 
940 	5     	23.35	0.792149	21 	24 
941 	5     	23.35	0.792149	21 	24 
942 	5     	23.35	0.792149	21 	24 
943 	5     	23.35	0.792149	21 	24 
944 	5     	23.35	0.792149	21 	24 
945 	5     	23.35	0.792149	21 	24 
946 	5     	23.35	0.792149	21 	24 
947 	5     	23.35	0.792149	21 	24 
948 	5     	23.35	0.792149	21 	24 
949 	5     	23.35	0.792149	21 	24 
950 	5     	23.35	0.792149	21 	24 
951 	5     	23.35	0.792149	21 	24 
952 	5     	23.35	0.792149	21 	24 
953 	5     	23.35	0.792149	21 	24 
954 	5     	23.35	0.792149	21 	24 
955 	5     	23.35	0.792149	21 	24 
956 	5     	23.35	0.792149	21 	24 
957 	5     	23.35	0.792149	21 	24 
958 	5     	23.35	0.792149	21 	24 
959 	5     	23.35	0.792149	21 	24 
960 	5     	23.35	0.792149	21 	24 
961 	5     	23.35	0.792149	21 	24 
962 	5     	23.35	0.792149	21 	24 
963 	5     	23.35	0.792149	21 	24 
964 	5     	23.35	0.792149	21 	24 
965 	5     	23.35	0.792149	21 	24 
966 	5     	23.35	0.792149	21 	24 
967 	5     	23.35	0.792149	21 	24 
968 	5     	23.35	0.792149	21 	24 
969 	5     	23.35	0.792149	21 	24 
970 	5     	23.35	0.792149	21 	24 
971 	5     	23.35	0.792149	21 	24 
972 	5     	23.35	0.792149	21 	24 
973 	5     	23.35	0.792149	21 	24 
974 	5     	23.35	0.792149	21 	24 
975 	5     	23.35	0.792149	21 	24 
976 	5     	23.35	0.792149	21 	24 
977 	5     	23.35	0.792149	21 	24 
978 	5     	23.35	0.792149	21 	24 
979 	5     	23.35	0.792149	21 	24 
980 	5     	23.35	0.792149	21 	24 
981 	5     	23.35	0.792149	21 	24 
982 	5     	23.35	0.792149	21 	24 
983 	5     	23.35	0.792149	21 	24 
984 	5     	23.35	0.792149	21 	24 
985 	5     	23.35	0.792149	21 	24 
986 	5     	23.35	0.792149	21 	24 
987 	5     	23.35	0.792149	21 	24 
988 	5     	23.35	0.792149	21 	24 
989 	5     	23.35	0.792149	21 	24 
990 	5     	23.35	0.792149	21 	24 
991 	5     	23.35	0.792149	21 	24 
992 	5     	23.35	0.792149	21 	24 
993 	5     	23.35	0.792149	21 	24 
994 	5     	23.35	0.792149	21 	24 
995 	5     	23.35	0.792149	21 	24 
996 	5     	23.35	0.792149	21 	24 
997 	5     	23.35	0.792149	21 	24 
998 	5     	23.35	0.792149	21 	24 
999 	5     	23.35	0.792149	21 	24 
1000	5     	23.35	0.792149	21 	24 
1001	5     	23.35	0.792149	21 	24 
1002	5     	23.35	0.792149	21 	24 
1003	5     	23.35	0.792149	21 	24 
1004	5     	23.35	0.792149	21 	24 
1005	5     	23.35	0.792149	21 	24 
1006	5     	23.35	0.792149	21 	24 
1007	5     	23.35	0.792149	21 	24 
1008	5     	23.35	0.792149	21 	24 
1009	5     	23.35	0.792149	21 	24 
1010	5     	23.35	0.792149	21 	24 
1011	5     	23.35	0.792149	21 	24 
1012	5     	23.35	0.792149	21 	24 
1013	5     	23.35	0.792149	21 	24 
1014	5     	23.35	0.792149	21 	24 
1015	5     	23.35	0.792149	21 	24 
1016	5     	23.35	0.792149	21 	24 
1017	5     	23.35	0.792149	21 	24 
1018	5     	23.35	0.792149	21 	24 
1019	5     	23.35	0.792149	21 	24 
1020	5     	23.35	0.792149	21 	24 
1021	5     	23.35	0.792149	21 	24 
1022	5     	23.35	0.792149	21 	24 
1023	5     	23.35	0.792149	21 	24 
1024	5     	23.35	0.792149	21 	24 
1025	5     	23.35	0.792149	21 	24 
1026	5     	23.35	0.792149	21 	24 
1027	5     	23.35	0.792149	21 	24 
1028	5     	23.35	0.792149	21 	24 
1029	5     	23.35	0.792149	21 	24 
1030	5     	23.35	0.792149	21 	24 
1031	5     	23.35	0.792149	21 	24 
1032	5     	23.3 	0.781025	21 	24 
1033	5     	23.3 	0.781025	21 	24 
1034	5     	23.3 	0.781025	21 	24 
1035	5     	23.3 	0.781025	21 	24 
1036	5     	23.3 	0.781025	21 	24 
1037	5     	23.3 	0.781025	21 	24 
1038	5     	23.3 	0.781025	21 	24 
1039	5     	23.3 	0.781025	21 	24 
1040	5     	23.3 	0.781025	21 	24 
1041	5     	23.3 	0.781025	21 	24 
1042	5     	23.3 	0.781025	21 	24 
1043	5     	23.3 	0.781025	21 	24 
1044	5     	23.3 	0.781025	21 	24 
1045	5     	23.3 	0.781025	21 	24 
1046	5     	23.3 	0.781025	21 	24 
1047	5     	23.3 	0.781025	21 	24 
1048	5     	23.3 	0.781025	21 	24 
1049	5     	23.3 	0.781025	21 	24 
1050	5     	23.3 	0.781025	21 	24 
1051	5     	23.3 	0.781025	21 	24 
1052	5     	23.3 	0.781025	21 	24 
1053	5     	23.3 	0.781025	21 	24 
1054	5     	23.3 	0.781025	21 	24 
1055	5     	23.3 	0.781025	21 	24 
1056	5     	23.25	0.766485	21 	24 
1057	5     	23.25	0.766485	21 	24 
1058	5     	23.25	0.766485	21 	24 
1059	5     	23.25	0.766485	21 	24 
1060	5     	23.25	0.766485	21 	24 
1061	5     	23.25	0.766485	21 	24 
1062	5     	23.25	0.766485	21 	24 
1063	5     	23.25	0.766485	21 	24 
1064	5     	23.25	0.766485	21 	24 
1065	5     	23.25	0.766485	21 	24 
1066	5     	23.25	0.766485	21 	24 
1067	5     	23.25	0.766485	21 	24 
1068	5     	23.25	0.766485	21 	24 
1069	5     	23.25	0.766485	21 	24 
1070	5     	23.25	0.766485	21 	24 
1071	5     	23.25	0.766485	21 	24 
1072	5     	23.25	0.766485	21 	24 
1073	5     	23.25	0.766485	21 	24 
1074	5     	23.25	0.766485	21 	24 
1075	5     	23.25	0.766485	21 	24 
1076	5     	23.25	0.766485	21 	24 
1077	5     	23.25	0.766485	21 	24 
1078	5     	23.25	0.766485	21 	24 
1079	5     	23.25	0.766485	21 	24 
1080	5     	23.25	0.766485	21 	24 
1081	5     	23.25	0.766485	21 	24 
1082	5     	23.25	0.766485	21 	24 
1083	5     	23.25	0.766485	21 	24 
1084	5     	23.25	0.766485	21 	24 
1085	5     	23.25	0.766485	21 	24 
1086	5     	23.25	0.766485	21 	24 
1087	5     	23.25	0.766485	21 	24 
1088	5     	23.25	0.766485	21 	24 
1089	5     	23.25	0.766485	21 	24 
1090	5     	23.25	0.766485	21 	24 
1091	5     	23.25	0.766485	21 	24 
1092	5     	23.25	0.766485	21 	24 
1093	5     	23.25	0.766485	21 	24 
1094	5     	23.25	0.766485	21 	24 
1095	5     	23.25	0.766485	21 	24 
1096	5     	23.25	0.766485	21 	24 
1097	5     	23.25	0.766485	21 	24 
1098	5     	23.25	0.766485	21 	24 
1099	5     	23.25	0.766485	21 	24 
1100	5     	23.25	0.766485	21 	24 
1101	5     	23.25	0.766485	21 	24 
1102	5     	23.25	0.766485	21 	24 
1103	5     	23.25	0.766485	21 	24 
1104	5     	23.25	0.766485	21 	24 
1105	5     	23.25	0.766485	21 	24 
1106	5     	23.25	0.766485	21 	24 
1107	5     	23.25	0.766485	21 	24 
1108	5     	23.25	0.766485	21 	24 
1109	5     	23.25	0.766485	21 	24 
1110	5     	23.25	0.766485	21 	24 
1111	5     	23.25	0.766485	21 	24 
1112	5     	23.25	0.766485	21 	24 
1113	5     	23.25	0.766485	21 	24 
1114	5     	23.25	0.766485	21 	24 
1115	5     	23.25	0.766485	21 	24 
1116	5     	23.25	0.766485	21 	24 
1117	5     	23.25	0.766485	21 	24 
1118	5     	23.25	0.766485	21 	24 
1119	5     	23.25	0.766485	21 	24 
1120	5     	23.25	0.766485	21 	24 
1121	5     	23.25	0.766485	21 	24 
1122	5     	23.25	0.766485	21 	24 
1123	5     	23.25	0.766485	21 	24 
1124	5     	23.25	0.766485	21 	24 
1125	5     	23.25	0.766485	21 	24 
1126	5     	23.25	0.766485	21 	24 
1127	5     	23.25	0.766485	21 	24 
1128	5     	23.25	0.766485	21 	24 
1129	5     	23.25	0.766485	21 	24 
1130	5     	23.25	0.766485	21 	24 
1131	5     	23.25	0.766485	21 	24 
1132	5     	23.25	0.766485	21 	24 
1133	5     	23.25	0.766485	21 	24 
1134	5     	23.25	0.766485	21 	24 
1135	5     	23.25	0.766485	21 	24 
1136	5     	23.25	0.766485	21 	24 
1137	5     	23.25	0.766485	21 	24 
1138	5     	23.25	0.766485	21 	24 
1139	5     	23.25	0.766485	21 	24 
1140	5     	23.25	0.766485	21 	24 
1141	5     	23.25	0.766485	21 	24 
1142	5     	23.25	0.766485	21 	24 
1143	5     	23.25	0.766485	21 	24 
1144	5     	23.25	0.766485	21 	24 
1145	5     	23.25	0.766485	21 	24 
1146	5     	23.25	0.766485	21 	24 
1147	5     	23.25	0.766485	21 	24 
1148	5     	23.25	0.766485	21 	24 
1149	5     	23.25	0.766485	21 	24 
1150	5     	23.25	0.766485	21 	24 
1151	5     	23.25	0.766485	21 	24 
1152	5     	23.25	0.766485	21 	24 
1153	5     	23.25	0.766485	21 	24 
1154	5     	23.25	0.766485	21 	24 
1155	5     	23.25	0.766485	21 	24 
1156	5     	23.25	0.766485	21 	24 
1157	5     	23.2 	0.748331	21 	24 
1158	5     	23.2 	0.748331	21 	24 
1159	5     	23.2 	0.748331	21 	24 
1160	5     	23.2 	0.748331	21 	24 
1161	5     	23.2 	0.748331	21 	24 
1162	5     	23.2 	0.748331	21 	24 
1163	5     	23.2 	0.748331	21 	24 
1164	5     	23.2 	0.748331	21 	24 
1165	5     	23.2 	0.748331	21 	24 
1166	5     	23.2 	0.748331	21 	24 
1167	5     	23.2 	0.748331	21 	24 
1168	5     	23.2 	0.748331	21 	24 
1169	5     	23.2 	0.748331	21 	24 
1170	5     	23.2 	0.748331	21 	24 
1171	5     	23.2 	0.748331	21 	24 
1172	5     	23.2 	0.748331	21 	24 
1173	5     	23.2 	0.748331	21 	24 
1174	5     	23.2 	0.748331	21 	24 
1175	5     	23.2 	0.748331	21 	24 
1176	5     	23.2 	0.748331	21 	24 
1177	5     	23.2 	0.748331	21 	24 
1178	5     	23.2 	0.748331	21 	24 
1179	5     	23.2 	0.748331	21 	24 
1180	5     	23.2 	0.748331	21 	24 
1181	5     	23.2 	0.748331	21 	24 
1182	5     	23.2 	0.748331	21 	24 
1183	5     	23.2 	0.748331	21 	24 
1184	5     	23.2 	0.748331	21 	24 
1185	5     	23.1 	0.768115	21 	24 
1186	5     	23.1 	0.768115	21 	24 
1187	5     	23.1 	0.768115	21 	24 
1188	5     	23.1 	0.768115	21 	24 
1189	5     	23.1 	0.768115	21 	24 
1190	5     	23.1 	0.768115	21 	24 
1191	5     	23.1 	0.768115	21 	24 
1192	5     	23.1 	0.768115	21 	24 
1193	5     	23.1 	0.768115	21 	24 
1194	5     	23.1 	0.768115	21 	24 
1195	5     	23.1 	0.768115	21 	24 
1196	5     	23.1 	0.768115	21 	24 
1197	5     	23.1 	0.768115	21 	24 
1198	5     	23.1 	0.768115	21 	24 
1199	5     	23.1 	0.768115	21 	24 
1200	5     	23.1 	0.768115	21 	24 
1201	5     	23.1 	0.768115	21 	24 
1202	5     	23.1 	0.768115	21 	24 
1203	5     	23.1 	0.768115	21 	24 
1204	5     	23.1 	0.768115	21 	24 
1205	5     	23.1 	0.768115	21 	24 
1206	5     	23.1 	0.768115	21 	24 
1207	5     	23.1 	0.768115	21 	24 
1208	5     	23.1 	0.768115	21 	24 
1209	5     	23.1 	0.768115	21 	24 
1210	5     	23.1 	0.768115	21 	24 
1211	5     	23.1 	0.768115	21 	24 
1212	5     	23.1 	0.768115	21 	24 
1213	5     	23.1 	0.768115	21 	24 
1214	5     	23.1 	0.768115	21 	24 
1215	5     	23.1 	0.768115	21 	24 
1216	5     	23.1 	0.768115	21 	24 
1217	5     	23.1 	0.768115	21 	24 
1218	5     	23.1 	0.768115	21 	24 
1219	5     	23.1 	0.768115	21 	24 
1220	5     	23.1 	0.768115	21 	24 
1221	5     	23.1 	0.768115	21 	24 
1222	5     	23.1 	0.768115	21 	24 
1223	5     	23.1 	0.768115	21 	24 
1224	5     	23.1 	0.768115	21 	24 
1225	5     	23.1 	0.768115	21 	24 
1226	5     	23.1 	0.768115	21 	24 
1227	5     	23.1 	0.768115	21 	24 
1228	5     	23.1 	0.768115	21 	24 
1229	5     	23.1 	0.768115	21 	24 
1230	5     	23.1 	0.768115	21 	24 
1231	5     	23.1 	0.768115	21 	24 
1232	5     	23.1 	0.768115	21 	24 
1233	5     	23.1 	0.768115	21 	24 
1234	5     	23.1 	0.768115	21 	24 
1235	5     	23.1 	0.768115	21 	24 
1236	5     	23.1 	0.768115	21 	24 
1237	5     	23.1 	0.768115	21 	24 
1238	5     	23.1 	0.768115	21 	24 
1239	5     	23.1 	0.768115	21 	24 
1240	5     	23.1 	0.768115	21 	24 
1241	5     	23.1 	0.768115	21 	24 
1242	5     	23.1 	0.768115	21 	24 
1243	5     	23.1 	0.768115	21 	24 
1244	5     	23.05	0.739932	21 	24 
1245	5     	23.05	0.739932	21 	24 
1246	5     	23.05	0.739932	21 	24 
1247	5     	23.05	0.739932	21 	24 
1248	5     	23.05	0.739932	21 	24 
1249	5     	23.05	0.739932	21 	24 
1250	5     	23.05	0.739932	21 	24 
1251	5     	23.05	0.739932	21 	24 
1252	5     	23.05	0.739932	21 	24 
1253	5     	23.05	0.739932	21 	24 
1254	5     	23.05	0.739932	21 	24 
1255	5     	23.05	0.739932	21 	24 
1256	5     	23.05	0.739932	21 	24 
1257	5     	23.05	0.739932	21 	24 
1258	5     	23.05	0.739932	21 	24 
1259	5     	23.05	0.739932	21 	24 
1260	5     	23.05	0.739932	21 	24 
1261	5     	23.05	0.739932	21 	24 
1262	5     	23.05	0.739932	21 	24 
1263	5     	23.05	0.739932	21 	24 
1264	5     	23.05	0.739932	21 	24 
1265	5     	23.05	0.739932	21 	24 
1266	5     	23.05	0.739932	21 	24 
1267	5     	23.05	0.739932	21 	24 
1268	5     	23.05	0.739932	21 	24 
1269	5     	23.05	0.739932	21 	24 
1270	5     	23.05	0.739932	21 	24 
1271	5     	23.05	0.739932	21 	24 
1272	5     	23.05	0.739932	21 	24 
1273	5     	23.05	0.739932	21 	24 
1274	5     	23.05	0.739932	21 	24 
1275	5     	23.05	0.739932	21 	24 
1276	5     	23.05	0.739932	21 	24 
1277	5     	23.05	0.739932	21 	24 
1278	5     	23.05	0.739932	21 	24 
1279	5     	23.05	0.739932	21 	24 
1280	5     	23.05	0.739932	21 	24 
1281	5     	23.05	0.739932	21 	24 
1282	5     	23.05	0.739932	21 	24 
1283	5     	23.05	0.739932	21 	24 
1284	5     	23.05	0.739932	21 	24 
1285	5     	23.05	0.739932	21 	24 
1286	5     	23.05	0.739932	21 	24 
1287	5     	23.05	0.739932	21 	24 
1288	5     	23.05	0.739932	21 	24 
1289	5     	23.05	0.739932	21 	24 
1290	5     	23.05	0.739932	21 	24 
1291	5     	23.05	0.739932	21 	24 
1292	5     	23.05	0.739932	21 	24 
1293	5     	23.05	0.739932	21 	24 
1294	5     	23.05	0.739932	21 	24 
1295	5     	23.05	0.739932	21 	24 
1296	5     	23.05	0.739932	21 	24 
1297	5     	23.05	0.739932	21 	24 
1298	5     	23.05	0.739932	21 	24 
1299	5     	23.05	0.739932	21 	24 
1300	5     	23.05	0.739932	21 	24 
1301	5     	23.05	0.739932	21 	24 
1302	5     	23.05	0.739932	21 	24 
1303	5     	23.05	0.739932	21 	24 
1304	5     	23.05	0.739932	21 	24 
1305	5     	23.05	0.739932	21 	24 
1306	5     	23.05	0.739932	21 	24 
1307	5     	23.05	0.739932	21 	24 
1308	5     	23.05	0.739932	21 	24 
1309	5     	23.05	0.739932	21 	24 
1310	5     	23.05	0.739932	21 	24 
1311	5     	23.05	0.739932	21 	24 
1312	5     	23.05	0.739932	21 	24 
1313	5     	23.05	0.739932	21 	24 
1314	5     	23.05	0.739932	21 	24 
1315	5     	23.05	0.739932	21 	24 
1316	5     	23.05	0.739932	21 	24 
1317	5     	23.05	0.739932	21 	24 
1318	5     	23.05	0.739932	21 	24 
1319	5     	23.05	0.739932	21 	24 
1320	5     	23.05	0.739932	21 	24 
1321	5     	23.05	0.739932	21 	24 
1322	5     	23.05	0.739932	21 	24 
1323	5     	23.05	0.739932	21 	24 
1324	5     	23.05	0.739932	21 	24 
1325	5     	23.05	0.739932	21 	24 
1326	5     	23.05	0.739932	21 	24 
1327	5     	23.05	0.739932	21 	24 
1328	5     	23.05	0.739932	21 	24 
1329	5     	23.05	0.739932	21 	24 
1330	5     	23.05	0.739932	21 	24 
1331	5     	23.05	0.739932	21 	24 
1332	5     	23.05	0.739932	21 	24 
1333	5     	23.05	0.739932	21 	24 
1334	5     	23.05	0.739932	21 	24 
1335	5     	23.05	0.739932	21 	24 
1336	5     	23.05	0.739932	21 	24 
1337	5     	23.05	0.739932	21 	24 
1338	5     	23.05	0.739932	21 	24 
1339	5     	23.05	0.739932	21 	24 
1340	5     	23.05	0.739932	21 	24 
1341	5     	23.05	0.739932	21 	24 
1342	5     	23.05	0.739932	21 	24 
1343	5     	23.05	0.739932	21 	24 
1344	5     	23.05	0.739932	21 	24 
1345	5     	23.05	0.739932	21 	24 
1346	5     	23.05	0.739932	21 	24 
1347	5     	23.05	0.739932	21 	24 
1348	5     	23.05	0.739932	21 	24 
1349	5     	23.05	0.739932	21 	24 
1350	5     	23.05	0.739932	21 	24 
1351	5     	23.05	0.739932	21 	24 
1352	5     	23.05	0.739932	21 	24 
1353	5     	23.05	0.739932	21 	24 
1354	5     	23.05	0.739932	21 	24 
1355	5     	23.05	0.739932	21 	24 
1356	5     	23.05	0.739932	21 	24 
1357	5     	23.05	0.739932	21 	24 
1358	5     	23.05	0.739932	21 	24 
1359	5     	23.05	0.739932	21 	24 
1360	5     	23.05	0.739932	21 	24 
1361	5     	23.05	0.739932	21 	24 
1362	5     	23.05	0.739932	21 	24 
1363	5     	23.05	0.739932	21 	24 
1364	5     	23.05	0.739932	21 	24 
1365	5     	23.05	0.739932	21 	24 
1366	5     	23.05	0.739932	21 	24 
1367	5     	23.05	0.739932	21 	24 
1368	5     	23.05	0.739932	21 	24 
1369	5     	23.05	0.739932	21 	24 
1370	5     	23.05	0.739932	21 	24 
1371	5     	23.05	0.739932	21 	24 
1372	5     	23.05	0.739932	21 	24 
1373	5     	23.05	0.739932	21 	24 
1374	5     	23.05	0.739932	21 	24 
1375	5     	23.05	0.739932	21 	24 
1376	5     	23.05	0.739932	21 	24 
1377	5     	23.05	0.739932	21 	24 
1378	5     	23.05	0.739932	21 	24 
1379	5     	23.05	0.739932	21 	24 
1380	5     	23.05	0.739932	21 	24 
1381	5     	23.05	0.739932	21 	24 
1382	5     	23.05	0.739932	21 	24 
1383	5     	23.05	0.739932	21 	24 
1384	5     	23.05	0.739932	21 	24 
1385	5     	23.05	0.739932	21 	24 
1386	5     	23.05	0.739932	21 	24 
1387	5     	23.05	0.739932	21 	24 
1388	5     	23.05	0.739932	21 	24 
1389	5     	23.05	0.739932	21 	24 
1390	5     	23.05	0.739932	21 	24 
1391	5     	23.05	0.739932	21 	24 
1392	5     	23.05	0.739932	21 	24 
1393	5     	23.05	0.739932	21 	24 
1394	5     	23.05	0.739932	21 	24 
1395	5     	23.05	0.739932	21 	24 
1396	5     	23.05	0.739932	21 	24 
1397	5     	23.05	0.739932	21 	24 
1398	5     	23.05	0.739932	21 	24 
1399	5     	23.05	0.739932	21 	24 
1400	5     	23.05	0.739932	21 	24 
1401	5     	23.05	0.739932	21 	24 
1402	5     	23.05	0.739932	21 	24 
1403	5     	23.05	0.739932	21 	24 
1404	5     	23.05	0.739932	21 	24 
1405	5     	23.05	0.739932	21 	24 
1406	5     	23.05	0.739932	21 	24 
1407	5     	23.05	0.739932	21 	24 
1408	5     	23.05	0.739932	21 	24 
1409	5     	23.05	0.739932	21 	24 
1410	5     	23.05	0.739932	21 	24 
1411	5     	23.05	0.739932	21 	24 
1412	5     	23.05	0.739932	21 	24 
1413	5     	23.05	0.739932	21 	24 
1414	5     	23.05	0.739932	21 	24 
1415	5     	23.05	0.739932	21 	24 
1416	5     	23.05	0.739932	21 	24 
1417	5     	23.05	0.739932	21 	24 
1418	5     	23.05	0.739932	21 	24 
1419	5     	23.05	0.739932	21 	24 
1420	5     	23.05	0.739932	21 	24 
1421	5     	23.05	0.739932	21 	24 
1422	5     	23.05	0.739932	21 	24 
1423	5     	23.05	0.739932	21 	24 
1424	5     	23.05	0.739932	21 	24 
1425	5     	23.05	0.739932	21 	24 
1426	5     	23.05	0.739932	21 	24 
1427	5     	23.05	0.739932	21 	24 
1428	5     	23.05	0.739932	21 	24 
1429	5     	23.05	0.739932	21 	24 
1430	5     	23.05	0.739932	21 	24 
1431	5     	23.05	0.739932	21 	24 
1432	5     	23.05	0.739932	21 	24 
1433	5     	23.05	0.739932	21 	24 
1434	5     	23.05	0.739932	21 	24 
1435	5     	23.05	0.739932	21 	24 
1436	5     	23.05	0.739932	21 	24 
1437	5     	23.05	0.739932	21 	24 
1438	5     	23   	0.707107	21 	24 
1439	5     	23   	0.707107	21 	24 
1440	5     	23   	0.707107	21 	24 
1441	5     	23   	0.707107	21 	24 
1442	5     	23   	0.707107	21 	24 
1443	5     	23   	0.707107	21 	24 
1444	5     	23   	0.707107	21 	24 
1445	5     	23   	0.707107	21 	24 
1446	5     	23   	0.707107	21 	24 
1447	5     	23   	0.707107	21 	24 
1448	5     	23   	0.707107	21 	24 
1449	5     	23   	0.707107	21 	24 
1450	5     	23   	0.707107	21 	24 
1451	5     	23   	0.707107	21 	24 
1452	5     	23   	0.707107	21 	24 
1453	5     	23   	0.707107	21 	24 
1454	5     	23   	0.707107	21 	24 
1455	5     	23   	0.707107	21 	24 
1456	5     	23   	0.707107	21 	24 
1457	5     	23   	0.707107	21 	24 
1458	5     	23   	0.707107	21 	24 
1459	5     	23   	0.707107	21 	24 
1460	5     	23   	0.707107	21 	24 
1461	5     	23   	0.707107	21 	24 
1462	5     	23   	0.707107	21 	24 
1463	5     	23   	0.707107	21 	24 
1464	5     	23   	0.707107	21 	24 
1465	5     	23   	0.707107	21 	24 
1466	5     	23   	0.707107	21 	24 
1467	5     	23   	0.707107	21 	24 
1468	5     	23   	0.707107	21 	24 
1469	5     	23   	0.707107	21 	24 
1470	5     	23   	0.707107	21 	24 
1471	5     	23   	0.707107	21 	24 
1472	5     	23   	0.707107	21 	24 
1473	5     	23   	0.707107	21 	24 
1474	5     	23   	0.707107	21 	24 
1475	5     	23   	0.707107	21 	24 
1476	5     	23   	0.707107	21 	24 
1477	5     	23   	0.707107	21 	24 
1478	5     	23   	0.707107	21 	24 
1479	5     	23   	0.707107	21 	24 
1480	5     	23   	0.707107	21 	24 
1481	5     	23   	0.707107	21 	24 
1482	5     	23   	0.707107	21 	24 
1483	5     	23   	0.707107	21 	24 
1484	5     	23   	0.707107	21 	24 
1485	5     	23   	0.707107	21 	24 
1486	5     	23   	0.707107	21 	24 
1487	5     	23   	0.707107	21 	24 
1488	5     	23   	0.707107	21 	24 
1489	5     	23   	0.707107	21 	24 
1490	5     	23   	0.707107	21 	24 
1491	5     	23   	0.707107	21 	24 
1492	5     	23   	0.707107	21 	24 
1493	5     	23   	0.707107	21 	24 
1494	5     	23   	0.707107	21 	24 
1495	5     	23   	0.707107	21 	24 
1496	5     	23   	0.707107	21 	24 
1497	5     	23   	0.707107	21 	24 
1498	5     	23   	0.707107	21 	24 
1499	5     	23   	0.707107	21 	24 
1500	5     	23   	0.707107	21 	24 
1501	5     	23   	0.707107	21 	24 
1502	5     	23   	0.707107	21 	24 
1503	5     	23   	0.707107	21 	24 
1504	5     	23   	0.707107	21 	24 
1505	5     	23   	0.707107	21 	24 
1506	5     	23   	0.707107	21 	24 
1507	5     	23   	0.707107	21 	24 
1508	5     	23   	0.707107	21 	24 
1509	5     	23   	0.707107	21 	24 
1510	5     	23   	0.707107	21 	24 
1511	5     	23   	0.707107	21 	24 
1512	5     	23   	0.707107	21 	24 
1513	5     	23   	0.707107	21 	24 
1514	5     	23   	0.707107	21 	24 
1515	5     	23   	0.707107	21 	24 
1516	5     	23   	0.707107	21 	24 
1517	5     	23   	0.707107	21 	24 
1518	5     	23   	0.707107	21 	24 
1519	5     	23   	0.707107	21 	24 
1520	5     	23   	0.707107	21 	24 
1521	5     	23   	0.707107	21 	24 
1522	5     	23   	0.707107	21 	24 
1523	5     	23   	0.707107	21 	24 
1524	5     	23   	0.707107	21 	24 
1525	5     	23   	0.707107	21 	24 
1526	5     	23   	0.707107	21 	24 
1527	5     	23   	0.707107	21 	24 
1528	5     	23   	0.707107	21 	24 
1529	5     	23   	0.707107	21 	24 
1530	5     	23   	0.707107	21 	24 
1531	5     	23   	0.707107	21 	24 
1532	5     	23   	0.707107	21 	24 
1533	5     	23   	0.707107	21 	24 
1534	5     	23   	0.707107	21 	24 
1535	5     	23   	0.707107	21 	24 
1536	5     	23   	0.707107	21 	24 
1537	5     	23   	0.707107	21 	24 
1538	5     	23   	0.707107	21 	24 
1539	5     	23   	0.707107	21 	24 
1540	5     	23   	0.707107	21 	24 
1541	5     	23   	0.707107	21 	24 
1542	5     	23   	0.707107	21 	24 
1543	5     	23   	0.707107	21 	24 
1544	5     	23   	0.707107	21 	24 
1545	5     	23   	0.707107	21 	24 
1546	5     	23   	0.707107	21 	24 
1547	5     	23   	0.707107	21 	24 
1548	5     	23   	0.707107	21 	24 
1549	5     	23   	0.707107	21 	24 
1550	5     	23   	0.707107	21 	24 
1551	5     	23   	0.707107	21 	24 
1552	5     	23   	0.707107	21 	24 
1553	5     	23   	0.707107	21 	24 
1554	5     	23   	0.707107	21 	24 
1555	5     	23   	0.707107	21 	24 
1556	5     	23   	0.707107	21 	24 
1557	5     	23   	0.707107	21 	24 
1558	5     	23   	0.707107	21 	24 
1559	5     	23   	0.707107	21 	24 
1560	5     	23   	0.707107	21 	24 
1561	5     	23   	0.707107	21 	24 
1562	5     	23   	0.707107	21 	24 
1563	5     	23   	0.707107	21 	24 
1564	5     	23   	0.707107	21 	24 
1565	5     	23   	0.707107	21 	24 
1566	5     	23   	0.707107	21 	24 
1567	5     	23   	0.707107	21 	24 
1568	5     	23   	0.707107	21 	24 
1569	5     	23   	0.707107	21 	24 
1570	5     	23   	0.707107	21 	24 
1571	5     	23   	0.707107	21 	24 
1572	5     	23   	0.707107	21 	24 
1573	5     	23   	0.707107	21 	24 
1574	5     	23   	0.707107	21 	24 
1575	5     	23   	0.707107	21 	24 
1576	5     	23   	0.707107	21 	24 
1577	5     	23   	0.707107	21 	24 
1578	5     	23   	0.707107	21 	24 
1579	5     	23   	0.707107	21 	24 
1580	5     	22.9 	0.7     	21 	24 
1581	5     	22.9 	0.7     	21 	24 
1582	5     	22.9 	0.7     	21 	24 
1583	5     	22.9 	0.7     	21 	24 
1584	5     	22.9 	0.7     	21 	24 
1585	5     	22.9 	0.7     	21 	24 
1586	5     	22.9 	0.7     	21 	24 
1587	5     	22.9 	0.7     	21 	24 
1588	5     	22.9 	0.7     	21 	24 
1589	5     	22.9 	0.7     	21 	24 
1590	5     	22.9 	0.7     	21 	24 
1591	5     	22.9 	0.7     	21 	24 
1592	5     	22.9 	0.7     	21 	24 
1593	5     	22.9 	0.7     	21 	24 
1594	5     	22.9 	0.7     	21 	24 
1595	5     	22.9 	0.7     	21 	24 
1596	5     	22.9 	0.7     	21 	24 
1597	5     	22.9 	0.7     	21 	24 
1598	5     	22.9 	0.7     	21 	24 
1599	5     	22.9 	0.7     	21 	24 
1600	5     	22.9 	0.7     	21 	24 
1601	5     	22.9 	0.7     	21 	24 
1602	5     	22.9 	0.7     	21 	24 
1603	5     	22.9 	0.7     	21 	24 
1604	5     	22.9 	0.7     	21 	24 
1605	5     	22.9 	0.7     	21 	24 
1606	5     	22.9 	0.7     	21 	24 
1607	5     	22.9 	0.7     	21 	24 
1608	5     	22.9 	0.7     	21 	24 
1609	5     	22.9 	0.7     	21 	24 
1610	5     	22.9 	0.7     	21 	24 
1611	5     	22.9 	0.7     	21 	24 
1612	5     	22.9 	0.7     	21 	24 
1613	5     	22.9 	0.7     	21 	24 
1614	5     	22.9 	0.7     	21 	24 
1615	5     	22.9 	0.7     	21 	24 
1616	5     	22.9 	0.7     	21 	24 
1617	5     	22.9 	0.7     	21 	24 
1618	5     	22.9 	0.7     	21 	24 
1619	5     	22.9 	0.7     	21 	24 
1620	5     	22.9 	0.7     	21 	24 
1621	5     	22.9 	0.7     	21 	24 
1622	5     	22.9 	0.7     	21 	24 
1623	5     	22.9 	0.7     	21 	24 
1624	5     	22.9 	0.7     	21 	24 
1625	5     	22.9 	0.7     	21 	24 
1626	5     	22.9 	0.7     	21 	24 
1627	5     	22.9 	0.7     	21 	24 
1628	5     	22.9 	0.7     	21 	24 
1629	5     	22.9 	0.7     	21 	24 
1630	5     	22.9 	0.7     	21 	24 
1631	5     	22.9 	0.7     	21 	24 
1632	5     	22.9 	0.7     	21 	24 
1633	5     	22.9 	0.7     	21 	24 
1634	5     	22.9 	0.7     	21 	24 
1635	5     	22.9 	0.7     	21 	24 
1636	5     	22.9 	0.7     	21 	24 
1637	5     	22.9 	0.7     	21 	24 
1638	5     	22.9 	0.7     	21 	24 
1639	5     	22.9 	0.7     	21 	24 
1640	5     	22.9 	0.7     	21 	24 
1641	5     	22.9 	0.7     	21 	24 
1642	5     	22.9 	0.7     	21 	24 
1643	5     	22.9 	0.7     	21 	24 
1644	5     	22.9 	0.7     	21 	24 
1645	5     	22.9 	0.7     	21 	24 
1646	5     	22.9 	0.7     	21 	24 
1647	5     	22.9 	0.7     	21 	24 
1648	5     	22.9 	0.7     	21 	24 
1649	5     	22.9 	0.7     	21 	24 
1650	5     	22.9 	0.7     	21 	24 
1651	5     	22.9 	0.7     	21 	24 
1652	5     	22.9 	0.7     	21 	24 
1653	5     	22.9 	0.7     	21 	24 
1654	5     	22.9 	0.7     	21 	24 
1655	5     	22.9 	0.7     	21 	24 
1656	5     	22.9 	0.7     	21 	24 
1657	5     	22.9 	0.7     	21 	24 
1658	5     	22.9 	0.7     	21 	24 
1659	5     	22.9 	0.7     	21 	24 
1660	5     	22.9 	0.7     	21 	24 
1661	5     	22.9 	0.7     	21 	24 
1662	5     	22.9 	0.7     	21 	24 
1663	5     	22.9 	0.7     	21 	24 
1664	5     	22.9 	0.7     	21 	24 
1665	5     	22.9 	0.7     	21 	24 
1666	5     	22.9 	0.7     	21 	24 
1667	5     	22.9 	0.7     	21 	24 
1668	5     	22.9 	0.7     	21 	24 
1669	5     	22.9 	0.7     	21 	24 
1670	5     	22.9 	0.7     	21 	24 
1671	5     	22.9 	0.7     	21 	24 
1672	5     	22.9 	0.7     	21 	24 
1673	5     	22.9 	0.7     	21 	24 
1674	5     	22.9 	0.7     	21 	24 
1675	5     	22.9 	0.7     	21 	24 
1676	5     	22.9 	0.7     	21 	24 
1677	5     	22.9 	0.7     	21 	24 
1678	5     	22.9 	0.7     	21 	24 
1679	5     	22.9 	0.7     	21 	24 
1680	5     	22.9 	0.7     	21 	24 
1681	5     	22.9 	0.7     	21 	24 
1682	5     	22.9 	0.7     	21 	24 
1683	5     	22.9 	0.7     	21 	24 
1684	5     	22.9 	0.7     	21 	24 
1685	5     	22.9 	0.7     	21 	24 
1686	5     	22.9 	0.7     	21 	24 
1687	5     	22.9 	0.7     	21 	24 
1688	5     	22.9 	0.7     	21 	24 
1689	5     	22.9 	0.7     	21 	24 
1690	5     	22.9 	0.7     	21 	24 
1691	5     	22.9 	0.7     	21 	24 
1692	5     	22.9 	0.7     	21 	24 
1693	5     	22.9 	0.7     	21 	24 
1694	5     	22.9 	0.7     	21 	24 
1695	5     	22.9 	0.7     	21 	24 
1696	5     	22.9 	0.7     	21 	24 
1697	5     	22.9 	0.7     	21 	24 
1698	5     	22.9 	0.7     	21 	24 
1699	5     	22.9 	0.7     	21 	24 
1700	5     	22.9 	0.7     	21 	24 
1701	5     	22.9 	0.7     	21 	24 
1702	5     	22.9 	0.7     	21 	24 
1703	5     	22.9 	0.7     	21 	24 
1704	5     	22.9 	0.7     	21 	24 
1705	5     	22.9 	0.7     	21 	24 
1706	5     	22.9 	0.7     	21 	24 
1707	5     	22.9 	0.7     	21 	24 
1708	5     	22.9 	0.7     	21 	24 
1709	5     	22.9 	0.7     	21 	24 
1710	5     	22.9 	0.7     	21 	24 
1711	5     	22.9 	0.7     	21 	24 
1712	5     	22.9 	0.7     	21 	24 
1713	5     	22.9 	0.7     	21 	24 
1714	5     	22.9 	0.7     	21 	24 
1715	5     	22.9 	0.7     	21 	24 
1716	5     	22.9 	0.7     	21 	24 
1717	5     	22.9 	0.7     	21 	24 
1718	5     	22.9 	0.7     	21 	24 
1719	5     	22.9 	0.7     	21 	24 
1720	5     	22.9 	0.7     	21 	24 
1721	5     	22.9 	0.7     	21 	24 
1722	5     	22.9 	0.7     	21 	24 
1723	5     	22.9 	0.7     	21 	24 
1724	5     	22.9 	0.7     	21 	24 
1725	5     	22.9 	0.7     	21 	24 
1726	5     	22.9 	0.7     	21 	24 
1727	5     	22.9 	0.7     	21 	24 
1728	5     	22.9 	0.7     	21 	24 
1729	5     	22.9 	0.7     	21 	24 
1730	5     	22.9 	0.7     	21 	24 
1731	5     	22.9 	0.7     	21 	24 
1732	5     	22.9 	0.7     	21 	24 
1733	5     	22.9 	0.7     	21 	24 
1734	5     	22.9 	0.7     	21 	24 
1735	5     	22.9 	0.7     	21 	24 
1736	5     	22.9 	0.7     	21 	24 
1737	5     	22.9 	0.7     	21 	24 
1738	5     	22.9 	0.7     	21 	24 
1739	5     	22.9 	0.7     	21 	24 
1740	5     	22.9 	0.7     	21 	24 
1741	5     	22.9 	0.7     	21 	24 
1742	5     	22.9 	0.7     	21 	24 
1743	5     	22.9 	0.7     	21 	24 
1744	5     	22.9 	0.7     	21 	24 
1745	5     	22.9 	0.7     	21 	24 
1746	5     	22.9 	0.7     	21 	24 
1747	5     	22.9 	0.7     	21 	24 
1748	5     	22.9 	0.7     	21 	24 
1749	5     	22.9 	0.7     	21 	24 
1750	5     	22.9 	0.7     	21 	24 
1751	5     	22.9 	0.7     	21 	24 
1752	5     	22.9 	0.7     	21 	24 
1753	5     	22.9 	0.7     	21 	24 
1754	5     	22.9 	0.7     	21 	24 
1755	5     	22.9 	0.7     	21 	24 
1756	5     	22.9 	0.7     	21 	24 
1757	5     	22.9 	0.7     	21 	24 
1758	5     	22.9 	0.7     	21 	24 
1759	5     	22.9 	0.7     	21 	24 
1760	5     	22.9 	0.7     	21 	24 
1761	5     	22.9 	0.7     	21 	24 
1762	5     	22.9 	0.7     	21 	24 
1763	5     	22.9 	0.7     	21 	24 
1764	5     	22.9 	0.7     	21 	24 
1765	5     	22.9 	0.7     	21 	24 
1766	5     	22.9 	0.7     	21 	24 
1767	5     	22.9 	0.7     	21 	24 
1768	5     	22.9 	0.7     	21 	24 
1769	5     	22.9 	0.7     	21 	24 
1770	5     	22.9 	0.7     	21 	24 
1771	5     	22.9 	0.7     	21 	24 
1772	5     	22.9 	0.7     	21 	24 
1773	5     	22.9 	0.7     	21 	24 
1774	5     	22.9 	0.7     	21 	24 
1775	5     	22.9 	0.7     	21 	24 
1776	5     	22.9 	0.7     	21 	24 
1777	5     	22.9 	0.7     	21 	24 
1778	5     	22.9 	0.7     	21 	24 
1779	5     	22.9 	0.7     	21 	24 
1780	5     	22.9 	0.7     	21 	24 
1781	5     	22.9 	0.7     	21 	24 
1782	5     	22.9 	0.7     	21 	24 
1783	5     	22.9 	0.7     	21 	24 
1784	5     	22.9 	0.7     	21 	24 
1785	5     	22.9 	0.7     	21 	24 
1786	5     	22.9 	0.7     	21 	24 
1787	5     	22.9 	0.7     	21 	24 
1788	5     	22.9 	0.7     	21 	24 
1789	5     	22.9 	0.7     	21 	24 
1790	5     	22.9 	0.7     	21 	24 
1791	5     	22.9 	0.7     	21 	24 
1792	5     	22.9 	0.7     	21 	24 
1793	5     	22.9 	0.7     	21 	24 
1794	5     	22.9 	0.7     	21 	24 
1795	5     	22.9 	0.7     	21 	24 
1796	5     	22.9 	0.7     	21 	24 
1797	5     	22.9 	0.7     	21 	24 
1798	5     	22.9 	0.7     	21 	24 
1799	5     	22.9 	0.7     	21 	24 
1800	5     	22.9 	0.7     	21 	24 
1801	5     	22.9 	0.7     	21 	24 
1802	5     	22.9 	0.7     	21 	24 
1803	5     	22.9 	0.7     	21 	24 
1804	5     	22.9 	0.7     	21 	24 
1805	5     	22.9 	0.7     	21 	24 
1806	5     	22.9 	0.7     	21 	24 
1807	5     	22.85	0.653835	21 	24 
1808	5     	22.85	0.653835	21 	24 
1809	5     	22.85	0.653835	21 	24 
1810	5     	22.85	0.653835	21 	24 
1811	5     	22.85	0.653835	21 	24 
1812	5     	22.85	0.653835	21 	24 
1813	5     	22.85	0.653835	21 	24 
1814	5     	22.85	0.653835	21 	24 
1815	5     	22.85	0.653835	21 	24 
1816	5     	22.85	0.653835	21 	24 
1817	5     	22.85	0.653835	21 	24 
1818	5     	22.85	0.653835	21 	24 
1819	5     	22.85	0.653835	21 	24 
1820	5     	22.85	0.653835	21 	24 
1821	5     	22.85	0.653835	21 	24 
1822	5     	22.85	0.653835	21 	24 
1823	5     	22.85	0.653835	21 	24 
1824	5     	22.85	0.653835	21 	24 
1825	5     	22.85	0.653835	21 	24 
1826	5     	22.85	0.653835	21 	24 
1827	5     	22.85	0.653835	21 	24 
1828	5     	22.85	0.653835	21 	24 
1829	5     	22.85	0.653835	21 	24 
1830	5     	22.85	0.653835	21 	24 
1831	5     	22.85	0.653835	21 	24 
1832	5     	22.85	0.653835	21 	24 
1833	5     	22.85	0.653835	21 	24 
1834	5     	22.85	0.653835	21 	24 
1835	5     	22.85	0.653835	21 	24 
1836	5     	22.85	0.653835	21 	24 
1837	5     	22.85	0.653835	21 	24 
1838	5     	22.85	0.653835	21 	24 
1839	5     	22.85	0.653835	21 	24 
1840	5     	22.85	0.653835	21 	24 
1841	5     	22.85	0.653835	21 	24 
1842	5     	22.85	0.653835	21 	24 
1843	5     	22.85	0.653835	21 	24 
1844	5     	22.85	0.653835	21 	24 
1845	5     	22.85	0.653835	21 	24 
1846	5     	22.85	0.653835	21 	24 
1847	5     	22.85	0.653835	21 	24 
1848	5     	22.85	0.653835	21 	24 
1849	5     	22.85	0.653835	21 	24 
1850	5     	22.85	0.653835	21 	24 
1851	5     	22.85	0.653835	21 	24 
1852	5     	22.85	0.653835	21 	24 
1853	5     	22.85	0.653835	21 	24 
1854	5     	22.85	0.653835	21 	24 
1855	5     	22.85	0.653835	21 	24 
1856	5     	22.85	0.653835	21 	24 
1857	5     	22.85	0.653835	21 	24 
1858	5     	22.85	0.653835	21 	24 
1859	5     	22.85	0.653835	21 	24 
1860	5     	22.85	0.653835	21 	24 
1861	5     	22.85	0.653835	21 	24 
1862	5     	22.85	0.653835	21 	24 
1863	5     	22.85	0.653835	21 	24 
1864	5     	22.85	0.653835	21 	24 
1865	5     	22.85	0.653835	21 	24 
1866	5     	22.85	0.653835	21 	24 
1867	5     	22.85	0.653835	21 	24 
1868	5     	22.85	0.653835	21 	24 
1869	5     	22.85	0.653835	21 	24 
1870	5     	22.85	0.653835	21 	24 
1871	5     	22.85	0.653835	21 	24 
1872	5     	22.85	0.653835	21 	24 
1873	5     	22.85	0.653835	21 	24 
1874	5     	22.85	0.653835	21 	24 
1875	5     	22.85	0.653835	21 	24 
1876	5     	22.85	0.653835	21 	24 
1877	5     	22.85	0.653835	21 	24 
1878	5     	22.75	0.622495	21 	24 
1879	5     	22.75	0.622495	21 	24 
1880	5     	22.75	0.622495	21 	24 
1881	5     	22.75	0.622495	21 	24 
1882	5     	22.75	0.622495	21 	24 
1883	5     	22.75	0.622495	21 	24 
1884	5     	22.75	0.622495	21 	24 
1885	5     	22.75	0.622495	21 	24 
1886	5     	22.75	0.622495	21 	24 
1887	5     	22.75	0.622495	21 	24 
1888	5     	22.75	0.622495	21 	24 
1889	5     	22.75	0.622495	21 	24 
1890	5     	22.75	0.622495	21 	24 
1891	5     	22.75	0.622495	21 	24 
1892	5     	22.75	0.622495	21 	24 
1893	5     	22.75	0.622495	21 	24 
1894	5     	22.75	0.622495	21 	24 
1895	5     	22.75	0.622495	21 	24 
1896	5     	22.75	0.622495	21 	24 
1897	5     	22.75	0.622495	21 	24 
1898	5     	22.75	0.622495	21 	24 
1899	5     	22.75	0.622495	21 	24 
1900	5     	22.75	0.622495	21 	24 
1901	5     	22.75	0.622495	21 	24 
1902	5     	22.75	0.622495	21 	24 
1903	5     	22.75	0.622495	21 	24 
1904	5     	22.75	0.622495	21 	24 
1905	5     	22.75	0.622495	21 	24 
1906	5     	22.75	0.622495	21 	24 
1907	5     	22.75	0.622495	21 	24 
1908	5     	22.75	0.622495	21 	24 
1909	5     	22.75	0.622495	21 	24 
1910	5     	22.75	0.622495	21 	24 
1911	5     	22.75	0.622495	21 	24 
1912	5     	22.75	0.622495	21 	24 
1913	5     	22.75	0.622495	21 	24 
1914	5     	22.75	0.622495	21 	24 
1915	5     	22.75	0.622495	21 	24 
1916	5     	22.75	0.622495	21 	24 
1917	5     	22.75	0.622495	21 	24 
1918	5     	22.75	0.622495	21 	24 
1919	5     	22.75	0.622495	21 	24 
1920	5     	22.75	0.622495	21 	24 
1921	5     	22.75	0.622495	21 	24 
1922	5     	22.75	0.622495	21 	24 
1923	5     	22.75	0.622495	21 	24 
1924	5     	22.75	0.622495	21 	24 
1925	5     	22.75	0.622495	21 	24 
1926	5     	22.75	0.622495	21 	24 
1927	5     	22.75	0.622495	21 	24 
1928	5     	22.75	0.622495	21 	24 
1929	5     	22.75	0.622495	21 	24 
1930	5     	22.75	0.622495	21 	24 
1931	5     	22.75	0.622495	21 	24 
1932	5     	22.75	0.622495	21 	24 
1933	5     	22.75	0.622495	21 	24 
1934	5     	22.75	0.622495	21 	24 
1935	5     	22.75	0.622495	21 	24 
1936	5     	22.75	0.622495	21 	24 
1937	5     	22.75	0.622495	21 	24 
1938	5     	22.75	0.622495	21 	24 
1939	5     	22.75	0.622495	21 	24 
1940	5     	22.75	0.622495	21 	24 
1941	5     	22.75	0.622495	21 	24 
1942	5     	22.75	0.622495	21 	24 
1943	5     	22.75	0.622495	21 	24 
1944	5     	22.75	0.622495	21 	24 
1945	5     	22.75	0.622495	21 	24 
1946	5     	22.75	0.622495	21 	24 
1947	5     	22.75	0.622495	21 	24 
1948	5     	22.75	0.622495	21 	24 
1949	5     	22.75	0.622495	21 	24 
1950	5     	22.75	0.622495	21 	24 
1951	5     	22.75	0.622495	21 	24 
1952	5     	22.75	0.622495	21 	24 
1953	5     	22.75	0.622495	21 	24 
1954	5     	22.75	0.622495	21 	24 
1955	5     	22.75	0.622495	21 	24 
1956	5     	22.75	0.622495	21 	24 
1957	5     	22.75	0.622495	21 	24 
1958	5     	22.75	0.622495	21 	24 
1959	5     	22.75	0.622495	21 	24 
1960	5     	22.7 	0.556776	21 	23 
1961	5     	22.7 	0.556776	21 	23 
1962	5     	22.7 	0.556776	21 	23 
1963	5     	22.7 	0.556776	21 	23 
1964	5     	22.7 	0.556776	21 	23 
1965	5     	22.7 	0.556776	21 	23 
1966	5     	22.7 	0.556776	21 	23 
1967	5     	22.7 	0.556776	21 	23 
1968	5     	22.7 	0.556776	21 	23 
1969	5     	22.7 	0.556776	21 	23 
1970	5     	22.7 	0.556776	21 	23 
1971	5     	22.7 	0.556776	21 	23 
1972	5     	22.7 	0.556776	21 	23 
1973	5     	22.7 	0.556776	21 	23 
1974	5     	22.7 	0.556776	21 	23 
1975	5     	22.7 	0.556776	21 	23 
1976	5     	22.7 	0.556776	21 	23 
1977	5     	22.7 	0.556776	21 	23 
1978	5     	22.7 	0.556776	21 	23 
1979	5     	22.7 	0.556776	21 	23 
1980	5     	22.7 	0.556776	21 	23 
1981	5     	22.7 	0.556776	21 	23 
1982	5     	22.7 	0.556776	21 	23 
1983	5     	22.7 	0.556776	21 	23 
1984	5     	22.7 	0.556776	21 	23 
1985	5     	22.7 	0.556776	21 	23 
1986	5     	22.7 	0.556776	21 	23 
1987	5     	22.7 	0.556776	21 	23 
1988	5     	22.7 	0.556776	21 	23 
1989	5     	22.7 	0.556776	21 	23 
1990	5     	22.7 	0.556776	21 	23 
1991	5     	22.7 	0.556776	21 	23 
1992	5     	22.7 	0.556776	21 	23 
1993	5     	22.7 	0.556776	21 	23 
1994	5     	22.7 	0.556776	21 	23 
1995	5     	22.7 	0.556776	21 	23 
1996	5     	22.7 	0.556776	21 	23 
