gen 	nevals	avg  	std     	min	max
0   	20    	50.8 	4.65403 	43 	61 
1   	5     	50   	3.64692 	43 	56 
2   	5     	48.65	2.81558 	43 	54 
3   	5     	48.3 	2.55147 	43 	54 
4   	5     	48.15	2.28637 	43 	52 
5   	5     	48.15	2.28637 	43 	52 
6   	5     	47.4 	2.37487 	42 	51 
7   	5     	47.25	2.23327 	42 	51 
8   	5     	46.9 	2.16564 	42 	50 
9   	5     	46.7 	2.05183 	42 	50 
10  	5     	46.35	1.82414 	42 	49 
11  	5     	46.25	1.69926 	42 	48 
12  	5     	45.35	2.10416 	41 	48 
13  	5     	45.35	2.10416 	41 	48 
14  	5     	45.1 	2.07123 	41 	48 
15  	5     	45.1 	2.07123 	41 	48 
16  	5     	44.8 	2.06398 	41 	48 
17  	5     	44.6 	1.93391 	41 	47 
18  	5     	44.2 	2.03961 	40 	47 
19  	5     	44.2 	2.03961 	40 	47 
20  	5     	44.05	1.93585 	40 	47 
21  	5     	44.05	1.93585 	40 	47 
22  	5     	44   	1.87083 	40 	46 
23  	5     	43.85	1.82414 	40 	46 
24  	5     	43.6 	1.68523 	40 	46 
25  	5     	43.6 	1.68523 	40 	46 
26  	5     	43.6 	1.68523 	40 	46 
27  	5     	43.55	1.62711 	40 	46 
28  	5     	43.55	1.62711 	40 	46 
29  	5     	43.55	1.62711 	40 	46 
30  	5     	43.55	1.62711 	40 	46 
31  	5     	43.55	1.62711 	40 	46 
32  	5     	43.45	1.53216 	40 	46 
33  	5     	43.2 	1.50333 	40 	46 
34  	5     	42.95	1.43091 	40 	45 
35  	5     	42.95	1.43091 	40 	45 
36  	5     	42.9 	1.37477 	40 	45 
37  	5     	42.9 	1.37477 	40 	45 
38  	5     	42.9 	1.37477 	40 	45 
39  	5     	42.9 	1.37477 	40 	45 
40  	5     	42.85	1.31434 	40 	45 
41  	5     	42.85	1.31434 	40 	45 
42  	5     	42.75	1.21963 	40 	44 
43  	5     	42.75	1.21963 	40 	44 
44  	5     	42.75	1.21963 	40 	44 
45  	5     	42.75	1.21963 	40 	44 
46  	5     	42.75	1.21963 	40 	44 
47  	5     	42.75	1.21963 	40 	44 
48  	5     	42.75	1.21963 	40 	44 
49  	5     	42.75	1.21963 	40 	44 
50  	5     	42.75	1.21963 	40 	44 
51  	5     	42.75	1.21963 	40 	44 
52  	5     	42.75	1.21963 	40 	44 
53  	5     	42.75	1.21963 	40 	44 
54  	5     	42.75	1.21963 	40 	44 
55  	5     	42.75	1.21963 	40 	44 
56  	5     	42.75	1.21963 	40 	44 
57  	5     	42.75	1.21963 	40 	44 
58  	5     	42.75	1.21963 	40 	44 
59  	5     	42.75	1.21963 	40 	44 
60  	5     	42.55	1.32193 	40 	44 
61  	5     	42.45	1.28355 	40 	44 
62  	5     	42.45	1.28355 	40 	44 
63  	5     	42.45	1.28355 	40 	44 
64  	5     	42.45	1.28355 	40 	44 
65  	5     	42.35	1.23592 	40 	44 
66  	5     	42.35	1.23592 	40 	44 
67  	5     	42.35	1.23592 	40 	44 
68  	5     	42.35	1.23592 	40 	44 
69  	5     	42.35	1.23592 	40 	44 
70  	5     	42.3 	1.18743 	40 	44 
71  	5     	42.3 	1.18743 	40 	44 
72  	5     	42.3 	1.18743 	40 	44 
73  	5     	42.3 	1.18743 	40 	44 
74  	5     	42.3 	1.18743 	40 	44 
75  	5     	42.3 	1.18743 	40 	44 
76  	5     	42.3 	1.18743 	40 	44 
77  	5     	42.3 	1.18743 	40 	44 
78  	5     	42.3 	1.18743 	40 	44 
79  	5     	42.3 	1.18743 	40 	44 
80  	5     	42.3 	1.18743 	40 	44 
81  	5     	42.3 	1.18743 	40 	44 
82  	5     	42.05	1.32193 	39 	44 
83  	5     	42.05	1.32193 	39 	44 
84  	5     	42.05	1.32193 	39 	44 
85  	5     	42.05	1.32193 	39 	44 
86  	5     	42.05	1.32193 	39 	44 
87  	5     	42.05	1.32193 	39 	44 
88  	5     	42.05	1.32193 	39 	44 
89  	5     	42.05	1.32193 	39 	44 
90  	5     	42.05	1.32193 	39 	44 
91  	5     	42.05	1.32193 	39 	44 
92  	5     	42.05	1.32193 	39 	44 
93  	5     	42.05	1.32193 	39 	44 
94  	5     	41.9 	1.26095 	39 	44 
95  	5     	41.9 	1.26095 	39 	44 
96  	5     	41.9 	1.26095 	39 	44 
97  	5     	41.9 	1.26095 	39 	44 
98  	5     	41.9 	1.26095 	39 	44 
99  	5     	41.8 	1.16619 	39 	43 
100 	5     	41.8 	1.16619 	39 	43 
101 	5     	41.8 	1.16619 	39 	43 
102 	5     	41.75	1.13468 	39 	43 
103 	5     	41.75	1.13468 	39 	43 
104 	5     	41.75	1.13468 	39 	43 
105 	5     	41.75	1.13468 	39 	43 
106 	5     	41.75	1.13468 	39 	43 
107 	5     	41.75	1.13468 	39 	43 
108 	5     	41.65	1.10793 	39 	43 
109 	5     	41.65	1.10793 	39 	43 
110 	5     	41.65	1.10793 	39 	43 
111 	5     	41.65	1.10793 	39 	43 
112 	5     	41.65	1.10793 	39 	43 
113 	5     	41.65	1.10793 	39 	43 
114 	5     	41.65	1.10793 	39 	43 
115 	5     	41.65	1.10793 	39 	43 
116 	5     	41.65	1.10793 	39 	43 
117 	5     	41.65	1.10793 	39 	43 
118 	5     	41.65	1.10793 	39 	43 
119 	5     	41.65	1.10793 	39 	43 
120 	5     	41.65	1.10793 	39 	43 
121 	5     	41.65	1.10793 	39 	43 
122 	5     	41.65	1.10793 	39 	43 
123 	5     	41.65	1.10793 	39 	43 
124 	5     	41.65	1.10793 	39 	43 
125 	5     	41.65	1.10793 	39 	43 
126 	5     	41.65	1.10793 	39 	43 
127 	5     	41.65	1.10793 	39 	43 
128 	5     	41.65	1.10793 	39 	43 
129 	5     	41.65	1.10793 	39 	43 
130 	5     	41.65	1.10793 	39 	43 
131 	5     	41.65	1.10793 	39 	43 
132 	5     	41.65	1.10793 	39 	43 
133 	5     	41.65	1.10793 	39 	43 
134 	5     	41.65	1.10793 	39 	43 
135 	5     	41.65	1.10793 	39 	43 
136 	5     	41.65	1.10793 	39 	43 
137 	5     	41.65	1.10793 	39 	43 
138 	5     	41.65	1.10793 	39 	43 
139 	5     	41.65	1.10793 	39 	43 
140 	5     	41.65	1.10793 	39 	43 
141 	5     	41.65	1.10793 	39 	43 
142 	5     	41.65	1.10793 	39 	43 
143 	5     	41.55	1.07121 	39 	43 
144 	5     	41.55	1.07121 	39 	43 
145 	5     	41.55	1.07121 	39 	43 
146 	5     	41.55	1.07121 	39 	43 
147 	5     	41.55	1.07121 	39 	43 
148 	5     	41.55	1.07121 	39 	43 
149 	5     	41.55	1.07121 	39 	43 
150 	5     	41.3 	1.00499 	39 	43 
151 	5     	41.3 	1.00499 	39 	43 
152 	5     	41.3 	1.00499 	39 	43 
153 	5     	41.3 	1.00499 	39 	43 
154 	5     	41.3 	1.00499 	39 	43 
155 	5     	41.3 	1.00499 	39 	43 
156 	5     	41.3 	1.00499 	39 	43 
157 	5     	41.3 	1.00499 	39 	43 
158 	5     	41.3 	1.00499 	39 	43 
159 	5     	41.3 	1.00499 	39 	43 
160 	5     	41.3 	1.00499 	39 	43 
161 	5     	41.3 	1.00499 	39 	43 
162 	5     	41.3 	1.00499 	39 	43 
163 	5     	41.3 	1.00499 	39 	43 
164 	5     	41.3 	1.00499 	39 	43 
165 	5     	41.3 	1.00499 	39 	43 
166 	5     	41.3 	1.00499 	39 	43 
167 	5     	41.2 	0.927362	39 	43 
168 	5     	41   	0.948683	39 	42 
169 	5     	41   	0.948683	39 	42 
170 	5     	41   	0.948683	39 	42 
171 	5     	41   	0.948683	39 	42 
172 	5     	41   	0.948683	39 	42 
173 	5     	41   	0.948683	39 	42 
174 	5     	41   	0.948683	39 	42 
175 	5     	41   	0.948683	39 	42 
176 	5     	41   	0.948683	39 	42 
177 	5     	41   	0.948683	39 	42 
178 	5     	41   	0.948683	39 	42 
179 	5     	41   	0.948683	39 	42 
180 	5     	41   	0.948683	39 	42 
181 	5     	41   	0.948683	39 	42 
182 	5     	41   	0.948683	39 	42 
183 	5     	41   	0.948683	39 	42 
184 	5     	41   	0.948683	39 	42 
185 	5     	41   	0.948683	39 	42 
186 	5     	41   	0.948683	39 	42 
187 	5     	41   	0.948683	39 	42 
188 	5     	41   	0.948683	39 	42 
189 	5     	41   	0.948683	39 	42 
190 	5     	41   	0.948683	39 	42 
191 	5     	41   	0.948683	39 	42 
192 	5     	41   	0.948683	39 	42 
193 	5     	41   	0.948683	39 	42 
194 	5     	41   	0.948683	39 	42 
195 	5     	41   	0.948683	39 	42 
196 	5     	41   	0.948683	39 	42 
197 	5     	41   	0.948683	39 	42 
198 	5     	41   	0.948683	39 	42 
199 	5     	41   	0.948683	39 	42 
200 	5     	41   	0.948683	39 	42 
201 	5     	41   	0.948683	39 	42 
202 	5     	41   	0.948683	39 	42 
203 	5     	41   	0.948683	39 	42 
204 	5     	41   	0.948683	39 	42 
205 	5     	41   	0.948683	39 	42 
206 	5     	41   	0.948683	39 	42 
207 	5     	41   	0.948683	39 	42 
208 	5     	41   	0.948683	39 	42 
209 	5     	41   	0.948683	39 	42 
210 	5     	41   	0.948683	39 	42 
211 	5     	41   	0.948683	39 	42 
212 	5     	41   	0.948683	39 	42 
213 	5     	41   	0.948683	39 	42 
214 	5     	41   	0.948683	39 	42 
215 	5     	41   	0.948683	39 	42 
216 	5     	41   	0.948683	39 	42 
217 	5     	41   	0.948683	39 	42 
218 	5     	41   	0.948683	39 	42 
219 	5     	41   	0.948683	39 	42 
220 	5     	41   	0.948683	39 	42 
221 	5     	41   	0.948683	39 	42 
222 	5     	41   	0.948683	39 	42 
223 	5     	41   	0.948683	39 	42 
224 	5     	41   	0.948683	39 	42 
225 	5     	41   	0.948683	39 	42 
226 	5     	41   	0.948683	39 	42 
227 	5     	41   	0.948683	39 	42 
228 	5     	41   	0.948683	39 	42 
229 	5     	41   	0.948683	39 	42 
230 	5     	41   	0.948683	39 	42 
231 	5     	41   	0.948683	39 	42 
232 	5     	41   	0.948683	39 	42 
233 	5     	41   	0.948683	39 	42 
234 	5     	40.9 	0.943398	39 	42 
235 	5     	40.9 	0.943398	39 	42 
236 	5     	40.9 	0.943398	39 	42 
237 	5     	40.8 	0.927362	39 	42 
238 	5     	40.8 	0.927362	39 	42 
239 	5     	40.8 	0.927362	39 	42 
240 	5     	40.8 	0.927362	39 	42 
241 	5     	40.8 	0.927362	39 	42 
242 	5     	40.8 	0.927362	39 	42 
243 	5     	40.8 	0.927362	39 	42 
244 	5     	40.8 	0.927362	39 	42 
245 	5     	40.8 	0.927362	39 	42 
246 	5     	40.8 	0.927362	39 	42 
247 	5     	40.8 	0.927362	39 	42 
248 	5     	40.8 	0.927362	39 	42 
249 	5     	40.8 	0.927362	39 	42 
250 	5     	40.8 	0.927362	39 	42 
251 	5     	40.8 	0.927362	39 	42 
252 	5     	40.8 	0.927362	39 	42 
253 	5     	40.8 	0.927362	39 	42 
254 	5     	40.8 	0.927362	39 	42 
255 	5     	40.8 	0.927362	39 	42 
256 	5     	40.8 	0.927362	39 	42 
257 	5     	40.8 	0.927362	39 	42 
258 	5     	40.8 	0.927362	39 	42 
259 	5     	40.8 	0.927362	39 	42 
260 	5     	40.8 	0.927362	39 	42 
261 	5     	40.8 	0.927362	39 	42 
262 	5     	40.8 	0.927362	39 	42 
263 	5     	40.8 	0.927362	39 	42 
264 	5     	40.8 	0.927362	39 	42 
265 	5     	40.75	0.887412	39 	42 
266 	5     	40.75	0.887412	39 	42 
267 	5     	40.75	0.887412	39 	42 
268 	5     	40.75	0.887412	39 	42 
269 	5     	40.75	0.887412	39 	42 
270 	5     	40.75	0.887412	39 	42 
271 	5     	40.75	0.887412	39 	42 
272 	5     	40.75	0.887412	39 	42 
273 	5     	40.75	0.887412	39 	42 
274 	5     	40.75	0.887412	39 	42 
275 	5     	40.75	0.887412	39 	42 
276 	5     	40.75	0.887412	39 	42 
277 	5     	40.75	0.887412	39 	42 
278 	5     	40.75	0.887412	39 	42 
279 	5     	40.75	0.887412	39 	42 
280 	5     	40.75	0.887412	39 	42 
281 	5     	40.75	0.887412	39 	42 
282 	5     	40.75	0.887412	39 	42 
283 	5     	40.75	0.887412	39 	42 
284 	5     	40.75	0.887412	39 	42 
285 	5     	40.75	0.887412	39 	42 
286 	5     	40.75	0.887412	39 	42 
287 	5     	40.75	0.887412	39 	42 
288 	5     	40.75	0.887412	39 	42 
289 	5     	40.75	0.887412	39 	42 
290 	5     	40.75	0.887412	39 	42 
291 	5     	40.75	0.887412	39 	42 
292 	5     	40.75	0.887412	39 	42 
293 	5     	40.75	0.887412	39 	42 
294 	5     	40.75	0.887412	39 	42 
295 	5     	40.75	0.887412	39 	42 
296 	5     	40.75	0.887412	39 	42 
297 	5     	40.75	0.887412	39 	42 
298 	5     	40.75	0.887412	39 	42 
299 	5     	40.75	0.887412	39 	42 
300 	5     	40.75	0.887412	39 	42 
301 	5     	40.75	0.887412	39 	42 
302 	5     	40.75	0.887412	39 	42 
303 	5     	40.75	0.887412	39 	42 
304 	5     	40.75	0.887412	39 	42 
305 	5     	40.75	0.887412	39 	42 
306 	5     	40.75	0.887412	39 	42 
307 	5     	40.75	0.887412	39 	42 
308 	5     	40.75	0.887412	39 	42 
309 	5     	40.75	0.887412	39 	42 
310 	5     	40.75	0.887412	39 	42 
311 	5     	40.75	0.887412	39 	42 
312 	5     	40.75	0.887412	39 	42 
313 	5     	40.75	0.887412	39 	42 
314 	5     	40.75	0.887412	39 	42 
315 	5     	40.75	0.887412	39 	42 
316 	5     	40.75	0.887412	39 	42 
317 	5     	40.75	0.887412	39 	42 
318 	5     	40.75	0.887412	39 	42 
319 	5     	40.75	0.887412	39 	42 
320 	5     	40.75	0.887412	39 	42 
321 	5     	40.75	0.887412	39 	42 
322 	5     	40.75	0.887412	39 	42 
323 	5     	40.75	0.887412	39 	42 
324 	5     	40.75	0.887412	39 	42 
325 	5     	40.65	0.852936	39 	42 
326 	5     	40.65	0.852936	39 	42 
327 	5     	40.55	0.804674	39 	42 
328 	5     	40.55	0.804674	39 	42 
329 	5     	40.55	0.804674	39 	42 
330 	5     	40.55	0.804674	39 	42 
331 	5     	40.55	0.804674	39 	42 
332 	5     	40.55	0.804674	39 	42 
333 	5     	40.55	0.804674	39 	42 
334 	5     	40.55	0.804674	39 	42 
335 	5     	40.45	0.739932	39 	42 
336 	5     	40.45	0.739932	39 	42 
337 	5     	40.45	0.739932	39 	42 
338 	5     	40.3 	0.714143	39 	41 
339 	5     	40.3 	0.714143	39 	41 
340 	5     	40.3 	0.714143	39 	41 
341 	5     	40.3 	0.714143	39 	41 
342 	5     	40.3 	0.714143	39 	41 
343 	5     	40.3 	0.714143	39 	41 
344 	5     	40.3 	0.714143	39 	41 
345 	5     	40.3 	0.714143	39 	41 
346 	5     	40.3 	0.714143	39 	41 
347 	5     	40.3 	0.714143	39 	41 
348 	5     	40.3 	0.714143	39 	41 
349 	5     	40.3 	0.714143	39 	41 
350 	5     	40.3 	0.714143	39 	41 
351 	5     	40.3 	0.714143	39 	41 
352 	5     	40.3 	0.714143	39 	41 
353 	5     	40.3 	0.714143	39 	41 
354 	5     	40.3 	0.714143	39 	41 
355 	5     	40.3 	0.714143	39 	41 
356 	5     	40.3 	0.714143	39 	41 
357 	5     	40.3 	0.714143	39 	41 
358 	5     	40.3 	0.714143	39 	41 
359 	5     	40.3 	0.714143	39 	41 
360 	5     	40.3 	0.714143	39 	41 
361 	5     	40.3 	0.714143	39 	41 
362 	5     	40.3 	0.714143	39 	41 
363 	5     	40.3 	0.714143	39 	41 
364 	5     	40.3 	0.714143	39 	41 
365 	5     	40.3 	0.714143	39 	41 
366 	5     	40.3 	0.714143	39 	41 
367 	5     	40.3 	0.714143	39 	41 
368 	5     	40.3 	0.714143	39 	41 
369 	5     	40.3 	0.714143	39 	41 
370 	5     	40.3 	0.714143	39 	41 
371 	5     	40.3 	0.714143	39 	41 
372 	5     	40.3 	0.714143	39 	41 
373 	5     	40.3 	0.714143	39 	41 
374 	5     	40.3 	0.714143	39 	41 
375 	5     	40.3 	0.714143	39 	41 
376 	5     	40.3 	0.714143	39 	41 
377 	5     	40.2 	0.748331	39 	41 
378 	5     	40.2 	0.748331	39 	41 
379 	5     	40.2 	0.748331	39 	41 
380 	5     	40.2 	0.748331	39 	41 
381 	5     	40.2 	0.748331	39 	41 
382 	5     	40.2 	0.748331	39 	41 
383 	5     	40.1 	0.768115	39 	41 
384 	5     	40.1 	0.768115	39 	41 
385 	5     	40.1 	0.768115	39 	41 
386 	5     	40.1 	0.768115	39 	41 
387 	5     	40.1 	0.768115	39 	41 
388 	5     	40.1 	0.768115	39 	41 
389 	5     	40.1 	0.768115	39 	41 
390 	5     	40.1 	0.768115	39 	41 
391 	5     	40.1 	0.768115	39 	41 
392 	5     	40.1 	0.768115	39 	41 
393 	5     	40.1 	0.768115	39 	41 
394 	5     	40.1 	0.768115	39 	41 
395 	5     	40.1 	0.768115	39 	41 
396 	5     	40.1 	0.768115	39 	41 
397 	5     	40.1 	0.768115	39 	41 
398 	5     	40.1 	0.768115	39 	41 
399 	5     	40.1 	0.768115	39 	41 
400 	5     	40.1 	0.768115	39 	41 
401 	5     	40.1 	0.768115	39 	41 
402 	5     	40.1 	0.768115	39 	41 
403 	5     	40.1 	0.768115	39 	41 
404 	5     	40.1 	0.768115	39 	41 
405 	5     	40.1 	0.768115	39 	41 
406 	5     	40.1 	0.768115	39 	41 
407 	5     	40.1 	0.768115	39 	41 
408 	5     	40.1 	0.768115	39 	41 
409 	5     	40.1 	0.768115	39 	41 
410 	5     	40.1 	0.768115	39 	41 
411 	5     	40.1 	0.768115	39 	41 
412 	5     	40.1 	0.768115	39 	41 
413 	5     	40.1 	0.768115	39 	41 
414 	5     	40.1 	0.768115	39 	41 
415 	5     	40.1 	0.768115	39 	41 
416 	5     	40.1 	0.768115	39 	41 
417 	5     	40.1 	0.768115	39 	41 
418 	5     	40.1 	0.768115	39 	41 
419 	5     	40.1 	0.768115	39 	41 
420 	5     	40.1 	0.768115	39 	41 
421 	5     	40.1 	0.768115	39 	41 
422 	5     	40.1 	0.768115	39 	41 
423 	5     	40.05	0.739932	39 	41 
424 	5     	40.05	0.739932	39 	41 
425 	5     	40.05	0.739932	39 	41 
426 	5     	40.05	0.739932	39 	41 
427 	5     	40.05	0.739932	39 	41 
428 	5     	40.05	0.739932	39 	41 
429 	5     	40.05	0.739932	39 	41 
430 	5     	40.05	0.739932	39 	41 
431 	5     	40.05	0.739932	39 	41 
432 	5     	40.05	0.739932	39 	41 
433 	5     	40.05	0.739932	39 	41 
434 	5     	40.05	0.739932	39 	41 
435 	5     	40.05	0.739932	39 	41 
436 	5     	40.05	0.739932	39 	41 
437 	5     	40.05	0.739932	39 	41 
438 	5     	40.05	0.739932	39 	41 
439 	5     	40.05	0.739932	39 	41 
440 	5     	39.95	0.739932	39 	41 
441 	5     	39.95	0.739932	39 	41 
442 	5     	39.95	0.739932	39 	41 
443 	5     	39.95	0.739932	39 	41 
444 	5     	39.95	0.739932	39 	41 
445 	5     	39.95	0.739932	39 	41 
446 	5     	39.95	0.739932	39 	41 
447 	5     	39.95	0.739932	39 	41 
448 	5     	39.95	0.739932	39 	41 
449 	5     	39.95	0.739932	39 	41 
450 	5     	39.95	0.739932	39 	41 
451 	5     	39.95	0.739932	39 	41 
452 	5     	39.95	0.739932	39 	41 
453 	5     	39.95	0.739932	39 	41 
454 	5     	39.95	0.739932	39 	41 
455 	5     	39.95	0.739932	39 	41 
456 	5     	39.95	0.739932	39 	41 
457 	5     	39.95	0.739932	39 	41 
458 	5     	39.95	0.739932	39 	41 
459 	5     	39.95	0.739932	39 	41 
460 	5     	39.95	0.739932	39 	41 
461 	5     	39.95	0.739932	39 	41 
462 	5     	39.95	0.739932	39 	41 
463 	5     	39.95	0.739932	39 	41 
464 	5     	39.95	0.739932	39 	41 
465 	5     	39.95	0.739932	39 	41 
466 	5     	39.95	0.739932	39 	41 
467 	5     	39.95	0.739932	39 	41 
468 	5     	39.95	0.739932	39 	41 
469 	5     	39.95	0.739932	39 	41 
470 	5     	39.95	0.739932	39 	41 
471 	5     	39.95	0.739932	39 	41 
472 	5     	39.95	0.739932	39 	41 
473 	5     	39.95	0.739932	39 	41 
474 	5     	39.95	0.739932	39 	41 
475 	5     	39.95	0.739932	39 	41 
476 	5     	39.95	0.739932	39 	41 
477 	5     	39.95	0.739932	39 	41 
478 	5     	39.9 	0.7     	39 	41 
479 	5     	39.9 	0.7     	39 	41 
480 	5     	39.9 	0.7     	39 	41 
481 	5     	39.9 	0.7     	39 	41 
482 	5     	39.9 	0.7     	39 	41 
483 	5     	39.9 	0.7     	39 	41 
484 	5     	39.9 	0.7     	39 	41 
485 	5     	39.9 	0.7     	39 	41 
486 	5     	39.9 	0.7     	39 	41 
487 	5     	39.8 	0.678233	39 	41 
488 	5     	39.8 	0.678233	39 	41 
489 	5     	39.8 	0.678233	39 	41 
490 	5     	39.8 	0.678233	39 	41 
491 	5     	39.8 	0.678233	39 	41 
492 	5     	39.8 	0.678233	39 	41 
493 	5     	39.8 	0.678233	39 	41 
494 	5     	39.8 	0.678233	39 	41 
495 	5     	39.8 	0.678233	39 	41 
496 	5     	39.8 	0.678233	39 	41 
497 	5     	39.8 	0.678233	39 	41 
498 	5     	39.8 	0.678233	39 	41 
499 	5     	39.8 	0.678233	39 	41 
500 	5     	39.8 	0.678233	39 	41 
501 	5     	39.8 	0.678233	39 	41 
502 	5     	39.8 	0.678233	39 	41 
503 	5     	39.8 	0.678233	39 	41 
504 	5     	39.8 	0.678233	39 	41 
505 	5     	39.8 	0.678233	39 	41 
506 	5     	39.8 	0.678233	39 	41 
507 	5     	39.8 	0.678233	39 	41 
508 	5     	39.8 	0.678233	39 	41 
509 	5     	39.8 	0.678233	39 	41 
510 	5     	39.8 	0.678233	39 	41 
511 	5     	39.8 	0.678233	39 	41 
512 	5     	39.8 	0.678233	39 	41 
513 	5     	39.8 	0.678233	39 	41 
514 	5     	39.75	0.622495	39 	41 
515 	5     	39.75	0.622495	39 	41 
516 	5     	39.75	0.622495	39 	41 
517 	5     	39.75	0.622495	39 	41 
518 	5     	39.75	0.622495	39 	41 
519 	5     	39.75	0.622495	39 	41 
520 	5     	39.75	0.622495	39 	41 
521 	5     	39.75	0.622495	39 	41 
522 	5     	39.75	0.622495	39 	41 
523 	5     	39.75	0.622495	39 	41 
524 	5     	39.75	0.622495	39 	41 
525 	5     	39.75	0.622495	39 	41 
526 	5     	39.75	0.622495	39 	41 
527 	5     	39.75	0.622495	39 	41 
528 	5     	39.75	0.622495	39 	41 
529 	5     	39.75	0.622495	39 	41 
530 	5     	39.75	0.622495	39 	41 
531 	5     	39.75	0.622495	39 	41 
532 	5     	39.75	0.622495	39 	41 
533 	5     	39.75	0.622495	39 	41 
534 	5     	39.75	0.622495	39 	41 
535 	5     	39.75	0.622495	39 	41 
536 	5     	39.75	0.622495	39 	41 
537 	5     	39.75	0.622495	39 	41 
538 	5     	39.75	0.622495	39 	41 
539 	5     	39.75	0.622495	39 	41 
540 	5     	39.75	0.622495	39 	41 
541 	5     	39.75	0.622495	39 	41 
542 	5     	39.75	0.622495	39 	41 
543 	5     	39.75	0.622495	39 	41 
544 	5     	39.75	0.622495	39 	41 
545 	5     	39.75	0.622495	39 	41 
546 	5     	39.7 	0.556776	39 	41 
547 	5     	39.7 	0.556776	39 	41 
548 	5     	39.65	0.47697 	39 	40 
549 	5     	39.65	0.47697 	39 	40 
550 	5     	39.65	0.47697 	39 	40 
551 	5     	39.65	0.47697 	39 	40 
552 	5     	39.65	0.47697 	39 	40 
553 	5     	39.65	0.47697 	39 	40 
554 	5     	39.65	0.47697 	39 	40 
555 	5     	39.6 	0.489898	39 	40 
556 	5     	39.6 	0.489898	39 	40 
557 	5     	39.6 	0.489898	39 	40 
558 	5     	39.6 	0.489898	39 	40 
559 	5     	39.6 	0.489898	39 	40 
560 	5     	39.6 	0.489898	39 	40 
561 	5     	39.6 	0.489898	39 	40 
562 	5     	39.6 	0.489898	39 	40 
563 	5     	39.6 	0.489898	39 	40 
564 	5     	39.6 	0.489898	39 	40 
565 	5     	39.6 	0.489898	39 	40 
566 	5     	39.6 	0.489898	39 	40 
567 	5     	39.6 	0.489898	39 	40 
568 	5     	39.6 	0.489898	39 	40 
569 	5     	39.6 	0.489898	39 	40 
570 	5     	39.6 	0.489898	39 	40 
571 	5     	39.6 	0.489898	39 	40 
572 	5     	39.6 	0.489898	39 	40 
573 	5     	39.6 	0.489898	39 	40 
574 	5     	39.6 	0.489898	39 	40 
575 	5     	39.6 	0.489898	39 	40 
576 	5     	39.6 	0.489898	39 	40 
577 	5     	39.6 	0.489898	39 	40 
578 	5     	39.6 	0.489898	39 	40 
579 	5     	39.6 	0.489898	39 	40 
580 	5     	39.6 	0.489898	39 	40 
581 	5     	39.6 	0.489898	39 	40 
582 	5     	39.6 	0.489898	39 	40 
583 	5     	39.6 	0.489898	39 	40 
584 	5     	39.6 	0.489898	39 	40 
585 	5     	39.6 	0.489898	39 	40 
586 	5     	39.55	0.497494	39 	40 
587 	5     	39.55	0.497494	39 	40 
588 	5     	39.55	0.497494	39 	40 
589 	5     	39.55	0.497494	39 	40 
590 	5     	39.55	0.497494	39 	40 
591 	5     	39.55	0.497494	39 	40 
592 	5     	39.55	0.497494	39 	40 
593 	5     	39.55	0.497494	39 	40 
594 	5     	39.5 	0.5     	39 	40 
595 	5     	39.5 	0.5     	39 	40 
596 	5     	39.5 	0.5     	39 	40 
597 	5     	39.5 	0.5     	39 	40 
598 	5     	39.5 	0.5     	39 	40 
599 	5     	39.5 	0.5     	39 	40 
600 	5     	39.5 	0.5     	39 	40 
601 	5     	39.5 	0.5     	39 	40 
602 	5     	39.5 	0.5     	39 	40 
603 	5     	39.5 	0.5     	39 	40 
604 	5     	39.5 	0.5     	39 	40 
605 	5     	39.5 	0.5     	39 	40 
606 	5     	39.5 	0.5     	39 	40 
607 	5     	39.5 	0.5     	39 	40 
608 	5     	39.5 	0.5     	39 	40 
609 	5     	39.5 	0.5     	39 	40 
610 	5     	39.5 	0.5     	39 	40 
611 	5     	39.5 	0.5     	39 	40 
612 	5     	39.5 	0.5     	39 	40 
613 	5     	39.5 	0.5     	39 	40 
614 	5     	39.5 	0.5     	39 	40 
615 	5     	39.5 	0.5     	39 	40 
616 	5     	39.5 	0.5     	39 	40 
617 	5     	39.5 	0.5     	39 	40 
618 	5     	39.5 	0.5     	39 	40 
619 	5     	39.5 	0.5     	39 	40 
620 	5     	39.5 	0.5     	39 	40 
621 	5     	39.5 	0.5     	39 	40 
622 	5     	39.5 	0.5     	39 	40 
623 	5     	39.5 	0.5     	39 	40 
624 	5     	39.5 	0.5     	39 	40 
625 	5     	39.5 	0.5     	39 	40 
626 	5     	39.5 	0.5     	39 	40 
627 	5     	39.5 	0.5     	39 	40 
628 	5     	39.5 	0.5     	39 	40 
629 	5     	39.5 	0.5     	39 	40 
630 	5     	39.5 	0.5     	39 	40 
631 	5     	39.5 	0.5     	39 	40 
632 	5     	39.5 	0.5     	39 	40 
633 	5     	39.5 	0.5     	39 	40 
634 	5     	39.5 	0.5     	39 	40 
635 	5     	39.5 	0.5     	39 	40 
636 	5     	39.5 	0.5     	39 	40 
637 	5     	39.5 	0.5     	39 	40 
638 	5     	39.5 	0.5     	39 	40 
639 	5     	39.5 	0.5     	39 	40 
640 	5     	39.5 	0.5     	39 	40 
641 	5     	39.5 	0.5     	39 	40 
642 	5     	39.5 	0.5     	39 	40 
643 	5     	39.5 	0.5     	39 	40 
644 	5     	39.5 	0.5     	39 	40 
645 	5     	39.5 	0.5     	39 	40 
646 	5     	39.5 	0.5     	39 	40 
647 	5     	39.5 	0.5     	39 	40 
648 	5     	39.5 	0.5     	39 	40 
649 	5     	39.5 	0.5     	39 	40 
650 	5     	39.5 	0.5     	39 	40 
651 	5     	39.5 	0.5     	39 	40 
652 	5     	39.5 	0.5     	39 	40 
653 	5     	39.5 	0.5     	39 	40 
654 	5     	39.5 	0.5     	39 	40 
655 	5     	39.5 	0.5     	39 	40 
656 	5     	39.5 	0.5     	39 	40 
657 	5     	39.5 	0.5     	39 	40 
658 	5     	39.5 	0.5     	39 	40 
659 	5     	39.5 	0.5     	39 	40 
660 	5     	39.5 	0.5     	39 	40 
661 	5     	39.5 	0.5     	39 	40 
662 	5     	39.5 	0.5     	39 	40 
663 	5     	39.5 	0.5     	39 	40 
664 	5     	39.5 	0.5     	39 	40 
665 	5     	39.5 	0.5     	39 	40 
666 	5     	39.5 	0.5     	39 	40 
667 	5     	39.45	0.497494	39 	40 
668 	5     	39.45	0.497494	39 	40 
669 	5     	39.45	0.497494	39 	40 
670 	5     	39.45	0.497494	39 	40 
671 	5     	39.45	0.497494	39 	40 
672 	5     	39.45	0.497494	39 	40 
673 	5     	39.45	0.497494	39 	40 
674 	5     	39.45	0.497494	39 	40 
675 	5     	39.45	0.497494	39 	40 
676 	5     	39.45	0.497494	39 	40 
677 	5     	39.45	0.497494	39 	40 
678 	5     	39.45	0.497494	39 	40 
679 	5     	39.45	0.497494	39 	40 
680 	5     	39.45	0.497494	39 	40 
681 	5     	39.45	0.497494	39 	40 
682 	5     	39.45	0.497494	39 	40 
683 	5     	39.45	0.497494	39 	40 
684 	5     	39.45	0.497494	39 	40 
685 	5     	39.35	0.572276	38 	40 
686 	5     	39.35	0.572276	38 	40 
687 	5     	39.35	0.572276	38 	40 
688 	5     	39.35	0.572276	38 	40 
689 	5     	39.35	0.572276	38 	40 
690 	5     	39.35	0.572276	38 	40 
691 	5     	39.35	0.572276	38 	40 
692 	5     	39.35	0.572276	38 	40 
693 	5     	39.35	0.572276	38 	40 
694 	5     	39.35	0.572276	38 	40 
695 	5     	39.35	0.572276	38 	40 
696 	5     	39.35	0.572276	38 	40 
697 	5     	39.35	0.572276	38 	40 
698 	5     	39.35	0.572276	38 	40 
699 	5     	39.35	0.572276	38 	40 
700 	5     	39.35	0.572276	38 	40 
701 	5     	39.35	0.572276	38 	40 
702 	5     	39.35	0.572276	38 	40 
703 	5     	39.35	0.572276	38 	40 
704 	5     	39.35	0.572276	38 	40 
705 	5     	39.35	0.572276	38 	40 
706 	5     	39.35	0.572276	38 	40 
707 	5     	39.35	0.572276	38 	40 
708 	5     	39.3 	0.556776	38 	40 
709 	5     	39.3 	0.556776	38 	40 
710 	5     	39.3 	0.556776	38 	40 
711 	5     	39.3 	0.556776	38 	40 
712 	5     	39.3 	0.556776	38 	40 
713 	5     	39.3 	0.556776	38 	40 
714 	5     	39.3 	0.556776	38 	40 
715 	5     	39.3 	0.556776	38 	40 
716 	5     	39.3 	0.556776	38 	40 
717 	5     	39.3 	0.556776	38 	40 
718 	5     	39.3 	0.556776	38 	40 
719 	5     	39.3 	0.556776	38 	40 
720 	5     	39.3 	0.556776	38 	40 
721 	5     	39.3 	0.556776	38 	40 
722 	5     	39.3 	0.556776	38 	40 
723 	5     	39.3 	0.556776	38 	40 
724 	5     	39.3 	0.556776	38 	40 
725 	5     	39.3 	0.556776	38 	40 
726 	5     	39.3 	0.556776	38 	40 
727 	5     	39.3 	0.556776	38 	40 
728 	5     	39.3 	0.556776	38 	40 
729 	5     	39.3 	0.556776	38 	40 
730 	5     	39.3 	0.556776	38 	40 
731 	5     	39.3 	0.556776	38 	40 
732 	5     	39.3 	0.556776	38 	40 
733 	5     	39.3 	0.556776	38 	40 
734 	5     	39.3 	0.556776	38 	40 
735 	5     	39.3 	0.556776	38 	40 
736 	5     	39.3 	0.556776	38 	40 
737 	5     	39.3 	0.556776	38 	40 
738 	5     	39.3 	0.556776	38 	40 
739 	5     	39.3 	0.556776	38 	40 
740 	5     	39.3 	0.556776	38 	40 
741 	5     	39.3 	0.556776	38 	40 
742 	5     	39.3 	0.556776	38 	40 
743 	5     	39.3 	0.556776	38 	40 
744 	5     	39.3 	0.556776	38 	40 
745 	5     	39.3 	0.556776	38 	40 
746 	5     	39.3 	0.556776	38 	40 
747 	5     	39.3 	0.556776	38 	40 
748 	5     	39.3 	0.556776	38 	40 
749 	5     	39.3 	0.556776	38 	40 
750 	5     	39.3 	0.556776	38 	40 
751 	5     	39.3 	0.556776	38 	40 
752 	5     	39.3 	0.556776	38 	40 
753 	5     	39.3 	0.556776	38 	40 
754 	5     	39.3 	0.556776	38 	40 
755 	5     	39.3 	0.556776	38 	40 
756 	5     	39.3 	0.556776	38 	40 
757 	5     	39.3 	0.556776	38 	40 
758 	5     	39.3 	0.556776	38 	40 
759 	5     	39.3 	0.556776	38 	40 
760 	5     	39.3 	0.556776	38 	40 
761 	5     	39.3 	0.556776	38 	40 
762 	5     	39.3 	0.556776	38 	40 
763 	5     	39.3 	0.556776	38 	40 
764 	5     	39.3 	0.556776	38 	40 
765 	5     	39.3 	0.556776	38 	40 
766 	5     	39.25	0.53619 	38 	40 
767 	5     	39.25	0.53619 	38 	40 
768 	5     	39.25	0.53619 	38 	40 
769 	5     	39.25	0.53619 	38 	40 
770 	5     	39.25	0.53619 	38 	40 
771 	5     	39.25	0.53619 	38 	40 
772 	5     	39.25	0.53619 	38 	40 
773 	5     	39.25	0.53619 	38 	40 
774 	5     	39.25	0.53619 	38 	40 
775 	5     	39.25	0.53619 	38 	40 
776 	5     	39.25	0.53619 	38 	40 
777 	5     	39.25	0.53619 	38 	40 
778 	5     	39.25	0.53619 	38 	40 
779 	5     	39.25	0.53619 	38 	40 
780 	5     	39.25	0.53619 	38 	40 
781 	5     	39.25	0.53619 	38 	40 
782 	5     	39.25	0.53619 	38 	40 
783 	5     	39.25	0.53619 	38 	40 
784 	5     	39.25	0.53619 	38 	40 
785 	5     	39.25	0.53619 	38 	40 
786 	5     	39.25	0.53619 	38 	40 
787 	5     	39.25	0.53619 	38 	40 
788 	5     	39.25	0.53619 	38 	40 
789 	5     	39.25	0.53619 	38 	40 
790 	5     	39.25	0.53619 	38 	40 
791 	5     	39.25	0.53619 	38 	40 
792 	5     	39.25	0.53619 	38 	40 
793 	5     	39.25	0.53619 	38 	40 
794 	5     	39.25	0.53619 	38 	40 
795 	5     	39.25	0.53619 	38 	40 
796 	5     	39.25	0.53619 	38 	40 
797 	5     	39.25	0.53619 	38 	40 
798 	5     	39.25	0.53619 	38 	40 
799 	5     	39.25	0.53619 	38 	40 
800 	5     	39.25	0.53619 	38 	40 
801 	5     	39.25	0.53619 	38 	40 
802 	5     	39.25	0.53619 	38 	40 
803 	5     	39.25	0.53619 	38 	40 
804 	5     	39.25	0.53619 	38 	40 
805 	5     	39.25	0.53619 	38 	40 
806 	5     	39.25	0.53619 	38 	40 
807 	5     	39.25	0.53619 	38 	40 
808 	5     	39.25	0.53619 	38 	40 
809 	5     	39.25	0.53619 	38 	40 
810 	5     	39.25	0.53619 	38 	40 
811 	5     	39.25	0.53619 	38 	40 
812 	5     	39.25	0.53619 	38 	40 
813 	5     	39.25	0.53619 	38 	40 
814 	5     	39.25	0.53619 	38 	40 
815 	5     	39.25	0.53619 	38 	40 
816 	5     	39.25	0.53619 	38 	40 
817 	5     	39.25	0.53619 	38 	40 
818 	5     	39.25	0.53619 	38 	40 
819 	5     	39.25	0.53619 	38 	40 
820 	5     	39.25	0.53619 	38 	40 
821 	5     	39.25	0.53619 	38 	40 
822 	5     	39.25	0.53619 	38 	40 
823 	5     	39.25	0.53619 	38 	40 
824 	5     	39.25	0.53619 	38 	40 
825 	5     	39.25	0.53619 	38 	40 
826 	5     	39.25	0.53619 	38 	40 
827 	5     	39.25	0.53619 	38 	40 
828 	5     	39.25	0.53619 	38 	40 
829 	5     	39.25	0.53619 	38 	40 
830 	5     	39.25	0.53619 	38 	40 
831 	5     	39.25	0.53619 	38 	40 
832 	5     	39.25	0.53619 	38 	40 
833 	5     	39.25	0.53619 	38 	40 
834 	5     	39.25	0.53619 	38 	40 
835 	5     	39.25	0.53619 	38 	40 
836 	5     	39.25	0.53619 	38 	40 
837 	5     	39.25	0.53619 	38 	40 
838 	5     	39.25	0.53619 	38 	40 
839 	5     	39.25	0.53619 	38 	40 
840 	5     	39.25	0.53619 	38 	40 
841 	5     	39.25	0.53619 	38 	40 
842 	5     	39.25	0.53619 	38 	40 
843 	5     	39.25	0.53619 	38 	40 
844 	5     	39.25	0.53619 	38 	40 
845 	5     	39.25	0.53619 	38 	40 
846 	5     	39.25	0.53619 	38 	40 
847 	5     	39.25	0.53619 	38 	40 
848 	5     	39.25	0.53619 	38 	40 
849 	5     	39.25	0.53619 	38 	40 
850 	5     	39.25	0.53619 	38 	40 
851 	5     	39.25	0.53619 	38 	40 
852 	5     	39.25	0.53619 	38 	40 
853 	5     	39.25	0.53619 	38 	40 
854 	5     	39.25	0.53619 	38 	40 
855 	5     	39.25	0.53619 	38 	40 
856 	5     	39.25	0.53619 	38 	40 
857 	5     	39.25	0.53619 	38 	40 
858 	5     	39.25	0.53619 	38 	40 
859 	5     	39.25	0.53619 	38 	40 
860 	5     	39.25	0.53619 	38 	40 
861 	5     	39.25	0.53619 	38 	40 
862 	5     	39.25	0.53619 	38 	40 
863 	5     	39.25	0.53619 	38 	40 
864 	5     	39.25	0.53619 	38 	40 
865 	5     	39.25	0.53619 	38 	40 
866 	5     	39.25	0.53619 	38 	40 
867 	5     	39.25	0.53619 	38 	40 
868 	5     	39.25	0.53619 	38 	40 
869 	5     	39.25	0.53619 	38 	40 
870 	5     	39.25	0.53619 	38 	40 
871 	5     	39.25	0.53619 	38 	40 
872 	5     	39.25	0.53619 	38 	40 
873 	5     	39.25	0.53619 	38 	40 
874 	5     	39.25	0.53619 	38 	40 
875 	5     	39.25	0.53619 	38 	40 
876 	5     	39.25	0.53619 	38 	40 
877 	5     	39.25	0.53619 	38 	40 
878 	5     	39.25	0.53619 	38 	40 
879 	5     	39.25	0.53619 	38 	40 
880 	5     	39.25	0.53619 	38 	40 
881 	5     	39.25	0.53619 	38 	40 
882 	5     	39.25	0.53619 	38 	40 
883 	5     	39.25	0.53619 	38 	40 
884 	5     	39.25	0.53619 	38 	40 
885 	5     	39.25	0.53619 	38 	40 
886 	5     	39.25	0.53619 	38 	40 
887 	5     	39.25	0.53619 	38 	40 
888 	5     	39.25	0.53619 	38 	40 
889 	5     	39.25	0.53619 	38 	40 
890 	5     	39.25	0.53619 	38 	40 
891 	5     	39.25	0.53619 	38 	40 
892 	5     	39.25	0.53619 	38 	40 
893 	5     	39.25	0.53619 	38 	40 
894 	5     	39.25	0.53619 	38 	40 
895 	5     	39.25	0.53619 	38 	40 
896 	5     	39.25	0.53619 	38 	40 
897 	5     	39.25	0.53619 	38 	40 
898 	5     	39.25	0.53619 	38 	40 
899 	5     	39.25	0.53619 	38 	40 
900 	5     	39.25	0.53619 	38 	40 
901 	5     	39.25	0.53619 	38 	40 
902 	5     	39.25	0.53619 	38 	40 
903 	5     	39.25	0.53619 	38 	40 
904 	5     	39.25	0.53619 	38 	40 
905 	5     	39.25	0.53619 	38 	40 
906 	5     	39.25	0.53619 	38 	40 
907 	5     	39.25	0.53619 	38 	40 
908 	5     	39.25	0.53619 	38 	40 
909 	5     	39.25	0.53619 	38 	40 
910 	5     	39.25	0.53619 	38 	40 
911 	5     	39.25	0.53619 	38 	40 
912 	5     	39.25	0.53619 	38 	40 
913 	5     	39.25	0.53619 	38 	40 
914 	5     	39.25	0.53619 	38 	40 
915 	5     	39.25	0.53619 	38 	40 
916 	5     	39.25	0.53619 	38 	40 
917 	5     	39.25	0.53619 	38 	40 
918 	5     	39.15	0.572276	38 	40 
919 	5     	39.15	0.572276	38 	40 
920 	5     	39.15	0.572276	38 	40 
921 	5     	39.15	0.572276	38 	40 
922 	5     	39.15	0.572276	38 	40 
923 	5     	39.15	0.572276	38 	40 
924 	5     	39.15	0.572276	38 	40 
925 	5     	39.15	0.572276	38 	40 
926 	5     	39.15	0.572276	38 	40 
927 	5     	39.15	0.572276	38 	40 
928 	5     	39.15	0.572276	38 	40 
929 	5     	39.15	0.572276	38 	40 
930 	5     	39.15	0.572276	38 	40 
931 	5     	39.15	0.572276	38 	40 
932 	5     	39.15	0.572276	38 	40 
933 	5     	39.15	0.572276	38 	40 
934 	5     	39.15	0.572276	38 	40 
935 	5     	39.15	0.572276	38 	40 
936 	5     	39.15	0.572276	38 	40 
937 	5     	39.15	0.572276	38 	40 
938 	5     	39.15	0.572276	38 	40 
939 	5     	39.15	0.572276	38 	40 
940 	5     	39.15	0.572276	38 	40 
941 	5     	39.15	0.572276	38 	40 
942 	5     	39.15	0.572276	38 	40 
943 	5     	39.15	0.572276	38 	40 
944 	5     	39.15	0.572276	38 	40 
945 	5     	39.15	0.572276	38 	40 
946 	5     	39.15	0.572276	38 	40 
947 	5     	39.15	0.572276	38 	40 
948 	5     	39.15	0.572276	38 	40 
949 	5     	39.15	0.572276	38 	40 
950 	5     	39.15	0.572276	38 	40 
951 	5     	39.15	0.572276	38 	40 
952 	5     	39.15	0.572276	38 	40 
953 	5     	39.1 	0.538516	38 	40 
954 	5     	39.1 	0.538516	38 	40 
955 	5     	39.1 	0.538516	38 	40 
956 	5     	39.1 	0.538516	38 	40 
957 	5     	39.1 	0.538516	38 	40 
958 	5     	39.1 	0.538516	38 	40 
959 	5     	39.1 	0.538516	38 	40 
960 	5     	39.1 	0.538516	38 	40 
961 	5     	39.1 	0.538516	38 	40 
962 	5     	39.1 	0.538516	38 	40 
963 	5     	39.1 	0.538516	38 	40 
964 	5     	39.1 	0.538516	38 	40 
965 	5     	39.1 	0.538516	38 	40 
966 	5     	39.1 	0.538516	38 	40 
967 	5     	39.1 	0.538516	38 	40 
968 	5     	39.1 	0.538516	38 	40 
969 	5     	39.1 	0.538516	38 	40 
970 	5     	39.1 	0.538516	38 	40 
971 	5     	39.1 	0.538516	38 	40 
972 	5     	39.1 	0.538516	38 	40 
973 	5     	39.1 	0.538516	38 	40 
974 	5     	39.1 	0.538516	38 	40 
975 	5     	39.1 	0.538516	38 	40 
976 	5     	39.05	0.497494	38 	40 
977 	5     	39.05	0.497494	38 	40 
978 	5     	39.05	0.497494	38 	40 
979 	5     	39.05	0.497494	38 	40 
980 	5     	39.05	0.497494	38 	40 
981 	5     	39.05	0.497494	38 	40 
982 	5     	39.05	0.497494	38 	40 
983 	5     	39.05	0.497494	38 	40 
984 	5     	39.05	0.497494	38 	40 
985 	5     	39.05	0.497494	38 	40 
986 	5     	39.05	0.497494	38 	40 
987 	5     	39.05	0.497494	38 	40 
988 	5     	39.05	0.497494	38 	40 
989 	5     	39.05	0.497494	38 	40 
990 	5     	39.05	0.497494	38 	40 
991 	5     	39.05	0.497494	38 	40 
992 	5     	39.05	0.497494	38 	40 
993 	5     	39.05	0.497494	38 	40 
994 	5     	39.05	0.497494	38 	40 
995 	5     	39.05	0.497494	38 	40 
996 	5     	39.05	0.497494	38 	40 
997 	5     	39.05	0.497494	38 	40 
998 	5     	39.05	0.497494	38 	40 
999 	5     	39.05	0.497494	38 	40 
1000	5     	39.05	0.497494	38 	40 
1001	5     	39.05	0.497494	38 	40 
1002	5     	39.05	0.497494	38 	40 
1003	5     	39.05	0.497494	38 	40 
1004	5     	39.05	0.497494	38 	40 
1005	5     	39.05	0.497494	38 	40 
1006	5     	39.05	0.497494	38 	40 
1007	5     	39.05	0.497494	38 	40 
1008	5     	39.05	0.497494	38 	40 
1009	5     	39.05	0.497494	38 	40 
1010	5     	39.05	0.497494	38 	40 
1011	5     	39.05	0.497494	38 	40 
1012	5     	39.05	0.497494	38 	40 
1013	5     	39.05	0.497494	38 	40 
1014	5     	39.05	0.497494	38 	40 
1015	5     	39.05	0.497494	38 	40 
1016	5     	39.05	0.497494	38 	40 
1017	5     	39.05	0.497494	38 	40 
1018	5     	39.05	0.497494	38 	40 
1019	5     	39.05	0.497494	38 	40 
1020	5     	39.05	0.497494	38 	40 
1021	5     	39   	0.447214	38 	40 
1022	5     	39   	0.447214	38 	40 
1023	5     	39   	0.447214	38 	40 
1024	5     	39   	0.447214	38 	40 
1025	5     	39   	0.447214	38 	40 
1026	5     	39   	0.447214	38 	40 
1027	5     	39   	0.447214	38 	40 
1028	5     	39   	0.447214	38 	40 
1029	5     	39   	0.447214	38 	40 
1030	5     	39   	0.447214	38 	40 
1031	5     	39   	0.447214	38 	40 
1032	5     	39   	0.447214	38 	40 
1033	5     	39   	0.447214	38 	40 
1034	5     	39   	0.447214	38 	40 
1035	5     	39   	0.447214	38 	40 
1036	5     	39   	0.447214	38 	40 
1037	5     	39   	0.447214	38 	40 
1038	5     	39   	0.447214	38 	40 
1039	5     	39   	0.447214	38 	40 
1040	5     	39   	0.447214	38 	40 
1041	5     	39   	0.447214	38 	40 
1042	5     	39   	0.447214	38 	40 
1043	5     	39   	0.447214	38 	40 
1044	5     	39   	0.447214	38 	40 
1045	5     	39   	0.447214	38 	40 
1046	5     	39   	0.447214	38 	40 
1047	5     	39   	0.447214	38 	40 
1048	5     	39   	0.447214	38 	40 
1049	5     	39   	0.447214	38 	40 
1050	5     	39   	0.447214	38 	40 
1051	5     	39   	0.447214	38 	40 
1052	5     	39   	0.447214	38 	40 
1053	5     	39   	0.447214	38 	40 
1054	5     	39   	0.447214	38 	40 
1055	5     	39   	0.447214	38 	40 
1056	5     	39   	0.447214	38 	40 
1057	5     	39   	0.447214	38 	40 
1058	5     	39   	0.447214	38 	40 
1059	5     	39   	0.447214	38 	40 
1060	5     	39   	0.447214	38 	40 
1061	5     	39   	0.447214	38 	40 
1062	5     	39   	0.447214	38 	40 
1063	5     	39   	0.447214	38 	40 
1064	5     	39   	0.447214	38 	40 
1065	5     	39   	0.447214	38 	40 
1066	5     	39   	0.447214	38 	40 
1067	5     	39   	0.447214	38 	40 
1068	5     	39   	0.447214	38 	40 
1069	5     	39   	0.447214	38 	40 
1070	5     	39   	0.447214	38 	40 
1071	5     	39   	0.447214	38 	40 
1072	5     	39   	0.447214	38 	40 
1073	5     	39   	0.447214	38 	40 
1074	5     	39   	0.447214	38 	40 
1075	5     	39   	0.447214	38 	40 
1076	5     	39   	0.447214	38 	40 
1077	5     	38.95	0.384057	38 	40 
1078	5     	38.95	0.384057	38 	40 
1079	5     	38.95	0.384057	38 	40 
1080	5     	38.95	0.384057	38 	40 
1081	5     	38.95	0.384057	38 	40 
1082	5     	38.95	0.384057	38 	40 
1083	5     	38.95	0.384057	38 	40 
1084	5     	38.95	0.384057	38 	40 
1085	5     	38.95	0.384057	38 	40 
1086	5     	38.95	0.384057	38 	40 
1087	5     	38.95	0.384057	38 	40 
1088	5     	38.95	0.384057	38 	40 
1089	5     	38.95	0.384057	38 	40 
1090	5     	38.95	0.384057	38 	40 
1091	5     	38.95	0.384057	38 	40 
1092	5     	38.95	0.384057	38 	40 
1093	5     	38.95	0.384057	38 	40 
1094	5     	38.95	0.384057	38 	40 
1095	5     	38.95	0.384057	38 	40 
1096	5     	38.95	0.384057	38 	40 
1097	5     	38.95	0.384057	38 	40 
1098	5     	38.95	0.384057	38 	40 
1099	5     	38.95	0.384057	38 	40 
1100	5     	38.95	0.384057	38 	40 
1101	5     	38.95	0.384057	38 	40 
1102	5     	38.95	0.384057	38 	40 
1103	5     	38.95	0.384057	38 	40 
1104	5     	38.95	0.384057	38 	40 
1105	5     	38.95	0.384057	38 	40 
1106	5     	38.95	0.384057	38 	40 
1107	5     	38.95	0.384057	38 	40 
1108	5     	38.95	0.384057	38 	40 
1109	5     	38.95	0.384057	38 	40 
1110	5     	38.9 	0.3     	38 	39 
1111	5     	38.9 	0.3     	38 	39 
1112	5     	38.9 	0.3     	38 	39 
1113	5     	38.9 	0.3     	38 	39 
1114	5     	38.9 	0.3     	38 	39 
1115	5     	38.9 	0.3     	38 	39 
1116	5     	38.9 	0.3     	38 	39 
1117	5     	38.9 	0.3     	38 	39 
1118	5     	38.9 	0.3     	38 	39 
1119	5     	38.9 	0.3     	38 	39 
1120	5     	38.9 	0.3     	38 	39 
1121	5     	38.9 	0.3     	38 	39 
1122	5     	38.9 	0.3     	38 	39 
1123	5     	38.9 	0.3     	38 	39 
1124	5     	38.9 	0.3     	38 	39 
1125	5     	38.9 	0.3     	38 	39 
1126	5     	38.9 	0.3     	38 	39 
1127	5     	38.9 	0.3     	38 	39 
1128	5     	38.9 	0.3     	38 	39 
1129	5     	38.9 	0.3     	38 	39 
1130	5     	38.9 	0.3     	38 	39 
1131	5     	38.9 	0.3     	38 	39 
1132	5     	38.9 	0.3     	38 	39 
1133	5     	38.9 	0.3     	38 	39 
1134	5     	38.9 	0.3     	38 	39 
1135	5     	38.9 	0.3     	38 	39 
1136	5     	38.9 	0.3     	38 	39 
1137	5     	38.9 	0.3     	38 	39 
1138	5     	38.9 	0.3     	38 	39 
1139	5     	38.9 	0.3     	38 	39 
1140	5     	38.9 	0.3     	38 	39 
1141	5     	38.9 	0.3     	38 	39 
1142	5     	38.9 	0.3     	38 	39 
1143	5     	38.9 	0.3     	38 	39 
1144	5     	38.9 	0.3     	38 	39 
1145	5     	38.8 	0.509902	37 	39 
1146	5     	38.8 	0.509902	37 	39 
1147	5     	38.8 	0.509902	37 	39 
1148	5     	38.8 	0.509902	37 	39 
1149	5     	38.8 	0.509902	37 	39 
1150	5     	38.8 	0.509902	37 	39 
1151	5     	38.8 	0.509902	37 	39 
1152	5     	38.8 	0.509902	37 	39 
1153	5     	38.8 	0.509902	37 	39 
1154	5     	38.8 	0.509902	37 	39 
1155	5     	38.8 	0.509902	37 	39 
1156	5     	38.8 	0.509902	37 	39 
1157	5     	38.8 	0.509902	37 	39 
1158	5     	38.8 	0.509902	37 	39 
1159	5     	38.8 	0.509902	37 	39 
1160	5     	38.8 	0.509902	37 	39 
1161	5     	38.8 	0.509902	37 	39 
1162	5     	38.8 	0.509902	37 	39 
1163	5     	38.8 	0.509902	37 	39 
1164	5     	38.8 	0.509902	37 	39 
1165	5     	38.8 	0.509902	37 	39 
1166	5     	38.8 	0.509902	37 	39 
1167	5     	38.8 	0.509902	37 	39 
1168	5     	38.8 	0.509902	37 	39 
1169	5     	38.8 	0.509902	37 	39 
1170	5     	38.8 	0.509902	37 	39 
1171	5     	38.8 	0.509902	37 	39 
1172	5     	38.8 	0.509902	37 	39 
1173	5     	38.8 	0.509902	37 	39 
1174	5     	38.8 	0.509902	37 	39 
1175	5     	38.8 	0.509902	37 	39 
1176	5     	38.8 	0.509902	37 	39 
1177	5     	38.8 	0.509902	37 	39 
1178	5     	38.8 	0.509902	37 	39 
1179	5     	38.8 	0.509902	37 	39 
1180	5     	38.8 	0.509902	37 	39 
1181	5     	38.8 	0.509902	37 	39 
1182	5     	38.8 	0.509902	37 	39 
1183	5     	38.8 	0.509902	37 	39 
1184	5     	38.8 	0.509902	37 	39 
1185	5     	38.8 	0.509902	37 	39 
1186	5     	38.8 	0.509902	37 	39 
1187	5     	38.8 	0.509902	37 	39 
1188	5     	38.8 	0.509902	37 	39 
1189	5     	38.8 	0.509902	37 	39 
1190	5     	38.8 	0.509902	37 	39 
1191	5     	38.8 	0.509902	37 	39 
1192	5     	38.8 	0.509902	37 	39 
1193	5     	38.8 	0.509902	37 	39 
1194	5     	38.8 	0.509902	37 	39 
1195	5     	38.8 	0.509902	37 	39 
1196	5     	38.8 	0.509902	37 	39 
1197	5     	38.8 	0.509902	37 	39 
1198	5     	38.8 	0.509902	37 	39 
1199	5     	38.8 	0.509902	37 	39 
1200	5     	38.8 	0.509902	37 	39 
1201	5     	38.8 	0.509902	37 	39 
1202	5     	38.8 	0.509902	37 	39 
1203	5     	38.8 	0.509902	37 	39 
1204	5     	38.8 	0.509902	37 	39 
1205	5     	38.8 	0.509902	37 	39 
1206	5     	38.8 	0.509902	37 	39 
1207	5     	38.8 	0.509902	37 	39 
1208	5     	38.8 	0.509902	37 	39 
1209	5     	38.8 	0.509902	37 	39 
1210	5     	38.8 	0.509902	37 	39 
1211	5     	38.8 	0.509902	37 	39 
1212	5     	38.8 	0.509902	37 	39 
1213	5     	38.8 	0.509902	37 	39 
1214	5     	38.8 	0.509902	37 	39 
1215	5     	38.8 	0.509902	37 	39 
1216	5     	38.8 	0.509902	37 	39 
1217	5     	38.8 	0.509902	37 	39 
1218	5     	38.8 	0.509902	37 	39 
1219	5     	38.8 	0.509902	37 	39 
1220	5     	38.8 	0.509902	37 	39 
1221	5     	38.8 	0.509902	37 	39 
1222	5     	38.8 	0.509902	37 	39 
1223	5     	38.8 	0.509902	37 	39 
1224	5     	38.8 	0.509902	37 	39 
1225	5     	38.8 	0.509902	37 	39 
1226	5     	38.8 	0.509902	37 	39 
1227	5     	38.8 	0.509902	37 	39 
1228	5     	38.8 	0.509902	37 	39 
1229	5     	38.8 	0.509902	37 	39 
1230	5     	38.8 	0.509902	37 	39 
1231	5     	38.8 	0.509902	37 	39 
1232	5     	38.8 	0.509902	37 	39 
1233	5     	38.8 	0.509902	37 	39 
1234	5     	38.8 	0.509902	37 	39 
1235	5     	38.8 	0.509902	37 	39 
1236	5     	38.7 	0.640312	37 	39 
1237	5     	38.7 	0.640312	37 	39 
1238	5     	38.7 	0.640312	37 	39 
1239	5     	38.7 	0.640312	37 	39 
1240	5     	38.7 	0.640312	37 	39 
1241	5     	38.7 	0.640312	37 	39 
1242	5     	38.7 	0.640312	37 	39 
1243	5     	38.7 	0.640312	37 	39 
1244	5     	38.7 	0.640312	37 	39 
1245	5     	38.7 	0.640312	37 	39 
1246	5     	38.7 	0.640312	37 	39 
1247	5     	38.7 	0.640312	37 	39 
1248	5     	38.7 	0.640312	37 	39 
1249	5     	38.7 	0.640312	37 	39 
1250	5     	38.7 	0.640312	37 	39 
1251	5     	38.7 	0.640312	37 	39 
1252	5     	38.7 	0.640312	37 	39 
1253	5     	38.7 	0.640312	37 	39 
1254	5     	38.7 	0.640312	37 	39 
1255	5     	38.7 	0.640312	37 	39 
1256	5     	38.7 	0.640312	37 	39 
1257	5     	38.7 	0.640312	37 	39 
1258	5     	38.7 	0.640312	37 	39 
1259	5     	38.7 	0.640312	37 	39 
1260	5     	38.7 	0.640312	37 	39 
1261	5     	38.7 	0.640312	37 	39 
1262	5     	38.7 	0.640312	37 	39 
1263	5     	38.7 	0.640312	37 	39 
1264	5     	38.7 	0.640312	37 	39 
1265	5     	38.7 	0.640312	37 	39 
1266	5     	38.7 	0.640312	37 	39 
1267	5     	38.7 	0.640312	37 	39 
1268	5     	38.7 	0.640312	37 	39 
1269	5     	38.7 	0.640312	37 	39 
1270	5     	38.7 	0.640312	37 	39 
1271	5     	38.7 	0.640312	37 	39 
1272	5     	38.7 	0.640312	37 	39 
1273	5     	38.7 	0.640312	37 	39 
1274	5     	38.7 	0.640312	37 	39 
1275	5     	38.7 	0.640312	37 	39 
1276	5     	38.7 	0.640312	37 	39 
1277	5     	38.7 	0.640312	37 	39 
1278	5     	38.7 	0.640312	37 	39 
1279	5     	38.7 	0.640312	37 	39 
1280	5     	38.7 	0.640312	37 	39 
1281	5     	38.7 	0.640312	37 	39 
1282	5     	38.7 	0.640312	37 	39 
1283	5     	38.7 	0.640312	37 	39 
1284	5     	38.7 	0.640312	37 	39 
1285	5     	38.7 	0.640312	37 	39 
1286	5     	38.7 	0.640312	37 	39 
1287	5     	38.7 	0.640312	37 	39 
1288	5     	38.7 	0.640312	37 	39 
1289	5     	38.7 	0.640312	37 	39 
1290	5     	38.7 	0.640312	37 	39 
1291	5     	38.7 	0.640312	37 	39 
1292	5     	38.7 	0.640312	37 	39 
1293	5     	38.7 	0.640312	37 	39 
1294	5     	38.7 	0.640312	37 	39 
1295	5     	38.7 	0.640312	37 	39 
1296	5     	38.7 	0.640312	37 	39 
1297	5     	38.7 	0.640312	37 	39 
1298	5     	38.7 	0.640312	37 	39 
1299	5     	38.7 	0.640312	37 	39 
1300	5     	38.7 	0.640312	37 	39 
1301	5     	38.7 	0.640312	37 	39 
1302	5     	38.7 	0.640312	37 	39 
1303	5     	38.7 	0.640312	37 	39 
1304	5     	38.7 	0.640312	37 	39 
1305	5     	38.7 	0.640312	37 	39 
1306	5     	38.7 	0.640312	37 	39 
1307	5     	38.7 	0.640312	37 	39 
1308	5     	38.7 	0.640312	37 	39 
1309	5     	38.7 	0.640312	37 	39 
1310	5     	38.7 	0.640312	37 	39 
1311	5     	38.7 	0.640312	37 	39 
1312	5     	38.7 	0.640312	37 	39 
1313	5     	38.7 	0.640312	37 	39 
1314	5     	38.7 	0.640312	37 	39 
1315	5     	38.7 	0.640312	37 	39 
1316	5     	38.7 	0.640312	37 	39 
1317	5     	38.7 	0.640312	37 	39 
1318	5     	38.7 	0.640312	37 	39 
1319	5     	38.7 	0.640312	37 	39 
1320	5     	38.7 	0.640312	37 	39 
1321	5     	38.7 	0.640312	37 	39 
1322	5     	38.7 	0.640312	37 	39 
1323	5     	38.7 	0.640312	37 	39 
1324	5     	38.7 	0.640312	37 	39 
1325	5     	38.7 	0.640312	37 	39 
1326	5     	38.7 	0.640312	37 	39 
1327	5     	38.7 	0.640312	37 	39 
1328	5     	38.7 	0.640312	37 	39 
1329	5     	38.7 	0.640312	37 	39 
1330	5     	38.7 	0.640312	37 	39 
1331	5     	38.65	0.653835	37 	39 
1332	5     	38.65	0.653835	37 	39 
1333	5     	38.65	0.653835	37 	39 
1334	5     	38.65	0.653835	37 	39 
1335	5     	38.65	0.653835	37 	39 
1336	5     	38.65	0.653835	37 	39 
1337	5     	38.65	0.653835	37 	39 
1338	5     	38.65	0.653835	37 	39 
1339	5     	38.65	0.653835	37 	39 
1340	5     	38.65	0.653835	37 	39 
1341	5     	38.65	0.653835	37 	39 
1342	5     	38.65	0.653835	37 	39 
1343	5     	38.65	0.653835	37 	39 
1344	5     	38.65	0.653835	37 	39 
1345	5     	38.65	0.653835	37 	39 
1346	5     	38.65	0.653835	37 	39 
1347	5     	38.65	0.653835	37 	39 
1348	5     	38.65	0.653835	37 	39 
1349	5     	38.65	0.653835	37 	39 
1350	5     	38.65	0.653835	37 	39 
1351	5     	38.65	0.653835	37 	39 
1352	5     	38.65	0.653835	37 	39 
1353	5     	38.65	0.653835	37 	39 
1354	5     	38.65	0.653835	37 	39 
1355	5     	38.65	0.653835	37 	39 
1356	5     	38.65	0.653835	37 	39 
1357	5     	38.65	0.653835	37 	39 
1358	5     	38.65	0.653835	37 	39 
1359	5     	38.65	0.653835	37 	39 
1360	5     	38.65	0.653835	37 	39 
1361	5     	38.65	0.653835	37 	39 
1362	5     	38.65	0.653835	37 	39 
1363	5     	38.65	0.653835	37 	39 
1364	5     	38.65	0.653835	37 	39 
1365	5     	38.65	0.653835	37 	39 
1366	5     	38.65	0.653835	37 	39 
1367	5     	38.65	0.653835	37 	39 
1368	5     	38.65	0.653835	37 	39 
1369	5     	38.65	0.653835	37 	39 
1370	5     	38.65	0.653835	37 	39 
1371	5     	38.65	0.653835	37 	39 
1372	5     	38.65	0.653835	37 	39 
1373	5     	38.65	0.653835	37 	39 
1374	5     	38.65	0.653835	37 	39 
1375	5     	38.65	0.653835	37 	39 
1376	5     	38.65	0.653835	37 	39 
1377	5     	38.65	0.653835	37 	39 
1378	5     	38.65	0.653835	37 	39 
1379	5     	38.65	0.653835	37 	39 
1380	5     	38.65	0.653835	37 	39 
1381	5     	38.65	0.653835	37 	39 
1382	5     	38.65	0.653835	37 	39 
1383	5     	38.65	0.653835	37 	39 
1384	5     	38.65	0.653835	37 	39 
1385	5     	38.65	0.653835	37 	39 
1386	5     	38.65	0.653835	37 	39 
1387	5     	38.65	0.653835	37 	39 
1388	5     	38.65	0.653835	37 	39 
1389	5     	38.65	0.653835	37 	39 
1390	5     	38.65	0.653835	37 	39 
1391	5     	38.65	0.653835	37 	39 
1392	5     	38.65	0.653835	37 	39 
1393	5     	38.65	0.653835	37 	39 
1394	5     	38.65	0.653835	37 	39 
1395	5     	38.65	0.653835	37 	39 
1396	5     	38.65	0.653835	37 	39 
1397	5     	38.65	0.653835	37 	39 
1398	5     	38.65	0.653835	37 	39 
1399	5     	38.65	0.653835	37 	39 
1400	5     	38.65	0.653835	37 	39 
1401	5     	38.65	0.653835	37 	39 
1402	5     	38.65	0.653835	37 	39 
1403	5     	38.65	0.653835	37 	39 
1404	5     	38.65	0.653835	37 	39 
1405	5     	38.65	0.653835	37 	39 
1406	5     	38.65	0.653835	37 	39 
1407	5     	38.65	0.653835	37 	39 
1408	5     	38.65	0.653835	37 	39 
1409	5     	38.65	0.653835	37 	39 
1410	5     	38.65	0.653835	37 	39 
1411	5     	38.65	0.653835	37 	39 
1412	5     	38.65	0.653835	37 	39 
1413	5     	38.65	0.653835	37 	39 
1414	5     	38.65	0.653835	37 	39 
1415	5     	38.65	0.653835	37 	39 
1416	5     	38.65	0.653835	37 	39 
1417	5     	38.65	0.653835	37 	39 
1418	5     	38.65	0.653835	37 	39 
1419	5     	38.65	0.653835	37 	39 
1420	5     	38.65	0.653835	37 	39 
1421	5     	38.65	0.653835	37 	39 
1422	5     	38.65	0.653835	37 	39 
1423	5     	38.65	0.653835	37 	39 
1424	5     	38.65	0.653835	37 	39 
1425	5     	38.65	0.653835	37 	39 
1426	5     	38.65	0.653835	37 	39 
1427	5     	38.65	0.653835	37 	39 
1428	5     	38.65	0.653835	37 	39 
1429	5     	38.6 	0.663325	37 	39 
1430	5     	38.6 	0.663325	37 	39 
1431	5     	38.6 	0.663325	37 	39 
1432	5     	38.6 	0.663325	37 	39 
1433	5     	38.6 	0.663325	37 	39 
1434	5     	38.6 	0.663325	37 	39 
1435	5     	38.6 	0.663325	37 	39 
1436	5     	38.6 	0.663325	37 	39 
1437	5     	38.6 	0.663325	37 	39 
1438	5     	38.6 	0.663325	37 	39 
1439	5     	38.6 	0.663325	37 	39 
1440	5     	38.6 	0.663325	37 	39 
1441	5     	38.6 	0.663325	37 	39 
1442	5     	38.6 	0.663325	37 	39 
1443	5     	38.6 	0.663325	37 	39 
1444	5     	38.6 	0.663325	37 	39 
1445	5     	38.6 	0.663325	37 	39 
1446	5     	38.6 	0.663325	37 	39 
1447	5     	38.6 	0.663325	37 	39 
1448	5     	38.6 	0.663325	37 	39 
1449	5     	38.6 	0.663325	37 	39 
1450	5     	38.6 	0.663325	37 	39 
1451	5     	38.6 	0.663325	37 	39 
1452	5     	38.6 	0.663325	37 	39 
1453	5     	38.6 	0.663325	37 	39 
1454	5     	38.6 	0.663325	37 	39 
1455	5     	38.6 	0.663325	37 	39 
1456	5     	38.6 	0.663325	37 	39 
1457	5     	38.6 	0.663325	37 	39 
1458	5     	38.6 	0.663325	37 	39 
1459	5     	38.6 	0.663325	37 	39 
1460	5     	38.6 	0.663325	37 	39 
1461	5     	38.6 	0.663325	37 	39 
1462	5     	38.6 	0.663325	37 	39 
1463	5     	38.6 	0.663325	37 	39 
1464	5     	38.6 	0.663325	37 	39 
1465	5     	38.6 	0.663325	37 	39 
1466	5     	38.6 	0.663325	37 	39 
1467	5     	38.6 	0.663325	37 	39 
1468	5     	38.6 	0.663325	37 	39 
1469	5     	38.6 	0.663325	37 	39 
1470	5     	38.6 	0.663325	37 	39 
1471	5     	38.6 	0.663325	37 	39 
1472	5     	38.6 	0.663325	37 	39 
1473	5     	38.6 	0.663325	37 	39 
1474	5     	38.6 	0.663325	37 	39 
1475	5     	38.6 	0.663325	37 	39 
1476	5     	38.6 	0.663325	37 	39 
1477	5     	38.6 	0.663325	37 	39 
1478	5     	38.6 	0.663325	37 	39 
1479	5     	38.6 	0.663325	37 	39 
1480	5     	38.6 	0.663325	37 	39 
1481	5     	38.6 	0.663325	37 	39 
1482	5     	38.6 	0.663325	37 	39 
1483	5     	38.6 	0.663325	37 	39 
1484	5     	38.6 	0.663325	37 	39 
1485	5     	38.6 	0.663325	37 	39 
1486	5     	38.6 	0.663325	37 	39 
1487	5     	38.6 	0.663325	37 	39 
1488	5     	38.6 	0.663325	37 	39 
1489	5     	38.6 	0.663325	37 	39 
1490	5     	38.6 	0.663325	37 	39 
1491	5     	38.6 	0.663325	37 	39 
1492	5     	38.6 	0.663325	37 	39 
1493	5     	38.6 	0.663325	37 	39 
1494	5     	38.6 	0.663325	37 	39 
1495	5     	38.6 	0.663325	37 	39 
1496	5     	38.6 	0.663325	37 	39 
1497	5     	38.6 	0.663325	37 	39 
1498	5     	38.6 	0.663325	37 	39 
1499	5     	38.6 	0.663325	37 	39 
1500	5     	38.6 	0.663325	37 	39 
1501	5     	38.6 	0.663325	37 	39 
1502	5     	38.6 	0.663325	37 	39 
1503	5     	38.6 	0.663325	37 	39 
1504	5     	38.6 	0.663325	37 	39 
1505	5     	38.6 	0.663325	37 	39 
1506	5     	38.6 	0.663325	37 	39 
1507	5     	38.6 	0.663325	37 	39 
1508	5     	38.6 	0.663325	37 	39 
1509	5     	38.6 	0.663325	37 	39 
1510	5     	38.6 	0.663325	37 	39 
1511	5     	38.6 	0.663325	37 	39 
1512	5     	38.6 	0.663325	37 	39 
1513	5     	38.6 	0.663325	37 	39 
1514	5     	38.6 	0.663325	37 	39 
1515	5     	38.6 	0.663325	37 	39 
1516	5     	38.6 	0.663325	37 	39 
1517	5     	38.6 	0.663325	37 	39 
1518	5     	38.6 	0.663325	37 	39 
1519	5     	38.6 	0.663325	37 	39 
1520	5     	38.6 	0.663325	37 	39 
1521	5     	38.6 	0.663325	37 	39 
1522	5     	38.6 	0.663325	37 	39 
1523	5     	38.6 	0.663325	37 	39 
1524	5     	38.6 	0.663325	37 	39 
1525	5     	38.6 	0.663325	37 	39 
1526	5     	38.6 	0.663325	37 	39 
1527	5     	38.6 	0.663325	37 	39 
1528	5     	38.6 	0.663325	37 	39 
1529	5     	38.6 	0.663325	37 	39 
1530	5     	38.6 	0.663325	37 	39 
1531	5     	38.6 	0.663325	37 	39 
1532	5     	38.6 	0.663325	37 	39 
1533	5     	38.6 	0.663325	37 	39 
1534	5     	38.6 	0.663325	37 	39 
1535	5     	38.6 	0.663325	37 	39 
1536	5     	38.6 	0.663325	37 	39 
1537	5     	38.6 	0.663325	37 	39 
1538	5     	38.6 	0.663325	37 	39 
1539	5     	38.6 	0.663325	37 	39 
1540	5     	38.6 	0.663325	37 	39 
1541	5     	38.6 	0.663325	37 	39 
1542	5     	38.6 	0.663325	37 	39 
1543	5     	38.6 	0.663325	37 	39 
1544	5     	38.6 	0.663325	37 	39 
1545	5     	38.6 	0.663325	37 	39 
1546	5     	38.6 	0.663325	37 	39 
1547	5     	38.6 	0.663325	37 	39 
1548	5     	38.6 	0.663325	37 	39 
1549	5     	38.6 	0.663325	37 	39 
1550	5     	38.6 	0.663325	37 	39 
1551	5     	38.6 	0.663325	37 	39 
1552	5     	38.6 	0.663325	37 	39 
1553	5     	38.6 	0.663325	37 	39 
1554	5     	38.6 	0.663325	37 	39 
1555	5     	38.6 	0.663325	37 	39 
1556	5     	38.6 	0.663325	37 	39 
1557	5     	38.6 	0.663325	37 	39 
1558	5     	38.6 	0.663325	37 	39 
1559	5     	38.6 	0.663325	37 	39 
1560	5     	38.6 	0.663325	37 	39 
1561	5     	38.6 	0.663325	37 	39 
1562	5     	38.6 	0.663325	37 	39 
1563	5     	38.6 	0.663325	37 	39 
1564	5     	38.6 	0.663325	37 	39 
1565	5     	38.6 	0.663325	37 	39 
1566	5     	38.6 	0.663325	37 	39 
1567	5     	38.6 	0.663325	37 	39 
1568	5     	38.6 	0.663325	37 	39 
1569	5     	38.6 	0.663325	37 	39 
1570	5     	38.6 	0.663325	37 	39 
1571	5     	38.6 	0.663325	37 	39 
1572	5     	38.6 	0.663325	37 	39 
1573	5     	38.6 	0.663325	37 	39 
1574	5     	38.6 	0.663325	37 	39 
1575	5     	38.6 	0.663325	37 	39 
1576	5     	38.6 	0.663325	37 	39 
1577	5     	38.6 	0.663325	37 	39 
1578	5     	38.6 	0.663325	37 	39 
1579	5     	38.6 	0.663325	37 	39 
1580	5     	38.6 	0.663325	37 	39 
1581	5     	38.6 	0.663325	37 	39 
1582	5     	38.6 	0.663325	37 	39 
1583	5     	38.6 	0.663325	37 	39 
1584	5     	38.6 	0.663325	37 	39 
1585	5     	38.6 	0.663325	37 	39 
1586	5     	38.6 	0.663325	37 	39 
1587	5     	38.6 	0.663325	37 	39 
1588	5     	38.6 	0.663325	37 	39 
1589	5     	38.6 	0.663325	37 	39 
1590	5     	38.6 	0.663325	37 	39 
1591	5     	38.6 	0.663325	37 	39 
1592	5     	38.6 	0.663325	37 	39 
1593	5     	38.6 	0.663325	37 	39 
1594	5     	38.6 	0.663325	37 	39 
1595	5     	38.6 	0.663325	37 	39 
1596	5     	38.6 	0.663325	37 	39 
1597	5     	38.6 	0.663325	37 	39 
1598	5     	38.6 	0.663325	37 	39 
1599	5     	38.6 	0.663325	37 	39 
1600	5     	38.6 	0.663325	37 	39 
1601	5     	38.6 	0.663325	37 	39 
1602	5     	38.55	0.668954	37 	39 
1603	5     	38.55	0.668954	37 	39 
1604	5     	38.55	0.668954	37 	39 
1605	5     	38.55	0.668954	37 	39 
1606	5     	38.55	0.668954	37 	39 
1607	5     	38.55	0.668954	37 	39 
1608	5     	38.55	0.668954	37 	39 
1609	5     	38.55	0.668954	37 	39 
1610	5     	38.55	0.668954	37 	39 
1611	5     	38.55	0.668954	37 	39 
1612	5     	38.55	0.668954	37 	39 
1613	5     	38.55	0.668954	37 	39 
1614	5     	38.55	0.668954	37 	39 
1615	5     	38.55	0.668954	37 	39 
1616	5     	38.55	0.668954	37 	39 
1617	5     	38.55	0.668954	37 	39 
1618	5     	38.55	0.668954	37 	39 
1619	5     	38.55	0.668954	37 	39 
1620	5     	38.55	0.668954	37 	39 
1621	5     	38.55	0.668954	37 	39 
1622	5     	38.55	0.668954	37 	39 
1623	5     	38.55	0.668954	37 	39 
1624	5     	38.55	0.668954	37 	39 
1625	5     	38.55	0.668954	37 	39 
1626	5     	38.55	0.668954	37 	39 
1627	5     	38.55	0.668954	37 	39 
1628	5     	38.55	0.668954	37 	39 
1629	5     	38.55	0.668954	37 	39 
1630	5     	38.55	0.668954	37 	39 
1631	5     	38.55	0.668954	37 	39 
1632	5     	38.55	0.668954	37 	39 
1633	5     	38.55	0.668954	37 	39 
1634	5     	38.55	0.668954	37 	39 
1635	5     	38.55	0.668954	37 	39 
1636	5     	38.55	0.668954	37 	39 
1637	5     	38.55	0.668954	37 	39 
1638	5     	38.55	0.668954	37 	39 
1639	5     	38.55	0.668954	37 	39 
1640	5     	38.55	0.668954	37 	39 
1641	5     	38.55	0.668954	37 	39 
1642	5     	38.55	0.668954	37 	39 
1643	5     	38.55	0.668954	37 	39 
1644	5     	38.55	0.668954	37 	39 
1645	5     	38.55	0.668954	37 	39 
1646	5     	38.55	0.668954	37 	39 
1647	5     	38.55	0.668954	37 	39 
1648	5     	38.55	0.668954	37 	39 
1649	5     	38.55	0.668954	37 	39 
1650	5     	38.55	0.668954	37 	39 
1651	5     	38.55	0.668954	37 	39 
1652	5     	38.55	0.668954	37 	39 
1653	5     	38.55	0.668954	37 	39 
1654	5     	38.55	0.668954	37 	39 
1655	5     	38.55	0.668954	37 	39 
1656	5     	38.55	0.668954	37 	39 
1657	5     	38.55	0.668954	37 	39 
1658	5     	38.55	0.668954	37 	39 
1659	5     	38.55	0.668954	37 	39 
1660	5     	38.55	0.668954	37 	39 
1661	5     	38.55	0.668954	37 	39 
1662	5     	38.55	0.668954	37 	39 
1663	5     	38.55	0.668954	37 	39 
1664	5     	38.55	0.668954	37 	39 
1665	5     	38.55	0.668954	37 	39 
1666	5     	38.55	0.668954	37 	39 
1667	5     	38.55	0.668954	37 	39 
1668	5     	38.55	0.668954	37 	39 
1669	5     	38.55	0.668954	37 	39 
1670	5     	38.55	0.668954	37 	39 
1671	5     	38.55	0.668954	37 	39 
1672	5     	38.55	0.668954	37 	39 
1673	5     	38.55	0.668954	37 	39 
1674	5     	38.55	0.668954	37 	39 
1675	5     	38.55	0.668954	37 	39 
1676	5     	38.55	0.668954	37 	39 
1677	5     	38.55	0.668954	37 	39 
1678	5     	38.55	0.668954	37 	39 
1679	5     	38.55	0.668954	37 	39 
1680	5     	38.55	0.668954	37 	39 
1681	5     	38.55	0.668954	37 	39 
1682	5     	38.55	0.668954	37 	39 
1683	5     	38.55	0.668954	37 	39 
1684	5     	38.55	0.668954	37 	39 
1685	5     	38.55	0.668954	37 	39 
1686	5     	38.55	0.668954	37 	39 
1687	5     	38.55	0.668954	37 	39 
1688	5     	38.55	0.668954	37 	39 
1689	5     	38.55	0.668954	37 	39 
1690	5     	38.55	0.668954	37 	39 
1691	5     	38.55	0.668954	37 	39 
1692	5     	38.55	0.668954	37 	39 
1693	5     	38.55	0.668954	37 	39 
1694	5     	38.55	0.668954	37 	39 
1695	5     	38.55	0.668954	37 	39 
1696	5     	38.55	0.668954	37 	39 
1697	5     	38.55	0.668954	37 	39 
1698	5     	38.55	0.668954	37 	39 
1699	5     	38.55	0.668954	37 	39 
1700	5     	38.55	0.668954	37 	39 
1701	5     	38.55	0.668954	37 	39 
1702	5     	38.55	0.668954	37 	39 
1703	5     	38.55	0.668954	37 	39 
1704	5     	38.55	0.668954	37 	39 
1705	5     	38.55	0.668954	37 	39 
1706	5     	38.55	0.668954	37 	39 
1707	5     	38.55	0.668954	37 	39 
1708	5     	38.55	0.668954	37 	39 
1709	5     	38.55	0.668954	37 	39 
1710	5     	38.55	0.668954	37 	39 
1711	5     	38.55	0.668954	37 	39 
1712	5     	38.55	0.668954	37 	39 
1713	5     	38.55	0.668954	37 	39 
1714	5     	38.55	0.668954	37 	39 
1715	5     	38.55	0.668954	37 	39 
1716	5     	38.55	0.668954	37 	39 
1717	5     	38.55	0.668954	37 	39 
1718	5     	38.55	0.668954	37 	39 
1719	5     	38.55	0.668954	37 	39 
1720	5     	38.55	0.668954	37 	39 
1721	5     	38.55	0.668954	37 	39 
1722	5     	38.55	0.668954	37 	39 
1723	5     	38.55	0.668954	37 	39 
1724	5     	38.55	0.668954	37 	39 
1725	5     	38.55	0.668954	37 	39 
1726	5     	38.55	0.668954	37 	39 
1727	5     	38.55	0.668954	37 	39 
1728	5     	38.55	0.668954	37 	39 
1729	5     	38.55	0.668954	37 	39 
1730	5     	38.55	0.668954	37 	39 
1731	5     	38.55	0.668954	37 	39 
1732	5     	38.55	0.668954	37 	39 
1733	5     	38.55	0.668954	37 	39 
1734	5     	38.55	0.668954	37 	39 
1735	5     	38.55	0.668954	37 	39 
1736	5     	38.55	0.668954	37 	39 
1737	5     	38.55	0.668954	37 	39 
1738	5     	38.55	0.668954	37 	39 
1739	5     	38.55	0.668954	37 	39 
1740	5     	38.55	0.668954	37 	39 
1741	5     	38.55	0.668954	37 	39 
1742	5     	38.55	0.668954	37 	39 
1743	5     	38.55	0.668954	37 	39 
1744	5     	38.55	0.668954	37 	39 
1745	5     	38.55	0.668954	37 	39 
1746	5     	38.55	0.668954	37 	39 
1747	5     	38.55	0.668954	37 	39 
1748	5     	38.55	0.668954	37 	39 
1749	5     	38.55	0.668954	37 	39 
1750	5     	38.55	0.668954	37 	39 
1751	5     	38.55	0.668954	37 	39 
1752	5     	38.55	0.668954	37 	39 
1753	5     	38.55	0.668954	37 	39 
1754	5     	38.55	0.668954	37 	39 
1755	5     	38.55	0.668954	37 	39 
1756	5     	38.55	0.668954	37 	39 
1757	5     	38.55	0.668954	37 	39 
1758	5     	38.55	0.668954	37 	39 
1759	5     	38.55	0.668954	37 	39 
1760	5     	38.55	0.668954	37 	39 
1761	5     	38.55	0.668954	37 	39 
1762	5     	38.55	0.668954	37 	39 
1763	5     	38.55	0.668954	37 	39 
1764	5     	38.55	0.668954	37 	39 
1765	5     	38.55	0.668954	37 	39 
1766	5     	38.55	0.668954	37 	39 
1767	5     	38.55	0.668954	37 	39 
1768	5     	38.55	0.668954	37 	39 
1769	5     	38.55	0.668954	37 	39 
1770	5     	38.55	0.668954	37 	39 
1771	5     	38.55	0.668954	37 	39 
1772	5     	38.55	0.668954	37 	39 
1773	5     	38.55	0.668954	37 	39 
1774	5     	38.55	0.668954	37 	39 
1775	5     	38.55	0.668954	37 	39 
1776	5     	38.55	0.668954	37 	39 
1777	5     	38.55	0.668954	37 	39 
1778	5     	38.55	0.668954	37 	39 
1779	5     	38.55	0.668954	37 	39 
1780	5     	38.55	0.668954	37 	39 
1781	5     	38.55	0.668954	37 	39 
1782	5     	38.55	0.668954	37 	39 
1783	5     	38.55	0.668954	37 	39 
1784	5     	38.55	0.668954	37 	39 
1785	5     	38.55	0.668954	37 	39 
1786	5     	38.55	0.668954	37 	39 
1787	5     	38.55	0.668954	37 	39 
1788	5     	38.55	0.668954	37 	39 
1789	5     	38.55	0.668954	37 	39 
1790	5     	38.55	0.668954	37 	39 
1791	5     	38.55	0.668954	37 	39 
1792	5     	38.55	0.668954	37 	39 
1793	5     	38.55	0.668954	37 	39 
1794	5     	38.55	0.668954	37 	39 
1795	5     	38.55	0.668954	37 	39 
1796	5     	38.35	1.01366 	35 	39 
1797	5     	38.35	1.01366 	35 	39 
1798	5     	38.35	1.01366 	35 	39 
1799	5     	38.35	1.01366 	35 	39 
1800	5     	38.35	1.01366 	35 	39 
1801	5     	38.35	1.01366 	35 	39 
1802	5     	38.35	1.01366 	35 	39 
1803	5     	38.35	1.01366 	35 	39 
1804	5     	38.35	1.01366 	35 	39 
1805	5     	38.35	1.01366 	35 	39 
1806	5     	38.35	1.01366 	35 	39 
1807	5     	38.35	1.01366 	35 	39 
1808	5     	38.35	1.01366 	35 	39 
1809	5     	38.35	1.01366 	35 	39 
1810	5     	38.35	1.01366 	35 	39 
1811	5     	38.35	1.01366 	35 	39 
1812	5     	38.35	1.01366 	35 	39 
1813	5     	38.35	1.01366 	35 	39 
1814	5     	38.35	1.01366 	35 	39 
1815	5     	38.35	1.01366 	35 	39 
1816	5     	38.35	1.01366 	35 	39 
1817	5     	38.35	1.01366 	35 	39 
1818	5     	38.35	1.01366 	35 	39 
1819	5     	38.35	1.01366 	35 	39 
1820	5     	38.35	1.01366 	35 	39 
1821	5     	38.35	1.01366 	35 	39 
1822	5     	38.35	1.01366 	35 	39 
1823	5     	38.35	1.01366 	35 	39 
1824	5     	38.35	1.01366 	35 	39 
1825	5     	38.35	1.01366 	35 	39 
1826	5     	38.35	1.01366 	35 	39 
1827	5     	38.35	1.01366 	35 	39 
1828	5     	38.35	1.01366 	35 	39 
1829	5     	38.35	1.01366 	35 	39 
1830	5     	38.35	1.01366 	35 	39 
1831	5     	38.35	1.01366 	35 	39 
1832	5     	38.35	1.01366 	35 	39 
1833	5     	38.35	1.01366 	35 	39 
1834	5     	38.35	1.01366 	35 	39 
1835	5     	38.35	1.01366 	35 	39 
1836	5     	38.35	1.01366 	35 	39 
1837	5     	38.35	1.01366 	35 	39 
1838	5     	38.35	1.01366 	35 	39 
1839	5     	38.35	1.01366 	35 	39 
1840	5     	38.35	1.01366 	35 	39 
1841	5     	38.35	1.01366 	35 	39 
1842	5     	38.35	1.01366 	35 	39 
1843	5     	38.35	1.01366 	35 	39 
1844	5     	38.35	1.01366 	35 	39 
1845	5     	38.35	1.01366 	35 	39 
1846	5     	38.35	1.01366 	35 	39 
1847	5     	38.35	1.01366 	35 	39 
1848	5     	38.35	1.01366 	35 	39 
1849	5     	38.35	1.01366 	35 	39 
1850	5     	38.35	1.01366 	35 	39 
1851	5     	38.35	1.01366 	35 	39 
1852	5     	38.35	1.01366 	35 	39 
1853	5     	38.35	1.01366 	35 	39 
1854	5     	38.35	1.01366 	35 	39 
1855	5     	38.35	1.01366 	35 	39 
1856	5     	38.35	1.01366 	35 	39 
1857	5     	38.35	1.01366 	35 	39 
1858	5     	38.35	1.01366 	35 	39 
1859	5     	38.35	1.01366 	35 	39 
1860	5     	38.35	1.01366 	35 	39 
1861	5     	38.35	1.01366 	35 	39 
1862	5     	38.35	1.01366 	35 	39 
1863	5     	38.35	1.01366 	35 	39 
1864	5     	38.35	1.01366 	35 	39 
1865	5     	38.35	1.01366 	35 	39 
1866	5     	38.35	1.01366 	35 	39 
1867	5     	38.35	1.01366 	35 	39 
1868	5     	38.35	1.01366 	35 	39 
1869	5     	38.35	1.01366 	35 	39 
1870	5     	38.35	1.01366 	35 	39 
1871	5     	38.35	1.01366 	35 	39 
1872	5     	38.35	1.01366 	35 	39 
1873	5     	38.35	1.01366 	35 	39 
1874	5     	38.35	1.01366 	35 	39 
1875	5     	38.35	1.01366 	35 	39 
1876	5     	38.25	1.04283 	35 	39 
1877	5     	38.25	1.04283 	35 	39 
1878	5     	38.25	1.04283 	35 	39 
1879	5     	38.25	1.04283 	35 	39 
1880	5     	38.25	1.04283 	35 	39 
1881	5     	38.25	1.04283 	35 	39 
1882	5     	38.25	1.04283 	35 	39 
1883	5     	38.25	1.04283 	35 	39 
1884	5     	38.25	1.04283 	35 	39 
1885	5     	38.25	1.04283 	35 	39 
1886	5     	38.25	1.04283 	35 	39 
1887	5     	38.25	1.04283 	35 	39 
1888	5     	38.25	1.04283 	35 	39 
1889	5     	38.25	1.04283 	35 	39 
1890	5     	38.25	1.04283 	35 	39 
1891	5     	38.25	1.04283 	35 	39 
1892	5     	38.25	1.04283 	35 	39 
1893	5     	38.25	1.04283 	35 	39 
1894	5     	38.25	1.04283 	35 	39 
1895	5     	38.25	1.04283 	35 	39 
1896	5     	38.25	1.04283 	35 	39 
1897	5     	38.25	1.04283 	35 	39 
1898	5     	38.25	1.04283 	35 	39 
1899	5     	38.25	1.04283 	35 	39 
1900	5     	38.25	1.04283 	35 	39 
1901	5     	38.25	1.04283 	35 	39 
1902	5     	38.25	1.04283 	35 	39 
1903	5     	38.25	1.04283 	35 	39 
1904	5     	38.25	1.04283 	35 	39 
1905	5     	38.25	1.04283 	35 	39 
1906	5     	38.25	1.04283 	35 	39 
1907	5     	38.25	1.04283 	35 	39 
1908	5     	38.25	1.04283 	35 	39 
1909	5     	38.25	1.04283 	35 	39 
1910	5     	38.25	1.04283 	35 	39 
1911	5     	38.25	1.04283 	35 	39 
1912	5     	38.25	1.04283 	35 	39 
1913	5     	38.25	1.04283 	35 	39 
1914	5     	38.25	1.04283 	35 	39 
1915	5     	38.25	1.04283 	35 	39 
1916	5     	38.25	1.04283 	35 	39 
1917	5     	38.25	1.04283 	35 	39 
1918	5     	38.25	1.04283 	35 	39 
1919	5     	38.25	1.04283 	35 	39 
1920	5     	38.25	1.04283 	35 	39 
1921	5     	38.25	1.04283 	35 	39 
1922	5     	38.25	1.04283 	35 	39 
1923	5     	38.25	1.04283 	35 	39 
1924	5     	38.25	1.04283 	35 	39 
1925	5     	38.25	1.04283 	35 	39 
1926	5     	38.25	1.04283 	35 	39 
1927	5     	38.25	1.04283 	35 	39 
1928	5     	38.25	1.04283 	35 	39 
1929	5     	38.25	1.04283 	35 	39 
1930	5     	38.25	1.04283 	35 	39 
1931	5     	38.25	1.04283 	35 	39 
1932	5     	38.25	1.04283 	35 	39 
1933	5     	38.25	1.04283 	35 	39 
1934	5     	38.25	1.04283 	35 	39 
1935	5     	38.25	1.04283 	35 	39 
1936	5     	38.25	1.04283 	35 	39 
1937	5     	38.25	1.04283 	35 	39 
1938	5     	38.25	1.04283 	35 	39 
1939	5     	38.25	1.04283 	35 	39 
1940	5     	38.25	1.04283 	35 	39 
1941	5     	38.25	1.04283 	35 	39 
1942	5     	38.25	1.04283 	35 	39 
1943	5     	38.25	1.04283 	35 	39 
1944	5     	38.25	1.04283 	35 	39 
1945	5     	38.25	1.04283 	35 	39 
1946	5     	38.25	1.04283 	35 	39 
1947	5     	38.25	1.04283 	35 	39 
1948	5     	38.25	1.04283 	35 	39 
1949	5     	38.25	1.04283 	35 	39 
1950	5     	38.25	1.04283 	35 	39 
1951	5     	38.25	1.04283 	35 	39 
1952	5     	38.25	1.04283 	35 	39 
1953	5     	38.25	1.04283 	35 	39 
1954	5     	38.25	1.04283 	35 	39 
1955	5     	38.25	1.04283 	35 	39 
1956	5     	38.25	1.04283 	35 	39 
1957	5     	38.25	1.04283 	35 	39 
1958	5     	38.25	1.04283 	35 	39 
1959	5     	38.25	1.04283 	35 	39 
1960	5     	38.25	1.04283 	35 	39 
1961	5     	38.25	1.04283 	35 	39 
1962	5     	38.25	1.04283 	35 	39 
1963	5     	38.25	1.04283 	35 	39 
1964	5     	38.25	1.04283 	35 	39 
1965	5     	38.25	1.04283 	35 	39 
1966	5     	38.25	1.04283 	35 	39 
1967	5     	38.25	1.04283 	35 	39 
1968	5     	38.25	1.04283 	35 	39 
1969	5     	38.25	1.04283 	35 	39 
1970	5     	38.25	1.04283 	35 	39 
1971	5     	38.25	1.04283 	35 	39 
1972	5     	38.25	1.04283 	35 	39 
1973	5     	38.25	1.04283 	35 	39 
1974	5     	38.25	1.04283 	35 	39 
1975	5     	38.25	1.04283 	35 	39 
1976	5     	38.25	1.04283 	35 	39 
1977	5     	38.25	1.04283 	35 	39 
1978	5     	38.25	1.04283 	35 	39 
1979	5     	38.25	1.04283 	35 	39 
1980	5     	38.25	1.04283 	35 	39 
1981	5     	38.25	1.04283 	35 	39 
1982	5     	38.25	1.04283 	35 	39 
1983	5     	38.25	1.04283 	35 	39 
1984	5     	38.25	1.04283 	35 	39 
1985	5     	38.25	1.04283 	35 	39 
1986	5     	38.25	1.04283 	35 	39 
1987	5     	38.25	1.04283 	35 	39 
1988	5     	38.25	1.04283 	35 	39 
1989	5     	38.25	1.04283 	35 	39 
1990	5     	38.25	1.04283 	35 	39 
1991	5     	38.25	1.04283 	35 	39 
1992	5     	38.25	1.04283 	35 	39 
1993	5     	38.25	1.04283 	35 	39 
1994	5     	38.25	1.04283 	35 	39 
1995	5     	38.25	1.04283 	35 	39 
1996	5     	38.25	1.04283 	35 	39 
