gen 	nevals	avg  	std     	min	max
0   	20    	40.35	2.74363 	35 	46 
1   	5     	39.15	1.98179 	35 	42 
2   	5     	38   	2.30217 	32 	41 
3   	5     	38   	2.30217 	32 	41 
4   	5     	37.4 	1.95959 	32 	40 
5   	5     	37.2 	1.8868  	32 	40 
6   	5     	37.05	1.77412 	32 	39 
7   	5     	37.05	1.77412 	32 	39 
8   	5     	36.9 	1.72916 	32 	39 
9   	5     	36.9 	1.72916 	32 	39 
10  	5     	36.4 	1.71464 	32 	39 
11  	5     	36.25	1.54515 	32 	38 
12  	5     	35.85	1.4586  	32 	38 
13  	5     	35.55	1.59609 	32 	37 
14  	5     	35.55	1.59609 	32 	37 
15  	5     	35.5 	1.56525 	32 	37 
16  	5     	35.5 	1.56525 	32 	37 
17  	5     	35.45	1.53216 	32 	37 
18  	5     	35.45	1.53216 	32 	37 
19  	5     	35.45	1.53216 	32 	37 
20  	5     	35.4 	1.49666 	32 	37 
21  	5     	35.4 	1.49666 	32 	37 
22  	5     	35.4 	1.49666 	32 	37 
23  	5     	35.2 	1.53623 	32 	37 
24  	5     	35.05	1.49917 	32 	37 
25  	5     	35.05	1.49917 	32 	37 
26  	5     	35.05	1.49917 	32 	37 
27  	5     	35.05	1.49917 	32 	37 
28  	5     	34.9 	1.44568 	32 	37 
29  	5     	34.9 	1.44568 	32 	37 
30  	5     	34.9 	1.44568 	32 	37 
31  	5     	34.7 	1.41774 	32 	36 
32  	5     	34.6 	1.39284 	32 	36 
33  	5     	34.6 	1.39284 	32 	36 
34  	5     	34.6 	1.39284 	32 	36 
35  	5     	34.6 	1.39284 	32 	36 
36  	5     	34.45	1.39553 	32 	36 
37  	5     	34.35	1.35185 	32 	36 
38  	5     	34.35	1.35185 	32 	36 
39  	5     	34.35	1.35185 	32 	36 
40  	5     	34.35	1.35185 	32 	36 
41  	5     	34.3 	1.30767 	32 	36 
42  	5     	34.3 	1.30767 	32 	36 
43  	5     	34.3 	1.30767 	32 	36 
44  	5     	34.15	1.27574 	32 	36 
45  	5     	34.15	1.27574 	32 	36 
46  	5     	34.15	1.27574 	32 	36 
47  	5     	34.15	1.27574 	32 	36 
48  	5     	34.15	1.27574 	32 	36 
49  	5     	34.05	1.16082 	32 	36 
50  	5     	34.05	1.16082 	32 	36 
51  	5     	34.05	1.16082 	32 	36 
52  	5     	34.05	1.16082 	32 	36 
53  	5     	34.05	1.16082 	32 	36 
54  	5     	34.05	1.16082 	32 	36 
55  	5     	34   	1.09545 	32 	36 
56  	5     	34   	1.09545 	32 	36 
57  	5     	34   	1.09545 	32 	36 
58  	5     	34   	1.09545 	32 	36 
59  	5     	34   	1.09545 	32 	36 
60  	5     	34   	1.09545 	32 	36 
61  	5     	34   	1.09545 	32 	36 
62  	5     	34   	1.09545 	32 	36 
63  	5     	34   	1.09545 	32 	36 
64  	5     	34   	1.09545 	32 	36 
65  	5     	34   	1.09545 	32 	36 
66  	5     	34   	1.09545 	32 	36 
67  	5     	34   	1.09545 	32 	36 
68  	5     	34   	1.09545 	32 	36 
69  	5     	34   	1.09545 	32 	36 
70  	5     	34   	1.09545 	32 	36 
71  	5     	34   	1.09545 	32 	36 
72  	5     	34   	1.09545 	32 	36 
73  	5     	34   	1.09545 	32 	36 
74  	5     	34   	1.09545 	32 	36 
75  	5     	33.85	1.01366 	32 	35 
76  	5     	33.85	1.01366 	32 	35 
77  	5     	33.85	1.01366 	32 	35 
78  	5     	33.85	1.01366 	32 	35 
79  	5     	33.85	1.01366 	32 	35 
80  	5     	33.85	1.01366 	32 	35 
81  	5     	33.85	1.01366 	32 	35 
82  	5     	33.85	1.01366 	32 	35 
83  	5     	33.85	1.01366 	32 	35 
84  	5     	33.85	1.01366 	32 	35 
85  	5     	33.85	1.01366 	32 	35 
86  	5     	33.8 	0.979796	32 	35 
87  	5     	33.8 	0.979796	32 	35 
88  	5     	33.8 	0.979796	32 	35 
89  	5     	33.8 	0.979796	32 	35 
90  	5     	33.8 	0.979796	32 	35 
91  	5     	33.8 	0.979796	32 	35 
92  	5     	33.8 	0.979796	32 	35 
93  	5     	33.8 	0.979796	32 	35 
94  	5     	33.8 	0.979796	32 	35 
95  	5     	33.8 	0.979796	32 	35 
96  	5     	33.8 	0.979796	32 	35 
97  	5     	33.8 	0.979796	32 	35 
98  	5     	33.8 	0.979796	32 	35 
99  	5     	33.8 	0.979796	32 	35 
100 	5     	33.8 	0.979796	32 	35 
101 	5     	33.8 	0.979796	32 	35 
102 	5     	33.8 	0.979796	32 	35 
103 	5     	33.7 	0.9     	32 	35 
104 	5     	33.7 	0.9     	32 	35 
105 	5     	33.7 	0.9     	32 	35 
106 	5     	33.7 	0.9     	32 	35 
107 	5     	33.7 	0.9     	32 	35 
108 	5     	33.7 	0.9     	32 	35 
109 	5     	33.65	0.852936	32 	35 
110 	5     	33.65	0.852936	32 	35 
111 	5     	33.45	0.973396	31 	35 
112 	5     	33.45	0.973396	31 	35 
113 	5     	33.4 	0.916515	31 	35 
114 	5     	33.35	0.852936	31 	34 
115 	5     	33.35	0.852936	31 	34 
116 	5     	33.35	0.852936	31 	34 
117 	5     	33.35	0.852936	31 	34 
118 	5     	33.35	0.852936	31 	34 
119 	5     	33.3 	0.842615	31 	34 
120 	5     	33.3 	0.842615	31 	34 
121 	5     	33.3 	0.842615	31 	34 
122 	5     	33.3 	0.842615	31 	34 
123 	5     	33.3 	0.842615	31 	34 
124 	5     	33.3 	0.842615	31 	34 
125 	5     	33.3 	0.842615	31 	34 
126 	5     	33.3 	0.842615	31 	34 
127 	5     	33.3 	0.842615	31 	34 
128 	5     	33.3 	0.842615	31 	34 
129 	5     	33.3 	0.842615	31 	34 
130 	5     	33.3 	0.842615	31 	34 
131 	5     	33.3 	0.842615	31 	34 
132 	5     	33.3 	0.842615	31 	34 
133 	5     	33.3 	0.842615	31 	34 
134 	5     	33.3 	0.842615	31 	34 
135 	5     	33.25	0.829156	31 	34 
136 	5     	33.25	0.829156	31 	34 
137 	5     	33.25	0.829156	31 	34 
138 	5     	33.25	0.829156	31 	34 
139 	5     	33.25	0.829156	31 	34 
140 	5     	33.25	0.829156	31 	34 
141 	5     	33.25	0.829156	31 	34 
142 	5     	33.25	0.829156	31 	34 
143 	5     	33.25	0.829156	31 	34 
144 	5     	33.25	0.829156	31 	34 
145 	5     	33.25	0.829156	31 	34 
146 	5     	33.25	0.829156	31 	34 
147 	5     	33.25	0.829156	31 	34 
148 	5     	33.25	0.829156	31 	34 
149 	5     	33.25	0.829156	31 	34 
150 	5     	33.15	0.852936	31 	34 
151 	5     	33.15	0.852936	31 	34 
152 	5     	33.15	0.852936	31 	34 
153 	5     	33.15	0.852936	31 	34 
154 	5     	33.15	0.852936	31 	34 
155 	5     	33.15	0.852936	31 	34 
156 	5     	33.15	0.852936	31 	34 
157 	5     	33.1 	0.830662	31 	34 
158 	5     	33.1 	0.830662	31 	34 
159 	5     	33.1 	0.830662	31 	34 
160 	5     	33   	0.83666 	31 	34 
161 	5     	33   	0.83666 	31 	34 
162 	5     	33   	0.83666 	31 	34 
163 	5     	32.9 	0.830662	31 	34 
164 	5     	32.9 	0.830662	31 	34 
165 	5     	32.9 	0.830662	31 	34 
166 	5     	32.9 	0.830662	31 	34 
167 	5     	32.9 	0.830662	31 	34 
168 	5     	32.75	0.887412	31 	34 
169 	5     	32.75	0.887412	31 	34 
170 	5     	32.65	0.852936	31 	34 
171 	5     	32.65	0.852936	31 	34 
172 	5     	32.65	0.852936	31 	34 
173 	5     	32.65	0.852936	31 	34 
174 	5     	32.65	0.852936	31 	34 
175 	5     	32.45	0.973396	30 	34 
176 	5     	32.45	0.973396	30 	34 
177 	5     	32.45	0.973396	30 	34 
178 	5     	32.45	0.973396	30 	34 
179 	5     	32.45	0.973396	30 	34 
180 	5     	32.45	0.973396	30 	34 
181 	5     	32.45	0.973396	30 	34 
182 	5     	32.45	0.973396	30 	34 
183 	5     	32.45	0.973396	30 	34 
184 	5     	32.45	0.973396	30 	34 
185 	5     	32.45	0.973396	30 	34 
186 	5     	32.45	0.973396	30 	34 
187 	5     	32.45	0.973396	30 	34 
188 	5     	32.45	0.973396	30 	34 
189 	5     	32.45	0.973396	30 	34 
190 	5     	32.45	0.973396	30 	34 
191 	5     	32.45	0.973396	30 	34 
192 	5     	32.45	0.973396	30 	34 
193 	5     	32.45	0.973396	30 	34 
194 	5     	32.4 	0.916515	30 	34 
195 	5     	32.4 	0.916515	30 	34 
196 	5     	32.4 	0.916515	30 	34 
197 	5     	32.4 	0.916515	30 	34 
198 	5     	32.4 	0.916515	30 	34 
199 	5     	32.4 	0.916515	30 	34 
200 	5     	32.4 	0.916515	30 	34 
201 	5     	32.4 	0.916515	30 	34 
202 	5     	32.4 	0.916515	30 	34 
203 	5     	32.4 	0.916515	30 	34 
204 	5     	32.4 	0.916515	30 	34 
205 	5     	32.4 	0.916515	30 	34 
206 	5     	32.4 	0.916515	30 	34 
207 	5     	32.4 	0.916515	30 	34 
208 	5     	32.4 	0.916515	30 	34 
209 	5     	32.4 	0.916515	30 	34 
210 	5     	32.4 	0.916515	30 	34 
211 	5     	32.4 	0.916515	30 	34 
212 	5     	32.4 	0.916515	30 	34 
213 	5     	32.4 	0.916515	30 	34 
214 	5     	32.4 	0.916515	30 	34 
215 	5     	32.4 	0.916515	30 	34 
216 	5     	32.4 	0.916515	30 	34 
217 	5     	32.4 	0.916515	30 	34 
218 	5     	32.4 	0.916515	30 	34 
219 	5     	32.4 	0.916515	30 	34 
220 	5     	32.4 	0.916515	30 	34 
221 	5     	32.4 	0.916515	30 	34 
222 	5     	32.4 	0.916515	30 	34 
223 	5     	32.4 	0.916515	30 	34 
224 	5     	32.4 	0.916515	30 	34 
225 	5     	32.35	0.852936	30 	33 
226 	5     	32.35	0.852936	30 	33 
227 	5     	32.35	0.852936	30 	33 
228 	5     	32.35	0.852936	30 	33 
229 	5     	32.35	0.852936	30 	33 
230 	5     	32.35	0.852936	30 	33 
231 	5     	32.35	0.852936	30 	33 
232 	5     	32.35	0.852936	30 	33 
233 	5     	32.35	0.852936	30 	33 
234 	5     	32.35	0.852936	30 	33 
235 	5     	32.35	0.852936	30 	33 
236 	5     	32.35	0.852936	30 	33 
237 	5     	32.35	0.852936	30 	33 
238 	5     	32.35	0.852936	30 	33 
239 	5     	32.35	0.852936	30 	33 
240 	5     	32.35	0.852936	30 	33 
241 	5     	32.35	0.852936	30 	33 
242 	5     	32.35	0.852936	30 	33 
243 	5     	32.35	0.852936	30 	33 
244 	5     	32.35	0.852936	30 	33 
245 	5     	32.35	0.852936	30 	33 
246 	5     	32.35	0.852936	30 	33 
247 	5     	32.35	0.852936	30 	33 
248 	5     	32.35	0.852936	30 	33 
249 	5     	32.35	0.852936	30 	33 
250 	5     	32.35	0.852936	30 	33 
251 	5     	32.35	0.852936	30 	33 
252 	5     	32.35	0.852936	30 	33 
253 	5     	32.35	0.852936	30 	33 
254 	5     	32.35	0.852936	30 	33 
255 	5     	32.35	0.852936	30 	33 
256 	5     	32.35	0.852936	30 	33 
257 	5     	32.35	0.852936	30 	33 
258 	5     	32.35	0.852936	30 	33 
259 	5     	32.35	0.852936	30 	33 
260 	5     	32.35	0.852936	30 	33 
261 	5     	32.35	0.852936	30 	33 
262 	5     	32.35	0.852936	30 	33 
263 	5     	32.35	0.852936	30 	33 
264 	5     	32.35	0.852936	30 	33 
265 	5     	32.2 	0.979796	30 	33 
266 	5     	32.2 	0.979796	30 	33 
267 	5     	32.2 	0.979796	30 	33 
268 	5     	32.2 	0.979796	30 	33 
269 	5     	32.2 	0.979796	30 	33 
270 	5     	32.2 	0.979796	30 	33 
271 	5     	32.2 	0.979796	30 	33 
272 	5     	32.2 	0.979796	30 	33 
273 	5     	32.2 	0.979796	30 	33 
274 	5     	32.2 	0.979796	30 	33 
275 	5     	32.2 	0.979796	30 	33 
276 	5     	32.2 	0.979796	30 	33 
277 	5     	32.2 	0.979796	30 	33 
278 	5     	32.2 	0.979796	30 	33 
279 	5     	32.2 	0.979796	30 	33 
280 	5     	32.2 	0.979796	30 	33 
281 	5     	32.2 	0.979796	30 	33 
282 	5     	32.2 	0.979796	30 	33 
283 	5     	32.2 	0.979796	30 	33 
284 	5     	32.2 	0.979796	30 	33 
285 	5     	32.2 	0.979796	30 	33 
286 	5     	32.2 	0.979796	30 	33 
287 	5     	32.2 	0.979796	30 	33 
288 	5     	32.2 	0.979796	30 	33 
289 	5     	32.2 	0.979796	30 	33 
290 	5     	32.2 	0.979796	30 	33 
291 	5     	32.2 	0.979796	30 	33 
292 	5     	32.2 	0.979796	30 	33 
293 	5     	32.2 	0.979796	30 	33 
294 	5     	32.2 	0.979796	30 	33 
295 	5     	32.2 	0.979796	30 	33 
296 	5     	32.2 	0.979796	30 	33 
297 	5     	32.2 	0.979796	30 	33 
298 	5     	32.2 	0.979796	30 	33 
299 	5     	32.2 	0.979796	30 	33 
300 	5     	32.2 	0.979796	30 	33 
301 	5     	32.2 	0.979796	30 	33 
302 	5     	32.2 	0.979796	30 	33 
303 	5     	32.15	0.963068	30 	33 
304 	5     	32.15	0.963068	30 	33 
305 	5     	32.15	0.963068	30 	33 
306 	5     	32.15	0.963068	30 	33 
307 	5     	32.15	0.963068	30 	33 
308 	5     	32.15	0.963068	30 	33 
309 	5     	32.15	0.963068	30 	33 
310 	5     	32.15	0.963068	30 	33 
311 	5     	32.15	0.963068	30 	33 
312 	5     	32.15	0.963068	30 	33 
313 	5     	32.15	0.963068	30 	33 
314 	5     	32.15	0.963068	30 	33 
315 	5     	32.15	0.963068	30 	33 
316 	5     	32.15	0.963068	30 	33 
317 	5     	32.15	0.963068	30 	33 
318 	5     	32.15	0.963068	30 	33 
319 	5     	32.15	0.963068	30 	33 
320 	5     	32.15	0.963068	30 	33 
321 	5     	32.15	0.963068	30 	33 
322 	5     	32.15	0.963068	30 	33 
323 	5     	32.15	0.963068	30 	33 
324 	5     	32.15	0.963068	30 	33 
325 	5     	32.15	0.963068	30 	33 
326 	5     	32.15	0.963068	30 	33 
327 	5     	32.15	0.963068	30 	33 
328 	5     	32.15	0.963068	30 	33 
329 	5     	32.15	0.963068	30 	33 
330 	5     	32.15	0.963068	30 	33 
331 	5     	32.15	0.963068	30 	33 
332 	5     	32.15	0.963068	30 	33 
333 	5     	32.15	0.963068	30 	33 
334 	5     	32.15	0.963068	30 	33 
335 	5     	32.15	0.963068	30 	33 
336 	5     	32.15	0.963068	30 	33 
337 	5     	32.15	0.963068	30 	33 
338 	5     	32.15	0.963068	30 	33 
339 	5     	32.15	0.963068	30 	33 
340 	5     	32.15	0.963068	30 	33 
341 	5     	32.15	0.963068	30 	33 
342 	5     	32.15	0.963068	30 	33 
343 	5     	32.15	0.963068	30 	33 
344 	5     	32.15	0.963068	30 	33 
345 	5     	32.15	0.963068	30 	33 
346 	5     	32.15	0.963068	30 	33 
347 	5     	32.15	0.963068	30 	33 
348 	5     	32.15	0.963068	30 	33 
349 	5     	32.15	0.963068	30 	33 
350 	5     	32.15	0.963068	30 	33 
351 	5     	32.15	0.963068	30 	33 
352 	5     	32.15	0.963068	30 	33 
353 	5     	32.15	0.963068	30 	33 
354 	5     	32.15	0.963068	30 	33 
355 	5     	32.15	0.963068	30 	33 
356 	5     	32.15	0.963068	30 	33 
357 	5     	32.15	0.963068	30 	33 
358 	5     	32.15	0.963068	30 	33 
359 	5     	32.15	0.963068	30 	33 
360 	5     	32.15	0.963068	30 	33 
361 	5     	32.15	0.963068	30 	33 
362 	5     	32.15	0.963068	30 	33 
363 	5     	32.15	0.963068	30 	33 
364 	5     	32.05	0.973396	30 	33 
365 	5     	32.05	0.973396	30 	33 
366 	5     	32.05	0.973396	30 	33 
367 	5     	32.05	0.973396	30 	33 
368 	5     	32.05	0.973396	30 	33 
369 	5     	32.05	0.973396	30 	33 
370 	5     	32.05	0.973396	30 	33 
371 	5     	32.05	0.973396	30 	33 
372 	5     	32.05	0.973396	30 	33 
373 	5     	32.05	0.973396	30 	33 
374 	5     	32.05	0.973396	30 	33 
375 	5     	31.95	0.973396	30 	33 
376 	5     	31.95	0.973396	30 	33 
377 	5     	31.95	0.973396	30 	33 
378 	5     	31.95	0.973396	30 	33 
379 	5     	31.95	0.973396	30 	33 
380 	5     	31.95	0.973396	30 	33 
381 	5     	31.95	0.973396	30 	33 
382 	5     	31.95	0.973396	30 	33 
383 	5     	31.95	0.973396	30 	33 
384 	5     	31.95	0.973396	30 	33 
385 	5     	31.95	0.973396	30 	33 
386 	5     	31.95	0.973396	30 	33 
387 	5     	31.95	0.973396	30 	33 
388 	5     	31.95	0.973396	30 	33 
389 	5     	31.95	0.973396	30 	33 
390 	5     	31.95	0.973396	30 	33 
391 	5     	31.95	0.973396	30 	33 
392 	5     	31.95	0.973396	30 	33 
393 	5     	31.95	0.973396	30 	33 
394 	5     	31.95	0.973396	30 	33 
395 	5     	31.95	0.973396	30 	33 
396 	5     	31.95	0.973396	30 	33 
397 	5     	31.95	0.973396	30 	33 
398 	5     	31.95	0.973396	30 	33 
399 	5     	31.95	0.973396	30 	33 
400 	5     	31.95	0.973396	30 	33 
401 	5     	31.95	0.973396	30 	33 
402 	5     	31.95	0.973396	30 	33 
403 	5     	31.95	0.973396	30 	33 
404 	5     	31.95	0.973396	30 	33 
405 	5     	31.95	0.973396	30 	33 
406 	5     	31.95	0.973396	30 	33 
407 	5     	31.95	0.973396	30 	33 
408 	5     	31.95	0.973396	30 	33 
409 	5     	31.95	0.973396	30 	33 
410 	5     	31.95	0.973396	30 	33 
411 	5     	31.95	0.973396	30 	33 
412 	5     	31.95	0.973396	30 	33 
413 	5     	31.95	0.973396	30 	33 
414 	5     	31.95	0.973396	30 	33 
415 	5     	31.95	0.973396	30 	33 
416 	5     	31.95	0.973396	30 	33 
417 	5     	31.95	0.973396	30 	33 
418 	5     	31.95	0.973396	30 	33 
419 	5     	31.95	0.973396	30 	33 
420 	5     	31.95	0.973396	30 	33 
421 	5     	31.95	0.973396	30 	33 
422 	5     	31.95	0.973396	30 	33 
423 	5     	31.95	0.973396	30 	33 
424 	5     	31.95	0.973396	30 	33 
425 	5     	31.95	0.973396	30 	33 
426 	5     	31.95	0.973396	30 	33 
427 	5     	31.95	0.973396	30 	33 
428 	5     	31.95	0.973396	30 	33 
429 	5     	31.95	0.973396	30 	33 
430 	5     	31.95	0.973396	30 	33 
431 	5     	31.95	0.973396	30 	33 
432 	5     	31.95	0.973396	30 	33 
433 	5     	31.95	0.973396	30 	33 
434 	5     	31.95	0.973396	30 	33 
435 	5     	31.95	0.973396	30 	33 
436 	5     	31.95	0.973396	30 	33 
437 	5     	31.95	0.973396	30 	33 
438 	5     	31.95	0.973396	30 	33 
439 	5     	31.95	0.973396	30 	33 
440 	5     	31.95	0.973396	30 	33 
441 	5     	31.95	0.973396	30 	33 
442 	5     	31.9 	0.943398	30 	33 
443 	5     	31.9 	0.943398	30 	33 
444 	5     	31.9 	0.943398	30 	33 
445 	5     	31.9 	0.943398	30 	33 
446 	5     	31.9 	0.943398	30 	33 
447 	5     	31.9 	0.943398	30 	33 
448 	5     	31.9 	0.943398	30 	33 
449 	5     	31.9 	0.943398	30 	33 
450 	5     	31.9 	0.943398	30 	33 
451 	5     	31.9 	0.943398	30 	33 
452 	5     	31.9 	0.943398	30 	33 
453 	5     	31.9 	0.943398	30 	33 
454 	5     	31.9 	0.943398	30 	33 
455 	5     	31.9 	0.943398	30 	33 
456 	5     	31.9 	0.943398	30 	33 
457 	5     	31.9 	0.943398	30 	33 
458 	5     	31.85	0.90967 	30 	33 
459 	5     	31.85	0.90967 	30 	33 
460 	5     	31.85	0.90967 	30 	33 
461 	5     	31.85	0.90967 	30 	33 
462 	5     	31.85	0.90967 	30 	33 
463 	5     	31.85	0.90967 	30 	33 
464 	5     	31.85	0.90967 	30 	33 
465 	5     	31.85	0.90967 	30 	33 
466 	5     	31.85	0.90967 	30 	33 
467 	5     	31.85	0.90967 	30 	33 
468 	5     	31.85	0.90967 	30 	33 
469 	5     	31.7 	0.953939	30 	33 
470 	5     	31.7 	0.953939	30 	33 
471 	5     	31.7 	0.953939	30 	33 
472 	5     	31.7 	0.953939	30 	33 
473 	5     	31.6 	0.916515	30 	33 
474 	5     	31.6 	0.916515	30 	33 
475 	5     	31.6 	0.916515	30 	33 
476 	5     	31.5 	0.866025	30 	33 
477 	5     	31.5 	0.866025	30 	33 
478 	5     	31.5 	0.866025	30 	33 
479 	5     	31.5 	0.866025	30 	33 
480 	5     	31.5 	0.866025	30 	33 
481 	5     	31.5 	0.866025	30 	33 
482 	5     	31.5 	0.866025	30 	33 
483 	5     	31.5 	0.866025	30 	33 
484 	5     	31.5 	0.866025	30 	33 
485 	5     	31.5 	0.866025	30 	33 
486 	5     	31.5 	0.866025	30 	33 
487 	5     	31.5 	0.866025	30 	33 
488 	5     	31.5 	0.866025	30 	33 
489 	5     	31.5 	0.866025	30 	33 
490 	5     	31.5 	0.866025	30 	33 
491 	5     	31.5 	0.866025	30 	33 
492 	5     	31.5 	0.866025	30 	33 
493 	5     	31.5 	0.866025	30 	33 
494 	5     	31.5 	0.866025	30 	33 
495 	5     	31.5 	0.866025	30 	33 
496 	5     	31.5 	0.866025	30 	33 
497 	5     	31.5 	0.866025	30 	33 
498 	5     	31.5 	0.866025	30 	33 
499 	5     	31.5 	0.866025	30 	33 
500 	5     	31.5 	0.866025	30 	33 
501 	5     	31.5 	0.866025	30 	33 
502 	5     	31.5 	0.866025	30 	33 
503 	5     	31.45	0.804674	30 	33 
504 	5     	31.45	0.804674	30 	33 
505 	5     	31.45	0.804674	30 	33 
506 	5     	31.45	0.804674	30 	33 
507 	5     	31.45	0.804674	30 	33 
508 	5     	31.45	0.804674	30 	33 
509 	5     	31.45	0.804674	30 	33 
510 	5     	31.35	0.726292	30 	32 
511 	5     	31.35	0.726292	30 	32 
512 	5     	31.35	0.726292	30 	32 
513 	5     	31.3 	0.714143	30 	32 
514 	5     	31.3 	0.714143	30 	32 
515 	5     	31.3 	0.714143	30 	32 
516 	5     	31.3 	0.714143	30 	32 
517 	5     	31.3 	0.714143	30 	32 
518 	5     	31.3 	0.714143	30 	32 
519 	5     	31.3 	0.714143	30 	32 
520 	5     	31.3 	0.714143	30 	32 
521 	5     	31.3 	0.714143	30 	32 
522 	5     	31.3 	0.714143	30 	32 
523 	5     	31.3 	0.714143	30 	32 
524 	5     	31.3 	0.714143	30 	32 
525 	5     	31.3 	0.714143	30 	32 
526 	5     	31.3 	0.714143	30 	32 
527 	5     	31.3 	0.714143	30 	32 
528 	5     	31.3 	0.714143	30 	32 
529 	5     	31.3 	0.714143	30 	32 
530 	5     	31.3 	0.714143	30 	32 
531 	5     	31.3 	0.714143	30 	32 
532 	5     	31.3 	0.714143	30 	32 
533 	5     	31.3 	0.714143	30 	32 
534 	5     	31.3 	0.714143	30 	32 
535 	5     	31.3 	0.714143	30 	32 
536 	5     	31.3 	0.714143	30 	32 
537 	5     	31.3 	0.714143	30 	32 
538 	5     	31.3 	0.714143	30 	32 
539 	5     	31.3 	0.714143	30 	32 
540 	5     	31.3 	0.714143	30 	32 
541 	5     	31.3 	0.714143	30 	32 
542 	5     	31.3 	0.714143	30 	32 
543 	5     	31.3 	0.714143	30 	32 
544 	5     	31.3 	0.714143	30 	32 
545 	5     	31.3 	0.714143	30 	32 
546 	5     	31.3 	0.714143	30 	32 
547 	5     	31.3 	0.714143	30 	32 
548 	5     	31.3 	0.714143	30 	32 
549 	5     	31.3 	0.714143	30 	32 
550 	5     	31.3 	0.714143	30 	32 
551 	5     	31.3 	0.714143	30 	32 
552 	5     	31.3 	0.714143	30 	32 
553 	5     	31.3 	0.714143	30 	32 
554 	5     	31.3 	0.714143	30 	32 
555 	5     	31.3 	0.714143	30 	32 
556 	5     	31.3 	0.714143	30 	32 
557 	5     	31.3 	0.714143	30 	32 
558 	5     	31.3 	0.714143	30 	32 
559 	5     	31.3 	0.714143	30 	32 
560 	5     	31.3 	0.714143	30 	32 
561 	5     	31.2 	0.748331	30 	32 
562 	5     	31.2 	0.748331	30 	32 
563 	5     	31.2 	0.748331	30 	32 
564 	5     	31.2 	0.748331	30 	32 
565 	5     	31.2 	0.748331	30 	32 
566 	5     	31.2 	0.748331	30 	32 
567 	5     	31.2 	0.748331	30 	32 
568 	5     	31.2 	0.748331	30 	32 
569 	5     	31.15	0.726292	30 	32 
570 	5     	31.15	0.726292	30 	32 
571 	5     	31.15	0.726292	30 	32 
572 	5     	31.15	0.726292	30 	32 
573 	5     	31.15	0.726292	30 	32 
574 	5     	31.15	0.726292	30 	32 
575 	5     	31.15	0.726292	30 	32 
576 	5     	31.15	0.726292	30 	32 
577 	5     	31.15	0.726292	30 	32 
578 	5     	31.15	0.726292	30 	32 
579 	5     	31.15	0.726292	30 	32 
580 	5     	31.15	0.726292	30 	32 
581 	5     	31.15	0.726292	30 	32 
582 	5     	31.15	0.726292	30 	32 
583 	5     	31.15	0.726292	30 	32 
584 	5     	31.15	0.726292	30 	32 
585 	5     	31.15	0.726292	30 	32 
586 	5     	31.15	0.726292	30 	32 
587 	5     	31.15	0.726292	30 	32 
588 	5     	31.15	0.726292	30 	32 
589 	5     	31.15	0.726292	30 	32 
590 	5     	31.15	0.726292	30 	32 
591 	5     	31.15	0.726292	30 	32 
592 	5     	31.15	0.726292	30 	32 
593 	5     	31.15	0.726292	30 	32 
594 	5     	31.15	0.726292	30 	32 
595 	5     	31.15	0.726292	30 	32 
596 	5     	31.15	0.726292	30 	32 
597 	5     	31.15	0.726292	30 	32 
598 	5     	31.15	0.726292	30 	32 
599 	5     	31.1 	0.7     	30 	32 
600 	5     	31.1 	0.7     	30 	32 
601 	5     	31.1 	0.7     	30 	32 
602 	5     	31.1 	0.7     	30 	32 
603 	5     	31.1 	0.7     	30 	32 
604 	5     	31.1 	0.7     	30 	32 
605 	5     	31.1 	0.7     	30 	32 
606 	5     	31.1 	0.7     	30 	32 
607 	5     	31.1 	0.7     	30 	32 
608 	5     	31.1 	0.7     	30 	32 
609 	5     	31.1 	0.7     	30 	32 
610 	5     	31.1 	0.7     	30 	32 
611 	5     	31.1 	0.7     	30 	32 
612 	5     	31.1 	0.7     	30 	32 
613 	5     	31.1 	0.7     	30 	32 
614 	5     	31.1 	0.7     	30 	32 
615 	5     	31.1 	0.7     	30 	32 
616 	5     	31.1 	0.7     	30 	32 
617 	5     	31.1 	0.7     	30 	32 
618 	5     	31.1 	0.7     	30 	32 
619 	5     	31.1 	0.7     	30 	32 
620 	5     	31.1 	0.7     	30 	32 
621 	5     	31.1 	0.7     	30 	32 
622 	5     	31.1 	0.7     	30 	32 
623 	5     	31.1 	0.7     	30 	32 
624 	5     	31.1 	0.7     	30 	32 
625 	5     	31.1 	0.7     	30 	32 
626 	5     	31.1 	0.7     	30 	32 
627 	5     	31.1 	0.7     	30 	32 
628 	5     	31.1 	0.7     	30 	32 
629 	5     	31.1 	0.7     	30 	32 
630 	5     	31.1 	0.7     	30 	32 
631 	5     	31.1 	0.7     	30 	32 
632 	5     	31.1 	0.7     	30 	32 
633 	5     	31.1 	0.7     	30 	32 
634 	5     	31.1 	0.7     	30 	32 
635 	5     	31.1 	0.7     	30 	32 
636 	5     	31.1 	0.7     	30 	32 
637 	5     	31.1 	0.7     	30 	32 
638 	5     	31.1 	0.7     	30 	32 
639 	5     	31.1 	0.7     	30 	32 
640 	5     	31.05	0.668954	30 	32 
641 	5     	31.05	0.668954	30 	32 
642 	5     	31.05	0.668954	30 	32 
643 	5     	31.05	0.668954	30 	32 
644 	5     	31.05	0.668954	30 	32 
645 	5     	31.05	0.668954	30 	32 
646 	5     	31.05	0.668954	30 	32 
647 	5     	31.05	0.668954	30 	32 
648 	5     	31.05	0.668954	30 	32 
649 	5     	31.05	0.668954	30 	32 
650 	5     	31.05	0.668954	30 	32 
651 	5     	31.05	0.668954	30 	32 
652 	5     	31.05	0.668954	30 	32 
653 	5     	31.05	0.668954	30 	32 
654 	5     	31.05	0.668954	30 	32 
655 	5     	31.05	0.668954	30 	32 
656 	5     	31.05	0.668954	30 	32 
657 	5     	31.05	0.668954	30 	32 
658 	5     	31.05	0.668954	30 	32 
659 	5     	31.05	0.668954	30 	32 
660 	5     	31.05	0.668954	30 	32 
661 	5     	31.05	0.668954	30 	32 
662 	5     	31.05	0.668954	30 	32 
663 	5     	31.05	0.668954	30 	32 
664 	5     	31.05	0.668954	30 	32 
665 	5     	31.05	0.668954	30 	32 
666 	5     	31.05	0.668954	30 	32 
667 	5     	31.05	0.668954	30 	32 
668 	5     	31.05	0.668954	30 	32 
669 	5     	31.05	0.668954	30 	32 
670 	5     	31.05	0.668954	30 	32 
671 	5     	31.05	0.668954	30 	32 
672 	5     	31.05	0.668954	30 	32 
673 	5     	31.05	0.668954	30 	32 
674 	5     	31.05	0.668954	30 	32 
675 	5     	31.05	0.668954	30 	32 
676 	5     	31.05	0.668954	30 	32 
677 	5     	31.05	0.668954	30 	32 
678 	5     	31.05	0.668954	30 	32 
679 	5     	31.05	0.668954	30 	32 
680 	5     	31.05	0.668954	30 	32 
681 	5     	31.05	0.668954	30 	32 
682 	5     	31.05	0.668954	30 	32 
683 	5     	31.05	0.668954	30 	32 
684 	5     	31.05	0.668954	30 	32 
685 	5     	31.05	0.668954	30 	32 
686 	5     	31.05	0.668954	30 	32 
687 	5     	31.05	0.668954	30 	32 
688 	5     	31.05	0.668954	30 	32 
689 	5     	31.05	0.668954	30 	32 
690 	5     	31.05	0.668954	30 	32 
691 	5     	31.05	0.668954	30 	32 
692 	5     	31.05	0.668954	30 	32 
693 	5     	31.05	0.668954	30 	32 
694 	5     	31.05	0.668954	30 	32 
695 	5     	31.05	0.668954	30 	32 
696 	5     	31.05	0.668954	30 	32 
697 	5     	31.05	0.668954	30 	32 
698 	5     	31.05	0.668954	30 	32 
699 	5     	31.05	0.668954	30 	32 
700 	5     	31.05	0.668954	30 	32 
701 	5     	31.05	0.668954	30 	32 
702 	5     	31.05	0.668954	30 	32 
703 	5     	31.05	0.668954	30 	32 
704 	5     	31.05	0.668954	30 	32 
705 	5     	31.05	0.668954	30 	32 
706 	5     	31.05	0.668954	30 	32 
707 	5     	31.05	0.668954	30 	32 
708 	5     	31.05	0.668954	30 	32 
709 	5     	31.05	0.668954	30 	32 
710 	5     	31.05	0.668954	30 	32 
711 	5     	31.05	0.668954	30 	32 
712 	5     	31.05	0.668954	30 	32 
713 	5     	31.05	0.668954	30 	32 
714 	5     	31.05	0.668954	30 	32 
715 	5     	31.05	0.668954	30 	32 
716 	5     	31.05	0.668954	30 	32 
717 	5     	31.05	0.668954	30 	32 
718 	5     	31.05	0.668954	30 	32 
719 	5     	31.05	0.668954	30 	32 
720 	5     	31.05	0.668954	30 	32 
721 	5     	31.05	0.668954	30 	32 
722 	5     	31.05	0.668954	30 	32 
723 	5     	31.05	0.668954	30 	32 
724 	5     	31.05	0.668954	30 	32 
725 	5     	31.05	0.668954	30 	32 
726 	5     	31.05	0.668954	30 	32 
727 	5     	31.05	0.668954	30 	32 
728 	5     	31.05	0.668954	30 	32 
729 	5     	31.05	0.668954	30 	32 
730 	5     	31.05	0.668954	30 	32 
731 	5     	31.05	0.668954	30 	32 
732 	5     	31.05	0.668954	30 	32 
733 	5     	31.05	0.668954	30 	32 
734 	5     	31.05	0.668954	30 	32 
735 	5     	31.05	0.668954	30 	32 
736 	5     	31.05	0.668954	30 	32 
737 	5     	31.05	0.668954	30 	32 
738 	5     	31.05	0.668954	30 	32 
739 	5     	31.05	0.668954	30 	32 
740 	5     	31.05	0.668954	30 	32 
741 	5     	31.05	0.668954	30 	32 
742 	5     	31.05	0.668954	30 	32 
743 	5     	31.05	0.668954	30 	32 
744 	5     	31.05	0.668954	30 	32 
745 	5     	31.05	0.668954	30 	32 
746 	5     	31.05	0.668954	30 	32 
747 	5     	31.05	0.668954	30 	32 
748 	5     	31.05	0.668954	30 	32 
749 	5     	31.05	0.668954	30 	32 
750 	5     	31.05	0.668954	30 	32 
751 	5     	31.05	0.668954	30 	32 
752 	5     	31.05	0.668954	30 	32 
753 	5     	31.05	0.668954	30 	32 
754 	5     	31.05	0.668954	30 	32 
755 	5     	31.05	0.668954	30 	32 
756 	5     	31.05	0.668954	30 	32 
757 	5     	31.05	0.668954	30 	32 
758 	5     	31.05	0.668954	30 	32 
759 	5     	31.05	0.668954	30 	32 
760 	5     	31.05	0.668954	30 	32 
761 	5     	30.95	0.668954	30 	32 
762 	5     	30.95	0.668954	30 	32 
763 	5     	30.95	0.668954	30 	32 
764 	5     	30.95	0.668954	30 	32 
765 	5     	30.95	0.668954	30 	32 
766 	5     	30.95	0.668954	30 	32 
767 	5     	30.95	0.668954	30 	32 
768 	5     	30.95	0.668954	30 	32 
769 	5     	30.95	0.668954	30 	32 
770 	5     	30.95	0.668954	30 	32 
771 	5     	30.95	0.668954	30 	32 
772 	5     	30.95	0.668954	30 	32 
773 	5     	30.95	0.668954	30 	32 
774 	5     	30.95	0.668954	30 	32 
775 	5     	30.95	0.668954	30 	32 
776 	5     	30.95	0.668954	30 	32 
777 	5     	30.95	0.668954	30 	32 
778 	5     	30.95	0.668954	30 	32 
779 	5     	30.95	0.668954	30 	32 
780 	5     	30.95	0.668954	30 	32 
781 	5     	30.95	0.668954	30 	32 
782 	5     	30.95	0.668954	30 	32 
783 	5     	30.95	0.668954	30 	32 
784 	5     	30.95	0.668954	30 	32 
785 	5     	30.95	0.668954	30 	32 
786 	5     	30.95	0.668954	30 	32 
787 	5     	30.95	0.668954	30 	32 
788 	5     	30.95	0.668954	30 	32 
789 	5     	30.95	0.668954	30 	32 
790 	5     	30.95	0.668954	30 	32 
791 	5     	30.95	0.668954	30 	32 
792 	5     	30.95	0.668954	30 	32 
793 	5     	30.95	0.668954	30 	32 
794 	5     	30.95	0.668954	30 	32 
795 	5     	30.95	0.668954	30 	32 
796 	5     	30.95	0.668954	30 	32 
797 	5     	30.95	0.668954	30 	32 
798 	5     	30.9 	0.6245  	30 	32 
799 	5     	30.9 	0.6245  	30 	32 
800 	5     	30.9 	0.6245  	30 	32 
801 	5     	30.9 	0.6245  	30 	32 
802 	5     	30.9 	0.6245  	30 	32 
803 	5     	30.9 	0.6245  	30 	32 
804 	5     	30.9 	0.6245  	30 	32 
805 	5     	30.9 	0.6245  	30 	32 
806 	5     	30.9 	0.6245  	30 	32 
807 	5     	30.9 	0.6245  	30 	32 
808 	5     	30.9 	0.6245  	30 	32 
809 	5     	30.9 	0.6245  	30 	32 
810 	5     	30.9 	0.6245  	30 	32 
811 	5     	30.9 	0.6245  	30 	32 
812 	5     	30.9 	0.6245  	30 	32 
813 	5     	30.9 	0.6245  	30 	32 
814 	5     	30.9 	0.6245  	30 	32 
815 	5     	30.9 	0.6245  	30 	32 
816 	5     	30.9 	0.6245  	30 	32 
817 	5     	30.9 	0.6245  	30 	32 
818 	5     	30.9 	0.6245  	30 	32 
819 	5     	30.9 	0.6245  	30 	32 
820 	5     	30.9 	0.6245  	30 	32 
821 	5     	30.9 	0.6245  	30 	32 
822 	5     	30.9 	0.6245  	30 	32 
823 	5     	30.9 	0.6245  	30 	32 
824 	5     	30.9 	0.6245  	30 	32 
825 	5     	30.9 	0.6245  	30 	32 
826 	5     	30.9 	0.6245  	30 	32 
827 	5     	30.9 	0.6245  	30 	32 
828 	5     	30.9 	0.6245  	30 	32 
829 	5     	30.9 	0.6245  	30 	32 
830 	5     	30.85	0.572276	30 	32 
831 	5     	30.85	0.572276	30 	32 
832 	5     	30.85	0.572276	30 	32 
833 	5     	30.85	0.572276	30 	32 
834 	5     	30.85	0.572276	30 	32 
835 	5     	30.85	0.572276	30 	32 
836 	5     	30.85	0.572276	30 	32 
837 	5     	30.85	0.572276	30 	32 
838 	5     	30.85	0.572276	30 	32 
839 	5     	30.85	0.572276	30 	32 
840 	5     	30.85	0.572276	30 	32 
841 	5     	30.85	0.572276	30 	32 
842 	5     	30.85	0.572276	30 	32 
843 	5     	30.85	0.572276	30 	32 
844 	5     	30.85	0.572276	30 	32 
845 	5     	30.85	0.572276	30 	32 
846 	5     	30.85	0.572276	30 	32 
847 	5     	30.85	0.572276	30 	32 
848 	5     	30.85	0.572276	30 	32 
849 	5     	30.85	0.572276	30 	32 
850 	5     	30.85	0.572276	30 	32 
851 	5     	30.85	0.572276	30 	32 
852 	5     	30.85	0.572276	30 	32 
853 	5     	30.85	0.572276	30 	32 
854 	5     	30.85	0.572276	30 	32 
855 	5     	30.85	0.572276	30 	32 
856 	5     	30.85	0.572276	30 	32 
857 	5     	30.85	0.572276	30 	32 
858 	5     	30.85	0.572276	30 	32 
859 	5     	30.85	0.572276	30 	32 
860 	5     	30.85	0.572276	30 	32 
861 	5     	30.85	0.572276	30 	32 
862 	5     	30.85	0.572276	30 	32 
863 	5     	30.85	0.572276	30 	32 
864 	5     	30.85	0.572276	30 	32 
865 	5     	30.8 	0.509902	30 	32 
866 	5     	30.8 	0.509902	30 	32 
867 	5     	30.8 	0.509902	30 	32 
868 	5     	30.8 	0.509902	30 	32 
869 	5     	30.8 	0.509902	30 	32 
870 	5     	30.8 	0.509902	30 	32 
871 	5     	30.8 	0.509902	30 	32 
872 	5     	30.8 	0.509902	30 	32 
873 	5     	30.8 	0.509902	30 	32 
874 	5     	30.8 	0.509902	30 	32 
875 	5     	30.8 	0.509902	30 	32 
876 	5     	30.8 	0.509902	30 	32 
877 	5     	30.8 	0.509902	30 	32 
878 	5     	30.8 	0.509902	30 	32 
879 	5     	30.8 	0.509902	30 	32 
880 	5     	30.8 	0.509902	30 	32 
881 	5     	30.8 	0.509902	30 	32 
882 	5     	30.8 	0.509902	30 	32 
883 	5     	30.8 	0.509902	30 	32 
884 	5     	30.8 	0.509902	30 	32 
885 	5     	30.8 	0.509902	30 	32 
886 	5     	30.8 	0.509902	30 	32 
887 	5     	30.8 	0.509902	30 	32 
888 	5     	30.8 	0.509902	30 	32 
889 	5     	30.8 	0.509902	30 	32 
890 	5     	30.8 	0.509902	30 	32 
891 	5     	30.8 	0.509902	30 	32 
892 	5     	30.8 	0.509902	30 	32 
893 	5     	30.8 	0.509902	30 	32 
894 	5     	30.8 	0.509902	30 	32 
895 	5     	30.8 	0.509902	30 	32 
896 	5     	30.8 	0.509902	30 	32 
897 	5     	30.8 	0.509902	30 	32 
898 	5     	30.8 	0.509902	30 	32 
899 	5     	30.8 	0.509902	30 	32 
900 	5     	30.8 	0.509902	30 	32 
901 	5     	30.8 	0.509902	30 	32 
902 	5     	30.8 	0.509902	30 	32 
903 	5     	30.8 	0.509902	30 	32 
904 	5     	30.8 	0.509902	30 	32 
905 	5     	30.8 	0.509902	30 	32 
906 	5     	30.8 	0.509902	30 	32 
907 	5     	30.8 	0.509902	30 	32 
908 	5     	30.8 	0.509902	30 	32 
909 	5     	30.8 	0.509902	30 	32 
910 	5     	30.8 	0.509902	30 	32 
911 	5     	30.8 	0.509902	30 	32 
912 	5     	30.75	0.433013	30 	31 
913 	5     	30.75	0.433013	30 	31 
914 	5     	30.75	0.433013	30 	31 
915 	5     	30.75	0.433013	30 	31 
916 	5     	30.75	0.433013	30 	31 
917 	5     	30.75	0.433013	30 	31 
918 	5     	30.75	0.433013	30 	31 
919 	5     	30.75	0.433013	30 	31 
920 	5     	30.75	0.433013	30 	31 
921 	5     	30.75	0.433013	30 	31 
922 	5     	30.75	0.433013	30 	31 
923 	5     	30.75	0.433013	30 	31 
924 	5     	30.75	0.433013	30 	31 
925 	5     	30.75	0.433013	30 	31 
926 	5     	30.75	0.433013	30 	31 
927 	5     	30.75	0.433013	30 	31 
928 	5     	30.75	0.433013	30 	31 
929 	5     	30.75	0.433013	30 	31 
930 	5     	30.75	0.433013	30 	31 
931 	5     	30.75	0.433013	30 	31 
932 	5     	30.75	0.433013	30 	31 
933 	5     	30.75	0.433013	30 	31 
934 	5     	30.75	0.433013	30 	31 
935 	5     	30.75	0.433013	30 	31 
936 	5     	30.75	0.433013	30 	31 
937 	5     	30.75	0.433013	30 	31 
938 	5     	30.75	0.433013	30 	31 
939 	5     	30.75	0.433013	30 	31 
940 	5     	30.75	0.433013	30 	31 
941 	5     	30.75	0.433013	30 	31 
942 	5     	30.75	0.433013	30 	31 
943 	5     	30.75	0.433013	30 	31 
944 	5     	30.75	0.433013	30 	31 
945 	5     	30.75	0.433013	30 	31 
946 	5     	30.75	0.433013	30 	31 
947 	5     	30.75	0.433013	30 	31 
948 	5     	30.75	0.433013	30 	31 
949 	5     	30.75	0.433013	30 	31 
950 	5     	30.75	0.433013	30 	31 
951 	5     	30.75	0.433013	30 	31 
952 	5     	30.7 	0.458258	30 	31 
953 	5     	30.7 	0.458258	30 	31 
954 	5     	30.7 	0.458258	30 	31 
955 	5     	30.7 	0.458258	30 	31 
956 	5     	30.7 	0.458258	30 	31 
957 	5     	30.6 	0.583095	29 	31 
958 	5     	30.6 	0.583095	29 	31 
959 	5     	30.6 	0.583095	29 	31 
960 	5     	30.6 	0.583095	29 	31 
961 	5     	30.6 	0.583095	29 	31 
962 	5     	30.6 	0.583095	29 	31 
963 	5     	30.6 	0.583095	29 	31 
964 	5     	30.6 	0.583095	29 	31 
965 	5     	30.6 	0.583095	29 	31 
966 	5     	30.6 	0.583095	29 	31 
967 	5     	30.6 	0.583095	29 	31 
968 	5     	30.6 	0.583095	29 	31 
969 	5     	30.6 	0.583095	29 	31 
970 	5     	30.6 	0.583095	29 	31 
971 	5     	30.6 	0.583095	29 	31 
972 	5     	30.6 	0.583095	29 	31 
973 	5     	30.6 	0.583095	29 	31 
974 	5     	30.6 	0.583095	29 	31 
975 	5     	30.6 	0.583095	29 	31 
976 	5     	30.6 	0.583095	29 	31 
977 	5     	30.6 	0.583095	29 	31 
978 	5     	30.6 	0.583095	29 	31 
979 	5     	30.6 	0.583095	29 	31 
980 	5     	30.6 	0.583095	29 	31 
981 	5     	30.6 	0.583095	29 	31 
982 	5     	30.6 	0.583095	29 	31 
983 	5     	30.6 	0.583095	29 	31 
984 	5     	30.55	0.589491	29 	31 
985 	5     	30.55	0.589491	29 	31 
986 	5     	30.55	0.589491	29 	31 
987 	5     	30.55	0.589491	29 	31 
988 	5     	30.55	0.589491	29 	31 
989 	5     	30.55	0.589491	29 	31 
990 	5     	30.55	0.589491	29 	31 
991 	5     	30.55	0.589491	29 	31 
992 	5     	30.55	0.589491	29 	31 
993 	5     	30.55	0.589491	29 	31 
994 	5     	30.55	0.589491	29 	31 
995 	5     	30.55	0.589491	29 	31 
996 	5     	30.55	0.589491	29 	31 
997 	5     	30.55	0.589491	29 	31 
998 	5     	30.55	0.589491	29 	31 
999 	5     	30.55	0.589491	29 	31 
1000	5     	30.55	0.589491	29 	31 
1001	5     	30.55	0.589491	29 	31 
1002	5     	30.55	0.589491	29 	31 
1003	5     	30.55	0.589491	29 	31 
1004	5     	30.55	0.589491	29 	31 
1005	5     	30.55	0.589491	29 	31 
1006	5     	30.55	0.589491	29 	31 
1007	5     	30.55	0.589491	29 	31 
1008	5     	30.55	0.589491	29 	31 
1009	5     	30.55	0.589491	29 	31 
1010	5     	30.55	0.589491	29 	31 
1011	5     	30.55	0.589491	29 	31 
1012	5     	30.55	0.589491	29 	31 
1013	5     	30.55	0.589491	29 	31 
1014	5     	30.55	0.589491	29 	31 
1015	5     	30.55	0.589491	29 	31 
1016	5     	30.55	0.589491	29 	31 
1017	5     	30.55	0.589491	29 	31 
1018	5     	30.55	0.589491	29 	31 
1019	5     	30.55	0.589491	29 	31 
1020	5     	30.55	0.589491	29 	31 
1021	5     	30.55	0.589491	29 	31 
1022	5     	30.55	0.589491	29 	31 
1023	5     	30.55	0.589491	29 	31 
1024	5     	30.55	0.589491	29 	31 
1025	5     	30.55	0.589491	29 	31 
1026	5     	30.55	0.589491	29 	31 
1027	5     	30.55	0.589491	29 	31 
1028	5     	30.55	0.589491	29 	31 
1029	5     	30.55	0.589491	29 	31 
1030	5     	30.55	0.589491	29 	31 
1031	5     	30.55	0.589491	29 	31 
1032	5     	30.55	0.589491	29 	31 
1033	5     	30.55	0.589491	29 	31 
1034	5     	30.55	0.589491	29 	31 
1035	5     	30.55	0.589491	29 	31 
1036	5     	30.55	0.589491	29 	31 
1037	5     	30.55	0.589491	29 	31 
1038	5     	30.55	0.589491	29 	31 
1039	5     	30.55	0.589491	29 	31 
1040	5     	30.55	0.589491	29 	31 
1041	5     	30.55	0.589491	29 	31 
1042	5     	30.55	0.589491	29 	31 
1043	5     	30.55	0.589491	29 	31 
1044	5     	30.55	0.589491	29 	31 
1045	5     	30.55	0.589491	29 	31 
1046	5     	30.55	0.589491	29 	31 
1047	5     	30.55	0.589491	29 	31 
1048	5     	30.55	0.589491	29 	31 
1049	5     	30.55	0.589491	29 	31 
1050	5     	30.55	0.589491	29 	31 
1051	5     	30.55	0.589491	29 	31 
1052	5     	30.55	0.589491	29 	31 
1053	5     	30.55	0.589491	29 	31 
1054	5     	30.55	0.589491	29 	31 
1055	5     	30.45	0.668954	29 	31 
1056	5     	30.45	0.668954	29 	31 
1057	5     	30.45	0.668954	29 	31 
1058	5     	30.45	0.668954	29 	31 
1059	5     	30.45	0.668954	29 	31 
1060	5     	30.45	0.668954	29 	31 
1061	5     	30.45	0.668954	29 	31 
1062	5     	30.45	0.668954	29 	31 
1063	5     	30.45	0.668954	29 	31 
1064	5     	30.45	0.668954	29 	31 
1065	5     	30.45	0.668954	29 	31 
1066	5     	30.45	0.668954	29 	31 
1067	5     	30.45	0.668954	29 	31 
1068	5     	30.45	0.668954	29 	31 
1069	5     	30.45	0.668954	29 	31 
1070	5     	30.45	0.668954	29 	31 
1071	5     	30.45	0.668954	29 	31 
1072	5     	30.45	0.668954	29 	31 
1073	5     	30.45	0.668954	29 	31 
1074	5     	30.45	0.668954	29 	31 
1075	5     	30.45	0.668954	29 	31 
1076	5     	30.45	0.668954	29 	31 
1077	5     	30.45	0.668954	29 	31 
1078	5     	30.45	0.668954	29 	31 
1079	5     	30.45	0.668954	29 	31 
1080	5     	30.45	0.668954	29 	31 
1081	5     	30.45	0.668954	29 	31 
1082	5     	30.45	0.668954	29 	31 
1083	5     	30.45	0.668954	29 	31 
1084	5     	30.45	0.668954	29 	31 
1085	5     	30.45	0.668954	29 	31 
1086	5     	30.45	0.668954	29 	31 
1087	5     	30.45	0.668954	29 	31 
1088	5     	30.45	0.668954	29 	31 
1089	5     	30.45	0.668954	29 	31 
1090	5     	30.45	0.668954	29 	31 
1091	5     	30.45	0.668954	29 	31 
1092	5     	30.45	0.668954	29 	31 
1093	5     	30.45	0.668954	29 	31 
1094	5     	30.45	0.668954	29 	31 
1095	5     	30.45	0.668954	29 	31 
1096	5     	30.45	0.668954	29 	31 
1097	5     	30.45	0.668954	29 	31 
1098	5     	30.45	0.668954	29 	31 
1099	5     	30.45	0.668954	29 	31 
1100	5     	30.35	0.726292	29 	31 
1101	5     	30.35	0.726292	29 	31 
1102	5     	30.35	0.726292	29 	31 
1103	5     	30.35	0.726292	29 	31 
1104	5     	30.35	0.726292	29 	31 
1105	5     	30.35	0.726292	29 	31 
1106	5     	30.35	0.726292	29 	31 
1107	5     	30.35	0.726292	29 	31 
1108	5     	30.35	0.726292	29 	31 
1109	5     	30.35	0.726292	29 	31 
1110	5     	30.35	0.726292	29 	31 
1111	5     	30.35	0.726292	29 	31 
1112	5     	30.35	0.726292	29 	31 
1113	5     	30.35	0.726292	29 	31 
1114	5     	30.35	0.726292	29 	31 
1115	5     	30.35	0.726292	29 	31 
1116	5     	30.35	0.726292	29 	31 
1117	5     	30.35	0.726292	29 	31 
1118	5     	30.35	0.726292	29 	31 
1119	5     	30.35	0.726292	29 	31 
1120	5     	30.35	0.726292	29 	31 
1121	5     	30.35	0.726292	29 	31 
1122	5     	30.35	0.726292	29 	31 
1123	5     	30.35	0.726292	29 	31 
1124	5     	30.35	0.726292	29 	31 
1125	5     	30.35	0.726292	29 	31 
1126	5     	30.35	0.726292	29 	31 
1127	5     	30.35	0.726292	29 	31 
1128	5     	30.35	0.726292	29 	31 
1129	5     	30.35	0.726292	29 	31 
1130	5     	30.35	0.726292	29 	31 
1131	5     	30.35	0.726292	29 	31 
1132	5     	30.35	0.726292	29 	31 
1133	5     	30.35	0.726292	29 	31 
1134	5     	30.35	0.726292	29 	31 
1135	5     	30.3 	0.714143	29 	31 
1136	5     	30.3 	0.714143	29 	31 
1137	5     	30.3 	0.714143	29 	31 
1138	5     	30.3 	0.714143	29 	31 
1139	5     	30.3 	0.714143	29 	31 
1140	5     	30.3 	0.714143	29 	31 
1141	5     	30.2 	0.748331	29 	31 
1142	5     	30.2 	0.748331	29 	31 
1143	5     	30.2 	0.748331	29 	31 
1144	5     	30.2 	0.748331	29 	31 
1145	5     	30.2 	0.748331	29 	31 
1146	5     	30.2 	0.748331	29 	31 
1147	5     	30.2 	0.748331	29 	31 
1148	5     	30.2 	0.748331	29 	31 
1149	5     	30.2 	0.748331	29 	31 
1150	5     	30.2 	0.748331	29 	31 
1151	5     	30.2 	0.748331	29 	31 
1152	5     	30.2 	0.748331	29 	31 
1153	5     	30.2 	0.748331	29 	31 
1154	5     	30.2 	0.748331	29 	31 
1155	5     	30.2 	0.748331	29 	31 
1156	5     	30.2 	0.748331	29 	31 
1157	5     	30.2 	0.748331	29 	31 
1158	5     	30.2 	0.748331	29 	31 
1159	5     	30.2 	0.748331	29 	31 
1160	5     	30.2 	0.748331	29 	31 
1161	5     	30.2 	0.748331	29 	31 
1162	5     	30.2 	0.748331	29 	31 
1163	5     	30.2 	0.748331	29 	31 
1164	5     	30.2 	0.748331	29 	31 
1165	5     	30.2 	0.748331	29 	31 
1166	5     	30.2 	0.748331	29 	31 
1167	5     	30.2 	0.748331	29 	31 
1168	5     	30.2 	0.748331	29 	31 
1169	5     	30.2 	0.748331	29 	31 
1170	5     	30.2 	0.748331	29 	31 
1171	5     	30.2 	0.748331	29 	31 
1172	5     	30.2 	0.748331	29 	31 
1173	5     	30.2 	0.748331	29 	31 
1174	5     	30.2 	0.748331	29 	31 
1175	5     	30.2 	0.748331	29 	31 
1176	5     	30.2 	0.748331	29 	31 
1177	5     	30.2 	0.748331	29 	31 
1178	5     	30.2 	0.748331	29 	31 
1179	5     	30.2 	0.748331	29 	31 
1180	5     	30.2 	0.748331	29 	31 
1181	5     	30.2 	0.748331	29 	31 
1182	5     	30.2 	0.748331	29 	31 
1183	5     	30.2 	0.748331	29 	31 
1184	5     	30.2 	0.748331	29 	31 
1185	5     	30.2 	0.748331	29 	31 
1186	5     	30.2 	0.748331	29 	31 
1187	5     	30.2 	0.748331	29 	31 
1188	5     	30.2 	0.748331	29 	31 
1189	5     	30.2 	0.748331	29 	31 
1190	5     	30.2 	0.748331	29 	31 
1191	5     	30.2 	0.748331	29 	31 
1192	5     	30.2 	0.748331	29 	31 
1193	5     	30.2 	0.748331	29 	31 
1194	5     	30.2 	0.748331	29 	31 
1195	5     	30.2 	0.748331	29 	31 
1196	5     	30.2 	0.748331	29 	31 
1197	5     	30.2 	0.748331	29 	31 
1198	5     	30.2 	0.748331	29 	31 
1199	5     	30.2 	0.748331	29 	31 
1200	5     	30.2 	0.748331	29 	31 
1201	5     	30.2 	0.748331	29 	31 
1202	5     	30.2 	0.748331	29 	31 
1203	5     	30.2 	0.748331	29 	31 
1204	5     	30.2 	0.748331	29 	31 
1205	5     	30.2 	0.748331	29 	31 
1206	5     	30.2 	0.748331	29 	31 
1207	5     	30.2 	0.748331	29 	31 
1208	5     	30.2 	0.748331	29 	31 
1209	5     	30.2 	0.748331	29 	31 
1210	5     	30.2 	0.748331	29 	31 
1211	5     	30.2 	0.748331	29 	31 
1212	5     	30.2 	0.748331	29 	31 
1213	5     	30.2 	0.748331	29 	31 
1214	5     	30.2 	0.748331	29 	31 
1215	5     	30.2 	0.748331	29 	31 
1216	5     	30.2 	0.748331	29 	31 
1217	5     	30.2 	0.748331	29 	31 
1218	5     	30.2 	0.748331	29 	31 
1219	5     	30.2 	0.748331	29 	31 
1220	5     	30.2 	0.748331	29 	31 
1221	5     	30.2 	0.748331	29 	31 
1222	5     	30.2 	0.748331	29 	31 
1223	5     	30.2 	0.748331	29 	31 
1224	5     	30.2 	0.748331	29 	31 
1225	5     	30.2 	0.748331	29 	31 
1226	5     	30.2 	0.748331	29 	31 
1227	5     	30.2 	0.748331	29 	31 
1228	5     	30.2 	0.748331	29 	31 
1229	5     	30.2 	0.748331	29 	31 
1230	5     	30.2 	0.748331	29 	31 
1231	5     	30.2 	0.748331	29 	31 
1232	5     	30.2 	0.748331	29 	31 
1233	5     	30.2 	0.748331	29 	31 
1234	5     	30.2 	0.748331	29 	31 
1235	5     	30.2 	0.748331	29 	31 
1236	5     	30.2 	0.748331	29 	31 
1237	5     	30.2 	0.748331	29 	31 
1238	5     	30.2 	0.748331	29 	31 
1239	5     	30.2 	0.748331	29 	31 
1240	5     	30.2 	0.748331	29 	31 
1241	5     	30.2 	0.748331	29 	31 
1242	5     	30.2 	0.748331	29 	31 
1243	5     	30.2 	0.748331	29 	31 
1244	5     	30.2 	0.748331	29 	31 
1245	5     	30.2 	0.748331	29 	31 
1246	5     	30.2 	0.748331	29 	31 
1247	5     	30.2 	0.748331	29 	31 
1248	5     	30.2 	0.748331	29 	31 
1249	5     	30.2 	0.748331	29 	31 
1250	5     	30.2 	0.748331	29 	31 
1251	5     	30.2 	0.748331	29 	31 
1252	5     	30.2 	0.748331	29 	31 
1253	5     	30.2 	0.748331	29 	31 
1254	5     	30.2 	0.748331	29 	31 
1255	5     	30.2 	0.748331	29 	31 
1256	5     	30.2 	0.748331	29 	31 
1257	5     	30.2 	0.748331	29 	31 
1258	5     	30.2 	0.748331	29 	31 
1259	5     	30.2 	0.748331	29 	31 
1260	5     	30.2 	0.748331	29 	31 
1261	5     	30.2 	0.748331	29 	31 
1262	5     	30.2 	0.748331	29 	31 
1263	5     	30.2 	0.748331	29 	31 
1264	5     	30.2 	0.748331	29 	31 
1265	5     	30.2 	0.748331	29 	31 
1266	5     	30.2 	0.748331	29 	31 
1267	5     	30.2 	0.748331	29 	31 
1268	5     	30.2 	0.748331	29 	31 
1269	5     	30.2 	0.748331	29 	31 
1270	5     	30.2 	0.748331	29 	31 
1271	5     	30.2 	0.748331	29 	31 
1272	5     	30.2 	0.748331	29 	31 
1273	5     	30.2 	0.748331	29 	31 
1274	5     	30.2 	0.748331	29 	31 
1275	5     	30.2 	0.748331	29 	31 
1276	5     	30.2 	0.748331	29 	31 
1277	5     	30.2 	0.748331	29 	31 
1278	5     	30.2 	0.748331	29 	31 
1279	5     	30.2 	0.748331	29 	31 
1280	5     	30.2 	0.748331	29 	31 
1281	5     	30.2 	0.748331	29 	31 
1282	5     	30.2 	0.748331	29 	31 
1283	5     	30.2 	0.748331	29 	31 
1284	5     	30.2 	0.748331	29 	31 
1285	5     	30.2 	0.748331	29 	31 
1286	5     	30.2 	0.748331	29 	31 
1287	5     	30.2 	0.748331	29 	31 
1288	5     	30.2 	0.748331	29 	31 
1289	5     	30.2 	0.748331	29 	31 
1290	5     	30.2 	0.748331	29 	31 
1291	5     	30.2 	0.748331	29 	31 
1292	5     	30.2 	0.748331	29 	31 
1293	5     	30.2 	0.748331	29 	31 
1294	5     	30.2 	0.748331	29 	31 
1295	5     	30.2 	0.748331	29 	31 
1296	5     	30.2 	0.748331	29 	31 
1297	5     	30.2 	0.748331	29 	31 
1298	5     	30.2 	0.748331	29 	31 
1299	5     	30.2 	0.748331	29 	31 
1300	5     	30.2 	0.748331	29 	31 
1301	5     	30.2 	0.748331	29 	31 
1302	5     	30.2 	0.748331	29 	31 
1303	5     	30.2 	0.748331	29 	31 
1304	5     	30.2 	0.748331	29 	31 
1305	5     	30.2 	0.748331	29 	31 
1306	5     	30.15	0.726292	29 	31 
1307	5     	30.15	0.726292	29 	31 
1308	5     	30.15	0.726292	29 	31 
1309	5     	30.15	0.726292	29 	31 
1310	5     	30.15	0.726292	29 	31 
1311	5     	30.15	0.726292	29 	31 
1312	5     	30.15	0.726292	29 	31 
1313	5     	30.15	0.726292	29 	31 
1314	5     	30.15	0.726292	29 	31 
1315	5     	30.15	0.726292	29 	31 
1316	5     	30.1 	0.7     	29 	31 
1317	5     	30.1 	0.7     	29 	31 
1318	5     	30.1 	0.7     	29 	31 
1319	5     	30.1 	0.7     	29 	31 
1320	5     	30.1 	0.7     	29 	31 
1321	5     	30.1 	0.7     	29 	31 
1322	5     	30.1 	0.7     	29 	31 
1323	5     	30.1 	0.7     	29 	31 
1324	5     	30.1 	0.7     	29 	31 
1325	5     	30.1 	0.7     	29 	31 
1326	5     	30.1 	0.7     	29 	31 
1327	5     	30.1 	0.7     	29 	31 
1328	5     	30.1 	0.7     	29 	31 
1329	5     	30.1 	0.7     	29 	31 
1330	5     	30.1 	0.7     	29 	31 
1331	5     	30.1 	0.7     	29 	31 
1332	5     	30.1 	0.7     	29 	31 
1333	5     	30.1 	0.7     	29 	31 
1334	5     	30.1 	0.7     	29 	31 
1335	5     	30.1 	0.7     	29 	31 
1336	5     	30.1 	0.7     	29 	31 
1337	5     	30.1 	0.7     	29 	31 
1338	5     	30.1 	0.7     	29 	31 
1339	5     	30.1 	0.7     	29 	31 
1340	5     	30.1 	0.7     	29 	31 
1341	5     	30.1 	0.7     	29 	31 
1342	5     	30.1 	0.7     	29 	31 
1343	5     	30.1 	0.7     	29 	31 
1344	5     	30.1 	0.7     	29 	31 
1345	5     	30.1 	0.7     	29 	31 
1346	5     	30.1 	0.7     	29 	31 
1347	5     	30.1 	0.7     	29 	31 
1348	5     	30.1 	0.7     	29 	31 
1349	5     	30.1 	0.7     	29 	31 
1350	5     	30.1 	0.7     	29 	31 
1351	5     	30.1 	0.7     	29 	31 
1352	5     	30.1 	0.7     	29 	31 
1353	5     	30.1 	0.7     	29 	31 
1354	5     	30.1 	0.7     	29 	31 
1355	5     	30.1 	0.7     	29 	31 
1356	5     	30.1 	0.7     	29 	31 
1357	5     	30.1 	0.7     	29 	31 
1358	5     	30.1 	0.7     	29 	31 
1359	5     	30.1 	0.7     	29 	31 
1360	5     	30.1 	0.7     	29 	31 
1361	5     	30.1 	0.7     	29 	31 
1362	5     	30.1 	0.7     	29 	31 
1363	5     	30.1 	0.7     	29 	31 
1364	5     	30.1 	0.7     	29 	31 
1365	5     	30.1 	0.7     	29 	31 
1366	5     	30.1 	0.7     	29 	31 
1367	5     	30.1 	0.7     	29 	31 
1368	5     	30.1 	0.7     	29 	31 
1369	5     	30.1 	0.7     	29 	31 
1370	5     	30.1 	0.7     	29 	31 
1371	5     	30.1 	0.7     	29 	31 
1372	5     	30.1 	0.7     	29 	31 
1373	5     	30.1 	0.7     	29 	31 
1374	5     	30.1 	0.7     	29 	31 
1375	5     	30.1 	0.7     	29 	31 
1376	5     	30.1 	0.7     	29 	31 
1377	5     	30.1 	0.7     	29 	31 
1378	5     	30.1 	0.7     	29 	31 
1379	5     	30.1 	0.7     	29 	31 
1380	5     	30.1 	0.7     	29 	31 
1381	5     	30.1 	0.7     	29 	31 
1382	5     	30.1 	0.7     	29 	31 
1383	5     	30.1 	0.7     	29 	31 
1384	5     	30.1 	0.7     	29 	31 
1385	5     	30.1 	0.7     	29 	31 
1386	5     	30.1 	0.7     	29 	31 
1387	5     	30.1 	0.7     	29 	31 
1388	5     	30.1 	0.7     	29 	31 
1389	5     	30.1 	0.7     	29 	31 
1390	5     	30.1 	0.7     	29 	31 
1391	5     	30.1 	0.7     	29 	31 
1392	5     	30.1 	0.7     	29 	31 
1393	5     	30.1 	0.7     	29 	31 
1394	5     	30.1 	0.7     	29 	31 
1395	5     	30.1 	0.7     	29 	31 
1396	5     	30.1 	0.7     	29 	31 
1397	5     	30.1 	0.7     	29 	31 
1398	5     	30.05	0.668954	29 	31 
1399	5     	30.05	0.668954	29 	31 
1400	5     	30.05	0.668954	29 	31 
1401	5     	30.05	0.668954	29 	31 
1402	5     	30.05	0.668954	29 	31 
1403	5     	30.05	0.668954	29 	31 
1404	5     	30.05	0.668954	29 	31 
1405	5     	30.05	0.668954	29 	31 
1406	5     	30.05	0.668954	29 	31 
1407	5     	30.05	0.668954	29 	31 
1408	5     	30.05	0.668954	29 	31 
1409	5     	30.05	0.668954	29 	31 
1410	5     	30.05	0.668954	29 	31 
1411	5     	30.05	0.668954	29 	31 
1412	5     	30.05	0.668954	29 	31 
1413	5     	30.05	0.668954	29 	31 
1414	5     	30.05	0.668954	29 	31 
1415	5     	30.05	0.668954	29 	31 
1416	5     	30.05	0.668954	29 	31 
1417	5     	30.05	0.668954	29 	31 
1418	5     	30.05	0.668954	29 	31 
1419	5     	30.05	0.668954	29 	31 
1420	5     	30.05	0.668954	29 	31 
1421	5     	30.05	0.668954	29 	31 
1422	5     	30.05	0.668954	29 	31 
1423	5     	29.95	0.668954	29 	31 
1424	5     	29.95	0.668954	29 	31 
1425	5     	29.95	0.668954	29 	31 
1426	5     	29.95	0.668954	29 	31 
1427	5     	29.95	0.668954	29 	31 
1428	5     	29.95	0.668954	29 	31 
1429	5     	29.95	0.668954	29 	31 
1430	5     	29.95	0.668954	29 	31 
1431	5     	29.95	0.668954	29 	31 
1432	5     	29.95	0.668954	29 	31 
1433	5     	29.95	0.668954	29 	31 
1434	5     	29.95	0.668954	29 	31 
1435	5     	29.95	0.668954	29 	31 
1436	5     	29.95	0.668954	29 	31 
1437	5     	29.95	0.668954	29 	31 
1438	5     	29.95	0.668954	29 	31 
1439	5     	29.95	0.668954	29 	31 
1440	5     	29.95	0.668954	29 	31 
1441	5     	29.95	0.668954	29 	31 
1442	5     	29.95	0.668954	29 	31 
1443	5     	29.95	0.668954	29 	31 
1444	5     	29.95	0.668954	29 	31 
1445	5     	29.95	0.668954	29 	31 
1446	5     	29.95	0.668954	29 	31 
1447	5     	29.95	0.668954	29 	31 
1448	5     	29.95	0.668954	29 	31 
1449	5     	29.95	0.668954	29 	31 
1450	5     	29.95	0.668954	29 	31 
1451	5     	29.95	0.668954	29 	31 
1452	5     	29.95	0.668954	29 	31 
1453	5     	29.95	0.668954	29 	31 
1454	5     	29.95	0.668954	29 	31 
1455	5     	29.95	0.668954	29 	31 
1456	5     	29.95	0.668954	29 	31 
1457	5     	29.95	0.668954	29 	31 
1458	5     	29.95	0.668954	29 	31 
1459	5     	29.95	0.668954	29 	31 
1460	5     	29.95	0.668954	29 	31 
1461	5     	29.95	0.668954	29 	31 
1462	5     	29.95	0.668954	29 	31 
1463	5     	29.95	0.668954	29 	31 
1464	5     	29.95	0.668954	29 	31 
1465	5     	29.95	0.668954	29 	31 
1466	5     	29.95	0.668954	29 	31 
1467	5     	29.95	0.668954	29 	31 
1468	5     	29.95	0.668954	29 	31 
1469	5     	29.95	0.668954	29 	31 
1470	5     	29.95	0.668954	29 	31 
1471	5     	29.95	0.668954	29 	31 
1472	5     	29.95	0.668954	29 	31 
1473	5     	29.95	0.668954	29 	31 
1474	5     	29.95	0.668954	29 	31 
1475	5     	29.95	0.668954	29 	31 
1476	5     	29.95	0.668954	29 	31 
1477	5     	29.95	0.668954	29 	31 
1478	5     	29.95	0.668954	29 	31 
1479	5     	29.95	0.668954	29 	31 
1480	5     	29.95	0.668954	29 	31 
1481	5     	29.95	0.668954	29 	31 
1482	5     	29.95	0.668954	29 	31 
1483	5     	29.95	0.668954	29 	31 
1484	5     	29.95	0.668954	29 	31 
1485	5     	29.95	0.668954	29 	31 
1486	5     	29.95	0.668954	29 	31 
1487	5     	29.95	0.668954	29 	31 
1488	5     	29.95	0.668954	29 	31 
1489	5     	29.95	0.668954	29 	31 
1490	5     	29.95	0.668954	29 	31 
1491	5     	29.95	0.668954	29 	31 
1492	5     	29.95	0.668954	29 	31 
1493	5     	29.95	0.668954	29 	31 
1494	5     	29.95	0.668954	29 	31 
1495	5     	29.95	0.668954	29 	31 
1496	5     	29.95	0.668954	29 	31 
1497	5     	29.95	0.668954	29 	31 
1498	5     	29.95	0.668954	29 	31 
1499	5     	29.95	0.668954	29 	31 
1500	5     	29.95	0.668954	29 	31 
1501	5     	29.95	0.668954	29 	31 
1502	5     	29.95	0.668954	29 	31 
1503	5     	29.95	0.668954	29 	31 
1504	5     	29.95	0.668954	29 	31 
1505	5     	29.95	0.668954	29 	31 
1506	5     	29.95	0.668954	29 	31 
1507	5     	29.95	0.668954	29 	31 
1508	5     	29.95	0.668954	29 	31 
1509	5     	29.95	0.668954	29 	31 
1510	5     	29.95	0.668954	29 	31 
1511	5     	29.95	0.668954	29 	31 
1512	5     	29.95	0.668954	29 	31 
1513	5     	29.95	0.668954	29 	31 
1514	5     	29.95	0.668954	29 	31 
1515	5     	29.95	0.668954	29 	31 
1516	5     	29.95	0.668954	29 	31 
1517	5     	29.95	0.668954	29 	31 
1518	5     	29.95	0.668954	29 	31 
1519	5     	29.95	0.668954	29 	31 
1520	5     	29.95	0.668954	29 	31 
1521	5     	29.95	0.668954	29 	31 
1522	5     	29.95	0.668954	29 	31 
1523	5     	29.95	0.668954	29 	31 
1524	5     	29.95	0.668954	29 	31 
1525	5     	29.95	0.668954	29 	31 
1526	5     	29.95	0.668954	29 	31 
1527	5     	29.95	0.668954	29 	31 
1528	5     	29.95	0.668954	29 	31 
1529	5     	29.95	0.668954	29 	31 
1530	5     	29.95	0.668954	29 	31 
1531	5     	29.95	0.668954	29 	31 
1532	5     	29.95	0.668954	29 	31 
1533	5     	29.95	0.668954	29 	31 
1534	5     	29.95	0.668954	29 	31 
1535	5     	29.95	0.668954	29 	31 
1536	5     	29.95	0.668954	29 	31 
1537	5     	29.95	0.668954	29 	31 
1538	5     	29.95	0.668954	29 	31 
1539	5     	29.95	0.668954	29 	31 
1540	5     	29.95	0.668954	29 	31 
1541	5     	29.95	0.668954	29 	31 
1542	5     	29.95	0.668954	29 	31 
1543	5     	29.95	0.668954	29 	31 
1544	5     	29.95	0.668954	29 	31 
1545	5     	29.95	0.668954	29 	31 
1546	5     	29.95	0.668954	29 	31 
1547	5     	29.95	0.668954	29 	31 
1548	5     	29.95	0.668954	29 	31 
1549	5     	29.95	0.668954	29 	31 
1550	5     	29.95	0.668954	29 	31 
1551	5     	29.95	0.668954	29 	31 
1552	5     	29.95	0.668954	29 	31 
1553	5     	29.95	0.668954	29 	31 
1554	5     	29.95	0.668954	29 	31 
1555	5     	29.95	0.668954	29 	31 
1556	5     	29.95	0.668954	29 	31 
1557	5     	29.95	0.668954	29 	31 
1558	5     	29.95	0.668954	29 	31 
1559	5     	29.95	0.668954	29 	31 
1560	5     	29.95	0.668954	29 	31 
1561	5     	29.95	0.668954	29 	31 
1562	5     	29.95	0.668954	29 	31 
1563	5     	29.95	0.668954	29 	31 
1564	5     	29.95	0.668954	29 	31 
1565	5     	29.95	0.668954	29 	31 
1566	5     	29.95	0.668954	29 	31 
1567	5     	29.95	0.668954	29 	31 
1568	5     	29.95	0.668954	29 	31 
1569	5     	29.95	0.668954	29 	31 
1570	5     	29.95	0.668954	29 	31 
1571	5     	29.95	0.668954	29 	31 
1572	5     	29.95	0.668954	29 	31 
1573	5     	29.95	0.668954	29 	31 
1574	5     	29.95	0.668954	29 	31 
1575	5     	29.95	0.668954	29 	31 
1576	5     	29.95	0.668954	29 	31 
1577	5     	29.95	0.668954	29 	31 
1578	5     	29.95	0.668954	29 	31 
1579	5     	29.95	0.668954	29 	31 
1580	5     	29.95	0.668954	29 	31 
1581	5     	29.95	0.668954	29 	31 
1582	5     	29.95	0.668954	29 	31 
1583	5     	29.95	0.668954	29 	31 
1584	5     	29.95	0.668954	29 	31 
1585	5     	29.95	0.668954	29 	31 
1586	5     	29.95	0.668954	29 	31 
1587	5     	29.95	0.668954	29 	31 
1588	5     	29.95	0.668954	29 	31 
1589	5     	29.95	0.668954	29 	31 
1590	5     	29.95	0.668954	29 	31 
1591	5     	29.95	0.668954	29 	31 
1592	5     	29.95	0.668954	29 	31 
1593	5     	29.95	0.668954	29 	31 
1594	5     	29.95	0.668954	29 	31 
1595	5     	29.95	0.668954	29 	31 
1596	5     	29.95	0.668954	29 	31 
1597	5     	29.95	0.668954	29 	31 
1598	5     	29.95	0.668954	29 	31 
1599	5     	29.95	0.668954	29 	31 
1600	5     	29.85	0.653835	29 	31 
1601	5     	29.85	0.653835	29 	31 
1602	5     	29.85	0.653835	29 	31 
1603	5     	29.85	0.653835	29 	31 
1604	5     	29.85	0.653835	29 	31 
1605	5     	29.85	0.653835	29 	31 
1606	5     	29.85	0.653835	29 	31 
1607	5     	29.85	0.653835	29 	31 
1608	5     	29.85	0.653835	29 	31 
1609	5     	29.85	0.653835	29 	31 
1610	5     	29.85	0.653835	29 	31 
1611	5     	29.85	0.653835	29 	31 
1612	5     	29.85	0.653835	29 	31 
1613	5     	29.85	0.653835	29 	31 
1614	5     	29.85	0.653835	29 	31 
1615	5     	29.85	0.653835	29 	31 
1616	5     	29.85	0.653835	29 	31 
1617	5     	29.85	0.653835	29 	31 
1618	5     	29.85	0.653835	29 	31 
1619	5     	29.85	0.653835	29 	31 
1620	5     	29.85	0.653835	29 	31 
1621	5     	29.85	0.653835	29 	31 
1622	5     	29.85	0.653835	29 	31 
1623	5     	29.85	0.653835	29 	31 
1624	5     	29.85	0.653835	29 	31 
1625	5     	29.85	0.653835	29 	31 
1626	5     	29.85	0.653835	29 	31 
1627	5     	29.85	0.653835	29 	31 
1628	5     	29.85	0.653835	29 	31 
1629	5     	29.85	0.653835	29 	31 
1630	5     	29.85	0.653835	29 	31 
1631	5     	29.85	0.653835	29 	31 
1632	5     	29.85	0.653835	29 	31 
1633	5     	29.85	0.653835	29 	31 
1634	5     	29.85	0.653835	29 	31 
1635	5     	29.85	0.653835	29 	31 
1636	5     	29.85	0.653835	29 	31 
1637	5     	29.85	0.653835	29 	31 
1638	5     	29.85	0.653835	29 	31 
1639	5     	29.85	0.653835	29 	31 
1640	5     	29.85	0.653835	29 	31 
1641	5     	29.85	0.653835	29 	31 
1642	5     	29.85	0.653835	29 	31 
1643	5     	29.85	0.653835	29 	31 
1644	5     	29.85	0.653835	29 	31 
1645	5     	29.85	0.653835	29 	31 
1646	5     	29.85	0.653835	29 	31 
1647	5     	29.85	0.653835	29 	31 
1648	5     	29.85	0.653835	29 	31 
1649	5     	29.85	0.653835	29 	31 
1650	5     	29.85	0.653835	29 	31 
1651	5     	29.85	0.653835	29 	31 
1652	5     	29.85	0.653835	29 	31 
1653	5     	29.85	0.653835	29 	31 
1654	5     	29.85	0.653835	29 	31 
1655	5     	29.85	0.653835	29 	31 
1656	5     	29.85	0.653835	29 	31 
1657	5     	29.85	0.653835	29 	31 
1658	5     	29.85	0.653835	29 	31 
1659	5     	29.85	0.653835	29 	31 
1660	5     	29.85	0.653835	29 	31 
1661	5     	29.85	0.653835	29 	31 
1662	5     	29.85	0.653835	29 	31 
1663	5     	29.85	0.653835	29 	31 
1664	5     	29.85	0.653835	29 	31 
1665	5     	29.85	0.653835	29 	31 
1666	5     	29.85	0.653835	29 	31 
1667	5     	29.85	0.653835	29 	31 
1668	5     	29.85	0.653835	29 	31 
1669	5     	29.85	0.653835	29 	31 
1670	5     	29.85	0.653835	29 	31 
1671	5     	29.85	0.653835	29 	31 
1672	5     	29.85	0.653835	29 	31 
1673	5     	29.85	0.653835	29 	31 
1674	5     	29.85	0.653835	29 	31 
1675	5     	29.85	0.653835	29 	31 
1676	5     	29.85	0.653835	29 	31 
1677	5     	29.85	0.653835	29 	31 
1678	5     	29.85	0.653835	29 	31 
1679	5     	29.85	0.653835	29 	31 
1680	5     	29.85	0.653835	29 	31 
1681	5     	29.85	0.653835	29 	31 
1682	5     	29.85	0.653835	29 	31 
1683	5     	29.85	0.653835	29 	31 
1684	5     	29.85	0.653835	29 	31 
1685	5     	29.85	0.653835	29 	31 
1686	5     	29.85	0.653835	29 	31 
1687	5     	29.85	0.653835	29 	31 
1688	5     	29.85	0.653835	29 	31 
1689	5     	29.85	0.653835	29 	31 
1690	5     	29.85	0.653835	29 	31 
1691	5     	29.85	0.653835	29 	31 
1692	5     	29.85	0.653835	29 	31 
1693	5     	29.85	0.653835	29 	31 
1694	5     	29.85	0.653835	29 	31 
1695	5     	29.85	0.653835	29 	31 
1696	5     	29.85	0.653835	29 	31 
1697	5     	29.85	0.653835	29 	31 
1698	5     	29.85	0.653835	29 	31 
1699	5     	29.85	0.653835	29 	31 
1700	5     	29.85	0.653835	29 	31 
1701	5     	29.85	0.653835	29 	31 
1702	5     	29.85	0.653835	29 	31 
1703	5     	29.85	0.653835	29 	31 
1704	5     	29.85	0.653835	29 	31 
1705	5     	29.85	0.653835	29 	31 
1706	5     	29.85	0.653835	29 	31 
1707	5     	29.85	0.653835	29 	31 
1708	5     	29.85	0.653835	29 	31 
1709	5     	29.85	0.653835	29 	31 
1710	5     	29.85	0.653835	29 	31 
1711	5     	29.85	0.653835	29 	31 
1712	5     	29.85	0.653835	29 	31 
1713	5     	29.85	0.653835	29 	31 
1714	5     	29.85	0.653835	29 	31 
1715	5     	29.85	0.653835	29 	31 
1716	5     	29.85	0.653835	29 	31 
1717	5     	29.85	0.653835	29 	31 
1718	5     	29.85	0.653835	29 	31 
1719	5     	29.85	0.653835	29 	31 
1720	5     	29.85	0.653835	29 	31 
1721	5     	29.85	0.653835	29 	31 
1722	5     	29.85	0.653835	29 	31 
1723	5     	29.85	0.653835	29 	31 
1724	5     	29.85	0.653835	29 	31 
1725	5     	29.85	0.653835	29 	31 
1726	5     	29.85	0.653835	29 	31 
1727	5     	29.85	0.653835	29 	31 
1728	5     	29.85	0.653835	29 	31 
1729	5     	29.85	0.653835	29 	31 
1730	5     	29.85	0.653835	29 	31 
1731	5     	29.85	0.653835	29 	31 
1732	5     	29.85	0.653835	29 	31 
1733	5     	29.85	0.653835	29 	31 
1734	5     	29.85	0.653835	29 	31 
1735	5     	29.85	0.653835	29 	31 
1736	5     	29.85	0.653835	29 	31 
1737	5     	29.85	0.653835	29 	31 
1738	5     	29.85	0.653835	29 	31 
1739	5     	29.85	0.653835	29 	31 
1740	5     	29.85	0.653835	29 	31 
1741	5     	29.85	0.653835	29 	31 
1742	5     	29.85	0.653835	29 	31 
1743	5     	29.85	0.653835	29 	31 
1744	5     	29.85	0.653835	29 	31 
1745	5     	29.85	0.653835	29 	31 
1746	5     	29.85	0.653835	29 	31 
1747	5     	29.85	0.653835	29 	31 
1748	5     	29.85	0.653835	29 	31 
1749	5     	29.85	0.653835	29 	31 
1750	5     	29.85	0.653835	29 	31 
1751	5     	29.85	0.653835	29 	31 
1752	5     	29.85	0.653835	29 	31 
1753	5     	29.85	0.653835	29 	31 
1754	5     	29.85	0.653835	29 	31 
1755	5     	29.85	0.653835	29 	31 
1756	5     	29.85	0.653835	29 	31 
1757	5     	29.85	0.653835	29 	31 
1758	5     	29.85	0.653835	29 	31 
1759	5     	29.85	0.653835	29 	31 
1760	5     	29.85	0.653835	29 	31 
1761	5     	29.85	0.653835	29 	31 
1762	5     	29.85	0.653835	29 	31 
1763	5     	29.85	0.653835	29 	31 
1764	5     	29.85	0.653835	29 	31 
1765	5     	29.85	0.653835	29 	31 
1766	5     	29.85	0.653835	29 	31 
1767	5     	29.85	0.653835	29 	31 
1768	5     	29.85	0.653835	29 	31 
1769	5     	29.85	0.653835	29 	31 
1770	5     	29.85	0.653835	29 	31 
1771	5     	29.85	0.653835	29 	31 
1772	5     	29.85	0.653835	29 	31 
1773	5     	29.85	0.653835	29 	31 
1774	5     	29.85	0.653835	29 	31 
1775	5     	29.85	0.653835	29 	31 
1776	5     	29.85	0.653835	29 	31 
1777	5     	29.85	0.653835	29 	31 
1778	5     	29.85	0.653835	29 	31 
1779	5     	29.85	0.653835	29 	31 
1780	5     	29.85	0.653835	29 	31 
1781	5     	29.85	0.653835	29 	31 
1782	5     	29.85	0.653835	29 	31 
1783	5     	29.85	0.653835	29 	31 
1784	5     	29.85	0.653835	29 	31 
1785	5     	29.85	0.653835	29 	31 
1786	5     	29.85	0.653835	29 	31 
1787	5     	29.85	0.653835	29 	31 
1788	5     	29.85	0.653835	29 	31 
1789	5     	29.85	0.653835	29 	31 
1790	5     	29.85	0.653835	29 	31 
1791	5     	29.85	0.653835	29 	31 
1792	5     	29.85	0.653835	29 	31 
1793	5     	29.85	0.653835	29 	31 
1794	5     	29.85	0.653835	29 	31 
1795	5     	29.85	0.653835	29 	31 
1796	5     	29.85	0.653835	29 	31 
1797	5     	29.85	0.653835	29 	31 
1798	5     	29.85	0.653835	29 	31 
1799	5     	29.85	0.653835	29 	31 
1800	5     	29.85	0.653835	29 	31 
1801	5     	29.85	0.653835	29 	31 
1802	5     	29.85	0.653835	29 	31 
1803	5     	29.85	0.653835	29 	31 
1804	5     	29.85	0.653835	29 	31 
1805	5     	29.85	0.653835	29 	31 
1806	5     	29.85	0.653835	29 	31 
1807	5     	29.85	0.653835	29 	31 
1808	5     	29.85	0.653835	29 	31 
1809	5     	29.85	0.653835	29 	31 
1810	5     	29.85	0.653835	29 	31 
1811	5     	29.85	0.653835	29 	31 
1812	5     	29.85	0.653835	29 	31 
1813	5     	29.85	0.653835	29 	31 
1814	5     	29.85	0.653835	29 	31 
1815	5     	29.85	0.653835	29 	31 
1816	5     	29.85	0.653835	29 	31 
1817	5     	29.85	0.653835	29 	31 
1818	5     	29.85	0.653835	29 	31 
1819	5     	29.85	0.653835	29 	31 
1820	5     	29.85	0.653835	29 	31 
1821	5     	29.85	0.653835	29 	31 
1822	5     	29.85	0.653835	29 	31 
1823	5     	29.85	0.653835	29 	31 
1824	5     	29.85	0.653835	29 	31 
1825	5     	29.85	0.653835	29 	31 
1826	5     	29.85	0.653835	29 	31 
1827	5     	29.85	0.653835	29 	31 
1828	5     	29.85	0.653835	29 	31 
1829	5     	29.85	0.653835	29 	31 
1830	5     	29.85	0.653835	29 	31 
1831	5     	29.85	0.653835	29 	31 
1832	5     	29.85	0.653835	29 	31 
1833	5     	29.85	0.653835	29 	31 
1834	5     	29.85	0.653835	29 	31 
1835	5     	29.85	0.653835	29 	31 
1836	5     	29.85	0.653835	29 	31 
1837	5     	29.85	0.653835	29 	31 
1838	5     	29.85	0.653835	29 	31 
1839	5     	29.85	0.653835	29 	31 
1840	5     	29.85	0.653835	29 	31 
1841	5     	29.85	0.653835	29 	31 
1842	5     	29.85	0.653835	29 	31 
1843	5     	29.85	0.653835	29 	31 
1844	5     	29.85	0.653835	29 	31 
1845	5     	29.85	0.653835	29 	31 
1846	5     	29.85	0.653835	29 	31 
1847	5     	29.85	0.653835	29 	31 
1848	5     	29.85	0.653835	29 	31 
1849	5     	29.85	0.653835	29 	31 
1850	5     	29.85	0.653835	29 	31 
1851	5     	29.85	0.653835	29 	31 
1852	5     	29.85	0.653835	29 	31 
1853	5     	29.85	0.653835	29 	31 
1854	5     	29.85	0.653835	29 	31 
1855	5     	29.85	0.653835	29 	31 
1856	5     	29.85	0.653835	29 	31 
1857	5     	29.85	0.653835	29 	31 
1858	5     	29.85	0.653835	29 	31 
1859	5     	29.85	0.653835	29 	31 
1860	5     	29.85	0.653835	29 	31 
1861	5     	29.85	0.653835	29 	31 
1862	5     	29.85	0.653835	29 	31 
1863	5     	29.85	0.653835	29 	31 
1864	5     	29.85	0.653835	29 	31 
1865	5     	29.85	0.653835	29 	31 
1866	5     	29.85	0.653835	29 	31 
1867	5     	29.85	0.653835	29 	31 
1868	5     	29.85	0.653835	29 	31 
1869	5     	29.85	0.653835	29 	31 
1870	5     	29.85	0.653835	29 	31 
1871	5     	29.85	0.653835	29 	31 
1872	5     	29.85	0.653835	29 	31 
1873	5     	29.85	0.653835	29 	31 
1874	5     	29.85	0.653835	29 	31 
1875	5     	29.85	0.653835	29 	31 
1876	5     	29.85	0.653835	29 	31 
1877	5     	29.85	0.653835	29 	31 
1878	5     	29.85	0.653835	29 	31 
1879	5     	29.85	0.653835	29 	31 
1880	5     	29.85	0.653835	29 	31 
1881	5     	29.85	0.653835	29 	31 
1882	5     	29.85	0.653835	29 	31 
1883	5     	29.85	0.653835	29 	31 
1884	5     	29.85	0.653835	29 	31 
1885	5     	29.85	0.653835	29 	31 
1886	5     	29.85	0.653835	29 	31 
1887	5     	29.85	0.653835	29 	31 
1888	5     	29.85	0.653835	29 	31 
1889	5     	29.85	0.653835	29 	31 
1890	5     	29.85	0.653835	29 	31 
1891	5     	29.85	0.653835	29 	31 
1892	5     	29.85	0.653835	29 	31 
1893	5     	29.85	0.653835	29 	31 
1894	5     	29.85	0.653835	29 	31 
1895	5     	29.85	0.653835	29 	31 
1896	5     	29.85	0.653835	29 	31 
1897	5     	29.85	0.653835	29 	31 
1898	5     	29.85	0.653835	29 	31 
1899	5     	29.85	0.653835	29 	31 
1900	5     	29.85	0.653835	29 	31 
1901	5     	29.85	0.653835	29 	31 
1902	5     	29.85	0.653835	29 	31 
1903	5     	29.85	0.653835	29 	31 
1904	5     	29.85	0.653835	29 	31 
1905	5     	29.85	0.653835	29 	31 
1906	5     	29.85	0.653835	29 	31 
1907	5     	29.85	0.653835	29 	31 
1908	5     	29.85	0.653835	29 	31 
1909	5     	29.85	0.653835	29 	31 
1910	5     	29.85	0.653835	29 	31 
1911	5     	29.85	0.653835	29 	31 
1912	5     	29.85	0.653835	29 	31 
1913	5     	29.85	0.653835	29 	31 
1914	5     	29.85	0.653835	29 	31 
1915	5     	29.85	0.653835	29 	31 
1916	5     	29.85	0.653835	29 	31 
1917	5     	29.85	0.653835	29 	31 
1918	5     	29.85	0.653835	29 	31 
1919	5     	29.85	0.653835	29 	31 
1920	5     	29.85	0.653835	29 	31 
1921	5     	29.85	0.653835	29 	31 
1922	5     	29.85	0.653835	29 	31 
1923	5     	29.85	0.653835	29 	31 
1924	5     	29.85	0.653835	29 	31 
1925	5     	29.85	0.653835	29 	31 
1926	5     	29.85	0.653835	29 	31 
1927	5     	29.85	0.653835	29 	31 
1928	5     	29.85	0.653835	29 	31 
1929	5     	29.85	0.653835	29 	31 
1930	5     	29.85	0.653835	29 	31 
1931	5     	29.85	0.653835	29 	31 
1932	5     	29.85	0.653835	29 	31 
1933	5     	29.85	0.653835	29 	31 
1934	5     	29.85	0.653835	29 	31 
1935	5     	29.85	0.653835	29 	31 
1936	5     	29.85	0.653835	29 	31 
1937	5     	29.85	0.653835	29 	31 
1938	5     	29.85	0.653835	29 	31 
1939	5     	29.85	0.653835	29 	31 
1940	5     	29.85	0.653835	29 	31 
1941	5     	29.85	0.653835	29 	31 
1942	5     	29.85	0.653835	29 	31 
1943	5     	29.85	0.653835	29 	31 
1944	5     	29.85	0.653835	29 	31 
1945	5     	29.85	0.653835	29 	31 
1946	5     	29.85	0.653835	29 	31 
1947	5     	29.85	0.653835	29 	31 
1948	5     	29.85	0.653835	29 	31 
1949	5     	29.85	0.653835	29 	31 
1950	5     	29.85	0.653835	29 	31 
1951	5     	29.85	0.653835	29 	31 
1952	5     	29.85	0.653835	29 	31 
1953	5     	29.85	0.653835	29 	31 
1954	5     	29.85	0.653835	29 	31 
1955	5     	29.85	0.653835	29 	31 
1956	5     	29.85	0.653835	29 	31 
1957	5     	29.85	0.653835	29 	31 
1958	5     	29.85	0.653835	29 	31 
1959	5     	29.85	0.653835	29 	31 
1960	5     	29.85	0.653835	29 	31 
1961	5     	29.85	0.653835	29 	31 
1962	5     	29.85	0.653835	29 	31 
1963	5     	29.85	0.653835	29 	31 
1964	5     	29.85	0.653835	29 	31 
1965	5     	29.85	0.653835	29 	31 
1966	5     	29.85	0.653835	29 	31 
1967	5     	29.85	0.653835	29 	31 
1968	5     	29.85	0.653835	29 	31 
1969	5     	29.85	0.653835	29 	31 
1970	5     	29.85	0.653835	29 	31 
1971	5     	29.85	0.653835	29 	31 
1972	5     	29.85	0.653835	29 	31 
1973	5     	29.85	0.653835	29 	31 
1974	5     	29.85	0.653835	29 	31 
1975	5     	29.85	0.653835	29 	31 
1976	5     	29.85	0.653835	29 	31 
1977	5     	29.85	0.653835	29 	31 
1978	5     	29.85	0.653835	29 	31 
1979	5     	29.85	0.653835	29 	31 
1980	5     	29.85	0.653835	29 	31 
1981	5     	29.85	0.653835	29 	31 
1982	5     	29.85	0.653835	29 	31 
1983	5     	29.85	0.653835	29 	31 
1984	5     	29.85	0.653835	29 	31 
1985	5     	29.85	0.653835	29 	31 
1986	5     	29.85	0.653835	29 	31 
1987	5     	29.85	0.653835	29 	31 
1988	5     	29.85	0.653835	29 	31 
1989	5     	29.85	0.653835	29 	31 
1990	5     	29.85	0.653835	29 	31 
1991	5     	29.85	0.653835	29 	31 
1992	5     	29.85	0.653835	29 	31 
1993	5     	29.85	0.653835	29 	31 
1994	5     	29.85	0.653835	29 	31 
1995	5     	29.85	0.653835	29 	31 
1996	5     	29.85	0.653835	29 	31 
