Run:0 Evals:10000 MES:10000.0 MAD:0.0 Failure:1 Best:0.723297 Solution:1
Run:1 Evals:10000 MES:10000.0 MAD:0.0 Failure:1 Best:0.734146 Solution:1
Run:2 Evals:10000 MES:10000.0 MAD:0.0 Failure:1 Best:0.742645 Solution:1
Run:3 Evals:10000 MES:10000.0 MAD:0.0 Failure:1 Best:0.726166 Solution:1
Run:4 Evals:10000 MES:10000.0 MAD:0.0 Failure:1 Best:0.734787 Solution:1
Run:5 Evals:10000 MES:10000.0 MAD:0.0 Failure:1 Best:0.716339 Solution:1
Run:6 Evals:10000 MES:10000.0 MAD:0.0 Failure:1 Best:0.745102 Solution:1
Run:7 Evals:10000 MES:10000.0 MAD:0.0 Failure:1 Best:0.731888 Solution:1
Run:8 Evals:10000 MES:10000.0 MAD:0.0 Failure:1 Best:0.722626 Solution:1
Run:9 Evals:10000 MES:10000.0 MAD:0.0 Failure:1 Best:0.735443 Solution:1
