Run:0 Evals:309 MES:309 MAD:0 Failure:0 Best:1 Solution:1
Run:0 Evals:289 MES:289 MAD:0 Failure:0 Best:1 Solution:1
Run:0 Evals:488 MES:488 MAD:0 Failure:0 Best:1 Solution:1
Run:0 Evals:319 MES:319 MAD:0 Failure:0 Best:1 Solution:1
Run:0 Evals:33 MES:33 MAD:0 Failure:0 Best:1 Solution:1
Run:0 Evals:135 MES:135 MAD:0 Failure:0 Best:1 Solution:1
Run:0 Evals:115 MES:115 MAD:0 Failure:0 Best:1 Solution:1
Run:0 Evals:212 MES:212 MAD:0 Failure:0 Best:1 Solution:1
Run:0 Evals:9 MES:9 MAD:0 Failure:0 Best:1 Solution:1
Run:0 Evals:716 MES:716 MAD:0 Failure:0 Best:1 Solution:1
