gen  nevals       avg       std       min       max
  0.0    20.0  0.587187  0.017098  0.561432  0.624832
  1.0    20.0  0.601057  0.009304  0.590485  0.624832
  2.0    20.0  0.606078  0.008094  0.595779  0.624832
  3.0    20.0  0.613738  0.007997  0.603699  0.638046
  4.0    20.0  0.618892  0.006409  0.611618  0.638046
  5.0    20.0  0.622987  0.010234  0.614273  0.656540
  6.0    20.0  0.625761  0.009859  0.614273  0.656540
  7.0    20.0  0.630119  0.010060  0.619553  0.656540
  8.0    20.0  0.633817  0.010247  0.624832  0.659180
  9.0    20.0  0.637647  0.011219  0.624832  0.659180
 10.0    20.0  0.639102  0.010177  0.627472  0.659180
 11.0    20.0  0.640028  0.009592  0.630112  0.659180
 12.0    20.0  0.643991  0.009914  0.632767  0.661819
 13.0    20.0  0.646368  0.010642  0.632767  0.669754
 14.0    20.0  0.650066  0.008822  0.638046  0.669754
 15.0    20.0  0.652707  0.007308  0.643326  0.669754
 16.0    20.0  0.653103  0.006896  0.645966  0.669754
 17.0    20.0  0.654821  0.006042  0.645966  0.669754
 18.0    20.0  0.655350  0.005696  0.648605  0.669754
 19.0    20.0  0.656409  0.004832  0.651260  0.669754
 20.0    20.0  0.656673  0.004685  0.651260  0.669754
 21.0    20.0  0.657333  0.004505  0.651260  0.669754
 22.0    20.0  0.658125  0.004755  0.651260  0.669754
 23.0    20.0  0.658917  0.004491  0.653900  0.669754
 24.0    20.0  0.659445  0.004252  0.653900  0.669754
 25.0    20.0  0.660634  0.004218  0.656540  0.669754
 26.0    20.0  0.660766  0.004128  0.656540  0.669754
 27.0    20.0  0.661427  0.004444  0.656540  0.669754
 28.0    20.0  0.661559  0.004335  0.656540  0.669754
 29.0    20.0  0.661691  0.004219  0.656540  0.669754
 30.0    20.0  0.661691  0.004219  0.656540  0.669754
 31.0    20.0  0.661691  0.004219  0.656540  0.669754
 32.0    20.0  0.662350  0.003885  0.656540  0.669754
 33.0    20.0  0.662350  0.003885  0.656540  0.669754
 34.0    20.0  0.663804  0.006192  0.659180  0.685608
 35.0    20.0  0.664201  0.006137  0.659180  0.685608
 36.0    20.0  0.664993  0.006005  0.659180  0.685608
 37.0    20.0  0.665654  0.006055  0.659180  0.685608
 38.0    20.0  0.666579  0.005707  0.659180  0.685608
 39.0    20.0  0.666711  0.005563  0.661819  0.685608
 40.0    20.0  0.666711  0.005563  0.661819  0.685608
 41.0    20.0  0.667902  0.005294  0.661819  0.685608
 42.0    20.0  0.668034  0.005172  0.661819  0.685608
 43.0    20.0  0.668958  0.005613  0.661819  0.685608
 44.0    20.0  0.668958  0.005613  0.661819  0.685608
 45.0    20.0  0.669355  0.005369  0.661819  0.685608
 46.0    20.0  0.669752  0.005083  0.664459  0.685608
 47.0    20.0  0.669752  0.005083  0.664459  0.685608
 48.0    20.0  0.669752  0.005083  0.664459  0.685608
 49.0    20.0  0.670413  0.004934  0.664459  0.685608
 50.0    20.0  0.671207  0.004534  0.667114  0.685608
 51.0    20.0  0.671207  0.004534  0.667114  0.685608
 52.0    20.0  0.671207  0.004534  0.667114  0.685608
 53.0    20.0  0.671603  0.004348  0.667114  0.685608
 54.0    20.0  0.672131  0.004168  0.667114  0.685608
 55.0    20.0  0.672263  0.004047  0.669754  0.685608
 56.0    20.0  0.672659  0.004168  0.669754  0.685608
 57.0    20.0  0.673055  0.004081  0.669754  0.685608
 58.0    20.0  0.674243  0.005484  0.669754  0.690887
 59.0    20.0  0.674639  0.005431  0.669754  0.690887
 60.0    20.0  0.674771  0.005342  0.669754  0.690887
 61.0    20.0  0.674771  0.005342  0.669754  0.690887
 62.0    20.0  0.675959  0.005235  0.669754  0.690887
 63.0    20.0  0.675959  0.005235  0.669754  0.690887
 64.0    20.0  0.675959  0.005235  0.669754  0.690887
 65.0    20.0  0.675959  0.005235  0.669754  0.690887
 66.0    20.0  0.676619  0.005243  0.672394  0.690887
 67.0    20.0  0.677015  0.005072  0.672394  0.690887
 68.0    20.0  0.677015  0.005072  0.672394  0.690887
 69.0    20.0  0.677676  0.005284  0.672394  0.690887
 70.0    20.0  0.677676  0.005284  0.672394  0.690887
 71.0    20.0  0.677676  0.005284  0.672394  0.690887
 72.0    20.0  0.677676  0.005284  0.672394  0.690887
 73.0    20.0  0.677676  0.005284  0.672394  0.690887
 74.0    20.0  0.677940  0.005143  0.672394  0.690887
 75.0    20.0  0.677940  0.005143  0.672394  0.690887
 76.0    20.0  0.679128  0.006334  0.672394  0.696167
 77.0    20.0  0.680053  0.006626  0.672394  0.696167
 78.0    20.0  0.681374  0.006106  0.675034  0.696167
 79.0    20.0  0.681374  0.006106  0.675034  0.696167
 80.0    20.0  0.681374  0.006106  0.675034  0.696167
 81.0    20.0  0.681374  0.006106  0.675034  0.696167
 82.0    20.0  0.681374  0.006106  0.675034  0.696167
 83.0    20.0  0.681374  0.006106  0.675034  0.696167
 84.0    20.0  0.681374  0.006106  0.675034  0.696167
 85.0    20.0  0.681374  0.006106  0.675034  0.696167
 86.0    20.0  0.682166  0.005974  0.675034  0.696167
 87.0    20.0  0.683091  0.005636  0.677673  0.696167
 88.0    20.0  0.683355  0.005434  0.677673  0.696167
 89.0    20.0  0.683355  0.005434  0.677673  0.696167
 90.0    20.0  0.683355  0.005434  0.677673  0.696167
 91.0    20.0  0.683355  0.005434  0.677673  0.696167
 92.0    20.0  0.683487  0.005326  0.677673  0.696167
 93.0    20.0  0.683619  0.005211  0.677673  0.696167
 94.0    20.0  0.683619  0.005211  0.677673  0.696167
 95.0    20.0  0.683883  0.005034  0.677673  0.696167
 96.0    20.0  0.683883  0.005034  0.677673  0.696167
 97.0    20.0  0.683883  0.005034  0.677673  0.696167
 98.0    20.0  0.683883  0.005034  0.677673  0.696167
 99.0    20.0  0.684412  0.004908  0.677673  0.696167
100.0    20.0  0.684808  0.004662  0.677673  0.696167
101.0    20.0  0.684808  0.004662  0.677673  0.696167
102.0    20.0  0.684940  0.004492  0.680313  0.696167
103.0    20.0  0.685072  0.004392  0.680313  0.696167
104.0    20.0  0.685072  0.004392  0.680313  0.696167
105.0    20.0  0.685337  0.004255  0.680313  0.696167
106.0    20.0  0.685602  0.004095  0.680313  0.696167
107.0    20.0  0.685602  0.004095  0.680313  0.696167
108.0    20.0  0.685602  0.004095  0.680313  0.696167
109.0    20.0  0.685602  0.004095  0.680313  0.696167
110.0    20.0  0.685867  0.003912  0.680313  0.696167
111.0    20.0  0.685867  0.003912  0.680313  0.696167
112.0    20.0  0.686263  0.003727  0.680313  0.696167
113.0    20.0  0.686263  0.003727  0.680313  0.696167
114.0    20.0  0.686263  0.003727  0.680313  0.696167
115.0    20.0  0.686263  0.003727  0.680313  0.696167
116.0    20.0  0.686263  0.003727  0.680313  0.696167
117.0    20.0  0.686263  0.003727  0.680313  0.696167
118.0    20.0  0.686263  0.003727  0.680313  0.696167
119.0    20.0  0.686660  0.003487  0.680313  0.696167
120.0    20.0  0.686660  0.003487  0.680313  0.696167
121.0    20.0  0.687189  0.003280  0.682953  0.696167
122.0    20.0  0.687189  0.003280  0.682953  0.696167
123.0    20.0  0.687189  0.003280  0.682953  0.696167
124.0    20.0  0.687189  0.003280  0.682953  0.696167
125.0    20.0  0.687981  0.003998  0.682953  0.698807
126.0    20.0  0.687981  0.003998  0.682953  0.698807
127.0    20.0  0.687981  0.003998  0.682953  0.698807
128.0    20.0  0.687981  0.003998  0.682953  0.698807
129.0    20.0  0.688114  0.003870  0.682953  0.698807
130.0    20.0  0.688114  0.003870  0.682953  0.698807
131.0    20.0  0.688114  0.003870  0.682953  0.698807
132.0    20.0  0.688114  0.003870  0.682953  0.698807
133.0    20.0  0.688247  0.003734  0.682953  0.698807
134.0    20.0  0.688247  0.003734  0.682953  0.698807
135.0    20.0  0.688247  0.003734  0.682953  0.698807
136.0    20.0  0.688247  0.003734  0.682953  0.698807
137.0    20.0  0.688247  0.003734  0.682953  0.698807
138.0    20.0  0.688776  0.003696  0.685608  0.698807
139.0    20.0  0.688776  0.003696  0.685608  0.698807
140.0    20.0  0.688776  0.003696  0.685608  0.698807
141.0    20.0  0.688776  0.003696  0.685608  0.698807
142.0    20.0  0.688776  0.003696  0.685608  0.698807
143.0    20.0  0.688776  0.003696  0.685608  0.698807
144.0    20.0  0.689436  0.004213  0.685608  0.698807
145.0    20.0  0.689436  0.004213  0.685608  0.698807
146.0    20.0  0.690096  0.004580  0.685608  0.698807
147.0    20.0  0.690096  0.004580  0.685608  0.698807
148.0    20.0  0.690096  0.004580  0.685608  0.698807
149.0    20.0  0.690096  0.004580  0.685608  0.698807
150.0    20.0  0.690096  0.004580  0.685608  0.698807
151.0    20.0  0.690096  0.004580  0.685608  0.698807
152.0    20.0  0.690359  0.004464  0.685608  0.698807
153.0    20.0  0.690359  0.004464  0.685608  0.698807
154.0    20.0  0.690359  0.004464  0.685608  0.698807
155.0    20.0  0.690623  0.004330  0.685608  0.698807
156.0    20.0  0.691283  0.004517  0.685608  0.698807
157.0    20.0  0.691283  0.004517  0.685608  0.698807
158.0    20.0  0.691283  0.004517  0.685608  0.698807
159.0    20.0  0.691283  0.004517  0.685608  0.698807
160.0    20.0  0.691283  0.004517  0.685608  0.698807
161.0    20.0  0.691283  0.004517  0.685608  0.698807
162.0    20.0  0.691283  0.004517  0.685608  0.698807
163.0    20.0  0.692075  0.004454  0.685608  0.698807
164.0    20.0  0.692075  0.004454  0.685608  0.698807
165.0    20.0  0.692075  0.004454  0.685608  0.698807
166.0    20.0  0.692075  0.004454  0.685608  0.698807
167.0    20.0  0.692075  0.004454  0.685608  0.698807
168.0    20.0  0.692075  0.004454  0.685608  0.698807
169.0    20.0  0.692075  0.004454  0.685608  0.698807
170.0    20.0  0.692075  0.004454  0.685608  0.698807
171.0    20.0  0.692075  0.004454  0.685608  0.698807
172.0    20.0  0.692075  0.004454  0.685608  0.698807
173.0    20.0  0.692075  0.004454  0.685608  0.698807
174.0    20.0  0.692075  0.004454  0.685608  0.698807
175.0    20.0  0.692075  0.004454  0.685608  0.698807
176.0    20.0  0.692075  0.004454  0.685608  0.698807
177.0    20.0  0.692075  0.004454  0.685608  0.698807
178.0    20.0  0.692207  0.004297  0.688248  0.698807
179.0    20.0  0.692207  0.004297  0.688248  0.698807
180.0    20.0  0.692207  0.004297  0.688248  0.698807
181.0    20.0  0.692207  0.004297  0.688248  0.698807
182.0    20.0  0.692207  0.004297  0.688248  0.698807
183.0    20.0  0.692207  0.004297  0.688248  0.698807
184.0    20.0  0.692207  0.004297  0.688248  0.698807
185.0    20.0  0.692207  0.004297  0.688248  0.698807
186.0    20.0  0.692207  0.004297  0.688248  0.698807
187.0    20.0  0.692207  0.004297  0.688248  0.698807
188.0    20.0  0.692207  0.004297  0.688248  0.698807
189.0    20.0  0.692207  0.004297  0.688248  0.698807
190.0    20.0  0.692471  0.004207  0.688248  0.698807
191.0    20.0  0.692471  0.004207  0.688248  0.698807
192.0    20.0  0.692471  0.004207  0.688248  0.698807
193.0    20.0  0.692471  0.004207  0.688248  0.698807
194.0    20.0  0.692471  0.004207  0.688248  0.698807
195.0    20.0  0.692471  0.004207  0.688248  0.698807
196.0    20.0  0.692999  0.004305  0.688248  0.698807
197.0    20.0  0.693659  0.004532  0.688248  0.701447
198.0    20.0  0.693659  0.004532  0.688248  0.701447
199.0    20.0  0.693923  0.004360  0.688248  0.701447
200.0    20.0  0.693923  0.004360  0.688248  0.701447
201.0    20.0  0.694848  0.004976  0.688248  0.706741
202.0    20.0  0.694848  0.004976  0.688248  0.706741
203.0    20.0  0.694848  0.004976  0.688248  0.706741
204.0    20.0  0.694848  0.004976  0.688248  0.706741
205.0    20.0  0.694848  0.004976  0.688248  0.706741
206.0    20.0  0.694848  0.004976  0.688248  0.706741
207.0    20.0  0.694980  0.004832  0.688248  0.706741
208.0    20.0  0.694980  0.004832  0.688248  0.706741
209.0    20.0  0.694980  0.004832  0.688248  0.706741
210.0    20.0  0.695112  0.004680  0.688248  0.706741
211.0    20.0  0.695112  0.004680  0.688248  0.706741
212.0    20.0  0.695112  0.004680  0.688248  0.706741
213.0    20.0  0.695112  0.004680  0.688248  0.706741
214.0    20.0  0.695112  0.004680  0.688248  0.706741
215.0    20.0  0.695112  0.004680  0.688248  0.706741
216.0    20.0  0.695508  0.004409  0.690887  0.706741
217.0    20.0  0.695508  0.004409  0.690887  0.706741
218.0    20.0  0.695508  0.004409  0.690887  0.706741
219.0    20.0  0.695508  0.004409  0.690887  0.706741
220.0    20.0  0.695508  0.004409  0.690887  0.706741
221.0    20.0  0.695508  0.004409  0.690887  0.706741
222.0    20.0  0.695508  0.004409  0.690887  0.706741
223.0    20.0  0.695508  0.004409  0.690887  0.706741
224.0    20.0  0.695508  0.004409  0.690887  0.706741
225.0    20.0  0.695508  0.004409  0.690887  0.706741
226.0    20.0  0.695508  0.004409  0.690887  0.706741
227.0    20.0  0.695904  0.004331  0.690887  0.706741
228.0    20.0  0.695904  0.004331  0.690887  0.706741
229.0    20.0  0.696036  0.004215  0.690887  0.706741
230.0    20.0  0.696036  0.004215  0.690887  0.706741
231.0    20.0  0.696036  0.004215  0.690887  0.706741
232.0    20.0  0.696036  0.004215  0.690887  0.706741
233.0    20.0  0.696036  0.004215  0.690887  0.706741
234.0    20.0  0.696036  0.004215  0.690887  0.706741
235.0    20.0  0.696036  0.004215  0.690887  0.706741
236.0    20.0  0.696432  0.004083  0.690887  0.706741
237.0    20.0  0.696432  0.004083  0.690887  0.706741
238.0    20.0  0.696564  0.003942  0.690887  0.706741
239.0    20.0  0.696564  0.003942  0.690887  0.706741
240.0    20.0  0.696828  0.003724  0.690887  0.706741
241.0    20.0  0.696828  0.003724  0.690887  0.706741
242.0    20.0  0.696828  0.003724  0.690887  0.706741
243.0    20.0  0.696828  0.003724  0.690887  0.706741
244.0    20.0  0.696828  0.003724  0.690887  0.706741
245.0    20.0  0.696828  0.003724  0.690887  0.706741
246.0    20.0  0.696828  0.003724  0.690887  0.706741
247.0    20.0  0.696828  0.003724  0.690887  0.706741
248.0    20.0  0.696828  0.003724  0.690887  0.706741
249.0    20.0  0.696828  0.003724  0.690887  0.706741
250.0    20.0  0.696960  0.003554  0.690887  0.706741
251.0    20.0  0.697224  0.003278  0.693527  0.706741
252.0    20.0  0.697884  0.003762  0.693527  0.706741
253.0    20.0  0.697884  0.003762  0.693527  0.706741
254.0    20.0  0.697884  0.003762  0.693527  0.706741
255.0    20.0  0.697884  0.003762  0.693527  0.706741
256.0    20.0  0.697884  0.003762  0.693527  0.706741
257.0    20.0  0.697884  0.003762  0.693527  0.706741
258.0    20.0  0.697884  0.003762  0.693527  0.706741
259.0    20.0  0.697884  0.003762  0.693527  0.706741
260.0    20.0  0.697884  0.003762  0.693527  0.706741
261.0    20.0  0.697884  0.003762  0.693527  0.706741
262.0    20.0  0.698148  0.003630  0.693527  0.706741
263.0    20.0  0.698148  0.003630  0.693527  0.706741
264.0    20.0  0.698148  0.003630  0.693527  0.706741
265.0    20.0  0.698412  0.003473  0.693527  0.706741
266.0    20.0  0.698941  0.003494  0.693527  0.706741
267.0    20.0  0.698941  0.003494  0.693527  0.706741
268.0    20.0  0.698941  0.003494  0.693527  0.706741
269.0    20.0  0.698941  0.003494  0.693527  0.706741
270.0    20.0  0.698941  0.003494  0.693527  0.706741
271.0    20.0  0.698941  0.003494  0.693527  0.706741
272.0    20.0  0.698941  0.003494  0.693527  0.706741
273.0    20.0  0.698941  0.003494  0.693527  0.706741
274.0    20.0  0.698941  0.003494  0.693527  0.706741
275.0    20.0  0.698941  0.003494  0.693527  0.706741
276.0    20.0  0.698941  0.003494  0.693527  0.706741
277.0    20.0  0.698941  0.003494  0.693527  0.706741
278.0    20.0  0.699337  0.003302  0.693527  0.706741
279.0    20.0  0.699337  0.003302  0.693527  0.706741
280.0    20.0  0.699601  0.003026  0.696167  0.706741
281.0    20.0  0.699601  0.003026  0.696167  0.706741
282.0    20.0  0.699601  0.003026  0.696167  0.706741
283.0    20.0  0.699601  0.003026  0.696167  0.706741
284.0    20.0  0.699733  0.002929  0.696167  0.706741
285.0    20.0  0.699733  0.002929  0.696167  0.706741
286.0    20.0  0.699733  0.002929  0.696167  0.706741
287.0    20.0  0.699733  0.002929  0.696167  0.706741
288.0    20.0  0.699733  0.002929  0.696167  0.706741
289.0    20.0  0.699733  0.002929  0.696167  0.706741
290.0    20.0  0.699733  0.002929  0.696167  0.706741
291.0    20.0  0.699733  0.002929  0.696167  0.706741
292.0    20.0  0.699733  0.002929  0.696167  0.706741
293.0    20.0  0.699733  0.002929  0.696167  0.706741
294.0    20.0  0.699733  0.002929  0.696167  0.706741
295.0    20.0  0.699733  0.002929  0.696167  0.706741
296.0    20.0  0.699733  0.002929  0.696167  0.706741
297.0    20.0  0.699733  0.002929  0.696167  0.706741
298.0    20.0  0.699733  0.002929  0.696167  0.706741
299.0    20.0  0.699733  0.002929  0.696167  0.706741
300.0    20.0  0.699733  0.002929  0.696167  0.706741
301.0    20.0  0.699865  0.002823  0.696167  0.706741
302.0    20.0  0.699865  0.002823  0.696167  0.706741
303.0    20.0  0.699865  0.002823  0.696167  0.706741
304.0    20.0  0.699997  0.002707  0.696167  0.706741
305.0    20.0  0.700658  0.003250  0.698807  0.709381
306.0    20.0  0.700658  0.003250  0.698807  0.709381
307.0    20.0  0.700658  0.003250  0.698807  0.709381
308.0    20.0  0.700790  0.003225  0.698807  0.709381
309.0    20.0  0.700790  0.003225  0.698807  0.709381
310.0    20.0  0.700790  0.003225  0.698807  0.709381
311.0    20.0  0.700790  0.003225  0.698807  0.709381
312.0    20.0  0.700790  0.003225  0.698807  0.709381
313.0    20.0  0.700790  0.003225  0.698807  0.709381
314.0    20.0  0.700790  0.003225  0.698807  0.709381
315.0    20.0  0.701186  0.003438  0.698807  0.709381
316.0    20.0  0.701186  0.003438  0.698807  0.709381
317.0    20.0  0.701186  0.003438  0.698807  0.709381
318.0    20.0  0.701186  0.003438  0.698807  0.709381
319.0    20.0  0.701318  0.003394  0.698807  0.709381
320.0    20.0  0.701318  0.003394  0.698807  0.709381
321.0    20.0  0.701318  0.003394  0.698807  0.709381
322.0    20.0  0.701318  0.003394  0.698807  0.709381
323.0    20.0  0.701318  0.003394  0.698807  0.709381
324.0    20.0  0.701318  0.003394  0.698807  0.709381
325.0    20.0  0.701318  0.003394  0.698807  0.709381
326.0    20.0  0.701318  0.003394  0.698807  0.709381
327.0    20.0  0.701318  0.003394  0.698807  0.709381
328.0    20.0  0.701318  0.003394  0.698807  0.709381
329.0    20.0  0.701318  0.003394  0.698807  0.709381
330.0    20.0  0.701318  0.003394  0.698807  0.709381
331.0    20.0  0.701318  0.003394  0.698807  0.709381
332.0    20.0  0.701318  0.003394  0.698807  0.709381
333.0    20.0  0.701318  0.003394  0.698807  0.709381
334.0    20.0  0.701318  0.003394  0.698807  0.709381
335.0    20.0  0.701318  0.003394  0.698807  0.709381
336.0    20.0  0.701318  0.003394  0.698807  0.709381
337.0    20.0  0.701318  0.003394  0.698807  0.709381
338.0    20.0  0.702112  0.003633  0.698807  0.709381
339.0    20.0  0.702112  0.003633  0.698807  0.709381
340.0    20.0  0.702112  0.003633  0.698807  0.709381
341.0    20.0  0.702112  0.003633  0.698807  0.709381
342.0    20.0  0.702112  0.003633  0.698807  0.709381
343.0    20.0  0.702112  0.003633  0.698807  0.709381
344.0    20.0  0.702112  0.003633  0.698807  0.709381
345.0    20.0  0.702112  0.003633  0.698807  0.709381
346.0    20.0  0.702112  0.003633  0.698807  0.709381
347.0    20.0  0.702112  0.003633  0.698807  0.709381
348.0    20.0  0.702112  0.003633  0.698807  0.709381
349.0    20.0  0.702112  0.003633  0.698807  0.709381
350.0    20.0  0.702641  0.003875  0.698807  0.709381
351.0    20.0  0.702773  0.003786  0.698807  0.709381
352.0    20.0  0.702773  0.003786  0.698807  0.709381
353.0    20.0  0.702773  0.003786  0.698807  0.709381
354.0    20.0  0.702905  0.003691  0.698807  0.709381
355.0    20.0  0.702905  0.003691  0.698807  0.709381
356.0    20.0  0.702905  0.003691  0.698807  0.709381
357.0    20.0  0.702905  0.003691  0.698807  0.709381
358.0    20.0  0.702905  0.003691  0.698807  0.709381
359.0    20.0  0.702905  0.003691  0.698807  0.709381
360.0    20.0  0.702905  0.003691  0.698807  0.709381
361.0    20.0  0.702905  0.003691  0.698807  0.709381
362.0    20.0  0.702905  0.003691  0.698807  0.709381
363.0    20.0  0.702905  0.003691  0.698807  0.709381
364.0    20.0  0.702905  0.003691  0.698807  0.709381
365.0    20.0  0.702905  0.003691  0.698807  0.709381
366.0    20.0  0.703169  0.003575  0.698807  0.709381
367.0    20.0  0.703566  0.003509  0.698807  0.709381
368.0    20.0  0.703566  0.003509  0.698807  0.709381
369.0    20.0  0.703566  0.003509  0.698807  0.709381
370.0    20.0  0.703566  0.003509  0.698807  0.709381
371.0    20.0  0.703566  0.003509  0.698807  0.709381
372.0    20.0  0.703566  0.003509  0.698807  0.709381
373.0    20.0  0.703566  0.003509  0.698807  0.709381
374.0    20.0  0.703566  0.003509  0.698807  0.709381
375.0    20.0  0.703566  0.003509  0.698807  0.709381
376.0    20.0  0.703831  0.003335  0.698807  0.709381
377.0    20.0  0.703831  0.003335  0.698807  0.709381
378.0    20.0  0.703831  0.003335  0.698807  0.709381
379.0    20.0  0.703831  0.003335  0.698807  0.709381
380.0    20.0  0.703831  0.003335  0.698807  0.709381
381.0    20.0  0.703831  0.003335  0.698807  0.709381
382.0    20.0  0.703963  0.003183  0.698807  0.709381
383.0    20.0  0.703963  0.003183  0.698807  0.709381
384.0    20.0  0.703963  0.003183  0.698807  0.709381
385.0    20.0  0.703963  0.003183  0.698807  0.709381
386.0    20.0  0.703963  0.003183  0.698807  0.709381
387.0    20.0  0.703963  0.003183  0.698807  0.709381
388.0    20.0  0.703963  0.003183  0.698807  0.709381
389.0    20.0  0.703963  0.003183  0.698807  0.709381
390.0    20.0  0.704227  0.002955  0.698807  0.709381
391.0    20.0  0.704227  0.002955  0.698807  0.709381
392.0    20.0  0.704227  0.002955  0.698807  0.709381
393.0    20.0  0.704227  0.002955  0.698807  0.709381
394.0    20.0  0.705020  0.003475  0.701447  0.714661
395.0    20.0  0.705020  0.003475  0.701447  0.714661
396.0    20.0  0.705020  0.003475  0.701447  0.714661
397.0    20.0  0.705020  0.003475  0.701447  0.714661
398.0    20.0  0.705020  0.003475  0.701447  0.714661
399.0    20.0  0.705020  0.003475  0.701447  0.714661
400.0    20.0  0.705285  0.003393  0.701447  0.714661
401.0    20.0  0.705285  0.003393  0.701447  0.714661
402.0    20.0  0.705285  0.003393  0.701447  0.714661
403.0    20.0  0.705285  0.003393  0.701447  0.714661
404.0    20.0  0.705285  0.003393  0.701447  0.714661
405.0    20.0  0.705285  0.003393  0.701447  0.714661
406.0    20.0  0.705285  0.003393  0.701447  0.714661
407.0    20.0  0.705285  0.003393  0.701447  0.714661
408.0    20.0  0.705285  0.003393  0.701447  0.714661
409.0    20.0  0.705285  0.003393  0.701447  0.714661
410.0    20.0  0.705285  0.003393  0.701447  0.714661
411.0    20.0  0.705285  0.003393  0.701447  0.714661
412.0    20.0  0.705285  0.003393  0.701447  0.714661
413.0    20.0  0.705285  0.003393  0.701447  0.714661
414.0    20.0  0.705682  0.003385  0.701447  0.714661
415.0    20.0  0.705682  0.003385  0.701447  0.714661
416.0    20.0  0.705682  0.003385  0.701447  0.714661
417.0    20.0  0.705682  0.003385  0.701447  0.714661
418.0    20.0  0.705682  0.003385  0.701447  0.714661
419.0    20.0  0.705682  0.003385  0.701447  0.714661
420.0    20.0  0.705682  0.003385  0.701447  0.714661
421.0    20.0  0.705682  0.003385  0.701447  0.714661
422.0    20.0  0.705682  0.003385  0.701447  0.714661
423.0    20.0  0.705682  0.003385  0.701447  0.714661
424.0    20.0  0.705682  0.003385  0.701447  0.714661
425.0    20.0  0.705946  0.003248  0.701447  0.714661
426.0    20.0  0.706475  0.003332  0.701447  0.714661
427.0    20.0  0.706475  0.003332  0.701447  0.714661
428.0    20.0  0.706475  0.003332  0.701447  0.714661
429.0    20.0  0.706475  0.003332  0.701447  0.714661
430.0    20.0  0.706475  0.003332  0.701447  0.714661
431.0    20.0  0.706475  0.003332  0.701447  0.714661
432.0    20.0  0.706475  0.003332  0.701447  0.714661
433.0    20.0  0.706475  0.003332  0.701447  0.714661
434.0    20.0  0.706475  0.003332  0.701447  0.714661
435.0    20.0  0.706475  0.003332  0.701447  0.714661
436.0    20.0  0.706475  0.003332  0.701447  0.714661
437.0    20.0  0.707004  0.003331  0.701447  0.714661
438.0    20.0  0.707004  0.003331  0.701447  0.714661
439.0    20.0  0.707004  0.003331  0.701447  0.714661
440.0    20.0  0.707004  0.003331  0.701447  0.714661
441.0    20.0  0.707004  0.003331  0.701447  0.714661
442.0    20.0  0.707004  0.003331  0.701447  0.714661
443.0    20.0  0.707004  0.003331  0.701447  0.714661
444.0    20.0  0.707004  0.003331  0.701447  0.714661
445.0    20.0  0.707004  0.003331  0.701447  0.714661
446.0    20.0  0.707004  0.003331  0.701447  0.714661
447.0    20.0  0.707137  0.003155  0.701447  0.714661
448.0    20.0  0.707137  0.003155  0.701447  0.714661
449.0    20.0  0.707137  0.003155  0.701447  0.714661
450.0    20.0  0.707137  0.003155  0.701447  0.714661
451.0    20.0  0.707137  0.003155  0.701447  0.714661
452.0    20.0  0.707137  0.003155  0.701447  0.714661
453.0    20.0  0.707137  0.003155  0.701447  0.714661
454.0    20.0  0.707137  0.003155  0.701447  0.714661
455.0    20.0  0.707137  0.003155  0.701447  0.714661
456.0    20.0  0.707137  0.003155  0.701447  0.714661
457.0    20.0  0.707137  0.003155  0.701447  0.714661
458.0    20.0  0.707137  0.003155  0.701447  0.714661
459.0    20.0  0.707137  0.003155  0.701447  0.714661
460.0    20.0  0.707137  0.003155  0.701447  0.714661
461.0    20.0  0.707137  0.003155  0.701447  0.714661
462.0    20.0  0.707137  0.003155  0.701447  0.714661
463.0    20.0  0.707137  0.003155  0.701447  0.714661
464.0    20.0  0.707137  0.003155  0.701447  0.714661
465.0    20.0  0.707137  0.003155  0.701447  0.714661
466.0    20.0  0.707137  0.003155  0.701447  0.714661
467.0    20.0  0.707137  0.003155  0.701447  0.714661
468.0    20.0  0.707137  0.003155  0.701447  0.714661
469.0    20.0  0.707137  0.003155  0.701447  0.714661
470.0    20.0  0.707137  0.003155  0.701447  0.714661
471.0    20.0  0.707137  0.003155  0.701447  0.714661
472.0    20.0  0.707137  0.003155  0.701447  0.714661
473.0    20.0  0.707401  0.002877  0.704102  0.714661
474.0    20.0  0.707401  0.002877  0.704102  0.714661
475.0    20.0  0.707401  0.002877  0.704102  0.714661
476.0    20.0  0.707401  0.002877  0.704102  0.714661
477.0    20.0  0.707401  0.002877  0.704102  0.714661
478.0    20.0  0.707401  0.002877  0.704102  0.714661
479.0    20.0  0.707401  0.002877  0.704102  0.714661
480.0    20.0  0.707401  0.002877  0.704102  0.714661
481.0    20.0  0.707401  0.002877  0.704102  0.714661
482.0    20.0  0.707533  0.002781  0.704102  0.714661
483.0    20.0  0.707533  0.002781  0.704102  0.714661
484.0    20.0  0.707533  0.002781  0.704102  0.714661
485.0    20.0  0.707533  0.002781  0.704102  0.714661
486.0    20.0  0.707533  0.002781  0.704102  0.714661
487.0    20.0  0.707533  0.002781  0.704102  0.714661
488.0    20.0  0.707533  0.002781  0.704102  0.714661
489.0    20.0  0.707533  0.002781  0.704102  0.714661
490.0    20.0  0.707533  0.002781  0.704102  0.714661
491.0    20.0  0.707533  0.002781  0.704102  0.714661
492.0    20.0  0.707533  0.002781  0.704102  0.714661
493.0    20.0  0.707533  0.002781  0.704102  0.714661
494.0    20.0  0.707533  0.002781  0.704102  0.714661
495.0    20.0  0.707533  0.002781  0.704102  0.714661
496.0    20.0  0.707533  0.002781  0.704102  0.714661
497.0    20.0  0.707533  0.002781  0.704102  0.714661
498.0    20.0  0.707533  0.002781  0.704102  0.714661
499.0    20.0  0.707533  0.002781  0.704102  0.714661
