gen  nevals       avg       std       min       max
  0.0    20.0  0.601884  0.047696  0.509430  0.698120
  1.0    20.0  0.647167  0.025385  0.603775  0.716980
  2.0    20.0  0.664149  0.021181  0.641510  0.716980
  3.0    20.0  0.678300  0.020216  0.660370  0.716980
  4.0    20.0  0.689623  0.018368  0.660370  0.716980
  5.0    20.0  0.698116  0.014615  0.679245  0.716980
  6.0    20.0  0.705663  0.016229  0.679245  0.754715
  7.0    20.0  0.714153  0.013701  0.698120  0.754715
  8.0    20.0  0.716982  0.011932  0.698120  0.754715
  9.0    20.0  0.723585  0.012337  0.716980  0.754715
 10.0    20.0  0.725471  0.013961  0.716980  0.754715
 11.0    20.0  0.728302  0.015095  0.716980  0.754715
 12.0    20.0  0.733020  0.017164  0.716980  0.773590
 13.0    20.0  0.741511  0.023186  0.716980  0.811325
 14.0    20.0  0.745285  0.021095  0.716980  0.811325
 15.0    20.0  0.750002  0.017774  0.735855  0.811325
 16.0    20.0  0.753775  0.017369  0.735855  0.811325
 17.0    20.0  0.758492  0.018486  0.735855  0.811325
 18.0    20.0  0.763207  0.017371  0.735855  0.811325
 19.0    20.0  0.768867  0.021410  0.754715  0.830185
 20.0    20.0  0.773586  0.020669  0.754715  0.830185
 21.0    20.0  0.780190  0.021738  0.754715  0.830185
 22.0    20.0  0.782078  0.020210  0.754715  0.830185
 23.0    20.0  0.783965  0.019308  0.754715  0.830185
 24.0    20.0  0.785851  0.018168  0.773590  0.830185
 25.0    20.0  0.786794  0.017996  0.773590  0.830185
 26.0    20.0  0.786794  0.017996  0.773590  0.830185
 27.0    20.0  0.787737  0.017772  0.773590  0.830185
 28.0    20.0  0.789623  0.017161  0.773590  0.830185
 29.0    20.0  0.789623  0.017161  0.773590  0.830185
 30.0    20.0  0.789623  0.017161  0.773590  0.830185
 31.0    20.0  0.791510  0.017368  0.773590  0.830185
 32.0    20.0  0.792453  0.016874  0.773590  0.830185
 33.0    20.0  0.796226  0.015328  0.773590  0.830185
 34.0    20.0  0.798112  0.013475  0.773590  0.830185
 35.0    20.0  0.799055  0.012337  0.792450  0.830185
 36.0    20.0  0.799998  0.012517  0.792450  0.830185
 37.0    20.0  0.803773  0.016232  0.792450  0.849060
 38.0    20.0  0.806603  0.018751  0.792450  0.849060
 39.0    20.0  0.806603  0.018751  0.792450  0.849060
 40.0    20.0  0.806603  0.018751  0.792450  0.849060
 41.0    20.0  0.807547  0.018489  0.792450  0.849060
 42.0    20.0  0.808491  0.018173  0.792450  0.849060
 43.0    20.0  0.812265  0.019312  0.792450  0.849060
 44.0    20.0  0.813209  0.018775  0.792450  0.849060
 45.0    20.0  0.816039  0.017776  0.792450  0.849060
 46.0    20.0  0.818871  0.015094  0.792450  0.849060
 47.0    20.0  0.820757  0.013992  0.811325  0.849060
 48.0    20.0  0.824530  0.016979  0.811325  0.867920
 49.0    20.0  0.824530  0.016979  0.811325  0.867920
 50.0    20.0  0.824530  0.016979  0.811325  0.867920
 51.0    20.0  0.824530  0.016979  0.811325  0.867920
 52.0    20.0  0.824530  0.016979  0.811325  0.867920
 53.0    20.0  0.824530  0.016979  0.811325  0.867920
 54.0    20.0  0.824530  0.016979  0.811325  0.867920
 55.0    20.0  0.824530  0.016979  0.811325  0.867920
 56.0    20.0  0.824530  0.016979  0.811325  0.867920
 57.0    20.0  0.830190  0.017899  0.811325  0.867920
 58.0    20.0  0.838680  0.021073  0.811325  0.886795
 59.0    20.0  0.841509  0.018294  0.811325  0.886795
 60.0    20.0  0.843395  0.015900  0.830185  0.886795
 61.0    20.0  0.846226  0.016094  0.830185  0.886795
 62.0    20.0  0.846226  0.016094  0.830185  0.886795
 63.0    20.0  0.847169  0.015674  0.830185  0.886795
 64.0    20.0  0.847169  0.015674  0.830185  0.886795
 65.0    20.0  0.847169  0.015674  0.830185  0.886795
 66.0    20.0  0.848113  0.015183  0.830185  0.886795
 67.0    20.0  0.848113  0.015183  0.830185  0.886795
 68.0    20.0  0.848113  0.015183  0.830185  0.886795
 69.0    20.0  0.853774  0.015644  0.830185  0.886795
 70.0    20.0  0.853774  0.015644  0.830185  0.886795
 71.0    20.0  0.856605  0.016231  0.830185  0.886795
 72.0    20.0  0.857549  0.015182  0.830185  0.886795
 73.0    20.0  0.857549  0.015182  0.830185  0.886795
 74.0    20.0  0.857549  0.015182  0.830185  0.886795
 75.0    20.0  0.859435  0.013959  0.849060  0.886795
 76.0    20.0  0.859435  0.013959  0.849060  0.886795
 77.0    20.0  0.859435  0.013959  0.849060  0.886795
 78.0    20.0  0.859435  0.013959  0.849060  0.886795
 79.0    20.0  0.860378  0.013864  0.849060  0.886795
 80.0    20.0  0.861321  0.013702  0.849060  0.886795
 81.0    20.0  0.861321  0.013702  0.849060  0.886795
 82.0    20.0  0.862264  0.013473  0.849060  0.886795
 83.0    20.0  0.862264  0.013473  0.849060  0.886795
 84.0    20.0  0.863207  0.013172  0.849060  0.886795
 85.0    20.0  0.863207  0.013172  0.849060  0.886795
 86.0    20.0  0.863207  0.013172  0.849060  0.886795
 87.0    20.0  0.863207  0.013172  0.849060  0.886795
 88.0    20.0  0.863207  0.013172  0.849060  0.886795
 89.0    20.0  0.863207  0.013172  0.849060  0.886795
 90.0    20.0  0.865094  0.013703  0.849060  0.886795
 91.0    20.0  0.865094  0.013703  0.849060  0.886795
 92.0    20.0  0.866980  0.012621  0.849060  0.886795
 93.0    20.0  0.867923  0.011933  0.849060  0.886795
 94.0    20.0  0.868866  0.011123  0.849060  0.886795
 95.0    20.0  0.869809  0.010161  0.849060  0.886795
 96.0    20.0  0.869809  0.010161  0.849060  0.886795
 97.0    20.0  0.869809  0.010161  0.849060  0.886795
 98.0    20.0  0.870752  0.009001  0.849060  0.886795
 99.0    20.0  0.870752  0.009001  0.849060  0.886795
100.0    20.0  0.873582  0.010507  0.867920  0.905655
101.0    20.0  0.873582  0.010507  0.867920  0.905655
102.0    20.0  0.873582  0.010507  0.867920  0.905655
103.0    20.0  0.873582  0.010507  0.867920  0.905655
104.0    20.0  0.875468  0.012517  0.867920  0.905655
105.0    20.0  0.876412  0.012623  0.867920  0.905655
106.0    20.0  0.876412  0.012623  0.867920  0.905655
107.0    20.0  0.876412  0.012623  0.867920  0.905655
108.0    20.0  0.876412  0.012623  0.867920  0.905655
109.0    20.0  0.876412  0.012623  0.867920  0.905655
110.0    20.0  0.878299  0.013962  0.867920  0.905655
111.0    20.0  0.878299  0.013962  0.867920  0.905655
112.0    20.0  0.878299  0.013962  0.867920  0.905655
113.0    20.0  0.878299  0.013962  0.867920  0.905655
114.0    20.0  0.879243  0.013866  0.867920  0.905655
115.0    20.0  0.879243  0.013866  0.867920  0.905655
116.0    20.0  0.879243  0.013866  0.867920  0.905655
117.0    20.0  0.879243  0.013866  0.867920  0.905655
118.0    20.0  0.879243  0.013866  0.867920  0.905655
119.0    20.0  0.879243  0.013866  0.867920  0.905655
120.0    20.0  0.880186  0.013705  0.867920  0.905655
121.0    20.0  0.880186  0.013705  0.867920  0.905655
122.0    20.0  0.880186  0.013705  0.867920  0.905655
123.0    20.0  0.881130  0.013475  0.867920  0.905655
124.0    20.0  0.881130  0.013475  0.867920  0.905655
125.0    20.0  0.881130  0.013475  0.867920  0.905655
126.0    20.0  0.881130  0.013475  0.867920  0.905655
127.0    20.0  0.881130  0.013475  0.867920  0.905655
128.0    20.0  0.881130  0.013475  0.867920  0.905655
129.0    20.0  0.883017  0.014120  0.867920  0.905655
130.0    20.0  0.883017  0.014120  0.867920  0.905655
131.0    20.0  0.883017  0.014120  0.867920  0.905655
132.0    20.0  0.884904  0.014493  0.867920  0.905655
133.0    20.0  0.884904  0.014493  0.867920  0.905655
134.0    20.0  0.887735  0.012621  0.867920  0.905655
135.0    20.0  0.887735  0.012621  0.867920  0.905655
136.0    20.0  0.888679  0.011782  0.867920  0.905655
137.0    20.0  0.888679  0.011782  0.867920  0.905655
138.0    20.0  0.888679  0.011782  0.867920  0.905655
139.0    20.0  0.890565  0.011319  0.867920  0.905655
140.0    20.0  0.891509  0.010114  0.867920  0.905655
141.0    20.0  0.891509  0.010114  0.867920  0.905655
142.0    20.0  0.891509  0.010114  0.867920  0.905655
143.0    20.0  0.892453  0.008643  0.886795  0.905655
144.0    20.0  0.892453  0.008643  0.886795  0.905655
145.0    20.0  0.892453  0.008643  0.886795  0.905655
146.0    20.0  0.892453  0.008643  0.886795  0.905655
147.0    20.0  0.892453  0.008643  0.886795  0.905655
148.0    20.0  0.892453  0.008643  0.886795  0.905655
149.0    20.0  0.892453  0.008643  0.886795  0.905655
150.0    20.0  0.892453  0.008643  0.886795  0.905655
151.0    20.0  0.892453  0.008643  0.886795  0.905655
152.0    20.0  0.892453  0.008643  0.886795  0.905655
153.0    20.0  0.894339  0.009239  0.886795  0.905655
154.0    20.0  0.894339  0.009239  0.886795  0.905655
155.0    20.0  0.895282  0.009383  0.886795  0.905655
156.0    20.0  0.895282  0.009383  0.886795  0.905655
157.0    20.0  0.895282  0.009383  0.886795  0.905655
158.0    20.0  0.895282  0.009383  0.886795  0.905655
159.0    20.0  0.895282  0.009383  0.886795  0.905655
160.0    20.0  0.895282  0.009383  0.886795  0.905655
161.0    20.0  0.895282  0.009383  0.886795  0.905655
162.0    20.0  0.895282  0.009383  0.886795  0.905655
163.0    20.0  0.897169  0.011120  0.886795  0.924530
164.0    20.0  0.897169  0.011120  0.886795  0.924530
165.0    20.0  0.897169  0.011120  0.886795  0.924530
166.0    20.0  0.897169  0.011120  0.886795  0.924530
167.0    20.0  0.897169  0.011120  0.886795  0.924530
168.0    20.0  0.897169  0.011120  0.886795  0.924530
169.0    20.0  0.897169  0.011120  0.886795  0.924530
170.0    20.0  0.899055  0.010795  0.886795  0.924530
171.0    20.0  0.901884  0.011319  0.886795  0.924530
172.0    20.0  0.901884  0.011319  0.886795  0.924530
173.0    20.0  0.901884  0.011319  0.886795  0.924530
174.0    20.0  0.901884  0.011319  0.886795  0.924530
175.0    20.0  0.903771  0.011782  0.886795  0.924530
176.0    20.0  0.905658  0.011933  0.886795  0.924530
177.0    20.0  0.906601  0.011123  0.886795  0.924530
178.0    20.0  0.906601  0.011123  0.886795  0.924530
179.0    20.0  0.906601  0.011123  0.886795  0.924530
180.0    20.0  0.906601  0.011123  0.886795  0.924530
181.0    20.0  0.906601  0.011123  0.886795  0.924530
182.0    20.0  0.906601  0.011123  0.886795  0.924530
183.0    20.0  0.906601  0.011123  0.886795  0.924530
184.0    20.0  0.908488  0.010799  0.886795  0.924530
185.0    20.0  0.908488  0.010799  0.886795  0.924530
186.0    20.0  0.908488  0.010799  0.886795  0.924530
187.0    20.0  0.908488  0.010799  0.886795  0.924530
188.0    20.0  0.908488  0.010799  0.886795  0.924530
189.0    20.0  0.910374  0.010119  0.886795  0.924530
190.0    20.0  0.910374  0.010119  0.886795  0.924530
191.0    20.0  0.910374  0.010119  0.886795  0.924530
192.0    20.0  0.912261  0.009003  0.905655  0.924530
193.0    20.0  0.912261  0.009003  0.905655  0.924530
194.0    20.0  0.912261  0.009003  0.905655  0.924530
195.0    20.0  0.912261  0.009003  0.905655  0.924530
196.0    20.0  0.912261  0.009003  0.905655  0.924530
197.0    20.0  0.912261  0.009003  0.905655  0.924530
198.0    20.0  0.912261  0.009003  0.905655  0.924530
199.0    20.0  0.912261  0.009003  0.905655  0.924530
200.0    20.0  0.912261  0.009003  0.905655  0.924530
201.0    20.0  0.912261  0.009003  0.905655  0.924530
202.0    20.0  0.912261  0.009003  0.905655  0.924530
203.0    20.0  0.912261  0.009003  0.905655  0.924530
204.0    20.0  0.913205  0.009247  0.905655  0.924530
205.0    20.0  0.913205  0.009247  0.905655  0.924530
206.0    20.0  0.913205  0.009247  0.905655  0.924530
207.0    20.0  0.913205  0.009247  0.905655  0.924530
208.0    20.0  0.913205  0.009247  0.905655  0.924530
209.0    20.0  0.913205  0.009247  0.905655  0.924530
210.0    20.0  0.913205  0.009247  0.905655  0.924530
211.0    20.0  0.913205  0.009247  0.905655  0.924530
212.0    20.0  0.914149  0.009390  0.905655  0.924530
213.0    20.0  0.914149  0.009390  0.905655  0.924530
214.0    20.0  0.914149  0.009390  0.905655  0.924530
215.0    20.0  0.914149  0.009390  0.905655  0.924530
216.0    20.0  0.915092  0.009438  0.905655  0.924530
217.0    20.0  0.915092  0.009438  0.905655  0.924530
218.0    20.0  0.915092  0.009438  0.905655  0.924530
219.0    20.0  0.916980  0.009247  0.905655  0.924530
220.0    20.0  0.916980  0.009247  0.905655  0.924530
221.0    20.0  0.916980  0.009247  0.905655  0.924530
222.0    20.0  0.916980  0.009247  0.905655  0.924530
223.0    20.0  0.918867  0.010507  0.905655  0.943390
224.0    20.0  0.918867  0.010507  0.905655  0.943390
225.0    20.0  0.918867  0.010507  0.905655  0.943390
226.0    20.0  0.918867  0.010507  0.905655  0.943390
227.0    20.0  0.919810  0.010119  0.905655  0.943390
228.0    20.0  0.919810  0.010119  0.905655  0.943390
229.0    20.0  0.919810  0.010119  0.905655  0.943390
230.0    20.0  0.919810  0.010119  0.905655  0.943390
231.0    20.0  0.919810  0.010119  0.905655  0.943390
232.0    20.0  0.919810  0.010119  0.905655  0.943390
233.0    20.0  0.919810  0.010119  0.905655  0.943390
234.0    20.0  0.922641  0.013209  0.905655  0.962265
235.0    20.0  0.922641  0.013209  0.905655  0.962265
236.0    20.0  0.922641  0.013209  0.905655  0.962265
237.0    20.0  0.922641  0.013209  0.905655  0.962265
238.0    20.0  0.922641  0.013209  0.905655  0.962265
239.0    20.0  0.923585  0.012623  0.905655  0.962265
240.0    20.0  0.923585  0.012623  0.905655  0.962265
241.0    20.0  0.923585  0.012623  0.905655  0.962265
242.0    20.0  0.924529  0.011934  0.905655  0.962265
243.0    20.0  0.924529  0.011934  0.905655  0.962265
244.0    20.0  0.924529  0.011934  0.905655  0.962265
245.0    20.0  0.924529  0.011934  0.905655  0.962265
246.0    20.0  0.924529  0.011934  0.905655  0.962265
247.0    20.0  0.924529  0.011934  0.905655  0.962265
248.0    20.0  0.924529  0.011934  0.905655  0.962265
249.0    20.0  0.924529  0.011934  0.905655  0.962265
250.0    20.0  0.924529  0.011934  0.905655  0.962265
251.0    20.0  0.924529  0.011934  0.905655  0.962265
252.0    20.0  0.924529  0.011934  0.905655  0.962265
253.0    20.0  0.924529  0.011934  0.905655  0.962265
254.0    20.0  0.924529  0.011934  0.905655  0.962265
255.0    20.0  0.924529  0.011934  0.905655  0.962265
256.0    20.0  0.924529  0.011934  0.905655  0.962265
257.0    20.0  0.924529  0.011934  0.905655  0.962265
258.0    20.0  0.927359  0.010797  0.905655  0.962265
259.0    20.0  0.927359  0.010797  0.905655  0.962265
260.0    20.0  0.927359  0.010797  0.905655  0.962265
261.0    20.0  0.927359  0.010797  0.905655  0.962265
262.0    20.0  0.927359  0.010797  0.905655  0.962265
263.0    20.0  0.927359  0.010797  0.905655  0.962265
264.0    20.0  0.927359  0.010797  0.905655  0.962265
265.0    20.0  0.927359  0.010797  0.905655  0.962265
266.0    20.0  0.927359  0.010797  0.905655  0.962265
267.0    20.0  0.927359  0.010797  0.905655  0.962265
268.0    20.0  0.927359  0.010797  0.905655  0.962265
269.0    20.0  0.928303  0.009619  0.924530  0.962265
270.0    20.0  0.928303  0.009619  0.924530  0.962265
271.0    20.0  0.928303  0.009619  0.924530  0.962265
272.0    20.0  0.928303  0.009619  0.924530  0.962265
273.0    20.0  0.928303  0.009619  0.924530  0.962265
274.0    20.0  0.928303  0.009619  0.924530  0.962265
275.0    20.0  0.928303  0.009619  0.924530  0.962265
276.0    20.0  0.928303  0.009619  0.924530  0.962265
277.0    20.0  0.928303  0.009619  0.924530  0.962265
278.0    20.0  0.928303  0.009619  0.924530  0.962265
279.0    20.0  0.929246  0.010115  0.924530  0.962265
280.0    20.0  0.930189  0.010503  0.924530  0.962265
281.0    20.0  0.930189  0.010503  0.924530  0.962265
282.0    20.0  0.930189  0.010503  0.924530  0.962265
283.0    20.0  0.930189  0.010503  0.924530  0.962265
284.0    20.0  0.930189  0.010503  0.924530  0.962265
285.0    20.0  0.930189  0.010503  0.924530  0.962265
286.0    20.0  0.930189  0.010503  0.924530  0.962265
287.0    20.0  0.930189  0.010503  0.924530  0.962265
288.0    20.0  0.930189  0.010503  0.924530  0.962265
289.0    20.0  0.930189  0.010503  0.924530  0.962265
290.0    20.0  0.930189  0.010503  0.924530  0.962265
291.0    20.0  0.930189  0.010503  0.924530  0.962265
292.0    20.0  0.930189  0.010503  0.924530  0.962265
293.0    20.0  0.930189  0.010503  0.924530  0.962265
294.0    20.0  0.930189  0.010503  0.924530  0.962265
295.0    20.0  0.930189  0.010503  0.924530  0.962265
296.0    20.0  0.930189  0.010503  0.924530  0.962265
297.0    20.0  0.930189  0.010503  0.924530  0.962265
298.0    20.0  0.930189  0.010503  0.924530  0.962265
299.0    20.0  0.930189  0.010503  0.924530  0.962265
300.0    20.0  0.930189  0.010503  0.924530  0.962265
301.0    20.0  0.930189  0.010503  0.924530  0.962265
302.0    20.0  0.930189  0.010503  0.924530  0.962265
303.0    20.0  0.930189  0.010503  0.924530  0.962265
304.0    20.0  0.930189  0.010503  0.924530  0.962265
305.0    20.0  0.931132  0.010795  0.924530  0.962265
306.0    20.0  0.931132  0.010795  0.924530  0.962265
307.0    20.0  0.931132  0.010795  0.924530  0.962265
308.0    20.0  0.931132  0.010795  0.924530  0.962265
309.0    20.0  0.931132  0.010795  0.924530  0.962265
310.0    20.0  0.931132  0.010795  0.924530  0.962265
311.0    20.0  0.931132  0.010795  0.924530  0.962265
312.0    20.0  0.932075  0.010999  0.924530  0.962265
313.0    20.0  0.932075  0.010999  0.924530  0.962265
314.0    20.0  0.932075  0.010999  0.924530  0.962265
315.0    20.0  0.932075  0.010999  0.924530  0.962265
316.0    20.0  0.932075  0.010999  0.924530  0.962265
317.0    20.0  0.932075  0.010999  0.924530  0.962265
318.0    20.0  0.932075  0.010999  0.924530  0.962265
319.0    20.0  0.932075  0.010999  0.924530  0.962265
320.0    20.0  0.932075  0.010999  0.924530  0.962265
321.0    20.0  0.932075  0.010999  0.924530  0.962265
322.0    20.0  0.932075  0.010999  0.924530  0.962265
323.0    20.0  0.933018  0.011120  0.924530  0.962265
324.0    20.0  0.933018  0.011120  0.924530  0.962265
325.0    20.0  0.933018  0.011120  0.924530  0.962265
326.0    20.0  0.933018  0.011120  0.924530  0.962265
327.0    20.0  0.933018  0.011120  0.924530  0.962265
328.0    20.0  0.933018  0.011120  0.924530  0.962265
329.0    20.0  0.933018  0.011120  0.924530  0.962265
330.0    20.0  0.933018  0.011120  0.924530  0.962265
331.0    20.0  0.934904  0.012620  0.924530  0.962265
332.0    20.0  0.934904  0.012620  0.924530  0.962265
333.0    20.0  0.934904  0.012620  0.924530  0.962265
334.0    20.0  0.934904  0.012620  0.924530  0.962265
335.0    20.0  0.934904  0.012620  0.924530  0.962265
336.0    20.0  0.934904  0.012620  0.924530  0.962265
337.0    20.0  0.934904  0.012620  0.924530  0.962265
338.0    20.0  0.934904  0.012620  0.924530  0.962265
339.0    20.0  0.934904  0.012620  0.924530  0.962265
340.0    20.0  0.934904  0.012620  0.924530  0.962265
341.0    20.0  0.934904  0.012620  0.924530  0.962265
342.0    20.0  0.934904  0.012620  0.924530  0.962265
343.0    20.0  0.934904  0.012620  0.924530  0.962265
344.0    20.0  0.934904  0.012620  0.924530  0.962265
345.0    20.0  0.934904  0.012620  0.924530  0.962265
346.0    20.0  0.934904  0.012620  0.924530  0.962265
347.0    20.0  0.934904  0.012620  0.924530  0.962265
348.0    20.0  0.934904  0.012620  0.924530  0.962265
349.0    20.0  0.934904  0.012620  0.924530  0.962265
350.0    20.0  0.934904  0.012620  0.924530  0.962265
351.0    20.0  0.934904  0.012620  0.924530  0.962265
352.0    20.0  0.934904  0.012620  0.924530  0.962265
353.0    20.0  0.934904  0.012620  0.924530  0.962265
354.0    20.0  0.934904  0.012620  0.924530  0.962265
355.0    20.0  0.934904  0.012620  0.924530  0.962265
356.0    20.0  0.934904  0.012620  0.924530  0.962265
357.0    20.0  0.934904  0.012620  0.924530  0.962265
358.0    20.0  0.935847  0.012513  0.924530  0.962265
359.0    20.0  0.935847  0.012513  0.924530  0.962265
360.0    20.0  0.935847  0.012513  0.924530  0.962265
361.0    20.0  0.935847  0.012513  0.924530  0.962265
362.0    20.0  0.935847  0.012513  0.924530  0.962265
363.0    20.0  0.935847  0.012513  0.924530  0.962265
364.0    20.0  0.935847  0.012513  0.924530  0.962265
365.0    20.0  0.935847  0.012513  0.924530  0.962265
366.0    20.0  0.935847  0.012513  0.924530  0.962265
367.0    20.0  0.935847  0.012513  0.924530  0.962265
368.0    20.0  0.935847  0.012513  0.924530  0.962265
369.0    20.0  0.935847  0.012513  0.924530  0.962265
370.0    20.0  0.935847  0.012513  0.924530  0.962265
371.0    20.0  0.935847  0.012513  0.924530  0.962265
372.0    20.0  0.936790  0.012334  0.924530  0.962265
373.0    20.0  0.936790  0.012334  0.924530  0.962265
374.0    20.0  0.936790  0.012334  0.924530  0.962265
375.0    20.0  0.936790  0.012334  0.924530  0.962265
376.0    20.0  0.938677  0.013172  0.924530  0.962265
377.0    20.0  0.938677  0.013172  0.924530  0.962265
378.0    20.0  0.938677  0.013172  0.924530  0.962265
379.0    20.0  0.938677  0.013172  0.924530  0.962265
380.0    20.0  0.938677  0.013172  0.924530  0.962265
381.0    20.0  0.938677  0.013172  0.924530  0.962265
382.0    20.0  0.938677  0.013172  0.924530  0.962265
383.0    20.0  0.938677  0.013172  0.924530  0.962265
384.0    20.0  0.938677  0.013172  0.924530  0.962265
385.0    20.0  0.938677  0.013172  0.924530  0.962265
386.0    20.0  0.938677  0.013172  0.924530  0.962265
387.0    20.0  0.939620  0.012795  0.924530  0.962265
388.0    20.0  0.939620  0.012795  0.924530  0.962265
389.0    20.0  0.939620  0.012795  0.924530  0.962265
390.0    20.0  0.939620  0.012795  0.924530  0.962265
391.0    20.0  0.939620  0.012795  0.924530  0.962265
392.0    20.0  0.939620  0.012795  0.924530  0.962265
393.0    20.0  0.939620  0.012795  0.924530  0.962265
394.0    20.0  0.939620  0.012795  0.924530  0.962265
395.0    20.0  0.939620  0.012795  0.924530  0.962265
396.0    20.0  0.939620  0.012795  0.924530  0.962265
397.0    20.0  0.939620  0.012795  0.924530  0.962265
398.0    20.0  0.939620  0.012795  0.924530  0.962265
399.0    20.0  0.939620  0.012795  0.924530  0.962265
400.0    20.0  0.939620  0.012795  0.924530  0.962265
401.0    20.0  0.940563  0.012335  0.924530  0.962265
402.0    20.0  0.940563  0.012335  0.924530  0.962265
403.0    20.0  0.940563  0.012335  0.924530  0.962265
404.0    20.0  0.940563  0.012335  0.924530  0.962265
405.0    20.0  0.940563  0.012335  0.924530  0.962265
406.0    20.0  0.942450  0.012621  0.924530  0.962265
407.0    20.0  0.942450  0.012621  0.924530  0.962265
408.0    20.0  0.942450  0.012621  0.924530  0.962265
409.0    20.0  0.942450  0.012621  0.924530  0.962265
410.0    20.0  0.942450  0.012621  0.924530  0.962265
411.0    20.0  0.942450  0.012621  0.924530  0.962265
412.0    20.0  0.942450  0.012621  0.924530  0.962265
413.0    20.0  0.942450  0.012621  0.924530  0.962265
414.0    20.0  0.942450  0.012621  0.924530  0.962265
415.0    20.0  0.942450  0.012621  0.924530  0.962265
416.0    20.0  0.942450  0.012621  0.924530  0.962265
417.0    20.0  0.942450  0.012621  0.924530  0.962265
418.0    20.0  0.942450  0.012621  0.924530  0.962265
419.0    20.0  0.942450  0.012621  0.924530  0.962265
420.0    20.0  0.942450  0.012621  0.924530  0.962265
421.0    20.0  0.942450  0.012621  0.924530  0.962265
422.0    20.0  0.942450  0.012621  0.924530  0.962265
423.0    20.0  0.942450  0.012621  0.924530  0.962265
424.0    20.0  0.942450  0.012621  0.924530  0.962265
425.0    20.0  0.944336  0.011123  0.924530  0.962265
426.0    20.0  0.944336  0.011123  0.924530  0.962265
427.0    20.0  0.944336  0.011123  0.924530  0.962265
428.0    20.0  0.944336  0.011123  0.924530  0.962265
429.0    20.0  0.944336  0.011123  0.924530  0.962265
430.0    20.0  0.944336  0.011123  0.924530  0.962265
431.0    20.0  0.945279  0.010161  0.924530  0.962265
432.0    20.0  0.945279  0.010161  0.924530  0.962265
433.0    20.0  0.945279  0.010161  0.924530  0.962265
434.0    20.0  0.945279  0.010161  0.924530  0.962265
435.0    20.0  0.945279  0.010161  0.924530  0.962265
436.0    20.0  0.945279  0.010161  0.924530  0.962265
437.0    20.0  0.945279  0.010161  0.924530  0.962265
438.0    20.0  0.945279  0.010161  0.924530  0.962265
439.0    20.0  0.945279  0.010161  0.924530  0.962265
440.0    20.0  0.945279  0.010161  0.924530  0.962265
441.0    20.0  0.945279  0.010161  0.924530  0.962265
442.0    20.0  0.945279  0.010161  0.924530  0.962265
443.0    20.0  0.945279  0.010161  0.924530  0.962265
444.0    20.0  0.945279  0.010161  0.924530  0.962265
445.0    20.0  0.945279  0.010161  0.924530  0.962265
446.0    20.0  0.945279  0.010161  0.924530  0.962265
447.0    20.0  0.946222  0.009001  0.924530  0.962265
448.0    20.0  0.946222  0.009001  0.924530  0.962265
449.0    20.0  0.946222  0.009001  0.924530  0.962265
450.0    20.0  0.946222  0.009001  0.924530  0.962265
451.0    20.0  0.946222  0.009001  0.924530  0.962265
452.0    20.0  0.946222  0.009001  0.924530  0.962265
453.0    20.0  0.946222  0.009001  0.924530  0.962265
454.0    20.0  0.948109  0.008173  0.943390  0.962265
455.0    20.0  0.948109  0.008173  0.943390  0.962265
456.0    20.0  0.948109  0.008173  0.943390  0.962265
457.0    20.0  0.948109  0.008173  0.943390  0.962265
458.0    20.0  0.948109  0.008173  0.943390  0.962265
459.0    20.0  0.948109  0.008173  0.943390  0.962265
460.0    20.0  0.948109  0.008173  0.943390  0.962265
461.0    20.0  0.948109  0.008173  0.943390  0.962265
462.0    20.0  0.948109  0.008173  0.943390  0.962265
463.0    20.0  0.948109  0.008173  0.943390  0.962265
464.0    20.0  0.948109  0.008173  0.943390  0.962265
465.0    20.0  0.948109  0.008173  0.943390  0.962265
466.0    20.0  0.948109  0.008173  0.943390  0.962265
467.0    20.0  0.948109  0.008173  0.943390  0.962265
468.0    20.0  0.948109  0.008173  0.943390  0.962265
469.0    20.0  0.948109  0.008173  0.943390  0.962265
470.0    20.0  0.948109  0.008173  0.943390  0.962265
471.0    20.0  0.948109  0.008173  0.943390  0.962265
472.0    20.0  0.948109  0.008173  0.943390  0.962265
473.0    20.0  0.948109  0.008173  0.943390  0.962265
474.0    20.0  0.948109  0.008173  0.943390  0.962265
475.0    20.0  0.948109  0.008173  0.943390  0.962265
476.0    20.0  0.948109  0.008173  0.943390  0.962265
477.0    20.0  0.949052  0.008650  0.943390  0.962265
478.0    20.0  0.949052  0.008650  0.943390  0.962265
479.0    20.0  0.949052  0.008650  0.943390  0.962265
480.0    20.0  0.949052  0.008650  0.943390  0.962265
481.0    20.0  0.949052  0.008650  0.943390  0.962265
482.0    20.0  0.949052  0.008650  0.943390  0.962265
483.0    20.0  0.949052  0.008650  0.943390  0.962265
484.0    20.0  0.949052  0.008650  0.943390  0.962265
485.0    20.0  0.949052  0.008650  0.943390  0.962265
486.0    20.0  0.949052  0.008650  0.943390  0.962265
487.0    20.0  0.949052  0.008650  0.943390  0.962265
488.0    20.0  0.949052  0.008650  0.943390  0.962265
489.0    20.0  0.949052  0.008650  0.943390  0.962265
490.0    20.0  0.949052  0.008650  0.943390  0.962265
491.0    20.0  0.949052  0.008650  0.943390  0.962265
492.0    20.0  0.949052  0.008650  0.943390  0.962265
493.0    20.0  0.949052  0.008650  0.943390  0.962265
494.0    20.0  0.949052  0.008650  0.943390  0.962265
495.0    20.0  0.949052  0.008650  0.943390  0.962265
496.0    20.0  0.949996  0.009003  0.943390  0.962265
497.0    20.0  0.949996  0.009003  0.943390  0.962265
498.0    20.0  0.949996  0.009003  0.943390  0.962265
499.0    20.0  0.949996  0.009003  0.943390  0.962265
