gen  nevals       avg       std       min       max
  0.0    20.0  0.589880  0.012575  0.560715  0.614685
  1.0    20.0  0.598425  0.007035  0.589203  0.614685
  2.0    20.0  0.605097  0.006875  0.598206  0.622192
  3.0    20.0  0.609518  0.006336  0.601196  0.622192
  4.0    20.0  0.616567  0.007047  0.608688  0.635681
  5.0    20.0  0.618665  0.005948  0.611694  0.635681
  6.0    20.0  0.619715  0.005557  0.613190  0.635681
  7.0    20.0  0.624364  0.006004  0.616196  0.643173
  8.0    20.0  0.627062  0.005764  0.622192  0.643173
  9.0    20.0  0.627962  0.005263  0.622192  0.643173
 10.0    20.0  0.629161  0.004578  0.625183  0.643173
 11.0    20.0  0.629912  0.004427  0.625183  0.643173
 12.0    20.0  0.631561  0.004640  0.626694  0.643173
 13.0    20.0  0.632759  0.003979  0.628189  0.643173
 14.0    20.0  0.633883  0.004176  0.629684  0.643173
 15.0    20.0  0.634933  0.004915  0.629684  0.647675
 16.0    20.0  0.634933  0.004915  0.629684  0.647675
 17.0    20.0  0.635833  0.004418  0.629684  0.647675
 18.0    20.0  0.637033  0.003933  0.632690  0.647675
 19.0    20.0  0.637782  0.003744  0.632690  0.647675
 20.0    20.0  0.638531  0.003877  0.634186  0.647675
 21.0    20.0  0.638531  0.003877  0.634186  0.647675
 22.0    20.0  0.638981  0.003535  0.634186  0.647675
 23.0    20.0  0.639655  0.003396  0.635681  0.647675
 24.0    20.0  0.639655  0.003396  0.635681  0.647675
 25.0    20.0  0.641080  0.004035  0.637177  0.652176
 26.0    20.0  0.642355  0.004775  0.637177  0.655167
 27.0    20.0  0.644154  0.005848  0.638687  0.661163
 28.0    20.0  0.644529  0.005645  0.638687  0.661163
 29.0    20.0  0.645428  0.005267  0.640182  0.661163
 30.0    20.0  0.646702  0.005090  0.640182  0.661163
 31.0    20.0  0.647002  0.004868  0.641678  0.661163
 32.0    20.0  0.647076  0.004797  0.641678  0.661163
 33.0    20.0  0.647826  0.004738  0.643173  0.661163
 34.0    20.0  0.648277  0.004480  0.643173  0.661163
 35.0    20.0  0.648952  0.004501  0.644684  0.661163
 36.0    20.0  0.650225  0.004741  0.644684  0.661163
 37.0    20.0  0.650524  0.004493  0.646179  0.661163
 38.0    20.0  0.650824  0.004392  0.646179  0.661163
 39.0    20.0  0.651199  0.004193  0.646179  0.661163
 40.0    20.0  0.651723  0.004024  0.646179  0.661163
 41.0    20.0  0.651797  0.003934  0.646179  0.661163
 42.0    20.0  0.651797  0.003934  0.646179  0.661163
 43.0    20.0  0.652023  0.003729  0.647675  0.661163
 44.0    20.0  0.652248  0.003530  0.647675  0.661163
 45.0    20.0  0.653448  0.004748  0.647675  0.668671
 46.0    20.0  0.653822  0.004569  0.649170  0.668671
 47.0    20.0  0.654273  0.004406  0.649170  0.668671
 48.0    20.0  0.654723  0.004321  0.650681  0.668671
 49.0    20.0  0.655172  0.004050  0.650681  0.668671
 50.0    20.0  0.655472  0.003927  0.650681  0.668671
 51.0    20.0  0.655621  0.003796  0.652176  0.668671
 52.0    20.0  0.655621  0.003796  0.652176  0.668671
 53.0    20.0  0.656521  0.004857  0.652176  0.670166
 54.0    20.0  0.656521  0.004857  0.652176  0.670166
 55.0    20.0  0.656596  0.004800  0.652176  0.670166
 56.0    20.0  0.656670  0.004742  0.652176  0.670166
 57.0    20.0  0.657420  0.004778  0.653671  0.670166
 58.0    20.0  0.657794  0.004763  0.653671  0.670166
 59.0    20.0  0.657794  0.004763  0.653671  0.670166
 60.0    20.0  0.657794  0.004763  0.653671  0.670166
 61.0    20.0  0.657794  0.004763  0.653671  0.670166
 62.0    20.0  0.658619  0.004976  0.653671  0.670166
 63.0    20.0  0.658994  0.004870  0.653671  0.670166
 64.0    20.0  0.658994  0.004870  0.653671  0.670166
 65.0    20.0  0.658994  0.004870  0.653671  0.670166
 66.0    20.0  0.659368  0.004733  0.655167  0.670166
 67.0    20.0  0.659368  0.004733  0.655167  0.670166
 68.0    20.0  0.659368  0.004733  0.655167  0.670166
 69.0    20.0  0.659368  0.004733  0.655167  0.670166
 70.0    20.0  0.659368  0.004733  0.655167  0.670166
 71.0    20.0  0.659368  0.004733  0.655167  0.670166
 72.0    20.0  0.659368  0.004733  0.655167  0.670166
 73.0    20.0  0.659368  0.004733  0.655167  0.670166
 74.0    20.0  0.659444  0.004677  0.655167  0.670166
 75.0    20.0  0.660044  0.004569  0.655167  0.670166
 76.0    20.0  0.660644  0.004676  0.655167  0.670166
 77.0    20.0  0.660644  0.004676  0.655167  0.670166
 78.0    20.0  0.660644  0.004676  0.655167  0.670166
 79.0    20.0  0.660644  0.004676  0.655167  0.670166
 80.0    20.0  0.660644  0.004676  0.655167  0.670166
 81.0    20.0  0.660944  0.004504  0.655167  0.670166
 82.0    20.0  0.660944  0.004504  0.655167  0.670166
 83.0    20.0  0.660944  0.004504  0.655167  0.670166
 84.0    20.0  0.661019  0.004418  0.655167  0.670166
 85.0    20.0  0.661095  0.004329  0.656677  0.670166
 86.0    20.0  0.661095  0.004329  0.656677  0.670166
 87.0    20.0  0.661095  0.004329  0.656677  0.670166
 88.0    20.0  0.661244  0.004225  0.656677  0.670166
 89.0    20.0  0.661394  0.004112  0.656677  0.670166
 90.0    20.0  0.661918  0.004145  0.656677  0.670166
 91.0    20.0  0.661993  0.004063  0.656677  0.670166
 92.0    20.0  0.662067  0.003977  0.656677  0.670166
 93.0    20.0  0.662142  0.003888  0.658173  0.670166
 94.0    20.0  0.662742  0.004146  0.658173  0.670166
 95.0    20.0  0.662742  0.004146  0.658173  0.670166
 96.0    20.0  0.663042  0.004020  0.658173  0.670166
 97.0    20.0  0.663116  0.003941  0.658173  0.670166
 98.0    20.0  0.663116  0.003941  0.658173  0.670166
 99.0    20.0  0.663342  0.003778  0.658173  0.670166
100.0    20.0  0.663342  0.003778  0.658173  0.670166
101.0    20.0  0.663342  0.003778  0.658173  0.670166
102.0    20.0  0.663791  0.003513  0.659668  0.670166
103.0    20.0  0.664016  0.003384  0.659668  0.670166
104.0    20.0  0.664016  0.003384  0.659668  0.670166
105.0    20.0  0.664016  0.003384  0.659668  0.670166
106.0    20.0  0.664166  0.003251  0.659668  0.670166
107.0    20.0  0.664166  0.003251  0.659668  0.670166
108.0    20.0  0.664166  0.003251  0.659668  0.670166
109.0    20.0  0.664166  0.003251  0.659668  0.670166
110.0    20.0  0.664317  0.003106  0.659668  0.670166
111.0    20.0  0.664692  0.002816  0.661163  0.670166
112.0    20.0  0.664692  0.002816  0.661163  0.670166
113.0    20.0  0.664767  0.002740  0.661163  0.670166
114.0    20.0  0.664767  0.002740  0.661163  0.670166
115.0    20.0  0.664767  0.002740  0.661163  0.670166
116.0    20.0  0.664767  0.002740  0.661163  0.670166
117.0    20.0  0.664843  0.002659  0.661163  0.670166
118.0    20.0  0.664843  0.002659  0.661163  0.670166
119.0    20.0  0.664843  0.002659  0.661163  0.670166
120.0    20.0  0.664993  0.002529  0.661163  0.670166
121.0    20.0  0.664993  0.002529  0.661163  0.670166
122.0    20.0  0.665144  0.002382  0.662674  0.670166
123.0    20.0  0.665144  0.002382  0.662674  0.670166
124.0    20.0  0.665144  0.002382  0.662674  0.670166
125.0    20.0  0.665518  0.002547  0.662674  0.670166
126.0    20.0  0.665518  0.002547  0.662674  0.670166
127.0    20.0  0.665518  0.002547  0.662674  0.670166
128.0    20.0  0.665518  0.002547  0.662674  0.670166
129.0    20.0  0.665518  0.002547  0.662674  0.670166
130.0    20.0  0.665518  0.002547  0.662674  0.670166
131.0    20.0  0.665518  0.002547  0.662674  0.670166
132.0    20.0  0.665518  0.002547  0.662674  0.670166
133.0    20.0  0.665518  0.002547  0.662674  0.670166
134.0    20.0  0.665518  0.002547  0.662674  0.670166
135.0    20.0  0.665518  0.002547  0.662674  0.670166
136.0    20.0  0.665518  0.002547  0.662674  0.670166
137.0    20.0  0.665668  0.002462  0.662674  0.670166
138.0    20.0  0.665668  0.002462  0.662674  0.670166
139.0    20.0  0.665668  0.002462  0.662674  0.670166
140.0    20.0  0.665668  0.002462  0.662674  0.670166
141.0    20.0  0.665668  0.002462  0.662674  0.670166
142.0    20.0  0.665668  0.002462  0.662674  0.670166
143.0    20.0  0.665668  0.002462  0.662674  0.670166
144.0    20.0  0.665892  0.002382  0.662674  0.670166
145.0    20.0  0.665892  0.002382  0.662674  0.670166
146.0    20.0  0.665892  0.002382  0.662674  0.670166
147.0    20.0  0.665892  0.002382  0.662674  0.670166
148.0    20.0  0.666341  0.002345  0.664169  0.670166
149.0    20.0  0.666491  0.002297  0.664169  0.670166
150.0    20.0  0.666491  0.002297  0.664169  0.670166
151.0    20.0  0.666491  0.002297  0.664169  0.670166
152.0    20.0  0.666491  0.002297  0.664169  0.670166
153.0    20.0  0.666566  0.002244  0.664169  0.670166
154.0    20.0  0.666566  0.002244  0.664169  0.670166
155.0    20.0  0.666715  0.002178  0.664169  0.670166
156.0    20.0  0.666715  0.002178  0.664169  0.670166
157.0    20.0  0.666715  0.002178  0.664169  0.670166
158.0    20.0  0.666715  0.002178  0.664169  0.670166
159.0    20.0  0.666715  0.002178  0.664169  0.670166
160.0    20.0  0.666940  0.002135  0.664169  0.670166
161.0    20.0  0.666940  0.002135  0.664169  0.670166
162.0    20.0  0.667015  0.002062  0.664169  0.670166
163.0    20.0  0.667165  0.001956  0.664169  0.670166
164.0    20.0  0.667165  0.001956  0.664169  0.670166
165.0    20.0  0.667314  0.001831  0.664169  0.670166
166.0    20.0  0.667314  0.001831  0.664169  0.670166
167.0    20.0  0.667314  0.001831  0.664169  0.670166
168.0    20.0  0.667314  0.001831  0.664169  0.670166
169.0    20.0  0.667389  0.001729  0.664169  0.670166
170.0    20.0  0.667389  0.001729  0.664169  0.670166
171.0    20.0  0.667389  0.001729  0.664169  0.670166
172.0    20.0  0.667389  0.001729  0.664169  0.670166
173.0    20.0  0.667389  0.001729  0.664169  0.670166
174.0    20.0  0.667389  0.001729  0.664169  0.670166
175.0    20.0  0.668063  0.002700  0.665665  0.677658
176.0    20.0  0.668063  0.002700  0.665665  0.677658
177.0    20.0  0.668063  0.002700  0.665665  0.677658
178.0    20.0  0.668063  0.002700  0.665665  0.677658
179.0    20.0  0.668363  0.002749  0.665665  0.677658
180.0    20.0  0.668363  0.002749  0.665665  0.677658
181.0    20.0  0.668363  0.002749  0.665665  0.677658
182.0    20.0  0.668363  0.002749  0.665665  0.677658
183.0    20.0  0.668438  0.002695  0.665665  0.677658
184.0    20.0  0.668438  0.002695  0.665665  0.677658
185.0    20.0  0.668438  0.002695  0.665665  0.677658
186.0    20.0  0.668438  0.002695  0.665665  0.677658
187.0    20.0  0.668438  0.002695  0.665665  0.677658
188.0    20.0  0.668663  0.002641  0.665665  0.677658
189.0    20.0  0.668663  0.002641  0.665665  0.677658
190.0    20.0  0.668738  0.002576  0.665665  0.677658
191.0    20.0  0.668963  0.002492  0.667160  0.677658
192.0    20.0  0.668963  0.002492  0.667160  0.677658
193.0    20.0  0.668963  0.002492  0.667160  0.677658
194.0    20.0  0.668963  0.002492  0.667160  0.677658
195.0    20.0  0.668963  0.002492  0.667160  0.677658
196.0    20.0  0.668963  0.002492  0.667160  0.677658
197.0    20.0  0.669113  0.002470  0.667160  0.677658
198.0    20.0  0.669113  0.002470  0.667160  0.677658
199.0    20.0  0.669113  0.002470  0.667160  0.677658
200.0    20.0  0.669113  0.002470  0.667160  0.677658
201.0    20.0  0.669113  0.002470  0.667160  0.677658
202.0    20.0  0.669113  0.002470  0.667160  0.677658
203.0    20.0  0.669113  0.002470  0.667160  0.677658
204.0    20.0  0.669189  0.002432  0.667160  0.677658
205.0    20.0  0.669189  0.002432  0.667160  0.677658
206.0    20.0  0.669489  0.002531  0.667160  0.677658
207.0    20.0  0.669489  0.002531  0.667160  0.677658
208.0    20.0  0.669564  0.002482  0.667160  0.677658
209.0    20.0  0.669564  0.002482  0.667160  0.677658
210.0    20.0  0.669564  0.002482  0.667160  0.677658
211.0    20.0  0.669564  0.002482  0.667160  0.677658
212.0    20.0  0.669640  0.002430  0.667160  0.677658
213.0    20.0  0.669640  0.002430  0.667160  0.677658
214.0    20.0  0.669640  0.002430  0.667160  0.677658
215.0    20.0  0.669715  0.002375  0.667160  0.677658
216.0    20.0  0.669715  0.002375  0.667160  0.677658
217.0    20.0  0.669791  0.002316  0.667160  0.677658
218.0    20.0  0.669791  0.002316  0.667160  0.677658
219.0    20.0  0.670090  0.002344  0.667160  0.677658
220.0    20.0  0.670090  0.002344  0.667160  0.677658
221.0    20.0  0.670090  0.002344  0.667160  0.677658
222.0    20.0  0.670090  0.002344  0.667160  0.677658
223.0    20.0  0.670241  0.002245  0.667160  0.677658
224.0    20.0  0.670241  0.002245  0.667160  0.677658
225.0    20.0  0.670241  0.002245  0.667160  0.677658
226.0    20.0  0.670316  0.002164  0.668671  0.677658
227.0    20.0  0.670316  0.002164  0.668671  0.677658
228.0    20.0  0.670316  0.002164  0.668671  0.677658
229.0    20.0  0.670316  0.002164  0.668671  0.677658
230.0    20.0  0.670316  0.002164  0.668671  0.677658
231.0    20.0  0.670316  0.002164  0.668671  0.677658
232.0    20.0  0.670316  0.002164  0.668671  0.677658
233.0    20.0  0.670316  0.002164  0.668671  0.677658
234.0    20.0  0.670316  0.002164  0.668671  0.677658
235.0    20.0  0.670316  0.002164  0.668671  0.677658
236.0    20.0  0.670316  0.002164  0.668671  0.677658
237.0    20.0  0.670316  0.002164  0.668671  0.677658
238.0    20.0  0.670316  0.002164  0.668671  0.677658
239.0    20.0  0.670316  0.002164  0.668671  0.677658
240.0    20.0  0.670316  0.002164  0.668671  0.677658
241.0    20.0  0.670316  0.002164  0.668671  0.677658
242.0    20.0  0.670316  0.002164  0.668671  0.677658
243.0    20.0  0.670316  0.002164  0.668671  0.677658
244.0    20.0  0.670316  0.002164  0.668671  0.677658
245.0    20.0  0.670316  0.002164  0.668671  0.677658
246.0    20.0  0.670316  0.002164  0.668671  0.677658
247.0    20.0  0.670316  0.002164  0.668671  0.677658
248.0    20.0  0.670316  0.002164  0.668671  0.677658
249.0    20.0  0.670316  0.002164  0.668671  0.677658
250.0    20.0  0.670316  0.002164  0.668671  0.677658
251.0    20.0  0.670316  0.002164  0.668671  0.677658
252.0    20.0  0.670316  0.002164  0.668671  0.677658
253.0    20.0  0.670316  0.002164  0.668671  0.677658
254.0    20.0  0.670541  0.002214  0.668671  0.677658
255.0    20.0  0.670541  0.002214  0.668671  0.677658
256.0    20.0  0.670541  0.002214  0.668671  0.677658
257.0    20.0  0.670541  0.002214  0.668671  0.677658
258.0    20.0  0.670541  0.002214  0.668671  0.677658
259.0    20.0  0.670541  0.002214  0.668671  0.677658
260.0    20.0  0.670690  0.002184  0.668671  0.677658
261.0    20.0  0.670690  0.002184  0.668671  0.677658
262.0    20.0  0.670690  0.002184  0.668671  0.677658
263.0    20.0  0.670690  0.002184  0.668671  0.677658
264.0    20.0  0.670690  0.002184  0.668671  0.677658
265.0    20.0  0.670690  0.002184  0.668671  0.677658
266.0    20.0  0.670690  0.002184  0.668671  0.677658
267.0    20.0  0.670690  0.002184  0.668671  0.677658
268.0    20.0  0.670690  0.002184  0.668671  0.677658
269.0    20.0  0.670690  0.002184  0.668671  0.677658
270.0    20.0  0.670690  0.002184  0.668671  0.677658
271.0    20.0  0.670690  0.002184  0.668671  0.677658
272.0    20.0  0.670690  0.002184  0.668671  0.677658
273.0    20.0  0.670690  0.002184  0.668671  0.677658
274.0    20.0  0.670690  0.002184  0.668671  0.677658
275.0    20.0  0.670690  0.002184  0.668671  0.677658
276.0    20.0  0.670690  0.002184  0.668671  0.677658
277.0    20.0  0.670690  0.002184  0.668671  0.677658
278.0    20.0  0.670690  0.002184  0.668671  0.677658
279.0    20.0  0.670990  0.002295  0.668671  0.677658
280.0    20.0  0.671065  0.002242  0.668671  0.677658
281.0    20.0  0.671065  0.002242  0.668671  0.677658
282.0    20.0  0.671065  0.002242  0.668671  0.677658
283.0    20.0  0.671065  0.002242  0.668671  0.677658
284.0    20.0  0.671065  0.002242  0.668671  0.677658
285.0    20.0  0.671065  0.002242  0.668671  0.677658
286.0    20.0  0.671065  0.002242  0.668671  0.677658
287.0    20.0  0.671065  0.002242  0.668671  0.677658
288.0    20.0  0.671214  0.002176  0.668671  0.677658
289.0    20.0  0.671214  0.002176  0.668671  0.677658
290.0    20.0  0.671214  0.002176  0.668671  0.677658
291.0    20.0  0.671214  0.002176  0.668671  0.677658
292.0    20.0  0.671214  0.002176  0.668671  0.677658
293.0    20.0  0.671214  0.002176  0.668671  0.677658
294.0    20.0  0.671738  0.002699  0.668671  0.679153
295.0    20.0  0.671738  0.002699  0.668671  0.679153
296.0    20.0  0.671738  0.002699  0.668671  0.679153
297.0    20.0  0.671738  0.002699  0.668671  0.679153
298.0    20.0  0.671888  0.002607  0.668671  0.679153
299.0    20.0  0.671888  0.002607  0.668671  0.679153
300.0    20.0  0.672637  0.002692  0.670166  0.679153
301.0    20.0  0.672637  0.002692  0.670166  0.679153
302.0    20.0  0.672637  0.002692  0.670166  0.679153
303.0    20.0  0.672637  0.002692  0.670166  0.679153
304.0    20.0  0.672637  0.002692  0.670166  0.679153
305.0    20.0  0.672637  0.002692  0.670166  0.679153
306.0    20.0  0.672637  0.002692  0.670166  0.679153
307.0    20.0  0.672637  0.002692  0.670166  0.679153
308.0    20.0  0.672637  0.002692  0.670166  0.679153
309.0    20.0  0.672637  0.002692  0.670166  0.679153
310.0    20.0  0.672637  0.002692  0.670166  0.679153
311.0    20.0  0.672712  0.002643  0.670166  0.679153
312.0    20.0  0.672712  0.002643  0.670166  0.679153
313.0    20.0  0.672787  0.002590  0.670166  0.679153
314.0    20.0  0.672787  0.002590  0.670166  0.679153
315.0    20.0  0.672787  0.002590  0.670166  0.679153
316.0    20.0  0.672787  0.002590  0.670166  0.679153
317.0    20.0  0.672787  0.002590  0.670166  0.679153
318.0    20.0  0.672787  0.002590  0.670166  0.679153
319.0    20.0  0.672787  0.002590  0.670166  0.679153
320.0    20.0  0.672787  0.002590  0.670166  0.679153
321.0    20.0  0.672787  0.002590  0.670166  0.679153
322.0    20.0  0.672787  0.002590  0.670166  0.679153
323.0    20.0  0.672787  0.002590  0.670166  0.679153
324.0    20.0  0.672787  0.002590  0.670166  0.679153
325.0    20.0  0.672787  0.002590  0.670166  0.679153
326.0    20.0  0.672787  0.002590  0.670166  0.679153
327.0    20.0  0.672787  0.002590  0.670166  0.679153
328.0    20.0  0.672787  0.002590  0.670166  0.679153
329.0    20.0  0.672787  0.002590  0.670166  0.679153
330.0    20.0  0.673161  0.002463  0.670166  0.679153
331.0    20.0  0.673161  0.002463  0.670166  0.679153
332.0    20.0  0.673161  0.002463  0.670166  0.679153
333.0    20.0  0.673236  0.002393  0.670166  0.679153
334.0    20.0  0.673236  0.002393  0.670166  0.679153
335.0    20.0  0.673236  0.002393  0.670166  0.679153
336.0    20.0  0.673236  0.002393  0.670166  0.679153
337.0    20.0  0.673236  0.002393  0.670166  0.679153
338.0    20.0  0.673236  0.002393  0.670166  0.679153
339.0    20.0  0.673236  0.002393  0.670166  0.679153
340.0    20.0  0.673236  0.002393  0.670166  0.679153
341.0    20.0  0.673236  0.002393  0.670166  0.679153
342.0    20.0  0.673761  0.002782  0.670166  0.680664
343.0    20.0  0.673761  0.002782  0.670166  0.680664
344.0    20.0  0.673761  0.002782  0.670166  0.680664
345.0    20.0  0.673761  0.002782  0.670166  0.680664
346.0    20.0  0.673761  0.002782  0.670166  0.680664
347.0    20.0  0.673761  0.002782  0.670166  0.680664
348.0    20.0  0.673761  0.002782  0.670166  0.680664
349.0    20.0  0.673761  0.002782  0.670166  0.680664
350.0    20.0  0.673761  0.002782  0.670166  0.680664
351.0    20.0  0.673761  0.002782  0.670166  0.680664
352.0    20.0  0.673761  0.002782  0.670166  0.680664
353.0    20.0  0.673761  0.002782  0.670166  0.680664
354.0    20.0  0.673761  0.002782  0.670166  0.680664
355.0    20.0  0.673761  0.002782  0.670166  0.680664
356.0    20.0  0.674136  0.002777  0.671661  0.680664
357.0    20.0  0.674136  0.002777  0.671661  0.680664
358.0    20.0  0.674136  0.002777  0.671661  0.680664
359.0    20.0  0.674136  0.002777  0.671661  0.680664
360.0    20.0  0.674136  0.002777  0.671661  0.680664
361.0    20.0  0.674136  0.002777  0.671661  0.680664
362.0    20.0  0.674136  0.002777  0.671661  0.680664
363.0    20.0  0.674136  0.002777  0.671661  0.680664
364.0    20.0  0.674136  0.002777  0.671661  0.680664
365.0    20.0  0.674136  0.002777  0.671661  0.680664
366.0    20.0  0.674136  0.002777  0.671661  0.680664
367.0    20.0  0.674136  0.002777  0.671661  0.680664
368.0    20.0  0.674136  0.002777  0.671661  0.680664
369.0    20.0  0.674136  0.002777  0.671661  0.680664
370.0    20.0  0.674136  0.002777  0.671661  0.680664
371.0    20.0  0.674136  0.002777  0.671661  0.680664
372.0    20.0  0.674136  0.002777  0.671661  0.680664
373.0    20.0  0.674136  0.002777  0.671661  0.680664
374.0    20.0  0.674136  0.002777  0.671661  0.680664
375.0    20.0  0.674136  0.002777  0.671661  0.680664
376.0    20.0  0.674136  0.002777  0.671661  0.680664
377.0    20.0  0.674136  0.002777  0.671661  0.680664
378.0    20.0  0.674886  0.003329  0.671661  0.683655
379.0    20.0  0.674886  0.003329  0.671661  0.683655
380.0    20.0  0.674886  0.003329  0.671661  0.683655
381.0    20.0  0.674886  0.003329  0.671661  0.683655
382.0    20.0  0.674886  0.003329  0.671661  0.683655
383.0    20.0  0.674960  0.003272  0.671661  0.683655
384.0    20.0  0.674960  0.003272  0.671661  0.683655
385.0    20.0  0.674960  0.003272  0.671661  0.683655
386.0    20.0  0.674960  0.003272  0.671661  0.683655
387.0    20.0  0.674960  0.003272  0.671661  0.683655
388.0    20.0  0.674960  0.003272  0.671661  0.683655
389.0    20.0  0.674960  0.003272  0.671661  0.683655
390.0    20.0  0.674960  0.003272  0.671661  0.683655
391.0    20.0  0.674960  0.003272  0.671661  0.683655
392.0    20.0  0.675111  0.003185  0.671661  0.683655
393.0    20.0  0.675111  0.003185  0.671661  0.683655
394.0    20.0  0.675111  0.003185  0.671661  0.683655
395.0    20.0  0.675111  0.003185  0.671661  0.683655
396.0    20.0  0.675111  0.003185  0.671661  0.683655
397.0    20.0  0.675111  0.003185  0.671661  0.683655
398.0    20.0  0.675111  0.003185  0.671661  0.683655
399.0    20.0  0.675111  0.003185  0.671661  0.683655
400.0    20.0  0.675111  0.003185  0.671661  0.683655
401.0    20.0  0.675185  0.003120  0.671661  0.683655
402.0    20.0  0.675185  0.003120  0.671661  0.683655
403.0    20.0  0.675185  0.003120  0.671661  0.683655
404.0    20.0  0.675336  0.003017  0.671661  0.683655
405.0    20.0  0.675336  0.003017  0.671661  0.683655
406.0    20.0  0.675336  0.003017  0.671661  0.683655
407.0    20.0  0.675336  0.003017  0.671661  0.683655
408.0    20.0  0.675486  0.002903  0.671661  0.683655
409.0    20.0  0.675486  0.002903  0.671661  0.683655
410.0    20.0  0.675486  0.002903  0.671661  0.683655
411.0    20.0  0.675486  0.002903  0.671661  0.683655
412.0    20.0  0.675486  0.002903  0.671661  0.683655
413.0    20.0  0.675561  0.002822  0.673157  0.683655
414.0    20.0  0.675561  0.002822  0.673157  0.683655
415.0    20.0  0.675561  0.002822  0.673157  0.683655
416.0    20.0  0.675561  0.002822  0.673157  0.683655
417.0    20.0  0.675561  0.002822  0.673157  0.683655
418.0    20.0  0.675561  0.002822  0.673157  0.683655
419.0    20.0  0.675561  0.002822  0.673157  0.683655
420.0    20.0  0.675561  0.002822  0.673157  0.683655
421.0    20.0  0.675561  0.002822  0.673157  0.683655
422.0    20.0  0.675561  0.002822  0.673157  0.683655
423.0    20.0  0.675561  0.002822  0.673157  0.683655
424.0    20.0  0.675561  0.002822  0.673157  0.683655
425.0    20.0  0.675561  0.002822  0.673157  0.683655
426.0    20.0  0.675561  0.002822  0.673157  0.683655
427.0    20.0  0.675561  0.002822  0.673157  0.683655
428.0    20.0  0.675561  0.002822  0.673157  0.683655
429.0    20.0  0.675561  0.002822  0.673157  0.683655
430.0    20.0  0.675561  0.002822  0.673157  0.683655
431.0    20.0  0.675561  0.002822  0.673157  0.683655
432.0    20.0  0.675561  0.002822  0.673157  0.683655
433.0    20.0  0.675561  0.002822  0.673157  0.683655
434.0    20.0  0.676311  0.003878  0.673157  0.688156
435.0    20.0  0.676311  0.003878  0.673157  0.688156
436.0    20.0  0.676311  0.003878  0.673157  0.688156
437.0    20.0  0.676311  0.003878  0.673157  0.688156
438.0    20.0  0.676311  0.003878  0.673157  0.688156
439.0    20.0  0.676311  0.003878  0.673157  0.688156
440.0    20.0  0.676311  0.003878  0.673157  0.688156
441.0    20.0  0.676311  0.003878  0.673157  0.688156
442.0    20.0  0.676311  0.003878  0.673157  0.688156
443.0    20.0  0.676311  0.003878  0.673157  0.688156
444.0    20.0  0.676311  0.003878  0.673157  0.688156
445.0    20.0  0.676311  0.003878  0.673157  0.688156
446.0    20.0  0.676311  0.003878  0.673157  0.688156
447.0    20.0  0.676311  0.003878  0.673157  0.688156
448.0    20.0  0.676311  0.003878  0.673157  0.688156
449.0    20.0  0.676311  0.003878  0.673157  0.688156
450.0    20.0  0.676311  0.003878  0.673157  0.688156
451.0    20.0  0.676311  0.003878  0.673157  0.688156
452.0    20.0  0.676611  0.003855  0.673157  0.688156
453.0    20.0  0.676611  0.003855  0.673157  0.688156
454.0    20.0  0.676611  0.003855  0.673157  0.688156
455.0    20.0  0.676611  0.003855  0.673157  0.688156
456.0    20.0  0.676611  0.003855  0.673157  0.688156
457.0    20.0  0.676611  0.003855  0.673157  0.688156
458.0    20.0  0.676611  0.003855  0.673157  0.688156
459.0    20.0  0.676611  0.003855  0.673157  0.688156
460.0    20.0  0.676611  0.003855  0.673157  0.688156
461.0    20.0  0.676611  0.003855  0.673157  0.688156
462.0    20.0  0.676611  0.003855  0.673157  0.688156
463.0    20.0  0.676611  0.003855  0.673157  0.688156
464.0    20.0  0.676611  0.003855  0.673157  0.688156
465.0    20.0  0.676611  0.003855  0.673157  0.688156
466.0    20.0  0.677061  0.003950  0.673157  0.688156
467.0    20.0  0.677061  0.003950  0.673157  0.688156
468.0    20.0  0.677061  0.003950  0.673157  0.688156
469.0    20.0  0.677061  0.003950  0.673157  0.688156
470.0    20.0  0.677061  0.003950  0.673157  0.688156
471.0    20.0  0.677061  0.003950  0.673157  0.688156
472.0    20.0  0.677061  0.003950  0.673157  0.688156
473.0    20.0  0.677061  0.003950  0.673157  0.688156
474.0    20.0  0.677061  0.003950  0.673157  0.688156
475.0    20.0  0.677061  0.003950  0.673157  0.688156
476.0    20.0  0.677061  0.003950  0.673157  0.688156
477.0    20.0  0.677061  0.003950  0.673157  0.688156
478.0    20.0  0.677061  0.003950  0.673157  0.688156
479.0    20.0  0.677061  0.003950  0.673157  0.688156
480.0    20.0  0.677061  0.003950  0.673157  0.688156
481.0    20.0  0.677061  0.003950  0.673157  0.688156
482.0    20.0  0.677061  0.003950  0.673157  0.688156
483.0    20.0  0.677061  0.003950  0.673157  0.688156
484.0    20.0  0.677436  0.003917  0.673157  0.688156
485.0    20.0  0.677436  0.003917  0.673157  0.688156
486.0    20.0  0.677436  0.003917  0.673157  0.688156
487.0    20.0  0.677661  0.003792  0.673157  0.688156
488.0    20.0  0.677661  0.003792  0.673157  0.688156
489.0    20.0  0.677661  0.003792  0.673157  0.688156
490.0    20.0  0.677661  0.003792  0.673157  0.688156
491.0    20.0  0.677661  0.003792  0.673157  0.688156
492.0    20.0  0.677661  0.003792  0.673157  0.688156
493.0    20.0  0.677661  0.003792  0.673157  0.688156
494.0    20.0  0.677661  0.003792  0.673157  0.688156
495.0    20.0  0.677661  0.003792  0.673157  0.688156
496.0    20.0  0.677661  0.003792  0.673157  0.688156
497.0    20.0  0.677661  0.003792  0.673157  0.688156
498.0    20.0  0.678561  0.004653  0.673157  0.691147
499.0    20.0  0.678561  0.004653  0.673157  0.691147
