gen  nevals       avg       std       min       max
  0.0    20.0  0.582323  0.019266  0.548279  0.620300
  1.0    20.0  0.601965  0.012267  0.587555  0.626846
  2.0    20.0  0.612606  0.010260  0.600662  0.633392
  3.0    20.0  0.617188  0.007709  0.607208  0.633392
  4.0    20.0  0.621770  0.007914  0.610474  0.643204
  5.0    20.0  0.627824  0.009933  0.617020  0.653030
  6.0    20.0  0.630441  0.008592  0.623566  0.653030
  7.0    20.0  0.634697  0.011167  0.623566  0.662842
  8.0    20.0  0.638461  0.011454  0.626846  0.662842
  9.0    20.0  0.641897  0.011310  0.630112  0.662842
 10.0    20.0  0.646808  0.009194  0.633392  0.662842
 11.0    20.0  0.649754  0.009873  0.636658  0.675934
 12.0    20.0  0.651717  0.009105  0.639938  0.675934
 13.0    20.0  0.655318  0.008540  0.643204  0.675934
 14.0    20.0  0.660226  0.008056  0.649750  0.675934
 15.0    20.0  0.661699  0.007482  0.653030  0.675934
 16.0    20.0  0.663008  0.006502  0.656296  0.675934
 17.0    20.0  0.664809  0.008306  0.656296  0.689041
 18.0    20.0  0.666610  0.008233  0.659576  0.689041
 19.0    20.0  0.668082  0.008929  0.659576  0.689041
 20.0    20.0  0.671028  0.009573  0.659576  0.689041
 21.0    20.0  0.672501  0.009172  0.662842  0.689041
 22.0    20.0  0.673976  0.008308  0.662842  0.689041
 23.0    20.0  0.675449  0.008801  0.666122  0.692307
 24.0    20.0  0.675449  0.008801  0.666122  0.692307
 25.0    20.0  0.676595  0.008385  0.666122  0.692307
 26.0    20.0  0.681178  0.007845  0.669388  0.695587
 27.0    20.0  0.681178  0.007845  0.669388  0.695587
 28.0    20.0  0.682652  0.006339  0.672668  0.695587
 29.0    20.0  0.683306  0.005938  0.675934  0.695587
 30.0    20.0  0.683306  0.005938  0.675934  0.695587
 31.0    20.0  0.684126  0.005430  0.675934  0.695587
 32.0    20.0  0.684945  0.004951  0.679214  0.695587
 33.0    20.0  0.685109  0.004811  0.679214  0.695587
 34.0    20.0  0.685273  0.004661  0.679214  0.695587
 35.0    20.0  0.685437  0.004500  0.679214  0.695587
 36.0    20.0  0.685437  0.004500  0.679214  0.695587
 37.0    20.0  0.685437  0.004500  0.679214  0.695587
 38.0    20.0  0.685437  0.004500  0.679214  0.695587
 39.0    20.0  0.685437  0.004500  0.679214  0.695587
 40.0    20.0  0.685928  0.004071  0.679214  0.695587
 41.0    20.0  0.686583  0.003713  0.682495  0.695587
 42.0    20.0  0.686583  0.003713  0.682495  0.695587
 43.0    20.0  0.686583  0.003713  0.682495  0.695587
 44.0    20.0  0.686583  0.003713  0.682495  0.695587
 45.0    20.0  0.686583  0.003713  0.682495  0.695587
 46.0    20.0  0.686583  0.003713  0.682495  0.695587
 47.0    20.0  0.687074  0.003788  0.682495  0.695587
 48.0    20.0  0.687564  0.003799  0.682495  0.695587
 49.0    20.0  0.687727  0.003644  0.682495  0.695587
 50.0    20.0  0.687891  0.003476  0.682495  0.695587
 51.0    20.0  0.688218  0.003253  0.682495  0.695587
 52.0    20.0  0.688218  0.003253  0.682495  0.695587
 53.0    20.0  0.688218  0.003253  0.682495  0.695587
 54.0    20.0  0.688381  0.003037  0.685760  0.695587
 55.0    20.0  0.689036  0.003732  0.685760  0.698853
 56.0    20.0  0.689036  0.003732  0.685760  0.698853
 57.0    20.0  0.689200  0.003656  0.685760  0.698853
 58.0    20.0  0.690182  0.004993  0.685760  0.705399
 59.0    20.0  0.690182  0.004993  0.685760  0.705399
 60.0    20.0  0.690182  0.004993  0.685760  0.705399
 61.0    20.0  0.690182  0.004993  0.685760  0.705399
 62.0    20.0  0.690182  0.004993  0.685760  0.705399
 63.0    20.0  0.690509  0.004907  0.685760  0.705399
 64.0    20.0  0.691000  0.004898  0.685760  0.705399
 65.0    20.0  0.691492  0.004841  0.685760  0.705399
 66.0    20.0  0.691492  0.004841  0.685760  0.705399
 67.0    20.0  0.691492  0.004841  0.685760  0.705399
 68.0    20.0  0.691983  0.004731  0.685760  0.705399
 69.0    20.0  0.693456  0.006730  0.685760  0.715225
 70.0    20.0  0.693620  0.006579  0.685760  0.715225
 71.0    20.0  0.693620  0.006579  0.685760  0.715225
 72.0    20.0  0.693784  0.006419  0.689041  0.715225
 73.0    20.0  0.693784  0.006419  0.689041  0.715225
 74.0    20.0  0.695257  0.008273  0.689041  0.718491
 75.0    20.0  0.695584  0.008149  0.689041  0.718491
 76.0    20.0  0.696075  0.008035  0.689041  0.718491
 77.0    20.0  0.696729  0.007764  0.689041  0.718491
 78.0    20.0  0.697546  0.007492  0.689041  0.718491
 79.0    20.0  0.697546  0.007492  0.689041  0.718491
 80.0    20.0  0.697546  0.007492  0.689041  0.718491
 81.0    20.0  0.697546  0.007492  0.689041  0.718491
 82.0    20.0  0.697546  0.007492  0.689041  0.718491
 83.0    20.0  0.697546  0.007492  0.689041  0.718491
 84.0    20.0  0.698856  0.007745  0.692307  0.718491
 85.0    20.0  0.698856  0.007745  0.692307  0.718491
 86.0    20.0  0.698856  0.007745  0.692307  0.718491
 87.0    20.0  0.698856  0.007745  0.692307  0.718491
 88.0    20.0  0.699020  0.007639  0.692307  0.718491
 89.0    20.0  0.699020  0.007639  0.692307  0.718491
 90.0    20.0  0.699347  0.007483  0.692307  0.718491
 91.0    20.0  0.700329  0.007777  0.692307  0.718491
 92.0    20.0  0.700329  0.007777  0.692307  0.718491
 93.0    20.0  0.700820  0.007562  0.692307  0.718491
 94.0    20.0  0.700820  0.007562  0.692307  0.718491
 95.0    20.0  0.702130  0.007744  0.695587  0.718491
 96.0    20.0  0.703603  0.008180  0.695587  0.718491
 97.0    20.0  0.703603  0.008180  0.695587  0.718491
 98.0    20.0  0.703603  0.008180  0.695587  0.718491
 99.0    20.0  0.704093  0.007976  0.695587  0.718491
100.0    20.0  0.704093  0.007976  0.695587  0.718491
101.0    20.0  0.704093  0.007976  0.695587  0.718491
102.0    20.0  0.704093  0.007976  0.695587  0.718491
103.0    20.0  0.704420  0.007751  0.695587  0.718491
104.0    20.0  0.704584  0.007596  0.695587  0.718491
105.0    20.0  0.704584  0.007596  0.695587  0.718491
106.0    20.0  0.705729  0.007163  0.695587  0.718491
107.0    20.0  0.705892  0.006964  0.698853  0.718491
108.0    20.0  0.705892  0.006964  0.698853  0.718491
109.0    20.0  0.705892  0.006964  0.698853  0.718491
110.0    20.0  0.706219  0.006777  0.698853  0.718491
111.0    20.0  0.706384  0.006635  0.698853  0.718491
112.0    20.0  0.706548  0.006486  0.698853  0.718491
113.0    20.0  0.707366  0.006496  0.698853  0.718491
114.0    20.0  0.707366  0.006496  0.698853  0.718491
115.0    20.0  0.707530  0.006318  0.698853  0.718491
116.0    20.0  0.707530  0.006318  0.698853  0.718491
117.0    20.0  0.707858  0.006023  0.702133  0.718491
118.0    20.0  0.707858  0.006023  0.702133  0.718491
119.0    20.0  0.707858  0.006023  0.702133  0.718491
120.0    20.0  0.707858  0.006023  0.702133  0.718491
121.0    20.0  0.707858  0.006023  0.702133  0.718491
122.0    20.0  0.707858  0.006023  0.702133  0.718491
123.0    20.0  0.707858  0.006023  0.702133  0.718491
124.0    20.0  0.707858  0.006023  0.702133  0.718491
125.0    20.0  0.707858  0.006023  0.702133  0.718491
126.0    20.0  0.707858  0.006023  0.702133  0.718491
127.0    20.0  0.707858  0.006023  0.702133  0.718491
128.0    20.0  0.707858  0.006023  0.702133  0.718491
129.0    20.0  0.707858  0.006023  0.702133  0.718491
130.0    20.0  0.707858  0.006023  0.702133  0.718491
131.0    20.0  0.707858  0.006023  0.702133  0.718491
132.0    20.0  0.708512  0.006076  0.702133  0.718491
133.0    20.0  0.708512  0.006076  0.702133  0.718491
134.0    20.0  0.708512  0.006076  0.702133  0.718491
135.0    20.0  0.708512  0.006076  0.702133  0.718491
136.0    20.0  0.708512  0.006076  0.702133  0.718491
137.0    20.0  0.709494  0.006535  0.702133  0.721771
138.0    20.0  0.709657  0.006388  0.702133  0.721771
139.0    20.0  0.710966  0.006389  0.702133  0.721771
140.0    20.0  0.710966  0.006389  0.702133  0.721771
141.0    20.0  0.710966  0.006389  0.702133  0.721771
142.0    20.0  0.710966  0.006389  0.702133  0.721771
143.0    20.0  0.711130  0.006200  0.702133  0.721771
144.0    20.0  0.711130  0.006200  0.702133  0.721771
145.0    20.0  0.711130  0.006200  0.702133  0.721771
146.0    20.0  0.711130  0.006200  0.702133  0.721771
147.0    20.0  0.711784  0.005621  0.705399  0.721771
148.0    20.0  0.711784  0.005621  0.705399  0.721771
149.0    20.0  0.711784  0.005621  0.705399  0.721771
150.0    20.0  0.711784  0.005621  0.705399  0.721771
151.0    20.0  0.713420  0.007848  0.705399  0.738129
152.0    20.0  0.713420  0.007848  0.705399  0.738129
153.0    20.0  0.713747  0.007640  0.705399  0.738129
154.0    20.0  0.714566  0.007578  0.705399  0.738129
155.0    20.0  0.715221  0.007319  0.705399  0.738129
156.0    20.0  0.715221  0.007319  0.705399  0.738129
157.0    20.0  0.715548  0.007013  0.705399  0.738129
158.0    20.0  0.715548  0.007013  0.705399  0.738129
159.0    20.0  0.715548  0.007013  0.705399  0.738129
160.0    20.0  0.715548  0.007013  0.705399  0.738129
161.0    20.0  0.715876  0.006595  0.708679  0.738129
162.0    20.0  0.715876  0.006595  0.708679  0.738129
163.0    20.0  0.715876  0.006595  0.708679  0.738129
164.0    20.0  0.715876  0.006595  0.708679  0.738129
165.0    20.0  0.715876  0.006595  0.708679  0.738129
166.0    20.0  0.716039  0.006453  0.708679  0.738129
167.0    20.0  0.716039  0.006453  0.708679  0.738129
168.0    20.0  0.716039  0.006453  0.708679  0.738129
169.0    20.0  0.716039  0.006453  0.708679  0.738129
170.0    20.0  0.716530  0.006245  0.708679  0.738129
171.0    20.0  0.716530  0.006245  0.708679  0.738129
172.0    20.0  0.716530  0.006245  0.708679  0.738129
173.0    20.0  0.716530  0.006245  0.708679  0.738129
174.0    20.0  0.716530  0.006245  0.708679  0.738129
175.0    20.0  0.716857  0.005991  0.711945  0.738129
176.0    20.0  0.716857  0.005991  0.711945  0.738129
177.0    20.0  0.716857  0.005991  0.711945  0.738129
178.0    20.0  0.717021  0.005898  0.711945  0.738129
179.0    20.0  0.717021  0.005898  0.711945  0.738129
180.0    20.0  0.717021  0.005898  0.711945  0.738129
181.0    20.0  0.717021  0.005898  0.711945  0.738129
182.0    20.0  0.717348  0.005788  0.711945  0.738129
183.0    20.0  0.717348  0.005788  0.711945  0.738129
184.0    20.0  0.717348  0.005788  0.711945  0.738129
185.0    20.0  0.717348  0.005788  0.711945  0.738129
186.0    20.0  0.717348  0.005788  0.711945  0.738129
187.0    20.0  0.717348  0.005788  0.711945  0.738129
188.0    20.0  0.717348  0.005788  0.711945  0.738129
189.0    20.0  0.717348  0.005788  0.711945  0.738129
190.0    20.0  0.717348  0.005788  0.711945  0.738129
191.0    20.0  0.717348  0.005788  0.711945  0.738129
192.0    20.0  0.717348  0.005788  0.711945  0.738129
193.0    20.0  0.717348  0.005788  0.711945  0.738129
194.0    20.0  0.717348  0.005788  0.711945  0.738129
195.0    20.0  0.717348  0.005788  0.711945  0.738129
196.0    20.0  0.717348  0.005788  0.711945  0.738129
197.0    20.0  0.717348  0.005788  0.711945  0.738129
198.0    20.0  0.717348  0.005788  0.711945  0.738129
199.0    20.0  0.717348  0.005788  0.711945  0.738129
200.0    20.0  0.717348  0.005788  0.711945  0.738129
201.0    20.0  0.717348  0.005788  0.711945  0.738129
202.0    20.0  0.717348  0.005788  0.711945  0.738129
203.0    20.0  0.717348  0.005788  0.711945  0.738129
204.0    20.0  0.717513  0.005678  0.711945  0.738129
205.0    20.0  0.717513  0.005678  0.711945  0.738129
206.0    20.0  0.717513  0.005678  0.711945  0.738129
207.0    20.0  0.717840  0.005535  0.711945  0.738129
208.0    20.0  0.717840  0.005535  0.711945  0.738129
209.0    20.0  0.717840  0.005535  0.711945  0.738129
210.0    20.0  0.717840  0.005535  0.711945  0.738129
211.0    20.0  0.717840  0.005535  0.711945  0.738129
212.0    20.0  0.717840  0.005535  0.711945  0.738129
213.0    20.0  0.717840  0.005535  0.711945  0.738129
214.0    20.0  0.717840  0.005535  0.711945  0.738129
215.0    20.0  0.718004  0.005405  0.711945  0.738129
216.0    20.0  0.718004  0.005405  0.711945  0.738129
217.0    20.0  0.718004  0.005405  0.711945  0.738129
218.0    20.0  0.718004  0.005405  0.711945  0.738129
219.0    20.0  0.718004  0.005405  0.711945  0.738129
220.0    20.0  0.718004  0.005405  0.711945  0.738129
221.0    20.0  0.718004  0.005405  0.711945  0.738129
222.0    20.0  0.718004  0.005405  0.711945  0.738129
223.0    20.0  0.718004  0.005405  0.711945  0.738129
224.0    20.0  0.718004  0.005405  0.711945  0.738129
225.0    20.0  0.718004  0.005405  0.711945  0.738129
226.0    20.0  0.718004  0.005405  0.711945  0.738129
227.0    20.0  0.718004  0.005405  0.711945  0.738129
228.0    20.0  0.718658  0.005424  0.711945  0.738129
229.0    20.0  0.718658  0.005424  0.711945  0.738129
230.0    20.0  0.718658  0.005424  0.711945  0.738129
231.0    20.0  0.718658  0.005424  0.711945  0.738129
232.0    20.0  0.718658  0.005424  0.711945  0.738129
233.0    20.0  0.718658  0.005424  0.711945  0.738129
234.0    20.0  0.718658  0.005424  0.711945  0.738129
235.0    20.0  0.718658  0.005424  0.711945  0.738129
236.0    20.0  0.718658  0.005424  0.711945  0.738129
237.0    20.0  0.718658  0.005424  0.711945  0.738129
238.0    20.0  0.718822  0.005266  0.715225  0.738129
239.0    20.0  0.718822  0.005266  0.715225  0.738129
240.0    20.0  0.718822  0.005266  0.715225  0.738129
241.0    20.0  0.718822  0.005266  0.715225  0.738129
242.0    20.0  0.718822  0.005266  0.715225  0.738129
243.0    20.0  0.718822  0.005266  0.715225  0.738129
244.0    20.0  0.718822  0.005266  0.715225  0.738129
245.0    20.0  0.718822  0.005266  0.715225  0.738129
246.0    20.0  0.719477  0.005582  0.715225  0.738129
247.0    20.0  0.719477  0.005582  0.715225  0.738129
248.0    20.0  0.719477  0.005582  0.715225  0.738129
249.0    20.0  0.719477  0.005582  0.715225  0.738129
250.0    20.0  0.719477  0.005582  0.715225  0.738129
251.0    20.0  0.719804  0.005417  0.715225  0.738129
252.0    20.0  0.720949  0.006112  0.715225  0.738129
253.0    20.0  0.720949  0.006112  0.715225  0.738129
254.0    20.0  0.721439  0.005846  0.715225  0.738129
255.0    20.0  0.721767  0.005670  0.715225  0.738129
256.0    20.0  0.721767  0.005670  0.715225  0.738129
257.0    20.0  0.722912  0.006487  0.718491  0.738129
258.0    20.0  0.722912  0.006487  0.718491  0.738129
259.0    20.0  0.722912  0.006487  0.718491  0.738129
260.0    20.0  0.722912  0.006487  0.718491  0.738129
261.0    20.0  0.722912  0.006487  0.718491  0.738129
262.0    20.0  0.722912  0.006487  0.718491  0.738129
263.0    20.0  0.722912  0.006487  0.718491  0.738129
264.0    20.0  0.722912  0.006487  0.718491  0.738129
265.0    20.0  0.722912  0.006487  0.718491  0.738129
266.0    20.0  0.722912  0.006487  0.718491  0.738129
267.0    20.0  0.722912  0.006487  0.718491  0.738129
268.0    20.0  0.722912  0.006487  0.718491  0.738129
269.0    20.0  0.722912  0.006487  0.718491  0.738129
270.0    20.0  0.723730  0.006414  0.718491  0.738129
271.0    20.0  0.723730  0.006414  0.718491  0.738129
272.0    20.0  0.723730  0.006414  0.718491  0.738129
273.0    20.0  0.723730  0.006414  0.718491  0.738129
274.0    20.0  0.723730  0.006414  0.718491  0.738129
275.0    20.0  0.723895  0.006320  0.718491  0.738129
276.0    20.0  0.723895  0.006320  0.718491  0.738129
277.0    20.0  0.725368  0.008078  0.718491  0.747955
278.0    20.0  0.725368  0.008078  0.718491  0.747955
279.0    20.0  0.725368  0.008078  0.718491  0.747955
280.0    20.0  0.726514  0.008628  0.718491  0.747955
281.0    20.0  0.726514  0.008628  0.718491  0.747955
282.0    20.0  0.726514  0.008628  0.718491  0.747955
283.0    20.0  0.726514  0.008628  0.718491  0.747955
284.0    20.0  0.726678  0.008504  0.718491  0.747955
285.0    20.0  0.726678  0.008504  0.718491  0.747955
286.0    20.0  0.726842  0.008375  0.718491  0.747955
287.0    20.0  0.727169  0.008168  0.718491  0.747955
288.0    20.0  0.727169  0.008168  0.718491  0.747955
289.0    20.0  0.727169  0.008168  0.718491  0.747955
290.0    20.0  0.727169  0.008168  0.718491  0.747955
291.0    20.0  0.727169  0.008168  0.718491  0.747955
292.0    20.0  0.727169  0.008168  0.718491  0.747955
293.0    20.0  0.727169  0.008168  0.718491  0.747955
294.0    20.0  0.727169  0.008168  0.718491  0.747955
295.0    20.0  0.727169  0.008168  0.718491  0.747955
296.0    20.0  0.727169  0.008168  0.718491  0.747955
297.0    20.0  0.727496  0.007942  0.718491  0.747955
298.0    20.0  0.727496  0.007942  0.718491  0.747955
299.0    20.0  0.727496  0.007942  0.718491  0.747955
300.0    20.0  0.727496  0.007942  0.718491  0.747955
301.0    20.0  0.727496  0.007942  0.718491  0.747955
302.0    20.0  0.727660  0.007786  0.721771  0.747955
303.0    20.0  0.727660  0.007786  0.721771  0.747955
304.0    20.0  0.727988  0.007668  0.721771  0.747955
305.0    20.0  0.727988  0.007668  0.721771  0.747955
306.0    20.0  0.727988  0.007668  0.721771  0.747955
307.0    20.0  0.727988  0.007668  0.721771  0.747955
308.0    20.0  0.727988  0.007668  0.721771  0.747955
309.0    20.0  0.727988  0.007668  0.721771  0.747955
310.0    20.0  0.727988  0.007668  0.721771  0.747955
311.0    20.0  0.727988  0.007668  0.721771  0.747955
312.0    20.0  0.728970  0.008057  0.721771  0.747955
313.0    20.0  0.728970  0.008057  0.721771  0.747955
314.0    20.0  0.729624  0.007977  0.721771  0.747955
315.0    20.0  0.729624  0.007977  0.721771  0.747955
316.0    20.0  0.729624  0.007977  0.721771  0.747955
317.0    20.0  0.729624  0.007977  0.721771  0.747955
318.0    20.0  0.729624  0.007977  0.721771  0.747955
319.0    20.0  0.729624  0.007977  0.721771  0.747955
320.0    20.0  0.729624  0.007977  0.721771  0.747955
321.0    20.0  0.729624  0.007977  0.721771  0.747955
322.0    20.0  0.729624  0.007977  0.721771  0.747955
323.0    20.0  0.729624  0.007977  0.721771  0.747955
324.0    20.0  0.729624  0.007977  0.721771  0.747955
325.0    20.0  0.729624  0.007977  0.721771  0.747955
326.0    20.0  0.729624  0.007977  0.721771  0.747955
327.0    20.0  0.729624  0.007977  0.721771  0.747955
328.0    20.0  0.729624  0.007977  0.721771  0.747955
329.0    20.0  0.729624  0.007977  0.721771  0.747955
330.0    20.0  0.729624  0.007977  0.721771  0.747955
331.0    20.0  0.729787  0.007847  0.721771  0.747955
332.0    20.0  0.729787  0.007847  0.721771  0.747955
333.0    20.0  0.729787  0.007847  0.721771  0.747955
334.0    20.0  0.730278  0.007634  0.721771  0.747955
335.0    20.0  0.730278  0.007634  0.721771  0.747955
336.0    20.0  0.730441  0.007484  0.721771  0.747955
337.0    20.0  0.730441  0.007484  0.721771  0.747955
338.0    20.0  0.730441  0.007484  0.721771  0.747955
339.0    20.0  0.731096  0.007267  0.721771  0.747955
340.0    20.0  0.731096  0.007267  0.721771  0.747955
341.0    20.0  0.731096  0.007267  0.721771  0.747955
342.0    20.0  0.731422  0.006905  0.725037  0.747955
343.0    20.0  0.731422  0.006905  0.725037  0.747955
344.0    20.0  0.731422  0.006905  0.725037  0.747955
345.0    20.0  0.731422  0.006905  0.725037  0.747955
346.0    20.0  0.731422  0.006905  0.725037  0.747955
347.0    20.0  0.731422  0.006905  0.725037  0.747955
348.0    20.0  0.731422  0.006905  0.725037  0.747955
349.0    20.0  0.731422  0.006905  0.725037  0.747955
350.0    20.0  0.731422  0.006905  0.725037  0.747955
351.0    20.0  0.731422  0.006905  0.725037  0.747955
352.0    20.0  0.731586  0.006789  0.725037  0.747955
353.0    20.0  0.731750  0.006667  0.725037  0.747955
354.0    20.0  0.731915  0.006539  0.725037  0.747955
355.0    20.0  0.731915  0.006539  0.725037  0.747955
356.0    20.0  0.731915  0.006539  0.725037  0.747955
357.0    20.0  0.731915  0.006539  0.725037  0.747955
358.0    20.0  0.731915  0.006539  0.725037  0.747955
359.0    20.0  0.731915  0.006539  0.725037  0.747955
360.0    20.0  0.732079  0.006404  0.725037  0.747955
361.0    20.0  0.732079  0.006404  0.725037  0.747955
362.0    20.0  0.732897  0.006498  0.725037  0.747955
363.0    20.0  0.732897  0.006498  0.725037  0.747955
364.0    20.0  0.732897  0.006498  0.725037  0.747955
365.0    20.0  0.732897  0.006498  0.725037  0.747955
366.0    20.0  0.732897  0.006498  0.725037  0.747955
367.0    20.0  0.732897  0.006498  0.725037  0.747955
368.0    20.0  0.732897  0.006498  0.725037  0.747955
369.0    20.0  0.733061  0.006336  0.725037  0.747955
370.0    20.0  0.733061  0.006336  0.725037  0.747955
371.0    20.0  0.733061  0.006336  0.725037  0.747955
372.0    20.0  0.733061  0.006336  0.725037  0.747955
373.0    20.0  0.733061  0.006336  0.725037  0.747955
374.0    20.0  0.733061  0.006336  0.725037  0.747955
375.0    20.0  0.733061  0.006336  0.725037  0.747955
376.0    20.0  0.733061  0.006336  0.725037  0.747955
377.0    20.0  0.733061  0.006336  0.725037  0.747955
378.0    20.0  0.733061  0.006336  0.725037  0.747955
379.0    20.0  0.733061  0.006336  0.725037  0.747955
380.0    20.0  0.733061  0.006336  0.725037  0.747955
381.0    20.0  0.733061  0.006336  0.725037  0.747955
382.0    20.0  0.733716  0.006147  0.725037  0.747955
383.0    20.0  0.733716  0.006147  0.725037  0.747955
384.0    20.0  0.733716  0.006147  0.725037  0.747955
385.0    20.0  0.733716  0.006147  0.725037  0.747955
386.0    20.0  0.733716  0.006147  0.725037  0.747955
387.0    20.0  0.733716  0.006147  0.725037  0.747955
388.0    20.0  0.733880  0.005954  0.728317  0.747955
389.0    20.0  0.733880  0.005954  0.728317  0.747955
390.0    20.0  0.733880  0.005954  0.728317  0.747955
391.0    20.0  0.733880  0.005954  0.728317  0.747955
392.0    20.0  0.733880  0.005954  0.728317  0.747955
393.0    20.0  0.733880  0.005954  0.728317  0.747955
394.0    20.0  0.733880  0.005954  0.728317  0.747955
395.0    20.0  0.733880  0.005954  0.728317  0.747955
396.0    20.0  0.733880  0.005954  0.728317  0.747955
397.0    20.0  0.733880  0.005954  0.728317  0.747955
398.0    20.0  0.734370  0.005879  0.728317  0.747955
399.0    20.0  0.734370  0.005879  0.728317  0.747955
400.0    20.0  0.734370  0.005879  0.728317  0.747955
401.0    20.0  0.734370  0.005879  0.728317  0.747955
402.0    20.0  0.734370  0.005879  0.728317  0.747955
403.0    20.0  0.734370  0.005879  0.728317  0.747955
404.0    20.0  0.734370  0.005879  0.728317  0.747955
405.0    20.0  0.734370  0.005879  0.728317  0.747955
406.0    20.0  0.734698  0.005713  0.728317  0.747955
407.0    20.0  0.734698  0.005713  0.728317  0.747955
408.0    20.0  0.734698  0.005713  0.728317  0.747955
409.0    20.0  0.734698  0.005713  0.728317  0.747955
410.0    20.0  0.734698  0.005713  0.728317  0.747955
411.0    20.0  0.734698  0.005713  0.728317  0.747955
412.0    20.0  0.734698  0.005713  0.728317  0.747955
413.0    20.0  0.734698  0.005713  0.728317  0.747955
414.0    20.0  0.734698  0.005713  0.728317  0.747955
415.0    20.0  0.734698  0.005713  0.728317  0.747955
416.0    20.0  0.734698  0.005713  0.728317  0.747955
417.0    20.0  0.734698  0.005713  0.728317  0.747955
418.0    20.0  0.734698  0.005713  0.728317  0.747955
419.0    20.0  0.734698  0.005713  0.728317  0.747955
420.0    20.0  0.734698  0.005713  0.728317  0.747955
421.0    20.0  0.734698  0.005713  0.728317  0.747955
422.0    20.0  0.734698  0.005713  0.728317  0.747955
423.0    20.0  0.734698  0.005713  0.728317  0.747955
424.0    20.0  0.734698  0.005713  0.728317  0.747955
425.0    20.0  0.734698  0.005713  0.728317  0.747955
426.0    20.0  0.734698  0.005713  0.728317  0.747955
427.0    20.0  0.734698  0.005713  0.728317  0.747955
428.0    20.0  0.734698  0.005713  0.728317  0.747955
429.0    20.0  0.734698  0.005713  0.728317  0.747955
430.0    20.0  0.734698  0.005713  0.728317  0.747955
431.0    20.0  0.734698  0.005713  0.728317  0.747955
432.0    20.0  0.734698  0.005713  0.728317  0.747955
433.0    20.0  0.734698  0.005713  0.728317  0.747955
434.0    20.0  0.735025  0.005522  0.728317  0.747955
435.0    20.0  0.735025  0.005522  0.728317  0.747955
436.0    20.0  0.735025  0.005522  0.728317  0.747955
437.0    20.0  0.735025  0.005522  0.728317  0.747955
438.0    20.0  0.735025  0.005522  0.728317  0.747955
439.0    20.0  0.735025  0.005522  0.728317  0.747955
440.0    20.0  0.735025  0.005522  0.728317  0.747955
441.0    20.0  0.735025  0.005522  0.728317  0.747955
442.0    20.0  0.735025  0.005522  0.728317  0.747955
443.0    20.0  0.735025  0.005522  0.728317  0.747955
444.0    20.0  0.735025  0.005522  0.728317  0.747955
445.0    20.0  0.735025  0.005522  0.728317  0.747955
446.0    20.0  0.735025  0.005522  0.728317  0.747955
447.0    20.0  0.735025  0.005522  0.728317  0.747955
448.0    20.0  0.735025  0.005522  0.728317  0.747955
449.0    20.0  0.735025  0.005522  0.728317  0.747955
450.0    20.0  0.735025  0.005522  0.728317  0.747955
451.0    20.0  0.735025  0.005522  0.728317  0.747955
452.0    20.0  0.735025  0.005522  0.728317  0.747955
453.0    20.0  0.735025  0.005522  0.728317  0.747955
454.0    20.0  0.735025  0.005522  0.728317  0.747955
455.0    20.0  0.735025  0.005522  0.728317  0.747955
456.0    20.0  0.735025  0.005522  0.728317  0.747955
457.0    20.0  0.735025  0.005522  0.728317  0.747955
458.0    20.0  0.735025  0.005522  0.728317  0.747955
459.0    20.0  0.735025  0.005522  0.728317  0.747955
460.0    20.0  0.735025  0.005522  0.728317  0.747955
461.0    20.0  0.735680  0.005464  0.728317  0.747955
462.0    20.0  0.735680  0.005464  0.728317  0.747955
463.0    20.0  0.735680  0.005464  0.728317  0.747955
464.0    20.0  0.735680  0.005464  0.728317  0.747955
465.0    20.0  0.735680  0.005464  0.728317  0.747955
466.0    20.0  0.735680  0.005464  0.728317  0.747955
467.0    20.0  0.736170  0.005216  0.728317  0.747955
468.0    20.0  0.736170  0.005216  0.728317  0.747955
469.0    20.0  0.736170  0.005216  0.728317  0.747955
470.0    20.0  0.736170  0.005216  0.728317  0.747955
471.0    20.0  0.736170  0.005216  0.728317  0.747955
472.0    20.0  0.736170  0.005216  0.728317  0.747955
473.0    20.0  0.736170  0.005216  0.728317  0.747955
474.0    20.0  0.736170  0.005216  0.728317  0.747955
475.0    20.0  0.736170  0.005216  0.728317  0.747955
476.0    20.0  0.736170  0.005216  0.728317  0.747955
477.0    20.0  0.736170  0.005216  0.728317  0.747955
478.0    20.0  0.736170  0.005216  0.728317  0.747955
479.0    20.0  0.736170  0.005216  0.728317  0.747955
480.0    20.0  0.736170  0.005216  0.728317  0.747955
481.0    20.0  0.736170  0.005216  0.728317  0.747955
482.0    20.0  0.736170  0.005216  0.728317  0.747955
483.0    20.0  0.736170  0.005216  0.728317  0.747955
484.0    20.0  0.736170  0.005216  0.728317  0.747955
485.0    20.0  0.736170  0.005216  0.728317  0.747955
486.0    20.0  0.736170  0.005216  0.728317  0.747955
487.0    20.0  0.737315  0.005843  0.728317  0.751221
488.0    20.0  0.737315  0.005843  0.728317  0.751221
489.0    20.0  0.737315  0.005843  0.728317  0.751221
490.0    20.0  0.737315  0.005843  0.728317  0.751221
491.0    20.0  0.737315  0.005843  0.728317  0.751221
492.0    20.0  0.737315  0.005843  0.728317  0.751221
493.0    20.0  0.737315  0.005843  0.728317  0.751221
494.0    20.0  0.737315  0.005843  0.728317  0.751221
495.0    20.0  0.737315  0.005843  0.728317  0.751221
496.0    20.0  0.737315  0.005843  0.728317  0.751221
497.0    20.0  0.737315  0.005843  0.728317  0.751221
498.0    20.0  0.737315  0.005843  0.728317  0.751221
499.0    20.0  0.737315  0.005843  0.728317  0.751221
