gen  nevals       avg       std       min       max
  0.0    20.0  0.595307  0.017150  0.565979  0.627563
  1.0    20.0  0.606157  0.010619  0.592377  0.630493
  2.0    20.0  0.613637  0.009268  0.601166  0.630493
  3.0    20.0  0.619354  0.008117  0.607040  0.639297
  4.0    20.0  0.624048  0.005908  0.615829  0.639297
  5.0    20.0  0.629913  0.006193  0.621704  0.642227
  6.0    20.0  0.634018  0.006916  0.624634  0.653961
  7.0    20.0  0.638125  0.006451  0.630493  0.653961
  8.0    20.0  0.641644  0.007037  0.633438  0.656891
  9.0    20.0  0.643110  0.006431  0.636368  0.656891
 10.0    20.0  0.646188  0.008463  0.636368  0.671555
 11.0    20.0  0.646628  0.008112  0.639297  0.671555
 12.0    20.0  0.649413  0.008163  0.639297  0.671555
 13.0    20.0  0.652053  0.006957  0.642227  0.671555
 14.0    20.0  0.652933  0.006769  0.642227  0.671555
 15.0    20.0  0.654546  0.007219  0.645157  0.671555
 16.0    20.0  0.656013  0.006087  0.648087  0.671555
 17.0    20.0  0.657478  0.005834  0.651031  0.671555
 18.0    20.0  0.658212  0.005898  0.651031  0.671555
 19.0    20.0  0.660703  0.006628  0.653961  0.677414
 20.0    20.0  0.661581  0.006108  0.653961  0.677414
 21.0    20.0  0.662168  0.005908  0.653961  0.677414
 22.0    20.0  0.662315  0.005737  0.653961  0.677414
 23.0    20.0  0.662461  0.005556  0.656891  0.677414
 24.0    20.0  0.664221  0.005448  0.656891  0.677414
 25.0    20.0  0.665394  0.005320  0.656891  0.677414
 26.0    20.0  0.666714  0.005350  0.659821  0.677414
 27.0    20.0  0.667448  0.004855  0.662750  0.677414
 28.0    20.0  0.667448  0.004855  0.662750  0.677414
 29.0    20.0  0.667448  0.004855  0.662750  0.677414
 30.0    20.0  0.667595  0.004754  0.662750  0.677414
 31.0    20.0  0.667889  0.004625  0.662750  0.677414
 32.0    20.0  0.668623  0.004542  0.662750  0.677414
 33.0    20.0  0.668623  0.004542  0.662750  0.677414
 34.0    20.0  0.668917  0.004237  0.662750  0.677414
 35.0    20.0  0.669064  0.004067  0.665695  0.677414
 36.0    20.0  0.670237  0.005897  0.665695  0.689148
 37.0    20.0  0.670237  0.005897  0.665695  0.689148
 38.0    20.0  0.670237  0.005897  0.665695  0.689148
 39.0    20.0  0.670383  0.005818  0.665695  0.689148
 40.0    20.0  0.670383  0.005818  0.665695  0.689148
 41.0    20.0  0.670383  0.005818  0.665695  0.689148
 42.0    20.0  0.670530  0.005734  0.665695  0.689148
 43.0    20.0  0.671116  0.005505  0.665695  0.689148
 44.0    20.0  0.671702  0.005520  0.665695  0.689148
 45.0    20.0  0.671702  0.005520  0.665695  0.689148
 46.0    20.0  0.673021  0.006389  0.665695  0.689148
 47.0    20.0  0.674340  0.006183  0.668625  0.689148
 48.0    20.0  0.675072  0.005761  0.668625  0.689148
 49.0    20.0  0.676099  0.006321  0.668625  0.689148
 50.0    20.0  0.676978  0.006030  0.671555  0.689148
 51.0    20.0  0.677125  0.005931  0.671555  0.689148
 52.0    20.0  0.677565  0.005827  0.671555  0.689148
 53.0    20.0  0.677565  0.005827  0.671555  0.689148
 54.0    20.0  0.678298  0.005495  0.671555  0.689148
 55.0    20.0  0.679178  0.005747  0.671555  0.689148
 56.0    20.0  0.679178  0.005747  0.671555  0.689148
 57.0    20.0  0.681818  0.005603  0.674484  0.692078
 58.0    20.0  0.681818  0.005603  0.674484  0.692078
 59.0    20.0  0.681964  0.005446  0.674484  0.692078
 60.0    20.0  0.681964  0.005446  0.674484  0.692078
 61.0    20.0  0.682258  0.005186  0.674484  0.692078
 62.0    20.0  0.682258  0.005186  0.674484  0.692078
 63.0    20.0  0.683578  0.005071  0.677414  0.692078
 64.0    20.0  0.683578  0.005071  0.677414  0.692078
 65.0    20.0  0.683725  0.004930  0.677414  0.692078
 66.0    20.0  0.684165  0.004736  0.677414  0.692078
 67.0    20.0  0.684460  0.004386  0.677414  0.692078
 68.0    20.0  0.684753  0.004091  0.680359  0.692078
 69.0    20.0  0.684753  0.004091  0.680359  0.692078
 70.0    20.0  0.684753  0.004091  0.680359  0.692078
 71.0    20.0  0.685046  0.003974  0.680359  0.692078
 72.0    20.0  0.685046  0.003974  0.680359  0.692078
 73.0    20.0  0.685046  0.003974  0.680359  0.692078
 74.0    20.0  0.685339  0.003831  0.680359  0.692078
 75.0    20.0  0.685486  0.003691  0.680359  0.692078
 76.0    20.0  0.685486  0.003691  0.680359  0.692078
 77.0    20.0  0.685632  0.003540  0.680359  0.692078
 78.0    20.0  0.685632  0.003540  0.680359  0.692078
 79.0    20.0  0.685632  0.003540  0.680359  0.692078
 80.0    20.0  0.685632  0.003540  0.680359  0.692078
 81.0    20.0  0.685632  0.003540  0.680359  0.692078
 82.0    20.0  0.685632  0.003540  0.680359  0.692078
 83.0    20.0  0.685632  0.003540  0.680359  0.692078
 84.0    20.0  0.685925  0.003327  0.680359  0.692078
 85.0    20.0  0.686365  0.002852  0.680359  0.692078
 86.0    20.0  0.686365  0.002852  0.680359  0.692078
 87.0    20.0  0.686365  0.002852  0.680359  0.692078
 88.0    20.0  0.686365  0.002852  0.680359  0.692078
 89.0    20.0  0.686511  0.002604  0.683289  0.692078
 90.0    20.0  0.686511  0.002604  0.683289  0.692078
 91.0    20.0  0.686511  0.002604  0.683289  0.692078
 92.0    20.0  0.686511  0.002604  0.683289  0.692078
 93.0    20.0  0.686511  0.002604  0.683289  0.692078
 94.0    20.0  0.686511  0.002604  0.683289  0.692078
 95.0    20.0  0.686511  0.002604  0.683289  0.692078
 96.0    20.0  0.686511  0.002604  0.683289  0.692078
 97.0    20.0  0.686804  0.002554  0.683289  0.692078
 98.0    20.0  0.687390  0.002988  0.683289  0.695007
 99.0    20.0  0.687390  0.002988  0.683289  0.695007
100.0    20.0  0.687390  0.002988  0.683289  0.695007
101.0    20.0  0.687390  0.002988  0.683289  0.695007
102.0    20.0  0.687537  0.002852  0.683289  0.695007
103.0    20.0  0.687537  0.002852  0.683289  0.695007
104.0    20.0  0.687683  0.002701  0.683289  0.695007
105.0    20.0  0.687683  0.002701  0.683289  0.695007
106.0    20.0  0.687683  0.002701  0.683289  0.695007
107.0    20.0  0.687683  0.002701  0.683289  0.695007
108.0    20.0  0.688269  0.002944  0.683289  0.695007
109.0    20.0  0.688269  0.002944  0.683289  0.695007
110.0    20.0  0.688416  0.002760  0.686218  0.695007
111.0    20.0  0.688855  0.003059  0.686218  0.695007
112.0    20.0  0.688855  0.003059  0.686218  0.695007
113.0    20.0  0.688855  0.003059  0.686218  0.695007
114.0    20.0  0.688855  0.003059  0.686218  0.695007
115.0    20.0  0.688855  0.003059  0.686218  0.695007
116.0    20.0  0.689001  0.002998  0.686218  0.695007
117.0    20.0  0.689001  0.002998  0.686218  0.695007
118.0    20.0  0.689001  0.002998  0.686218  0.695007
119.0    20.0  0.689001  0.002998  0.686218  0.695007
120.0    20.0  0.689001  0.002998  0.686218  0.695007
121.0    20.0  0.689294  0.002998  0.686218  0.695007
122.0    20.0  0.689441  0.002915  0.686218  0.695007
123.0    20.0  0.689441  0.002915  0.686218  0.695007
124.0    20.0  0.689441  0.002915  0.686218  0.695007
125.0    20.0  0.689734  0.002870  0.686218  0.695007
126.0    20.0  0.690027  0.002795  0.686218  0.695007
127.0    20.0  0.690320  0.002685  0.686218  0.695007
128.0    20.0  0.690320  0.002685  0.686218  0.695007
129.0    20.0  0.690320  0.002685  0.686218  0.695007
130.0    20.0  0.690613  0.002537  0.686218  0.695007
131.0    20.0  0.690613  0.002537  0.686218  0.695007
132.0    20.0  0.690613  0.002537  0.686218  0.695007
133.0    20.0  0.690613  0.002537  0.686218  0.695007
134.0    20.0  0.690613  0.002537  0.686218  0.695007
135.0    20.0  0.690613  0.002537  0.686218  0.695007
136.0    20.0  0.691199  0.002797  0.686218  0.697952
137.0    20.0  0.691199  0.002797  0.686218  0.697952
138.0    20.0  0.691199  0.002797  0.686218  0.697952
139.0    20.0  0.691199  0.002797  0.686218  0.697952
140.0    20.0  0.691199  0.002797  0.686218  0.697952
141.0    20.0  0.691199  0.002797  0.686218  0.697952
142.0    20.0  0.691199  0.002797  0.686218  0.697952
143.0    20.0  0.691199  0.002797  0.686218  0.697952
144.0    20.0  0.691199  0.002797  0.686218  0.697952
145.0    20.0  0.691199  0.002797  0.686218  0.697952
146.0    20.0  0.691199  0.002797  0.686218  0.697952
147.0    20.0  0.691199  0.002797  0.686218  0.697952
148.0    20.0  0.691199  0.002797  0.686218  0.697952
149.0    20.0  0.691199  0.002797  0.686218  0.697952
150.0    20.0  0.691199  0.002797  0.686218  0.697952
151.0    20.0  0.691346  0.002602  0.689148  0.697952
152.0    20.0  0.691346  0.002602  0.689148  0.697952
153.0    20.0  0.691346  0.002602  0.689148  0.697952
154.0    20.0  0.691346  0.002602  0.689148  0.697952
155.0    20.0  0.691346  0.002602  0.689148  0.697952
156.0    20.0  0.692519  0.005270  0.689148  0.712616
157.0    20.0  0.693106  0.005510  0.689148  0.712616
158.0    20.0  0.693106  0.005510  0.689148  0.712616
159.0    20.0  0.693106  0.005510  0.689148  0.712616
160.0    20.0  0.693106  0.005510  0.689148  0.712616
161.0    20.0  0.693106  0.005510  0.689148  0.712616
162.0    20.0  0.693106  0.005510  0.689148  0.712616
163.0    20.0  0.693106  0.005510  0.689148  0.712616
164.0    20.0  0.693106  0.005510  0.689148  0.712616
165.0    20.0  0.693106  0.005510  0.689148  0.712616
166.0    20.0  0.693106  0.005510  0.689148  0.712616
167.0    20.0  0.693253  0.005441  0.689148  0.712616
168.0    20.0  0.693253  0.005441  0.689148  0.712616
169.0    20.0  0.693253  0.005441  0.689148  0.712616
170.0    20.0  0.693253  0.005441  0.689148  0.712616
171.0    20.0  0.693399  0.005367  0.689148  0.712616
172.0    20.0  0.693399  0.005367  0.689148  0.712616
173.0    20.0  0.693399  0.005367  0.689148  0.712616
174.0    20.0  0.693399  0.005367  0.689148  0.712616
175.0    20.0  0.693399  0.005367  0.689148  0.712616
176.0    20.0  0.693399  0.005367  0.689148  0.712616
177.0    20.0  0.693399  0.005367  0.689148  0.712616
178.0    20.0  0.693399  0.005367  0.689148  0.712616
179.0    20.0  0.693399  0.005367  0.689148  0.712616
180.0    20.0  0.693986  0.005510  0.689148  0.712616
181.0    20.0  0.694426  0.005457  0.689148  0.712616
182.0    20.0  0.694426  0.005457  0.689148  0.712616
183.0    20.0  0.694426  0.005457  0.689148  0.712616
184.0    20.0  0.694426  0.005457  0.689148  0.712616
185.0    20.0  0.694572  0.005352  0.689148  0.712616
186.0    20.0  0.694572  0.005352  0.689148  0.712616
187.0    20.0  0.694865  0.005205  0.689148  0.712616
188.0    20.0  0.694865  0.005205  0.689148  0.712616
189.0    20.0  0.694865  0.005205  0.689148  0.712616
190.0    20.0  0.694865  0.005205  0.689148  0.712616
191.0    20.0  0.694865  0.005205  0.689148  0.712616
192.0    20.0  0.694865  0.005205  0.689148  0.712616
193.0    20.0  0.694865  0.005205  0.689148  0.712616
194.0    20.0  0.694865  0.005205  0.689148  0.712616
195.0    20.0  0.695306  0.005074  0.689148  0.712616
196.0    20.0  0.695452  0.004934  0.692078  0.712616
197.0    20.0  0.695452  0.004934  0.692078  0.712616
198.0    20.0  0.695452  0.004934  0.692078  0.712616
199.0    20.0  0.695599  0.004875  0.692078  0.712616
200.0    20.0  0.695599  0.004875  0.692078  0.712616
201.0    20.0  0.695599  0.004875  0.692078  0.712616
202.0    20.0  0.695599  0.004875  0.692078  0.712616
203.0    20.0  0.695599  0.004875  0.692078  0.712616
204.0    20.0  0.695745  0.004811  0.692078  0.712616
205.0    20.0  0.696625  0.005206  0.692078  0.712616
206.0    20.0  0.697652  0.006148  0.692078  0.712616
207.0    20.0  0.697652  0.006148  0.692078  0.712616
208.0    20.0  0.697652  0.006148  0.692078  0.712616
209.0    20.0  0.698385  0.005815  0.692078  0.712616
210.0    20.0  0.698385  0.005815  0.692078  0.712616
211.0    20.0  0.698385  0.005815  0.692078  0.712616
212.0    20.0  0.698385  0.005815  0.692078  0.712616
213.0    20.0  0.698679  0.005635  0.692078  0.712616
214.0    20.0  0.698679  0.005635  0.692078  0.712616
215.0    20.0  0.698679  0.005635  0.692078  0.712616
216.0    20.0  0.698679  0.005635  0.692078  0.712616
217.0    20.0  0.698679  0.005635  0.692078  0.712616
218.0    20.0  0.699412  0.005682  0.695007  0.712616
219.0    20.0  0.699412  0.005682  0.695007  0.712616
220.0    20.0  0.699412  0.005682  0.695007  0.712616
221.0    20.0  0.699412  0.005682  0.695007  0.712616
222.0    20.0  0.699412  0.005682  0.695007  0.712616
223.0    20.0  0.700585  0.006936  0.695007  0.718475
224.0    20.0  0.700585  0.006936  0.695007  0.718475
225.0    20.0  0.700585  0.006936  0.695007  0.718475
226.0    20.0  0.700585  0.006936  0.695007  0.718475
227.0    20.0  0.700585  0.006936  0.695007  0.718475
228.0    20.0  0.700585  0.006936  0.695007  0.718475
229.0    20.0  0.700732  0.006847  0.695007  0.718475
230.0    20.0  0.700732  0.006847  0.695007  0.718475
231.0    20.0  0.700732  0.006847  0.695007  0.718475
232.0    20.0  0.700732  0.006847  0.695007  0.718475
233.0    20.0  0.700732  0.006847  0.695007  0.718475
234.0    20.0  0.700732  0.006847  0.695007  0.718475
235.0    20.0  0.701173  0.006747  0.695007  0.718475
236.0    20.0  0.701173  0.006747  0.695007  0.718475
237.0    20.0  0.701613  0.006616  0.695007  0.718475
238.0    20.0  0.701613  0.006616  0.695007  0.718475
239.0    20.0  0.701613  0.006616  0.695007  0.718475
240.0    20.0  0.701613  0.006616  0.695007  0.718475
241.0    20.0  0.701613  0.006616  0.695007  0.718475
242.0    20.0  0.702053  0.006453  0.695007  0.718475
243.0    20.0  0.702200  0.006323  0.695007  0.718475
244.0    20.0  0.702787  0.006171  0.695007  0.718475
245.0    20.0  0.703081  0.005929  0.695007  0.718475
246.0    20.0  0.703081  0.005929  0.695007  0.718475
247.0    20.0  0.703667  0.005676  0.697952  0.718475
248.0    20.0  0.703667  0.005676  0.697952  0.718475
249.0    20.0  0.703667  0.005676  0.697952  0.718475
250.0    20.0  0.703667  0.005676  0.697952  0.718475
251.0    20.0  0.703667  0.005676  0.697952  0.718475
252.0    20.0  0.704107  0.005399  0.697952  0.718475
253.0    20.0  0.704107  0.005399  0.697952  0.718475
254.0    20.0  0.704107  0.005399  0.697952  0.718475
255.0    20.0  0.704107  0.005399  0.697952  0.718475
256.0    20.0  0.704107  0.005399  0.697952  0.718475
257.0    20.0  0.704107  0.005399  0.697952  0.718475
258.0    20.0  0.704693  0.005087  0.697952  0.718475
259.0    20.0  0.704693  0.005087  0.697952  0.718475
260.0    20.0  0.704693  0.005087  0.697952  0.718475
261.0    20.0  0.704839  0.004931  0.697952  0.718475
262.0    20.0  0.704839  0.004931  0.697952  0.718475
263.0    20.0  0.704839  0.004931  0.697952  0.718475
264.0    20.0  0.705132  0.004681  0.700882  0.718475
265.0    20.0  0.705132  0.004681  0.700882  0.718475
266.0    20.0  0.705132  0.004681  0.700882  0.718475
267.0    20.0  0.705132  0.004681  0.700882  0.718475
268.0    20.0  0.705132  0.004681  0.700882  0.718475
269.0    20.0  0.705132  0.004681  0.700882  0.718475
270.0    20.0  0.705132  0.004681  0.700882  0.718475
271.0    20.0  0.705132  0.004681  0.700882  0.718475
272.0    20.0  0.705132  0.004681  0.700882  0.718475
273.0    20.0  0.705572  0.004674  0.700882  0.718475
274.0    20.0  0.705572  0.004674  0.700882  0.718475
275.0    20.0  0.705572  0.004674  0.700882  0.718475
276.0    20.0  0.705572  0.004674  0.700882  0.718475
277.0    20.0  0.705572  0.004674  0.700882  0.718475
278.0    20.0  0.705572  0.004674  0.700882  0.718475
279.0    20.0  0.705572  0.004674  0.700882  0.718475
280.0    20.0  0.705718  0.004569  0.700882  0.718475
281.0    20.0  0.705718  0.004569  0.700882  0.718475
282.0    20.0  0.705718  0.004569  0.700882  0.718475
283.0    20.0  0.705718  0.004569  0.700882  0.718475
284.0    20.0  0.705718  0.004569  0.700882  0.718475
285.0    20.0  0.705718  0.004569  0.700882  0.718475
286.0    20.0  0.706011  0.004435  0.700882  0.718475
287.0    20.0  0.706011  0.004435  0.700882  0.718475
288.0    20.0  0.706011  0.004435  0.700882  0.718475
289.0    20.0  0.706304  0.004278  0.700882  0.718475
290.0    20.0  0.706451  0.004137  0.700882  0.718475
291.0    20.0  0.706597  0.003987  0.700882  0.718475
292.0    20.0  0.706597  0.003987  0.700882  0.718475
293.0    20.0  0.706597  0.003987  0.700882  0.718475
294.0    20.0  0.706597  0.003987  0.700882  0.718475
295.0    20.0  0.706597  0.003987  0.700882  0.718475
296.0    20.0  0.706597  0.003987  0.700882  0.718475
297.0    20.0  0.706597  0.003987  0.700882  0.718475
298.0    20.0  0.706597  0.003987  0.700882  0.718475
299.0    20.0  0.706597  0.003987  0.700882  0.718475
300.0    20.0  0.706597  0.003987  0.700882  0.718475
301.0    20.0  0.706597  0.003987  0.700882  0.718475
302.0    20.0  0.706597  0.003987  0.700882  0.718475
303.0    20.0  0.706597  0.003987  0.700882  0.718475
304.0    20.0  0.706597  0.003987  0.700882  0.718475
305.0    20.0  0.706597  0.003987  0.700882  0.718475
306.0    20.0  0.706597  0.003987  0.700882  0.718475
307.0    20.0  0.706597  0.003987  0.700882  0.718475
308.0    20.0  0.706597  0.003987  0.700882  0.718475
309.0    20.0  0.707184  0.003966  0.703812  0.718475
310.0    20.0  0.707184  0.003966  0.703812  0.718475
311.0    20.0  0.707330  0.003892  0.703812  0.718475
312.0    20.0  0.707330  0.003892  0.703812  0.718475
313.0    20.0  0.707330  0.003892  0.703812  0.718475
314.0    20.0  0.707477  0.003811  0.703812  0.718475
315.0    20.0  0.707477  0.003811  0.703812  0.718475
316.0    20.0  0.707477  0.003811  0.703812  0.718475
317.0    20.0  0.707770  0.003743  0.703812  0.718475
318.0    20.0  0.707770  0.003743  0.703812  0.718475
319.0    20.0  0.707770  0.003743  0.703812  0.718475
320.0    20.0  0.708063  0.003650  0.703812  0.718475
321.0    20.0  0.708356  0.003530  0.703812  0.718475
322.0    20.0  0.708356  0.003530  0.703812  0.718475
323.0    20.0  0.708502  0.003396  0.703812  0.718475
324.0    20.0  0.708795  0.003228  0.703812  0.718475
325.0    20.0  0.708795  0.003228  0.703812  0.718475
326.0    20.0  0.709235  0.003116  0.706741  0.718475
327.0    20.0  0.709235  0.003116  0.706741  0.718475
328.0    20.0  0.709382  0.003064  0.706741  0.718475
329.0    20.0  0.709382  0.003064  0.706741  0.718475
330.0    20.0  0.709382  0.003064  0.706741  0.718475
331.0    20.0  0.709382  0.003064  0.706741  0.718475
332.0    20.0  0.709382  0.003064  0.706741  0.718475
333.0    20.0  0.709382  0.003064  0.706741  0.718475
334.0    20.0  0.709382  0.003064  0.706741  0.718475
335.0    20.0  0.709382  0.003064  0.706741  0.718475
336.0    20.0  0.709382  0.003064  0.706741  0.718475
337.0    20.0  0.709382  0.003064  0.706741  0.718475
338.0    20.0  0.709382  0.003064  0.706741  0.718475
339.0    20.0  0.709382  0.003064  0.706741  0.718475
340.0    20.0  0.709382  0.003064  0.706741  0.718475
341.0    20.0  0.709382  0.003064  0.706741  0.718475
342.0    20.0  0.709382  0.003064  0.706741  0.718475
343.0    20.0  0.709382  0.003064  0.706741  0.718475
344.0    20.0  0.709382  0.003064  0.706741  0.718475
345.0    20.0  0.709382  0.003064  0.706741  0.718475
346.0    20.0  0.709382  0.003064  0.706741  0.718475
347.0    20.0  0.709382  0.003064  0.706741  0.718475
348.0    20.0  0.709382  0.003064  0.706741  0.718475
349.0    20.0  0.709382  0.003064  0.706741  0.718475
350.0    20.0  0.709382  0.003064  0.706741  0.718475
351.0    20.0  0.709382  0.003064  0.706741  0.718475
352.0    20.0  0.709382  0.003064  0.706741  0.718475
353.0    20.0  0.709382  0.003064  0.706741  0.718475
354.0    20.0  0.709382  0.003064  0.706741  0.718475
355.0    20.0  0.709382  0.003064  0.706741  0.718475
356.0    20.0  0.709382  0.003064  0.706741  0.718475
357.0    20.0  0.709382  0.003064  0.706741  0.718475
358.0    20.0  0.709382  0.003064  0.706741  0.718475
359.0    20.0  0.709382  0.003064  0.706741  0.718475
360.0    20.0  0.709676  0.003079  0.706741  0.718475
361.0    20.0  0.709676  0.003079  0.706741  0.718475
362.0    20.0  0.709676  0.003079  0.706741  0.718475
363.0    20.0  0.709676  0.003079  0.706741  0.718475
364.0    20.0  0.709969  0.003065  0.706741  0.718475
365.0    20.0  0.709969  0.003065  0.706741  0.718475
366.0    20.0  0.709969  0.003065  0.706741  0.718475
367.0    20.0  0.709969  0.003065  0.706741  0.718475
368.0    20.0  0.709969  0.003065  0.706741  0.718475
369.0    20.0  0.709969  0.003065  0.706741  0.718475
370.0    20.0  0.709969  0.003065  0.706741  0.718475
371.0    20.0  0.709969  0.003065  0.706741  0.718475
372.0    20.0  0.709969  0.003065  0.706741  0.718475
373.0    20.0  0.709969  0.003065  0.706741  0.718475
374.0    20.0  0.709969  0.003065  0.706741  0.718475
375.0    20.0  0.709969  0.003065  0.706741  0.718475
376.0    20.0  0.709969  0.003065  0.706741  0.718475
377.0    20.0  0.709969  0.003065  0.706741  0.718475
378.0    20.0  0.709969  0.003065  0.706741  0.718475
379.0    20.0  0.709969  0.003065  0.706741  0.718475
380.0    20.0  0.709969  0.003065  0.706741  0.718475
381.0    20.0  0.709969  0.003065  0.706741  0.718475
382.0    20.0  0.709969  0.003065  0.706741  0.718475
383.0    20.0  0.709969  0.003065  0.706741  0.718475
384.0    20.0  0.709969  0.003065  0.706741  0.718475
385.0    20.0  0.709969  0.003065  0.706741  0.718475
386.0    20.0  0.709969  0.003065  0.706741  0.718475
387.0    20.0  0.709969  0.003065  0.706741  0.718475
388.0    20.0  0.709969  0.003065  0.706741  0.718475
389.0    20.0  0.709969  0.003065  0.706741  0.718475
390.0    20.0  0.709969  0.003065  0.706741  0.718475
391.0    20.0  0.709969  0.003065  0.706741  0.718475
392.0    20.0  0.709969  0.003065  0.706741  0.718475
393.0    20.0  0.709969  0.003065  0.706741  0.718475
394.0    20.0  0.709969  0.003065  0.706741  0.718475
395.0    20.0  0.709969  0.003065  0.706741  0.718475
396.0    20.0  0.710116  0.002976  0.706741  0.718475
397.0    20.0  0.710116  0.002976  0.706741  0.718475
398.0    20.0  0.710116  0.002976  0.706741  0.718475
399.0    20.0  0.710116  0.002976  0.706741  0.718475
400.0    20.0  0.710116  0.002976  0.706741  0.718475
401.0    20.0  0.710116  0.002976  0.706741  0.718475
402.0    20.0  0.710116  0.002976  0.706741  0.718475
403.0    20.0  0.710116  0.002976  0.706741  0.718475
404.0    20.0  0.710116  0.002976  0.706741  0.718475
405.0    20.0  0.710116  0.002976  0.706741  0.718475
406.0    20.0  0.710116  0.002976  0.706741  0.718475
407.0    20.0  0.710116  0.002976  0.706741  0.718475
408.0    20.0  0.710116  0.002976  0.706741  0.718475
409.0    20.0  0.710116  0.002976  0.706741  0.718475
410.0    20.0  0.710116  0.002976  0.706741  0.718475
411.0    20.0  0.710116  0.002976  0.706741  0.718475
412.0    20.0  0.710116  0.002976  0.706741  0.718475
413.0    20.0  0.710116  0.002976  0.706741  0.718475
414.0    20.0  0.710116  0.002976  0.706741  0.718475
415.0    20.0  0.710116  0.002976  0.706741  0.718475
416.0    20.0  0.710116  0.002976  0.706741  0.718475
417.0    20.0  0.710116  0.002976  0.706741  0.718475
418.0    20.0  0.710116  0.002976  0.706741  0.718475
419.0    20.0  0.710116  0.002976  0.706741  0.718475
420.0    20.0  0.710116  0.002976  0.706741  0.718475
421.0    20.0  0.710116  0.002976  0.706741  0.718475
422.0    20.0  0.710116  0.002976  0.706741  0.718475
423.0    20.0  0.710116  0.002976  0.706741  0.718475
424.0    20.0  0.710116  0.002976  0.706741  0.718475
425.0    20.0  0.710116  0.002976  0.706741  0.718475
426.0    20.0  0.710116  0.002976  0.706741  0.718475
427.0    20.0  0.710116  0.002976  0.706741  0.718475
428.0    20.0  0.710116  0.002976  0.706741  0.718475
429.0    20.0  0.710116  0.002976  0.706741  0.718475
430.0    20.0  0.710116  0.002976  0.706741  0.718475
431.0    20.0  0.710116  0.002976  0.706741  0.718475
432.0    20.0  0.710703  0.003382  0.706741  0.718475
433.0    20.0  0.710703  0.003382  0.706741  0.718475
434.0    20.0  0.710703  0.003382  0.706741  0.718475
435.0    20.0  0.710703  0.003382  0.706741  0.718475
436.0    20.0  0.710703  0.003382  0.706741  0.718475
437.0    20.0  0.710849  0.003268  0.706741  0.718475
438.0    20.0  0.710849  0.003268  0.706741  0.718475
439.0    20.0  0.710849  0.003268  0.706741  0.718475
440.0    20.0  0.710849  0.003268  0.706741  0.718475
441.0    20.0  0.710849  0.003268  0.706741  0.718475
442.0    20.0  0.710849  0.003268  0.706741  0.718475
443.0    20.0  0.710849  0.003268  0.706741  0.718475
444.0    20.0  0.710849  0.003268  0.706741  0.718475
445.0    20.0  0.710849  0.003268  0.706741  0.718475
446.0    20.0  0.710849  0.003268  0.706741  0.718475
447.0    20.0  0.710849  0.003268  0.706741  0.718475
448.0    20.0  0.710849  0.003268  0.706741  0.718475
449.0    20.0  0.710849  0.003268  0.706741  0.718475
450.0    20.0  0.710849  0.003268  0.706741  0.718475
451.0    20.0  0.710849  0.003268  0.706741  0.718475
452.0    20.0  0.710849  0.003268  0.706741  0.718475
453.0    20.0  0.710849  0.003268  0.706741  0.718475
454.0    20.0  0.710849  0.003268  0.706741  0.718475
455.0    20.0  0.710995  0.003144  0.706741  0.718475
456.0    20.0  0.710995  0.003144  0.706741  0.718475
457.0    20.0  0.710995  0.003144  0.706741  0.718475
458.0    20.0  0.710995  0.003144  0.706741  0.718475
459.0    20.0  0.710995  0.003144  0.706741  0.718475
460.0    20.0  0.710995  0.003144  0.706741  0.718475
461.0    20.0  0.710995  0.003144  0.706741  0.718475
462.0    20.0  0.710995  0.003144  0.706741  0.718475
463.0    20.0  0.711142  0.003008  0.706741  0.718475
464.0    20.0  0.711142  0.003008  0.706741  0.718475
465.0    20.0  0.711142  0.003008  0.706741  0.718475
466.0    20.0  0.711142  0.003008  0.706741  0.718475
467.0    20.0  0.711142  0.003008  0.706741  0.718475
468.0    20.0  0.711142  0.003008  0.706741  0.718475
469.0    20.0  0.711142  0.003008  0.706741  0.718475
470.0    20.0  0.711142  0.003008  0.706741  0.718475
471.0    20.0  0.711142  0.003008  0.706741  0.718475
472.0    20.0  0.711142  0.003008  0.706741  0.718475
473.0    20.0  0.711142  0.003008  0.706741  0.718475
474.0    20.0  0.711142  0.003008  0.706741  0.718475
475.0    20.0  0.711142  0.003008  0.706741  0.718475
476.0    20.0  0.711142  0.003008  0.706741  0.718475
477.0    20.0  0.711142  0.003008  0.706741  0.718475
478.0    20.0  0.711142  0.003008  0.706741  0.718475
479.0    20.0  0.711142  0.003008  0.706741  0.718475
480.0    20.0  0.711142  0.003008  0.706741  0.718475
481.0    20.0  0.711142  0.003008  0.706741  0.718475
482.0    20.0  0.711142  0.003008  0.706741  0.718475
483.0    20.0  0.711582  0.002976  0.706741  0.718475
484.0    20.0  0.711582  0.002976  0.706741  0.718475
485.0    20.0  0.711582  0.002976  0.706741  0.718475
486.0    20.0  0.711582  0.002976  0.706741  0.718475
487.0    20.0  0.711582  0.002976  0.706741  0.718475
488.0    20.0  0.711582  0.002976  0.706741  0.718475
489.0    20.0  0.711582  0.002976  0.706741  0.718475
490.0    20.0  0.711582  0.002976  0.706741  0.718475
491.0    20.0  0.711582  0.002976  0.706741  0.718475
492.0    20.0  0.711582  0.002976  0.706741  0.718475
493.0    20.0  0.711582  0.002976  0.706741  0.718475
494.0    20.0  0.711729  0.002801  0.709671  0.718475
495.0    20.0  0.711729  0.002801  0.709671  0.718475
496.0    20.0  0.711729  0.002801  0.709671  0.718475
497.0    20.0  0.711729  0.002801  0.709671  0.718475
498.0    20.0  0.711729  0.002801  0.709671  0.718475
499.0    20.0  0.711729  0.002801  0.709671  0.718475
