gen  nevals       avg       std       min       max
  0.0    20.0  0.583147  0.014365  0.550568  0.605133
  1.0    20.0  0.594704  0.006410  0.585876  0.608353
  2.0    20.0  0.603049  0.006907  0.595505  0.617981
  3.0    20.0  0.609470  0.009153  0.598709  0.627609
  4.0    20.0  0.614928  0.007283  0.605133  0.627609
  5.0    20.0  0.620705  0.006981  0.611557  0.640442
  6.0    20.0  0.623275  0.005766  0.614761  0.640442
  7.0    20.0  0.627448  0.005695  0.621185  0.640442
  8.0    20.0  0.631780  0.004549  0.627609  0.640442
  9.0    20.0  0.634829  0.004747  0.627609  0.643661
 10.0    20.0  0.635952  0.004234  0.630814  0.643661
 11.0    20.0  0.638200  0.004878  0.630814  0.650085
 12.0    20.0  0.639485  0.004436  0.634033  0.650085
 13.0    20.0  0.641411  0.004774  0.634033  0.650085
 14.0    20.0  0.644299  0.005431  0.637238  0.656494
 15.0    20.0  0.645262  0.005421  0.640442  0.656494
 16.0    20.0  0.646065  0.005822  0.640442  0.656494
 17.0    20.0  0.648635  0.006770  0.640442  0.666138
 18.0    20.0  0.649920  0.006377  0.643661  0.666138
 19.0    20.0  0.650401  0.006081  0.643661  0.666138
 20.0    20.0  0.652006  0.006039  0.643661  0.666138
 21.0    20.0  0.654896  0.004595  0.650085  0.666138
 22.0    20.0  0.656179  0.004294  0.650085  0.666138
 23.0    20.0  0.656499  0.004060  0.650085  0.666138
 24.0    20.0  0.658264  0.003996  0.653290  0.669342
 25.0    20.0  0.659388  0.005365  0.653290  0.675766
 26.0    20.0  0.659869  0.005025  0.656494  0.675766
 27.0    20.0  0.660993  0.005599  0.656494  0.675766
 28.0    20.0  0.661957  0.005663  0.656494  0.675766
 29.0    20.0  0.662278  0.005525  0.656494  0.675766
 30.0    20.0  0.662278  0.005525  0.656494  0.675766
 31.0    20.0  0.662278  0.005525  0.656494  0.675766
 32.0    20.0  0.662278  0.005525  0.656494  0.675766
 33.0    20.0  0.662278  0.005525  0.656494  0.675766
 34.0    20.0  0.664528  0.005323  0.659714  0.675766
 35.0    20.0  0.665972  0.005960  0.659714  0.678970
 36.0    20.0  0.666774  0.005796  0.659714  0.678970
 37.0    20.0  0.667095  0.005569  0.659714  0.678970
 38.0    20.0  0.667095  0.005569  0.659714  0.678970
 39.0    20.0  0.667095  0.005569  0.659714  0.678970
 40.0    20.0  0.667095  0.005569  0.659714  0.678970
 41.0    20.0  0.668379  0.006587  0.659714  0.685394
 42.0    20.0  0.668539  0.006411  0.659714  0.685394
 43.0    20.0  0.668861  0.006115  0.662918  0.685394
 44.0    20.0  0.669824  0.006601  0.662918  0.685394
 45.0    20.0  0.670788  0.006922  0.662918  0.685394
 46.0    20.0  0.670788  0.006922  0.662918  0.685394
 47.0    20.0  0.671109  0.006694  0.662918  0.685394
 48.0    20.0  0.672233  0.007099  0.662918  0.685394
 49.0    20.0  0.673196  0.006702  0.666138  0.685394
 50.0    20.0  0.673196  0.006702  0.666138  0.685394
 51.0    20.0  0.673196  0.006702  0.666138  0.685394
 52.0    20.0  0.673517  0.006508  0.666138  0.685394
 53.0    20.0  0.673517  0.006508  0.666138  0.685394
 54.0    20.0  0.673517  0.006508  0.666138  0.685394
 55.0    20.0  0.673677  0.006362  0.666138  0.685394
 56.0    20.0  0.674158  0.006133  0.666138  0.685394
 57.0    20.0  0.674639  0.005678  0.666138  0.685394
 58.0    20.0  0.675923  0.005226  0.669342  0.685394
 59.0    20.0  0.677046  0.005506  0.669342  0.688599
 60.0    20.0  0.677849  0.004900  0.672546  0.688599
 61.0    20.0  0.678010  0.004774  0.672546  0.688599
 62.0    20.0  0.678171  0.004639  0.672546  0.688599
 63.0    20.0  0.678171  0.004639  0.672546  0.688599
 64.0    20.0  0.678171  0.004639  0.672546  0.688599
 65.0    20.0  0.678171  0.004639  0.672546  0.688599
 66.0    20.0  0.678492  0.004458  0.672546  0.688599
 67.0    20.0  0.678974  0.004308  0.672546  0.688599
 68.0    20.0  0.679135  0.004120  0.672546  0.688599
 69.0    20.0  0.679617  0.003878  0.675766  0.688599
 70.0    20.0  0.679939  0.003812  0.675766  0.688599
 71.0    20.0  0.680580  0.004123  0.675766  0.688599
 72.0    20.0  0.681062  0.004094  0.675766  0.688599
 73.0    20.0  0.681062  0.004094  0.675766  0.688599
 74.0    20.0  0.681222  0.003944  0.675766  0.688599
 75.0    20.0  0.681222  0.003944  0.675766  0.688599
 76.0    20.0  0.681543  0.003743  0.675766  0.688599
 77.0    20.0  0.681703  0.003556  0.675766  0.688599
 78.0    20.0  0.681703  0.003556  0.675766  0.688599
 79.0    20.0  0.681703  0.003556  0.675766  0.688599
 80.0    20.0  0.681863  0.003351  0.675766  0.688599
 81.0    20.0  0.681863  0.003351  0.675766  0.688599
 82.0    20.0  0.681863  0.003351  0.675766  0.688599
 83.0    20.0  0.682024  0.003125  0.678970  0.688599
 84.0    20.0  0.682024  0.003125  0.678970  0.688599
 85.0    20.0  0.682505  0.003351  0.678970  0.688599
 86.0    20.0  0.682986  0.003497  0.678970  0.688599
 87.0    20.0  0.683147  0.003381  0.678970  0.688599
 88.0    20.0  0.683147  0.003381  0.678970  0.688599
 89.0    20.0  0.683147  0.003381  0.678970  0.688599
 90.0    20.0  0.683469  0.003272  0.678970  0.688599
 91.0    20.0  0.684111  0.003573  0.678970  0.691818
 92.0    20.0  0.684111  0.003573  0.678970  0.691818
 93.0    20.0  0.684272  0.003407  0.678970  0.691818
 94.0    20.0  0.684272  0.003407  0.678970  0.691818
 95.0    20.0  0.684433  0.003223  0.678970  0.691818
 96.0    20.0  0.684433  0.003223  0.678970  0.691818
 97.0    20.0  0.684594  0.003021  0.682190  0.691818
 98.0    20.0  0.684754  0.002973  0.682190  0.691818
 99.0    20.0  0.684754  0.002973  0.682190  0.691818
100.0    20.0  0.684754  0.002973  0.682190  0.691818
101.0    20.0  0.685075  0.003025  0.682190  0.691818
102.0    20.0  0.685075  0.003025  0.682190  0.691818
103.0    20.0  0.685075  0.003025  0.682190  0.691818
104.0    20.0  0.685075  0.003025  0.682190  0.691818
105.0    20.0  0.685235  0.002952  0.682190  0.691818
106.0    20.0  0.686198  0.004524  0.682190  0.701447
107.0    20.0  0.687000  0.004481  0.682190  0.701447
108.0    20.0  0.687000  0.004481  0.682190  0.701447
109.0    20.0  0.687000  0.004481  0.682190  0.701447
110.0    20.0  0.687000  0.004481  0.682190  0.701447
111.0    20.0  0.687000  0.004481  0.682190  0.701447
112.0    20.0  0.687160  0.004362  0.682190  0.701447
113.0    20.0  0.687160  0.004362  0.682190  0.701447
114.0    20.0  0.687160  0.004362  0.682190  0.701447
115.0    20.0  0.687160  0.004362  0.682190  0.701447
116.0    20.0  0.687160  0.004362  0.682190  0.701447
117.0    20.0  0.687160  0.004362  0.682190  0.701447
118.0    20.0  0.687962  0.004824  0.682190  0.701447
119.0    20.0  0.687962  0.004824  0.682190  0.701447
120.0    20.0  0.687962  0.004824  0.682190  0.701447
121.0    20.0  0.687962  0.004824  0.682190  0.701447
122.0    20.0  0.687962  0.004824  0.682190  0.701447
123.0    20.0  0.687962  0.004824  0.682190  0.701447
124.0    20.0  0.687962  0.004824  0.682190  0.701447
125.0    20.0  0.687962  0.004824  0.682190  0.701447
126.0    20.0  0.687962  0.004824  0.682190  0.701447
127.0    20.0  0.687962  0.004824  0.682190  0.701447
128.0    20.0  0.687962  0.004824  0.682190  0.701447
129.0    20.0  0.688603  0.004867  0.682190  0.701447
130.0    20.0  0.688603  0.004867  0.682190  0.701447
131.0    20.0  0.688924  0.004640  0.682190  0.701447
132.0    20.0  0.689565  0.004551  0.685394  0.701447
133.0    20.0  0.689886  0.004471  0.685394  0.701447
134.0    20.0  0.689886  0.004471  0.685394  0.701447
135.0    20.0  0.689886  0.004471  0.685394  0.701447
136.0    20.0  0.689886  0.004471  0.685394  0.701447
137.0    20.0  0.689886  0.004471  0.685394  0.701447
138.0    20.0  0.689886  0.004471  0.685394  0.701447
139.0    20.0  0.689886  0.004471  0.685394  0.701447
140.0    20.0  0.690368  0.004480  0.685394  0.701447
141.0    20.0  0.690368  0.004480  0.685394  0.701447
142.0    20.0  0.690368  0.004480  0.685394  0.701447
143.0    20.0  0.690849  0.004437  0.685394  0.701447
144.0    20.0  0.691171  0.004259  0.685394  0.701447
145.0    20.0  0.691812  0.004307  0.685394  0.701447
146.0    20.0  0.691812  0.004307  0.685394  0.701447
147.0    20.0  0.691812  0.004307  0.685394  0.701447
148.0    20.0  0.691812  0.004307  0.685394  0.701447
149.0    20.0  0.691812  0.004307  0.685394  0.701447
150.0    20.0  0.691812  0.004307  0.685394  0.701447
151.0    20.0  0.691812  0.004307  0.685394  0.701447
152.0    20.0  0.691812  0.004307  0.685394  0.701447
153.0    20.0  0.692615  0.004526  0.685394  0.701447
154.0    20.0  0.692936  0.004220  0.688599  0.701447
155.0    20.0  0.692936  0.004220  0.688599  0.701447
156.0    20.0  0.693417  0.004247  0.688599  0.701447
157.0    20.0  0.693417  0.004247  0.688599  0.701447
158.0    20.0  0.693578  0.004120  0.688599  0.701447
159.0    20.0  0.693578  0.004120  0.688599  0.701447
160.0    20.0  0.694702  0.005457  0.688599  0.711075
161.0    20.0  0.694702  0.005457  0.688599  0.711075
162.0    20.0  0.694702  0.005457  0.688599  0.711075
163.0    20.0  0.694702  0.005457  0.688599  0.711075
164.0    20.0  0.694702  0.005457  0.688599  0.711075
165.0    20.0  0.694863  0.005321  0.688599  0.711075
166.0    20.0  0.695184  0.005123  0.688599  0.711075
167.0    20.0  0.695184  0.005123  0.688599  0.711075
168.0    20.0  0.695506  0.004896  0.688599  0.711075
169.0    20.0  0.696469  0.005320  0.691818  0.711075
170.0    20.0  0.696469  0.005320  0.691818  0.711075
171.0    20.0  0.696469  0.005320  0.691818  0.711075
172.0    20.0  0.696469  0.005320  0.691818  0.711075
173.0    20.0  0.696469  0.005320  0.691818  0.711075
174.0    20.0  0.696469  0.005320  0.691818  0.711075
175.0    20.0  0.696790  0.005223  0.691818  0.711075
176.0    20.0  0.696790  0.005223  0.691818  0.711075
177.0    20.0  0.696790  0.005223  0.691818  0.711075
178.0    20.0  0.696790  0.005223  0.691818  0.711075
179.0    20.0  0.696790  0.005223  0.691818  0.711075
180.0    20.0  0.696790  0.005223  0.691818  0.711075
181.0    20.0  0.696790  0.005223  0.691818  0.711075
182.0    20.0  0.696790  0.005223  0.691818  0.711075
183.0    20.0  0.696790  0.005223  0.691818  0.711075
184.0    20.0  0.696790  0.005223  0.691818  0.711075
185.0    20.0  0.696790  0.005223  0.691818  0.711075
186.0    20.0  0.697271  0.005186  0.691818  0.711075
187.0    20.0  0.697271  0.005186  0.691818  0.711075
188.0    20.0  0.697752  0.005104  0.691818  0.711075
189.0    20.0  0.697752  0.005104  0.691818  0.711075
190.0    20.0  0.697752  0.005104  0.691818  0.711075
191.0    20.0  0.697752  0.005104  0.691818  0.711075
192.0    20.0  0.697752  0.005104  0.691818  0.711075
193.0    20.0  0.697913  0.004963  0.691818  0.711075
194.0    20.0  0.697913  0.004963  0.691818  0.711075
195.0    20.0  0.698394  0.004813  0.691818  0.711075
196.0    20.0  0.698394  0.004813  0.691818  0.711075
197.0    20.0  0.698394  0.004813  0.691818  0.711075
198.0    20.0  0.698394  0.004813  0.691818  0.711075
199.0    20.0  0.698554  0.004642  0.691818  0.711075
200.0    20.0  0.699036  0.004412  0.695023  0.711075
201.0    20.0  0.699036  0.004412  0.695023  0.711075
202.0    20.0  0.699036  0.004412  0.695023  0.711075
203.0    20.0  0.699036  0.004412  0.695023  0.711075
204.0    20.0  0.699517  0.004473  0.695023  0.711075
205.0    20.0  0.699517  0.004473  0.695023  0.711075
206.0    20.0  0.699517  0.004473  0.695023  0.711075
207.0    20.0  0.699517  0.004473  0.695023  0.711075
208.0    20.0  0.699677  0.004365  0.695023  0.711075
209.0    20.0  0.699677  0.004365  0.695023  0.711075
210.0    20.0  0.699677  0.004365  0.695023  0.711075
211.0    20.0  0.699677  0.004365  0.695023  0.711075
212.0    20.0  0.699677  0.004365  0.695023  0.711075
213.0    20.0  0.699837  0.004248  0.695023  0.711075
214.0    20.0  0.699837  0.004248  0.695023  0.711075
215.0    20.0  0.699837  0.004248  0.695023  0.711075
216.0    20.0  0.699837  0.004248  0.695023  0.711075
217.0    20.0  0.699837  0.004248  0.695023  0.711075
218.0    20.0  0.699837  0.004248  0.695023  0.711075
219.0    20.0  0.700480  0.004439  0.695023  0.711075
220.0    20.0  0.700480  0.004439  0.695023  0.711075
221.0    20.0  0.700480  0.004439  0.695023  0.711075
222.0    20.0  0.700640  0.004295  0.695023  0.711075
223.0    20.0  0.700640  0.004295  0.695023  0.711075
224.0    20.0  0.700640  0.004295  0.695023  0.711075
225.0    20.0  0.700640  0.004295  0.695023  0.711075
226.0    20.0  0.700640  0.004295  0.695023  0.711075
227.0    20.0  0.700640  0.004295  0.695023  0.711075
228.0    20.0  0.701283  0.004367  0.695023  0.711075
229.0    20.0  0.701283  0.004367  0.695023  0.711075
230.0    20.0  0.701283  0.004367  0.695023  0.711075
231.0    20.0  0.701283  0.004367  0.695023  0.711075
232.0    20.0  0.701283  0.004367  0.695023  0.711075
233.0    20.0  0.701283  0.004367  0.695023  0.711075
234.0    20.0  0.701283  0.004367  0.695023  0.711075
235.0    20.0  0.701283  0.004367  0.695023  0.711075
236.0    20.0  0.701283  0.004367  0.695023  0.711075
237.0    20.0  0.701283  0.004367  0.695023  0.711075
238.0    20.0  0.701443  0.004189  0.695023  0.711075
239.0    20.0  0.701443  0.004189  0.695023  0.711075
240.0    20.0  0.701443  0.004189  0.695023  0.711075
241.0    20.0  0.701443  0.004189  0.695023  0.711075
242.0    20.0  0.701443  0.004189  0.695023  0.711075
243.0    20.0  0.701443  0.004189  0.695023  0.711075
244.0    20.0  0.701443  0.004189  0.695023  0.711075
245.0    20.0  0.701443  0.004189  0.695023  0.711075
246.0    20.0  0.701443  0.004189  0.695023  0.711075
247.0    20.0  0.701443  0.004189  0.695023  0.711075
248.0    20.0  0.701443  0.004189  0.695023  0.711075
249.0    20.0  0.701764  0.003922  0.698227  0.711075
250.0    20.0  0.701764  0.003922  0.698227  0.711075
251.0    20.0  0.701764  0.003922  0.698227  0.711075
252.0    20.0  0.702246  0.004049  0.698227  0.711075
253.0    20.0  0.702246  0.004049  0.698227  0.711075
254.0    20.0  0.702246  0.004049  0.698227  0.711075
255.0    20.0  0.702246  0.004049  0.698227  0.711075
256.0    20.0  0.702246  0.004049  0.698227  0.711075
257.0    20.0  0.702246  0.004049  0.698227  0.711075
258.0    20.0  0.702246  0.004049  0.698227  0.711075
259.0    20.0  0.702246  0.004049  0.698227  0.711075
260.0    20.0  0.702246  0.004049  0.698227  0.711075
261.0    20.0  0.702246  0.004049  0.698227  0.711075
262.0    20.0  0.702246  0.004049  0.698227  0.711075
263.0    20.0  0.702246  0.004049  0.698227  0.711075
264.0    20.0  0.702246  0.004049  0.698227  0.711075
265.0    20.0  0.702246  0.004049  0.698227  0.711075
266.0    20.0  0.702246  0.004049  0.698227  0.711075
267.0    20.0  0.702246  0.004049  0.698227  0.711075
268.0    20.0  0.702246  0.004049  0.698227  0.711075
269.0    20.0  0.702567  0.003971  0.698227  0.711075
270.0    20.0  0.702567  0.003971  0.698227  0.711075
271.0    20.0  0.702888  0.003865  0.698227  0.711075
272.0    20.0  0.702888  0.003865  0.698227  0.711075
273.0    20.0  0.702888  0.003865  0.698227  0.711075
274.0    20.0  0.702888  0.003865  0.698227  0.711075
275.0    20.0  0.702888  0.003865  0.698227  0.711075
276.0    20.0  0.702888  0.003865  0.698227  0.711075
277.0    20.0  0.703371  0.003855  0.698227  0.711075
278.0    20.0  0.703371  0.003855  0.698227  0.711075
279.0    20.0  0.703371  0.003855  0.698227  0.711075
280.0    20.0  0.703371  0.003855  0.698227  0.711075
281.0    20.0  0.703532  0.003701  0.698227  0.711075
282.0    20.0  0.703532  0.003701  0.698227  0.711075
283.0    20.0  0.703532  0.003701  0.698227  0.711075
284.0    20.0  0.703532  0.003701  0.698227  0.711075
285.0    20.0  0.703532  0.003701  0.698227  0.711075
286.0    20.0  0.703532  0.003701  0.698227  0.711075
287.0    20.0  0.703532  0.003701  0.698227  0.711075
288.0    20.0  0.703532  0.003701  0.698227  0.711075
289.0    20.0  0.703532  0.003701  0.698227  0.711075
290.0    20.0  0.703532  0.003701  0.698227  0.711075
291.0    20.0  0.703532  0.003701  0.698227  0.711075
292.0    20.0  0.703532  0.003701  0.698227  0.711075
293.0    20.0  0.703532  0.003701  0.698227  0.711075
294.0    20.0  0.703693  0.003533  0.698227  0.711075
295.0    20.0  0.704014  0.003306  0.698227  0.711075
296.0    20.0  0.704014  0.003306  0.698227  0.711075
297.0    20.0  0.704014  0.003306  0.698227  0.711075
298.0    20.0  0.704014  0.003306  0.698227  0.711075
299.0    20.0  0.704175  0.003092  0.701447  0.711075
300.0    20.0  0.704335  0.003029  0.701447  0.711075
301.0    20.0  0.704335  0.003029  0.701447  0.711075
302.0    20.0  0.704335  0.003029  0.701447  0.711075
303.0    20.0  0.704335  0.003029  0.701447  0.711075
304.0    20.0  0.704335  0.003029  0.701447  0.711075
305.0    20.0  0.704656  0.003046  0.701447  0.711075
306.0    20.0  0.704656  0.003046  0.701447  0.711075
307.0    20.0  0.704656  0.003046  0.701447  0.711075
308.0    20.0  0.704656  0.003046  0.701447  0.711075
309.0    20.0  0.704656  0.003046  0.701447  0.711075
310.0    20.0  0.704656  0.003046  0.701447  0.711075
311.0    20.0  0.704656  0.003046  0.701447  0.711075
312.0    20.0  0.704656  0.003046  0.701447  0.711075
313.0    20.0  0.704656  0.003046  0.701447  0.711075
314.0    20.0  0.704656  0.003046  0.701447  0.711075
315.0    20.0  0.704816  0.002956  0.701447  0.711075
316.0    20.0  0.704816  0.002956  0.701447  0.711075
317.0    20.0  0.704816  0.002956  0.701447  0.711075
318.0    20.0  0.704816  0.002956  0.701447  0.711075
319.0    20.0  0.704816  0.002956  0.701447  0.711075
320.0    20.0  0.704816  0.002956  0.701447  0.711075
321.0    20.0  0.704816  0.002956  0.701447  0.711075
322.0    20.0  0.705779  0.004457  0.701447  0.720703
323.0    20.0  0.705779  0.004457  0.701447  0.720703
324.0    20.0  0.705779  0.004457  0.701447  0.720703
325.0    20.0  0.706261  0.004483  0.701447  0.720703
326.0    20.0  0.706261  0.004483  0.701447  0.720703
327.0    20.0  0.706261  0.004483  0.701447  0.720703
328.0    20.0  0.706261  0.004483  0.701447  0.720703
329.0    20.0  0.706261  0.004483  0.701447  0.720703
330.0    20.0  0.707545  0.005166  0.701447  0.720703
331.0    20.0  0.707545  0.005166  0.701447  0.720703
332.0    20.0  0.707705  0.005022  0.701447  0.720703
333.0    20.0  0.707865  0.004869  0.701447  0.720703
334.0    20.0  0.707865  0.004869  0.701447  0.720703
335.0    20.0  0.707865  0.004869  0.701447  0.720703
336.0    20.0  0.707865  0.004869  0.701447  0.720703
337.0    20.0  0.707865  0.004869  0.701447  0.720703
338.0    20.0  0.707865  0.004869  0.701447  0.720703
339.0    20.0  0.707865  0.004869  0.701447  0.720703
340.0    20.0  0.707865  0.004869  0.701447  0.720703
341.0    20.0  0.707865  0.004869  0.701447  0.720703
342.0    20.0  0.707865  0.004869  0.701447  0.720703
343.0    20.0  0.708186  0.004641  0.704651  0.720703
344.0    20.0  0.708186  0.004641  0.704651  0.720703
345.0    20.0  0.708186  0.004641  0.704651  0.720703
346.0    20.0  0.708186  0.004641  0.704651  0.720703
347.0    20.0  0.708186  0.004641  0.704651  0.720703
348.0    20.0  0.708347  0.004571  0.704651  0.720703
349.0    20.0  0.708347  0.004571  0.704651  0.720703
350.0    20.0  0.708829  0.004663  0.704651  0.720703
351.0    20.0  0.708829  0.004663  0.704651  0.720703
352.0    20.0  0.708829  0.004663  0.704651  0.720703
353.0    20.0  0.708829  0.004663  0.704651  0.720703
354.0    20.0  0.708829  0.004663  0.704651  0.720703
355.0    20.0  0.708829  0.004663  0.704651  0.720703
356.0    20.0  0.708829  0.004663  0.704651  0.720703
357.0    20.0  0.708990  0.004570  0.704651  0.720703
358.0    20.0  0.708990  0.004570  0.704651  0.720703
359.0    20.0  0.709151  0.004470  0.704651  0.720703
360.0    20.0  0.709151  0.004470  0.704651  0.720703
361.0    20.0  0.709151  0.004470  0.704651  0.720703
362.0    20.0  0.709151  0.004470  0.704651  0.720703
363.0    20.0  0.709312  0.004362  0.704651  0.720703
364.0    20.0  0.709312  0.004362  0.704651  0.720703
365.0    20.0  0.709633  0.004242  0.704651  0.720703
366.0    20.0  0.709633  0.004242  0.704651  0.720703
367.0    20.0  0.709633  0.004242  0.704651  0.720703
368.0    20.0  0.709633  0.004242  0.704651  0.720703
369.0    20.0  0.709794  0.004109  0.704651  0.720703
370.0    20.0  0.709794  0.004109  0.704651  0.720703
371.0    20.0  0.709794  0.004109  0.704651  0.720703
372.0    20.0  0.709794  0.004109  0.704651  0.720703
373.0    20.0  0.709794  0.004109  0.704651  0.720703
374.0    20.0  0.709794  0.004109  0.704651  0.720703
375.0    20.0  0.709955  0.003964  0.707870  0.720703
376.0    20.0  0.709955  0.003964  0.707870  0.720703
377.0    20.0  0.709955  0.003964  0.707870  0.720703
378.0    20.0  0.709955  0.003964  0.707870  0.720703
379.0    20.0  0.709955  0.003964  0.707870  0.720703
380.0    20.0  0.709955  0.003964  0.707870  0.720703
381.0    20.0  0.709955  0.003964  0.707870  0.720703
382.0    20.0  0.709955  0.003964  0.707870  0.720703
383.0    20.0  0.709955  0.003964  0.707870  0.720703
384.0    20.0  0.709955  0.003964  0.707870  0.720703
385.0    20.0  0.709955  0.003964  0.707870  0.720703
386.0    20.0  0.709955  0.003964  0.707870  0.720703
387.0    20.0  0.709955  0.003964  0.707870  0.720703
388.0    20.0  0.709955  0.003964  0.707870  0.720703
389.0    20.0  0.710436  0.004256  0.707870  0.720703
390.0    20.0  0.710436  0.004256  0.707870  0.720703
391.0    20.0  0.710436  0.004256  0.707870  0.720703
392.0    20.0  0.710436  0.004256  0.707870  0.720703
393.0    20.0  0.710436  0.004256  0.707870  0.720703
394.0    20.0  0.710436  0.004256  0.707870  0.720703
395.0    20.0  0.710436  0.004256  0.707870  0.720703
396.0    20.0  0.710436  0.004256  0.707870  0.720703
397.0    20.0  0.710436  0.004256  0.707870  0.720703
398.0    20.0  0.710436  0.004256  0.707870  0.720703
399.0    20.0  0.710436  0.004256  0.707870  0.720703
400.0    20.0  0.710436  0.004256  0.707870  0.720703
401.0    20.0  0.710436  0.004256  0.707870  0.720703
402.0    20.0  0.710436  0.004256  0.707870  0.720703
403.0    20.0  0.710436  0.004256  0.707870  0.720703
404.0    20.0  0.710436  0.004256  0.707870  0.720703
405.0    20.0  0.710436  0.004256  0.707870  0.720703
406.0    20.0  0.710436  0.004256  0.707870  0.720703
407.0    20.0  0.710436  0.004256  0.707870  0.720703
408.0    20.0  0.710757  0.004292  0.707870  0.720703
409.0    20.0  0.710757  0.004292  0.707870  0.720703
410.0    20.0  0.710757  0.004292  0.707870  0.720703
411.0    20.0  0.710757  0.004292  0.707870  0.720703
412.0    20.0  0.710757  0.004292  0.707870  0.720703
413.0    20.0  0.710757  0.004292  0.707870  0.720703
414.0    20.0  0.710757  0.004292  0.707870  0.720703
415.0    20.0  0.710757  0.004292  0.707870  0.720703
416.0    20.0  0.710757  0.004292  0.707870  0.720703
417.0    20.0  0.710757  0.004292  0.707870  0.720703
418.0    20.0  0.710757  0.004292  0.707870  0.720703
419.0    20.0  0.710757  0.004292  0.707870  0.720703
420.0    20.0  0.710757  0.004292  0.707870  0.720703
421.0    20.0  0.710757  0.004292  0.707870  0.720703
422.0    20.0  0.710757  0.004292  0.707870  0.720703
423.0    20.0  0.710757  0.004292  0.707870  0.720703
424.0    20.0  0.710757  0.004292  0.707870  0.720703
425.0    20.0  0.710757  0.004292  0.707870  0.720703
426.0    20.0  0.710757  0.004292  0.707870  0.720703
427.0    20.0  0.710757  0.004292  0.707870  0.720703
428.0    20.0  0.710757  0.004292  0.707870  0.720703
429.0    20.0  0.710757  0.004292  0.707870  0.720703
430.0    20.0  0.710757  0.004292  0.707870  0.720703
431.0    20.0  0.710757  0.004292  0.707870  0.720703
432.0    20.0  0.710917  0.004241  0.707870  0.720703
433.0    20.0  0.710917  0.004241  0.707870  0.720703
434.0    20.0  0.710917  0.004241  0.707870  0.720703
435.0    20.0  0.710917  0.004241  0.707870  0.720703
436.0    20.0  0.710917  0.004241  0.707870  0.720703
437.0    20.0  0.710917  0.004241  0.707870  0.720703
438.0    20.0  0.710917  0.004241  0.707870  0.720703
439.0    20.0  0.710917  0.004241  0.707870  0.720703
440.0    20.0  0.710917  0.004241  0.707870  0.720703
441.0    20.0  0.710917  0.004241  0.707870  0.720703
442.0    20.0  0.710917  0.004241  0.707870  0.720703
443.0    20.0  0.710917  0.004241  0.707870  0.720703
444.0    20.0  0.710917  0.004241  0.707870  0.720703
445.0    20.0  0.710917  0.004241  0.707870  0.720703
446.0    20.0  0.710917  0.004241  0.707870  0.720703
447.0    20.0  0.710917  0.004241  0.707870  0.720703
448.0    20.0  0.710917  0.004241  0.707870  0.720703
449.0    20.0  0.710917  0.004241  0.707870  0.720703
450.0    20.0  0.710917  0.004241  0.707870  0.720703
451.0    20.0  0.710917  0.004241  0.707870  0.720703
452.0    20.0  0.710917  0.004241  0.707870  0.720703
453.0    20.0  0.710917  0.004241  0.707870  0.720703
454.0    20.0  0.710917  0.004241  0.707870  0.720703
455.0    20.0  0.710917  0.004241  0.707870  0.720703
456.0    20.0  0.711077  0.004183  0.707870  0.720703
457.0    20.0  0.711077  0.004183  0.707870  0.720703
458.0    20.0  0.711077  0.004183  0.707870  0.720703
459.0    20.0  0.711077  0.004183  0.707870  0.720703
460.0    20.0  0.711077  0.004183  0.707870  0.720703
461.0    20.0  0.711077  0.004183  0.707870  0.720703
462.0    20.0  0.711237  0.004118  0.707870  0.720703
463.0    20.0  0.711237  0.004118  0.707870  0.720703
464.0    20.0  0.711237  0.004118  0.707870  0.720703
465.0    20.0  0.711719  0.004256  0.707870  0.720703
466.0    20.0  0.711719  0.004256  0.707870  0.720703
467.0    20.0  0.712842  0.004591  0.707870  0.720703
468.0    20.0  0.712842  0.004591  0.707870  0.720703
469.0    20.0  0.712842  0.004591  0.707870  0.720703
470.0    20.0  0.712842  0.004591  0.707870  0.720703
471.0    20.0  0.712842  0.004591  0.707870  0.720703
472.0    20.0  0.712842  0.004591  0.707870  0.720703
473.0    20.0  0.712842  0.004591  0.707870  0.720703
474.0    20.0  0.712842  0.004591  0.707870  0.720703
475.0    20.0  0.712842  0.004591  0.707870  0.720703
476.0    20.0  0.712842  0.004591  0.707870  0.720703
477.0    20.0  0.712842  0.004591  0.707870  0.720703
478.0    20.0  0.713322  0.004317  0.707870  0.720703
479.0    20.0  0.713643  0.004135  0.707870  0.720703
480.0    20.0  0.713643  0.004135  0.707870  0.720703
481.0    20.0  0.713643  0.004135  0.707870  0.720703
482.0    20.0  0.713643  0.004135  0.707870  0.720703
483.0    20.0  0.713643  0.004135  0.707870  0.720703
484.0    20.0  0.713643  0.004135  0.707870  0.720703
485.0    20.0  0.713643  0.004135  0.707870  0.720703
486.0    20.0  0.713643  0.004135  0.707870  0.720703
487.0    20.0  0.713643  0.004135  0.707870  0.720703
488.0    20.0  0.713803  0.003966  0.707870  0.720703
489.0    20.0  0.713803  0.003966  0.707870  0.720703
490.0    20.0  0.713803  0.003966  0.707870  0.720703
491.0    20.0  0.714285  0.003798  0.707870  0.720703
492.0    20.0  0.714285  0.003798  0.707870  0.720703
493.0    20.0  0.714285  0.003798  0.707870  0.720703
494.0    20.0  0.714285  0.003798  0.707870  0.720703
495.0    20.0  0.714285  0.003798  0.707870  0.720703
496.0    20.0  0.714285  0.003798  0.707870  0.720703
497.0    20.0  0.714285  0.003798  0.707870  0.720703
498.0    20.0  0.714285  0.003798  0.707870  0.720703
499.0    20.0  0.714285  0.003798  0.707870  0.720703
