gen  nevals       avg       std       min       max
  0.0    20.0  0.608644  0.060619  0.506180  0.703705
  1.0    20.0  0.666669  0.021385  0.629623  0.703705
  2.0    20.0  0.680251  0.012283  0.654327  0.703705
  3.0    20.0  0.688892  0.018142  0.679016  0.753082
  4.0    20.0  0.696298  0.023551  0.679016  0.753082
  5.0    20.0  0.701236  0.021944  0.679016  0.753082
  6.0    20.0  0.716050  0.031715  0.679016  0.802475
  7.0    20.0  0.727160  0.030714  0.703705  0.802475
  8.0    20.0  0.735801  0.030340  0.703705  0.802475
  9.0    20.0  0.748145  0.026592  0.703705  0.802475
 10.0    20.0  0.758022  0.024193  0.728394  0.802475
 11.0    20.0  0.760490  0.022223  0.728394  0.802475
 12.0    20.0  0.767897  0.016380  0.753082  0.802475
 13.0    20.0  0.772836  0.018480  0.753082  0.802475
 14.0    20.0  0.777775  0.017463  0.753082  0.802475
 15.0    20.0  0.785183  0.017638  0.753082  0.827164
 16.0    20.0  0.788887  0.014561  0.777771  0.827164
 17.0    20.0  0.790122  0.014613  0.777771  0.827164
 18.0    20.0  0.791357  0.014561  0.777771  0.827164
 19.0    20.0  0.791357  0.014561  0.777771  0.827164
 20.0    20.0  0.791357  0.014561  0.777771  0.827164
 21.0    20.0  0.792593  0.014403  0.777771  0.827164
 22.0    20.0  0.792593  0.014403  0.777771  0.827164
 23.0    20.0  0.797533  0.014819  0.777771  0.827164
 24.0    20.0  0.801238  0.012287  0.777771  0.827164
 25.0    20.0  0.802473  0.011045  0.777771  0.827164
 26.0    20.0  0.806178  0.008816  0.802475  0.827164
 27.0    20.0  0.807413  0.009875  0.802475  0.827164
 28.0    20.0  0.808647  0.010691  0.802475  0.827164
 29.0    20.0  0.809882  0.011314  0.802475  0.827164
 30.0    20.0  0.809882  0.011314  0.802475  0.827164
 31.0    20.0  0.811116  0.011776  0.802475  0.827164
 32.0    20.0  0.811116  0.011776  0.802475  0.827164
 33.0    20.0  0.811116  0.011776  0.802475  0.827164
 34.0    20.0  0.813585  0.012283  0.802475  0.827164
 35.0    20.0  0.813585  0.012283  0.802475  0.827164
 36.0    20.0  0.813585  0.012283  0.802475  0.827164
 37.0    20.0  0.816054  0.012283  0.802475  0.827164
 38.0    20.0  0.816054  0.012283  0.802475  0.827164
 39.0    20.0  0.816054  0.012283  0.802475  0.827164
 40.0    20.0  0.817288  0.012095  0.802475  0.827164
 41.0    20.0  0.822226  0.016745  0.802475  0.876541
 42.0    20.0  0.825929  0.016516  0.802475  0.876541
 43.0    20.0  0.825929  0.016516  0.802475  0.876541
 44.0    20.0  0.827164  0.015614  0.802475  0.876541
 45.0    20.0  0.830867  0.014129  0.802475  0.876541
 46.0    20.0  0.833336  0.013238  0.827164  0.876541
 47.0    20.0  0.833336  0.013238  0.827164  0.876541
 48.0    20.0  0.833336  0.013238  0.827164  0.876541
 49.0    20.0  0.833336  0.013238  0.827164  0.876541
 50.0    20.0  0.834570  0.013746  0.827164  0.876541
 51.0    20.0  0.838274  0.016516  0.827164  0.876541
 52.0    20.0  0.839508  0.016562  0.827164  0.876541
 53.0    20.0  0.841977  0.018142  0.827164  0.876541
 54.0    20.0  0.844446  0.017631  0.827164  0.876541
 55.0    20.0  0.845680  0.017238  0.827164  0.876541
 56.0    20.0  0.846915  0.016745  0.827164  0.876541
 57.0    20.0  0.846915  0.016745  0.827164  0.876541
 58.0    20.0  0.850618  0.014554  0.827164  0.876541
 59.0    20.0  0.855556  0.011776  0.827164  0.876541
 60.0    20.0  0.858025  0.010691  0.851852  0.876541
 61.0    20.0  0.859259  0.011314  0.851852  0.876541
 62.0    20.0  0.861728  0.012095  0.851852  0.876541
 63.0    20.0  0.862962  0.012283  0.851852  0.876541
 64.0    20.0  0.864197  0.012344  0.851852  0.876541
 65.0    20.0  0.865431  0.012283  0.851852  0.876541
 66.0    20.0  0.867900  0.011776  0.851852  0.876541
 67.0    20.0  0.869135  0.011314  0.851852  0.876541
 68.0    20.0  0.871603  0.009875  0.851852  0.876541
 69.0    20.0  0.872838  0.008816  0.851852  0.876541
 70.0    20.0  0.874072  0.007407  0.851852  0.876541
 71.0    20.0  0.875307  0.005381  0.851852  0.876541
 72.0    20.0  0.875307  0.005381  0.851852  0.876541
 73.0    20.0  0.875307  0.005381  0.851852  0.876541
 74.0    20.0  0.877776  0.005381  0.876541  0.901230
 75.0    20.0  0.877776  0.005381  0.876541  0.901230
 76.0    20.0  0.877776  0.005381  0.876541  0.901230
 77.0    20.0  0.877776  0.005381  0.876541  0.901230
 78.0    20.0  0.877776  0.005381  0.876541  0.901230
 79.0    20.0  0.879010  0.007407  0.876541  0.901230
 80.0    20.0  0.879010  0.007407  0.876541  0.901230
 81.0    20.0  0.879010  0.007407  0.876541  0.901230
 82.0    20.0  0.879010  0.007407  0.876541  0.901230
 83.0    20.0  0.879010  0.007407  0.876541  0.901230
 84.0    20.0  0.880244  0.008816  0.876541  0.901230
 85.0    20.0  0.880244  0.008816  0.876541  0.901230
 86.0    20.0  0.881479  0.009875  0.876541  0.901230
 87.0    20.0  0.881479  0.009875  0.876541  0.901230
 88.0    20.0  0.881479  0.009875  0.876541  0.901230
 89.0    20.0  0.882713  0.010691  0.876541  0.901230
 90.0    20.0  0.882713  0.010691  0.876541  0.901230
 91.0    20.0  0.882713  0.010691  0.876541  0.901230
 92.0    20.0  0.882713  0.010691  0.876541  0.901230
 93.0    20.0  0.882713  0.010691  0.876541  0.901230
 94.0    20.0  0.882713  0.010691  0.876541  0.901230
 95.0    20.0  0.882713  0.010691  0.876541  0.901230
 96.0    20.0  0.886417  0.014396  0.876541  0.925919
 97.0    20.0  0.886417  0.014396  0.876541  0.925919
 98.0    20.0  0.886417  0.014396  0.876541  0.925919
 99.0    20.0  0.886417  0.014396  0.876541  0.925919
100.0    20.0  0.886417  0.014396  0.876541  0.925919
101.0    20.0  0.886417  0.014396  0.876541  0.925919
102.0    20.0  0.886417  0.014396  0.876541  0.925919
103.0    20.0  0.888885  0.014606  0.876541  0.925919
104.0    20.0  0.891354  0.016377  0.876541  0.925919
105.0    20.0  0.891354  0.016377  0.876541  0.925919
106.0    20.0  0.895058  0.017238  0.876541  0.925919
107.0    20.0  0.896292  0.016745  0.876541  0.925919
108.0    20.0  0.896292  0.016745  0.876541  0.925919
109.0    20.0  0.898761  0.017282  0.876541  0.925919
110.0    20.0  0.898761  0.017282  0.876541  0.925919
111.0    20.0  0.898761  0.017282  0.876541  0.925919
112.0    20.0  0.898761  0.017282  0.876541  0.925919
113.0    20.0  0.898761  0.017282  0.876541  0.925919
114.0    20.0  0.901230  0.015614  0.876541  0.925919
115.0    20.0  0.901230  0.015614  0.876541  0.925919
116.0    20.0  0.903699  0.015418  0.876541  0.925919
117.0    20.0  0.904933  0.014129  0.876541  0.925919
118.0    20.0  0.906168  0.012589  0.876541  0.925919
119.0    20.0  0.907402  0.010691  0.901230  0.925919
120.0    20.0  0.907402  0.010691  0.901230  0.925919
121.0    20.0  0.907402  0.010691  0.901230  0.925919
122.0    20.0  0.908636  0.011314  0.901230  0.925919
123.0    20.0  0.909871  0.011776  0.901230  0.925919
124.0    20.0  0.909871  0.011776  0.901230  0.925919
125.0    20.0  0.909871  0.011776  0.901230  0.925919
126.0    20.0  0.911105  0.012095  0.901230  0.925919
127.0    20.0  0.911105  0.012095  0.901230  0.925919
128.0    20.0  0.911105  0.012095  0.901230  0.925919
129.0    20.0  0.911105  0.012095  0.901230  0.925919
130.0    20.0  0.913574  0.012344  0.901230  0.925919
131.0    20.0  0.913574  0.012344  0.901230  0.925919
132.0    20.0  0.913574  0.012344  0.901230  0.925919
133.0    20.0  0.913574  0.012344  0.901230  0.925919
134.0    20.0  0.914809  0.012283  0.901230  0.925919
135.0    20.0  0.914809  0.012283  0.901230  0.925919
136.0    20.0  0.914809  0.012283  0.901230  0.925919
137.0    20.0  0.914809  0.012283  0.901230  0.925919
138.0    20.0  0.914809  0.012283  0.901230  0.925919
139.0    20.0  0.914809  0.012283  0.901230  0.925919
140.0    20.0  0.914809  0.012283  0.901230  0.925919
141.0    20.0  0.916043  0.012095  0.901230  0.925919
142.0    20.0  0.916043  0.012095  0.901230  0.925919
143.0    20.0  0.918513  0.013748  0.901230  0.950623
144.0    20.0  0.918513  0.013748  0.901230  0.950623
145.0    20.0  0.918513  0.013748  0.901230  0.950623
146.0    20.0  0.919747  0.013240  0.901230  0.950623
147.0    20.0  0.919747  0.013240  0.901230  0.950623
148.0    20.0  0.919747  0.013240  0.901230  0.950623
149.0    20.0  0.920982  0.012591  0.901230  0.950623
150.0    20.0  0.923450  0.010764  0.901230  0.950623
151.0    20.0  0.923450  0.010764  0.901230  0.950623
152.0    20.0  0.923450  0.010764  0.901230  0.950623
153.0    20.0  0.923450  0.010764  0.901230  0.950623
154.0    20.0  0.923450  0.010764  0.901230  0.950623
155.0    20.0  0.925920  0.011045  0.901230  0.950623
156.0    20.0  0.925920  0.011045  0.901230  0.950623
157.0    20.0  0.928390  0.010766  0.901230  0.950623
158.0    20.0  0.929624  0.008821  0.925919  0.950623
159.0    20.0  0.929624  0.008821  0.925919  0.950623
160.0    20.0  0.929624  0.008821  0.925919  0.950623
161.0    20.0  0.929624  0.008821  0.925919  0.950623
162.0    20.0  0.929624  0.008821  0.925919  0.950623
163.0    20.0  0.929624  0.008821  0.925919  0.950623
164.0    20.0  0.929624  0.008821  0.925919  0.950623
165.0    20.0  0.929624  0.008821  0.925919  0.950623
166.0    20.0  0.929624  0.008821  0.925919  0.950623
167.0    20.0  0.930859  0.009882  0.925919  0.950623
168.0    20.0  0.932095  0.010697  0.925919  0.950623
169.0    20.0  0.932095  0.010697  0.925919  0.950623
170.0    20.0  0.932095  0.010697  0.925919  0.950623
171.0    20.0  0.932095  0.010697  0.925919  0.950623
172.0    20.0  0.932095  0.010697  0.925919  0.950623
173.0    20.0  0.932095  0.010697  0.925919  0.950623
174.0    20.0  0.932095  0.010697  0.925919  0.950623
175.0    20.0  0.932095  0.010697  0.925919  0.950623
176.0    20.0  0.932095  0.010697  0.925919  0.950623
177.0    20.0  0.932095  0.010697  0.925919  0.950623
178.0    20.0  0.932095  0.010697  0.925919  0.950623
179.0    20.0  0.933330  0.011321  0.925919  0.950623
180.0    20.0  0.933330  0.011321  0.925919  0.950623
181.0    20.0  0.933330  0.011321  0.925919  0.950623
182.0    20.0  0.933330  0.011321  0.925919  0.950623
183.0    20.0  0.933330  0.011321  0.925919  0.950623
184.0    20.0  0.933330  0.011321  0.925919  0.950623
185.0    20.0  0.935800  0.012102  0.925919  0.950623
186.0    20.0  0.937035  0.012290  0.925919  0.950623
187.0    20.0  0.939506  0.012290  0.925919  0.950623
188.0    20.0  0.939506  0.012290  0.925919  0.950623
189.0    20.0  0.940741  0.012102  0.925919  0.950623
190.0    20.0  0.940741  0.012102  0.925919  0.950623
191.0    20.0  0.941976  0.011783  0.925919  0.950623
192.0    20.0  0.941976  0.011783  0.925919  0.950623
193.0    20.0  0.941976  0.011783  0.925919  0.950623
194.0    20.0  0.941976  0.011783  0.925919  0.950623
195.0    20.0  0.941976  0.011783  0.925919  0.950623
196.0    20.0  0.941976  0.011783  0.925919  0.950623
197.0    20.0  0.941976  0.011783  0.925919  0.950623
198.0    20.0  0.943211  0.011321  0.925919  0.950623
199.0    20.0  0.943211  0.011321  0.925919  0.950623
200.0    20.0  0.943211  0.011321  0.925919  0.950623
201.0    20.0  0.943211  0.011321  0.925919  0.950623
202.0    20.0  0.943211  0.011321  0.925919  0.950623
203.0    20.0  0.944447  0.010697  0.925919  0.950623
204.0    20.0  0.945682  0.009882  0.925919  0.950623
205.0    20.0  0.945682  0.009882  0.925919  0.950623
206.0    20.0  0.945682  0.009882  0.925919  0.950623
207.0    20.0  0.945682  0.009882  0.925919  0.950623
208.0    20.0  0.946917  0.008821  0.925919  0.950623
209.0    20.0  0.946917  0.008821  0.925919  0.950623
210.0    20.0  0.946917  0.008821  0.925919  0.950623
211.0    20.0  0.946917  0.008821  0.925919  0.950623
212.0    20.0  0.946917  0.008821  0.925919  0.950623
213.0    20.0  0.948152  0.007411  0.925919  0.950623
214.0    20.0  0.950623  0.000000  0.950623  0.950623
215.0    20.0  0.950623  0.000000  0.950623  0.950623
216.0    20.0  0.950623  0.000000  0.950623  0.950623
217.0    20.0  0.950623  0.000000  0.950623  0.950623
218.0    20.0  0.950623  0.000000  0.950623  0.950623
219.0    20.0  0.950623  0.000000  0.950623  0.950623
220.0    20.0  0.950623  0.000000  0.950623  0.950623
221.0    20.0  0.950623  0.000000  0.950623  0.950623
222.0    20.0  0.950623  0.000000  0.950623  0.950623
223.0    20.0  0.950623  0.000000  0.950623  0.950623
224.0    20.0  0.950623  0.000000  0.950623  0.950623
225.0    20.0  0.950623  0.000000  0.950623  0.950623
226.0    20.0  0.950623  0.000000  0.950623  0.950623
227.0    20.0  0.950623  0.000000  0.950623  0.950623
228.0    20.0  0.950623  0.000000  0.950623  0.950623
229.0    20.0  0.950623  0.000000  0.950623  0.950623
230.0    20.0  0.950623  0.000000  0.950623  0.950623
231.0    20.0  0.950623  0.000000  0.950623  0.950623
232.0    20.0  0.950623  0.000000  0.950623  0.950623
233.0    20.0  0.950623  0.000000  0.950623  0.950623
234.0    20.0  0.950623  0.000000  0.950623  0.950623
235.0    20.0  0.950623  0.000000  0.950623  0.950623
236.0    20.0  0.950623  0.000000  0.950623  0.950623
237.0    20.0  0.950623  0.000000  0.950623  0.950623
238.0    20.0  0.950623  0.000000  0.950623  0.950623
239.0    20.0  0.950623  0.000000  0.950623  0.950623
240.0    20.0  0.950623  0.000000  0.950623  0.950623
241.0    20.0  0.950623  0.000000  0.950623  0.950623
242.0    20.0  0.950623  0.000000  0.950623  0.950623
243.0    20.0  0.950623  0.000000  0.950623  0.950623
244.0    20.0  0.950623  0.000000  0.950623  0.950623
245.0    20.0  0.950623  0.000000  0.950623  0.950623
246.0    20.0  0.950623  0.000000  0.950623  0.950623
247.0    20.0  0.950623  0.000000  0.950623  0.950623
248.0    20.0  0.950623  0.000000  0.950623  0.950623
249.0    20.0  0.950623  0.000000  0.950623  0.950623
250.0    20.0  0.950623  0.000000  0.950623  0.950623
251.0    20.0  0.950623  0.000000  0.950623  0.950623
252.0    20.0  0.950623  0.000000  0.950623  0.950623
253.0    20.0  0.950623  0.000000  0.950623  0.950623
254.0    20.0  0.950623  0.000000  0.950623  0.950623
255.0    20.0  0.950623  0.000000  0.950623  0.950623
256.0    20.0  0.950623  0.000000  0.950623  0.950623
257.0    20.0  0.950623  0.000000  0.950623  0.950623
258.0    20.0  0.950623  0.000000  0.950623  0.950623
259.0    20.0  0.950623  0.000000  0.950623  0.950623
260.0    20.0  0.950623  0.000000  0.950623  0.950623
261.0    20.0  0.950623  0.000000  0.950623  0.950623
262.0    20.0  0.950623  0.000000  0.950623  0.950623
263.0    20.0  0.950623  0.000000  0.950623  0.950623
264.0    20.0  0.950623  0.000000  0.950623  0.950623
265.0    20.0  0.950623  0.000000  0.950623  0.950623
266.0    20.0  0.950623  0.000000  0.950623  0.950623
267.0    20.0  0.950623  0.000000  0.950623  0.950623
268.0    20.0  0.950623  0.000000  0.950623  0.950623
269.0    20.0  0.950623  0.000000  0.950623  0.950623
270.0    20.0  0.950623  0.000000  0.950623  0.950623
271.0    20.0  0.950623  0.000000  0.950623  0.950623
272.0    20.0  0.950623  0.000000  0.950623  0.950623
273.0    20.0  0.950623  0.000000  0.950623  0.950623
274.0    20.0  0.950623  0.000000  0.950623  0.950623
275.0    20.0  0.950623  0.000000  0.950623  0.950623
276.0    20.0  0.950623  0.000000  0.950623  0.950623
277.0    20.0  0.950623  0.000000  0.950623  0.950623
278.0    20.0  0.950623  0.000000  0.950623  0.950623
279.0    20.0  0.950623  0.000000  0.950623  0.950623
280.0    20.0  0.950623  0.000000  0.950623  0.950623
281.0    20.0  0.950623  0.000000  0.950623  0.950623
282.0    20.0  0.950623  0.000000  0.950623  0.950623
283.0    20.0  0.950623  0.000000  0.950623  0.950623
284.0    20.0  0.950623  0.000000  0.950623  0.950623
285.0    20.0  0.950623  0.000000  0.950623  0.950623
286.0    20.0  0.950623  0.000000  0.950623  0.950623
287.0    20.0  0.950623  0.000000  0.950623  0.950623
288.0    20.0  0.950623  0.000000  0.950623  0.950623
289.0    20.0  0.950623  0.000000  0.950623  0.950623
290.0    20.0  0.950623  0.000000  0.950623  0.950623
291.0    20.0  0.950623  0.000000  0.950623  0.950623
292.0    20.0  0.950623  0.000000  0.950623  0.950623
293.0    20.0  0.950623  0.000000  0.950623  0.950623
294.0    20.0  0.950623  0.000000  0.950623  0.950623
295.0    20.0  0.950623  0.000000  0.950623  0.950623
296.0    20.0  0.950623  0.000000  0.950623  0.950623
297.0    20.0  0.950623  0.000000  0.950623  0.950623
298.0    20.0  0.950623  0.000000  0.950623  0.950623
299.0    20.0  0.950623  0.000000  0.950623  0.950623
300.0    20.0  0.950623  0.000000  0.950623  0.950623
301.0    20.0  0.950623  0.000000  0.950623  0.950623
302.0    20.0  0.950623  0.000000  0.950623  0.950623
303.0    20.0  0.950623  0.000000  0.950623  0.950623
304.0    20.0  0.950623  0.000000  0.950623  0.950623
305.0    20.0  0.950623  0.000000  0.950623  0.950623
306.0    20.0  0.950623  0.000000  0.950623  0.950623
307.0    20.0  0.950623  0.000000  0.950623  0.950623
308.0    20.0  0.950623  0.000000  0.950623  0.950623
309.0    20.0  0.950623  0.000000  0.950623  0.950623
310.0    20.0  0.950623  0.000000  0.950623  0.950623
311.0    20.0  0.950623  0.000000  0.950623  0.950623
312.0    20.0  0.950623  0.000000  0.950623  0.950623
313.0    20.0  0.950623  0.000000  0.950623  0.950623
314.0    20.0  0.950623  0.000000  0.950623  0.950623
315.0    20.0  0.950623  0.000000  0.950623  0.950623
316.0    20.0  0.950623  0.000000  0.950623  0.950623
317.0    20.0  0.950623  0.000000  0.950623  0.950623
318.0    20.0  0.950623  0.000000  0.950623  0.950623
319.0    20.0  0.950623  0.000000  0.950623  0.950623
320.0    20.0  0.950623  0.000000  0.950623  0.950623
321.0    20.0  0.950623  0.000000  0.950623  0.950623
322.0    20.0  0.950623  0.000000  0.950623  0.950623
323.0    20.0  0.950623  0.000000  0.950623  0.950623
324.0    20.0  0.950623  0.000000  0.950623  0.950623
325.0    20.0  0.950623  0.000000  0.950623  0.950623
326.0    20.0  0.950623  0.000000  0.950623  0.950623
327.0    20.0  0.950623  0.000000  0.950623  0.950623
328.0    20.0  0.950623  0.000000  0.950623  0.950623
329.0    20.0  0.950623  0.000000  0.950623  0.950623
330.0    20.0  0.950623  0.000000  0.950623  0.950623
331.0    20.0  0.950623  0.000000  0.950623  0.950623
332.0    20.0  0.950623  0.000000  0.950623  0.950623
333.0    20.0  0.950623  0.000000  0.950623  0.950623
334.0    20.0  0.950623  0.000000  0.950623  0.950623
335.0    20.0  0.950623  0.000000  0.950623  0.950623
336.0    20.0  0.950623  0.000000  0.950623  0.950623
337.0    20.0  0.950623  0.000000  0.950623  0.950623
338.0    20.0  0.950623  0.000000  0.950623  0.950623
339.0    20.0  0.950623  0.000000  0.950623  0.950623
340.0    20.0  0.950623  0.000000  0.950623  0.950623
341.0    20.0  0.950623  0.000000  0.950623  0.950623
342.0    20.0  0.950623  0.000000  0.950623  0.950623
343.0    20.0  0.950623  0.000000  0.950623  0.950623
344.0    20.0  0.950623  0.000000  0.950623  0.950623
345.0    20.0  0.950623  0.000000  0.950623  0.950623
346.0    20.0  0.950623  0.000000  0.950623  0.950623
347.0    20.0  0.950623  0.000000  0.950623  0.950623
348.0    20.0  0.950623  0.000000  0.950623  0.950623
349.0    20.0  0.950623  0.000000  0.950623  0.950623
350.0    20.0  0.950623  0.000000  0.950623  0.950623
351.0    20.0  0.950623  0.000000  0.950623  0.950623
352.0    20.0  0.950623  0.000000  0.950623  0.950623
353.0    20.0  0.950623  0.000000  0.950623  0.950623
354.0    20.0  0.950623  0.000000  0.950623  0.950623
355.0    20.0  0.950623  0.000000  0.950623  0.950623
356.0    20.0  0.950623  0.000000  0.950623  0.950623
357.0    20.0  0.950623  0.000000  0.950623  0.950623
358.0    20.0  0.950623  0.000000  0.950623  0.950623
359.0    20.0  0.950623  0.000000  0.950623  0.950623
360.0    20.0  0.950623  0.000000  0.950623  0.950623
361.0    20.0  0.950623  0.000000  0.950623  0.950623
362.0    20.0  0.950623  0.000000  0.950623  0.950623
363.0    20.0  0.950623  0.000000  0.950623  0.950623
364.0    20.0  0.950623  0.000000  0.950623  0.950623
365.0    20.0  0.950623  0.000000  0.950623  0.950623
366.0    20.0  0.950623  0.000000  0.950623  0.950623
367.0    20.0  0.950623  0.000000  0.950623  0.950623
368.0    20.0  0.950623  0.000000  0.950623  0.950623
369.0    20.0  0.950623  0.000000  0.950623  0.950623
370.0    20.0  0.950623  0.000000  0.950623  0.950623
371.0    20.0  0.950623  0.000000  0.950623  0.950623
372.0    20.0  0.950623  0.000000  0.950623  0.950623
373.0    20.0  0.950623  0.000000  0.950623  0.950623
374.0    20.0  0.950623  0.000000  0.950623  0.950623
375.0    20.0  0.950623  0.000000  0.950623  0.950623
376.0    20.0  0.950623  0.000000  0.950623  0.950623
377.0    20.0  0.950623  0.000000  0.950623  0.950623
378.0    20.0  0.950623  0.000000  0.950623  0.950623
379.0    20.0  0.950623  0.000000  0.950623  0.950623
380.0    20.0  0.950623  0.000000  0.950623  0.950623
381.0    20.0  0.950623  0.000000  0.950623  0.950623
382.0    20.0  0.950623  0.000000  0.950623  0.950623
383.0    20.0  0.950623  0.000000  0.950623  0.950623
384.0    20.0  0.950623  0.000000  0.950623  0.950623
385.0    20.0  0.950623  0.000000  0.950623  0.950623
386.0    20.0  0.950623  0.000000  0.950623  0.950623
387.0    20.0  0.950623  0.000000  0.950623  0.950623
388.0    20.0  0.950623  0.000000  0.950623  0.950623
389.0    20.0  0.950623  0.000000  0.950623  0.950623
390.0    20.0  0.950623  0.000000  0.950623  0.950623
391.0    20.0  0.950623  0.000000  0.950623  0.950623
392.0    20.0  0.950623  0.000000  0.950623  0.950623
393.0    20.0  0.950623  0.000000  0.950623  0.950623
394.0    20.0  0.950623  0.000000  0.950623  0.950623
395.0    20.0  0.950623  0.000000  0.950623  0.950623
396.0    20.0  0.950623  0.000000  0.950623  0.950623
397.0    20.0  0.950623  0.000000  0.950623  0.950623
398.0    20.0  0.950623  0.000000  0.950623  0.950623
399.0    20.0  0.950623  0.000000  0.950623  0.950623
400.0    20.0  0.950623  0.000000  0.950623  0.950623
401.0    20.0  0.950623  0.000000  0.950623  0.950623
402.0    20.0  0.950623  0.000000  0.950623  0.950623
403.0    20.0  0.950623  0.000000  0.950623  0.950623
404.0    20.0  0.950623  0.000000  0.950623  0.950623
405.0    20.0  0.950623  0.000000  0.950623  0.950623
406.0    20.0  0.950623  0.000000  0.950623  0.950623
407.0    20.0  0.950623  0.000000  0.950623  0.950623
408.0    20.0  0.950623  0.000000  0.950623  0.950623
409.0    20.0  0.950623  0.000000  0.950623  0.950623
410.0    20.0  0.950623  0.000000  0.950623  0.950623
411.0    20.0  0.950623  0.000000  0.950623  0.950623
412.0    20.0  0.950623  0.000000  0.950623  0.950623
413.0    20.0  0.950623  0.000000  0.950623  0.950623
414.0    20.0  0.950623  0.000000  0.950623  0.950623
415.0    20.0  0.950623  0.000000  0.950623  0.950623
416.0    20.0  0.950623  0.000000  0.950623  0.950623
417.0    20.0  0.950623  0.000000  0.950623  0.950623
418.0    20.0  0.950623  0.000000  0.950623  0.950623
419.0    20.0  0.950623  0.000000  0.950623  0.950623
420.0    20.0  0.950623  0.000000  0.950623  0.950623
421.0    20.0  0.950623  0.000000  0.950623  0.950623
422.0    20.0  0.950623  0.000000  0.950623  0.950623
423.0    20.0  0.950623  0.000000  0.950623  0.950623
424.0    20.0  0.950623  0.000000  0.950623  0.950623
425.0    20.0  0.950623  0.000000  0.950623  0.950623
426.0    20.0  0.950623  0.000000  0.950623  0.950623
427.0    20.0  0.950623  0.000000  0.950623  0.950623
428.0    20.0  0.950623  0.000000  0.950623  0.950623
429.0    20.0  0.950623  0.000000  0.950623  0.950623
430.0    20.0  0.950623  0.000000  0.950623  0.950623
431.0    20.0  0.950623  0.000000  0.950623  0.950623
432.0    20.0  0.950623  0.000000  0.950623  0.950623
433.0    20.0  0.950623  0.000000  0.950623  0.950623
434.0    20.0  0.950623  0.000000  0.950623  0.950623
435.0    20.0  0.950623  0.000000  0.950623  0.950623
436.0    20.0  0.950623  0.000000  0.950623  0.950623
437.0    20.0  0.950623  0.000000  0.950623  0.950623
438.0    20.0  0.950623  0.000000  0.950623  0.950623
439.0    20.0  0.950623  0.000000  0.950623  0.950623
440.0    20.0  0.950623  0.000000  0.950623  0.950623
441.0    20.0  0.950623  0.000000  0.950623  0.950623
442.0    20.0  0.950623  0.000000  0.950623  0.950623
443.0    20.0  0.950623  0.000000  0.950623  0.950623
444.0    20.0  0.950623  0.000000  0.950623  0.950623
445.0    20.0  0.950623  0.000000  0.950623  0.950623
446.0    20.0  0.950623  0.000000  0.950623  0.950623
447.0    20.0  0.950623  0.000000  0.950623  0.950623
448.0    20.0  0.950623  0.000000  0.950623  0.950623
449.0    20.0  0.950623  0.000000  0.950623  0.950623
450.0    20.0  0.950623  0.000000  0.950623  0.950623
451.0    20.0  0.950623  0.000000  0.950623  0.950623
452.0    20.0  0.950623  0.000000  0.950623  0.950623
453.0    20.0  0.950623  0.000000  0.950623  0.950623
454.0    20.0  0.950623  0.000000  0.950623  0.950623
455.0    20.0  0.950623  0.000000  0.950623  0.950623
456.0    20.0  0.950623  0.000000  0.950623  0.950623
457.0    20.0  0.950623  0.000000  0.950623  0.950623
458.0    20.0  0.950623  0.000000  0.950623  0.950623
459.0    20.0  0.950623  0.000000  0.950623  0.950623
460.0    20.0  0.950623  0.000000  0.950623  0.950623
461.0    20.0  0.950623  0.000000  0.950623  0.950623
462.0    20.0  0.950623  0.000000  0.950623  0.950623
463.0    20.0  0.950623  0.000000  0.950623  0.950623
464.0    20.0  0.950623  0.000000  0.950623  0.950623
465.0    20.0  0.950623  0.000000  0.950623  0.950623
466.0    20.0  0.950623  0.000000  0.950623  0.950623
467.0    20.0  0.950623  0.000000  0.950623  0.950623
468.0    20.0  0.950623  0.000000  0.950623  0.950623
469.0    20.0  0.950623  0.000000  0.950623  0.950623
470.0    20.0  0.950623  0.000000  0.950623  0.950623
471.0    20.0  0.950623  0.000000  0.950623  0.950623
472.0    20.0  0.950623  0.000000  0.950623  0.950623
473.0    20.0  0.950623  0.000000  0.950623  0.950623
474.0    20.0  0.950623  0.000000  0.950623  0.950623
475.0    20.0  0.950623  0.000000  0.950623  0.950623
476.0    20.0  0.950623  0.000000  0.950623  0.950623
477.0    20.0  0.950623  0.000000  0.950623  0.950623
478.0    20.0  0.950623  0.000000  0.950623  0.950623
479.0    20.0  0.950623  0.000000  0.950623  0.950623
480.0    20.0  0.950623  0.000000  0.950623  0.950623
481.0    20.0  0.950623  0.000000  0.950623  0.950623
482.0    20.0  0.950623  0.000000  0.950623  0.950623
483.0    20.0  0.950623  0.000000  0.950623  0.950623
484.0    20.0  0.950623  0.000000  0.950623  0.950623
485.0    20.0  0.950623  0.000000  0.950623  0.950623
486.0    20.0  0.950623  0.000000  0.950623  0.950623
487.0    20.0  0.950623  0.000000  0.950623  0.950623
488.0    20.0  0.950623  0.000000  0.950623  0.950623
489.0    20.0  0.950623  0.000000  0.950623  0.950623
490.0    20.0  0.950623  0.000000  0.950623  0.950623
491.0    20.0  0.950623  0.000000  0.950623  0.950623
492.0    20.0  0.950623  0.000000  0.950623  0.950623
493.0    20.0  0.950623  0.000000  0.950623  0.950623
494.0    20.0  0.950623  0.000000  0.950623  0.950623
495.0    20.0  0.950623  0.000000  0.950623  0.950623
496.0    20.0  0.950623  0.000000  0.950623  0.950623
497.0    20.0  0.950623  0.000000  0.950623  0.950623
498.0    20.0  0.950623  0.000000  0.950623  0.950623
499.0    20.0  0.950623  0.000000  0.950623  0.950623
