gen  nevals       avg       std       min       max
  0.0    20.0  0.589731  0.019992  0.537903  0.630814
  1.0    20.0  0.604890  0.010123  0.594131  0.630814
  2.0    20.0  0.616380  0.014546  0.603912  0.655258
  3.0    20.0  0.622492  0.013513  0.608795  0.655258
  4.0    20.0  0.632885  0.012688  0.618576  0.662598
  5.0    20.0  0.638631  0.010646  0.623474  0.662598
  6.0    20.0  0.642052  0.007901  0.633255  0.662598
  7.0    20.0  0.643396  0.007348  0.635696  0.662598
  8.0    20.0  0.644863  0.006557  0.638138  0.662598
  9.0    20.0  0.646330  0.006842  0.638138  0.662598
 10.0    20.0  0.647188  0.006239  0.640579  0.662598
 11.0    20.0  0.649144  0.005811  0.643036  0.662598
 12.0    20.0  0.649999  0.005372  0.643036  0.662598
 13.0    20.0  0.652688  0.006717  0.645477  0.669922
 14.0    20.0  0.653910  0.006398  0.645477  0.669922
 15.0    20.0  0.655499  0.006647  0.647919  0.669922
 16.0    20.0  0.655866  0.006323  0.647919  0.669922
 17.0    20.0  0.656355  0.005912  0.647919  0.669922
 18.0    20.0  0.657823  0.006351  0.650360  0.672379
 19.0    20.0  0.660146  0.007614  0.650360  0.679703
 20.0    20.0  0.661124  0.006975  0.652817  0.679703
 21.0    20.0  0.662103  0.007112  0.655258  0.679703
 22.0    20.0  0.663448  0.007056  0.655258  0.679703
 23.0    20.0  0.663692  0.006850  0.655258  0.679703
 24.0    20.0  0.664669  0.006103  0.657700  0.679703
 25.0    20.0  0.666015  0.005268  0.660141  0.679703
 26.0    20.0  0.666383  0.004980  0.660141  0.679703
 27.0    20.0  0.667850  0.004591  0.662598  0.679703
 28.0    20.0  0.668462  0.004664  0.662598  0.679703
 29.0    20.0  0.668706  0.004407  0.662598  0.679703
 30.0    20.0  0.669684  0.004084  0.665039  0.679703
 31.0    20.0  0.669684  0.004084  0.665039  0.679703
 32.0    20.0  0.670051  0.003979  0.665039  0.679703
 33.0    20.0  0.670051  0.003979  0.665039  0.679703
 34.0    20.0  0.670051  0.003979  0.665039  0.679703
 35.0    20.0  0.670540  0.003699  0.665039  0.679703
 36.0    20.0  0.670540  0.003699  0.665039  0.679703
 37.0    20.0  0.671029  0.003584  0.665039  0.679703
 38.0    20.0  0.671029  0.003584  0.665039  0.679703
 39.0    20.0  0.671762  0.003778  0.665039  0.679703
 40.0    20.0  0.672495  0.003825  0.667480  0.679703
 41.0    20.0  0.672862  0.003509  0.667480  0.679703
 42.0    20.0  0.673229  0.003305  0.667480  0.679703
 43.0    20.0  0.673229  0.003305  0.667480  0.679703
 44.0    20.0  0.673229  0.003305  0.667480  0.679703
 45.0    20.0  0.673229  0.003305  0.667480  0.679703
 46.0    20.0  0.673229  0.003305  0.667480  0.679703
 47.0    20.0  0.673840  0.003315  0.669922  0.679703
 48.0    20.0  0.674819  0.004162  0.669922  0.687042
 49.0    20.0  0.674819  0.004162  0.669922  0.687042
 50.0    20.0  0.674819  0.004162  0.669922  0.687042
 51.0    20.0  0.674819  0.004162  0.669922  0.687042
 52.0    20.0  0.674819  0.004162  0.669922  0.687042
 53.0    20.0  0.674942  0.004050  0.669922  0.687042
 54.0    20.0  0.675431  0.004005  0.672379  0.687042
 55.0    20.0  0.675431  0.004005  0.672379  0.687042
 56.0    20.0  0.675431  0.004005  0.672379  0.687042
 57.0    20.0  0.675675  0.003960  0.672379  0.687042
 58.0    20.0  0.675675  0.003960  0.672379  0.687042
 59.0    20.0  0.675675  0.003960  0.672379  0.687042
 60.0    20.0  0.676286  0.004330  0.672379  0.687042
 61.0    20.0  0.676897  0.004590  0.672379  0.687042
 62.0    20.0  0.676897  0.004590  0.672379  0.687042
 63.0    20.0  0.676897  0.004590  0.672379  0.687042
 64.0    20.0  0.677020  0.004499  0.672379  0.687042
 65.0    20.0  0.677020  0.004499  0.672379  0.687042
 66.0    20.0  0.677142  0.004404  0.672379  0.687042
 67.0    20.0  0.677142  0.004404  0.672379  0.687042
 68.0    20.0  0.677875  0.004756  0.672379  0.687042
 69.0    20.0  0.677875  0.004756  0.672379  0.687042
 70.0    20.0  0.677875  0.004756  0.672379  0.687042
 71.0    20.0  0.678363  0.004668  0.672379  0.687042
 72.0    20.0  0.678363  0.004668  0.672379  0.687042
 73.0    20.0  0.678973  0.004241  0.672379  0.687042
 74.0    20.0  0.679340  0.003962  0.674820  0.687042
 75.0    20.0  0.679462  0.003857  0.674820  0.687042
 76.0    20.0  0.679462  0.003857  0.674820  0.687042
 77.0    20.0  0.680562  0.005260  0.674820  0.696823
 78.0    20.0  0.680928  0.005100  0.674820  0.696823
 79.0    20.0  0.680928  0.005100  0.674820  0.696823
 80.0    20.0  0.681050  0.004980  0.674820  0.696823
 81.0    20.0  0.682150  0.005838  0.674820  0.696823
 82.0    20.0  0.682150  0.005838  0.674820  0.696823
 83.0    20.0  0.682394  0.005625  0.677261  0.696823
 84.0    20.0  0.682394  0.005625  0.677261  0.696823
 85.0    20.0  0.682394  0.005625  0.677261  0.696823
 86.0    20.0  0.682394  0.005625  0.677261  0.696823
 87.0    20.0  0.682761  0.005516  0.677261  0.696823
 88.0    20.0  0.682761  0.005516  0.677261  0.696823
 89.0    20.0  0.682883  0.005420  0.677261  0.696823
 90.0    20.0  0.682883  0.005420  0.677261  0.696823
 91.0    20.0  0.683372  0.005331  0.677261  0.696823
 92.0    20.0  0.684229  0.005646  0.679703  0.696823
 93.0    20.0  0.684229  0.005646  0.679703  0.696823
 94.0    20.0  0.684229  0.005646  0.679703  0.696823
 95.0    20.0  0.684351  0.005573  0.679703  0.696823
 96.0    20.0  0.684718  0.005496  0.679703  0.696823
 97.0    20.0  0.684718  0.005496  0.679703  0.696823
 98.0    20.0  0.684840  0.005409  0.679703  0.696823
 99.0    20.0  0.684840  0.005409  0.679703  0.696823
100.0    20.0  0.684840  0.005409  0.679703  0.696823
101.0    20.0  0.685940  0.006400  0.679703  0.701706
102.0    20.0  0.686307  0.006240  0.679703  0.701706
103.0    20.0  0.687163  0.006446  0.679703  0.701706
104.0    20.0  0.687285  0.006326  0.679703  0.701706
105.0    20.0  0.687652  0.006083  0.679703  0.701706
106.0    20.0  0.687652  0.006083  0.679703  0.701706
107.0    20.0  0.688508  0.005704  0.682144  0.701706
108.0    20.0  0.688508  0.005704  0.682144  0.701706
109.0    20.0  0.688508  0.005704  0.682144  0.701706
110.0    20.0  0.688631  0.005591  0.682144  0.701706
111.0    20.0  0.688631  0.005591  0.682144  0.701706
112.0    20.0  0.688631  0.005591  0.682144  0.701706
113.0    20.0  0.688631  0.005591  0.682144  0.701706
114.0    20.0  0.688631  0.005591  0.682144  0.701706
115.0    20.0  0.688631  0.005591  0.682144  0.701706
116.0    20.0  0.689243  0.005516  0.682144  0.701706
117.0    20.0  0.689365  0.005383  0.682144  0.701706
118.0    20.0  0.689365  0.005383  0.682144  0.701706
119.0    20.0  0.689365  0.005383  0.682144  0.701706
120.0    20.0  0.689365  0.005383  0.682144  0.701706
121.0    20.0  0.689610  0.005155  0.684601  0.701706
122.0    20.0  0.689610  0.005155  0.684601  0.701706
123.0    20.0  0.689610  0.005155  0.684601  0.701706
124.0    20.0  0.689977  0.005045  0.684601  0.701706
125.0    20.0  0.690099  0.004942  0.684601  0.701706
126.0    20.0  0.691320  0.004820  0.687042  0.701706
127.0    20.0  0.691320  0.004820  0.687042  0.701706
128.0    20.0  0.691320  0.004820  0.687042  0.701706
129.0    20.0  0.691320  0.004820  0.687042  0.701706
130.0    20.0  0.691320  0.004820  0.687042  0.701706
131.0    20.0  0.691564  0.004720  0.687042  0.701706
132.0    20.0  0.691564  0.004720  0.687042  0.701706
133.0    20.0  0.691564  0.004720  0.687042  0.701706
134.0    20.0  0.691564  0.004720  0.687042  0.701706
135.0    20.0  0.691564  0.004720  0.687042  0.701706
136.0    20.0  0.691564  0.004720  0.687042  0.701706
137.0    20.0  0.691686  0.004632  0.687042  0.701706
138.0    20.0  0.691686  0.004632  0.687042  0.701706
139.0    20.0  0.691686  0.004632  0.687042  0.701706
140.0    20.0  0.692175  0.004632  0.687042  0.701706
141.0    20.0  0.692175  0.004632  0.687042  0.701706
142.0    20.0  0.692175  0.004632  0.687042  0.701706
143.0    20.0  0.692175  0.004632  0.687042  0.701706
144.0    20.0  0.693275  0.005759  0.687042  0.709045
145.0    20.0  0.693275  0.005759  0.687042  0.709045
146.0    20.0  0.693275  0.005759  0.687042  0.709045
147.0    20.0  0.693275  0.005759  0.687042  0.709045
148.0    20.0  0.693275  0.005759  0.687042  0.709045
149.0    20.0  0.693764  0.005622  0.687042  0.709045
150.0    20.0  0.694498  0.005214  0.687042  0.709045
151.0    20.0  0.694498  0.005214  0.687042  0.709045
152.0    20.0  0.694498  0.005214  0.687042  0.709045
153.0    20.0  0.694498  0.005214  0.687042  0.709045
154.0    20.0  0.694742  0.004968  0.687042  0.709045
155.0    20.0  0.694742  0.004968  0.687042  0.709045
156.0    20.0  0.696087  0.004897  0.689484  0.709045
157.0    20.0  0.696576  0.004698  0.691925  0.709045
158.0    20.0  0.696576  0.004698  0.691925  0.709045
159.0    20.0  0.696576  0.004698  0.691925  0.709045
160.0    20.0  0.696576  0.004698  0.691925  0.709045
161.0    20.0  0.696576  0.004698  0.691925  0.709045
162.0    20.0  0.696576  0.004698  0.691925  0.709045
163.0    20.0  0.696576  0.004698  0.691925  0.709045
164.0    20.0  0.697066  0.004502  0.691925  0.709045
165.0    20.0  0.697066  0.004502  0.691925  0.709045
166.0    20.0  0.697311  0.004346  0.691925  0.709045
167.0    20.0  0.697311  0.004346  0.691925  0.709045
168.0    20.0  0.697311  0.004346  0.691925  0.709045
169.0    20.0  0.697311  0.004346  0.691925  0.709045
170.0    20.0  0.697311  0.004346  0.691925  0.709045
171.0    20.0  0.697311  0.004346  0.691925  0.709045
172.0    20.0  0.697433  0.004226  0.691925  0.709045
173.0    20.0  0.698534  0.005362  0.691925  0.713943
174.0    20.0  0.698534  0.005362  0.691925  0.713943
175.0    20.0  0.698534  0.005362  0.691925  0.713943
176.0    20.0  0.698534  0.005362  0.691925  0.713943
177.0    20.0  0.698534  0.005362  0.691925  0.713943
178.0    20.0  0.698534  0.005362  0.691925  0.713943
179.0    20.0  0.699268  0.005412  0.694382  0.713943
180.0    20.0  0.700002  0.005686  0.694382  0.713943
181.0    20.0  0.700002  0.005686  0.694382  0.713943
182.0    20.0  0.700002  0.005686  0.694382  0.713943
183.0    20.0  0.700002  0.005686  0.694382  0.713943
184.0    20.0  0.700002  0.005686  0.694382  0.713943
185.0    20.0  0.700002  0.005686  0.694382  0.713943
186.0    20.0  0.700002  0.005686  0.694382  0.713943
187.0    20.0  0.700002  0.005686  0.694382  0.713943
188.0    20.0  0.700002  0.005686  0.694382  0.713943
189.0    20.0  0.700002  0.005686  0.694382  0.713943
190.0    20.0  0.700124  0.005590  0.694382  0.713943
191.0    20.0  0.700124  0.005590  0.694382  0.713943
192.0    20.0  0.700124  0.005590  0.694382  0.713943
193.0    20.0  0.700124  0.005590  0.694382  0.713943
194.0    20.0  0.700124  0.005590  0.694382  0.713943
195.0    20.0  0.700124  0.005590  0.694382  0.713943
196.0    20.0  0.700124  0.005590  0.694382  0.713943
197.0    20.0  0.700124  0.005590  0.694382  0.713943
198.0    20.0  0.700368  0.005438  0.694382  0.713943
199.0    20.0  0.700490  0.005329  0.694382  0.713943
200.0    20.0  0.700490  0.005329  0.694382  0.713943
201.0    20.0  0.700490  0.005329  0.694382  0.713943
202.0    20.0  0.700979  0.005193  0.696823  0.713943
203.0    20.0  0.700979  0.005193  0.696823  0.713943
204.0    20.0  0.701101  0.005122  0.696823  0.713943
205.0    20.0  0.701345  0.005028  0.696823  0.713943
206.0    20.0  0.701345  0.005028  0.696823  0.713943
207.0    20.0  0.701345  0.005028  0.696823  0.713943
208.0    20.0  0.701345  0.005028  0.696823  0.713943
209.0    20.0  0.701345  0.005028  0.696823  0.713943
210.0    20.0  0.701712  0.004952  0.696823  0.713943
211.0    20.0  0.701712  0.004952  0.696823  0.713943
212.0    20.0  0.701712  0.004952  0.696823  0.713943
213.0    20.0  0.701712  0.004952  0.696823  0.713943
214.0    20.0  0.701712  0.004952  0.696823  0.713943
215.0    20.0  0.701712  0.004952  0.696823  0.713943
216.0    20.0  0.701712  0.004952  0.696823  0.713943
217.0    20.0  0.701712  0.004952  0.696823  0.713943
218.0    20.0  0.701834  0.004859  0.696823  0.713943
219.0    20.0  0.701834  0.004859  0.696823  0.713943
220.0    20.0  0.701834  0.004859  0.696823  0.713943
221.0    20.0  0.701834  0.004859  0.696823  0.713943
222.0    20.0  0.701834  0.004859  0.696823  0.713943
223.0    20.0  0.701834  0.004859  0.696823  0.713943
224.0    20.0  0.701834  0.004859  0.696823  0.713943
225.0    20.0  0.702078  0.004722  0.696823  0.713943
226.0    20.0  0.702078  0.004722  0.696823  0.713943
227.0    20.0  0.702078  0.004722  0.696823  0.713943
228.0    20.0  0.702078  0.004722  0.696823  0.713943
229.0    20.0  0.702200  0.004615  0.696823  0.713943
230.0    20.0  0.702200  0.004615  0.696823  0.713943
231.0    20.0  0.702934  0.004860  0.696823  0.713943
232.0    20.0  0.702934  0.004860  0.696823  0.713943
233.0    20.0  0.702934  0.004860  0.696823  0.713943
234.0    20.0  0.702934  0.004860  0.696823  0.713943
235.0    20.0  0.702934  0.004860  0.696823  0.713943
236.0    20.0  0.702934  0.004860  0.696823  0.713943
237.0    20.0  0.702934  0.004860  0.696823  0.713943
238.0    20.0  0.702934  0.004860  0.696823  0.713943
239.0    20.0  0.702934  0.004860  0.696823  0.713943
240.0    20.0  0.702934  0.004860  0.696823  0.713943
241.0    20.0  0.702934  0.004860  0.696823  0.713943
242.0    20.0  0.702934  0.004860  0.696823  0.713943
243.0    20.0  0.702934  0.004860  0.696823  0.713943
244.0    20.0  0.702934  0.004860  0.696823  0.713943
245.0    20.0  0.702934  0.004860  0.696823  0.713943
246.0    20.0  0.702934  0.004860  0.696823  0.713943
247.0    20.0  0.702934  0.004860  0.696823  0.713943
248.0    20.0  0.703423  0.004517  0.699265  0.713943
249.0    20.0  0.703423  0.004517  0.699265  0.713943
250.0    20.0  0.703423  0.004517  0.699265  0.713943
251.0    20.0  0.703423  0.004517  0.699265  0.713943
252.0    20.0  0.703667  0.004416  0.699265  0.713943
253.0    20.0  0.703667  0.004416  0.699265  0.713943
254.0    20.0  0.703912  0.004300  0.699265  0.713943
255.0    20.0  0.703912  0.004300  0.699265  0.713943
256.0    20.0  0.703912  0.004300  0.699265  0.713943
257.0    20.0  0.703912  0.004300  0.699265  0.713943
258.0    20.0  0.703912  0.004300  0.699265  0.713943
259.0    20.0  0.703912  0.004300  0.699265  0.713943
260.0    20.0  0.704157  0.004165  0.699265  0.713943
261.0    20.0  0.704157  0.004165  0.699265  0.713943
262.0    20.0  0.704157  0.004165  0.699265  0.713943
263.0    20.0  0.704157  0.004165  0.699265  0.713943
264.0    20.0  0.704157  0.004165  0.699265  0.713943
265.0    20.0  0.704157  0.004165  0.699265  0.713943
266.0    20.0  0.704157  0.004165  0.699265  0.713943
267.0    20.0  0.704157  0.004165  0.699265  0.713943
268.0    20.0  0.704157  0.004165  0.699265  0.713943
269.0    20.0  0.704157  0.004165  0.699265  0.713943
270.0    20.0  0.704157  0.004165  0.699265  0.713943
271.0    20.0  0.704157  0.004165  0.699265  0.713943
272.0    20.0  0.704157  0.004165  0.699265  0.713943
273.0    20.0  0.704157  0.004165  0.699265  0.713943
274.0    20.0  0.704157  0.004165  0.699265  0.713943
275.0    20.0  0.704157  0.004165  0.699265  0.713943
276.0    20.0  0.704157  0.004165  0.699265  0.713943
277.0    20.0  0.704157  0.004165  0.699265  0.713943
278.0    20.0  0.704157  0.004165  0.699265  0.713943
279.0    20.0  0.704157  0.004165  0.699265  0.713943
280.0    20.0  0.704402  0.004011  0.699265  0.713943
281.0    20.0  0.704402  0.004011  0.699265  0.713943
282.0    20.0  0.704402  0.004011  0.699265  0.713943
283.0    20.0  0.704402  0.004011  0.699265  0.713943
284.0    20.0  0.704402  0.004011  0.699265  0.713943
285.0    20.0  0.704524  0.003889  0.699265  0.713943
286.0    20.0  0.704646  0.003758  0.699265  0.713943
287.0    20.0  0.704646  0.003758  0.699265  0.713943
288.0    20.0  0.704646  0.003758  0.699265  0.713943
289.0    20.0  0.704646  0.003758  0.699265  0.713943
290.0    20.0  0.704646  0.003758  0.699265  0.713943
291.0    20.0  0.704646  0.003758  0.699265  0.713943
292.0    20.0  0.704768  0.003618  0.699265  0.713943
293.0    20.0  0.704768  0.003618  0.699265  0.713943
294.0    20.0  0.705135  0.003407  0.701706  0.713943
295.0    20.0  0.705135  0.003407  0.701706  0.713943
296.0    20.0  0.705135  0.003407  0.701706  0.713943
297.0    20.0  0.705135  0.003407  0.701706  0.713943
298.0    20.0  0.705258  0.003324  0.701706  0.713943
299.0    20.0  0.705258  0.003324  0.701706  0.713943
300.0    20.0  0.705258  0.003324  0.701706  0.713943
301.0    20.0  0.705258  0.003324  0.701706  0.713943
302.0    20.0  0.705258  0.003324  0.701706  0.713943
303.0    20.0  0.705258  0.003324  0.701706  0.713943
304.0    20.0  0.705258  0.003324  0.701706  0.713943
305.0    20.0  0.705258  0.003324  0.701706  0.713943
306.0    20.0  0.705503  0.003233  0.701706  0.713943
307.0    20.0  0.705503  0.003233  0.701706  0.713943
308.0    20.0  0.705503  0.003233  0.701706  0.713943
309.0    20.0  0.705503  0.003233  0.701706  0.713943
310.0    20.0  0.705503  0.003233  0.701706  0.713943
311.0    20.0  0.705503  0.003233  0.701706  0.713943
312.0    20.0  0.705503  0.003233  0.701706  0.713943
313.0    20.0  0.705503  0.003233  0.701706  0.713943
314.0    20.0  0.705503  0.003233  0.701706  0.713943
315.0    20.0  0.705503  0.003233  0.701706  0.713943
316.0    20.0  0.706237  0.003888  0.701706  0.716385
317.0    20.0  0.706237  0.003888  0.701706  0.716385
318.0    20.0  0.706237  0.003888  0.701706  0.716385
319.0    20.0  0.706360  0.003780  0.701706  0.716385
320.0    20.0  0.706360  0.003780  0.701706  0.716385
321.0    20.0  0.706360  0.003780  0.701706  0.716385
322.0    20.0  0.706360  0.003780  0.701706  0.716385
323.0    20.0  0.706360  0.003780  0.701706  0.716385
324.0    20.0  0.706360  0.003780  0.701706  0.716385
325.0    20.0  0.706360  0.003780  0.701706  0.716385
326.0    20.0  0.706360  0.003780  0.701706  0.716385
327.0    20.0  0.706360  0.003780  0.701706  0.716385
328.0    20.0  0.706360  0.003780  0.701706  0.716385
329.0    20.0  0.706360  0.003780  0.701706  0.716385
330.0    20.0  0.706360  0.003780  0.701706  0.716385
331.0    20.0  0.706360  0.003780  0.701706  0.716385
332.0    20.0  0.706360  0.003780  0.701706  0.716385
333.0    20.0  0.706360  0.003780  0.701706  0.716385
334.0    20.0  0.706360  0.003780  0.701706  0.716385
335.0    20.0  0.706483  0.003665  0.701706  0.716385
336.0    20.0  0.706728  0.003497  0.704163  0.716385
337.0    20.0  0.706728  0.003497  0.704163  0.716385
338.0    20.0  0.706728  0.003497  0.704163  0.716385
339.0    20.0  0.706728  0.003497  0.704163  0.716385
340.0    20.0  0.706728  0.003497  0.704163  0.716385
341.0    20.0  0.706728  0.003497  0.704163  0.716385
342.0    20.0  0.706728  0.003497  0.704163  0.716385
343.0    20.0  0.706728  0.003497  0.704163  0.716385
344.0    20.0  0.706728  0.003497  0.704163  0.716385
345.0    20.0  0.706728  0.003497  0.704163  0.716385
346.0    20.0  0.706728  0.003497  0.704163  0.716385
347.0    20.0  0.706728  0.003497  0.704163  0.716385
348.0    20.0  0.706728  0.003497  0.704163  0.716385
349.0    20.0  0.706728  0.003497  0.704163  0.716385
350.0    20.0  0.706728  0.003497  0.704163  0.716385
351.0    20.0  0.706850  0.003448  0.704163  0.716385
352.0    20.0  0.706850  0.003448  0.704163  0.716385
353.0    20.0  0.706850  0.003448  0.704163  0.716385
354.0    20.0  0.706850  0.003448  0.704163  0.716385
355.0    20.0  0.706850  0.003448  0.704163  0.716385
356.0    20.0  0.706850  0.003448  0.704163  0.716385
357.0    20.0  0.706850  0.003448  0.704163  0.716385
358.0    20.0  0.706850  0.003448  0.704163  0.716385
359.0    20.0  0.706850  0.003448  0.704163  0.716385
360.0    20.0  0.706850  0.003448  0.704163  0.716385
361.0    20.0  0.706850  0.003448  0.704163  0.716385
362.0    20.0  0.706850  0.003448  0.704163  0.716385
363.0    20.0  0.706850  0.003448  0.704163  0.716385
364.0    20.0  0.706850  0.003448  0.704163  0.716385
365.0    20.0  0.706850  0.003448  0.704163  0.716385
366.0    20.0  0.706850  0.003448  0.704163  0.716385
367.0    20.0  0.706850  0.003448  0.704163  0.716385
368.0    20.0  0.706850  0.003448  0.704163  0.716385
369.0    20.0  0.706850  0.003448  0.704163  0.716385
370.0    20.0  0.706850  0.003448  0.704163  0.716385
371.0    20.0  0.706850  0.003448  0.704163  0.716385
372.0    20.0  0.706850  0.003448  0.704163  0.716385
373.0    20.0  0.706850  0.003448  0.704163  0.716385
374.0    20.0  0.706850  0.003448  0.704163  0.716385
375.0    20.0  0.706850  0.003448  0.704163  0.716385
376.0    20.0  0.706850  0.003448  0.704163  0.716385
377.0    20.0  0.706850  0.003448  0.704163  0.716385
378.0    20.0  0.706850  0.003448  0.704163  0.716385
379.0    20.0  0.706850  0.003448  0.704163  0.716385
380.0    20.0  0.706850  0.003448  0.704163  0.716385
381.0    20.0  0.706850  0.003448  0.704163  0.716385
382.0    20.0  0.706972  0.003393  0.704163  0.716385
383.0    20.0  0.706972  0.003393  0.704163  0.716385
384.0    20.0  0.706972  0.003393  0.704163  0.716385
385.0    20.0  0.706972  0.003393  0.704163  0.716385
386.0    20.0  0.706972  0.003393  0.704163  0.716385
387.0    20.0  0.706972  0.003393  0.704163  0.716385
388.0    20.0  0.706972  0.003393  0.704163  0.716385
389.0    20.0  0.706972  0.003393  0.704163  0.716385
390.0    20.0  0.706972  0.003393  0.704163  0.716385
391.0    20.0  0.706972  0.003393  0.704163  0.716385
392.0    20.0  0.706972  0.003393  0.704163  0.716385
393.0    20.0  0.706972  0.003393  0.704163  0.716385
394.0    20.0  0.706972  0.003393  0.704163  0.716385
395.0    20.0  0.706972  0.003393  0.704163  0.716385
396.0    20.0  0.706972  0.003393  0.704163  0.716385
397.0    20.0  0.706972  0.003393  0.704163  0.716385
398.0    20.0  0.707094  0.003333  0.704163  0.716385
399.0    20.0  0.707094  0.003333  0.704163  0.716385
400.0    20.0  0.707094  0.003333  0.704163  0.716385
401.0    20.0  0.707094  0.003333  0.704163  0.716385
402.0    20.0  0.707094  0.003333  0.704163  0.716385
403.0    20.0  0.707338  0.003288  0.704163  0.716385
404.0    20.0  0.707338  0.003288  0.704163  0.716385
405.0    20.0  0.707338  0.003288  0.704163  0.716385
406.0    20.0  0.707582  0.003224  0.704163  0.716385
407.0    20.0  0.707582  0.003224  0.704163  0.716385
408.0    20.0  0.707582  0.003224  0.704163  0.716385
409.0    20.0  0.707582  0.003224  0.704163  0.716385
410.0    20.0  0.707582  0.003224  0.704163  0.716385
411.0    20.0  0.707582  0.003224  0.704163  0.716385
412.0    20.0  0.707582  0.003224  0.704163  0.716385
413.0    20.0  0.707582  0.003224  0.704163  0.716385
414.0    20.0  0.707582  0.003224  0.704163  0.716385
415.0    20.0  0.707582  0.003224  0.704163  0.716385
416.0    20.0  0.707582  0.003224  0.704163  0.716385
417.0    20.0  0.707582  0.003224  0.704163  0.716385
418.0    20.0  0.707582  0.003224  0.704163  0.716385
419.0    20.0  0.707582  0.003224  0.704163  0.716385
420.0    20.0  0.707582  0.003224  0.704163  0.716385
421.0    20.0  0.707582  0.003224  0.704163  0.716385
422.0    20.0  0.707582  0.003224  0.704163  0.716385
423.0    20.0  0.707582  0.003224  0.704163  0.716385
424.0    20.0  0.707582  0.003224  0.704163  0.716385
425.0    20.0  0.707582  0.003224  0.704163  0.716385
426.0    20.0  0.707582  0.003224  0.704163  0.716385
427.0    20.0  0.707582  0.003224  0.704163  0.716385
428.0    20.0  0.707582  0.003224  0.704163  0.716385
429.0    20.0  0.707582  0.003224  0.704163  0.716385
430.0    20.0  0.707582  0.003224  0.704163  0.716385
431.0    20.0  0.707582  0.003224  0.704163  0.716385
432.0    20.0  0.707582  0.003224  0.704163  0.716385
433.0    20.0  0.707582  0.003224  0.704163  0.716385
434.0    20.0  0.707582  0.003224  0.704163  0.716385
435.0    20.0  0.707582  0.003224  0.704163  0.716385
436.0    20.0  0.707582  0.003224  0.704163  0.716385
437.0    20.0  0.707582  0.003224  0.704163  0.716385
438.0    20.0  0.707582  0.003224  0.704163  0.716385
439.0    20.0  0.707582  0.003224  0.704163  0.716385
440.0    20.0  0.707582  0.003224  0.704163  0.716385
441.0    20.0  0.707582  0.003224  0.704163  0.716385
442.0    20.0  0.707582  0.003224  0.704163  0.716385
443.0    20.0  0.707582  0.003224  0.704163  0.716385
444.0    20.0  0.707582  0.003224  0.704163  0.716385
445.0    20.0  0.707582  0.003224  0.704163  0.716385
446.0    20.0  0.707582  0.003224  0.704163  0.716385
447.0    20.0  0.707582  0.003224  0.704163  0.716385
448.0    20.0  0.707582  0.003224  0.704163  0.716385
449.0    20.0  0.707582  0.003224  0.704163  0.716385
450.0    20.0  0.707582  0.003224  0.704163  0.716385
451.0    20.0  0.707582  0.003224  0.704163  0.716385
452.0    20.0  0.707582  0.003224  0.704163  0.716385
453.0    20.0  0.707582  0.003224  0.704163  0.716385
454.0    20.0  0.707582  0.003224  0.704163  0.716385
455.0    20.0  0.707582  0.003224  0.704163  0.716385
456.0    20.0  0.707582  0.003224  0.704163  0.716385
457.0    20.0  0.707582  0.003224  0.704163  0.716385
458.0    20.0  0.707582  0.003224  0.704163  0.716385
459.0    20.0  0.707582  0.003224  0.704163  0.716385
460.0    20.0  0.707582  0.003224  0.704163  0.716385
461.0    20.0  0.707582  0.003224  0.704163  0.716385
462.0    20.0  0.707582  0.003224  0.704163  0.716385
463.0    20.0  0.707704  0.003137  0.704163  0.716385
464.0    20.0  0.707704  0.003137  0.704163  0.716385
465.0    20.0  0.707704  0.003137  0.704163  0.716385
466.0    20.0  0.707704  0.003137  0.704163  0.716385
467.0    20.0  0.707704  0.003137  0.704163  0.716385
468.0    20.0  0.707704  0.003137  0.704163  0.716385
469.0    20.0  0.707704  0.003137  0.704163  0.716385
470.0    20.0  0.707704  0.003137  0.704163  0.716385
471.0    20.0  0.707704  0.003137  0.704163  0.716385
472.0    20.0  0.707704  0.003137  0.704163  0.716385
473.0    20.0  0.707704  0.003137  0.704163  0.716385
474.0    20.0  0.707704  0.003137  0.704163  0.716385
475.0    20.0  0.707704  0.003137  0.704163  0.716385
476.0    20.0  0.707704  0.003137  0.704163  0.716385
477.0    20.0  0.708193  0.003305  0.704163  0.716385
478.0    20.0  0.708193  0.003305  0.704163  0.716385
479.0    20.0  0.708193  0.003305  0.704163  0.716385
480.0    20.0  0.708193  0.003305  0.704163  0.716385
481.0    20.0  0.708193  0.003305  0.704163  0.716385
482.0    20.0  0.708193  0.003305  0.704163  0.716385
483.0    20.0  0.708193  0.003305  0.704163  0.716385
484.0    20.0  0.708193  0.003305  0.704163  0.716385
485.0    20.0  0.708193  0.003305  0.704163  0.716385
486.0    20.0  0.708193  0.003305  0.704163  0.716385
487.0    20.0  0.708193  0.003305  0.704163  0.716385
488.0    20.0  0.708193  0.003305  0.704163  0.716385
489.0    20.0  0.708193  0.003305  0.704163  0.716385
490.0    20.0  0.708193  0.003305  0.704163  0.716385
491.0    20.0  0.708315  0.003197  0.704163  0.716385
492.0    20.0  0.708315  0.003197  0.704163  0.716385
493.0    20.0  0.708315  0.003197  0.704163  0.716385
494.0    20.0  0.708315  0.003197  0.704163  0.716385
495.0    20.0  0.708315  0.003197  0.704163  0.716385
496.0    20.0  0.708315  0.003197  0.704163  0.716385
497.0    20.0  0.708315  0.003197  0.704163  0.716385
498.0    20.0  0.708315  0.003197  0.704163  0.716385
499.0    20.0  0.708315  0.003197  0.704163  0.716385
