gen  nevals       avg       std       min       max
  0.0    20.0  0.590679  0.017079  0.559174  0.633133
  1.0    20.0  0.603401  0.013345  0.585800  0.633133
  2.0    20.0  0.612128  0.010908  0.600586  0.633133
  3.0    20.0  0.617899  0.009180  0.606506  0.633133
  4.0    20.0  0.624409  0.005875  0.615387  0.633133
  5.0    20.0  0.628698  0.006842  0.618347  0.644974
  6.0    20.0  0.632542  0.006723  0.624268  0.647934
  7.0    20.0  0.636537  0.007328  0.627213  0.650894
  8.0    20.0  0.640089  0.006504  0.630173  0.650894
  9.0    20.0  0.641866  0.005168  0.633133  0.650894
 10.0    20.0  0.643494  0.004238  0.636093  0.650894
 11.0    20.0  0.645565  0.005583  0.639053  0.665680
 12.0    20.0  0.648080  0.006096  0.644974  0.665680
 13.0    20.0  0.649412  0.005953  0.644974  0.665680
 14.0    20.0  0.652222  0.007683  0.644974  0.668640
 15.0    20.0  0.653700  0.006966  0.647934  0.668640
 16.0    20.0  0.655327  0.007092  0.647934  0.668640
 17.0    20.0  0.656657  0.006578  0.647934  0.668640
 18.0    20.0  0.657249  0.006293  0.647934  0.668640
 19.0    20.0  0.659319  0.006432  0.650894  0.671600
 20.0    20.0  0.660057  0.005984  0.650894  0.671600
 21.0    20.0  0.661831  0.007315  0.653839  0.683426
 22.0    20.0  0.663015  0.006806  0.653839  0.683426
 23.0    20.0  0.663755  0.006296  0.656799  0.683426
 24.0    20.0  0.665087  0.006249  0.656799  0.683426
 25.0    20.0  0.665827  0.005651  0.659760  0.683426
 26.0    20.0  0.666123  0.005478  0.659760  0.683426
 27.0    20.0  0.668639  0.004951  0.662720  0.683426
 28.0    20.0  0.669379  0.004759  0.665680  0.683426
 29.0    20.0  0.670415  0.005946  0.665680  0.686386
 30.0    20.0  0.671007  0.005736  0.665680  0.686386
 31.0    20.0  0.673521  0.006698  0.665680  0.686386
 32.0    20.0  0.673521  0.006698  0.665680  0.686386
 33.0    20.0  0.675001  0.007952  0.665680  0.695267
 34.0    20.0  0.675889  0.007569  0.668640  0.695267
 35.0    20.0  0.677220  0.007359  0.668640  0.695267
 36.0    20.0  0.677220  0.007359  0.668640  0.695267
 37.0    20.0  0.677220  0.007359  0.668640  0.695267
 38.0    20.0  0.677516  0.007123  0.668640  0.695267
 39.0    20.0  0.678699  0.006898  0.671600  0.695267
 40.0    20.0  0.679883  0.007159  0.671600  0.695267
 41.0    20.0  0.680918  0.006631  0.671600  0.695267
 42.0    20.0  0.683876  0.007140  0.674561  0.698227
 43.0    20.0  0.684467  0.006827  0.674561  0.698227
 44.0    20.0  0.685355  0.006632  0.674561  0.698227
 45.0    20.0  0.685355  0.006632  0.674561  0.698227
 46.0    20.0  0.685651  0.006266  0.674561  0.698227
 47.0    20.0  0.685651  0.006266  0.674561  0.698227
 48.0    20.0  0.686094  0.005758  0.677521  0.698227
 49.0    20.0  0.687277  0.006283  0.677521  0.701187
 50.0    20.0  0.687720  0.005879  0.680481  0.701187
 51.0    20.0  0.687720  0.005879  0.680481  0.701187
 52.0    20.0  0.687720  0.005879  0.680481  0.701187
 53.0    20.0  0.688164  0.005646  0.680481  0.701187
 54.0    20.0  0.688311  0.005479  0.680481  0.701187
 55.0    20.0  0.688311  0.005479  0.680481  0.701187
 56.0    20.0  0.688458  0.005304  0.683426  0.701187
 57.0    20.0  0.689050  0.005369  0.683426  0.701187
 58.0    20.0  0.689050  0.005369  0.683426  0.701187
 59.0    20.0  0.689050  0.005369  0.683426  0.701187
 60.0    20.0  0.689790  0.005560  0.683426  0.701187
 61.0    20.0  0.690234  0.005386  0.683426  0.701187
 62.0    20.0  0.690826  0.005254  0.683426  0.701187
 63.0    20.0  0.691270  0.004978  0.683426  0.701187
 64.0    20.0  0.691270  0.004978  0.683426  0.701187
 65.0    20.0  0.691418  0.004782  0.686386  0.701187
 66.0    20.0  0.691418  0.004782  0.686386  0.701187
 67.0    20.0  0.692159  0.004725  0.686386  0.701187
 68.0    20.0  0.692159  0.004725  0.686386  0.701187
 69.0    20.0  0.692159  0.004725  0.686386  0.701187
 70.0    20.0  0.692159  0.004725  0.686386  0.701187
 71.0    20.0  0.692159  0.004725  0.686386  0.701187
 72.0    20.0  0.692159  0.004725  0.686386  0.701187
 73.0    20.0  0.692159  0.004725  0.686386  0.701187
 74.0    20.0  0.692159  0.004725  0.686386  0.701187
 75.0    20.0  0.692455  0.004535  0.686386  0.701187
 76.0    20.0  0.692455  0.004535  0.686386  0.701187
 77.0    20.0  0.692455  0.004535  0.686386  0.701187
 78.0    20.0  0.692455  0.004535  0.686386  0.701187
 79.0    20.0  0.692603  0.004381  0.686386  0.701187
 80.0    20.0  0.692603  0.004381  0.686386  0.701187
 81.0    20.0  0.692751  0.004215  0.686386  0.701187
 82.0    20.0  0.693491  0.003905  0.686386  0.701187
 83.0    20.0  0.693639  0.003682  0.689346  0.701187
 84.0    20.0  0.693787  0.003565  0.689346  0.701187
 85.0    20.0  0.694083  0.003427  0.689346  0.701187
 86.0    20.0  0.694083  0.003427  0.689346  0.701187
 87.0    20.0  0.694823  0.003891  0.689346  0.704147
 88.0    20.0  0.694823  0.003891  0.689346  0.704147
 89.0    20.0  0.694971  0.003733  0.689346  0.704147
 90.0    20.0  0.695563  0.003229  0.692307  0.704147
 91.0    20.0  0.696155  0.002975  0.692307  0.704147
 92.0    20.0  0.696155  0.002975  0.692307  0.704147
 93.0    20.0  0.696451  0.002870  0.692307  0.704147
 94.0    20.0  0.696599  0.002725  0.692307  0.704147
 95.0    20.0  0.696599  0.002725  0.692307  0.704147
 96.0    20.0  0.696747  0.002564  0.692307  0.704147
 97.0    20.0  0.696747  0.002564  0.692307  0.704147
 98.0    20.0  0.696747  0.002564  0.692307  0.704147
 99.0    20.0  0.696747  0.002564  0.692307  0.704147
100.0    20.0  0.696747  0.002564  0.692307  0.704147
101.0    20.0  0.697634  0.003695  0.695267  0.710052
102.0    20.0  0.697782  0.003656  0.695267  0.710052
103.0    20.0  0.697782  0.003656  0.695267  0.710052
104.0    20.0  0.697930  0.003611  0.695267  0.710052
105.0    20.0  0.697930  0.003611  0.695267  0.710052
106.0    20.0  0.697930  0.003611  0.695267  0.710052
107.0    20.0  0.697930  0.003611  0.695267  0.710052
108.0    20.0  0.697930  0.003611  0.695267  0.710052
109.0    20.0  0.697930  0.003611  0.695267  0.710052
110.0    20.0  0.698522  0.004067  0.695267  0.710052
111.0    20.0  0.698818  0.003925  0.695267  0.710052
112.0    20.0  0.698818  0.003925  0.695267  0.710052
113.0    20.0  0.698818  0.003925  0.695267  0.710052
114.0    20.0  0.699114  0.003869  0.695267  0.710052
115.0    20.0  0.699706  0.004132  0.695267  0.710052
116.0    20.0  0.700150  0.004108  0.695267  0.710052
117.0    20.0  0.700150  0.004108  0.695267  0.710052
118.0    20.0  0.700150  0.004108  0.695267  0.710052
119.0    20.0  0.700298  0.003981  0.695267  0.710052
120.0    20.0  0.700298  0.003981  0.695267  0.710052
121.0    20.0  0.700298  0.003981  0.695267  0.710052
122.0    20.0  0.700298  0.003981  0.695267  0.710052
123.0    20.0  0.700742  0.003657  0.698227  0.710052
124.0    20.0  0.700742  0.003657  0.698227  0.710052
125.0    20.0  0.700742  0.003657  0.698227  0.710052
126.0    20.0  0.701334  0.003681  0.698227  0.710052
127.0    20.0  0.701334  0.003681  0.698227  0.710052
128.0    20.0  0.701334  0.003681  0.698227  0.710052
129.0    20.0  0.701334  0.003681  0.698227  0.710052
130.0    20.0  0.701334  0.003681  0.698227  0.710052
131.0    20.0  0.701334  0.003681  0.698227  0.710052
132.0    20.0  0.701334  0.003681  0.698227  0.710052
133.0    20.0  0.701334  0.003681  0.698227  0.710052
134.0    20.0  0.701334  0.003681  0.698227  0.710052
135.0    20.0  0.701334  0.003681  0.698227  0.710052
136.0    20.0  0.701334  0.003681  0.698227  0.710052
137.0    20.0  0.701334  0.003681  0.698227  0.710052
138.0    20.0  0.701334  0.003681  0.698227  0.710052
139.0    20.0  0.701334  0.003681  0.698227  0.710052
140.0    20.0  0.701334  0.003681  0.698227  0.710052
141.0    20.0  0.701334  0.003681  0.698227  0.710052
142.0    20.0  0.701482  0.003612  0.698227  0.710052
143.0    20.0  0.701630  0.003535  0.698227  0.710052
144.0    20.0  0.701630  0.003535  0.698227  0.710052
145.0    20.0  0.701778  0.003450  0.698227  0.710052
146.0    20.0  0.701778  0.003450  0.698227  0.710052
147.0    20.0  0.701778  0.003450  0.698227  0.710052
148.0    20.0  0.701926  0.003357  0.698227  0.710052
149.0    20.0  0.701926  0.003357  0.698227  0.710052
150.0    20.0  0.701926  0.003357  0.698227  0.710052
151.0    20.0  0.701926  0.003357  0.698227  0.710052
152.0    20.0  0.701926  0.003357  0.698227  0.710052
153.0    20.0  0.701926  0.003357  0.698227  0.710052
154.0    20.0  0.701926  0.003357  0.698227  0.710052
155.0    20.0  0.701926  0.003357  0.698227  0.710052
156.0    20.0  0.701926  0.003357  0.698227  0.710052
157.0    20.0  0.701926  0.003357  0.698227  0.710052
158.0    20.0  0.701926  0.003357  0.698227  0.710052
159.0    20.0  0.701926  0.003357  0.698227  0.710052
160.0    20.0  0.701926  0.003357  0.698227  0.710052
161.0    20.0  0.701926  0.003357  0.698227  0.710052
162.0    20.0  0.701926  0.003357  0.698227  0.710052
163.0    20.0  0.701926  0.003357  0.698227  0.710052
164.0    20.0  0.701926  0.003357  0.698227  0.710052
165.0    20.0  0.701926  0.003357  0.698227  0.710052
166.0    20.0  0.701926  0.003357  0.698227  0.710052
167.0    20.0  0.701926  0.003357  0.698227  0.710052
168.0    20.0  0.702074  0.003254  0.698227  0.710052
169.0    20.0  0.702074  0.003254  0.698227  0.710052
170.0    20.0  0.702074  0.003254  0.698227  0.710052
171.0    20.0  0.702074  0.003254  0.698227  0.710052
172.0    20.0  0.702074  0.003254  0.698227  0.710052
173.0    20.0  0.702074  0.003254  0.698227  0.710052
174.0    20.0  0.702074  0.003254  0.698227  0.710052
175.0    20.0  0.702074  0.003254  0.698227  0.710052
176.0    20.0  0.702222  0.003141  0.698227  0.710052
177.0    20.0  0.702666  0.003173  0.698227  0.710052
178.0    20.0  0.702666  0.003173  0.698227  0.710052
179.0    20.0  0.703258  0.003385  0.698227  0.710052
180.0    20.0  0.703258  0.003385  0.698227  0.710052
181.0    20.0  0.703406  0.003223  0.698227  0.710052
182.0    20.0  0.703406  0.003223  0.698227  0.710052
183.0    20.0  0.703554  0.003044  0.701187  0.710052
184.0    20.0  0.703554  0.003044  0.701187  0.710052
185.0    20.0  0.703554  0.003044  0.701187  0.710052
186.0    20.0  0.703554  0.003044  0.701187  0.710052
187.0    20.0  0.703850  0.003087  0.701187  0.710052
188.0    20.0  0.703850  0.003087  0.701187  0.710052
189.0    20.0  0.703850  0.003087  0.701187  0.710052
190.0    20.0  0.703850  0.003087  0.701187  0.710052
191.0    20.0  0.703850  0.003087  0.701187  0.710052
192.0    20.0  0.703850  0.003087  0.701187  0.710052
193.0    20.0  0.703850  0.003087  0.701187  0.710052
194.0    20.0  0.703850  0.003087  0.701187  0.710052
195.0    20.0  0.703850  0.003087  0.701187  0.710052
196.0    20.0  0.703850  0.003087  0.701187  0.710052
197.0    20.0  0.703850  0.003087  0.701187  0.710052
198.0    20.0  0.703850  0.003087  0.701187  0.710052
199.0    20.0  0.703850  0.003087  0.701187  0.710052
200.0    20.0  0.703850  0.003087  0.701187  0.710052
201.0    20.0  0.703850  0.003087  0.701187  0.710052
202.0    20.0  0.703998  0.003027  0.701187  0.710052
203.0    20.0  0.703998  0.003027  0.701187  0.710052
204.0    20.0  0.703998  0.003027  0.701187  0.710052
205.0    20.0  0.703998  0.003027  0.701187  0.710052
206.0    20.0  0.704146  0.002957  0.701187  0.710052
207.0    20.0  0.704146  0.002957  0.701187  0.710052
208.0    20.0  0.704146  0.002957  0.701187  0.710052
209.0    20.0  0.704146  0.002957  0.701187  0.710052
210.0    20.0  0.704442  0.002942  0.701187  0.710052
211.0    20.0  0.704442  0.002942  0.701187  0.710052
212.0    20.0  0.704442  0.002942  0.701187  0.710052
213.0    20.0  0.704442  0.002942  0.701187  0.710052
214.0    20.0  0.704442  0.002942  0.701187  0.710052
215.0    20.0  0.704442  0.002942  0.701187  0.710052
216.0    20.0  0.704442  0.002942  0.701187  0.710052
217.0    20.0  0.704738  0.002898  0.701187  0.710052
218.0    20.0  0.704886  0.002786  0.701187  0.710052
219.0    20.0  0.705182  0.002690  0.701187  0.710052
220.0    20.0  0.705182  0.002690  0.701187  0.710052
221.0    20.0  0.705182  0.002690  0.701187  0.710052
222.0    20.0  0.705182  0.002690  0.701187  0.710052
223.0    20.0  0.705478  0.002557  0.701187  0.710052
224.0    20.0  0.705478  0.002557  0.701187  0.710052
225.0    20.0  0.705478  0.002557  0.701187  0.710052
226.0    20.0  0.705478  0.002557  0.701187  0.710052
227.0    20.0  0.706069  0.002341  0.701187  0.710052
228.0    20.0  0.706069  0.002341  0.701187  0.710052
229.0    20.0  0.706069  0.002341  0.701187  0.710052
230.0    20.0  0.706069  0.002341  0.701187  0.710052
231.0    20.0  0.706069  0.002341  0.701187  0.710052
232.0    20.0  0.706069  0.002341  0.701187  0.710052
233.0    20.0  0.706069  0.002341  0.701187  0.710052
234.0    20.0  0.706069  0.002341  0.701187  0.710052
235.0    20.0  0.706069  0.002341  0.701187  0.710052
236.0    20.0  0.706069  0.002341  0.701187  0.710052
237.0    20.0  0.706069  0.002341  0.701187  0.710052
238.0    20.0  0.706069  0.002341  0.701187  0.710052
239.0    20.0  0.706069  0.002341  0.701187  0.710052
240.0    20.0  0.706069  0.002341  0.701187  0.710052
241.0    20.0  0.706512  0.002210  0.704147  0.710052
242.0    20.0  0.706512  0.002210  0.704147  0.710052
243.0    20.0  0.706512  0.002210  0.704147  0.710052
244.0    20.0  0.706512  0.002210  0.704147  0.710052
245.0    20.0  0.706512  0.002210  0.704147  0.710052
246.0    20.0  0.706512  0.002210  0.704147  0.710052
247.0    20.0  0.706512  0.002210  0.704147  0.710052
248.0    20.0  0.706512  0.002210  0.704147  0.710052
249.0    20.0  0.706512  0.002210  0.704147  0.710052
250.0    20.0  0.706512  0.002210  0.704147  0.710052
251.0    20.0  0.706808  0.002268  0.704147  0.710052
252.0    20.0  0.706808  0.002268  0.704147  0.710052
253.0    20.0  0.706808  0.002268  0.704147  0.710052
254.0    20.0  0.706808  0.002268  0.704147  0.710052
255.0    20.0  0.706808  0.002268  0.704147  0.710052
256.0    20.0  0.706956  0.002185  0.704147  0.710052
257.0    20.0  0.706956  0.002185  0.704147  0.710052
258.0    20.0  0.706956  0.002185  0.704147  0.710052
259.0    20.0  0.706956  0.002185  0.704147  0.710052
260.0    20.0  0.706956  0.002185  0.704147  0.710052
261.0    20.0  0.706956  0.002185  0.704147  0.710052
262.0    20.0  0.706956  0.002185  0.704147  0.710052
263.0    20.0  0.706956  0.002185  0.704147  0.710052
264.0    20.0  0.707399  0.002453  0.704147  0.713013
265.0    20.0  0.707399  0.002453  0.704147  0.713013
266.0    20.0  0.707399  0.002453  0.704147  0.713013
267.0    20.0  0.707399  0.002453  0.704147  0.713013
268.0    20.0  0.707399  0.002453  0.704147  0.713013
269.0    20.0  0.707399  0.002453  0.704147  0.713013
270.0    20.0  0.707399  0.002453  0.704147  0.713013
271.0    20.0  0.707399  0.002453  0.704147  0.713013
272.0    20.0  0.707399  0.002453  0.704147  0.713013
273.0    20.0  0.707399  0.002453  0.704147  0.713013
274.0    20.0  0.707399  0.002453  0.704147  0.713013
275.0    20.0  0.707399  0.002453  0.704147  0.713013
276.0    20.0  0.707399  0.002453  0.704147  0.713013
277.0    20.0  0.707399  0.002453  0.704147  0.713013
278.0    20.0  0.707399  0.002453  0.704147  0.713013
279.0    20.0  0.707399  0.002453  0.704147  0.713013
280.0    20.0  0.707399  0.002453  0.704147  0.713013
281.0    20.0  0.707547  0.002339  0.704147  0.713013
282.0    20.0  0.707547  0.002339  0.704147  0.713013
283.0    20.0  0.707547  0.002339  0.704147  0.713013
284.0    20.0  0.708286  0.003291  0.704147  0.718933
285.0    20.0  0.708286  0.003291  0.704147  0.718933
286.0    20.0  0.708286  0.003291  0.704147  0.718933
287.0    20.0  0.708286  0.003291  0.704147  0.718933
288.0    20.0  0.708286  0.003291  0.704147  0.718933
289.0    20.0  0.708582  0.003169  0.704147  0.718933
290.0    20.0  0.708582  0.003169  0.704147  0.718933
291.0    20.0  0.709025  0.003137  0.704147  0.718933
292.0    20.0  0.709025  0.003137  0.704147  0.718933
293.0    20.0  0.709025  0.003137  0.704147  0.718933
294.0    20.0  0.709025  0.003137  0.704147  0.718933
295.0    20.0  0.709025  0.003137  0.704147  0.718933
296.0    20.0  0.709025  0.003137  0.704147  0.718933
297.0    20.0  0.709025  0.003137  0.704147  0.718933
298.0    20.0  0.709025  0.003137  0.704147  0.718933
299.0    20.0  0.709025  0.003137  0.704147  0.718933
300.0    20.0  0.709025  0.003137  0.704147  0.718933
301.0    20.0  0.709616  0.003274  0.707108  0.718933
302.0    20.0  0.709911  0.003300  0.707108  0.718933
303.0    20.0  0.709911  0.003300  0.707108  0.718933
304.0    20.0  0.710059  0.003237  0.707108  0.718933
305.0    20.0  0.710059  0.003237  0.707108  0.718933
306.0    20.0  0.710206  0.003166  0.707108  0.718933
307.0    20.0  0.710206  0.003166  0.707108  0.718933
308.0    20.0  0.710206  0.003166  0.707108  0.718933
309.0    20.0  0.710206  0.003166  0.707108  0.718933
310.0    20.0  0.710206  0.003166  0.707108  0.718933
311.0    20.0  0.710501  0.003138  0.707108  0.718933
312.0    20.0  0.710501  0.003138  0.707108  0.718933
313.0    20.0  0.710501  0.003138  0.707108  0.718933
314.0    20.0  0.711388  0.004334  0.707108  0.724854
315.0    20.0  0.711832  0.004327  0.707108  0.724854
316.0    20.0  0.711832  0.004327  0.707108  0.724854
317.0    20.0  0.711832  0.004327  0.707108  0.724854
318.0    20.0  0.711832  0.004327  0.707108  0.724854
319.0    20.0  0.711832  0.004327  0.707108  0.724854
320.0    20.0  0.711832  0.004327  0.707108  0.724854
321.0    20.0  0.711832  0.004327  0.707108  0.724854
322.0    20.0  0.711832  0.004327  0.707108  0.724854
323.0    20.0  0.711832  0.004327  0.707108  0.724854
324.0    20.0  0.711832  0.004327  0.707108  0.724854
325.0    20.0  0.711832  0.004327  0.707108  0.724854
326.0    20.0  0.711832  0.004327  0.707108  0.724854
327.0    20.0  0.711832  0.004327  0.707108  0.724854
328.0    20.0  0.711832  0.004327  0.707108  0.724854
329.0    20.0  0.711832  0.004327  0.707108  0.724854
330.0    20.0  0.711832  0.004327  0.707108  0.724854
331.0    20.0  0.711832  0.004327  0.707108  0.724854
332.0    20.0  0.711832  0.004327  0.707108  0.724854
333.0    20.0  0.711832  0.004327  0.707108  0.724854
334.0    20.0  0.711832  0.004327  0.707108  0.724854
335.0    20.0  0.711832  0.004327  0.707108  0.724854
336.0    20.0  0.711832  0.004327  0.707108  0.724854
337.0    20.0  0.711832  0.004327  0.707108  0.724854
338.0    20.0  0.711832  0.004327  0.707108  0.724854
339.0    20.0  0.711832  0.004327  0.707108  0.724854
340.0    20.0  0.711832  0.004327  0.707108  0.724854
341.0    20.0  0.711832  0.004327  0.707108  0.724854
342.0    20.0  0.711832  0.004327  0.707108  0.724854
343.0    20.0  0.711832  0.004327  0.707108  0.724854
344.0    20.0  0.711832  0.004327  0.707108  0.724854
345.0    20.0  0.711832  0.004327  0.707108  0.724854
346.0    20.0  0.711832  0.004327  0.707108  0.724854
347.0    20.0  0.711832  0.004327  0.707108  0.724854
348.0    20.0  0.711832  0.004327  0.707108  0.724854
349.0    20.0  0.711832  0.004327  0.707108  0.724854
350.0    20.0  0.711832  0.004327  0.707108  0.724854
351.0    20.0  0.711832  0.004327  0.707108  0.724854
352.0    20.0  0.711832  0.004327  0.707108  0.724854
353.0    20.0  0.711832  0.004327  0.707108  0.724854
354.0    20.0  0.712127  0.004194  0.707108  0.724854
355.0    20.0  0.712866  0.004534  0.707108  0.724854
356.0    20.0  0.712866  0.004534  0.707108  0.724854
357.0    20.0  0.713013  0.004390  0.707108  0.724854
358.0    20.0  0.713013  0.004390  0.707108  0.724854
359.0    20.0  0.713013  0.004390  0.707108  0.724854
360.0    20.0  0.713013  0.004390  0.707108  0.724854
361.0    20.0  0.713013  0.004390  0.707108  0.724854
362.0    20.0  0.713013  0.004390  0.707108  0.724854
363.0    20.0  0.713013  0.004390  0.707108  0.724854
364.0    20.0  0.713013  0.004390  0.707108  0.724854
365.0    20.0  0.713013  0.004390  0.707108  0.724854
366.0    20.0  0.713013  0.004390  0.707108  0.724854
367.0    20.0  0.713161  0.004236  0.710052  0.724854
368.0    20.0  0.713161  0.004236  0.710052  0.724854
369.0    20.0  0.713161  0.004236  0.710052  0.724854
370.0    20.0  0.713161  0.004236  0.710052  0.724854
371.0    20.0  0.713161  0.004236  0.710052  0.724854
372.0    20.0  0.713161  0.004236  0.710052  0.724854
373.0    20.0  0.713161  0.004236  0.710052  0.724854
374.0    20.0  0.713161  0.004236  0.710052  0.724854
375.0    20.0  0.713161  0.004236  0.710052  0.724854
376.0    20.0  0.713901  0.004873  0.710052  0.724854
377.0    20.0  0.713901  0.004873  0.710052  0.724854
378.0    20.0  0.713901  0.004873  0.710052  0.724854
379.0    20.0  0.713901  0.004873  0.710052  0.724854
380.0    20.0  0.713901  0.004873  0.710052  0.724854
381.0    20.0  0.713901  0.004873  0.710052  0.724854
382.0    20.0  0.713901  0.004873  0.710052  0.724854
383.0    20.0  0.713901  0.004873  0.710052  0.724854
384.0    20.0  0.713901  0.004873  0.710052  0.724854
385.0    20.0  0.713901  0.004873  0.710052  0.724854
386.0    20.0  0.713901  0.004873  0.710052  0.724854
387.0    20.0  0.713901  0.004873  0.710052  0.724854
388.0    20.0  0.713901  0.004873  0.710052  0.724854
389.0    20.0  0.713901  0.004873  0.710052  0.724854
390.0    20.0  0.713901  0.004873  0.710052  0.724854
391.0    20.0  0.713901  0.004873  0.710052  0.724854
392.0    20.0  0.713901  0.004873  0.710052  0.724854
393.0    20.0  0.713901  0.004873  0.710052  0.724854
394.0    20.0  0.713901  0.004873  0.710052  0.724854
395.0    20.0  0.713901  0.004873  0.710052  0.724854
396.0    20.0  0.713901  0.004873  0.710052  0.724854
397.0    20.0  0.713901  0.004873  0.710052  0.724854
398.0    20.0  0.713901  0.004873  0.710052  0.724854
399.0    20.0  0.713901  0.004873  0.710052  0.724854
400.0    20.0  0.713901  0.004873  0.710052  0.724854
401.0    20.0  0.713901  0.004873  0.710052  0.724854
402.0    20.0  0.713901  0.004873  0.710052  0.724854
403.0    20.0  0.713901  0.004873  0.710052  0.724854
404.0    20.0  0.714049  0.004798  0.710052  0.724854
405.0    20.0  0.714049  0.004798  0.710052  0.724854
406.0    20.0  0.714049  0.004798  0.710052  0.724854
407.0    20.0  0.714049  0.004798  0.710052  0.724854
408.0    20.0  0.714049  0.004798  0.710052  0.724854
409.0    20.0  0.714049  0.004798  0.710052  0.724854
410.0    20.0  0.714049  0.004798  0.710052  0.724854
411.0    20.0  0.714049  0.004798  0.710052  0.724854
412.0    20.0  0.714049  0.004798  0.710052  0.724854
413.0    20.0  0.714049  0.004798  0.710052  0.724854
414.0    20.0  0.714049  0.004798  0.710052  0.724854
415.0    20.0  0.714049  0.004798  0.710052  0.724854
416.0    20.0  0.714493  0.004819  0.710052  0.724854
417.0    20.0  0.714493  0.004819  0.710052  0.724854
418.0    20.0  0.714493  0.004819  0.710052  0.724854
419.0    20.0  0.714493  0.004819  0.710052  0.724854
420.0    20.0  0.714493  0.004819  0.710052  0.724854
421.0    20.0  0.714493  0.004819  0.710052  0.724854
422.0    20.0  0.714493  0.004819  0.710052  0.724854
423.0    20.0  0.714493  0.004819  0.710052  0.724854
424.0    20.0  0.714493  0.004819  0.710052  0.724854
425.0    20.0  0.714493  0.004819  0.710052  0.724854
426.0    20.0  0.714493  0.004819  0.710052  0.724854
427.0    20.0  0.714493  0.004819  0.710052  0.724854
428.0    20.0  0.715085  0.004690  0.710052  0.724854
429.0    20.0  0.715085  0.004690  0.710052  0.724854
430.0    20.0  0.715085  0.004690  0.710052  0.724854
431.0    20.0  0.715233  0.004574  0.710052  0.724854
432.0    20.0  0.715233  0.004574  0.710052  0.724854
433.0    20.0  0.715825  0.004338  0.710052  0.724854
434.0    20.0  0.715825  0.004338  0.710052  0.724854
435.0    20.0  0.715825  0.004338  0.710052  0.724854
436.0    20.0  0.715825  0.004338  0.710052  0.724854
437.0    20.0  0.715825  0.004338  0.710052  0.724854
438.0    20.0  0.715825  0.004338  0.710052  0.724854
439.0    20.0  0.715825  0.004338  0.710052  0.724854
440.0    20.0  0.715825  0.004338  0.710052  0.724854
441.0    20.0  0.715825  0.004338  0.710052  0.724854
442.0    20.0  0.716565  0.004548  0.710052  0.724854
443.0    20.0  0.716565  0.004548  0.710052  0.724854
444.0    20.0  0.716565  0.004548  0.710052  0.724854
445.0    20.0  0.716565  0.004548  0.710052  0.724854
446.0    20.0  0.716861  0.004300  0.713013  0.724854
447.0    20.0  0.716861  0.004300  0.713013  0.724854
448.0    20.0  0.716861  0.004300  0.713013  0.724854
449.0    20.0  0.716861  0.004300  0.713013  0.724854
450.0    20.0  0.716861  0.004300  0.713013  0.724854
451.0    20.0  0.716861  0.004300  0.713013  0.724854
452.0    20.0  0.716861  0.004300  0.713013  0.724854
453.0    20.0  0.716861  0.004300  0.713013  0.724854
454.0    20.0  0.716861  0.004300  0.713013  0.724854
455.0    20.0  0.716861  0.004300  0.713013  0.724854
456.0    20.0  0.716861  0.004300  0.713013  0.724854
457.0    20.0  0.716861  0.004300  0.713013  0.724854
458.0    20.0  0.716861  0.004300  0.713013  0.724854
459.0    20.0  0.716861  0.004300  0.713013  0.724854
460.0    20.0  0.716861  0.004300  0.713013  0.724854
461.0    20.0  0.716861  0.004300  0.713013  0.724854
462.0    20.0  0.716861  0.004300  0.713013  0.724854
463.0    20.0  0.716861  0.004300  0.713013  0.724854
464.0    20.0  0.716861  0.004300  0.713013  0.724854
465.0    20.0  0.716861  0.004300  0.713013  0.724854
466.0    20.0  0.716861  0.004300  0.713013  0.724854
467.0    20.0  0.716861  0.004300  0.713013  0.724854
468.0    20.0  0.716861  0.004300  0.713013  0.724854
469.0    20.0  0.716861  0.004300  0.713013  0.724854
470.0    20.0  0.716861  0.004300  0.713013  0.724854
471.0    20.0  0.717009  0.004215  0.713013  0.724854
472.0    20.0  0.717009  0.004215  0.713013  0.724854
473.0    20.0  0.717009  0.004215  0.713013  0.724854
474.0    20.0  0.717009  0.004215  0.713013  0.724854
475.0    20.0  0.717009  0.004215  0.713013  0.724854
476.0    20.0  0.717009  0.004215  0.713013  0.724854
477.0    20.0  0.717009  0.004215  0.713013  0.724854
478.0    20.0  0.717009  0.004215  0.713013  0.724854
479.0    20.0  0.717009  0.004215  0.713013  0.724854
480.0    20.0  0.717009  0.004215  0.713013  0.724854
481.0    20.0  0.717305  0.004131  0.713013  0.724854
482.0    20.0  0.717305  0.004131  0.713013  0.724854
483.0    20.0  0.717305  0.004131  0.713013  0.724854
484.0    20.0  0.717305  0.004131  0.713013  0.724854
485.0    20.0  0.717305  0.004131  0.713013  0.724854
486.0    20.0  0.717305  0.004131  0.713013  0.724854
487.0    20.0  0.717305  0.004131  0.713013  0.724854
488.0    20.0  0.717305  0.004131  0.713013  0.724854
489.0    20.0  0.717305  0.004131  0.713013  0.724854
490.0    20.0  0.717305  0.004131  0.713013  0.724854
491.0    20.0  0.717305  0.004131  0.713013  0.724854
492.0    20.0  0.717305  0.004131  0.713013  0.724854
493.0    20.0  0.717305  0.004131  0.713013  0.724854
494.0    20.0  0.717305  0.004131  0.713013  0.724854
495.0    20.0  0.717305  0.004131  0.713013  0.724854
496.0    20.0  0.717305  0.004131  0.713013  0.724854
497.0    20.0  0.717305  0.004131  0.713013  0.724854
498.0    20.0  0.717453  0.004026  0.713013  0.724854
499.0    20.0  0.718045  0.004197  0.713013  0.724854
