gen  nevals       avg       std       min       max
  0.0    20.0  0.586330  0.060515  0.482010  0.726624
  1.0    20.0  0.631656  0.034474  0.582733  0.726624
  2.0    20.0  0.646764  0.025930  0.611511  0.726624
  3.0    20.0  0.662592  0.024281  0.640289  0.726624
  4.0    20.0  0.672665  0.024024  0.640289  0.726624
  5.0    20.0  0.682018  0.020298  0.654678  0.726624
  6.0    20.0  0.687773  0.016469  0.669067  0.726624
  7.0    20.0  0.697126  0.016703  0.683456  0.726624
  8.0    20.0  0.701443  0.022694  0.683456  0.769791
  9.0    20.0  0.710796  0.021294  0.683456  0.769791
 10.0    20.0  0.718710  0.017312  0.697845  0.769791
 11.0    20.0  0.725185  0.015023  0.712234  0.769791
 12.0    20.0  0.725904  0.014727  0.712234  0.769791
 13.0    20.0  0.728782  0.014585  0.712234  0.769791
 14.0    20.0  0.736696  0.014461  0.712234  0.769791
 15.0    20.0  0.741732  0.012441  0.726624  0.769791
 16.0    20.0  0.743890  0.011690  0.726624  0.769791
 17.0    20.0  0.748927  0.010647  0.741013  0.769791
 18.0    20.0  0.751804  0.012769  0.741013  0.784180
 19.0    20.0  0.755402  0.012870  0.741013  0.784180
 20.0    20.0  0.756841  0.012789  0.741013  0.784180
 21.0    20.0  0.761156  0.016654  0.741013  0.812943
 22.0    20.0  0.764034  0.016021  0.741013  0.812943
 23.0    20.0  0.764034  0.016021  0.741013  0.812943
 24.0    20.0  0.767632  0.014583  0.755402  0.812943
 25.0    20.0  0.769070  0.014724  0.755402  0.812943
 26.0    20.0  0.771948  0.015277  0.755402  0.812943
 27.0    20.0  0.774107  0.013724  0.755402  0.812943
 28.0    20.0  0.775546  0.013186  0.755402  0.812943
 29.0    20.0  0.776265  0.012438  0.755402  0.812943
 30.0    20.0  0.779143  0.012271  0.769791  0.812943
 31.0    20.0  0.779862  0.012122  0.769791  0.812943
 32.0    20.0  0.779862  0.012122  0.769791  0.812943
 33.0    20.0  0.779862  0.012122  0.769791  0.812943
 34.0    20.0  0.780582  0.011929  0.769791  0.812943
 35.0    20.0  0.780582  0.011929  0.769791  0.812943
 36.0    20.0  0.781301  0.011688  0.769791  0.812943
 37.0    20.0  0.781301  0.011688  0.769791  0.812943
 38.0    20.0  0.781301  0.011688  0.769791  0.812943
 39.0    20.0  0.781301  0.011688  0.769791  0.812943
 40.0    20.0  0.783459  0.013243  0.769791  0.812943
 41.0    20.0  0.783459  0.013243  0.769791  0.812943
 42.0    20.0  0.784178  0.012866  0.769791  0.812943
 43.0    20.0  0.785617  0.011949  0.769791  0.812943
 44.0    20.0  0.787056  0.011686  0.769791  0.812943
 45.0    20.0  0.788495  0.011235  0.769791  0.812943
 46.0    20.0  0.789934  0.010570  0.769791  0.812943
 47.0    20.0  0.791373  0.009649  0.784180  0.812943
 48.0    20.0  0.791373  0.009649  0.784180  0.812943
 49.0    20.0  0.791373  0.009649  0.784180  0.812943
 50.0    20.0  0.791373  0.009649  0.784180  0.812943
 51.0    20.0  0.792092  0.009622  0.784180  0.812943
 52.0    20.0  0.792812  0.009541  0.784180  0.812943
 53.0    20.0  0.792812  0.009541  0.784180  0.812943
 54.0    20.0  0.794250  0.010272  0.784180  0.812943
 55.0    20.0  0.794250  0.010272  0.784180  0.812943
 56.0    20.0  0.794250  0.010272  0.784180  0.812943
 57.0    20.0  0.794969  0.010042  0.784180  0.812943
 58.0    20.0  0.796407  0.010446  0.784180  0.812943
 59.0    20.0  0.797845  0.010641  0.784180  0.812943
 60.0    20.0  0.798565  0.010169  0.784180  0.812943
 61.0    20.0  0.798565  0.010169  0.784180  0.812943
 62.0    20.0  0.800004  0.008980  0.784180  0.812943
 63.0    20.0  0.800004  0.008980  0.784180  0.812943
 64.0    20.0  0.800723  0.008229  0.784180  0.812943
 65.0    20.0  0.801443  0.007331  0.784180  0.812943
 66.0    20.0  0.801443  0.007331  0.784180  0.812943
 67.0    20.0  0.801443  0.007331  0.784180  0.812943
 68.0    20.0  0.801443  0.007331  0.784180  0.812943
 69.0    20.0  0.802162  0.006224  0.798569  0.812943
 70.0    20.0  0.802162  0.006224  0.798569  0.812943
 71.0    20.0  0.802162  0.006224  0.798569  0.812943
 72.0    20.0  0.802162  0.006224  0.798569  0.812943
 73.0    20.0  0.802162  0.006224  0.798569  0.812943
 74.0    20.0  0.803600  0.008228  0.798569  0.827332
 75.0    20.0  0.804319  0.008383  0.798569  0.827332
 76.0    20.0  0.804319  0.008383  0.798569  0.827332
 77.0    20.0  0.805038  0.008475  0.798569  0.827332
 78.0    20.0  0.805038  0.008475  0.798569  0.827332
 79.0    20.0  0.805756  0.008506  0.798569  0.827332
 80.0    20.0  0.805756  0.008506  0.798569  0.827332
 81.0    20.0  0.805756  0.008506  0.798569  0.827332
 82.0    20.0  0.805756  0.008506  0.798569  0.827332
 83.0    20.0  0.807194  0.008383  0.798569  0.827332
 84.0    20.0  0.807912  0.008228  0.798569  0.827332
 85.0    20.0  0.807912  0.008228  0.798569  0.827332
 86.0    20.0  0.808631  0.008005  0.798569  0.827332
 87.0    20.0  0.808631  0.008005  0.798569  0.827332
 88.0    20.0  0.808631  0.008005  0.798569  0.827332
 89.0    20.0  0.808631  0.008005  0.798569  0.827332
 90.0    20.0  0.810069  0.008627  0.798569  0.827332
 91.0    20.0  0.811507  0.007744  0.798569  0.827332
 92.0    20.0  0.812945  0.007877  0.798569  0.827332
 93.0    20.0  0.815821  0.008632  0.798569  0.841721
 94.0    20.0  0.815821  0.008632  0.798569  0.841721
 95.0    20.0  0.816540  0.007715  0.812943  0.841721
 96.0    20.0  0.817259  0.008011  0.812943  0.841721
 97.0    20.0  0.817259  0.008011  0.812943  0.841721
 98.0    20.0  0.817979  0.008235  0.812943  0.841721
 99.0    20.0  0.817979  0.008235  0.812943  0.841721
100.0    20.0  0.817979  0.008235  0.812943  0.841721
101.0    20.0  0.817979  0.008235  0.812943  0.841721
102.0    20.0  0.817979  0.008235  0.812943  0.841721
103.0    20.0  0.817979  0.008235  0.812943  0.841721
104.0    20.0  0.817979  0.008235  0.812943  0.841721
105.0    20.0  0.820137  0.011601  0.812943  0.856110
106.0    20.0  0.820856  0.011579  0.812943  0.856110
107.0    20.0  0.820856  0.011579  0.812943  0.856110
108.0    20.0  0.820856  0.011579  0.812943  0.856110
109.0    20.0  0.820856  0.011579  0.812943  0.856110
110.0    20.0  0.820856  0.011579  0.812943  0.856110
111.0    20.0  0.821576  0.011511  0.812943  0.856110
112.0    20.0  0.822295  0.011398  0.812943  0.856110
113.0    20.0  0.823015  0.011238  0.812943  0.856110
114.0    20.0  0.823015  0.011238  0.812943  0.856110
115.0    20.0  0.823015  0.011238  0.812943  0.856110
116.0    20.0  0.823734  0.011029  0.812943  0.856110
117.0    20.0  0.824454  0.010768  0.812943  0.856110
118.0    20.0  0.824454  0.010768  0.812943  0.856110
119.0    20.0  0.824454  0.010768  0.812943  0.856110
120.0    20.0  0.825893  0.010072  0.812943  0.856110
121.0    20.0  0.827332  0.010175  0.812943  0.856110
122.0    20.0  0.828051  0.009626  0.812943  0.856110
123.0    20.0  0.828051  0.009626  0.812943  0.856110
124.0    20.0  0.828051  0.009626  0.812943  0.856110
125.0    20.0  0.828051  0.009626  0.812943  0.856110
126.0    20.0  0.828051  0.009626  0.812943  0.856110
127.0    20.0  0.828051  0.009626  0.812943  0.856110
128.0    20.0  0.830209  0.008633  0.812943  0.856110
129.0    20.0  0.830209  0.008633  0.812943  0.856110
130.0    20.0  0.830929  0.007715  0.827332  0.856110
131.0    20.0  0.830929  0.007715  0.827332  0.856110
132.0    20.0  0.832368  0.009408  0.827332  0.856110
133.0    20.0  0.832368  0.009408  0.827332  0.856110
134.0    20.0  0.832368  0.009408  0.827332  0.856110
135.0    20.0  0.832368  0.009408  0.827332  0.856110
136.0    20.0  0.832368  0.009408  0.827332  0.856110
137.0    20.0  0.832368  0.009408  0.827332  0.856110
138.0    20.0  0.832368  0.009408  0.827332  0.856110
139.0    20.0  0.832368  0.009408  0.827332  0.856110
140.0    20.0  0.833087  0.009545  0.827332  0.856110
141.0    20.0  0.833087  0.009545  0.827332  0.856110
142.0    20.0  0.833807  0.009626  0.827332  0.856110
143.0    20.0  0.833807  0.009626  0.827332  0.856110
144.0    20.0  0.833807  0.009626  0.827332  0.856110
145.0    20.0  0.833807  0.009626  0.827332  0.856110
146.0    20.0  0.833807  0.009626  0.827332  0.856110
147.0    20.0  0.833807  0.009626  0.827332  0.856110
148.0    20.0  0.833807  0.009626  0.827332  0.856110
149.0    20.0  0.834526  0.009652  0.827332  0.856110
150.0    20.0  0.834526  0.009652  0.827332  0.856110
151.0    20.0  0.834526  0.009652  0.827332  0.856110
152.0    20.0  0.834526  0.009652  0.827332  0.856110
153.0    20.0  0.835246  0.009626  0.827332  0.856110
154.0    20.0  0.835246  0.009626  0.827332  0.856110
155.0    20.0  0.835246  0.009626  0.827332  0.856110
156.0    20.0  0.835246  0.009626  0.827332  0.856110
157.0    20.0  0.835246  0.009626  0.827332  0.856110
158.0    20.0  0.835246  0.009626  0.827332  0.856110
159.0    20.0  0.835965  0.009545  0.827332  0.856110
160.0    20.0  0.835965  0.009545  0.827332  0.856110
161.0    20.0  0.835965  0.009545  0.827332  0.856110
162.0    20.0  0.835965  0.009545  0.827332  0.856110
163.0    20.0  0.835965  0.009545  0.827332  0.856110
164.0    20.0  0.835965  0.009545  0.827332  0.856110
165.0    20.0  0.835965  0.009545  0.827332  0.856110
166.0    20.0  0.835965  0.009545  0.827332  0.856110
167.0    20.0  0.835965  0.009545  0.827332  0.856110
168.0    20.0  0.835965  0.009545  0.827332  0.856110
169.0    20.0  0.836684  0.009408  0.827332  0.856110
170.0    20.0  0.836684  0.009408  0.827332  0.856110
171.0    20.0  0.836684  0.009408  0.827332  0.856110
172.0    20.0  0.836684  0.009408  0.827332  0.856110
173.0    20.0  0.836684  0.009408  0.827332  0.856110
174.0    20.0  0.836684  0.009408  0.827332  0.856110
175.0    20.0  0.836684  0.009408  0.827332  0.856110
176.0    20.0  0.836684  0.009408  0.827332  0.856110
177.0    20.0  0.836684  0.009408  0.827332  0.856110
178.0    20.0  0.837404  0.009213  0.827332  0.856110
179.0    20.0  0.837404  0.009213  0.827332  0.856110
180.0    20.0  0.837404  0.009213  0.827332  0.856110
181.0    20.0  0.837404  0.009213  0.827332  0.856110
182.0    20.0  0.839562  0.009408  0.827332  0.856110
183.0    20.0  0.839562  0.009408  0.827332  0.856110
184.0    20.0  0.839562  0.009408  0.827332  0.856110
185.0    20.0  0.839562  0.009408  0.827332  0.856110
186.0    20.0  0.840282  0.008986  0.827332  0.856110
187.0    20.0  0.840282  0.008986  0.827332  0.856110
188.0    20.0  0.840282  0.008986  0.827332  0.856110
189.0    20.0  0.840282  0.008986  0.827332  0.856110
190.0    20.0  0.840282  0.008986  0.827332  0.856110
191.0    20.0  0.840282  0.008986  0.827332  0.856110
192.0    20.0  0.842440  0.010647  0.827332  0.870499
193.0    20.0  0.843159  0.010072  0.827332  0.870499
194.0    20.0  0.843159  0.010072  0.827332  0.870499
195.0    20.0  0.843879  0.009408  0.827332  0.870499
196.0    20.0  0.843879  0.009408  0.827332  0.870499
197.0    20.0  0.843879  0.009408  0.827332  0.870499
198.0    20.0  0.843879  0.009408  0.827332  0.870499
199.0    20.0  0.846037  0.010276  0.827332  0.870499
200.0    20.0  0.846037  0.010276  0.827332  0.870499
201.0    20.0  0.846037  0.010276  0.827332  0.870499
202.0    20.0  0.846757  0.009408  0.841721  0.870499
203.0    20.0  0.846757  0.009408  0.841721  0.870499
204.0    20.0  0.846757  0.009408  0.841721  0.870499
205.0    20.0  0.846757  0.009408  0.841721  0.870499
206.0    20.0  0.846757  0.009408  0.841721  0.870499
207.0    20.0  0.846757  0.009408  0.841721  0.870499
208.0    20.0  0.846757  0.009408  0.841721  0.870499
209.0    20.0  0.846757  0.009408  0.841721  0.870499
210.0    20.0  0.846757  0.009408  0.841721  0.870499
211.0    20.0  0.846757  0.009408  0.841721  0.870499
212.0    20.0  0.846757  0.009408  0.841721  0.870499
213.0    20.0  0.846757  0.009408  0.841721  0.870499
214.0    20.0  0.846757  0.009408  0.841721  0.870499
215.0    20.0  0.846757  0.009408  0.841721  0.870499
216.0    20.0  0.846757  0.009408  0.841721  0.870499
217.0    20.0  0.847476  0.009545  0.841721  0.870499
218.0    20.0  0.847476  0.009545  0.841721  0.870499
219.0    20.0  0.848196  0.009626  0.841721  0.870499
220.0    20.0  0.848196  0.009626  0.841721  0.870499
221.0    20.0  0.848196  0.009626  0.841721  0.870499
222.0    20.0  0.849635  0.010647  0.841721  0.870499
223.0    20.0  0.849635  0.010647  0.841721  0.870499
224.0    20.0  0.849635  0.010647  0.841721  0.870499
225.0    20.0  0.851793  0.012950  0.841721  0.884888
226.0    20.0  0.851793  0.012950  0.841721  0.884888
227.0    20.0  0.851793  0.012950  0.841721  0.884888
228.0    20.0  0.852512  0.012769  0.841721  0.884888
229.0    20.0  0.853232  0.012544  0.841721  0.884888
230.0    20.0  0.856110  0.015762  0.841721  0.899277
231.0    20.0  0.856829  0.015414  0.841721  0.899277
232.0    20.0  0.856829  0.015414  0.841721  0.899277
233.0    20.0  0.856829  0.015414  0.841721  0.899277
234.0    20.0  0.857549  0.015023  0.841721  0.899277
235.0    20.0  0.858268  0.014585  0.841721  0.899277
236.0    20.0  0.858268  0.014585  0.841721  0.899277
237.0    20.0  0.858268  0.014585  0.841721  0.899277
238.0    20.0  0.858268  0.014585  0.841721  0.899277
239.0    20.0  0.858268  0.014585  0.841721  0.899277
240.0    20.0  0.858268  0.014585  0.841721  0.899277
241.0    20.0  0.858268  0.014585  0.841721  0.899277
242.0    20.0  0.858268  0.014585  0.841721  0.899277
243.0    20.0  0.858268  0.014585  0.841721  0.899277
244.0    20.0  0.858268  0.014585  0.841721  0.899277
245.0    20.0  0.858268  0.014585  0.841721  0.899277
246.0    20.0  0.858268  0.014585  0.841721  0.899277
247.0    20.0  0.858268  0.014585  0.841721  0.899277
248.0    20.0  0.858987  0.014098  0.841721  0.899277
249.0    20.0  0.858987  0.014098  0.841721  0.899277
250.0    20.0  0.858987  0.014098  0.841721  0.899277
251.0    20.0  0.858987  0.014098  0.841721  0.899277
252.0    20.0  0.858987  0.014098  0.841721  0.899277
253.0    20.0  0.858987  0.014098  0.841721  0.899277
254.0    20.0  0.858987  0.014098  0.841721  0.899277
255.0    20.0  0.858987  0.014098  0.841721  0.899277
256.0    20.0  0.858987  0.014098  0.841721  0.899277
257.0    20.0  0.858987  0.014098  0.841721  0.899277
258.0    20.0  0.858987  0.014098  0.841721  0.899277
259.0    20.0  0.859707  0.013555  0.841721  0.899277
260.0    20.0  0.859707  0.013555  0.841721  0.899277
261.0    20.0  0.859707  0.013555  0.841721  0.899277
262.0    20.0  0.860426  0.012950  0.841721  0.899277
263.0    20.0  0.860426  0.012950  0.841721  0.899277
264.0    20.0  0.861146  0.012273  0.841721  0.899277
265.0    20.0  0.861865  0.011511  0.856110  0.899277
266.0    20.0  0.862585  0.011579  0.856110  0.899277
267.0    20.0  0.862585  0.011579  0.856110  0.899277
268.0    20.0  0.862585  0.011579  0.856110  0.899277
269.0    20.0  0.862585  0.011579  0.856110  0.899277
270.0    20.0  0.862585  0.011579  0.856110  0.899277
271.0    20.0  0.862585  0.011579  0.856110  0.899277
272.0    20.0  0.862585  0.011579  0.856110  0.899277
273.0    20.0  0.862585  0.011579  0.856110  0.899277
274.0    20.0  0.862585  0.011579  0.856110  0.899277
275.0    20.0  0.862585  0.011579  0.856110  0.899277
276.0    20.0  0.862585  0.011579  0.856110  0.899277
277.0    20.0  0.864024  0.012441  0.856110  0.899277
278.0    20.0  0.864024  0.012441  0.856110  0.899277
279.0    20.0  0.864024  0.012441  0.856110  0.899277
280.0    20.0  0.864024  0.012441  0.856110  0.899277
281.0    20.0  0.864024  0.012441  0.856110  0.899277
282.0    20.0  0.864024  0.012441  0.856110  0.899277
283.0    20.0  0.864024  0.012441  0.856110  0.899277
284.0    20.0  0.864024  0.012441  0.856110  0.899277
285.0    20.0  0.864024  0.012441  0.856110  0.899277
286.0    20.0  0.864024  0.012441  0.856110  0.899277
287.0    20.0  0.864024  0.012441  0.856110  0.899277
288.0    20.0  0.864743  0.012378  0.856110  0.899277
289.0    20.0  0.864743  0.012378  0.856110  0.899277
290.0    20.0  0.864743  0.012378  0.856110  0.899277
291.0    20.0  0.864743  0.012378  0.856110  0.899277
292.0    20.0  0.864743  0.012378  0.856110  0.899277
293.0    20.0  0.864743  0.012378  0.856110  0.899277
294.0    20.0  0.864743  0.012378  0.856110  0.899277
295.0    20.0  0.864743  0.012378  0.856110  0.899277
296.0    20.0  0.865462  0.012273  0.856110  0.899277
297.0    20.0  0.865462  0.012273  0.856110  0.899277
298.0    20.0  0.865462  0.012273  0.856110  0.899277
299.0    20.0  0.865462  0.012273  0.856110  0.899277
300.0    20.0  0.865462  0.012273  0.856110  0.899277
301.0    20.0  0.865462  0.012273  0.856110  0.899277
302.0    20.0  0.865462  0.012273  0.856110  0.899277
303.0    20.0  0.865462  0.012273  0.856110  0.899277
304.0    20.0  0.866182  0.012124  0.856110  0.899277
305.0    20.0  0.866182  0.012124  0.856110  0.899277
306.0    20.0  0.866182  0.012124  0.856110  0.899277
307.0    20.0  0.866182  0.012124  0.856110  0.899277
308.0    20.0  0.866182  0.012124  0.856110  0.899277
309.0    20.0  0.866182  0.012124  0.856110  0.899277
310.0    20.0  0.866182  0.012124  0.856110  0.899277
311.0    20.0  0.866182  0.012124  0.856110  0.899277
312.0    20.0  0.867621  0.012544  0.856110  0.899277
313.0    20.0  0.868340  0.012273  0.856110  0.899277
314.0    20.0  0.868340  0.012273  0.856110  0.899277
315.0    20.0  0.868340  0.012273  0.856110  0.899277
316.0    20.0  0.868340  0.012273  0.856110  0.899277
317.0    20.0  0.868340  0.012273  0.856110  0.899277
318.0    20.0  0.869060  0.011952  0.856110  0.899277
319.0    20.0  0.869779  0.011579  0.856110  0.899277
320.0    20.0  0.869779  0.011579  0.856110  0.899277
321.0    20.0  0.869779  0.011579  0.856110  0.899277
322.0    20.0  0.869779  0.011579  0.856110  0.899277
323.0    20.0  0.869779  0.011579  0.856110  0.899277
324.0    20.0  0.869779  0.011579  0.856110  0.899277
325.0    20.0  0.869779  0.011579  0.856110  0.899277
326.0    20.0  0.869779  0.011579  0.856110  0.899277
327.0    20.0  0.869779  0.011579  0.856110  0.899277
328.0    20.0  0.869779  0.011579  0.856110  0.899277
329.0    20.0  0.869779  0.011579  0.856110  0.899277
330.0    20.0  0.869779  0.011579  0.856110  0.899277
331.0    20.0  0.870499  0.011146  0.856110  0.899277
332.0    20.0  0.870499  0.011146  0.856110  0.899277
333.0    20.0  0.870499  0.011146  0.856110  0.899277
334.0    20.0  0.870499  0.011146  0.856110  0.899277
335.0    20.0  0.870499  0.011146  0.856110  0.899277
336.0    20.0  0.870499  0.011146  0.856110  0.899277
337.0    20.0  0.870499  0.011146  0.856110  0.899277
338.0    20.0  0.870499  0.011146  0.856110  0.899277
339.0    20.0  0.870499  0.011146  0.856110  0.899277
340.0    20.0  0.870499  0.011146  0.856110  0.899277
341.0    20.0  0.870499  0.011146  0.856110  0.899277
342.0    20.0  0.870499  0.011146  0.856110  0.899277
343.0    20.0  0.870499  0.011146  0.856110  0.899277
344.0    20.0  0.870499  0.011146  0.856110  0.899277
345.0    20.0  0.870499  0.011146  0.856110  0.899277
346.0    20.0  0.870499  0.011146  0.856110  0.899277
347.0    20.0  0.871938  0.011052  0.856110  0.899277
348.0    20.0  0.871938  0.011052  0.856110  0.899277
349.0    20.0  0.871938  0.011052  0.856110  0.899277
350.0    20.0  0.871938  0.011052  0.856110  0.899277
351.0    20.0  0.871938  0.011052  0.856110  0.899277
352.0    20.0  0.871938  0.011052  0.856110  0.899277
353.0    20.0  0.871938  0.011052  0.856110  0.899277
354.0    20.0  0.873376  0.010768  0.856110  0.899277
355.0    20.0  0.873376  0.010768  0.856110  0.899277
356.0    20.0  0.873376  0.010768  0.856110  0.899277
357.0    20.0  0.873376  0.010768  0.856110  0.899277
358.0    20.0  0.873376  0.010768  0.856110  0.899277
359.0    20.0  0.873376  0.010768  0.856110  0.899277
360.0    20.0  0.873376  0.010768  0.856110  0.899277
361.0    20.0  0.873376  0.010768  0.856110  0.899277
362.0    20.0  0.873376  0.010768  0.856110  0.899277
363.0    20.0  0.873376  0.010768  0.856110  0.899277
364.0    20.0  0.873376  0.010768  0.856110  0.899277
365.0    20.0  0.873376  0.010768  0.856110  0.899277
366.0    20.0  0.873376  0.010768  0.856110  0.899277
367.0    20.0  0.873376  0.010768  0.856110  0.899277
368.0    20.0  0.873376  0.010768  0.856110  0.899277
369.0    20.0  0.873376  0.010768  0.856110  0.899277
370.0    20.0  0.873376  0.010768  0.856110  0.899277
371.0    20.0  0.873376  0.010768  0.856110  0.899277
372.0    20.0  0.873376  0.010768  0.856110  0.899277
373.0    20.0  0.873376  0.010768  0.856110  0.899277
374.0    20.0  0.874815  0.009213  0.856110  0.899277
375.0    20.0  0.876254  0.008390  0.870499  0.899277
376.0    20.0  0.876254  0.008390  0.870499  0.899277
377.0    20.0  0.876254  0.008390  0.870499  0.899277
378.0    20.0  0.876254  0.008390  0.870499  0.899277
379.0    20.0  0.876254  0.008390  0.870499  0.899277
380.0    20.0  0.876254  0.008390  0.870499  0.899277
381.0    20.0  0.876254  0.008390  0.870499  0.899277
382.0    20.0  0.876254  0.008390  0.870499  0.899277
383.0    20.0  0.876254  0.008390  0.870499  0.899277
384.0    20.0  0.876254  0.008390  0.870499  0.899277
385.0    20.0  0.876254  0.008390  0.870499  0.899277
386.0    20.0  0.876254  0.008390  0.870499  0.899277
387.0    20.0  0.876254  0.008390  0.870499  0.899277
388.0    20.0  0.876254  0.008390  0.870499  0.899277
389.0    20.0  0.876254  0.008390  0.870499  0.899277
390.0    20.0  0.876254  0.008390  0.870499  0.899277
391.0    20.0  0.876974  0.008482  0.870499  0.899277
392.0    20.0  0.876974  0.008482  0.870499  0.899277
393.0    20.0  0.876974  0.008482  0.870499  0.899277
394.0    20.0  0.876974  0.008482  0.870499  0.899277
395.0    20.0  0.876974  0.008482  0.870499  0.899277
396.0    20.0  0.877693  0.008513  0.870499  0.899277
397.0    20.0  0.878413  0.008482  0.870499  0.899277
398.0    20.0  0.878413  0.008482  0.870499  0.899277
399.0    20.0  0.878413  0.008482  0.870499  0.899277
400.0    20.0  0.878413  0.008482  0.870499  0.899277
401.0    20.0  0.878413  0.008482  0.870499  0.899277
402.0    20.0  0.878413  0.008482  0.870499  0.899277
403.0    20.0  0.878413  0.008482  0.870499  0.899277
404.0    20.0  0.878413  0.008482  0.870499  0.899277
405.0    20.0  0.878413  0.008482  0.870499  0.899277
406.0    20.0  0.878413  0.008482  0.870499  0.899277
407.0    20.0  0.878413  0.008482  0.870499  0.899277
408.0    20.0  0.878413  0.008482  0.870499  0.899277
409.0    20.0  0.878413  0.008482  0.870499  0.899277
410.0    20.0  0.878413  0.008482  0.870499  0.899277
411.0    20.0  0.878413  0.008482  0.870499  0.899277
412.0    20.0  0.878413  0.008482  0.870499  0.899277
413.0    20.0  0.878413  0.008482  0.870499  0.899277
414.0    20.0  0.878413  0.008482  0.870499  0.899277
415.0    20.0  0.878413  0.008482  0.870499  0.899277
416.0    20.0  0.878413  0.008482  0.870499  0.899277
417.0    20.0  0.880571  0.011238  0.870499  0.913666
418.0    20.0  0.880571  0.011238  0.870499  0.913666
419.0    20.0  0.880571  0.011238  0.870499  0.913666
420.0    20.0  0.880571  0.011238  0.870499  0.913666
421.0    20.0  0.880571  0.011238  0.870499  0.913666
422.0    20.0  0.880571  0.011238  0.870499  0.913666
423.0    20.0  0.880571  0.011238  0.870499  0.913666
424.0    20.0  0.881290  0.011029  0.870499  0.913666
425.0    20.0  0.881290  0.011029  0.870499  0.913666
426.0    20.0  0.881290  0.011029  0.870499  0.913666
427.0    20.0  0.881290  0.011029  0.870499  0.913666
428.0    20.0  0.881290  0.011029  0.870499  0.913666
429.0    20.0  0.881290  0.011029  0.870499  0.913666
430.0    20.0  0.882729  0.011398  0.870499  0.913666
431.0    20.0  0.882729  0.011398  0.870499  0.913666
432.0    20.0  0.882729  0.011398  0.870499  0.913666
433.0    20.0  0.882729  0.011398  0.870499  0.913666
434.0    20.0  0.882729  0.011398  0.870499  0.913666
435.0    20.0  0.882729  0.011398  0.870499  0.913666
436.0    20.0  0.882729  0.011398  0.870499  0.913666
437.0    20.0  0.882729  0.011398  0.870499  0.913666
438.0    20.0  0.882729  0.011398  0.870499  0.913666
439.0    20.0  0.882729  0.011398  0.870499  0.913666
440.0    20.0  0.882729  0.011398  0.870499  0.913666
441.0    20.0  0.882729  0.011398  0.870499  0.913666
442.0    20.0  0.882729  0.011398  0.870499  0.913666
443.0    20.0  0.882729  0.011398  0.870499  0.913666
444.0    20.0  0.882729  0.011398  0.870499  0.913666
445.0    20.0  0.882729  0.011398  0.870499  0.913666
446.0    20.0  0.882729  0.011398  0.870499  0.913666
447.0    20.0  0.882729  0.011398  0.870499  0.913666
448.0    20.0  0.882729  0.011398  0.870499  0.913666
449.0    20.0  0.883449  0.011052  0.870499  0.913666
450.0    20.0  0.883449  0.011052  0.870499  0.913666
451.0    20.0  0.884168  0.010647  0.870499  0.913666
452.0    20.0  0.884168  0.010647  0.870499  0.913666
453.0    20.0  0.884168  0.010647  0.870499  0.913666
454.0    20.0  0.884888  0.010175  0.870499  0.913666
455.0    20.0  0.884888  0.010175  0.870499  0.913666
456.0    20.0  0.884888  0.010175  0.870499  0.913666
457.0    20.0  0.884888  0.010175  0.870499  0.913666
458.0    20.0  0.884888  0.010175  0.870499  0.913666
459.0    20.0  0.884888  0.010175  0.870499  0.913666
460.0    20.0  0.884888  0.010175  0.870499  0.913666
461.0    20.0  0.886327  0.010072  0.870499  0.913666
462.0    20.0  0.886327  0.010072  0.870499  0.913666
463.0    20.0  0.886327  0.010072  0.870499  0.913666
464.0    20.0  0.886327  0.010072  0.870499  0.913666
465.0    20.0  0.886327  0.010072  0.870499  0.913666
466.0    20.0  0.886327  0.010072  0.870499  0.913666
467.0    20.0  0.886327  0.010072  0.870499  0.913666
468.0    20.0  0.886327  0.010072  0.870499  0.913666
469.0    20.0  0.886327  0.010072  0.870499  0.913666
470.0    20.0  0.886327  0.010072  0.870499  0.913666
471.0    20.0  0.886327  0.010072  0.870499  0.913666
472.0    20.0  0.886327  0.010072  0.870499  0.913666
473.0    20.0  0.886327  0.010072  0.870499  0.913666
474.0    20.0  0.886327  0.010072  0.870499  0.913666
475.0    20.0  0.886327  0.010072  0.870499  0.913666
476.0    20.0  0.886327  0.010072  0.870499  0.913666
477.0    20.0  0.886327  0.010072  0.870499  0.913666
478.0    20.0  0.886327  0.010072  0.870499  0.913666
479.0    20.0  0.886327  0.010072  0.870499  0.913666
480.0    20.0  0.886327  0.010072  0.870499  0.913666
481.0    20.0  0.887046  0.009408  0.870499  0.913666
482.0    20.0  0.887046  0.009408  0.870499  0.913666
483.0    20.0  0.887046  0.009408  0.870499  0.913666
484.0    20.0  0.887046  0.009408  0.870499  0.913666
485.0    20.0  0.887046  0.009408  0.870499  0.913666
486.0    20.0  0.887046  0.009408  0.870499  0.913666
487.0    20.0  0.887046  0.009408  0.870499  0.913666
488.0    20.0  0.887046  0.009408  0.870499  0.913666
489.0    20.0  0.887046  0.009408  0.870499  0.913666
490.0    20.0  0.887046  0.009408  0.870499  0.913666
491.0    20.0  0.887046  0.009408  0.870499  0.913666
492.0    20.0  0.887046  0.009408  0.870499  0.913666
493.0    20.0  0.887046  0.009408  0.870499  0.913666
494.0    20.0  0.887046  0.009408  0.870499  0.913666
495.0    20.0  0.887046  0.009408  0.870499  0.913666
496.0    20.0  0.887046  0.009408  0.870499  0.913666
497.0    20.0  0.887046  0.009408  0.870499  0.913666
498.0    20.0  0.887766  0.008633  0.870499  0.913666
499.0    20.0  0.887766  0.008633  0.870499  0.913666
