gen  nevals       avg       std       min       max
  0.0    20.0  0.587575  0.019232  0.556015  0.629333
  1.0    20.0  0.601833  0.011939  0.584518  0.629333
  2.0    20.0  0.613444  0.013443  0.596741  0.641541
  3.0    20.0  0.622406  0.012226  0.608963  0.657837
  4.0    20.0  0.630146  0.009774  0.617111  0.657837
  5.0    20.0  0.637885  0.011725  0.629333  0.674133
  6.0    20.0  0.642976  0.011680  0.633408  0.674133
  7.0    20.0  0.646434  0.010271  0.637482  0.674133
  8.0    20.0  0.648061  0.009587  0.637482  0.674133
  9.0    20.0  0.651929  0.007991  0.641541  0.674133
 10.0    20.0  0.654985  0.005918  0.649689  0.674133
 11.0    20.0  0.656207  0.006098  0.649689  0.674133
 12.0    20.0  0.658652  0.004751  0.653763  0.674133
 13.0    20.0  0.660281  0.004350  0.653763  0.674133
 14.0    20.0  0.661096  0.004195  0.657837  0.674133
 15.0    20.0  0.662318  0.004444  0.657837  0.674133
 16.0    20.0  0.663337  0.004514  0.657837  0.674133
 17.0    20.0  0.663744  0.004364  0.657837  0.674133
 18.0    20.0  0.664967  0.003838  0.657837  0.674133
 19.0    20.0  0.665781  0.003966  0.661911  0.674133
 20.0    20.0  0.667615  0.006364  0.661911  0.690430
 21.0    20.0  0.670059  0.006442  0.661911  0.690430
 22.0    20.0  0.670670  0.006215  0.665985  0.690430
 23.0    20.0  0.672300  0.006995  0.665985  0.690430
 24.0    20.0  0.674337  0.009333  0.665985  0.702652
 25.0    20.0  0.674948  0.009164  0.665985  0.702652
 26.0    20.0  0.675152  0.009007  0.665985  0.702652
 27.0    20.0  0.676374  0.008297  0.665985  0.702652
 28.0    20.0  0.678207  0.007837  0.670059  0.702652
 29.0    20.0  0.679633  0.008764  0.670059  0.702652
 30.0    20.0  0.683300  0.009456  0.674133  0.702652
 31.0    20.0  0.683300  0.009456  0.674133  0.702652
 32.0    20.0  0.684115  0.008877  0.674133  0.702652
 33.0    20.0  0.684522  0.008592  0.674133  0.702652
 34.0    20.0  0.685541  0.008209  0.678207  0.702652
 35.0    20.0  0.686763  0.008339  0.678207  0.702652
 36.0    20.0  0.687170  0.008107  0.678207  0.702652
 37.0    20.0  0.688393  0.007567  0.678207  0.702652
 38.0    20.0  0.689207  0.007299  0.678207  0.702652
 39.0    20.0  0.691041  0.007543  0.682281  0.706726
 40.0    20.0  0.692670  0.008877  0.682281  0.714874
 41.0    20.0  0.694707  0.008970  0.682281  0.714874
 42.0    20.0  0.695319  0.008507  0.682281  0.714874
 43.0    20.0  0.696541  0.008300  0.686356  0.714874
 44.0    20.0  0.697967  0.008858  0.686356  0.714874
 45.0    20.0  0.698985  0.008035  0.686356  0.714874
 46.0    20.0  0.700208  0.007879  0.690430  0.714874
 47.0    20.0  0.700411  0.007673  0.690430  0.714874
 48.0    20.0  0.700819  0.007342  0.690430  0.714874
 49.0    20.0  0.702652  0.007288  0.694504  0.714874
 50.0    20.0  0.702652  0.007288  0.694504  0.714874
 51.0    20.0  0.702652  0.007288  0.694504  0.714874
 52.0    20.0  0.702652  0.007288  0.694504  0.714874
 53.0    20.0  0.702652  0.007288  0.694504  0.714874
 54.0    20.0  0.702652  0.007288  0.694504  0.714874
 55.0    20.0  0.702652  0.007288  0.694504  0.714874
 56.0    20.0  0.702652  0.007288  0.694504  0.714874
 57.0    20.0  0.702652  0.007288  0.694504  0.714874
 58.0    20.0  0.702856  0.007112  0.694504  0.714874
 59.0    20.0  0.703059  0.006926  0.694504  0.714874
 60.0    20.0  0.703467  0.006645  0.694504  0.714874
 61.0    20.0  0.703467  0.006645  0.694504  0.714874
 62.0    20.0  0.705299  0.007864  0.694504  0.727081
 63.0    20.0  0.705503  0.007631  0.698578  0.727081
 64.0    20.0  0.706725  0.007835  0.698578  0.727081
 65.0    20.0  0.706929  0.007671  0.698578  0.727081
 66.0    20.0  0.707133  0.007499  0.698578  0.727081
 67.0    20.0  0.707336  0.007317  0.698578  0.727081
 68.0    20.0  0.707744  0.007040  0.698578  0.727081
 69.0    20.0  0.707744  0.007040  0.698578  0.727081
 70.0    20.0  0.708762  0.006375  0.702652  0.727081
 71.0    20.0  0.708966  0.006240  0.702652  0.727081
 72.0    20.0  0.710391  0.007716  0.702652  0.731155
 73.0    20.0  0.710391  0.007716  0.702652  0.731155
 74.0    20.0  0.710391  0.007716  0.702652  0.731155
 75.0    20.0  0.710391  0.007716  0.702652  0.731155
 76.0    20.0  0.710391  0.007716  0.702652  0.731155
 77.0    20.0  0.710391  0.007716  0.702652  0.731155
 78.0    20.0  0.710391  0.007716  0.702652  0.731155
 79.0    20.0  0.711409  0.007966  0.702652  0.731155
 80.0    20.0  0.711409  0.007966  0.702652  0.731155
 81.0    20.0  0.711409  0.007966  0.702652  0.731155
 82.0    20.0  0.712020  0.007736  0.702652  0.731155
 83.0    20.0  0.712020  0.007736  0.702652  0.731155
 84.0    20.0  0.712224  0.007538  0.702652  0.731155
 85.0    20.0  0.712224  0.007538  0.702652  0.731155
 86.0    20.0  0.712224  0.007538  0.702652  0.731155
 87.0    20.0  0.712224  0.007538  0.702652  0.731155
 88.0    20.0  0.712428  0.007329  0.702652  0.731155
 89.0    20.0  0.712428  0.007329  0.702652  0.731155
 90.0    20.0  0.713242  0.007099  0.706726  0.731155
 91.0    20.0  0.713242  0.007099  0.706726  0.731155
 92.0    20.0  0.713446  0.006966  0.706726  0.731155
 93.0    20.0  0.713446  0.006966  0.706726  0.731155
 94.0    20.0  0.713650  0.006825  0.706726  0.731155
 95.0    20.0  0.713650  0.006825  0.706726  0.731155
 96.0    20.0  0.714261  0.006473  0.706726  0.731155
 97.0    20.0  0.714261  0.006473  0.706726  0.731155
 98.0    20.0  0.716297  0.008664  0.706726  0.743378
 99.0    20.0  0.716705  0.008391  0.710800  0.743378
100.0    20.0  0.717112  0.008292  0.710800  0.743378
101.0    20.0  0.717112  0.008292  0.710800  0.743378
102.0    20.0  0.717112  0.008292  0.710800  0.743378
103.0    20.0  0.717112  0.008292  0.710800  0.743378
104.0    20.0  0.717112  0.008292  0.710800  0.743378
105.0    20.0  0.717112  0.008292  0.710800  0.743378
106.0    20.0  0.717112  0.008292  0.710800  0.743378
107.0    20.0  0.717112  0.008292  0.710800  0.743378
108.0    20.0  0.717519  0.008171  0.710800  0.743378
109.0    20.0  0.717519  0.008171  0.710800  0.743378
110.0    20.0  0.717519  0.008171  0.710800  0.743378
111.0    20.0  0.717519  0.008171  0.710800  0.743378
112.0    20.0  0.717519  0.008171  0.710800  0.743378
113.0    20.0  0.718334  0.007754  0.710800  0.743378
114.0    20.0  0.718742  0.007560  0.710800  0.743378
115.0    20.0  0.718742  0.007560  0.710800  0.743378
116.0    20.0  0.719149  0.007337  0.710800  0.743378
117.0    20.0  0.719149  0.007337  0.710800  0.743378
118.0    20.0  0.719149  0.007337  0.710800  0.743378
119.0    20.0  0.719149  0.007337  0.710800  0.743378
120.0    20.0  0.719149  0.007337  0.710800  0.743378
121.0    20.0  0.719149  0.007337  0.710800  0.743378
122.0    20.0  0.719149  0.007337  0.710800  0.743378
123.0    20.0  0.719353  0.007157  0.710800  0.743378
124.0    20.0  0.719353  0.007157  0.710800  0.743378
125.0    20.0  0.719556  0.006966  0.714874  0.743378
126.0    20.0  0.719556  0.006966  0.714874  0.743378
127.0    20.0  0.719556  0.006966  0.714874  0.743378
128.0    20.0  0.719556  0.006966  0.714874  0.743378
129.0    20.0  0.719556  0.006966  0.714874  0.743378
130.0    20.0  0.719760  0.006885  0.714874  0.743378
131.0    20.0  0.719760  0.006885  0.714874  0.743378
132.0    20.0  0.719760  0.006885  0.714874  0.743378
133.0    20.0  0.719760  0.006885  0.714874  0.743378
134.0    20.0  0.719760  0.006885  0.714874  0.743378
135.0    20.0  0.719760  0.006885  0.714874  0.743378
136.0    20.0  0.720777  0.006869  0.714874  0.743378
137.0    20.0  0.720777  0.006869  0.714874  0.743378
138.0    20.0  0.721184  0.006747  0.714874  0.743378
139.0    20.0  0.721387  0.006614  0.714874  0.743378
140.0    20.0  0.721387  0.006614  0.714874  0.743378
141.0    20.0  0.721387  0.006614  0.714874  0.743378
142.0    20.0  0.721387  0.006614  0.714874  0.743378
143.0    20.0  0.721387  0.006614  0.714874  0.743378
144.0    20.0  0.721387  0.006614  0.714874  0.743378
145.0    20.0  0.721387  0.006614  0.714874  0.743378
146.0    20.0  0.721387  0.006614  0.714874  0.743378
147.0    20.0  0.721387  0.006614  0.714874  0.743378
148.0    20.0  0.721387  0.006614  0.714874  0.743378
149.0    20.0  0.721591  0.006472  0.714874  0.743378
150.0    20.0  0.721591  0.006472  0.714874  0.743378
151.0    20.0  0.721998  0.006290  0.714874  0.743378
152.0    20.0  0.721998  0.006290  0.714874  0.743378
153.0    20.0  0.721998  0.006290  0.714874  0.743378
154.0    20.0  0.721998  0.006290  0.714874  0.743378
155.0    20.0  0.723422  0.006160  0.718948  0.743378
156.0    20.0  0.723422  0.006160  0.718948  0.743378
157.0    20.0  0.724440  0.006965  0.718948  0.743378
158.0    20.0  0.724440  0.006965  0.718948  0.743378
159.0    20.0  0.724440  0.006965  0.718948  0.743378
160.0    20.0  0.724440  0.006965  0.718948  0.743378
161.0    20.0  0.725458  0.007551  0.718948  0.743378
162.0    20.0  0.725864  0.007407  0.718948  0.743378
163.0    20.0  0.725864  0.007407  0.718948  0.743378
164.0    20.0  0.725864  0.007407  0.718948  0.743378
165.0    20.0  0.725864  0.007407  0.718948  0.743378
166.0    20.0  0.725864  0.007407  0.718948  0.743378
167.0    20.0  0.725864  0.007407  0.718948  0.743378
168.0    20.0  0.726067  0.007269  0.718948  0.743378
169.0    20.0  0.726067  0.007269  0.718948  0.743378
170.0    20.0  0.726067  0.007269  0.718948  0.743378
171.0    20.0  0.726067  0.007269  0.718948  0.743378
172.0    20.0  0.726067  0.007269  0.718948  0.743378
173.0    20.0  0.726067  0.007269  0.718948  0.743378
174.0    20.0  0.726067  0.007269  0.718948  0.743378
175.0    20.0  0.726881  0.007338  0.718948  0.743378
176.0    20.0  0.727084  0.007170  0.718948  0.743378
177.0    20.0  0.727084  0.007170  0.718948  0.743378
178.0    20.0  0.727084  0.007170  0.718948  0.743378
179.0    20.0  0.727491  0.006923  0.718948  0.743378
180.0    20.0  0.727491  0.006923  0.718948  0.743378
181.0    20.0  0.727491  0.006923  0.718948  0.743378
182.0    20.0  0.727491  0.006923  0.718948  0.743378
183.0    20.0  0.727491  0.006923  0.718948  0.743378
184.0    20.0  0.727491  0.006923  0.718948  0.743378
185.0    20.0  0.728508  0.006603  0.718948  0.743378
186.0    20.0  0.728915  0.006242  0.723007  0.743378
187.0    20.0  0.728915  0.006242  0.723007  0.743378
188.0    20.0  0.728915  0.006242  0.723007  0.743378
189.0    20.0  0.728915  0.006242  0.723007  0.743378
190.0    20.0  0.729526  0.006232  0.723007  0.743378
191.0    20.0  0.729526  0.006232  0.723007  0.743378
192.0    20.0  0.729526  0.006232  0.723007  0.743378
193.0    20.0  0.730952  0.007673  0.723007  0.751526
194.0    20.0  0.730952  0.007673  0.723007  0.751526
195.0    20.0  0.730952  0.007673  0.723007  0.751526
196.0    20.0  0.731155  0.007512  0.723007  0.751526
197.0    20.0  0.731155  0.007512  0.723007  0.751526
198.0    20.0  0.731970  0.007468  0.723007  0.751526
199.0    20.0  0.731970  0.007468  0.723007  0.751526
200.0    20.0  0.731970  0.007468  0.723007  0.751526
201.0    20.0  0.731970  0.007468  0.723007  0.751526
202.0    20.0  0.731970  0.007468  0.723007  0.751526
203.0    20.0  0.731970  0.007468  0.723007  0.751526
204.0    20.0  0.731970  0.007468  0.723007  0.751526
205.0    20.0  0.731970  0.007468  0.723007  0.751526
206.0    20.0  0.731970  0.007468  0.723007  0.751526
207.0    20.0  0.731970  0.007468  0.723007  0.751526
208.0    20.0  0.731970  0.007468  0.723007  0.751526
209.0    20.0  0.731970  0.007468  0.723007  0.751526
210.0    20.0  0.732785  0.007333  0.723007  0.751526
211.0    20.0  0.732785  0.007333  0.723007  0.751526
212.0    20.0  0.732785  0.007333  0.723007  0.751526
213.0    20.0  0.732785  0.007333  0.723007  0.751526
214.0    20.0  0.732785  0.007333  0.723007  0.751526
215.0    20.0  0.732989  0.007112  0.723007  0.751526
216.0    20.0  0.732989  0.007112  0.723007  0.751526
217.0    20.0  0.732989  0.007112  0.723007  0.751526
218.0    20.0  0.732989  0.007112  0.723007  0.751526
219.0    20.0  0.732989  0.007112  0.723007  0.751526
220.0    20.0  0.732989  0.007112  0.723007  0.751526
221.0    20.0  0.732989  0.007112  0.723007  0.751526
222.0    20.0  0.732989  0.007112  0.723007  0.751526
223.0    20.0  0.733804  0.006851  0.727081  0.751526
224.0    20.0  0.733804  0.006851  0.727081  0.751526
225.0    20.0  0.733804  0.006851  0.727081  0.751526
226.0    20.0  0.733804  0.006851  0.727081  0.751526
227.0    20.0  0.733804  0.006851  0.727081  0.751526
228.0    20.0  0.733804  0.006851  0.727081  0.751526
229.0    20.0  0.733804  0.006851  0.727081  0.751526
230.0    20.0  0.734007  0.006707  0.727081  0.751526
231.0    20.0  0.734007  0.006707  0.727081  0.751526
232.0    20.0  0.734007  0.006707  0.727081  0.751526
233.0    20.0  0.734007  0.006707  0.727081  0.751526
234.0    20.0  0.734007  0.006707  0.727081  0.751526
235.0    20.0  0.734007  0.006707  0.727081  0.751526
236.0    20.0  0.734007  0.006707  0.727081  0.751526
237.0    20.0  0.734007  0.006707  0.727081  0.751526
238.0    20.0  0.734007  0.006707  0.727081  0.751526
239.0    20.0  0.734007  0.006707  0.727081  0.751526
240.0    20.0  0.734007  0.006707  0.727081  0.751526
241.0    20.0  0.734007  0.006707  0.727081  0.751526
242.0    20.0  0.734007  0.006707  0.727081  0.751526
243.0    20.0  0.734007  0.006707  0.727081  0.751526
244.0    20.0  0.734415  0.006519  0.727081  0.751526
245.0    20.0  0.734415  0.006519  0.727081  0.751526
246.0    20.0  0.734415  0.006519  0.727081  0.751526
247.0    20.0  0.734415  0.006519  0.727081  0.751526
248.0    20.0  0.734415  0.006519  0.727081  0.751526
249.0    20.0  0.734415  0.006519  0.727081  0.751526
250.0    20.0  0.734415  0.006519  0.727081  0.751526
251.0    20.0  0.734415  0.006519  0.727081  0.751526
252.0    20.0  0.734415  0.006519  0.727081  0.751526
253.0    20.0  0.734618  0.006348  0.727081  0.751526
254.0    20.0  0.734618  0.006348  0.727081  0.751526
255.0    20.0  0.734618  0.006348  0.727081  0.751526
256.0    20.0  0.734618  0.006348  0.727081  0.751526
257.0    20.0  0.734618  0.006348  0.727081  0.751526
258.0    20.0  0.734618  0.006348  0.727081  0.751526
259.0    20.0  0.734618  0.006348  0.727081  0.751526
260.0    20.0  0.734618  0.006348  0.727081  0.751526
261.0    20.0  0.734618  0.006348  0.727081  0.751526
262.0    20.0  0.734618  0.006348  0.727081  0.751526
263.0    20.0  0.734618  0.006348  0.727081  0.751526
264.0    20.0  0.734618  0.006348  0.727081  0.751526
265.0    20.0  0.735229  0.006179  0.727081  0.751526
266.0    20.0  0.735229  0.006179  0.727081  0.751526
267.0    20.0  0.735229  0.006179  0.727081  0.751526
268.0    20.0  0.735433  0.005970  0.727081  0.751526
269.0    20.0  0.735841  0.005656  0.727081  0.751526
270.0    20.0  0.735841  0.005656  0.727081  0.751526
271.0    20.0  0.735841  0.005656  0.727081  0.751526
272.0    20.0  0.736248  0.005292  0.727081  0.751526
273.0    20.0  0.736655  0.004868  0.731155  0.751526
274.0    20.0  0.736655  0.004868  0.731155  0.751526
275.0    20.0  0.736655  0.004868  0.731155  0.751526
276.0    20.0  0.736655  0.004868  0.731155  0.751526
277.0    20.0  0.736655  0.004868  0.731155  0.751526
278.0    20.0  0.736655  0.004868  0.731155  0.751526
279.0    20.0  0.736655  0.004868  0.731155  0.751526
280.0    20.0  0.737674  0.005675  0.731155  0.751526
281.0    20.0  0.737674  0.005675  0.731155  0.751526
282.0    20.0  0.737674  0.005675  0.731155  0.751526
283.0    20.0  0.737674  0.005675  0.731155  0.751526
284.0    20.0  0.737674  0.005675  0.731155  0.751526
285.0    20.0  0.737674  0.005675  0.731155  0.751526
286.0    20.0  0.737878  0.005508  0.731155  0.751526
287.0    20.0  0.737878  0.005508  0.731155  0.751526
288.0    20.0  0.737878  0.005508  0.731155  0.751526
289.0    20.0  0.737878  0.005508  0.731155  0.751526
290.0    20.0  0.737878  0.005508  0.731155  0.751526
291.0    20.0  0.737878  0.005508  0.731155  0.751526
292.0    20.0  0.737878  0.005508  0.731155  0.751526
293.0    20.0  0.737878  0.005508  0.731155  0.751526
294.0    20.0  0.737878  0.005508  0.731155  0.751526
295.0    20.0  0.737878  0.005508  0.731155  0.751526
296.0    20.0  0.737878  0.005508  0.731155  0.751526
297.0    20.0  0.737878  0.005508  0.731155  0.751526
298.0    20.0  0.737878  0.005508  0.731155  0.751526
299.0    20.0  0.737878  0.005508  0.731155  0.751526
300.0    20.0  0.737878  0.005508  0.731155  0.751526
301.0    20.0  0.737878  0.005508  0.731155  0.751526
302.0    20.0  0.737878  0.005508  0.731155  0.751526
303.0    20.0  0.737878  0.005508  0.731155  0.751526
304.0    20.0  0.737878  0.005508  0.731155  0.751526
305.0    20.0  0.737878  0.005508  0.731155  0.751526
306.0    20.0  0.737878  0.005508  0.731155  0.751526
307.0    20.0  0.737878  0.005508  0.731155  0.751526
308.0    20.0  0.737878  0.005508  0.731155  0.751526
309.0    20.0  0.737878  0.005508  0.731155  0.751526
310.0    20.0  0.737878  0.005508  0.731155  0.751526
311.0    20.0  0.737878  0.005508  0.731155  0.751526
312.0    20.0  0.737878  0.005508  0.731155  0.751526
313.0    20.0  0.737878  0.005508  0.731155  0.751526
314.0    20.0  0.737878  0.005508  0.731155  0.751526
315.0    20.0  0.737878  0.005508  0.731155  0.751526
316.0    20.0  0.737878  0.005508  0.731155  0.751526
317.0    20.0  0.737878  0.005508  0.731155  0.751526
318.0    20.0  0.737878  0.005508  0.731155  0.751526
319.0    20.0  0.738081  0.005328  0.731155  0.751526
320.0    20.0  0.738489  0.005089  0.731155  0.751526
321.0    20.0  0.738489  0.005089  0.731155  0.751526
322.0    20.0  0.738489  0.005089  0.731155  0.751526
323.0    20.0  0.738489  0.005089  0.731155  0.751526
324.0    20.0  0.738489  0.005089  0.731155  0.751526
325.0    20.0  0.738489  0.005089  0.731155  0.751526
326.0    20.0  0.738692  0.004868  0.735229  0.751526
327.0    20.0  0.738692  0.004868  0.735229  0.751526
328.0    20.0  0.738692  0.004868  0.735229  0.751526
329.0    20.0  0.738692  0.004868  0.735229  0.751526
330.0    20.0  0.738692  0.004868  0.735229  0.751526
331.0    20.0  0.738692  0.004868  0.735229  0.751526
332.0    20.0  0.738692  0.004868  0.735229  0.751526
333.0    20.0  0.738692  0.004868  0.735229  0.751526
334.0    20.0  0.738692  0.004868  0.735229  0.751526
335.0    20.0  0.738692  0.004868  0.735229  0.751526
336.0    20.0  0.738692  0.004868  0.735229  0.751526
337.0    20.0  0.738692  0.004868  0.735229  0.751526
338.0    20.0  0.738692  0.004868  0.735229  0.751526
339.0    20.0  0.738692  0.004868  0.735229  0.751526
340.0    20.0  0.738692  0.004868  0.735229  0.751526
341.0    20.0  0.738692  0.004868  0.735229  0.751526
342.0    20.0  0.738692  0.004868  0.735229  0.751526
343.0    20.0  0.738692  0.004868  0.735229  0.751526
344.0    20.0  0.738692  0.004868  0.735229  0.751526
345.0    20.0  0.738692  0.004868  0.735229  0.751526
346.0    20.0  0.738692  0.004868  0.735229  0.751526
347.0    20.0  0.738692  0.004868  0.735229  0.751526
348.0    20.0  0.738692  0.004868  0.735229  0.751526
349.0    20.0  0.738692  0.004868  0.735229  0.751526
350.0    20.0  0.738692  0.004868  0.735229  0.751526
351.0    20.0  0.738692  0.004868  0.735229  0.751526
352.0    20.0  0.738692  0.004868  0.735229  0.751526
353.0    20.0  0.738692  0.004868  0.735229  0.751526
354.0    20.0  0.738692  0.004868  0.735229  0.751526
355.0    20.0  0.738896  0.004803  0.735229  0.751526
356.0    20.0  0.738896  0.004803  0.735229  0.751526
357.0    20.0  0.738896  0.004803  0.735229  0.751526
358.0    20.0  0.738896  0.004803  0.735229  0.751526
359.0    20.0  0.738896  0.004803  0.735229  0.751526
360.0    20.0  0.738896  0.004803  0.735229  0.751526
361.0    20.0  0.738896  0.004803  0.735229  0.751526
362.0    20.0  0.738896  0.004803  0.735229  0.751526
363.0    20.0  0.738896  0.004803  0.735229  0.751526
364.0    20.0  0.738896  0.004803  0.735229  0.751526
365.0    20.0  0.738896  0.004803  0.735229  0.751526
366.0    20.0  0.738896  0.004803  0.735229  0.751526
367.0    20.0  0.738896  0.004803  0.735229  0.751526
368.0    20.0  0.738896  0.004803  0.735229  0.751526
369.0    20.0  0.738896  0.004803  0.735229  0.751526
370.0    20.0  0.738896  0.004803  0.735229  0.751526
371.0    20.0  0.738896  0.004803  0.735229  0.751526
372.0    20.0  0.738896  0.004803  0.735229  0.751526
373.0    20.0  0.738896  0.004803  0.735229  0.751526
374.0    20.0  0.738896  0.004803  0.735229  0.751526
375.0    20.0  0.738896  0.004803  0.735229  0.751526
376.0    20.0  0.738896  0.004803  0.735229  0.751526
377.0    20.0  0.739100  0.004729  0.735229  0.751526
378.0    20.0  0.739100  0.004729  0.735229  0.751526
379.0    20.0  0.739100  0.004729  0.735229  0.751526
380.0    20.0  0.739100  0.004729  0.735229  0.751526
381.0    20.0  0.739100  0.004729  0.735229  0.751526
382.0    20.0  0.739100  0.004729  0.735229  0.751526
383.0    20.0  0.739100  0.004729  0.735229  0.751526
384.0    20.0  0.739100  0.004729  0.735229  0.751526
385.0    20.0  0.739100  0.004729  0.735229  0.751526
386.0    20.0  0.739100  0.004729  0.735229  0.751526
387.0    20.0  0.739100  0.004729  0.735229  0.751526
388.0    20.0  0.739100  0.004729  0.735229  0.751526
389.0    20.0  0.739100  0.004729  0.735229  0.751526
390.0    20.0  0.739100  0.004729  0.735229  0.751526
391.0    20.0  0.739100  0.004729  0.735229  0.751526
392.0    20.0  0.739100  0.004729  0.735229  0.751526
393.0    20.0  0.739100  0.004729  0.735229  0.751526
394.0    20.0  0.739100  0.004729  0.735229  0.751526
395.0    20.0  0.739100  0.004729  0.735229  0.751526
396.0    20.0  0.739100  0.004729  0.735229  0.751526
397.0    20.0  0.739100  0.004729  0.735229  0.751526
398.0    20.0  0.739100  0.004729  0.735229  0.751526
399.0    20.0  0.739100  0.004729  0.735229  0.751526
400.0    20.0  0.739100  0.004729  0.735229  0.751526
401.0    20.0  0.739100  0.004729  0.735229  0.751526
402.0    20.0  0.739100  0.004729  0.735229  0.751526
403.0    20.0  0.739100  0.004729  0.735229  0.751526
404.0    20.0  0.739507  0.004729  0.735229  0.751526
405.0    20.0  0.739507  0.004729  0.735229  0.751526
406.0    20.0  0.739507  0.004729  0.735229  0.751526
407.0    20.0  0.739507  0.004729  0.735229  0.751526
408.0    20.0  0.739507  0.004729  0.735229  0.751526
409.0    20.0  0.739507  0.004729  0.735229  0.751526
410.0    20.0  0.739507  0.004729  0.735229  0.751526
411.0    20.0  0.739507  0.004729  0.735229  0.751526
412.0    20.0  0.739507  0.004729  0.735229  0.751526
413.0    20.0  0.739507  0.004729  0.735229  0.751526
414.0    20.0  0.739507  0.004729  0.735229  0.751526
415.0    20.0  0.739507  0.004729  0.735229  0.751526
416.0    20.0  0.739507  0.004729  0.735229  0.751526
417.0    20.0  0.739507  0.004729  0.735229  0.751526
418.0    20.0  0.739507  0.004729  0.735229  0.751526
419.0    20.0  0.739507  0.004729  0.735229  0.751526
420.0    20.0  0.739507  0.004729  0.735229  0.751526
421.0    20.0  0.739507  0.004729  0.735229  0.751526
422.0    20.0  0.739711  0.004627  0.735229  0.751526
423.0    20.0  0.740322  0.004799  0.735229  0.751526
424.0    20.0  0.740322  0.004799  0.735229  0.751526
425.0    20.0  0.740322  0.004799  0.735229  0.751526
426.0    20.0  0.740322  0.004799  0.735229  0.751526
427.0    20.0  0.740322  0.004799  0.735229  0.751526
428.0    20.0  0.740322  0.004799  0.735229  0.751526
429.0    20.0  0.740322  0.004799  0.735229  0.751526
430.0    20.0  0.740322  0.004799  0.735229  0.751526
431.0    20.0  0.740322  0.004799  0.735229  0.751526
432.0    20.0  0.740322  0.004799  0.735229  0.751526
433.0    20.0  0.740322  0.004799  0.735229  0.751526
434.0    20.0  0.740322  0.004799  0.735229  0.751526
435.0    20.0  0.740322  0.004799  0.735229  0.751526
436.0    20.0  0.740322  0.004799  0.735229  0.751526
437.0    20.0  0.740322  0.004799  0.735229  0.751526
438.0    20.0  0.740322  0.004799  0.735229  0.751526
439.0    20.0  0.740322  0.004799  0.735229  0.751526
440.0    20.0  0.740526  0.004663  0.735229  0.751526
441.0    20.0  0.740526  0.004663  0.735229  0.751526
442.0    20.0  0.740526  0.004663  0.735229  0.751526
443.0    20.0  0.740526  0.004663  0.735229  0.751526
444.0    20.0  0.740730  0.004514  0.735229  0.751526
445.0    20.0  0.740730  0.004514  0.735229  0.751526
446.0    20.0  0.740730  0.004514  0.735229  0.751526
447.0    20.0  0.740730  0.004514  0.735229  0.751526
448.0    20.0  0.740730  0.004514  0.735229  0.751526
449.0    20.0  0.740933  0.004350  0.735229  0.751526
450.0    20.0  0.741341  0.004175  0.735229  0.751526
451.0    20.0  0.741341  0.004175  0.735229  0.751526
452.0    20.0  0.741341  0.004175  0.735229  0.751526
453.0    20.0  0.741341  0.004175  0.735229  0.751526
454.0    20.0  0.741341  0.004175  0.735229  0.751526
455.0    20.0  0.741341  0.004175  0.735229  0.751526
456.0    20.0  0.741341  0.004175  0.735229  0.751526
457.0    20.0  0.741341  0.004175  0.735229  0.751526
458.0    20.0  0.741341  0.004175  0.735229  0.751526
459.0    20.0  0.741341  0.004175  0.735229  0.751526
460.0    20.0  0.741341  0.004175  0.735229  0.751526
461.0    20.0  0.741341  0.004175  0.735229  0.751526
462.0    20.0  0.741341  0.004175  0.735229  0.751526
463.0    20.0  0.741341  0.004175  0.735229  0.751526
464.0    20.0  0.741544  0.003966  0.739304  0.751526
465.0    20.0  0.741544  0.003966  0.739304  0.751526
466.0    20.0  0.741544  0.003966  0.739304  0.751526
467.0    20.0  0.741544  0.003966  0.739304  0.751526
468.0    20.0  0.741544  0.003966  0.739304  0.751526
469.0    20.0  0.741544  0.003966  0.739304  0.751526
470.0    20.0  0.741544  0.003966  0.739304  0.751526
471.0    20.0  0.741544  0.003966  0.739304  0.751526
472.0    20.0  0.741544  0.003966  0.739304  0.751526
473.0    20.0  0.741544  0.003966  0.739304  0.751526
474.0    20.0  0.741544  0.003966  0.739304  0.751526
475.0    20.0  0.741544  0.003966  0.739304  0.751526
476.0    20.0  0.741544  0.003966  0.739304  0.751526
477.0    20.0  0.741544  0.003966  0.739304  0.751526
478.0    20.0  0.741544  0.003966  0.739304  0.751526
479.0    20.0  0.741544  0.003966  0.739304  0.751526
480.0    20.0  0.741544  0.003966  0.739304  0.751526
481.0    20.0  0.741544  0.003966  0.739304  0.751526
482.0    20.0  0.741544  0.003966  0.739304  0.751526
483.0    20.0  0.741544  0.003966  0.739304  0.751526
484.0    20.0  0.741544  0.003966  0.739304  0.751526
485.0    20.0  0.741544  0.003966  0.739304  0.751526
486.0    20.0  0.741544  0.003966  0.739304  0.751526
487.0    20.0  0.741748  0.003950  0.739304  0.751526
488.0    20.0  0.741748  0.003950  0.739304  0.751526
489.0    20.0  0.741748  0.003950  0.739304  0.751526
490.0    20.0  0.741748  0.003950  0.739304  0.751526
491.0    20.0  0.741748  0.003950  0.739304  0.751526
492.0    20.0  0.741748  0.003950  0.739304  0.751526
493.0    20.0  0.741748  0.003950  0.739304  0.751526
494.0    20.0  0.741748  0.003950  0.739304  0.751526
495.0    20.0  0.741748  0.003950  0.739304  0.751526
496.0    20.0  0.741748  0.003950  0.739304  0.751526
497.0    20.0  0.741748  0.003950  0.739304  0.751526
498.0    20.0  0.741748  0.003950  0.739304  0.751526
499.0    20.0  0.741748  0.003950  0.739304  0.751526
