gen  nevals       avg       std       min       max
  0.0    20.0  0.594088  0.023803  0.559937  0.651886
  1.0    20.0  0.611002  0.015382  0.596054  0.651886
  2.0    20.0  0.620850  0.013717  0.605911  0.651886
  3.0    20.0  0.628077  0.013891  0.612473  0.658463
  4.0    20.0  0.634482  0.012807  0.619049  0.658463
  5.0    20.0  0.644169  0.009646  0.632187  0.665024
  6.0    20.0  0.649095  0.010401  0.635468  0.674881
  7.0    20.0  0.655007  0.008275  0.642029  0.674881
  8.0    20.0  0.657635  0.006641  0.648605  0.674881
  9.0    20.0  0.658292  0.006187  0.651886  0.674881
 10.0    20.0  0.662398  0.008728  0.655167  0.691299
 11.0    20.0  0.664534  0.008261  0.655167  0.691299
 12.0    20.0  0.665685  0.007813  0.658463  0.691299
 13.0    20.0  0.666669  0.007232  0.658463  0.691299
 14.0    20.0  0.667818  0.006592  0.661743  0.691299
 15.0    20.0  0.668803  0.007065  0.661743  0.691299
 16.0    20.0  0.669296  0.006897  0.661743  0.691299
 17.0    20.0  0.671101  0.007929  0.665024  0.691299
 18.0    20.0  0.671101  0.007929  0.665024  0.691299
 19.0    20.0  0.671101  0.007929  0.665024  0.691299
 20.0    20.0  0.672907  0.009597  0.665024  0.697861
 21.0    20.0  0.674550  0.009166  0.665024  0.697861
 22.0    20.0  0.676192  0.009708  0.665024  0.697861
 23.0    20.0  0.676356  0.009544  0.668304  0.697861
 24.0    20.0  0.677670  0.009068  0.668304  0.697861
 25.0    20.0  0.678492  0.008555  0.668304  0.697861
 26.0    20.0  0.679313  0.008323  0.671600  0.697861
 27.0    20.0  0.680461  0.007844  0.671600  0.697861
 28.0    20.0  0.681117  0.007622  0.671600  0.697861
 29.0    20.0  0.682101  0.007011  0.671600  0.697861
 30.0    20.0  0.682922  0.006271  0.674881  0.697861
 31.0    20.0  0.682922  0.006271  0.674881  0.697861
 32.0    20.0  0.683086  0.006099  0.674881  0.697861
 33.0    20.0  0.683578  0.005807  0.678162  0.697861
 34.0    20.0  0.684071  0.005744  0.678162  0.697861
 35.0    20.0  0.684071  0.005744  0.678162  0.697861
 36.0    20.0  0.684399  0.005583  0.678162  0.697861
 37.0    20.0  0.684727  0.005396  0.678162  0.697861
 38.0    20.0  0.686040  0.004692  0.678162  0.697861
 39.0    20.0  0.687026  0.004296  0.681442  0.697861
 40.0    20.0  0.687026  0.004296  0.681442  0.697861
 41.0    20.0  0.687026  0.004296  0.681442  0.697861
 42.0    20.0  0.687519  0.004192  0.681442  0.697861
 43.0    20.0  0.687848  0.003953  0.681442  0.697861
 44.0    20.0  0.688834  0.003870  0.684723  0.697861
 45.0    20.0  0.688998  0.003760  0.684723  0.697861
 46.0    20.0  0.689163  0.003639  0.684723  0.697861
 47.0    20.0  0.689657  0.003365  0.684723  0.697861
 48.0    20.0  0.689657  0.003365  0.684723  0.697861
 49.0    20.0  0.689657  0.003365  0.684723  0.697861
 50.0    20.0  0.689822  0.003196  0.684723  0.697861
 51.0    20.0  0.689822  0.003196  0.684723  0.697861
 52.0    20.0  0.690315  0.002764  0.688019  0.697861
 53.0    20.0  0.690315  0.002764  0.688019  0.697861
 54.0    20.0  0.690643  0.002860  0.688019  0.697861
 55.0    20.0  0.690643  0.002860  0.688019  0.697861
 56.0    20.0  0.690971  0.002916  0.688019  0.697861
 57.0    20.0  0.691463  0.003193  0.688019  0.697861
 58.0    20.0  0.691463  0.003193  0.688019  0.697861
 59.0    20.0  0.691463  0.003193  0.688019  0.697861
 60.0    20.0  0.691463  0.003193  0.688019  0.697861
 61.0    20.0  0.691463  0.003193  0.688019  0.697861
 62.0    20.0  0.691628  0.003095  0.688019  0.697861
 63.0    20.0  0.691628  0.003095  0.688019  0.697861
 64.0    20.0  0.692120  0.003260  0.688019  0.697861
 65.0    20.0  0.692120  0.003260  0.688019  0.697861
 66.0    20.0  0.692120  0.003260  0.688019  0.697861
 67.0    20.0  0.692448  0.003159  0.688019  0.697861
 68.0    20.0  0.692448  0.003159  0.688019  0.697861
 69.0    20.0  0.692448  0.003159  0.688019  0.697861
 70.0    20.0  0.692612  0.003007  0.688019  0.697861
 71.0    20.0  0.692612  0.003007  0.688019  0.697861
 72.0    20.0  0.692612  0.003007  0.688019  0.697861
 73.0    20.0  0.692612  0.003007  0.688019  0.697861
 74.0    20.0  0.692612  0.003007  0.688019  0.697861
 75.0    20.0  0.692612  0.003007  0.688019  0.697861
 76.0    20.0  0.692776  0.002836  0.688019  0.697861
 77.0    20.0  0.693104  0.002640  0.688019  0.697861
 78.0    20.0  0.693104  0.002640  0.688019  0.697861
 79.0    20.0  0.693432  0.002383  0.691299  0.697861
 80.0    20.0  0.693432  0.002383  0.691299  0.697861
 81.0    20.0  0.693432  0.002383  0.691299  0.697861
 82.0    20.0  0.693432  0.002383  0.691299  0.697861
 83.0    20.0  0.693432  0.002383  0.691299  0.697861
 84.0    20.0  0.693432  0.002383  0.691299  0.697861
 85.0    20.0  0.693432  0.002383  0.691299  0.697861
 86.0    20.0  0.693596  0.002343  0.691299  0.697861
 87.0    20.0  0.693596  0.002343  0.691299  0.697861
 88.0    20.0  0.693596  0.002343  0.691299  0.697861
 89.0    20.0  0.693596  0.002343  0.691299  0.697861
 90.0    20.0  0.693596  0.002343  0.691299  0.697861
 91.0    20.0  0.693924  0.002455  0.691299  0.697861
 92.0    20.0  0.694088  0.002383  0.691299  0.697861
 93.0    20.0  0.694252  0.002296  0.691299  0.697861
 94.0    20.0  0.694252  0.002296  0.691299  0.697861
 95.0    20.0  0.695565  0.004165  0.691299  0.710999
 96.0    20.0  0.695565  0.004165  0.691299  0.710999
 97.0    20.0  0.695565  0.004165  0.691299  0.710999
 98.0    20.0  0.696386  0.004085  0.691299  0.710999
 99.0    20.0  0.696386  0.004085  0.691299  0.710999
100.0    20.0  0.696879  0.004036  0.691299  0.710999
101.0    20.0  0.697043  0.003869  0.694580  0.710999
102.0    20.0  0.697043  0.003869  0.694580  0.710999
103.0    20.0  0.697207  0.003830  0.694580  0.710999
104.0    20.0  0.697207  0.003830  0.694580  0.710999
105.0    20.0  0.697207  0.003830  0.694580  0.710999
106.0    20.0  0.697207  0.003830  0.694580  0.710999
107.0    20.0  0.697864  0.004407  0.694580  0.710999
108.0    20.0  0.697864  0.004407  0.694580  0.710999
109.0    20.0  0.697864  0.004407  0.694580  0.710999
110.0    20.0  0.697864  0.004407  0.694580  0.710999
111.0    20.0  0.697864  0.004407  0.694580  0.710999
112.0    20.0  0.698521  0.004827  0.694580  0.710999
113.0    20.0  0.698521  0.004827  0.694580  0.710999
114.0    20.0  0.698521  0.004827  0.694580  0.710999
115.0    20.0  0.698521  0.004827  0.694580  0.710999
116.0    20.0  0.698521  0.004827  0.694580  0.710999
117.0    20.0  0.698521  0.004827  0.694580  0.710999
118.0    20.0  0.698521  0.004827  0.694580  0.710999
119.0    20.0  0.698521  0.004827  0.694580  0.710999
120.0    20.0  0.698849  0.004771  0.694580  0.710999
121.0    20.0  0.699342  0.004814  0.694580  0.710999
122.0    20.0  0.699835  0.004576  0.694580  0.710999
123.0    20.0  0.699835  0.004576  0.694580  0.710999
124.0    20.0  0.699835  0.004576  0.694580  0.710999
125.0    20.0  0.699835  0.004576  0.694580  0.710999
126.0    20.0  0.699835  0.004576  0.694580  0.710999
127.0    20.0  0.700493  0.004233  0.694580  0.710999
128.0    20.0  0.700986  0.003814  0.697861  0.710999
129.0    20.0  0.700986  0.003814  0.697861  0.710999
130.0    20.0  0.701151  0.003746  0.697861  0.710999
131.0    20.0  0.701151  0.003746  0.697861  0.710999
132.0    20.0  0.701151  0.003746  0.697861  0.710999
133.0    20.0  0.702137  0.003759  0.697861  0.710999
134.0    20.0  0.702466  0.003657  0.697861  0.710999
135.0    20.0  0.702631  0.003517  0.697861  0.710999
136.0    20.0  0.702795  0.003364  0.697861  0.710999
137.0    20.0  0.702795  0.003364  0.697861  0.710999
138.0    20.0  0.702795  0.003364  0.697861  0.710999
139.0    20.0  0.702795  0.003364  0.697861  0.710999
140.0    20.0  0.702795  0.003364  0.697861  0.710999
141.0    20.0  0.702795  0.003364  0.697861  0.710999
142.0    20.0  0.702795  0.003364  0.697861  0.710999
143.0    20.0  0.703452  0.003610  0.697861  0.710999
144.0    20.0  0.703452  0.003610  0.697861  0.710999
145.0    20.0  0.703945  0.003484  0.701157  0.710999
146.0    20.0  0.703945  0.003484  0.701157  0.710999
147.0    20.0  0.704273  0.003514  0.701157  0.710999
148.0    20.0  0.704273  0.003514  0.701157  0.710999
149.0    20.0  0.704273  0.003514  0.701157  0.710999
150.0    20.0  0.704273  0.003514  0.701157  0.710999
151.0    20.0  0.704273  0.003514  0.701157  0.710999
152.0    20.0  0.704273  0.003514  0.701157  0.710999
153.0    20.0  0.704273  0.003514  0.701157  0.710999
154.0    20.0  0.704273  0.003514  0.701157  0.710999
155.0    20.0  0.704273  0.003514  0.701157  0.710999
156.0    20.0  0.704273  0.003514  0.701157  0.710999
157.0    20.0  0.704273  0.003514  0.701157  0.710999
158.0    20.0  0.705258  0.004964  0.701157  0.720856
159.0    20.0  0.705258  0.004964  0.701157  0.720856
160.0    20.0  0.705422  0.004879  0.701157  0.720856
161.0    20.0  0.705422  0.004879  0.701157  0.720856
162.0    20.0  0.705422  0.004879  0.701157  0.720856
163.0    20.0  0.705422  0.004879  0.701157  0.720856
164.0    20.0  0.705750  0.004802  0.701157  0.720856
165.0    20.0  0.705750  0.004802  0.701157  0.720856
166.0    20.0  0.705750  0.004802  0.701157  0.720856
167.0    20.0  0.705750  0.004802  0.701157  0.720856
168.0    20.0  0.705750  0.004802  0.701157  0.720856
169.0    20.0  0.705750  0.004802  0.701157  0.720856
170.0    20.0  0.705750  0.004802  0.701157  0.720856
171.0    20.0  0.705750  0.004802  0.701157  0.720856
172.0    20.0  0.705750  0.004802  0.701157  0.720856
173.0    20.0  0.705750  0.004802  0.701157  0.720856
174.0    20.0  0.705750  0.004802  0.701157  0.720856
175.0    20.0  0.705914  0.004697  0.701157  0.720856
176.0    20.0  0.705914  0.004697  0.701157  0.720856
177.0    20.0  0.705914  0.004697  0.701157  0.720856
178.0    20.0  0.705914  0.004697  0.701157  0.720856
179.0    20.0  0.706078  0.004584  0.701157  0.720856
180.0    20.0  0.706734  0.004768  0.701157  0.720856
181.0    20.0  0.706898  0.004627  0.701157  0.720856
182.0    20.0  0.706898  0.004627  0.701157  0.720856
183.0    20.0  0.706898  0.004627  0.701157  0.720856
184.0    20.0  0.706898  0.004627  0.701157  0.720856
185.0    20.0  0.706898  0.004627  0.701157  0.720856
186.0    20.0  0.707227  0.004437  0.701157  0.720856
187.0    20.0  0.707227  0.004437  0.701157  0.720856
188.0    20.0  0.707391  0.004267  0.701157  0.720856
189.0    20.0  0.707391  0.004267  0.701157  0.720856
190.0    20.0  0.708047  0.004267  0.704437  0.720856
191.0    20.0  0.708047  0.004267  0.704437  0.720856
192.0    20.0  0.708047  0.004267  0.704437  0.720856
193.0    20.0  0.708047  0.004267  0.704437  0.720856
194.0    20.0  0.708047  0.004267  0.704437  0.720856
195.0    20.0  0.708047  0.004267  0.704437  0.720856
196.0    20.0  0.708047  0.004267  0.704437  0.720856
197.0    20.0  0.708047  0.004267  0.704437  0.720856
198.0    20.0  0.708047  0.004267  0.704437  0.720856
199.0    20.0  0.708047  0.004267  0.704437  0.720856
200.0    20.0  0.708375  0.004229  0.704437  0.720856
201.0    20.0  0.708375  0.004229  0.704437  0.720856
202.0    20.0  0.708539  0.004136  0.704437  0.720856
203.0    20.0  0.708703  0.004034  0.704437  0.720856
204.0    20.0  0.708703  0.004034  0.704437  0.720856
205.0    20.0  0.708703  0.004034  0.704437  0.720856
206.0    20.0  0.708703  0.004034  0.704437  0.720856
207.0    20.0  0.708703  0.004034  0.704437  0.720856
208.0    20.0  0.708703  0.004034  0.704437  0.720856
209.0    20.0  0.708703  0.004034  0.704437  0.720856
210.0    20.0  0.708703  0.004034  0.704437  0.720856
211.0    20.0  0.709031  0.003939  0.704437  0.720856
212.0    20.0  0.709031  0.003939  0.704437  0.720856
213.0    20.0  0.709031  0.003939  0.704437  0.720856
214.0    20.0  0.709359  0.003670  0.704437  0.720856
215.0    20.0  0.709359  0.003670  0.704437  0.720856
216.0    20.0  0.709359  0.003670  0.704437  0.720856
217.0    20.0  0.709687  0.003505  0.704437  0.720856
218.0    20.0  0.709687  0.003505  0.704437  0.720856
219.0    20.0  0.709851  0.003328  0.707718  0.720856
220.0    20.0  0.709851  0.003328  0.707718  0.720856
221.0    20.0  0.709851  0.003328  0.707718  0.720856
222.0    20.0  0.709851  0.003328  0.707718  0.720856
223.0    20.0  0.709851  0.003328  0.707718  0.720856
224.0    20.0  0.709851  0.003328  0.707718  0.720856
225.0    20.0  0.709851  0.003328  0.707718  0.720856
226.0    20.0  0.710179  0.003424  0.707718  0.720856
227.0    20.0  0.710179  0.003424  0.707718  0.720856
228.0    20.0  0.710343  0.003380  0.707718  0.720856
229.0    20.0  0.710343  0.003380  0.707718  0.720856
230.0    20.0  0.710343  0.003380  0.707718  0.720856
231.0    20.0  0.710835  0.003360  0.707718  0.720856
232.0    20.0  0.710835  0.003360  0.707718  0.720856
233.0    20.0  0.711328  0.003582  0.707718  0.720856
234.0    20.0  0.711328  0.003582  0.707718  0.720856
235.0    20.0  0.711492  0.003487  0.707718  0.720856
236.0    20.0  0.711492  0.003487  0.707718  0.720856
237.0    20.0  0.712806  0.005919  0.707718  0.733994
238.0    20.0  0.712806  0.005919  0.707718  0.733994
239.0    20.0  0.713299  0.005885  0.707718  0.733994
240.0    20.0  0.713299  0.005885  0.707718  0.733994
241.0    20.0  0.713299  0.005885  0.707718  0.733994
242.0    20.0  0.713299  0.005885  0.707718  0.733994
243.0    20.0  0.715105  0.005956  0.707718  0.733994
244.0    20.0  0.715105  0.005956  0.707718  0.733994
245.0    20.0  0.715105  0.005956  0.707718  0.733994
246.0    20.0  0.715105  0.005956  0.707718  0.733994
247.0    20.0  0.715105  0.005956  0.707718  0.733994
248.0    20.0  0.715105  0.005956  0.707718  0.733994
249.0    20.0  0.715105  0.005956  0.707718  0.733994
250.0    20.0  0.715105  0.005956  0.707718  0.733994
251.0    20.0  0.715105  0.005956  0.707718  0.733994
252.0    20.0  0.715105  0.005956  0.707718  0.733994
253.0    20.0  0.715105  0.005956  0.707718  0.733994
254.0    20.0  0.715433  0.005716  0.710999  0.733994
255.0    20.0  0.715433  0.005716  0.710999  0.733994
256.0    20.0  0.715597  0.005633  0.710999  0.733994
257.0    20.0  0.715597  0.005633  0.710999  0.733994
258.0    20.0  0.715597  0.005633  0.710999  0.733994
259.0    20.0  0.715597  0.005633  0.710999  0.733994
260.0    20.0  0.715597  0.005633  0.710999  0.733994
261.0    20.0  0.715597  0.005633  0.710999  0.733994
262.0    20.0  0.715597  0.005633  0.710999  0.733994
263.0    20.0  0.715597  0.005633  0.710999  0.733994
264.0    20.0  0.716090  0.005641  0.710999  0.733994
265.0    20.0  0.716090  0.005641  0.710999  0.733994
266.0    20.0  0.716090  0.005641  0.710999  0.733994
267.0    20.0  0.716090  0.005641  0.710999  0.733994
268.0    20.0  0.716090  0.005641  0.710999  0.733994
269.0    20.0  0.716090  0.005641  0.710999  0.733994
270.0    20.0  0.716090  0.005641  0.710999  0.733994
271.0    20.0  0.716747  0.005773  0.710999  0.733994
272.0    20.0  0.716747  0.005773  0.710999  0.733994
273.0    20.0  0.716747  0.005773  0.710999  0.733994
274.0    20.0  0.716747  0.005773  0.710999  0.733994
275.0    20.0  0.716911  0.005653  0.710999  0.733994
276.0    20.0  0.716911  0.005653  0.710999  0.733994
277.0    20.0  0.716911  0.005653  0.710999  0.733994
278.0    20.0  0.716911  0.005653  0.710999  0.733994
279.0    20.0  0.716911  0.005653  0.710999  0.733994
280.0    20.0  0.717075  0.005525  0.710999  0.733994
281.0    20.0  0.717075  0.005525  0.710999  0.733994
282.0    20.0  0.717075  0.005525  0.710999  0.733994
283.0    20.0  0.717075  0.005525  0.710999  0.733994
284.0    20.0  0.717075  0.005525  0.710999  0.733994
285.0    20.0  0.717075  0.005525  0.710999  0.733994
286.0    20.0  0.717075  0.005525  0.710999  0.733994
287.0    20.0  0.717075  0.005525  0.710999  0.733994
288.0    20.0  0.717075  0.005525  0.710999  0.733994
289.0    20.0  0.717075  0.005525  0.710999  0.733994
290.0    20.0  0.717075  0.005525  0.710999  0.733994
291.0    20.0  0.717075  0.005525  0.710999  0.733994
292.0    20.0  0.717075  0.005525  0.710999  0.733994
293.0    20.0  0.717075  0.005525  0.710999  0.733994
294.0    20.0  0.717075  0.005525  0.710999  0.733994
295.0    20.0  0.717075  0.005525  0.710999  0.733994
296.0    20.0  0.717075  0.005525  0.710999  0.733994
297.0    20.0  0.717075  0.005525  0.710999  0.733994
298.0    20.0  0.717567  0.005399  0.710999  0.733994
299.0    20.0  0.717731  0.005245  0.710999  0.733994
300.0    20.0  0.717731  0.005245  0.710999  0.733994
301.0    20.0  0.717731  0.005245  0.710999  0.733994
302.0    20.0  0.717896  0.005080  0.714279  0.733994
303.0    20.0  0.717896  0.005080  0.714279  0.733994
304.0    20.0  0.717896  0.005080  0.714279  0.733994
305.0    20.0  0.718060  0.005013  0.714279  0.733994
306.0    20.0  0.718060  0.005013  0.714279  0.733994
307.0    20.0  0.718060  0.005013  0.714279  0.733994
308.0    20.0  0.718225  0.004940  0.714279  0.733994
309.0    20.0  0.718225  0.004940  0.714279  0.733994
310.0    20.0  0.718225  0.004940  0.714279  0.733994
311.0    20.0  0.718225  0.004940  0.714279  0.733994
312.0    20.0  0.718554  0.004885  0.714279  0.733994
313.0    20.0  0.718554  0.004885  0.714279  0.733994
314.0    20.0  0.718554  0.004885  0.714279  0.733994
315.0    20.0  0.718554  0.004885  0.714279  0.733994
316.0    20.0  0.718554  0.004885  0.714279  0.733994
317.0    20.0  0.718554  0.004885  0.714279  0.733994
318.0    20.0  0.718554  0.004885  0.714279  0.733994
319.0    20.0  0.718554  0.004885  0.714279  0.733994
320.0    20.0  0.718554  0.004885  0.714279  0.733994
321.0    20.0  0.718883  0.004807  0.714279  0.733994
322.0    20.0  0.718883  0.004807  0.714279  0.733994
323.0    20.0  0.718883  0.004807  0.714279  0.733994
324.0    20.0  0.719868  0.005700  0.714279  0.733994
325.0    20.0  0.719868  0.005700  0.714279  0.733994
326.0    20.0  0.719868  0.005700  0.714279  0.733994
327.0    20.0  0.719868  0.005700  0.714279  0.733994
328.0    20.0  0.719868  0.005700  0.714279  0.733994
329.0    20.0  0.719868  0.005700  0.714279  0.733994
330.0    20.0  0.719868  0.005700  0.714279  0.733994
331.0    20.0  0.720197  0.005556  0.714279  0.733994
332.0    20.0  0.720197  0.005556  0.714279  0.733994
333.0    20.0  0.720197  0.005556  0.714279  0.733994
334.0    20.0  0.720197  0.005556  0.714279  0.733994
335.0    20.0  0.721183  0.006137  0.714279  0.733994
336.0    20.0  0.721183  0.006137  0.714279  0.733994
337.0    20.0  0.721183  0.006137  0.714279  0.733994
338.0    20.0  0.721183  0.006137  0.714279  0.733994
339.0    20.0  0.721183  0.006137  0.714279  0.733994
340.0    20.0  0.721183  0.006137  0.714279  0.733994
341.0    20.0  0.721512  0.005931  0.714279  0.733994
342.0    20.0  0.721512  0.005931  0.714279  0.733994
343.0    20.0  0.721512  0.005931  0.714279  0.733994
344.0    20.0  0.721512  0.005931  0.714279  0.733994
345.0    20.0  0.721512  0.005931  0.714279  0.733994
346.0    20.0  0.721512  0.005931  0.714279  0.733994
347.0    20.0  0.721512  0.005931  0.714279  0.733994
348.0    20.0  0.721512  0.005931  0.714279  0.733994
349.0    20.0  0.721512  0.005931  0.714279  0.733994
350.0    20.0  0.722169  0.005820  0.714279  0.733994
351.0    20.0  0.722169  0.005820  0.714279  0.733994
352.0    20.0  0.722169  0.005820  0.714279  0.733994
353.0    20.0  0.722334  0.005638  0.714279  0.733994
354.0    20.0  0.722334  0.005638  0.714279  0.733994
355.0    20.0  0.722334  0.005638  0.714279  0.733994
356.0    20.0  0.722662  0.005343  0.717575  0.733994
357.0    20.0  0.722662  0.005343  0.717575  0.733994
358.0    20.0  0.722662  0.005343  0.717575  0.733994
359.0    20.0  0.722662  0.005343  0.717575  0.733994
360.0    20.0  0.722662  0.005343  0.717575  0.733994
361.0    20.0  0.722662  0.005343  0.717575  0.733994
362.0    20.0  0.722662  0.005343  0.717575  0.733994
363.0    20.0  0.722662  0.005343  0.717575  0.733994
364.0    20.0  0.722662  0.005343  0.717575  0.733994
365.0    20.0  0.722662  0.005343  0.717575  0.733994
366.0    20.0  0.722662  0.005343  0.717575  0.733994
367.0    20.0  0.722662  0.005343  0.717575  0.733994
368.0    20.0  0.723319  0.005483  0.717575  0.733994
369.0    20.0  0.723319  0.005483  0.717575  0.733994
370.0    20.0  0.723319  0.005483  0.717575  0.733994
371.0    20.0  0.723319  0.005483  0.717575  0.733994
372.0    20.0  0.723319  0.005483  0.717575  0.733994
373.0    20.0  0.723483  0.005356  0.717575  0.733994
374.0    20.0  0.723483  0.005356  0.717575  0.733994
375.0    20.0  0.723483  0.005356  0.717575  0.733994
376.0    20.0  0.723483  0.005356  0.717575  0.733994
377.0    20.0  0.723483  0.005356  0.717575  0.733994
378.0    20.0  0.723647  0.005221  0.717575  0.733994
379.0    20.0  0.723647  0.005221  0.717575  0.733994
380.0    20.0  0.723647  0.005221  0.717575  0.733994
381.0    20.0  0.723975  0.005032  0.717575  0.733994
382.0    20.0  0.723975  0.005032  0.717575  0.733994
383.0    20.0  0.723975  0.005032  0.717575  0.733994
384.0    20.0  0.723975  0.005032  0.717575  0.733994
385.0    20.0  0.723975  0.005032  0.717575  0.733994
386.0    20.0  0.723975  0.005032  0.717575  0.733994
387.0    20.0  0.723975  0.005032  0.717575  0.733994
388.0    20.0  0.723975  0.005032  0.717575  0.733994
389.0    20.0  0.723975  0.005032  0.717575  0.733994
390.0    20.0  0.723975  0.005032  0.717575  0.733994
391.0    20.0  0.724139  0.004872  0.720856  0.733994
392.0    20.0  0.724139  0.004872  0.720856  0.733994
393.0    20.0  0.724139  0.004872  0.720856  0.733994
394.0    20.0  0.724139  0.004872  0.720856  0.733994
395.0    20.0  0.724139  0.004872  0.720856  0.733994
396.0    20.0  0.724139  0.004872  0.720856  0.733994
397.0    20.0  0.724139  0.004872  0.720856  0.733994
398.0    20.0  0.724139  0.004872  0.720856  0.733994
399.0    20.0  0.724139  0.004872  0.720856  0.733994
400.0    20.0  0.724139  0.004872  0.720856  0.733994
401.0    20.0  0.724139  0.004872  0.720856  0.733994
402.0    20.0  0.724139  0.004872  0.720856  0.733994
403.0    20.0  0.724139  0.004872  0.720856  0.733994
404.0    20.0  0.724139  0.004872  0.720856  0.733994
405.0    20.0  0.724139  0.004872  0.720856  0.733994
406.0    20.0  0.724139  0.004872  0.720856  0.733994
407.0    20.0  0.724139  0.004872  0.720856  0.733994
408.0    20.0  0.724139  0.004872  0.720856  0.733994
409.0    20.0  0.724139  0.004872  0.720856  0.733994
410.0    20.0  0.724303  0.004813  0.720856  0.733994
411.0    20.0  0.724303  0.004813  0.720856  0.733994
412.0    20.0  0.724303  0.004813  0.720856  0.733994
413.0    20.0  0.724303  0.004813  0.720856  0.733994
414.0    20.0  0.724303  0.004813  0.720856  0.733994
415.0    20.0  0.724303  0.004813  0.720856  0.733994
416.0    20.0  0.724303  0.004813  0.720856  0.733994
417.0    20.0  0.724303  0.004813  0.720856  0.733994
418.0    20.0  0.724303  0.004813  0.720856  0.733994
419.0    20.0  0.724303  0.004813  0.720856  0.733994
420.0    20.0  0.724303  0.004813  0.720856  0.733994
421.0    20.0  0.724303  0.004813  0.720856  0.733994
422.0    20.0  0.724303  0.004813  0.720856  0.733994
423.0    20.0  0.724303  0.004813  0.720856  0.733994
424.0    20.0  0.724303  0.004813  0.720856  0.733994
425.0    20.0  0.724303  0.004813  0.720856  0.733994
426.0    20.0  0.724303  0.004813  0.720856  0.733994
427.0    20.0  0.724303  0.004813  0.720856  0.733994
428.0    20.0  0.724303  0.004813  0.720856  0.733994
429.0    20.0  0.724303  0.004813  0.720856  0.733994
430.0    20.0  0.724303  0.004813  0.720856  0.733994
431.0    20.0  0.724303  0.004813  0.720856  0.733994
432.0    20.0  0.724303  0.004813  0.720856  0.733994
433.0    20.0  0.724303  0.004813  0.720856  0.733994
434.0    20.0  0.724303  0.004813  0.720856  0.733994
435.0    20.0  0.724303  0.004813  0.720856  0.733994
436.0    20.0  0.724303  0.004813  0.720856  0.733994
437.0    20.0  0.724303  0.004813  0.720856  0.733994
438.0    20.0  0.724303  0.004813  0.720856  0.733994
439.0    20.0  0.724303  0.004813  0.720856  0.733994
440.0    20.0  0.724303  0.004813  0.720856  0.733994
441.0    20.0  0.724467  0.004748  0.720856  0.733994
442.0    20.0  0.724467  0.004748  0.720856  0.733994
443.0    20.0  0.724467  0.004748  0.720856  0.733994
444.0    20.0  0.724467  0.004748  0.720856  0.733994
445.0    20.0  0.724796  0.004714  0.720856  0.733994
446.0    20.0  0.724796  0.004714  0.720856  0.733994
447.0    20.0  0.724796  0.004714  0.720856  0.733994
448.0    20.0  0.724796  0.004714  0.720856  0.733994
449.0    20.0  0.725452  0.005024  0.720856  0.733994
450.0    20.0  0.725452  0.005024  0.720856  0.733994
451.0    20.0  0.725452  0.005024  0.720856  0.733994
452.0    20.0  0.725452  0.005024  0.720856  0.733994
453.0    20.0  0.725780  0.004927  0.720856  0.733994
454.0    20.0  0.725780  0.004927  0.720856  0.733994
455.0    20.0  0.725780  0.004927  0.720856  0.733994
456.0    20.0  0.725780  0.004927  0.720856  0.733994
457.0    20.0  0.725945  0.004813  0.720856  0.733994
458.0    20.0  0.725945  0.004813  0.720856  0.733994
459.0    20.0  0.726109  0.004692  0.720856  0.733994
460.0    20.0  0.726273  0.004561  0.720856  0.733994
461.0    20.0  0.726273  0.004561  0.720856  0.733994
462.0    20.0  0.726273  0.004561  0.720856  0.733994
463.0    20.0  0.726273  0.004561  0.720856  0.733994
464.0    20.0  0.726273  0.004561  0.720856  0.733994
465.0    20.0  0.726273  0.004561  0.720856  0.733994
466.0    20.0  0.726273  0.004561  0.720856  0.733994
467.0    20.0  0.726273  0.004561  0.720856  0.733994
468.0    20.0  0.726273  0.004561  0.720856  0.733994
469.0    20.0  0.726273  0.004561  0.720856  0.733994
470.0    20.0  0.726273  0.004561  0.720856  0.733994
471.0    20.0  0.726273  0.004561  0.720856  0.733994
472.0    20.0  0.726437  0.004420  0.720856  0.733994
473.0    20.0  0.726437  0.004420  0.720856  0.733994
474.0    20.0  0.726929  0.004318  0.720856  0.733994
475.0    20.0  0.726929  0.004318  0.720856  0.733994
476.0    20.0  0.726929  0.004318  0.720856  0.733994
477.0    20.0  0.726929  0.004318  0.720856  0.733994
478.0    20.0  0.726929  0.004318  0.720856  0.733994
479.0    20.0  0.726929  0.004318  0.720856  0.733994
480.0    20.0  0.726929  0.004318  0.720856  0.733994
481.0    20.0  0.726929  0.004318  0.720856  0.733994
482.0    20.0  0.726929  0.004318  0.720856  0.733994
483.0    20.0  0.726929  0.004318  0.720856  0.733994
484.0    20.0  0.726929  0.004318  0.720856  0.733994
485.0    20.0  0.726929  0.004318  0.720856  0.733994
486.0    20.0  0.727258  0.004087  0.720856  0.733994
487.0    20.0  0.727258  0.004087  0.720856  0.733994
488.0    20.0  0.727258  0.004087  0.720856  0.733994
489.0    20.0  0.727258  0.004087  0.720856  0.733994
490.0    20.0  0.727258  0.004087  0.720856  0.733994
491.0    20.0  0.727258  0.004087  0.720856  0.733994
492.0    20.0  0.727258  0.004087  0.720856  0.733994
493.0    20.0  0.727258  0.004087  0.720856  0.733994
494.0    20.0  0.727258  0.004087  0.720856  0.733994
495.0    20.0  0.727258  0.004087  0.720856  0.733994
496.0    20.0  0.727258  0.004087  0.720856  0.733994
497.0    20.0  0.727258  0.004087  0.720856  0.733994
498.0    20.0  0.727258  0.004087  0.720856  0.733994
499.0    20.0  0.727258  0.004087  0.720856  0.733994
