gen  nevals       avg       std       min       max
  0.0    20.0  0.603704  0.052180  0.500000  0.703705
  1.0    20.0  0.639813  0.024481  0.611115  0.703705
  2.0    20.0  0.657407  0.022301  0.629623  0.703705
  3.0    20.0  0.671297  0.025441  0.648148  0.740738
  4.0    20.0  0.687037  0.023349  0.648148  0.740738
  5.0    20.0  0.699073  0.024057  0.666672  0.759262
  6.0    20.0  0.712963  0.021518  0.685181  0.759262
  7.0    20.0  0.722223  0.021910  0.703705  0.777771
  8.0    20.0  0.726852  0.021011  0.703705  0.777771
  9.0    20.0  0.732408  0.018023  0.703705  0.777771
 10.0    20.0  0.737964  0.014666  0.722229  0.777771
 11.0    20.0  0.742592  0.012961  0.722229  0.777771
 12.0    20.0  0.747221  0.010599  0.740738  0.777771
 13.0    20.0  0.748147  0.010799  0.740738  0.777771
 14.0    20.0  0.750925  0.012389  0.740738  0.777771
 15.0    20.0  0.750925  0.012389  0.740738  0.777771
 16.0    20.0  0.751851  0.012284  0.740738  0.777771
 17.0    20.0  0.761111  0.019334  0.740738  0.814819
 18.0    20.0  0.766667  0.017954  0.740738  0.814819
 19.0    20.0  0.771297  0.016844  0.759262  0.814819
 20.0    20.0  0.775000  0.017833  0.759262  0.814819
 21.0    20.0  0.775925  0.017469  0.759262  0.814819
 22.0    20.0  0.775925  0.017469  0.759262  0.814819
 23.0    20.0  0.781480  0.017173  0.759262  0.814819
 24.0    20.0  0.783331  0.015604  0.759262  0.814819
 25.0    20.0  0.787034  0.012425  0.759262  0.814819
 26.0    20.0  0.789812  0.010601  0.777771  0.814819
 27.0    20.0  0.789812  0.010601  0.777771  0.814819
 28.0    20.0  0.792590  0.011114  0.777771  0.814819
 29.0    20.0  0.793517  0.010601  0.777771  0.814819
 30.0    20.0  0.797221  0.012390  0.777771  0.833328
 31.0    20.0  0.797221  0.012390  0.777771  0.833328
 32.0    20.0  0.799999  0.011112  0.777771  0.833328
 33.0    20.0  0.800925  0.009930  0.796295  0.833328
 34.0    20.0  0.800925  0.009930  0.796295  0.833328
 35.0    20.0  0.800925  0.009930  0.796295  0.833328
 36.0    20.0  0.800925  0.009930  0.796295  0.833328
 37.0    20.0  0.801852  0.010311  0.796295  0.833328
 38.0    20.0  0.802778  0.010599  0.796295  0.833328
 39.0    20.0  0.803704  0.010799  0.796295  0.833328
 40.0    20.0  0.803704  0.010799  0.796295  0.833328
 41.0    20.0  0.803704  0.010799  0.796295  0.833328
 42.0    20.0  0.804630  0.010918  0.796295  0.833328
 43.0    20.0  0.804630  0.010918  0.796295  0.833328
 44.0    20.0  0.805556  0.010957  0.796295  0.833328
 45.0    20.0  0.805556  0.010957  0.796295  0.833328
 46.0    20.0  0.806483  0.010918  0.796295  0.833328
 47.0    20.0  0.807409  0.010800  0.796295  0.833328
 48.0    20.0  0.807409  0.010800  0.796295  0.833328
 49.0    20.0  0.808335  0.010599  0.796295  0.833328
 50.0    20.0  0.809261  0.010312  0.796295  0.833328
 51.0    20.0  0.809261  0.010312  0.796295  0.833328
 52.0    20.0  0.810188  0.009931  0.796295  0.833328
 53.0    20.0  0.810188  0.009931  0.796295  0.833328
 54.0    20.0  0.811114  0.009444  0.796295  0.833328
 55.0    20.0  0.811114  0.009444  0.796295  0.833328
 56.0    20.0  0.812966  0.008073  0.796295  0.833328
 57.0    20.0  0.813892  0.007112  0.796295  0.833328
 58.0    20.0  0.818521  0.007404  0.814819  0.833328
 59.0    20.0  0.819447  0.008015  0.814819  0.833328
 60.0    20.0  0.819447  0.008015  0.814819  0.833328
 61.0    20.0  0.820372  0.008482  0.814819  0.833328
 62.0    20.0  0.820372  0.008482  0.814819  0.833328
 63.0    20.0  0.820372  0.008482  0.814819  0.833328
 64.0    20.0  0.820372  0.008482  0.814819  0.833328
 65.0    20.0  0.820372  0.008482  0.814819  0.833328
 66.0    20.0  0.821297  0.008828  0.814819  0.833328
 67.0    20.0  0.821297  0.008828  0.814819  0.833328
 68.0    20.0  0.822223  0.009067  0.814819  0.833328
 69.0    20.0  0.822223  0.009067  0.814819  0.833328
 70.0    20.0  0.823148  0.009208  0.814819  0.833328
 71.0    20.0  0.823148  0.009208  0.814819  0.833328
 72.0    20.0  0.824074  0.009254  0.814819  0.833328
 73.0    20.0  0.824074  0.009254  0.814819  0.833328
 74.0    20.0  0.824074  0.009254  0.814819  0.833328
 75.0    20.0  0.824999  0.009208  0.814819  0.833328
 76.0    20.0  0.824999  0.009208  0.814819  0.833328
 77.0    20.0  0.826851  0.010594  0.814819  0.851852
 78.0    20.0  0.827776  0.010307  0.814819  0.851852
 79.0    20.0  0.827776  0.010307  0.814819  0.851852
 80.0    20.0  0.829628  0.011108  0.814819  0.851852
 81.0    20.0  0.829628  0.011108  0.814819  0.851852
 82.0    20.0  0.831480  0.011563  0.814819  0.851852
 83.0    20.0  0.831480  0.011563  0.814819  0.851852
 84.0    20.0  0.831480  0.011563  0.814819  0.851852
 85.0    20.0  0.831480  0.011563  0.814819  0.851852
 86.0    20.0  0.831480  0.011563  0.814819  0.851852
 87.0    20.0  0.832405  0.010915  0.814819  0.851852
 88.0    20.0  0.832405  0.010915  0.814819  0.851852
 89.0    20.0  0.836108  0.012109  0.814819  0.870377
 90.0    20.0  0.836108  0.012109  0.814819  0.870377
 91.0    20.0  0.836108  0.012109  0.814819  0.870377
 92.0    20.0  0.837959  0.009932  0.833328  0.870377
 93.0    20.0  0.837959  0.009932  0.833328  0.870377
 94.0    20.0  0.837959  0.009932  0.833328  0.870377
 95.0    20.0  0.837959  0.009932  0.833328  0.870377
 96.0    20.0  0.837959  0.009932  0.833328  0.870377
 97.0    20.0  0.837959  0.009932  0.833328  0.870377
 98.0    20.0  0.838885  0.010314  0.833328  0.870377
 99.0    20.0  0.838885  0.010314  0.833328  0.870377
100.0    20.0  0.838885  0.010314  0.833328  0.870377
101.0    20.0  0.838885  0.010314  0.833328  0.870377
102.0    20.0  0.838885  0.010314  0.833328  0.870377
103.0    20.0  0.838885  0.010314  0.833328  0.870377
104.0    20.0  0.838885  0.010314  0.833328  0.870377
105.0    20.0  0.838885  0.010314  0.833328  0.870377
106.0    20.0  0.838885  0.010314  0.833328  0.870377
107.0    20.0  0.838885  0.010314  0.833328  0.870377
108.0    20.0  0.838885  0.010314  0.833328  0.870377
109.0    20.0  0.839812  0.010601  0.833328  0.870377
110.0    20.0  0.839812  0.010601  0.833328  0.870377
111.0    20.0  0.839812  0.010601  0.833328  0.870377
112.0    20.0  0.840738  0.010801  0.833328  0.870377
113.0    20.0  0.840738  0.010801  0.833328  0.870377
114.0    20.0  0.841664  0.010920  0.833328  0.870377
115.0    20.0  0.841664  0.010920  0.833328  0.870377
116.0    20.0  0.841664  0.010920  0.833328  0.870377
117.0    20.0  0.841664  0.010920  0.833328  0.870377
118.0    20.0  0.842590  0.010959  0.833328  0.870377
119.0    20.0  0.842590  0.010959  0.833328  0.870377
120.0    20.0  0.843517  0.010920  0.833328  0.870377
121.0    20.0  0.843517  0.010920  0.833328  0.870377
122.0    20.0  0.843517  0.010920  0.833328  0.870377
123.0    20.0  0.844443  0.010801  0.833328  0.870377
124.0    20.0  0.844443  0.010801  0.833328  0.870377
125.0    20.0  0.846295  0.011861  0.833328  0.870377
126.0    20.0  0.846295  0.011861  0.833328  0.870377
127.0    20.0  0.846295  0.011861  0.833328  0.870377
128.0    20.0  0.847221  0.011531  0.833328  0.870377
129.0    20.0  0.849074  0.012112  0.833328  0.870377
130.0    20.0  0.849074  0.012112  0.833328  0.870377
131.0    20.0  0.849074  0.012112  0.833328  0.870377
132.0    20.0  0.853704  0.012965  0.833328  0.888885
133.0    20.0  0.854630  0.012110  0.833328  0.888885
134.0    20.0  0.854630  0.012110  0.833328  0.888885
135.0    20.0  0.855556  0.011112  0.833328  0.888885
136.0    20.0  0.857409  0.010311  0.851852  0.888885
137.0    20.0  0.857409  0.010311  0.851852  0.888885
138.0    20.0  0.857409  0.010311  0.851852  0.888885
139.0    20.0  0.857409  0.010311  0.851852  0.888885
140.0    20.0  0.857409  0.010311  0.851852  0.888885
141.0    20.0  0.859261  0.012284  0.851852  0.888885
142.0    20.0  0.859261  0.012284  0.851852  0.888885
143.0    20.0  0.859261  0.012284  0.851852  0.888885
144.0    20.0  0.859261  0.012284  0.851852  0.888885
145.0    20.0  0.859261  0.012284  0.851852  0.888885
146.0    20.0  0.859261  0.012284  0.851852  0.888885
147.0    20.0  0.859261  0.012284  0.851852  0.888885
148.0    20.0  0.859261  0.012284  0.851852  0.888885
149.0    20.0  0.859261  0.012284  0.851852  0.888885
150.0    20.0  0.859261  0.012284  0.851852  0.888885
151.0    20.0  0.859261  0.012284  0.851852  0.888885
152.0    20.0  0.861113  0.012423  0.851852  0.888885
153.0    20.0  0.861113  0.012423  0.851852  0.888885
154.0    20.0  0.861113  0.012423  0.851852  0.888885
155.0    20.0  0.861113  0.012423  0.851852  0.888885
156.0    20.0  0.862965  0.013608  0.851852  0.888885
157.0    20.0  0.862965  0.013608  0.851852  0.888885
158.0    20.0  0.864816  0.014463  0.851852  0.888885
159.0    20.0  0.864816  0.014463  0.851852  0.888885
160.0    20.0  0.864816  0.014463  0.851852  0.888885
161.0    20.0  0.864816  0.014463  0.851852  0.888885
162.0    20.0  0.864816  0.014463  0.851852  0.888885
163.0    20.0  0.864816  0.014463  0.851852  0.888885
164.0    20.0  0.864816  0.014463  0.851852  0.888885
165.0    20.0  0.864816  0.014463  0.851852  0.888885
166.0    20.0  0.866669  0.013857  0.851852  0.888885
167.0    20.0  0.867595  0.013449  0.851852  0.888885
168.0    20.0  0.868521  0.012962  0.851852  0.888885
169.0    20.0  0.870374  0.011711  0.851852  0.888885
170.0    20.0  0.871300  0.010915  0.851852  0.888885
171.0    20.0  0.871300  0.010915  0.851852  0.888885
172.0    20.0  0.873151  0.010595  0.851852  0.888885
173.0    20.0  0.873151  0.010595  0.851852  0.888885
174.0    20.0  0.873151  0.010595  0.851852  0.888885
175.0    20.0  0.874078  0.009440  0.851852  0.888885
176.0    20.0  0.874078  0.009440  0.851852  0.888885
177.0    20.0  0.876855  0.010594  0.870377  0.907410
178.0    20.0  0.876855  0.010594  0.870377  0.907410
179.0    20.0  0.876855  0.010594  0.870377  0.907410
180.0    20.0  0.876855  0.010594  0.870377  0.907410
181.0    20.0  0.876855  0.010594  0.870377  0.907410
182.0    20.0  0.876855  0.010594  0.870377  0.907410
183.0    20.0  0.876855  0.010594  0.870377  0.907410
184.0    20.0  0.877781  0.010795  0.870377  0.907410
185.0    20.0  0.877781  0.010795  0.870377  0.907410
186.0    20.0  0.877781  0.010795  0.870377  0.907410
187.0    20.0  0.877781  0.010795  0.870377  0.907410
188.0    20.0  0.877781  0.010795  0.870377  0.907410
189.0    20.0  0.879632  0.010952  0.870377  0.907410
190.0    20.0  0.879632  0.010952  0.870377  0.907410
191.0    20.0  0.880557  0.010913  0.870377  0.907410
192.0    20.0  0.881483  0.010794  0.870377  0.907410
193.0    20.0  0.881483  0.010794  0.870377  0.907410
194.0    20.0  0.884260  0.011525  0.870377  0.907410
195.0    20.0  0.884260  0.011525  0.870377  0.907410
196.0    20.0  0.884260  0.011525  0.870377  0.907410
197.0    20.0  0.884260  0.011525  0.870377  0.907410
198.0    20.0  0.885185  0.011108  0.870377  0.907410
199.0    20.0  0.886111  0.010595  0.870377  0.907410
200.0    20.0  0.886111  0.010595  0.870377  0.907410
201.0    20.0  0.886111  0.010595  0.870377  0.907410
202.0    20.0  0.886111  0.010595  0.870377  0.907410
203.0    20.0  0.886111  0.010595  0.870377  0.907410
204.0    20.0  0.886111  0.010595  0.870377  0.907410
205.0    20.0  0.886111  0.010595  0.870377  0.907410
206.0    20.0  0.886111  0.010595  0.870377  0.907410
207.0    20.0  0.886111  0.010595  0.870377  0.907410
208.0    20.0  0.887036  0.009970  0.870377  0.907410
209.0    20.0  0.887036  0.009970  0.870377  0.907410
210.0    20.0  0.888887  0.008281  0.870377  0.907410
211.0    20.0  0.888887  0.008281  0.870377  0.907410
212.0    20.0  0.888887  0.008281  0.870377  0.907410
213.0    20.0  0.888887  0.008281  0.870377  0.907410
214.0    20.0  0.888887  0.008281  0.870377  0.907410
215.0    20.0  0.888887  0.008281  0.870377  0.907410
216.0    20.0  0.888887  0.008281  0.870377  0.907410
217.0    20.0  0.888887  0.008281  0.870377  0.907410
218.0    20.0  0.888887  0.008281  0.870377  0.907410
219.0    20.0  0.888887  0.008281  0.870377  0.907410
220.0    20.0  0.888887  0.008281  0.870377  0.907410
221.0    20.0  0.888887  0.008281  0.870377  0.907410
222.0    20.0  0.888887  0.008281  0.870377  0.907410
223.0    20.0  0.889812  0.007112  0.870377  0.907410
224.0    20.0  0.889812  0.007112  0.870377  0.907410
225.0    20.0  0.890738  0.005557  0.888885  0.907410
226.0    20.0  0.891664  0.006614  0.888885  0.907410
227.0    20.0  0.892590  0.007410  0.888885  0.907410
228.0    20.0  0.892590  0.007410  0.888885  0.907410
229.0    20.0  0.892590  0.007410  0.888885  0.907410
230.0    20.0  0.892590  0.007410  0.888885  0.907410
231.0    20.0  0.892590  0.007410  0.888885  0.907410
232.0    20.0  0.892590  0.007410  0.888885  0.907410
233.0    20.0  0.892590  0.007410  0.888885  0.907410
234.0    20.0  0.892590  0.007410  0.888885  0.907410
235.0    20.0  0.892590  0.007410  0.888885  0.907410
236.0    20.0  0.892590  0.007410  0.888885  0.907410
237.0    20.0  0.892590  0.007410  0.888885  0.907410
238.0    20.0  0.892590  0.007410  0.888885  0.907410
239.0    20.0  0.894442  0.010311  0.888885  0.925919
240.0    20.0  0.894442  0.010311  0.888885  0.925919
241.0    20.0  0.894442  0.010311  0.888885  0.925919
242.0    20.0  0.894442  0.010311  0.888885  0.925919
243.0    20.0  0.894442  0.010311  0.888885  0.925919
244.0    20.0  0.894442  0.010311  0.888885  0.925919
245.0    20.0  0.894442  0.010311  0.888885  0.925919
246.0    20.0  0.894442  0.010311  0.888885  0.925919
247.0    20.0  0.894442  0.010311  0.888885  0.925919
248.0    20.0  0.894442  0.010311  0.888885  0.925919
249.0    20.0  0.894442  0.010311  0.888885  0.925919
250.0    20.0  0.894442  0.010311  0.888885  0.925919
251.0    20.0  0.895368  0.010599  0.888885  0.925919
252.0    20.0  0.895368  0.010599  0.888885  0.925919
253.0    20.0  0.895368  0.010599  0.888885  0.925919
254.0    20.0  0.895368  0.010599  0.888885  0.925919
255.0    20.0  0.896294  0.010799  0.888885  0.925919
256.0    20.0  0.897221  0.010918  0.888885  0.925919
257.0    20.0  0.899072  0.012389  0.888885  0.925919
258.0    20.0  0.899072  0.012389  0.888885  0.925919
259.0    20.0  0.899998  0.012284  0.888885  0.925919
260.0    20.0  0.899998  0.012284  0.888885  0.925919
261.0    20.0  0.899998  0.012284  0.888885  0.925919
262.0    20.0  0.899998  0.012284  0.888885  0.925919
263.0    20.0  0.899998  0.012284  0.888885  0.925919
264.0    20.0  0.900925  0.012109  0.888885  0.925919
265.0    20.0  0.902776  0.012930  0.888885  0.925919
266.0    20.0  0.903703  0.012560  0.888885  0.925919
267.0    20.0  0.903703  0.012560  0.888885  0.925919
268.0    20.0  0.903703  0.012560  0.888885  0.925919
269.0    20.0  0.903703  0.012560  0.888885  0.925919
270.0    20.0  0.903703  0.012560  0.888885  0.925919
271.0    20.0  0.903703  0.012560  0.888885  0.925919
272.0    20.0  0.903703  0.012560  0.888885  0.925919
273.0    20.0  0.903703  0.012560  0.888885  0.925919
274.0    20.0  0.903703  0.012560  0.888885  0.925919
275.0    20.0  0.905555  0.011564  0.888885  0.925919
276.0    20.0  0.905555  0.011564  0.888885  0.925919
277.0    20.0  0.905555  0.011564  0.888885  0.925919
278.0    20.0  0.905555  0.011564  0.888885  0.925919
279.0    20.0  0.905555  0.011564  0.888885  0.925919
280.0    20.0  0.905555  0.011564  0.888885  0.925919
281.0    20.0  0.905555  0.011564  0.888885  0.925919
282.0    20.0  0.905555  0.011564  0.888885  0.925919
283.0    20.0  0.905555  0.011564  0.888885  0.925919
284.0    20.0  0.905555  0.011564  0.888885  0.925919
285.0    20.0  0.905555  0.011564  0.888885  0.925919
286.0    20.0  0.905555  0.011564  0.888885  0.925919
287.0    20.0  0.905555  0.011564  0.888885  0.925919
288.0    20.0  0.906481  0.010916  0.888885  0.925919
289.0    20.0  0.906481  0.010916  0.888885  0.925919
290.0    20.0  0.906481  0.010916  0.888885  0.925919
291.0    20.0  0.906481  0.010916  0.888885  0.925919
292.0    20.0  0.906481  0.010916  0.888885  0.925919
293.0    20.0  0.906481  0.010916  0.888885  0.925919
294.0    20.0  0.906481  0.010916  0.888885  0.925919
295.0    20.0  0.906481  0.010916  0.888885  0.925919
296.0    20.0  0.906481  0.010916  0.888885  0.925919
297.0    20.0  0.906481  0.010916  0.888885  0.925919
298.0    20.0  0.907407  0.010142  0.888885  0.925919
299.0    20.0  0.907407  0.010142  0.888885  0.925919
300.0    20.0  0.907407  0.010142  0.888885  0.925919
301.0    20.0  0.907407  0.010142  0.888885  0.925919
302.0    20.0  0.907407  0.010142  0.888885  0.925919
303.0    20.0  0.907407  0.010142  0.888885  0.925919
304.0    20.0  0.907407  0.010142  0.888885  0.925919
305.0    20.0  0.907407  0.010142  0.888885  0.925919
306.0    20.0  0.907407  0.010142  0.888885  0.925919
307.0    20.0  0.907407  0.010142  0.888885  0.925919
308.0    20.0  0.907407  0.010142  0.888885  0.925919
309.0    20.0  0.907407  0.010142  0.888885  0.925919
310.0    20.0  0.907407  0.010142  0.888885  0.925919
311.0    20.0  0.909259  0.009970  0.888885  0.925919
312.0    20.0  0.909259  0.009970  0.888885  0.925919
313.0    20.0  0.909259  0.009970  0.888885  0.925919
314.0    20.0  0.910185  0.008830  0.888885  0.925919
315.0    20.0  0.911111  0.007404  0.907410  0.925919
316.0    20.0  0.911111  0.007404  0.907410  0.925919
317.0    20.0  0.911111  0.007404  0.907410  0.925919
318.0    20.0  0.911111  0.007404  0.907410  0.925919
319.0    20.0  0.911111  0.007404  0.907410  0.925919
320.0    20.0  0.912037  0.008015  0.907410  0.925919
321.0    20.0  0.912962  0.008482  0.907410  0.925919
322.0    20.0  0.912962  0.008482  0.907410  0.925919
323.0    20.0  0.912962  0.008482  0.907410  0.925919
324.0    20.0  0.912962  0.008482  0.907410  0.925919
325.0    20.0  0.912962  0.008482  0.907410  0.925919
326.0    20.0  0.912962  0.008482  0.907410  0.925919
327.0    20.0  0.912962  0.008482  0.907410  0.925919
328.0    20.0  0.913888  0.008828  0.907410  0.925919
329.0    20.0  0.913888  0.008828  0.907410  0.925919
330.0    20.0  0.913888  0.008828  0.907410  0.925919
331.0    20.0  0.913888  0.008828  0.907410  0.925919
332.0    20.0  0.913888  0.008828  0.907410  0.925919
333.0    20.0  0.913888  0.008828  0.907410  0.925919
334.0    20.0  0.913888  0.008828  0.907410  0.925919
335.0    20.0  0.913888  0.008828  0.907410  0.925919
336.0    20.0  0.913888  0.008828  0.907410  0.925919
337.0    20.0  0.913888  0.008828  0.907410  0.925919
338.0    20.0  0.914813  0.009067  0.907410  0.925919
339.0    20.0  0.915739  0.009208  0.907410  0.925919
340.0    20.0  0.915739  0.009208  0.907410  0.925919
341.0    20.0  0.915739  0.009208  0.907410  0.925919
342.0    20.0  0.916664  0.009254  0.907410  0.925919
343.0    20.0  0.916664  0.009254  0.907410  0.925919
344.0    20.0  0.916664  0.009254  0.907410  0.925919
345.0    20.0  0.916664  0.009254  0.907410  0.925919
346.0    20.0  0.916664  0.009254  0.907410  0.925919
347.0    20.0  0.916664  0.009254  0.907410  0.925919
348.0    20.0  0.916664  0.009254  0.907410  0.925919
349.0    20.0  0.916664  0.009254  0.907410  0.925919
350.0    20.0  0.916664  0.009254  0.907410  0.925919
351.0    20.0  0.916664  0.009254  0.907410  0.925919
352.0    20.0  0.916664  0.009254  0.907410  0.925919
353.0    20.0  0.916664  0.009254  0.907410  0.925919
354.0    20.0  0.916664  0.009254  0.907410  0.925919
355.0    20.0  0.916664  0.009254  0.907410  0.925919
356.0    20.0  0.916664  0.009254  0.907410  0.925919
357.0    20.0  0.916664  0.009254  0.907410  0.925919
358.0    20.0  0.916664  0.009254  0.907410  0.925919
359.0    20.0  0.916664  0.009254  0.907410  0.925919
360.0    20.0  0.918516  0.010794  0.907410  0.944443
361.0    20.0  0.918516  0.010794  0.907410  0.944443
362.0    20.0  0.918516  0.010794  0.907410  0.944443
363.0    20.0  0.919441  0.010594  0.907410  0.944443
364.0    20.0  0.921293  0.011525  0.907410  0.944443
365.0    20.0  0.921293  0.011525  0.907410  0.944443
366.0    20.0  0.921293  0.011525  0.907410  0.944443
367.0    20.0  0.921293  0.011525  0.907410  0.944443
368.0    20.0  0.921293  0.011525  0.907410  0.944443
369.0    20.0  0.921293  0.011525  0.907410  0.944443
370.0    20.0  0.921293  0.011525  0.907410  0.944443
371.0    20.0  0.921293  0.011525  0.907410  0.944443
372.0    20.0  0.922218  0.011108  0.907410  0.944443
373.0    20.0  0.922218  0.011108  0.907410  0.944443
374.0    20.0  0.922218  0.011108  0.907410  0.944443
375.0    20.0  0.922218  0.011108  0.907410  0.944443
376.0    20.0  0.922218  0.011108  0.907410  0.944443
377.0    20.0  0.922218  0.011108  0.907410  0.944443
378.0    20.0  0.922218  0.011108  0.907410  0.944443
379.0    20.0  0.923144  0.010595  0.907410  0.944443
380.0    20.0  0.923144  0.010595  0.907410  0.944443
381.0    20.0  0.923144  0.010595  0.907410  0.944443
382.0    20.0  0.923144  0.010595  0.907410  0.944443
383.0    20.0  0.923144  0.010595  0.907410  0.944443
384.0    20.0  0.923144  0.010595  0.907410  0.944443
385.0    20.0  0.923144  0.010595  0.907410  0.944443
386.0    20.0  0.923144  0.010595  0.907410  0.944443
387.0    20.0  0.924995  0.010915  0.907410  0.944443
388.0    20.0  0.924995  0.010915  0.907410  0.944443
389.0    20.0  0.924995  0.010915  0.907410  0.944443
390.0    20.0  0.924995  0.010915  0.907410  0.944443
391.0    20.0  0.925921  0.010142  0.907410  0.944443
392.0    20.0  0.925921  0.010142  0.907410  0.944443
393.0    20.0  0.925921  0.010142  0.907410  0.944443
394.0    20.0  0.925921  0.010142  0.907410  0.944443
395.0    20.0  0.926846  0.009212  0.907410  0.944443
396.0    20.0  0.927772  0.008073  0.907410  0.944443
397.0    20.0  0.927772  0.008073  0.907410  0.944443
398.0    20.0  0.927772  0.008073  0.907410  0.944443
399.0    20.0  0.927772  0.008073  0.907410  0.944443
400.0    20.0  0.928697  0.006614  0.925919  0.944443
401.0    20.0  0.928697  0.006614  0.925919  0.944443
402.0    20.0  0.928697  0.006614  0.925919  0.944443
403.0    20.0  0.928697  0.006614  0.925919  0.944443
404.0    20.0  0.928697  0.006614  0.925919  0.944443
405.0    20.0  0.928697  0.006614  0.925919  0.944443
406.0    20.0  0.928697  0.006614  0.925919  0.944443
407.0    20.0  0.929623  0.007410  0.925919  0.944443
408.0    20.0  0.929623  0.007410  0.925919  0.944443
409.0    20.0  0.929623  0.007410  0.925919  0.944443
410.0    20.0  0.930550  0.008021  0.925919  0.944443
411.0    20.0  0.930550  0.008021  0.925919  0.944443
412.0    20.0  0.930550  0.008021  0.925919  0.944443
413.0    20.0  0.930550  0.008021  0.925919  0.944443
414.0    20.0  0.930550  0.008021  0.925919  0.944443
415.0    20.0  0.930550  0.008021  0.925919  0.944443
416.0    20.0  0.930550  0.008021  0.925919  0.944443
417.0    20.0  0.930550  0.008021  0.925919  0.944443
418.0    20.0  0.930550  0.008021  0.925919  0.944443
419.0    20.0  0.930550  0.008021  0.925919  0.944443
420.0    20.0  0.930550  0.008021  0.925919  0.944443
421.0    20.0  0.930550  0.008021  0.925919  0.944443
422.0    20.0  0.930550  0.008021  0.925919  0.944443
423.0    20.0  0.930550  0.008021  0.925919  0.944443
424.0    20.0  0.930550  0.008021  0.925919  0.944443
425.0    20.0  0.930550  0.008021  0.925919  0.944443
426.0    20.0  0.930550  0.008021  0.925919  0.944443
427.0    20.0  0.931476  0.008489  0.925919  0.944443
428.0    20.0  0.931476  0.008489  0.925919  0.944443
429.0    20.0  0.932402  0.008835  0.925919  0.944443
430.0    20.0  0.932402  0.008835  0.925919  0.944443
431.0    20.0  0.932402  0.008835  0.925919  0.944443
432.0    20.0  0.932402  0.008835  0.925919  0.944443
433.0    20.0  0.932402  0.008835  0.925919  0.944443
434.0    20.0  0.932402  0.008835  0.925919  0.944443
435.0    20.0  0.932402  0.008835  0.925919  0.944443
436.0    20.0  0.932402  0.008835  0.925919  0.944443
437.0    20.0  0.932402  0.008835  0.925919  0.944443
438.0    20.0  0.932402  0.008835  0.925919  0.944443
439.0    20.0  0.932402  0.008835  0.925919  0.944443
440.0    20.0  0.932402  0.008835  0.925919  0.944443
441.0    20.0  0.932402  0.008835  0.925919  0.944443
442.0    20.0  0.932402  0.008835  0.925919  0.944443
443.0    20.0  0.932402  0.008835  0.925919  0.944443
444.0    20.0  0.932402  0.008835  0.925919  0.944443
445.0    20.0  0.932402  0.008835  0.925919  0.944443
446.0    20.0  0.932402  0.008835  0.925919  0.944443
447.0    20.0  0.932402  0.008835  0.925919  0.944443
448.0    20.0  0.932402  0.008835  0.925919  0.944443
449.0    20.0  0.932402  0.008835  0.925919  0.944443
450.0    20.0  0.932402  0.008835  0.925919  0.944443
451.0    20.0  0.932402  0.008835  0.925919  0.944443
452.0    20.0  0.932402  0.008835  0.925919  0.944443
453.0    20.0  0.932402  0.008835  0.925919  0.944443
454.0    20.0  0.932402  0.008835  0.925919  0.944443
455.0    20.0  0.932402  0.008835  0.925919  0.944443
456.0    20.0  0.932402  0.008835  0.925919  0.944443
457.0    20.0  0.933328  0.009075  0.925919  0.944443
458.0    20.0  0.933328  0.009075  0.925919  0.944443
459.0    20.0  0.933328  0.009075  0.925919  0.944443
460.0    20.0  0.933328  0.009075  0.925919  0.944443
461.0    20.0  0.933328  0.009075  0.925919  0.944443
462.0    20.0  0.933328  0.009075  0.925919  0.944443
463.0    20.0  0.933328  0.009075  0.925919  0.944443
464.0    20.0  0.933328  0.009075  0.925919  0.944443
465.0    20.0  0.933328  0.009075  0.925919  0.944443
466.0    20.0  0.933328  0.009075  0.925919  0.944443
467.0    20.0  0.933328  0.009075  0.925919  0.944443
468.0    20.0  0.933328  0.009075  0.925919  0.944443
469.0    20.0  0.933328  0.009075  0.925919  0.944443
470.0    20.0  0.933328  0.009075  0.925919  0.944443
471.0    20.0  0.933328  0.009075  0.925919  0.944443
472.0    20.0  0.933328  0.009075  0.925919  0.944443
473.0    20.0  0.933328  0.009075  0.925919  0.944443
474.0    20.0  0.933328  0.009075  0.925919  0.944443
475.0    20.0  0.933328  0.009075  0.925919  0.944443
476.0    20.0  0.933328  0.009075  0.925919  0.944443
477.0    20.0  0.933328  0.009075  0.925919  0.944443
478.0    20.0  0.934254  0.009216  0.925919  0.944443
479.0    20.0  0.934254  0.009216  0.925919  0.944443
480.0    20.0  0.934254  0.009216  0.925919  0.944443
481.0    20.0  0.934254  0.009216  0.925919  0.944443
482.0    20.0  0.935181  0.009262  0.925919  0.944443
483.0    20.0  0.935181  0.009262  0.925919  0.944443
484.0    20.0  0.935181  0.009262  0.925919  0.944443
485.0    20.0  0.935181  0.009262  0.925919  0.944443
486.0    20.0  0.935181  0.009262  0.925919  0.944443
487.0    20.0  0.935181  0.009262  0.925919  0.944443
488.0    20.0  0.936107  0.009216  0.925919  0.944443
489.0    20.0  0.937033  0.009075  0.925919  0.944443
490.0    20.0  0.937033  0.009075  0.925919  0.944443
491.0    20.0  0.937033  0.009075  0.925919  0.944443
492.0    20.0  0.937033  0.009075  0.925919  0.944443
493.0    20.0  0.937033  0.009075  0.925919  0.944443
494.0    20.0  0.937033  0.009075  0.925919  0.944443
495.0    20.0  0.937033  0.009075  0.925919  0.944443
496.0    20.0  0.937033  0.009075  0.925919  0.944443
497.0    20.0  0.937033  0.009075  0.925919  0.944443
498.0    20.0  0.937033  0.009075  0.925919  0.944443
499.0    20.0  0.937033  0.009075  0.925919  0.944443
