gen  nevals       avg       std       min       max
  0.0    20.0  0.586150  0.019932  0.556015  0.637482
  1.0    20.0  0.608963  0.014969  0.588593  0.637482
  2.0    20.0  0.617314  0.013355  0.596741  0.641541
  3.0    20.0  0.625462  0.008296  0.613037  0.641541
  4.0    20.0  0.632386  0.009185  0.617111  0.649689
  5.0    20.0  0.640938  0.012168  0.629333  0.682281
  6.0    20.0  0.647858  0.010581  0.637482  0.682281
  7.0    20.0  0.653559  0.010425  0.641541  0.682281
  8.0    20.0  0.656207  0.010577  0.645615  0.682281
  9.0    20.0  0.660281  0.008585  0.649689  0.682281
 10.0    20.0  0.662726  0.007468  0.653763  0.682281
 11.0    20.0  0.663337  0.007205  0.653763  0.682281
 12.0    20.0  0.664559  0.006604  0.657837  0.682281
 13.0    20.0  0.665781  0.006503  0.657837  0.682281
 14.0    20.0  0.665985  0.006312  0.657837  0.682281
 15.0    20.0  0.667207  0.006950  0.657837  0.682281
 16.0    20.0  0.668022  0.006377  0.661911  0.682281
 17.0    20.0  0.671281  0.008652  0.661911  0.698578
 18.0    20.0  0.674541  0.008823  0.665985  0.698578
 19.0    20.0  0.674541  0.008823  0.665985  0.698578
 20.0    20.0  0.675356  0.008458  0.665985  0.698578
 21.0    20.0  0.675356  0.008458  0.665985  0.698578
 22.0    20.0  0.676781  0.007652  0.665985  0.698578
 23.0    20.0  0.677596  0.006971  0.670059  0.698578
 24.0    20.0  0.677800  0.006805  0.670059  0.698578
 25.0    20.0  0.678819  0.006081  0.674133  0.698578
 26.0    20.0  0.678819  0.006081  0.674133  0.698578
 27.0    20.0  0.678819  0.006081  0.674133  0.698578
 28.0    20.0  0.679022  0.005988  0.674133  0.698578
 29.0    20.0  0.680244  0.006111  0.674133  0.698578
 30.0    20.0  0.680652  0.005960  0.674133  0.698578
 31.0    20.0  0.682281  0.008046  0.674133  0.706726
 32.0    20.0  0.682689  0.007826  0.674133  0.706726
 33.0    20.0  0.684115  0.007673  0.678207  0.706726
 34.0    20.0  0.684522  0.007565  0.678207  0.706726
 35.0    20.0  0.686559  0.009062  0.678207  0.710800
 36.0    20.0  0.686763  0.008917  0.678207  0.710800
 37.0    20.0  0.689004  0.008475  0.682281  0.710800
 38.0    20.0  0.689004  0.008475  0.682281  0.710800
 39.0    20.0  0.689411  0.008337  0.682281  0.710800
 40.0    20.0  0.689615  0.008209  0.682281  0.710800
 41.0    20.0  0.689615  0.008209  0.682281  0.710800
 42.0    20.0  0.689615  0.008209  0.682281  0.710800
 43.0    20.0  0.689819  0.008074  0.682281  0.710800
 44.0    20.0  0.690226  0.007887  0.682281  0.710800
 45.0    20.0  0.690633  0.007565  0.682281  0.710800
 46.0    20.0  0.691448  0.007042  0.682281  0.710800
 47.0    20.0  0.691652  0.006829  0.686356  0.710800
 48.0    20.0  0.691652  0.006829  0.686356  0.710800
 49.0    20.0  0.691652  0.006829  0.686356  0.710800
 50.0    20.0  0.691652  0.006829  0.686356  0.710800
 51.0    20.0  0.692467  0.006756  0.686356  0.710800
 52.0    20.0  0.692467  0.006756  0.686356  0.710800
 53.0    20.0  0.692874  0.006620  0.686356  0.710800
 54.0    20.0  0.693282  0.006455  0.686356  0.710800
 55.0    20.0  0.693282  0.006455  0.686356  0.710800
 56.0    20.0  0.694504  0.006179  0.686356  0.710800
 57.0    20.0  0.695319  0.006125  0.690430  0.710800
 58.0    20.0  0.695319  0.006125  0.690430  0.710800
 59.0    20.0  0.695319  0.006125  0.690430  0.710800
 60.0    20.0  0.695726  0.006057  0.690430  0.710800
 61.0    20.0  0.695930  0.005942  0.690430  0.710800
 62.0    20.0  0.696133  0.005819  0.690430  0.710800
 63.0    20.0  0.696133  0.005819  0.690430  0.710800
 64.0    20.0  0.697152  0.005656  0.690430  0.710800
 65.0    20.0  0.697152  0.005656  0.690430  0.710800
 66.0    20.0  0.697356  0.005481  0.690430  0.710800
 67.0    20.0  0.698782  0.005386  0.690430  0.710800
 68.0    20.0  0.698782  0.005386  0.690430  0.710800
 69.0    20.0  0.698782  0.005386  0.690430  0.710800
 70.0    20.0  0.698985  0.005137  0.690430  0.710800
 71.0    20.0  0.698985  0.005137  0.690430  0.710800
 72.0    20.0  0.698985  0.005137  0.690430  0.710800
 73.0    20.0  0.699189  0.004868  0.694504  0.710800
 74.0    20.0  0.699596  0.004799  0.694504  0.710800
 75.0    20.0  0.699596  0.004799  0.694504  0.710800
 76.0    20.0  0.699596  0.004799  0.694504  0.710800
 77.0    20.0  0.699596  0.004799  0.694504  0.710800
 78.0    20.0  0.700004  0.004694  0.694504  0.710800
 79.0    20.0  0.700411  0.004550  0.694504  0.710800
 80.0    20.0  0.701837  0.005704  0.694504  0.718948
 81.0    20.0  0.702448  0.005229  0.694504  0.718948
 82.0    20.0  0.702448  0.005229  0.694504  0.718948
 83.0    20.0  0.703059  0.004973  0.698578  0.718948
 84.0    20.0  0.703059  0.004973  0.698578  0.718948
 85.0    20.0  0.703059  0.004973  0.698578  0.718948
 86.0    20.0  0.703467  0.004923  0.698578  0.718948
 87.0    20.0  0.703467  0.004923  0.698578  0.718948
 88.0    20.0  0.703467  0.004923  0.698578  0.718948
 89.0    20.0  0.703671  0.004799  0.698578  0.718948
 90.0    20.0  0.703671  0.004799  0.698578  0.718948
 91.0    20.0  0.704078  0.004694  0.698578  0.718948
 92.0    20.0  0.704078  0.004694  0.698578  0.718948
 93.0    20.0  0.704282  0.004537  0.698578  0.718948
 94.0    20.0  0.704282  0.004537  0.698578  0.718948
 95.0    20.0  0.704282  0.004537  0.698578  0.718948
 96.0    20.0  0.704282  0.004537  0.698578  0.718948
 97.0    20.0  0.704282  0.004537  0.698578  0.718948
 98.0    20.0  0.704282  0.004537  0.698578  0.718948
 99.0    20.0  0.704282  0.004537  0.698578  0.718948
100.0    20.0  0.704282  0.004537  0.698578  0.718948
101.0    20.0  0.704282  0.004537  0.698578  0.718948
102.0    20.0  0.704282  0.004537  0.698578  0.718948
103.0    20.0  0.704282  0.004537  0.698578  0.718948
104.0    20.0  0.705096  0.004155  0.698578  0.718948
105.0    20.0  0.705300  0.003924  0.702652  0.718948
106.0    20.0  0.705300  0.003924  0.702652  0.718948
107.0    20.0  0.705300  0.003924  0.702652  0.718948
108.0    20.0  0.705300  0.003924  0.702652  0.718948
109.0    20.0  0.705300  0.003924  0.702652  0.718948
110.0    20.0  0.705300  0.003924  0.702652  0.718948
111.0    20.0  0.705300  0.003924  0.702652  0.718948
112.0    20.0  0.705300  0.003924  0.702652  0.718948
113.0    20.0  0.705300  0.003924  0.702652  0.718948
114.0    20.0  0.705300  0.003924  0.702652  0.718948
115.0    20.0  0.705300  0.003924  0.702652  0.718948
116.0    20.0  0.705300  0.003924  0.702652  0.718948
117.0    20.0  0.705300  0.003924  0.702652  0.718948
118.0    20.0  0.705708  0.004049  0.702652  0.718948
119.0    20.0  0.705708  0.004049  0.702652  0.718948
120.0    20.0  0.705911  0.003992  0.702652  0.718948
121.0    20.0  0.705911  0.003992  0.702652  0.718948
122.0    20.0  0.705911  0.003992  0.702652  0.718948
123.0    20.0  0.706115  0.003924  0.702652  0.718948
124.0    20.0  0.706115  0.003924  0.702652  0.718948
125.0    20.0  0.706115  0.003924  0.702652  0.718948
126.0    20.0  0.706319  0.003844  0.702652  0.718948
127.0    20.0  0.706319  0.003844  0.702652  0.718948
128.0    20.0  0.706319  0.003844  0.702652  0.718948
129.0    20.0  0.706319  0.003844  0.702652  0.718948
130.0    20.0  0.706726  0.003865  0.702652  0.718948
131.0    20.0  0.706726  0.003865  0.702652  0.718948
132.0    20.0  0.706726  0.003865  0.702652  0.718948
133.0    20.0  0.706726  0.003865  0.702652  0.718948
134.0    20.0  0.706726  0.003865  0.702652  0.718948
135.0    20.0  0.706726  0.003865  0.702652  0.718948
136.0    20.0  0.706726  0.003865  0.702652  0.718948
137.0    20.0  0.706726  0.003865  0.702652  0.718948
138.0    20.0  0.706726  0.003865  0.702652  0.718948
139.0    20.0  0.707541  0.004573  0.702652  0.718948
140.0    20.0  0.708152  0.004694  0.702652  0.718948
141.0    20.0  0.708152  0.004694  0.702652  0.718948
142.0    20.0  0.708152  0.004694  0.702652  0.718948
143.0    20.0  0.708152  0.004694  0.702652  0.718948
144.0    20.0  0.708152  0.004694  0.702652  0.718948
145.0    20.0  0.708152  0.004694  0.702652  0.718948
146.0    20.0  0.708152  0.004694  0.702652  0.718948
147.0    20.0  0.708559  0.004550  0.702652  0.718948
148.0    20.0  0.708559  0.004550  0.702652  0.718948
149.0    20.0  0.708967  0.004364  0.702652  0.718948
150.0    20.0  0.708967  0.004364  0.702652  0.718948
151.0    20.0  0.709171  0.004155  0.702652  0.718948
152.0    20.0  0.709171  0.004155  0.702652  0.718948
153.0    20.0  0.709578  0.003886  0.706726  0.718948
154.0    20.0  0.709578  0.003886  0.706726  0.718948
155.0    20.0  0.709578  0.003886  0.706726  0.718948
156.0    20.0  0.709578  0.003886  0.706726  0.718948
157.0    20.0  0.711003  0.005968  0.706726  0.731155
158.0    20.0  0.711003  0.005968  0.706726  0.731155
159.0    20.0  0.711207  0.005887  0.706726  0.731155
160.0    20.0  0.712022  0.005773  0.706726  0.731155
161.0    20.0  0.712022  0.005773  0.706726  0.731155
162.0    20.0  0.712022  0.005773  0.706726  0.731155
163.0    20.0  0.712022  0.005773  0.706726  0.731155
164.0    20.0  0.712022  0.005773  0.706726  0.731155
165.0    20.0  0.712022  0.005773  0.706726  0.731155
166.0    20.0  0.712429  0.005672  0.706726  0.731155
167.0    20.0  0.712429  0.005672  0.706726  0.731155
168.0    20.0  0.713447  0.006344  0.706726  0.731155
169.0    20.0  0.713651  0.006188  0.706726  0.731155
170.0    20.0  0.713651  0.006188  0.706726  0.731155
171.0    20.0  0.713651  0.006188  0.706726  0.731155
172.0    20.0  0.713651  0.006188  0.706726  0.731155
173.0    20.0  0.715483  0.006846  0.706726  0.731155
174.0    20.0  0.716297  0.006723  0.710800  0.731155
175.0    20.0  0.716297  0.006723  0.710800  0.731155
176.0    20.0  0.716297  0.006723  0.710800  0.731155
177.0    20.0  0.716297  0.006723  0.710800  0.731155
178.0    20.0  0.716705  0.006624  0.710800  0.731155
179.0    20.0  0.716908  0.006501  0.710800  0.731155
180.0    20.0  0.716908  0.006501  0.710800  0.731155
181.0    20.0  0.716908  0.006501  0.710800  0.731155
182.0    20.0  0.717112  0.006368  0.710800  0.731155
183.0    20.0  0.717112  0.006368  0.710800  0.731155
184.0    20.0  0.717112  0.006368  0.710800  0.731155
185.0    20.0  0.717316  0.006227  0.710800  0.731155
186.0    20.0  0.717316  0.006227  0.710800  0.731155
187.0    20.0  0.717316  0.006227  0.710800  0.731155
188.0    20.0  0.717316  0.006227  0.710800  0.731155
189.0    20.0  0.717316  0.006227  0.710800  0.731155
190.0    20.0  0.717316  0.006227  0.710800  0.731155
191.0    20.0  0.717926  0.006156  0.710800  0.731155
192.0    20.0  0.718333  0.005937  0.710800  0.731155
193.0    20.0  0.718333  0.005937  0.710800  0.731155
194.0    20.0  0.718333  0.005937  0.710800  0.731155
195.0    20.0  0.718333  0.005937  0.710800  0.731155
196.0    20.0  0.718741  0.005680  0.710800  0.731155
197.0    20.0  0.718741  0.005680  0.710800  0.731155
198.0    20.0  0.718945  0.005460  0.710800  0.731155
199.0    20.0  0.718945  0.005460  0.710800  0.731155
200.0    20.0  0.718945  0.005460  0.710800  0.731155
201.0    20.0  0.718945  0.005460  0.710800  0.731155
202.0    20.0  0.718945  0.005460  0.710800  0.731155
203.0    20.0  0.718945  0.005460  0.710800  0.731155
204.0    20.0  0.718945  0.005460  0.710800  0.731155
205.0    20.0  0.719352  0.005131  0.714874  0.731155
206.0    20.0  0.719352  0.005131  0.714874  0.731155
207.0    20.0  0.719352  0.005131  0.714874  0.731155
208.0    20.0  0.719352  0.005131  0.714874  0.731155
209.0    20.0  0.719352  0.005131  0.714874  0.731155
210.0    20.0  0.719352  0.005131  0.714874  0.731155
211.0    20.0  0.719352  0.005131  0.714874  0.731155
212.0    20.0  0.719352  0.005131  0.714874  0.731155
213.0    20.0  0.720166  0.005624  0.714874  0.731155
214.0    20.0  0.720166  0.005624  0.714874  0.731155
215.0    20.0  0.720166  0.005624  0.714874  0.731155
216.0    20.0  0.720166  0.005624  0.714874  0.731155
217.0    20.0  0.720166  0.005624  0.714874  0.731155
218.0    20.0  0.720166  0.005624  0.714874  0.731155
219.0    20.0  0.720166  0.005624  0.714874  0.731155
220.0    20.0  0.720776  0.005679  0.714874  0.731155
221.0    20.0  0.720980  0.005535  0.714874  0.731155
222.0    20.0  0.721184  0.005379  0.714874  0.731155
223.0    20.0  0.721184  0.005379  0.714874  0.731155
224.0    20.0  0.721184  0.005379  0.714874  0.731155
225.0    20.0  0.721590  0.005191  0.714874  0.731155
226.0    20.0  0.722201  0.005082  0.714874  0.731155
227.0    20.0  0.722201  0.005082  0.714874  0.731155
228.0    20.0  0.722201  0.005082  0.714874  0.731155
229.0    20.0  0.722201  0.005082  0.714874  0.731155
230.0    20.0  0.722201  0.005082  0.714874  0.731155
231.0    20.0  0.723015  0.005147  0.714874  0.731155
232.0    20.0  0.723015  0.005147  0.714874  0.731155
233.0    20.0  0.723219  0.004895  0.718948  0.731155
234.0    20.0  0.723219  0.004895  0.718948  0.731155
235.0    20.0  0.723421  0.004797  0.718948  0.731155
236.0    20.0  0.723421  0.004797  0.718948  0.731155
237.0    20.0  0.723421  0.004797  0.718948  0.731155
238.0    20.0  0.723421  0.004797  0.718948  0.731155
239.0    20.0  0.723421  0.004797  0.718948  0.731155
240.0    20.0  0.723421  0.004797  0.718948  0.731155
241.0    20.0  0.723828  0.004745  0.718948  0.731155
242.0    20.0  0.723828  0.004745  0.718948  0.731155
243.0    20.0  0.723828  0.004745  0.718948  0.731155
244.0    20.0  0.724438  0.004862  0.718948  0.731155
245.0    20.0  0.724438  0.004862  0.718948  0.731155
246.0    20.0  0.724438  0.004862  0.718948  0.731155
247.0    20.0  0.724641  0.004711  0.718948  0.731155
248.0    20.0  0.724641  0.004711  0.718948  0.731155
249.0    20.0  0.725455  0.005051  0.718948  0.735229
250.0    20.0  0.725455  0.005051  0.718948  0.735229
251.0    20.0  0.725455  0.005051  0.718948  0.735229
252.0    20.0  0.725455  0.005051  0.718948  0.735229
253.0    20.0  0.725455  0.005051  0.718948  0.735229
254.0    20.0  0.725455  0.005051  0.718948  0.735229
255.0    20.0  0.725455  0.005051  0.718948  0.735229
256.0    20.0  0.725862  0.004833  0.718948  0.735229
257.0    20.0  0.725862  0.004833  0.718948  0.735229
258.0    20.0  0.725862  0.004833  0.718948  0.735229
259.0    20.0  0.725862  0.004833  0.718948  0.735229
260.0    20.0  0.725862  0.004833  0.718948  0.735229
261.0    20.0  0.727084  0.005901  0.718948  0.743378
262.0    20.0  0.727084  0.005901  0.718948  0.743378
263.0    20.0  0.727287  0.005683  0.718948  0.743378
264.0    20.0  0.727287  0.005683  0.718948  0.743378
265.0    20.0  0.727287  0.005683  0.718948  0.743378
266.0    20.0  0.727287  0.005683  0.718948  0.743378
267.0    20.0  0.727287  0.005683  0.718948  0.743378
268.0    20.0  0.727287  0.005683  0.718948  0.743378
269.0    20.0  0.727287  0.005683  0.718948  0.743378
270.0    20.0  0.727287  0.005683  0.718948  0.743378
271.0    20.0  0.727287  0.005683  0.718948  0.743378
272.0    20.0  0.727489  0.005450  0.718948  0.743378
273.0    20.0  0.727489  0.005450  0.718948  0.743378
274.0    20.0  0.727489  0.005450  0.718948  0.743378
275.0    20.0  0.727489  0.005450  0.718948  0.743378
276.0    20.0  0.727896  0.005089  0.723007  0.743378
277.0    20.0  0.728507  0.005197  0.723007  0.743378
278.0    20.0  0.728507  0.005197  0.723007  0.743378
279.0    20.0  0.728915  0.005068  0.723007  0.743378
280.0    20.0  0.729118  0.004906  0.723007  0.743378
281.0    20.0  0.729118  0.004906  0.723007  0.743378
282.0    20.0  0.729118  0.004906  0.723007  0.743378
283.0    20.0  0.729118  0.004906  0.723007  0.743378
284.0    20.0  0.729118  0.004906  0.723007  0.743378
285.0    20.0  0.729118  0.004906  0.723007  0.743378
286.0    20.0  0.729118  0.004906  0.723007  0.743378
287.0    20.0  0.729118  0.004906  0.723007  0.743378
288.0    20.0  0.729118  0.004906  0.723007  0.743378
289.0    20.0  0.729118  0.004906  0.723007  0.743378
290.0    20.0  0.729118  0.004906  0.723007  0.743378
291.0    20.0  0.729118  0.004906  0.723007  0.743378
292.0    20.0  0.729118  0.004906  0.723007  0.743378
293.0    20.0  0.729118  0.004906  0.723007  0.743378
294.0    20.0  0.730137  0.005597  0.723007  0.743378
295.0    20.0  0.730137  0.005597  0.723007  0.743378
296.0    20.0  0.730137  0.005597  0.723007  0.743378
297.0    20.0  0.730137  0.005597  0.723007  0.743378
298.0    20.0  0.730137  0.005597  0.723007  0.743378
299.0    20.0  0.730137  0.005597  0.723007  0.743378
300.0    20.0  0.731155  0.004990  0.727081  0.743378
301.0    20.0  0.731155  0.004990  0.727081  0.743378
302.0    20.0  0.731155  0.004990  0.727081  0.743378
303.0    20.0  0.731155  0.004990  0.727081  0.743378
304.0    20.0  0.731155  0.004990  0.727081  0.743378
305.0    20.0  0.731155  0.004990  0.727081  0.743378
306.0    20.0  0.731155  0.004990  0.727081  0.743378
307.0    20.0  0.731155  0.004990  0.727081  0.743378
308.0    20.0  0.731155  0.004990  0.727081  0.743378
309.0    20.0  0.731155  0.004990  0.727081  0.743378
310.0    20.0  0.731155  0.004990  0.727081  0.743378
311.0    20.0  0.731155  0.004990  0.727081  0.743378
312.0    20.0  0.731155  0.004990  0.727081  0.743378
313.0    20.0  0.731155  0.004990  0.727081  0.743378
314.0    20.0  0.731155  0.004990  0.727081  0.743378
315.0    20.0  0.731155  0.004990  0.727081  0.743378
316.0    20.0  0.731155  0.004990  0.727081  0.743378
317.0    20.0  0.731155  0.004990  0.727081  0.743378
318.0    20.0  0.731155  0.004990  0.727081  0.743378
319.0    20.0  0.731155  0.004990  0.727081  0.743378
320.0    20.0  0.731155  0.004990  0.727081  0.743378
321.0    20.0  0.731155  0.004990  0.727081  0.743378
322.0    20.0  0.731155  0.004990  0.727081  0.743378
323.0    20.0  0.731155  0.004990  0.727081  0.743378
324.0    20.0  0.731155  0.004990  0.727081  0.743378
325.0    20.0  0.731155  0.004990  0.727081  0.743378
326.0    20.0  0.731155  0.004990  0.727081  0.743378
327.0    20.0  0.731359  0.004902  0.727081  0.743378
328.0    20.0  0.732174  0.004799  0.727081  0.743378
329.0    20.0  0.732174  0.004799  0.727081  0.743378
330.0    20.0  0.732174  0.004799  0.727081  0.743378
331.0    20.0  0.732174  0.004799  0.727081  0.743378
332.0    20.0  0.732174  0.004799  0.727081  0.743378
333.0    20.0  0.732174  0.004799  0.727081  0.743378
334.0    20.0  0.732174  0.004799  0.727081  0.743378
335.0    20.0  0.732174  0.004799  0.727081  0.743378
336.0    20.0  0.732785  0.004889  0.727081  0.743378
337.0    20.0  0.732785  0.004889  0.727081  0.743378
338.0    20.0  0.732785  0.004889  0.727081  0.743378
339.0    20.0  0.732785  0.004889  0.727081  0.743378
340.0    20.0  0.732785  0.004889  0.727081  0.743378
341.0    20.0  0.732785  0.004889  0.727081  0.743378
342.0    20.0  0.732785  0.004889  0.727081  0.743378
343.0    20.0  0.732785  0.004889  0.727081  0.743378
344.0    20.0  0.732785  0.004889  0.727081  0.743378
345.0    20.0  0.732785  0.004889  0.727081  0.743378
346.0    20.0  0.732785  0.004889  0.727081  0.743378
347.0    20.0  0.732785  0.004889  0.727081  0.743378
348.0    20.0  0.732785  0.004889  0.727081  0.743378
349.0    20.0  0.732785  0.004889  0.727081  0.743378
350.0    20.0  0.732785  0.004889  0.727081  0.743378
351.0    20.0  0.732785  0.004889  0.727081  0.743378
352.0    20.0  0.732989  0.004729  0.727081  0.743378
353.0    20.0  0.732989  0.004729  0.727081  0.743378
354.0    20.0  0.732989  0.004729  0.727081  0.743378
355.0    20.0  0.732989  0.004729  0.727081  0.743378
356.0    20.0  0.732989  0.004729  0.727081  0.743378
357.0    20.0  0.732989  0.004729  0.727081  0.743378
358.0    20.0  0.732989  0.004729  0.727081  0.743378
359.0    20.0  0.732989  0.004729  0.727081  0.743378
360.0    20.0  0.732989  0.004729  0.727081  0.743378
361.0    20.0  0.733192  0.004555  0.727081  0.743378
362.0    20.0  0.733192  0.004555  0.727081  0.743378
363.0    20.0  0.733192  0.004555  0.727081  0.743378
364.0    20.0  0.733192  0.004555  0.727081  0.743378
365.0    20.0  0.733192  0.004555  0.727081  0.743378
366.0    20.0  0.733192  0.004555  0.727081  0.743378
367.0    20.0  0.733192  0.004555  0.727081  0.743378
368.0    20.0  0.733396  0.004364  0.727081  0.743378
369.0    20.0  0.733396  0.004364  0.727081  0.743378
370.0    20.0  0.733396  0.004364  0.727081  0.743378
371.0    20.0  0.733396  0.004364  0.727081  0.743378
372.0    20.0  0.733396  0.004364  0.727081  0.743378
373.0    20.0  0.733396  0.004364  0.727081  0.743378
374.0    20.0  0.733396  0.004364  0.727081  0.743378
375.0    20.0  0.733396  0.004364  0.727081  0.743378
376.0    20.0  0.733396  0.004364  0.727081  0.743378
377.0    20.0  0.733396  0.004364  0.727081  0.743378
378.0    20.0  0.733396  0.004364  0.727081  0.743378
379.0    20.0  0.733396  0.004364  0.727081  0.743378
380.0    20.0  0.733396  0.004364  0.727081  0.743378
381.0    20.0  0.733396  0.004364  0.727081  0.743378
382.0    20.0  0.733396  0.004364  0.727081  0.743378
383.0    20.0  0.733396  0.004364  0.727081  0.743378
384.0    20.0  0.733396  0.004364  0.727081  0.743378
385.0    20.0  0.733396  0.004364  0.727081  0.743378
386.0    20.0  0.733396  0.004364  0.727081  0.743378
387.0    20.0  0.733396  0.004364  0.727081  0.743378
388.0    20.0  0.733396  0.004364  0.727081  0.743378
389.0    20.0  0.733396  0.004364  0.727081  0.743378
390.0    20.0  0.733396  0.004364  0.727081  0.743378
391.0    20.0  0.733396  0.004364  0.727081  0.743378
392.0    20.0  0.733396  0.004364  0.727081  0.743378
393.0    20.0  0.733396  0.004364  0.727081  0.743378
394.0    20.0  0.733396  0.004364  0.727081  0.743378
395.0    20.0  0.733396  0.004364  0.727081  0.743378
396.0    20.0  0.733396  0.004364  0.727081  0.743378
397.0    20.0  0.733396  0.004364  0.727081  0.743378
398.0    20.0  0.733396  0.004364  0.727081  0.743378
399.0    20.0  0.733396  0.004364  0.727081  0.743378
400.0    20.0  0.733396  0.004364  0.727081  0.743378
401.0    20.0  0.733396  0.004364  0.727081  0.743378
402.0    20.0  0.733396  0.004364  0.727081  0.743378
403.0    20.0  0.733396  0.004364  0.727081  0.743378
404.0    20.0  0.733396  0.004364  0.727081  0.743378
405.0    20.0  0.733396  0.004364  0.727081  0.743378
406.0    20.0  0.733396  0.004364  0.727081  0.743378
407.0    20.0  0.733396  0.004364  0.727081  0.743378
408.0    20.0  0.733396  0.004364  0.727081  0.743378
409.0    20.0  0.733396  0.004364  0.727081  0.743378
410.0    20.0  0.733396  0.004364  0.727081  0.743378
411.0    20.0  0.733396  0.004364  0.727081  0.743378
412.0    20.0  0.733396  0.004364  0.727081  0.743378
413.0    20.0  0.733396  0.004364  0.727081  0.743378
414.0    20.0  0.733396  0.004364  0.727081  0.743378
415.0    20.0  0.733396  0.004364  0.727081  0.743378
416.0    20.0  0.733804  0.004130  0.727081  0.743378
417.0    20.0  0.733804  0.004130  0.727081  0.743378
418.0    20.0  0.734211  0.003838  0.731155  0.743378
419.0    20.0  0.734211  0.003838  0.731155  0.743378
420.0    20.0  0.734211  0.003838  0.731155  0.743378
421.0    20.0  0.734211  0.003838  0.731155  0.743378
422.0    20.0  0.734211  0.003838  0.731155  0.743378
423.0    20.0  0.734211  0.003838  0.731155  0.743378
424.0    20.0  0.734211  0.003838  0.731155  0.743378
425.0    20.0  0.734211  0.003838  0.731155  0.743378
426.0    20.0  0.734618  0.003924  0.731155  0.743378
427.0    20.0  0.734618  0.003924  0.731155  0.743378
428.0    20.0  0.734618  0.003924  0.731155  0.743378
429.0    20.0  0.734618  0.003924  0.731155  0.743378
430.0    20.0  0.734618  0.003924  0.731155  0.743378
431.0    20.0  0.734618  0.003924  0.731155  0.743378
432.0    20.0  0.734618  0.003924  0.731155  0.743378
433.0    20.0  0.734618  0.003924  0.731155  0.743378
434.0    20.0  0.734618  0.003924  0.731155  0.743378
435.0    20.0  0.734618  0.003924  0.731155  0.743378
436.0    20.0  0.734618  0.003924  0.731155  0.743378
437.0    20.0  0.734618  0.003924  0.731155  0.743378
438.0    20.0  0.734618  0.003924  0.731155  0.743378
439.0    20.0  0.734618  0.003924  0.731155  0.743378
440.0    20.0  0.734618  0.003924  0.731155  0.743378
441.0    20.0  0.734618  0.003924  0.731155  0.743378
442.0    20.0  0.734618  0.003924  0.731155  0.743378
443.0    20.0  0.734618  0.003924  0.731155  0.743378
444.0    20.0  0.734822  0.003844  0.731155  0.743378
445.0    20.0  0.734822  0.003844  0.731155  0.743378
446.0    20.0  0.735026  0.003751  0.731155  0.743378
447.0    20.0  0.735433  0.003751  0.731155  0.743378
448.0    20.0  0.735433  0.003751  0.731155  0.743378
449.0    20.0  0.735433  0.003751  0.731155  0.743378
450.0    20.0  0.735433  0.003751  0.731155  0.743378
451.0    20.0  0.735433  0.003751  0.731155  0.743378
452.0    20.0  0.735433  0.003751  0.731155  0.743378
453.0    20.0  0.735433  0.003751  0.731155  0.743378
454.0    20.0  0.735433  0.003751  0.731155  0.743378
455.0    20.0  0.735433  0.003751  0.731155  0.743378
456.0    20.0  0.735433  0.003751  0.731155  0.743378
457.0    20.0  0.735433  0.003751  0.731155  0.743378
458.0    20.0  0.735433  0.003751  0.731155  0.743378
459.0    20.0  0.735433  0.003751  0.731155  0.743378
460.0    20.0  0.735433  0.003751  0.731155  0.743378
461.0    20.0  0.735433  0.003751  0.731155  0.743378
462.0    20.0  0.735433  0.003751  0.731155  0.743378
463.0    20.0  0.735433  0.003751  0.731155  0.743378
464.0    20.0  0.735433  0.003751  0.731155  0.743378
465.0    20.0  0.735433  0.003751  0.731155  0.743378
466.0    20.0  0.735433  0.003751  0.731155  0.743378
467.0    20.0  0.735433  0.003751  0.731155  0.743378
468.0    20.0  0.735433  0.003751  0.731155  0.743378
469.0    20.0  0.735433  0.003751  0.731155  0.743378
470.0    20.0  0.735433  0.003751  0.731155  0.743378
471.0    20.0  0.735433  0.003751  0.731155  0.743378
472.0    20.0  0.735433  0.003751  0.731155  0.743378
473.0    20.0  0.735433  0.003751  0.731155  0.743378
474.0    20.0  0.735433  0.003751  0.731155  0.743378
475.0    20.0  0.735433  0.003751  0.731155  0.743378
476.0    20.0  0.735433  0.003751  0.731155  0.743378
477.0    20.0  0.735433  0.003751  0.731155  0.743378
478.0    20.0  0.735433  0.003751  0.731155  0.743378
479.0    20.0  0.735433  0.003751  0.731155  0.743378
480.0    20.0  0.735433  0.003751  0.731155  0.743378
481.0    20.0  0.735433  0.003751  0.731155  0.743378
482.0    20.0  0.735433  0.003751  0.731155  0.743378
483.0    20.0  0.735433  0.003751  0.731155  0.743378
484.0    20.0  0.735433  0.003751  0.731155  0.743378
485.0    20.0  0.735433  0.003751  0.731155  0.743378
486.0    20.0  0.735433  0.003751  0.731155  0.743378
487.0    20.0  0.735433  0.003751  0.731155  0.743378
488.0    20.0  0.735433  0.003751  0.731155  0.743378
489.0    20.0  0.735433  0.003751  0.731155  0.743378
490.0    20.0  0.735433  0.003751  0.731155  0.743378
491.0    20.0  0.735433  0.003751  0.731155  0.743378
492.0    20.0  0.735433  0.003751  0.731155  0.743378
493.0    20.0  0.735433  0.003751  0.731155  0.743378
494.0    20.0  0.735433  0.003751  0.731155  0.743378
495.0    20.0  0.735433  0.003751  0.731155  0.743378
496.0    20.0  0.735433  0.003751  0.731155  0.743378
497.0    20.0  0.735433  0.003751  0.731155  0.743378
498.0    20.0  0.735433  0.003751  0.731155  0.743378
499.0    20.0  0.735433  0.003751  0.731155  0.743378
