gen  nevals       avg       std       min       max
  0.0    20.0  0.588218  0.015696  0.553253  0.621109
  1.0    20.0  0.601412  0.010106  0.585297  0.621109
  2.0    20.0  0.609424  0.007069  0.600372  0.621109
  3.0    20.0  0.613007  0.004135  0.606033  0.621109
  4.0    20.0  0.615836  0.006094  0.609802  0.638077
  5.0    20.0  0.619887  0.006173  0.613571  0.638077
  6.0    20.0  0.624222  0.007546  0.615463  0.643738
  7.0    20.0  0.626672  0.006964  0.619232  0.643738
  8.0    20.0  0.629687  0.006065  0.623001  0.643738
  9.0    20.0  0.631950  0.005746  0.624878  0.643738
 10.0    20.0  0.632044  0.005643  0.624878  0.643738
 11.0    20.0  0.632421  0.005398  0.624878  0.643738
 12.0    20.0  0.635625  0.004811  0.628647  0.645615
 13.0    20.0  0.636945  0.004317  0.630539  0.645615
 14.0    20.0  0.638077  0.003374  0.634308  0.645615
 15.0    20.0  0.638264  0.003207  0.634308  0.645615
 16.0    20.0  0.640055  0.003887  0.636185  0.649384
 17.0    20.0  0.640433  0.003860  0.636185  0.649384
 18.0    20.0  0.641471  0.003705  0.636185  0.649384
 19.0    20.0  0.642132  0.003590  0.638077  0.649384
 20.0    20.0  0.642886  0.004192  0.638077  0.653152
 21.0    20.0  0.642886  0.004192  0.638077  0.653152
 22.0    20.0  0.643074  0.004054  0.638077  0.653152
 23.0    20.0  0.643546  0.003993  0.638077  0.653152
 24.0    20.0  0.645619  0.004914  0.639969  0.662582
 25.0    20.0  0.647316  0.004946  0.641846  0.662582
 26.0    20.0  0.647504  0.004804  0.643738  0.662582
 27.0    20.0  0.648257  0.004782  0.643738  0.662582
 28.0    20.0  0.649011  0.004752  0.643738  0.662582
 29.0    20.0  0.649387  0.004420  0.643738  0.662582
 30.0    20.0  0.650424  0.005004  0.645615  0.662582
 31.0    20.0  0.651178  0.005346  0.645615  0.662582
 32.0    20.0  0.651366  0.005212  0.645615  0.662582
 33.0    20.0  0.652309  0.004822  0.647507  0.662582
 34.0    20.0  0.652497  0.004703  0.647507  0.662582
 35.0    20.0  0.653439  0.005439  0.647507  0.666351
 36.0    20.0  0.654287  0.005107  0.649384  0.666351
 37.0    20.0  0.654758  0.004853  0.649384  0.666351
 38.0    20.0  0.656078  0.006516  0.649384  0.675781
 39.0    20.0  0.656456  0.006249  0.649384  0.675781
 40.0    20.0  0.658247  0.007082  0.651276  0.675781
 41.0    20.0  0.659471  0.007136  0.653152  0.675781
 42.0    20.0  0.659471  0.007136  0.653152  0.675781
 43.0    20.0  0.660414  0.006908  0.653152  0.675781
 44.0    20.0  0.661074  0.006547  0.655045  0.675781
 45.0    20.0  0.661451  0.006404  0.655045  0.675781
 46.0    20.0  0.662016  0.005995  0.655045  0.675781
 47.0    20.0  0.662298  0.005728  0.656921  0.675781
 48.0    20.0  0.662298  0.005728  0.656921  0.675781
 49.0    20.0  0.662298  0.005728  0.656921  0.675781
 50.0    20.0  0.662487  0.005577  0.656921  0.675781
 51.0    20.0  0.662487  0.005577  0.656921  0.675781
 52.0    20.0  0.662487  0.005577  0.656921  0.675781
 53.0    20.0  0.662487  0.005577  0.656921  0.675781
 54.0    20.0  0.662770  0.005429  0.656921  0.675781
 55.0    20.0  0.662865  0.005342  0.656921  0.675781
 56.0    20.0  0.663148  0.005166  0.658813  0.675781
 57.0    20.0  0.663148  0.005166  0.658813  0.675781
 58.0    20.0  0.663148  0.005166  0.658813  0.675781
 59.0    20.0  0.663148  0.005166  0.658813  0.675781
 60.0    20.0  0.663431  0.005076  0.658813  0.675781
 61.0    20.0  0.663431  0.005076  0.658813  0.675781
 62.0    20.0  0.663431  0.005076  0.658813  0.675781
 63.0    20.0  0.664278  0.004767  0.658813  0.675781
 64.0    20.0  0.664938  0.004877  0.658813  0.675781
 65.0    20.0  0.665127  0.004707  0.660690  0.675781
 66.0    20.0  0.665504  0.004638  0.660690  0.675781
 67.0    20.0  0.665694  0.004513  0.660690  0.675781
 68.0    20.0  0.665694  0.004513  0.660690  0.675781
 69.0    20.0  0.666732  0.004156  0.662582  0.675781
 70.0    20.0  0.667015  0.004055  0.662582  0.675781
 71.0    20.0  0.667015  0.004055  0.662582  0.675781
 72.0    20.0  0.667487  0.004061  0.662582  0.675781
 73.0    20.0  0.667675  0.003914  0.662582  0.675781
 74.0    20.0  0.667675  0.003914  0.662582  0.675781
 75.0    20.0  0.667675  0.003914  0.662582  0.675781
 76.0    20.0  0.667675  0.003914  0.662582  0.675781
 77.0    20.0  0.668335  0.004107  0.662582  0.675781
 78.0    20.0  0.668430  0.003994  0.662582  0.675781
 79.0    20.0  0.668430  0.003994  0.662582  0.675781
 80.0    20.0  0.668430  0.003994  0.662582  0.675781
 81.0    20.0  0.668430  0.003994  0.662582  0.675781
 82.0    20.0  0.668430  0.003994  0.662582  0.675781
 83.0    20.0  0.668430  0.003994  0.662582  0.675781
 84.0    20.0  0.668430  0.003994  0.662582  0.675781
 85.0    20.0  0.668430  0.003994  0.662582  0.675781
 86.0    20.0  0.668430  0.003994  0.662582  0.675781
 87.0    20.0  0.668430  0.003994  0.662582  0.675781
 88.0    20.0  0.668430  0.003994  0.662582  0.675781
 89.0    20.0  0.668713  0.003763  0.664474  0.675781
 90.0    20.0  0.668995  0.003645  0.664474  0.675781
 91.0    20.0  0.668995  0.003645  0.664474  0.675781
 92.0    20.0  0.668995  0.003645  0.664474  0.675781
 93.0    20.0  0.669372  0.003546  0.664474  0.675781
 94.0    20.0  0.669372  0.003546  0.664474  0.675781
 95.0    20.0  0.669372  0.003546  0.664474  0.675781
 96.0    20.0  0.669560  0.003377  0.664474  0.675781
 97.0    20.0  0.669560  0.003377  0.664474  0.675781
 98.0    20.0  0.670031  0.003068  0.666351  0.675781
 99.0    20.0  0.670597  0.003091  0.666351  0.675781
100.0    20.0  0.671257  0.003496  0.666351  0.679550
101.0    20.0  0.671822  0.003367  0.668243  0.679550
102.0    20.0  0.671822  0.003367  0.668243  0.679550
103.0    20.0  0.671822  0.003367  0.668243  0.679550
104.0    20.0  0.671822  0.003367  0.668243  0.679550
105.0    20.0  0.671822  0.003367  0.668243  0.679550
106.0    20.0  0.671916  0.003291  0.668243  0.679550
107.0    20.0  0.671916  0.003291  0.668243  0.679550
108.0    20.0  0.671916  0.003291  0.668243  0.679550
109.0    20.0  0.671916  0.003291  0.668243  0.679550
110.0    20.0  0.671916  0.003291  0.668243  0.679550
111.0    20.0  0.672010  0.003210  0.668243  0.679550
112.0    20.0  0.672010  0.003210  0.668243  0.679550
113.0    20.0  0.672010  0.003210  0.668243  0.679550
114.0    20.0  0.672010  0.003210  0.668243  0.679550
115.0    20.0  0.672481  0.003312  0.668243  0.679550
116.0    20.0  0.672481  0.003312  0.668243  0.679550
117.0    20.0  0.673140  0.003693  0.668243  0.681427
118.0    20.0  0.673517  0.003556  0.668243  0.681427
119.0    20.0  0.673517  0.003556  0.668243  0.681427
120.0    20.0  0.673517  0.003556  0.668243  0.681427
121.0    20.0  0.673517  0.003556  0.668243  0.681427
122.0    20.0  0.673988  0.003291  0.670120  0.681427
123.0    20.0  0.674177  0.003169  0.670120  0.681427
124.0    20.0  0.674177  0.003169  0.670120  0.681427
125.0    20.0  0.674271  0.003074  0.670120  0.681427
126.0    20.0  0.674271  0.003074  0.670120  0.681427
127.0    20.0  0.674271  0.003074  0.670120  0.681427
128.0    20.0  0.674271  0.003074  0.670120  0.681427
129.0    20.0  0.674271  0.003074  0.670120  0.681427
130.0    20.0  0.674271  0.003074  0.670120  0.681427
131.0    20.0  0.674271  0.003074  0.670120  0.681427
132.0    20.0  0.675308  0.004611  0.670120  0.690857
133.0    20.0  0.675308  0.004611  0.670120  0.690857
134.0    20.0  0.675497  0.004470  0.670120  0.690857
135.0    20.0  0.675968  0.004375  0.672012  0.690857
136.0    20.0  0.675968  0.004375  0.672012  0.690857
137.0    20.0  0.675968  0.004375  0.672012  0.690857
138.0    20.0  0.675968  0.004375  0.672012  0.690857
139.0    20.0  0.675968  0.004375  0.672012  0.690857
140.0    20.0  0.675968  0.004375  0.672012  0.690857
141.0    20.0  0.675968  0.004375  0.672012  0.690857
142.0    20.0  0.675968  0.004375  0.672012  0.690857
143.0    20.0  0.676157  0.004280  0.672012  0.690857
144.0    20.0  0.676157  0.004280  0.672012  0.690857
145.0    20.0  0.676157  0.004280  0.672012  0.690857
146.0    20.0  0.676250  0.004209  0.672012  0.690857
147.0    20.0  0.676533  0.004103  0.672012  0.690857
148.0    20.0  0.676533  0.004103  0.672012  0.690857
149.0    20.0  0.676533  0.004103  0.672012  0.690857
150.0    20.0  0.676533  0.004103  0.672012  0.690857
151.0    20.0  0.677003  0.004097  0.672012  0.690857
152.0    20.0  0.677003  0.004097  0.672012  0.690857
153.0    20.0  0.677003  0.004097  0.672012  0.690857
154.0    20.0  0.677003  0.004097  0.672012  0.690857
155.0    20.0  0.677003  0.004097  0.672012  0.690857
156.0    20.0  0.677003  0.004097  0.672012  0.690857
157.0    20.0  0.677286  0.003935  0.672012  0.690857
158.0    20.0  0.677945  0.004097  0.673889  0.690857
159.0    20.0  0.678322  0.004053  0.673889  0.690857
160.0    20.0  0.678322  0.004053  0.673889  0.690857
161.0    20.0  0.678322  0.004053  0.673889  0.690857
162.0    20.0  0.678322  0.004053  0.673889  0.690857
163.0    20.0  0.678322  0.004053  0.673889  0.690857
164.0    20.0  0.678322  0.004053  0.673889  0.690857
165.0    20.0  0.678322  0.004053  0.673889  0.690857
166.0    20.0  0.678322  0.004053  0.673889  0.690857
167.0    20.0  0.678322  0.004053  0.673889  0.690857
168.0    20.0  0.678793  0.004059  0.673889  0.690857
169.0    20.0  0.678793  0.004059  0.673889  0.690857
170.0    20.0  0.678793  0.004059  0.673889  0.690857
171.0    20.0  0.678982  0.003911  0.675781  0.690857
172.0    20.0  0.678982  0.003911  0.675781  0.690857
173.0    20.0  0.678982  0.003911  0.675781  0.690857
174.0    20.0  0.679264  0.003874  0.675781  0.690857
175.0    20.0  0.679264  0.003874  0.675781  0.690857
176.0    20.0  0.679264  0.003874  0.675781  0.690857
177.0    20.0  0.679264  0.003874  0.675781  0.690857
178.0    20.0  0.679641  0.003883  0.675781  0.690857
179.0    20.0  0.679641  0.003883  0.675781  0.690857
180.0    20.0  0.679641  0.003883  0.675781  0.690857
181.0    20.0  0.679641  0.003883  0.675781  0.690857
182.0    20.0  0.679641  0.003883  0.675781  0.690857
183.0    20.0  0.679641  0.003883  0.675781  0.690857
184.0    20.0  0.679641  0.003883  0.675781  0.690857
185.0    20.0  0.679641  0.003883  0.675781  0.690857
186.0    20.0  0.679641  0.003883  0.675781  0.690857
187.0    20.0  0.679641  0.003883  0.675781  0.690857
188.0    20.0  0.679641  0.003883  0.675781  0.690857
189.0    20.0  0.679641  0.003883  0.675781  0.690857
190.0    20.0  0.679829  0.003782  0.675781  0.690857
191.0    20.0  0.679829  0.003782  0.675781  0.690857
192.0    20.0  0.679829  0.003782  0.675781  0.690857
193.0    20.0  0.679829  0.003782  0.675781  0.690857
194.0    20.0  0.679923  0.003702  0.675781  0.690857
195.0    20.0  0.680300  0.003645  0.675781  0.690857
196.0    20.0  0.680300  0.003645  0.675781  0.690857
197.0    20.0  0.680300  0.003645  0.675781  0.690857
198.0    20.0  0.680300  0.003645  0.675781  0.690857
199.0    20.0  0.680300  0.003645  0.675781  0.690857
200.0    20.0  0.680489  0.003501  0.675781  0.690857
201.0    20.0  0.680489  0.003501  0.675781  0.690857
202.0    20.0  0.680582  0.003397  0.675781  0.690857
203.0    20.0  0.680582  0.003397  0.675781  0.690857
204.0    20.0  0.680771  0.003226  0.677658  0.690857
205.0    20.0  0.680771  0.003226  0.677658  0.690857
206.0    20.0  0.680771  0.003226  0.677658  0.690857
207.0    20.0  0.680771  0.003226  0.677658  0.690857
208.0    20.0  0.680771  0.003226  0.677658  0.690857
209.0    20.0  0.680771  0.003226  0.677658  0.690857
210.0    20.0  0.681242  0.003420  0.677658  0.690857
211.0    20.0  0.681242  0.003420  0.677658  0.690857
212.0    20.0  0.681714  0.003226  0.677658  0.690857
213.0    20.0  0.681714  0.003226  0.677658  0.690857
214.0    20.0  0.681714  0.003226  0.677658  0.690857
215.0    20.0  0.681714  0.003226  0.677658  0.690857
216.0    20.0  0.681714  0.003226  0.677658  0.690857
217.0    20.0  0.681714  0.003226  0.677658  0.690857
218.0    20.0  0.681902  0.003090  0.677658  0.690857
219.0    20.0  0.682185  0.002944  0.677658  0.690857
220.0    20.0  0.682185  0.002944  0.677658  0.690857
221.0    20.0  0.682562  0.002692  0.679550  0.690857
222.0    20.0  0.682562  0.002692  0.679550  0.690857
223.0    20.0  0.682656  0.002617  0.679550  0.690857
224.0    20.0  0.682656  0.002617  0.679550  0.690857
225.0    20.0  0.682656  0.002617  0.679550  0.690857
226.0    20.0  0.682656  0.002617  0.679550  0.690857
227.0    20.0  0.682656  0.002617  0.679550  0.690857
228.0    20.0  0.682656  0.002617  0.679550  0.690857
229.0    20.0  0.682656  0.002617  0.679550  0.690857
230.0    20.0  0.682656  0.002617  0.679550  0.690857
231.0    20.0  0.682656  0.002617  0.679550  0.690857
232.0    20.0  0.682656  0.002617  0.679550  0.690857
233.0    20.0  0.682656  0.002617  0.679550  0.690857
234.0    20.0  0.683127  0.002593  0.679550  0.690857
235.0    20.0  0.683127  0.002593  0.679550  0.690857
236.0    20.0  0.683504  0.002593  0.681427  0.690857
237.0    20.0  0.683787  0.002659  0.681427  0.690857
238.0    20.0  0.683787  0.002659  0.681427  0.690857
239.0    20.0  0.683787  0.002659  0.681427  0.690857
240.0    20.0  0.683787  0.002659  0.681427  0.690857
241.0    20.0  0.684164  0.002828  0.681427  0.690857
242.0    20.0  0.684164  0.002828  0.681427  0.690857
243.0    20.0  0.684353  0.002764  0.681427  0.690857
244.0    20.0  0.684353  0.002764  0.681427  0.690857
245.0    20.0  0.684447  0.002694  0.681427  0.690857
246.0    20.0  0.684447  0.002694  0.681427  0.690857
247.0    20.0  0.684447  0.002694  0.681427  0.690857
248.0    20.0  0.685296  0.003976  0.681427  0.698395
249.0    20.0  0.686144  0.004787  0.681427  0.698395
250.0    20.0  0.686333  0.004671  0.681427  0.698395
251.0    20.0  0.686333  0.004671  0.681427  0.698395
252.0    20.0  0.686333  0.004671  0.681427  0.698395
253.0    20.0  0.686333  0.004671  0.681427  0.698395
254.0    20.0  0.686521  0.004543  0.681427  0.698395
255.0    20.0  0.686521  0.004543  0.681427  0.698395
256.0    20.0  0.686521  0.004543  0.681427  0.698395
257.0    20.0  0.686521  0.004543  0.681427  0.698395
258.0    20.0  0.686521  0.004543  0.681427  0.698395
259.0    20.0  0.686521  0.004543  0.681427  0.698395
260.0    20.0  0.686521  0.004543  0.681427  0.698395
261.0    20.0  0.686521  0.004543  0.681427  0.698395
262.0    20.0  0.686521  0.004543  0.681427  0.698395
263.0    20.0  0.686521  0.004543  0.681427  0.698395
264.0    20.0  0.686616  0.004455  0.683319  0.698395
265.0    20.0  0.686616  0.004455  0.683319  0.698395
266.0    20.0  0.686804  0.004391  0.683319  0.698395
267.0    20.0  0.686804  0.004391  0.683319  0.698395
268.0    20.0  0.686804  0.004391  0.683319  0.698395
269.0    20.0  0.686804  0.004391  0.683319  0.698395
270.0    20.0  0.686804  0.004391  0.683319  0.698395
271.0    20.0  0.686804  0.004391  0.683319  0.698395
272.0    20.0  0.686804  0.004391  0.683319  0.698395
273.0    20.0  0.686804  0.004391  0.683319  0.698395
274.0    20.0  0.686804  0.004391  0.683319  0.698395
275.0    20.0  0.686804  0.004391  0.683319  0.698395
276.0    20.0  0.686804  0.004391  0.683319  0.698395
277.0    20.0  0.686804  0.004391  0.683319  0.698395
278.0    20.0  0.686804  0.004391  0.683319  0.698395
279.0    20.0  0.686804  0.004391  0.683319  0.698395
280.0    20.0  0.686898  0.004335  0.683319  0.698395
281.0    20.0  0.686898  0.004335  0.683319  0.698395
282.0    20.0  0.686898  0.004335  0.683319  0.698395
283.0    20.0  0.686898  0.004335  0.683319  0.698395
284.0    20.0  0.686898  0.004335  0.683319  0.698395
285.0    20.0  0.686898  0.004335  0.683319  0.698395
286.0    20.0  0.686898  0.004335  0.683319  0.698395
287.0    20.0  0.686898  0.004335  0.683319  0.698395
288.0    20.0  0.686898  0.004335  0.683319  0.698395
289.0    20.0  0.686898  0.004335  0.683319  0.698395
290.0    20.0  0.686898  0.004335  0.683319  0.698395
291.0    20.0  0.686898  0.004335  0.683319  0.698395
292.0    20.0  0.686898  0.004335  0.683319  0.698395
293.0    20.0  0.686898  0.004335  0.683319  0.698395
294.0    20.0  0.686898  0.004335  0.683319  0.698395
295.0    20.0  0.686898  0.004335  0.683319  0.698395
296.0    20.0  0.686898  0.004335  0.683319  0.698395
297.0    20.0  0.686898  0.004335  0.683319  0.698395
298.0    20.0  0.686898  0.004335  0.683319  0.698395
299.0    20.0  0.686898  0.004335  0.683319  0.698395
300.0    20.0  0.686898  0.004335  0.683319  0.698395
301.0    20.0  0.686898  0.004335  0.683319  0.698395
302.0    20.0  0.686898  0.004335  0.683319  0.698395
303.0    20.0  0.686898  0.004335  0.683319  0.698395
304.0    20.0  0.687086  0.004257  0.683319  0.698395
305.0    20.0  0.687086  0.004257  0.683319  0.698395
306.0    20.0  0.687086  0.004257  0.683319  0.698395
307.0    20.0  0.687086  0.004257  0.683319  0.698395
308.0    20.0  0.687180  0.004193  0.683319  0.698395
309.0    20.0  0.687180  0.004193  0.683319  0.698395
310.0    20.0  0.687274  0.004126  0.683319  0.698395
311.0    20.0  0.687274  0.004126  0.683319  0.698395
312.0    20.0  0.687463  0.004026  0.683319  0.698395
313.0    20.0  0.687556  0.003949  0.683319  0.698395
314.0    20.0  0.687556  0.003949  0.683319  0.698395
315.0    20.0  0.687556  0.003949  0.683319  0.698395
316.0    20.0  0.687556  0.003949  0.683319  0.698395
317.0    20.0  0.687556  0.003949  0.683319  0.698395
318.0    20.0  0.687556  0.003949  0.683319  0.698395
319.0    20.0  0.687556  0.003949  0.683319  0.698395
320.0    20.0  0.687650  0.003869  0.685196  0.698395
321.0    20.0  0.687650  0.003869  0.685196  0.698395
322.0    20.0  0.687650  0.003869  0.685196  0.698395
323.0    20.0  0.687650  0.003869  0.685196  0.698395
324.0    20.0  0.687650  0.003869  0.685196  0.698395
325.0    20.0  0.687650  0.003869  0.685196  0.698395
326.0    20.0  0.687650  0.003869  0.685196  0.698395
327.0    20.0  0.687650  0.003869  0.685196  0.698395
328.0    20.0  0.687650  0.003869  0.685196  0.698395
329.0    20.0  0.687650  0.003869  0.685196  0.698395
330.0    20.0  0.687650  0.003869  0.685196  0.698395
331.0    20.0  0.687650  0.003869  0.685196  0.698395
332.0    20.0  0.687650  0.003869  0.685196  0.698395
333.0    20.0  0.687650  0.003869  0.685196  0.698395
334.0    20.0  0.687650  0.003869  0.685196  0.698395
335.0    20.0  0.687650  0.003869  0.685196  0.698395
336.0    20.0  0.687650  0.003869  0.685196  0.698395
337.0    20.0  0.687650  0.003869  0.685196  0.698395
338.0    20.0  0.687650  0.003869  0.685196  0.698395
339.0    20.0  0.687650  0.003869  0.685196  0.698395
340.0    20.0  0.687650  0.003869  0.685196  0.698395
341.0    20.0  0.687650  0.003869  0.685196  0.698395
342.0    20.0  0.687650  0.003869  0.685196  0.698395
343.0    20.0  0.687650  0.003869  0.685196  0.698395
344.0    20.0  0.687650  0.003869  0.685196  0.698395
345.0    20.0  0.687650  0.003869  0.685196  0.698395
346.0    20.0  0.687650  0.003869  0.685196  0.698395
347.0    20.0  0.687650  0.003869  0.685196  0.698395
348.0    20.0  0.687650  0.003869  0.685196  0.698395
349.0    20.0  0.687650  0.003869  0.685196  0.698395
350.0    20.0  0.687650  0.003869  0.685196  0.698395
351.0    20.0  0.688028  0.003978  0.685196  0.698395
352.0    20.0  0.688028  0.003978  0.685196  0.698395
353.0    20.0  0.688406  0.004049  0.685196  0.698395
354.0    20.0  0.688406  0.004049  0.685196  0.698395
355.0    20.0  0.688406  0.004049  0.685196  0.698395
356.0    20.0  0.688406  0.004049  0.685196  0.698395
357.0    20.0  0.688595  0.003983  0.685196  0.698395
358.0    20.0  0.688595  0.003983  0.685196  0.698395
359.0    20.0  0.688595  0.003983  0.685196  0.698395
360.0    20.0  0.688595  0.003983  0.685196  0.698395
361.0    20.0  0.688595  0.003983  0.685196  0.698395
362.0    20.0  0.688595  0.003983  0.685196  0.698395
363.0    20.0  0.688595  0.003983  0.685196  0.698395
364.0    20.0  0.688595  0.003983  0.685196  0.698395
365.0    20.0  0.688595  0.003983  0.685196  0.698395
366.0    20.0  0.688595  0.003983  0.685196  0.698395
367.0    20.0  0.688595  0.003983  0.685196  0.698395
368.0    20.0  0.688595  0.003983  0.685196  0.698395
369.0    20.0  0.688595  0.003983  0.685196  0.698395
370.0    20.0  0.688595  0.003983  0.685196  0.698395
371.0    20.0  0.688595  0.003983  0.685196  0.698395
372.0    20.0  0.688595  0.003983  0.685196  0.698395
373.0    20.0  0.688595  0.003983  0.685196  0.698395
374.0    20.0  0.688595  0.003983  0.685196  0.698395
375.0    20.0  0.688595  0.003983  0.685196  0.698395
376.0    20.0  0.688595  0.003983  0.685196  0.698395
377.0    20.0  0.688595  0.003983  0.685196  0.698395
378.0    20.0  0.688595  0.003983  0.685196  0.698395
379.0    20.0  0.688595  0.003983  0.685196  0.698395
380.0    20.0  0.688595  0.003983  0.685196  0.698395
381.0    20.0  0.688595  0.003983  0.685196  0.698395
382.0    20.0  0.688595  0.003983  0.685196  0.698395
383.0    20.0  0.688595  0.003983  0.685196  0.698395
384.0    20.0  0.688972  0.004000  0.685196  0.698395
385.0    20.0  0.688972  0.004000  0.685196  0.698395
386.0    20.0  0.688972  0.004000  0.685196  0.698395
387.0    20.0  0.688972  0.004000  0.685196  0.698395
388.0    20.0  0.689444  0.004082  0.685196  0.698395
389.0    20.0  0.689444  0.004082  0.685196  0.698395
390.0    20.0  0.689444  0.004082  0.685196  0.698395
391.0    20.0  0.689444  0.004082  0.685196  0.698395
392.0    20.0  0.689444  0.004082  0.685196  0.698395
393.0    20.0  0.689444  0.004082  0.685196  0.698395
394.0    20.0  0.689444  0.004082  0.685196  0.698395
395.0    20.0  0.689444  0.004082  0.685196  0.698395
396.0    20.0  0.689444  0.004082  0.685196  0.698395
397.0    20.0  0.689444  0.004082  0.685196  0.698395
398.0    20.0  0.689444  0.004082  0.685196  0.698395
399.0    20.0  0.689444  0.004082  0.685196  0.698395
400.0    20.0  0.689444  0.004082  0.685196  0.698395
401.0    20.0  0.689444  0.004082  0.685196  0.698395
402.0    20.0  0.689444  0.004082  0.685196  0.698395
403.0    20.0  0.689444  0.004082  0.685196  0.698395
404.0    20.0  0.689444  0.004082  0.685196  0.698395
405.0    20.0  0.689444  0.004082  0.685196  0.698395
406.0    20.0  0.689444  0.004082  0.685196  0.698395
407.0    20.0  0.689444  0.004082  0.685196  0.698395
408.0    20.0  0.689444  0.004082  0.685196  0.698395
409.0    20.0  0.689444  0.004082  0.685196  0.698395
410.0    20.0  0.689444  0.004082  0.685196  0.698395
411.0    20.0  0.689539  0.004004  0.685196  0.698395
412.0    20.0  0.689539  0.004004  0.685196  0.698395
413.0    20.0  0.689539  0.004004  0.685196  0.698395
414.0    20.0  0.689539  0.004004  0.685196  0.698395
415.0    20.0  0.689539  0.004004  0.685196  0.698395
416.0    20.0  0.689539  0.004004  0.685196  0.698395
417.0    20.0  0.689539  0.004004  0.685196  0.698395
418.0    20.0  0.689539  0.004004  0.685196  0.698395
419.0    20.0  0.689539  0.004004  0.685196  0.698395
420.0    20.0  0.689539  0.004004  0.685196  0.698395
421.0    20.0  0.689539  0.004004  0.685196  0.698395
422.0    20.0  0.689728  0.003882  0.685196  0.698395
423.0    20.0  0.689728  0.003882  0.685196  0.698395
424.0    20.0  0.689728  0.003882  0.685196  0.698395
425.0    20.0  0.689728  0.003882  0.685196  0.698395
426.0    20.0  0.689728  0.003882  0.685196  0.698395
427.0    20.0  0.689728  0.003882  0.685196  0.698395
428.0    20.0  0.689728  0.003882  0.685196  0.698395
429.0    20.0  0.689728  0.003882  0.685196  0.698395
430.0    20.0  0.689728  0.003882  0.685196  0.698395
431.0    20.0  0.689728  0.003882  0.685196  0.698395
432.0    20.0  0.689728  0.003882  0.685196  0.698395
433.0    20.0  0.689728  0.003882  0.685196  0.698395
434.0    20.0  0.689728  0.003882  0.685196  0.698395
435.0    20.0  0.689728  0.003882  0.685196  0.698395
436.0    20.0  0.690199  0.003876  0.685196  0.698395
437.0    20.0  0.690199  0.003876  0.685196  0.698395
438.0    20.0  0.690199  0.003876  0.685196  0.698395
439.0    20.0  0.690199  0.003876  0.685196  0.698395
440.0    20.0  0.690199  0.003876  0.685196  0.698395
441.0    20.0  0.690199  0.003876  0.685196  0.698395
442.0    20.0  0.690199  0.003876  0.685196  0.698395
443.0    20.0  0.690199  0.003876  0.685196  0.698395
444.0    20.0  0.690199  0.003876  0.685196  0.698395
445.0    20.0  0.690199  0.003876  0.685196  0.698395
446.0    20.0  0.690199  0.003876  0.685196  0.698395
447.0    20.0  0.690199  0.003876  0.685196  0.698395
448.0    20.0  0.690199  0.003876  0.685196  0.698395
449.0    20.0  0.690199  0.003876  0.685196  0.698395
450.0    20.0  0.690199  0.003876  0.685196  0.698395
451.0    20.0  0.690199  0.003876  0.685196  0.698395
452.0    20.0  0.690199  0.003876  0.685196  0.698395
453.0    20.0  0.690388  0.003716  0.687088  0.698395
454.0    20.0  0.690388  0.003716  0.687088  0.698395
455.0    20.0  0.690388  0.003716  0.687088  0.698395
456.0    20.0  0.690388  0.003716  0.687088  0.698395
457.0    20.0  0.690388  0.003716  0.687088  0.698395
458.0    20.0  0.690388  0.003716  0.687088  0.698395
459.0    20.0  0.690388  0.003716  0.687088  0.698395
460.0    20.0  0.690388  0.003716  0.687088  0.698395
461.0    20.0  0.690388  0.003716  0.687088  0.698395
462.0    20.0  0.690388  0.003716  0.687088  0.698395
463.0    20.0  0.690388  0.003716  0.687088  0.698395
464.0    20.0  0.690388  0.003716  0.687088  0.698395
465.0    20.0  0.690388  0.003716  0.687088  0.698395
466.0    20.0  0.690388  0.003716  0.687088  0.698395
467.0    20.0  0.690483  0.003654  0.687088  0.698395
468.0    20.0  0.690483  0.003654  0.687088  0.698395
469.0    20.0  0.690483  0.003654  0.687088  0.698395
470.0    20.0  0.690578  0.003589  0.687088  0.698395
471.0    20.0  0.690578  0.003589  0.687088  0.698395
472.0    20.0  0.690578  0.003589  0.687088  0.698395
473.0    20.0  0.690578  0.003589  0.687088  0.698395
474.0    20.0  0.690578  0.003589  0.687088  0.698395
475.0    20.0  0.690578  0.003589  0.687088  0.698395
476.0    20.0  0.690578  0.003589  0.687088  0.698395
477.0    20.0  0.690578  0.003589  0.687088  0.698395
478.0    20.0  0.690672  0.003520  0.687088  0.698395
479.0    20.0  0.690672  0.003520  0.687088  0.698395
480.0    20.0  0.690672  0.003520  0.687088  0.698395
481.0    20.0  0.690672  0.003520  0.687088  0.698395
482.0    20.0  0.690672  0.003520  0.687088  0.698395
483.0    20.0  0.690672  0.003520  0.687088  0.698395
484.0    20.0  0.690672  0.003520  0.687088  0.698395
485.0    20.0  0.690672  0.003520  0.687088  0.698395
486.0    20.0  0.690672  0.003520  0.687088  0.698395
487.0    20.0  0.690672  0.003520  0.687088  0.698395
488.0    20.0  0.690672  0.003520  0.687088  0.698395
489.0    20.0  0.690672  0.003520  0.687088  0.698395
490.0    20.0  0.690672  0.003520  0.687088  0.698395
491.0    20.0  0.690672  0.003520  0.687088  0.698395
492.0    20.0  0.690672  0.003520  0.687088  0.698395
493.0    20.0  0.690672  0.003520  0.687088  0.698395
494.0    20.0  0.690672  0.003520  0.687088  0.698395
495.0    20.0  0.690672  0.003520  0.687088  0.698395
496.0    20.0  0.690672  0.003520  0.687088  0.698395
497.0    20.0  0.690767  0.003447  0.687088  0.698395
498.0    20.0  0.690767  0.003447  0.687088  0.698395
499.0    20.0  0.690767  0.003447  0.687088  0.698395
