gen  nevals       avg       std       min       max
  0.0    20.0  0.584541  0.021141  0.553146  0.625610
  1.0    20.0  0.602052  0.014870  0.582123  0.632843
  2.0    20.0  0.611956  0.011515  0.596619  0.632843
  3.0    20.0  0.618476  0.008210  0.606277  0.632843
  4.0    20.0  0.620290  0.006857  0.611115  0.632843
  5.0    20.0  0.621497  0.005670  0.615936  0.632843
  6.0    20.0  0.624036  0.006582  0.615936  0.642517
  7.0    20.0  0.626209  0.006429  0.618362  0.642517
  8.0    20.0  0.630436  0.005965  0.623184  0.642517
  9.0    20.0  0.632488  0.005626  0.625610  0.642517
 10.0    20.0  0.635747  0.006463  0.628021  0.654587
 11.0    20.0  0.636591  0.006038  0.628021  0.654587
 12.0    20.0  0.639371  0.005824  0.632843  0.654587
 13.0    20.0  0.640580  0.005158  0.635269  0.654587
 14.0    20.0  0.642029  0.004684  0.635269  0.654587
 15.0    20.0  0.644444  0.006092  0.637680  0.661835
 16.0    20.0  0.644927  0.005917  0.637680  0.661835
 17.0    20.0  0.646378  0.005368  0.640091  0.661835
 18.0    20.0  0.646378  0.005368  0.640091  0.661835
 19.0    20.0  0.647948  0.005115  0.642517  0.661835
 20.0    20.0  0.648794  0.005528  0.642517  0.661835
 21.0    20.0  0.649397  0.005082  0.642517  0.661835
 22.0    20.0  0.650001  0.004703  0.644928  0.661835
 23.0    20.0  0.651933  0.005450  0.644928  0.666672
 24.0    20.0  0.653745  0.004662  0.647339  0.666672
 25.0    20.0  0.653987  0.004444  0.649765  0.666672
 26.0    20.0  0.654108  0.004360  0.649765  0.666672
 27.0    20.0  0.654832  0.004176  0.649765  0.666672
 28.0    20.0  0.655918  0.004147  0.652176  0.666672
 29.0    20.0  0.656884  0.004550  0.652176  0.666672
 30.0    20.0  0.657850  0.004727  0.652176  0.666672
 31.0    20.0  0.659058  0.004909  0.652176  0.669083
 32.0    20.0  0.660386  0.004674  0.654587  0.669083
 33.0    20.0  0.661232  0.004448  0.654587  0.669083
 34.0    20.0  0.661715  0.004007  0.656998  0.669083
 35.0    20.0  0.661715  0.004007  0.656998  0.669083
 36.0    20.0  0.661836  0.003897  0.656998  0.669083
 37.0    20.0  0.661836  0.003897  0.656998  0.669083
 38.0    20.0  0.661836  0.003897  0.656998  0.669083
 39.0    20.0  0.662079  0.003657  0.656998  0.669083
 40.0    20.0  0.663529  0.004050  0.659424  0.673920
 41.0    20.0  0.664253  0.003743  0.659424  0.673920
 42.0    20.0  0.665582  0.003703  0.659424  0.673920
 43.0    20.0  0.665943  0.003341  0.661835  0.673920
 44.0    20.0  0.666064  0.003233  0.661835  0.673920
 45.0    20.0  0.666064  0.003233  0.661835  0.673920
 46.0    20.0  0.666547  0.003286  0.661835  0.673920
 47.0    20.0  0.666547  0.003286  0.661835  0.673920
 48.0    20.0  0.666667  0.003152  0.661835  0.673920
 49.0    20.0  0.666909  0.002951  0.664246  0.673920
 50.0    20.0  0.667272  0.002847  0.664246  0.673920
 51.0    20.0  0.667272  0.002847  0.664246  0.673920
 52.0    20.0  0.667272  0.002847  0.664246  0.673920
 53.0    20.0  0.667272  0.002847  0.664246  0.673920
 54.0    20.0  0.667272  0.002847  0.664246  0.673920
 55.0    20.0  0.667876  0.003375  0.664246  0.676331
 56.0    20.0  0.667876  0.003375  0.664246  0.676331
 57.0    20.0  0.667998  0.003284  0.664246  0.676331
 58.0    20.0  0.668723  0.003915  0.664246  0.678741
 59.0    20.0  0.669206  0.003699  0.666672  0.678741
 60.0    20.0  0.669206  0.003699  0.666672  0.678741
 61.0    20.0  0.669447  0.003604  0.666672  0.678741
 62.0    20.0  0.669447  0.003604  0.666672  0.678741
 63.0    20.0  0.669447  0.003604  0.666672  0.678741
 64.0    20.0  0.669447  0.003604  0.666672  0.678741
 65.0    20.0  0.669447  0.003604  0.666672  0.678741
 66.0    20.0  0.669447  0.003604  0.666672  0.678741
 67.0    20.0  0.669447  0.003604  0.666672  0.678741
 68.0    20.0  0.669447  0.003604  0.666672  0.678741
 69.0    20.0  0.669447  0.003604  0.666672  0.678741
 70.0    20.0  0.669810  0.003670  0.666672  0.678741
 71.0    20.0  0.669810  0.003670  0.666672  0.678741
 72.0    20.0  0.669810  0.003670  0.666672  0.678741
 73.0    20.0  0.669810  0.003670  0.666672  0.678741
 74.0    20.0  0.669930  0.003604  0.666672  0.678741
 75.0    20.0  0.669930  0.003604  0.666672  0.678741
 76.0    20.0  0.669930  0.003604  0.666672  0.678741
 77.0    20.0  0.669930  0.003604  0.666672  0.678741
 78.0    20.0  0.669930  0.003604  0.666672  0.678741
 79.0    20.0  0.669930  0.003604  0.666672  0.678741
 80.0    20.0  0.669930  0.003604  0.666672  0.678741
 81.0    20.0  0.669930  0.003604  0.666672  0.678741
 82.0    20.0  0.670534  0.003533  0.666672  0.678741
 83.0    20.0  0.672103  0.003809  0.666672  0.678741
 84.0    20.0  0.672103  0.003809  0.666672  0.678741
 85.0    20.0  0.672224  0.003671  0.666672  0.678741
 86.0    20.0  0.672224  0.003671  0.666672  0.678741
 87.0    20.0  0.672827  0.003194  0.669083  0.678741
 88.0    20.0  0.672948  0.003094  0.669083  0.678741
 89.0    20.0  0.673190  0.002969  0.669083  0.678741
 90.0    20.0  0.673190  0.002969  0.669083  0.678741
 91.0    20.0  0.673310  0.002846  0.669083  0.678741
 92.0    20.0  0.673310  0.002846  0.669083  0.678741
 93.0    20.0  0.673793  0.002907  0.669083  0.678741
 94.0    20.0  0.673793  0.002907  0.669083  0.678741
 95.0    20.0  0.673914  0.002755  0.669083  0.678741
 96.0    20.0  0.673914  0.002755  0.669083  0.678741
 97.0    20.0  0.673914  0.002755  0.669083  0.678741
 98.0    20.0  0.673914  0.002755  0.669083  0.678741
 99.0    20.0  0.673914  0.002755  0.669083  0.678741
100.0    20.0  0.673914  0.002755  0.669083  0.678741
101.0    20.0  0.673914  0.002755  0.669083  0.678741
102.0    20.0  0.673914  0.002755  0.669083  0.678741
103.0    20.0  0.673914  0.002755  0.669083  0.678741
104.0    20.0  0.673914  0.002755  0.669083  0.678741
105.0    20.0  0.673914  0.002755  0.669083  0.678741
106.0    20.0  0.673914  0.002755  0.669083  0.678741
107.0    20.0  0.673914  0.002755  0.669083  0.678741
108.0    20.0  0.673914  0.002755  0.669083  0.678741
109.0    20.0  0.673914  0.002755  0.669083  0.678741
110.0    20.0  0.673914  0.002755  0.669083  0.678741
111.0    20.0  0.673914  0.002755  0.669083  0.678741
112.0    20.0  0.674034  0.002589  0.671494  0.678741
113.0    20.0  0.674034  0.002589  0.671494  0.678741
114.0    20.0  0.674034  0.002589  0.671494  0.678741
115.0    20.0  0.674034  0.002589  0.671494  0.678741
116.0    20.0  0.674034  0.002589  0.671494  0.678741
117.0    20.0  0.674034  0.002589  0.671494  0.678741
118.0    20.0  0.674034  0.002589  0.671494  0.678741
119.0    20.0  0.674034  0.002589  0.671494  0.678741
120.0    20.0  0.674276  0.002566  0.671494  0.678741
121.0    20.0  0.674397  0.002488  0.671494  0.678741
122.0    20.0  0.674397  0.002488  0.671494  0.678741
123.0    20.0  0.674397  0.002488  0.671494  0.678741
124.0    20.0  0.674397  0.002488  0.671494  0.678741
125.0    20.0  0.674397  0.002488  0.671494  0.678741
126.0    20.0  0.674397  0.002488  0.671494  0.678741
127.0    20.0  0.674760  0.002326  0.671494  0.678741
128.0    20.0  0.674882  0.002213  0.671494  0.678741
129.0    20.0  0.674882  0.002213  0.671494  0.678741
130.0    20.0  0.675244  0.002222  0.671494  0.678741
131.0    20.0  0.675244  0.002222  0.671494  0.678741
132.0    20.0  0.675244  0.002222  0.671494  0.678741
133.0    20.0  0.675244  0.002222  0.671494  0.678741
134.0    20.0  0.675244  0.002222  0.671494  0.678741
135.0    20.0  0.675244  0.002222  0.671494  0.678741
136.0    20.0  0.675244  0.002222  0.671494  0.678741
137.0    20.0  0.675244  0.002222  0.671494  0.678741
138.0    20.0  0.675244  0.002222  0.671494  0.678741
139.0    20.0  0.675486  0.002058  0.671494  0.678741
140.0    20.0  0.675486  0.002058  0.671494  0.678741
141.0    20.0  0.675486  0.002058  0.671494  0.678741
142.0    20.0  0.675728  0.001848  0.673920  0.678741
143.0    20.0  0.675728  0.001848  0.673920  0.678741
144.0    20.0  0.675728  0.001848  0.673920  0.678741
145.0    20.0  0.675728  0.001848  0.673920  0.678741
146.0    20.0  0.675728  0.001848  0.673920  0.678741
147.0    20.0  0.675728  0.001848  0.673920  0.678741
148.0    20.0  0.675728  0.001848  0.673920  0.678741
149.0    20.0  0.675728  0.001848  0.673920  0.678741
150.0    20.0  0.675728  0.001848  0.673920  0.678741
151.0    20.0  0.675728  0.001848  0.673920  0.678741
152.0    20.0  0.675728  0.001848  0.673920  0.678741
153.0    20.0  0.675728  0.001848  0.673920  0.678741
154.0    20.0  0.675728  0.001848  0.673920  0.678741
155.0    20.0  0.675969  0.001910  0.673920  0.678741
156.0    20.0  0.675969  0.001910  0.673920  0.678741
157.0    20.0  0.675969  0.001910  0.673920  0.678741
158.0    20.0  0.675969  0.001910  0.673920  0.678741
159.0    20.0  0.676331  0.002156  0.673920  0.681152
160.0    20.0  0.676331  0.002156  0.673920  0.681152
161.0    20.0  0.676331  0.002156  0.673920  0.681152
162.0    20.0  0.676451  0.002084  0.673920  0.681152
163.0    20.0  0.676451  0.002084  0.673920  0.681152
164.0    20.0  0.676692  0.002056  0.673920  0.681152
165.0    20.0  0.676692  0.002056  0.673920  0.681152
166.0    20.0  0.676692  0.002056  0.673920  0.681152
167.0    20.0  0.676692  0.002056  0.673920  0.681152
168.0    20.0  0.676692  0.002056  0.673920  0.681152
169.0    20.0  0.676692  0.002056  0.673920  0.681152
170.0    20.0  0.676813  0.001959  0.673920  0.681152
171.0    20.0  0.676813  0.001959  0.673920  0.681152
172.0    20.0  0.676813  0.001959  0.673920  0.681152
173.0    20.0  0.676813  0.001959  0.673920  0.681152
174.0    20.0  0.676813  0.001959  0.673920  0.681152
175.0    20.0  0.676813  0.001959  0.673920  0.681152
176.0    20.0  0.676813  0.001959  0.673920  0.681152
177.0    20.0  0.676813  0.001959  0.673920  0.681152
178.0    20.0  0.676813  0.001959  0.673920  0.681152
179.0    20.0  0.676813  0.001959  0.673920  0.681152
180.0    20.0  0.676813  0.001959  0.673920  0.681152
181.0    20.0  0.676933  0.001848  0.673920  0.681152
182.0    20.0  0.676933  0.001848  0.673920  0.681152
183.0    20.0  0.676933  0.001848  0.673920  0.681152
184.0    20.0  0.676933  0.001848  0.673920  0.681152
185.0    20.0  0.676933  0.001848  0.673920  0.681152
186.0    20.0  0.676933  0.001848  0.673920  0.681152
187.0    20.0  0.677416  0.002222  0.673920  0.683578
188.0    20.0  0.677537  0.002090  0.673920  0.683578
189.0    20.0  0.677537  0.002090  0.673920  0.683578
190.0    20.0  0.677537  0.002090  0.673920  0.683578
191.0    20.0  0.677537  0.002090  0.673920  0.683578
192.0    20.0  0.678019  0.002034  0.676331  0.683578
193.0    20.0  0.678019  0.002034  0.676331  0.683578
194.0    20.0  0.678019  0.002034  0.676331  0.683578
195.0    20.0  0.678139  0.002001  0.676331  0.683578
196.0    20.0  0.678139  0.002001  0.676331  0.683578
197.0    20.0  0.678743  0.002532  0.676331  0.685989
198.0    20.0  0.678743  0.002532  0.676331  0.685989
199.0    20.0  0.678743  0.002532  0.676331  0.685989
200.0    20.0  0.678743  0.002532  0.676331  0.685989
201.0    20.0  0.678864  0.002471  0.676331  0.685989
202.0    20.0  0.678864  0.002471  0.676331  0.685989
203.0    20.0  0.678984  0.002402  0.676331  0.685989
204.0    20.0  0.678984  0.002402  0.676331  0.685989
205.0    20.0  0.678984  0.002402  0.676331  0.685989
206.0    20.0  0.679225  0.002366  0.676331  0.685989
207.0    20.0  0.679225  0.002366  0.676331  0.685989
208.0    20.0  0.679225  0.002366  0.676331  0.685989
209.0    20.0  0.679225  0.002366  0.676331  0.685989
210.0    20.0  0.679225  0.002366  0.676331  0.685989
211.0    20.0  0.679466  0.002303  0.676331  0.685989
212.0    20.0  0.679466  0.002303  0.676331  0.685989
213.0    20.0  0.679707  0.002213  0.676331  0.685989
214.0    20.0  0.679707  0.002213  0.676331  0.685989
215.0    20.0  0.679707  0.002213  0.676331  0.685989
216.0    20.0  0.679707  0.002213  0.676331  0.685989
217.0    20.0  0.679707  0.002213  0.676331  0.685989
218.0    20.0  0.679707  0.002213  0.676331  0.685989
219.0    20.0  0.679707  0.002213  0.676331  0.685989
220.0    20.0  0.679707  0.002213  0.676331  0.685989
221.0    20.0  0.679707  0.002213  0.676331  0.685989
222.0    20.0  0.679707  0.002213  0.676331  0.685989
223.0    20.0  0.679707  0.002213  0.676331  0.685989
224.0    20.0  0.679948  0.002091  0.676331  0.685989
225.0    20.0  0.679948  0.002091  0.676331  0.685989
226.0    20.0  0.679948  0.002091  0.676331  0.685989
227.0    20.0  0.680069  0.001944  0.678741  0.685989
228.0    20.0  0.680069  0.001944  0.678741  0.685989
229.0    20.0  0.680069  0.001944  0.678741  0.685989
230.0    20.0  0.680069  0.001944  0.678741  0.685989
231.0    20.0  0.680069  0.001944  0.678741  0.685989
232.0    20.0  0.680069  0.001944  0.678741  0.685989
233.0    20.0  0.680069  0.001944  0.678741  0.685989
234.0    20.0  0.680069  0.001944  0.678741  0.685989
235.0    20.0  0.680069  0.001944  0.678741  0.685989
236.0    20.0  0.680069  0.001944  0.678741  0.685989
237.0    20.0  0.680069  0.001944  0.678741  0.685989
238.0    20.0  0.680673  0.003018  0.678741  0.690826
239.0    20.0  0.680673  0.003018  0.678741  0.690826
240.0    20.0  0.680794  0.002987  0.678741  0.690826
241.0    20.0  0.680794  0.002987  0.678741  0.690826
242.0    20.0  0.680794  0.002987  0.678741  0.690826
243.0    20.0  0.680794  0.002987  0.678741  0.690826
244.0    20.0  0.680794  0.002987  0.678741  0.690826
245.0    20.0  0.680794  0.002987  0.678741  0.690826
246.0    20.0  0.680794  0.002987  0.678741  0.690826
247.0    20.0  0.680794  0.002987  0.678741  0.690826
248.0    20.0  0.680794  0.002987  0.678741  0.690826
249.0    20.0  0.680794  0.002987  0.678741  0.690826
250.0    20.0  0.680794  0.002987  0.678741  0.690826
251.0    20.0  0.680794  0.002987  0.678741  0.690826
252.0    20.0  0.680794  0.002987  0.678741  0.690826
253.0    20.0  0.680794  0.002987  0.678741  0.690826
254.0    20.0  0.681156  0.002960  0.678741  0.690826
255.0    20.0  0.681881  0.003904  0.678741  0.693237
256.0    20.0  0.681881  0.003904  0.678741  0.693237
257.0    20.0  0.682122  0.003775  0.678741  0.693237
258.0    20.0  0.682243  0.003703  0.678741  0.693237
259.0    20.0  0.682243  0.003703  0.678741  0.693237
260.0    20.0  0.682726  0.003842  0.678741  0.693237
261.0    20.0  0.683208  0.003918  0.678741  0.693237
262.0    20.0  0.683208  0.003918  0.678741  0.693237
263.0    20.0  0.683208  0.003918  0.678741  0.693237
264.0    20.0  0.683571  0.003822  0.678741  0.693237
265.0    20.0  0.683571  0.003822  0.678741  0.693237
266.0    20.0  0.683571  0.003822  0.678741  0.693237
267.0    20.0  0.683571  0.003822  0.678741  0.693237
268.0    20.0  0.683933  0.003688  0.681152  0.693237
269.0    20.0  0.684296  0.003752  0.681152  0.693237
270.0    20.0  0.684296  0.003752  0.681152  0.693237
271.0    20.0  0.684296  0.003752  0.681152  0.693237
272.0    20.0  0.684296  0.003752  0.681152  0.693237
273.0    20.0  0.684296  0.003752  0.681152  0.693237
274.0    20.0  0.684296  0.003752  0.681152  0.693237
275.0    20.0  0.684296  0.003752  0.681152  0.693237
276.0    20.0  0.684296  0.003752  0.681152  0.693237
277.0    20.0  0.684296  0.003752  0.681152  0.693237
278.0    20.0  0.684659  0.003623  0.681152  0.693237
279.0    20.0  0.684901  0.003542  0.681152  0.693237
280.0    20.0  0.685867  0.004801  0.681152  0.700485
281.0    20.0  0.685867  0.004801  0.681152  0.700485
282.0    20.0  0.685989  0.004710  0.681152  0.700485
283.0    20.0  0.685989  0.004710  0.681152  0.700485
284.0    20.0  0.685989  0.004710  0.681152  0.700485
285.0    20.0  0.685989  0.004710  0.681152  0.700485
286.0    20.0  0.685989  0.004710  0.681152  0.700485
287.0    20.0  0.685989  0.004710  0.681152  0.700485
288.0    20.0  0.685989  0.004710  0.681152  0.700485
289.0    20.0  0.686230  0.004578  0.681152  0.700485
290.0    20.0  0.686230  0.004578  0.681152  0.700485
291.0    20.0  0.686230  0.004578  0.681152  0.700485
292.0    20.0  0.686714  0.004527  0.681152  0.700485
293.0    20.0  0.686714  0.004527  0.681152  0.700485
294.0    20.0  0.686714  0.004527  0.681152  0.700485
295.0    20.0  0.686714  0.004527  0.681152  0.700485
296.0    20.0  0.686714  0.004527  0.681152  0.700485
297.0    20.0  0.686714  0.004527  0.681152  0.700485
298.0    20.0  0.686714  0.004527  0.681152  0.700485
299.0    20.0  0.686714  0.004527  0.681152  0.700485
300.0    20.0  0.686714  0.004527  0.681152  0.700485
301.0    20.0  0.686714  0.004527  0.681152  0.700485
302.0    20.0  0.686956  0.004349  0.681152  0.700485
303.0    20.0  0.686956  0.004349  0.681152  0.700485
304.0    20.0  0.687318  0.004147  0.681152  0.700485
305.0    20.0  0.687318  0.004147  0.681152  0.700485
306.0    20.0  0.687318  0.004147  0.681152  0.700485
307.0    20.0  0.687318  0.004147  0.681152  0.700485
308.0    20.0  0.687318  0.004147  0.681152  0.700485
309.0    20.0  0.687318  0.004147  0.681152  0.700485
310.0    20.0  0.688043  0.004271  0.683578  0.700485
311.0    20.0  0.688043  0.004271  0.683578  0.700485
312.0    20.0  0.688284  0.004147  0.683578  0.700485
313.0    20.0  0.688284  0.004147  0.683578  0.700485
314.0    20.0  0.688284  0.004147  0.683578  0.700485
315.0    20.0  0.688284  0.004147  0.683578  0.700485
316.0    20.0  0.688284  0.004147  0.683578  0.700485
317.0    20.0  0.688888  0.004294  0.683578  0.700485
318.0    20.0  0.688888  0.004294  0.683578  0.700485
319.0    20.0  0.688888  0.004294  0.683578  0.700485
320.0    20.0  0.688888  0.004294  0.683578  0.700485
321.0    20.0  0.688888  0.004294  0.683578  0.700485
322.0    20.0  0.688888  0.004294  0.683578  0.700485
323.0    20.0  0.688888  0.004294  0.683578  0.700485
324.0    20.0  0.688888  0.004294  0.683578  0.700485
325.0    20.0  0.688888  0.004294  0.683578  0.700485
326.0    20.0  0.688888  0.004294  0.683578  0.700485
327.0    20.0  0.688888  0.004294  0.683578  0.700485
328.0    20.0  0.688888  0.004294  0.683578  0.700485
329.0    20.0  0.688888  0.004294  0.683578  0.700485
330.0    20.0  0.688888  0.004294  0.683578  0.700485
331.0    20.0  0.689008  0.004175  0.683578  0.700485
332.0    20.0  0.689008  0.004175  0.683578  0.700485
333.0    20.0  0.689008  0.004175  0.683578  0.700485
334.0    20.0  0.689008  0.004175  0.683578  0.700485
335.0    20.0  0.689008  0.004175  0.683578  0.700485
336.0    20.0  0.689008  0.004175  0.683578  0.700485
337.0    20.0  0.689008  0.004175  0.683578  0.700485
338.0    20.0  0.689008  0.004175  0.683578  0.700485
339.0    20.0  0.689008  0.004175  0.683578  0.700485
340.0    20.0  0.689854  0.004672  0.685989  0.700485
341.0    20.0  0.689854  0.004672  0.685989  0.700485
342.0    20.0  0.689974  0.004601  0.685989  0.700485
343.0    20.0  0.689974  0.004601  0.685989  0.700485
344.0    20.0  0.689974  0.004601  0.685989  0.700485
345.0    20.0  0.689974  0.004601  0.685989  0.700485
346.0    20.0  0.689974  0.004601  0.685989  0.700485
347.0    20.0  0.690095  0.004526  0.685989  0.700485
348.0    20.0  0.690095  0.004526  0.685989  0.700485
349.0    20.0  0.690095  0.004526  0.685989  0.700485
350.0    20.0  0.690337  0.004429  0.685989  0.700485
351.0    20.0  0.690337  0.004429  0.685989  0.700485
352.0    20.0  0.690337  0.004429  0.685989  0.700485
353.0    20.0  0.690337  0.004429  0.685989  0.700485
354.0    20.0  0.690941  0.004615  0.685989  0.700485
355.0    20.0  0.690941  0.004615  0.685989  0.700485
356.0    20.0  0.690941  0.004615  0.685989  0.700485
357.0    20.0  0.691182  0.004408  0.685989  0.700485
358.0    20.0  0.691182  0.004408  0.685989  0.700485
359.0    20.0  0.691182  0.004408  0.685989  0.700485
360.0    20.0  0.691302  0.004296  0.685989  0.700485
361.0    20.0  0.691302  0.004296  0.685989  0.700485
362.0    20.0  0.691302  0.004296  0.685989  0.700485
363.0    20.0  0.691302  0.004296  0.685989  0.700485
364.0    20.0  0.691302  0.004296  0.685989  0.700485
365.0    20.0  0.691544  0.004123  0.688400  0.700485
366.0    20.0  0.691544  0.004123  0.688400  0.700485
367.0    20.0  0.691544  0.004123  0.688400  0.700485
368.0    20.0  0.691544  0.004123  0.688400  0.700485
369.0    20.0  0.691544  0.004123  0.688400  0.700485
370.0    20.0  0.691544  0.004123  0.688400  0.700485
371.0    20.0  0.691544  0.004123  0.688400  0.700485
372.0    20.0  0.691544  0.004123  0.688400  0.700485
373.0    20.0  0.691666  0.004064  0.688400  0.700485
374.0    20.0  0.691666  0.004064  0.688400  0.700485
375.0    20.0  0.691666  0.004064  0.688400  0.700485
376.0    20.0  0.691666  0.004064  0.688400  0.700485
377.0    20.0  0.691666  0.004064  0.688400  0.700485
378.0    20.0  0.691666  0.004064  0.688400  0.700485
379.0    20.0  0.691666  0.004064  0.688400  0.700485
380.0    20.0  0.692029  0.003934  0.688400  0.700485
381.0    20.0  0.692029  0.003934  0.688400  0.700485
382.0    20.0  0.692029  0.003934  0.688400  0.700485
383.0    20.0  0.692150  0.003857  0.688400  0.700485
384.0    20.0  0.693117  0.005038  0.688400  0.707733
385.0    20.0  0.693117  0.005038  0.688400  0.707733
386.0    20.0  0.693117  0.005038  0.688400  0.707733
387.0    20.0  0.693117  0.005038  0.688400  0.707733
388.0    20.0  0.693117  0.005038  0.688400  0.707733
389.0    20.0  0.693117  0.005038  0.688400  0.707733
390.0    20.0  0.693117  0.005038  0.688400  0.707733
391.0    20.0  0.693479  0.004945  0.688400  0.707733
392.0    20.0  0.693479  0.004945  0.688400  0.707733
393.0    20.0  0.693721  0.004807  0.688400  0.707733
394.0    20.0  0.693842  0.004701  0.688400  0.707733
395.0    20.0  0.693842  0.004701  0.688400  0.707733
396.0    20.0  0.693842  0.004701  0.688400  0.707733
397.0    20.0  0.695896  0.007897  0.690826  0.724640
398.0    20.0  0.696379  0.007868  0.690826  0.724640
399.0    20.0  0.696379  0.007868  0.690826  0.724640
400.0    20.0  0.696379  0.007868  0.690826  0.724640
401.0    20.0  0.696379  0.007868  0.690826  0.724640
402.0    20.0  0.696379  0.007868  0.690826  0.724640
403.0    20.0  0.696620  0.007767  0.690826  0.724640
404.0    20.0  0.697103  0.007692  0.690826  0.724640
405.0    20.0  0.697103  0.007692  0.690826  0.724640
406.0    20.0  0.697103  0.007692  0.690826  0.724640
407.0    20.0  0.697466  0.007557  0.690826  0.724640
408.0    20.0  0.697466  0.007557  0.690826  0.724640
409.0    20.0  0.697466  0.007557  0.690826  0.724640
410.0    20.0  0.697707  0.007417  0.690826  0.724640
411.0    20.0  0.697948  0.007266  0.690826  0.724640
412.0    20.0  0.697948  0.007266  0.690826  0.724640
413.0    20.0  0.697948  0.007266  0.690826  0.724640
414.0    20.0  0.697948  0.007266  0.690826  0.724640
415.0    20.0  0.697948  0.007266  0.690826  0.724640
416.0    20.0  0.698189  0.007063  0.693237  0.724640
417.0    20.0  0.698189  0.007063  0.693237  0.724640
418.0    20.0  0.698189  0.007063  0.693237  0.724640
419.0    20.0  0.698189  0.007063  0.693237  0.724640
420.0    20.0  0.698189  0.007063  0.693237  0.724640
421.0    20.0  0.698189  0.007063  0.693237  0.724640
422.0    20.0  0.698309  0.006998  0.693237  0.724640
423.0    20.0  0.698309  0.006998  0.693237  0.724640
424.0    20.0  0.698309  0.006998  0.693237  0.724640
425.0    20.0  0.698309  0.006998  0.693237  0.724640
426.0    20.0  0.698309  0.006998  0.693237  0.724640
427.0    20.0  0.698309  0.006998  0.693237  0.724640
428.0    20.0  0.698309  0.006998  0.693237  0.724640
429.0    20.0  0.698309  0.006998  0.693237  0.724640
430.0    20.0  0.698672  0.006913  0.693237  0.724640
431.0    20.0  0.698672  0.006913  0.693237  0.724640
432.0    20.0  0.698672  0.006913  0.693237  0.724640
433.0    20.0  0.698672  0.006913  0.693237  0.724640
434.0    20.0  0.698672  0.006913  0.693237  0.724640
435.0    20.0  0.698672  0.006913  0.693237  0.724640
436.0    20.0  0.698672  0.006913  0.693237  0.724640
437.0    20.0  0.698672  0.006913  0.693237  0.724640
438.0    20.0  0.699034  0.006808  0.693237  0.724640
439.0    20.0  0.699034  0.006808  0.693237  0.724640
440.0    20.0  0.699034  0.006808  0.693237  0.724640
441.0    20.0  0.699034  0.006808  0.693237  0.724640
442.0    20.0  0.699276  0.006682  0.693237  0.724640
443.0    20.0  0.699276  0.006682  0.693237  0.724640
444.0    20.0  0.699276  0.006682  0.693237  0.724640
445.0    20.0  0.699276  0.006682  0.693237  0.724640
446.0    20.0  0.699276  0.006682  0.693237  0.724640
447.0    20.0  0.699276  0.006682  0.693237  0.724640
448.0    20.0  0.699276  0.006682  0.693237  0.724640
449.0    20.0  0.699276  0.006682  0.693237  0.724640
450.0    20.0  0.699276  0.006682  0.693237  0.724640
451.0    20.0  0.699276  0.006682  0.693237  0.724640
452.0    20.0  0.699276  0.006682  0.693237  0.724640
453.0    20.0  0.699276  0.006682  0.693237  0.724640
454.0    20.0  0.699276  0.006682  0.693237  0.724640
455.0    20.0  0.699276  0.006682  0.693237  0.724640
456.0    20.0  0.699397  0.006593  0.693237  0.724640
457.0    20.0  0.699397  0.006593  0.693237  0.724640
458.0    20.0  0.699397  0.006593  0.693237  0.724640
459.0    20.0  0.699397  0.006593  0.693237  0.724640
460.0    20.0  0.699879  0.006477  0.695648  0.724640
461.0    20.0  0.699879  0.006477  0.695648  0.724640
462.0    20.0  0.699879  0.006477  0.695648  0.724640
463.0    20.0  0.699879  0.006477  0.695648  0.724640
464.0    20.0  0.699879  0.006477  0.695648  0.724640
465.0    20.0  0.699879  0.006477  0.695648  0.724640
466.0    20.0  0.699879  0.006477  0.695648  0.724640
467.0    20.0  0.699879  0.006477  0.695648  0.724640
468.0    20.0  0.699879  0.006477  0.695648  0.724640
469.0    20.0  0.699879  0.006477  0.695648  0.724640
470.0    20.0  0.699879  0.006477  0.695648  0.724640
471.0    20.0  0.699879  0.006477  0.695648  0.724640
472.0    20.0  0.699879  0.006477  0.695648  0.724640
473.0    20.0  0.699879  0.006477  0.695648  0.724640
474.0    20.0  0.699879  0.006477  0.695648  0.724640
475.0    20.0  0.699879  0.006477  0.695648  0.724640
476.0    20.0  0.700001  0.006419  0.695648  0.724640
477.0    20.0  0.700122  0.006358  0.695648  0.724640
478.0    20.0  0.700122  0.006358  0.695648  0.724640
479.0    20.0  0.700122  0.006358  0.695648  0.724640
480.0    20.0  0.700122  0.006358  0.695648  0.724640
481.0    20.0  0.700122  0.006358  0.695648  0.724640
482.0    20.0  0.700243  0.006295  0.695648  0.724640
483.0    20.0  0.700243  0.006295  0.695648  0.724640
484.0    20.0  0.700243  0.006295  0.695648  0.724640
485.0    20.0  0.700243  0.006295  0.695648  0.724640
486.0    20.0  0.700243  0.006295  0.695648  0.724640
487.0    20.0  0.700365  0.006228  0.695648  0.724640
488.0    20.0  0.700365  0.006228  0.695648  0.724640
489.0    20.0  0.700365  0.006228  0.695648  0.724640
490.0    20.0  0.700365  0.006228  0.695648  0.724640
491.0    20.0  0.700365  0.006228  0.695648  0.724640
492.0    20.0  0.700365  0.006228  0.695648  0.724640
493.0    20.0  0.700365  0.006228  0.695648  0.724640
494.0    20.0  0.700365  0.006228  0.695648  0.724640
495.0    20.0  0.700365  0.006228  0.695648  0.724640
496.0    20.0  0.700848  0.006218  0.695648  0.724640
497.0    20.0  0.700848  0.006218  0.695648  0.724640
498.0    20.0  0.700848  0.006218  0.695648  0.724640
499.0    20.0  0.700848  0.006218  0.695648  0.724640
