gen  nevals       avg       std       min       max
  0.0    20.0  0.595164  0.016291  0.545273  0.625519
  1.0    20.0  0.608127  0.008668  0.596710  0.625519
  2.0    20.0  0.613271  0.005910  0.604935  0.625519
  3.0    20.0  0.617796  0.004821  0.613174  0.633743
  4.0    20.0  0.620572  0.005979  0.615219  0.633743
  5.0    20.0  0.622323  0.005060  0.617279  0.633743
  6.0    20.0  0.624896  0.005209  0.619339  0.637863
  7.0    20.0  0.626440  0.004801  0.621399  0.637863
  8.0    20.0  0.628909  0.004472  0.623459  0.637863
  9.0    20.0  0.630144  0.005198  0.623459  0.644028
 10.0    20.0  0.632509  0.004237  0.625519  0.644028
 11.0    20.0  0.632714  0.003985  0.627579  0.644028
 12.0    20.0  0.635595  0.005891  0.629623  0.654327
 13.0    20.0  0.638169  0.004794  0.633743  0.654327
 14.0    20.0  0.639095  0.004619  0.633743  0.654327
 15.0    20.0  0.640536  0.004830  0.635803  0.654327
 16.0    20.0  0.641976  0.004912  0.635803  0.654327
 17.0    20.0  0.643312  0.004230  0.637863  0.654327
 18.0    20.0  0.644238  0.004907  0.637863  0.656372
 19.0    20.0  0.644854  0.004573  0.639923  0.656372
 20.0    20.0  0.646807  0.005721  0.639923  0.660492
 21.0    20.0  0.648660  0.005362  0.641968  0.660492
 22.0    20.0  0.649174  0.004934  0.644028  0.660492
 23.0    20.0  0.649792  0.005023  0.644028  0.660492
 24.0    20.0  0.651335  0.004712  0.644028  0.660492
 25.0    20.0  0.651335  0.004712  0.644028  0.660492
 26.0    20.0  0.652467  0.005479  0.646088  0.666672
 27.0    20.0  0.652776  0.005281  0.646088  0.666672
 28.0    20.0  0.653909  0.005023  0.646088  0.666672
 29.0    20.0  0.655658  0.005865  0.648148  0.672836
 30.0    20.0  0.657098  0.006283  0.650208  0.672836
 31.0    20.0  0.657612  0.005976  0.650208  0.672836
 32.0    20.0  0.658743  0.005531  0.652267  0.672836
 33.0    20.0  0.660388  0.005386  0.654327  0.672836
 34.0    20.0  0.660799  0.005137  0.656372  0.672836
 35.0    20.0  0.661005  0.005037  0.656372  0.672836
 36.0    20.0  0.661005  0.005037  0.656372  0.672836
 37.0    20.0  0.661005  0.005037  0.656372  0.672836
 38.0    20.0  0.662138  0.005232  0.656372  0.672836
 39.0    20.0  0.663682  0.006018  0.656372  0.679016
 40.0    20.0  0.663682  0.006018  0.656372  0.679016
 41.0    20.0  0.665637  0.007113  0.656372  0.685181
 42.0    20.0  0.665843  0.006899  0.658432  0.685181
 43.0    20.0  0.667799  0.009145  0.660492  0.695480
 44.0    20.0  0.668005  0.009023  0.660492  0.695480
 45.0    20.0  0.668931  0.008728  0.660492  0.695480
 46.0    20.0  0.669549  0.008343  0.660492  0.695480
 47.0    20.0  0.669549  0.008343  0.660492  0.695480
 48.0    20.0  0.670269  0.007885  0.662552  0.695480
 49.0    20.0  0.670783  0.007698  0.664612  0.695480
 50.0    20.0  0.671092  0.007511  0.664612  0.695480
 51.0    20.0  0.671298  0.007386  0.664612  0.695480
 52.0    20.0  0.671401  0.007306  0.664612  0.695480
 53.0    20.0  0.672018  0.006989  0.666672  0.695480
 54.0    20.0  0.672739  0.007141  0.666672  0.695480
 55.0    20.0  0.673869  0.006809  0.666672  0.695480
 56.0    20.0  0.674487  0.006687  0.668732  0.695480
 57.0    20.0  0.674692  0.006569  0.668732  0.695480
 58.0    20.0  0.674692  0.006569  0.668732  0.695480
 59.0    20.0  0.675103  0.006439  0.668732  0.695480
 60.0    20.0  0.675410  0.006205  0.668732  0.695480
 61.0    20.0  0.675822  0.006019  0.670776  0.695480
 62.0    20.0  0.675925  0.005949  0.670776  0.695480
 63.0    20.0  0.675925  0.005949  0.670776  0.695480
 64.0    20.0  0.676440  0.005927  0.670776  0.695480
 65.0    20.0  0.676440  0.005927  0.670776  0.695480
 66.0    20.0  0.676440  0.005927  0.670776  0.695480
 67.0    20.0  0.676440  0.005927  0.670776  0.695480
 68.0    20.0  0.676440  0.005927  0.670776  0.695480
 69.0    20.0  0.676852  0.005804  0.670776  0.695480
 70.0    20.0  0.676852  0.005804  0.670776  0.695480
 71.0    20.0  0.676852  0.005804  0.670776  0.695480
 72.0    20.0  0.677058  0.005656  0.670776  0.695480
 73.0    20.0  0.677058  0.005656  0.670776  0.695480
 74.0    20.0  0.677881  0.005875  0.672836  0.695480
 75.0    20.0  0.678293  0.005796  0.672836  0.695480
 76.0    20.0  0.678602  0.005660  0.672836  0.695480
 77.0    20.0  0.679014  0.005523  0.672836  0.695480
 78.0    20.0  0.679014  0.005523  0.672836  0.695480
 79.0    20.0  0.679528  0.005401  0.672836  0.695480
 80.0    20.0  0.680043  0.005062  0.672836  0.695480
 81.0    20.0  0.681483  0.004895  0.674896  0.695480
 82.0    20.0  0.681689  0.004696  0.674896  0.695480
 83.0    20.0  0.681895  0.004479  0.676956  0.695480
 84.0    20.0  0.681895  0.004479  0.676956  0.695480
 85.0    20.0  0.682101  0.004340  0.676956  0.695480
 86.0    20.0  0.682101  0.004340  0.676956  0.695480
 87.0    20.0  0.682101  0.004340  0.676956  0.695480
 88.0    20.0  0.682101  0.004340  0.676956  0.695480
 89.0    20.0  0.682101  0.004340  0.676956  0.695480
 90.0    20.0  0.682307  0.004186  0.679016  0.695480
 91.0    20.0  0.682307  0.004186  0.679016  0.695480
 92.0    20.0  0.682307  0.004186  0.679016  0.695480
 93.0    20.0  0.682307  0.004186  0.679016  0.695480
 94.0    20.0  0.682513  0.004119  0.679016  0.695480
 95.0    20.0  0.682513  0.004119  0.679016  0.695480
 96.0    20.0  0.682513  0.004119  0.679016  0.695480
 97.0    20.0  0.682616  0.004056  0.679016  0.695480
 98.0    20.0  0.682616  0.004056  0.679016  0.695480
 99.0    20.0  0.682616  0.004056  0.679016  0.695480
100.0    20.0  0.682616  0.004056  0.679016  0.695480
101.0    20.0  0.682616  0.004056  0.679016  0.695480
102.0    20.0  0.682616  0.004056  0.679016  0.695480
103.0    20.0  0.682616  0.004056  0.679016  0.695480
104.0    20.0  0.683644  0.005398  0.679016  0.699585
105.0    20.0  0.683644  0.005398  0.679016  0.699585
106.0    20.0  0.683644  0.005398  0.679016  0.699585
107.0    20.0  0.683644  0.005398  0.679016  0.699585
108.0    20.0  0.683644  0.005398  0.679016  0.699585
109.0    20.0  0.683644  0.005398  0.679016  0.699585
110.0    20.0  0.683644  0.005398  0.679016  0.699585
111.0    20.0  0.684261  0.005538  0.679016  0.699585
112.0    20.0  0.684261  0.005538  0.679016  0.699585
113.0    20.0  0.684261  0.005538  0.679016  0.699585
114.0    20.0  0.684261  0.005538  0.679016  0.699585
115.0    20.0  0.684261  0.005538  0.679016  0.699585
116.0    20.0  0.684261  0.005538  0.679016  0.699585
117.0    20.0  0.684261  0.005538  0.679016  0.699585
118.0    20.0  0.684261  0.005538  0.679016  0.699585
119.0    20.0  0.684261  0.005538  0.679016  0.699585
120.0    20.0  0.684467  0.005414  0.679016  0.699585
121.0    20.0  0.685084  0.005264  0.681076  0.699585
122.0    20.0  0.685084  0.005264  0.681076  0.699585
123.0    20.0  0.685084  0.005264  0.681076  0.699585
124.0    20.0  0.685084  0.005264  0.681076  0.699585
125.0    20.0  0.685084  0.005264  0.681076  0.699585
126.0    20.0  0.685084  0.005264  0.681076  0.699585
127.0    20.0  0.685186  0.005204  0.681076  0.699585
128.0    20.0  0.685186  0.005204  0.681076  0.699585
129.0    20.0  0.685494  0.005134  0.681076  0.699585
130.0    20.0  0.685494  0.005134  0.681076  0.699585
131.0    20.0  0.685494  0.005134  0.681076  0.699585
132.0    20.0  0.685494  0.005134  0.681076  0.699585
133.0    20.0  0.685494  0.005134  0.681076  0.699585
134.0    20.0  0.685494  0.005134  0.681076  0.699585
135.0    20.0  0.685699  0.005034  0.681076  0.699585
136.0    20.0  0.685699  0.005034  0.681076  0.699585
137.0    20.0  0.685699  0.005034  0.681076  0.699585
138.0    20.0  0.685699  0.005034  0.681076  0.699585
139.0    20.0  0.686008  0.004929  0.681076  0.699585
140.0    20.0  0.686008  0.004929  0.681076  0.699585
141.0    20.0  0.686008  0.004929  0.681076  0.699585
142.0    20.0  0.686008  0.004929  0.681076  0.699585
143.0    20.0  0.686008  0.004929  0.681076  0.699585
144.0    20.0  0.686419  0.004843  0.681076  0.699585
145.0    20.0  0.686419  0.004843  0.681076  0.699585
146.0    20.0  0.686624  0.004697  0.681076  0.699585
147.0    20.0  0.686624  0.004697  0.681076  0.699585
148.0    20.0  0.686624  0.004697  0.681076  0.699585
149.0    20.0  0.686624  0.004697  0.681076  0.699585
150.0    20.0  0.686624  0.004697  0.681076  0.699585
151.0    20.0  0.686624  0.004697  0.681076  0.699585
152.0    20.0  0.686932  0.004522  0.681076  0.699585
153.0    20.0  0.686932  0.004522  0.681076  0.699585
154.0    20.0  0.686932  0.004522  0.681076  0.699585
155.0    20.0  0.686932  0.004522  0.681076  0.699585
156.0    20.0  0.687241  0.004318  0.681076  0.699585
157.0    20.0  0.687241  0.004318  0.681076  0.699585
158.0    20.0  0.687343  0.004193  0.683121  0.699585
159.0    20.0  0.687343  0.004193  0.683121  0.699585
160.0    20.0  0.687446  0.004112  0.683121  0.699585
161.0    20.0  0.687446  0.004112  0.683121  0.699585
162.0    20.0  0.687446  0.004112  0.683121  0.699585
163.0    20.0  0.687446  0.004112  0.683121  0.699585
164.0    20.0  0.687446  0.004112  0.683121  0.699585
165.0    20.0  0.687446  0.004112  0.683121  0.699585
166.0    20.0  0.687446  0.004112  0.683121  0.699585
167.0    20.0  0.687755  0.004007  0.683121  0.699585
168.0    20.0  0.687755  0.004007  0.683121  0.699585
169.0    20.0  0.687961  0.003867  0.683121  0.699585
170.0    20.0  0.687961  0.003867  0.683121  0.699585
171.0    20.0  0.687961  0.003867  0.683121  0.699585
172.0    20.0  0.688887  0.004043  0.685181  0.699585
173.0    20.0  0.689093  0.003953  0.685181  0.699585
174.0    20.0  0.689505  0.003954  0.685181  0.699585
175.0    20.0  0.689505  0.003954  0.685181  0.699585
176.0    20.0  0.689505  0.003954  0.685181  0.699585
177.0    20.0  0.689505  0.003954  0.685181  0.699585
178.0    20.0  0.689505  0.003954  0.685181  0.699585
179.0    20.0  0.689814  0.003843  0.685181  0.699585
180.0    20.0  0.689814  0.003843  0.685181  0.699585
181.0    20.0  0.689814  0.003843  0.685181  0.699585
182.0    20.0  0.689814  0.003843  0.685181  0.699585
183.0    20.0  0.689814  0.003843  0.685181  0.699585
184.0    20.0  0.689814  0.003843  0.685181  0.699585
185.0    20.0  0.689917  0.003744  0.685181  0.699585
186.0    20.0  0.689917  0.003744  0.685181  0.699585
187.0    20.0  0.690020  0.003639  0.687241  0.699585
188.0    20.0  0.690020  0.003639  0.687241  0.699585
189.0    20.0  0.690226  0.003593  0.687241  0.699585
190.0    20.0  0.690226  0.003593  0.687241  0.699585
191.0    20.0  0.690226  0.003593  0.687241  0.699585
192.0    20.0  0.690226  0.003593  0.687241  0.699585
193.0    20.0  0.690843  0.004057  0.687241  0.699585
194.0    20.0  0.690843  0.004057  0.687241  0.699585
195.0    20.0  0.690843  0.004057  0.687241  0.699585
196.0    20.0  0.690843  0.004057  0.687241  0.699585
197.0    20.0  0.690843  0.004057  0.687241  0.699585
198.0    20.0  0.691049  0.003973  0.687241  0.699585
199.0    20.0  0.691049  0.003973  0.687241  0.699585
200.0    20.0  0.691049  0.003973  0.687241  0.699585
201.0    20.0  0.691049  0.003973  0.687241  0.699585
202.0    20.0  0.691049  0.003973  0.687241  0.699585
203.0    20.0  0.691049  0.003973  0.687241  0.699585
204.0    20.0  0.691049  0.003973  0.687241  0.699585
205.0    20.0  0.691049  0.003973  0.687241  0.699585
206.0    20.0  0.691358  0.003904  0.687241  0.699585
207.0    20.0  0.691358  0.003904  0.687241  0.699585
208.0    20.0  0.691358  0.003904  0.687241  0.699585
209.0    20.0  0.691358  0.003904  0.687241  0.699585
210.0    20.0  0.691358  0.003904  0.687241  0.699585
211.0    20.0  0.691358  0.003904  0.687241  0.699585
212.0    20.0  0.691872  0.004004  0.687241  0.699585
213.0    20.0  0.691872  0.004004  0.687241  0.699585
214.0    20.0  0.691872  0.004004  0.687241  0.699585
215.0    20.0  0.691872  0.004004  0.687241  0.699585
216.0    20.0  0.692799  0.004873  0.687241  0.705765
217.0    20.0  0.692799  0.004873  0.687241  0.705765
218.0    20.0  0.692799  0.004873  0.687241  0.705765
219.0    20.0  0.692799  0.004873  0.687241  0.705765
220.0    20.0  0.692799  0.004873  0.687241  0.705765
221.0    20.0  0.692799  0.004873  0.687241  0.705765
222.0    20.0  0.692799  0.004873  0.687241  0.705765
223.0    20.0  0.692799  0.004873  0.687241  0.705765
224.0    20.0  0.692799  0.004873  0.687241  0.705765
225.0    20.0  0.692902  0.004776  0.687241  0.705765
226.0    20.0  0.692902  0.004776  0.687241  0.705765
227.0    20.0  0.692902  0.004776  0.687241  0.705765
228.0    20.0  0.692902  0.004776  0.687241  0.705765
229.0    20.0  0.692902  0.004776  0.687241  0.705765
230.0    20.0  0.693005  0.004674  0.687241  0.705765
231.0    20.0  0.693005  0.004674  0.687241  0.705765
232.0    20.0  0.693005  0.004674  0.687241  0.705765
233.0    20.0  0.693211  0.004503  0.689301  0.705765
234.0    20.0  0.693314  0.004435  0.689301  0.705765
235.0    20.0  0.693417  0.004364  0.689301  0.705765
236.0    20.0  0.693623  0.004261  0.689301  0.705765
237.0    20.0  0.693623  0.004261  0.689301  0.705765
238.0    20.0  0.693623  0.004261  0.689301  0.705765
239.0    20.0  0.693623  0.004261  0.689301  0.705765
240.0    20.0  0.693623  0.004261  0.689301  0.705765
241.0    20.0  0.693623  0.004261  0.689301  0.705765
242.0    20.0  0.693623  0.004261  0.689301  0.705765
243.0    20.0  0.694549  0.005143  0.689301  0.707825
244.0    20.0  0.694549  0.005143  0.689301  0.707825
245.0    20.0  0.694549  0.005143  0.689301  0.707825
246.0    20.0  0.694549  0.005143  0.689301  0.707825
247.0    20.0  0.694549  0.005143  0.689301  0.707825
248.0    20.0  0.694858  0.005002  0.689301  0.707825
249.0    20.0  0.694858  0.005002  0.689301  0.707825
250.0    20.0  0.695269  0.004864  0.689301  0.707825
251.0    20.0  0.695269  0.004864  0.689301  0.707825
252.0    20.0  0.695475  0.004691  0.691360  0.707825
253.0    20.0  0.695475  0.004691  0.691360  0.707825
254.0    20.0  0.695475  0.004691  0.691360  0.707825
255.0    20.0  0.695475  0.004691  0.691360  0.707825
256.0    20.0  0.695475  0.004691  0.691360  0.707825
257.0    20.0  0.695475  0.004691  0.691360  0.707825
258.0    20.0  0.695475  0.004691  0.691360  0.707825
259.0    20.0  0.695475  0.004691  0.691360  0.707825
260.0    20.0  0.695475  0.004691  0.691360  0.707825
261.0    20.0  0.695475  0.004691  0.691360  0.707825
262.0    20.0  0.695475  0.004691  0.691360  0.707825
263.0    20.0  0.695578  0.004622  0.691360  0.707825
264.0    20.0  0.695578  0.004622  0.691360  0.707825
265.0    20.0  0.695784  0.004520  0.691360  0.707825
266.0    20.0  0.695784  0.004520  0.691360  0.707825
267.0    20.0  0.695784  0.004520  0.691360  0.707825
268.0    20.0  0.695784  0.004520  0.691360  0.707825
269.0    20.0  0.695784  0.004520  0.691360  0.707825
270.0    20.0  0.695784  0.004520  0.691360  0.707825
271.0    20.0  0.695784  0.004520  0.691360  0.707825
272.0    20.0  0.696092  0.004417  0.691360  0.707825
273.0    20.0  0.696092  0.004417  0.691360  0.707825
274.0    20.0  0.696298  0.004286  0.691360  0.707825
275.0    20.0  0.696298  0.004286  0.691360  0.707825
276.0    20.0  0.696298  0.004286  0.691360  0.707825
277.0    20.0  0.696298  0.004286  0.691360  0.707825
278.0    20.0  0.696298  0.004286  0.691360  0.707825
279.0    20.0  0.696298  0.004286  0.691360  0.707825
280.0    20.0  0.696298  0.004286  0.691360  0.707825
281.0    20.0  0.696298  0.004286  0.691360  0.707825
282.0    20.0  0.696298  0.004286  0.691360  0.707825
283.0    20.0  0.696298  0.004286  0.691360  0.707825
284.0    20.0  0.696298  0.004286  0.691360  0.707825
285.0    20.0  0.696298  0.004286  0.691360  0.707825
286.0    20.0  0.696710  0.003978  0.691360  0.707825
287.0    20.0  0.696916  0.003798  0.693420  0.707825
288.0    20.0  0.697224  0.003752  0.693420  0.707825
289.0    20.0  0.697224  0.003752  0.693420  0.707825
290.0    20.0  0.697224  0.003752  0.693420  0.707825
291.0    20.0  0.697224  0.003752  0.693420  0.707825
292.0    20.0  0.697224  0.003752  0.693420  0.707825
293.0    20.0  0.697224  0.003752  0.693420  0.707825
294.0    20.0  0.697224  0.003752  0.693420  0.707825
295.0    20.0  0.697224  0.003752  0.693420  0.707825
296.0    20.0  0.697224  0.003752  0.693420  0.707825
297.0    20.0  0.697533  0.003679  0.693420  0.707825
298.0    20.0  0.697533  0.003679  0.693420  0.707825
299.0    20.0  0.697533  0.003679  0.693420  0.707825
300.0    20.0  0.697533  0.003679  0.693420  0.707825
301.0    20.0  0.697533  0.003679  0.693420  0.707825
302.0    20.0  0.697533  0.003679  0.693420  0.707825
303.0    20.0  0.697533  0.003679  0.693420  0.707825
304.0    20.0  0.697533  0.003679  0.693420  0.707825
305.0    20.0  0.697533  0.003679  0.693420  0.707825
306.0    20.0  0.697533  0.003679  0.693420  0.707825
307.0    20.0  0.697533  0.003679  0.693420  0.707825
308.0    20.0  0.697533  0.003679  0.693420  0.707825
309.0    20.0  0.697533  0.003679  0.693420  0.707825
310.0    20.0  0.697533  0.003679  0.693420  0.707825
311.0    20.0  0.697533  0.003679  0.693420  0.707825
312.0    20.0  0.697533  0.003679  0.693420  0.707825
313.0    20.0  0.697533  0.003679  0.693420  0.707825
314.0    20.0  0.697533  0.003679  0.693420  0.707825
315.0    20.0  0.697533  0.003679  0.693420  0.707825
316.0    20.0  0.697533  0.003679  0.693420  0.707825
317.0    20.0  0.697944  0.003656  0.693420  0.707825
318.0    20.0  0.697944  0.003656  0.693420  0.707825
319.0    20.0  0.697944  0.003656  0.693420  0.707825
320.0    20.0  0.697944  0.003656  0.693420  0.707825
321.0    20.0  0.697944  0.003656  0.693420  0.707825
322.0    20.0  0.697944  0.003656  0.693420  0.707825
323.0    20.0  0.698766  0.004334  0.693420  0.709869
324.0    20.0  0.698766  0.004334  0.693420  0.709869
325.0    20.0  0.698972  0.004170  0.695480  0.709869
326.0    20.0  0.698972  0.004170  0.695480  0.709869
327.0    20.0  0.698972  0.004170  0.695480  0.709869
328.0    20.0  0.698972  0.004170  0.695480  0.709869
329.0    20.0  0.698972  0.004170  0.695480  0.709869
330.0    20.0  0.698972  0.004170  0.695480  0.709869
331.0    20.0  0.698972  0.004170  0.695480  0.709869
332.0    20.0  0.699177  0.004093  0.695480  0.709869
333.0    20.0  0.699177  0.004093  0.695480  0.709869
334.0    20.0  0.699177  0.004093  0.695480  0.709869
335.0    20.0  0.699177  0.004093  0.695480  0.709869
336.0    20.0  0.699177  0.004093  0.695480  0.709869
337.0    20.0  0.699177  0.004093  0.695480  0.709869
338.0    20.0  0.699177  0.004093  0.695480  0.709869
339.0    20.0  0.699177  0.004093  0.695480  0.709869
340.0    20.0  0.699177  0.004093  0.695480  0.709869
341.0    20.0  0.699177  0.004093  0.695480  0.709869
342.0    20.0  0.699177  0.004093  0.695480  0.709869
343.0    20.0  0.699177  0.004093  0.695480  0.709869
344.0    20.0  0.699177  0.004093  0.695480  0.709869
345.0    20.0  0.699177  0.004093  0.695480  0.709869
346.0    20.0  0.699177  0.004093  0.695480  0.709869
347.0    20.0  0.699177  0.004093  0.695480  0.709869
348.0    20.0  0.699177  0.004093  0.695480  0.709869
349.0    20.0  0.699177  0.004093  0.695480  0.709869
350.0    20.0  0.699177  0.004093  0.695480  0.709869
351.0    20.0  0.699177  0.004093  0.695480  0.709869
352.0    20.0  0.699177  0.004093  0.695480  0.709869
353.0    20.0  0.699177  0.004093  0.695480  0.709869
354.0    20.0  0.699177  0.004093  0.695480  0.709869
355.0    20.0  0.699177  0.004093  0.695480  0.709869
356.0    20.0  0.699177  0.004093  0.695480  0.709869
357.0    20.0  0.699177  0.004093  0.695480  0.709869
358.0    20.0  0.699177  0.004093  0.695480  0.709869
359.0    20.0  0.699177  0.004093  0.695480  0.709869
360.0    20.0  0.699177  0.004093  0.695480  0.709869
361.0    20.0  0.699177  0.004093  0.695480  0.709869
362.0    20.0  0.699177  0.004093  0.695480  0.709869
363.0    20.0  0.699177  0.004093  0.695480  0.709869
364.0    20.0  0.699177  0.004093  0.695480  0.709869
365.0    20.0  0.699177  0.004093  0.695480  0.709869
366.0    20.0  0.699177  0.004093  0.695480  0.709869
367.0    20.0  0.699177  0.004093  0.695480  0.709869
368.0    20.0  0.699177  0.004093  0.695480  0.709869
369.0    20.0  0.699177  0.004093  0.695480  0.709869
370.0    20.0  0.699177  0.004093  0.695480  0.709869
371.0    20.0  0.699177  0.004093  0.695480  0.709869
372.0    20.0  0.699177  0.004093  0.695480  0.709869
373.0    20.0  0.699177  0.004093  0.695480  0.709869
374.0    20.0  0.699177  0.004093  0.695480  0.709869
375.0    20.0  0.699177  0.004093  0.695480  0.709869
376.0    20.0  0.699177  0.004093  0.695480  0.709869
377.0    20.0  0.699177  0.004093  0.695480  0.709869
378.0    20.0  0.699177  0.004093  0.695480  0.709869
379.0    20.0  0.699177  0.004093  0.695480  0.709869
380.0    20.0  0.699177  0.004093  0.695480  0.709869
381.0    20.0  0.699588  0.004114  0.695480  0.709869
382.0    20.0  0.699588  0.004114  0.695480  0.709869
383.0    20.0  0.699588  0.004114  0.695480  0.709869
384.0    20.0  0.699588  0.004114  0.695480  0.709869
385.0    20.0  0.699896  0.004025  0.695480  0.709869
386.0    20.0  0.699896  0.004025  0.695480  0.709869
387.0    20.0  0.699896  0.004025  0.695480  0.709869
388.0    20.0  0.699896  0.004025  0.695480  0.709869
389.0    20.0  0.699896  0.004025  0.695480  0.709869
390.0    20.0  0.699896  0.004025  0.695480  0.709869
391.0    20.0  0.699896  0.004025  0.695480  0.709869
392.0    20.0  0.699896  0.004025  0.695480  0.709869
393.0    20.0  0.699896  0.004025  0.695480  0.709869
394.0    20.0  0.699896  0.004025  0.695480  0.709869
395.0    20.0  0.699896  0.004025  0.695480  0.709869
396.0    20.0  0.699896  0.004025  0.695480  0.709869
397.0    20.0  0.699896  0.004025  0.695480  0.709869
398.0    20.0  0.699896  0.004025  0.695480  0.709869
399.0    20.0  0.699896  0.004025  0.695480  0.709869
400.0    20.0  0.699896  0.004025  0.695480  0.709869
401.0    20.0  0.700204  0.003909  0.695480  0.709869
402.0    20.0  0.700204  0.003909  0.695480  0.709869
403.0    20.0  0.700204  0.003909  0.695480  0.709869
404.0    20.0  0.700204  0.003909  0.695480  0.709869
405.0    20.0  0.700204  0.003909  0.695480  0.709869
406.0    20.0  0.700204  0.003909  0.695480  0.709869
407.0    20.0  0.700204  0.003909  0.695480  0.709869
408.0    20.0  0.700204  0.003909  0.695480  0.709869
409.0    20.0  0.700204  0.003909  0.695480  0.709869
410.0    20.0  0.700204  0.003909  0.695480  0.709869
411.0    20.0  0.700204  0.003909  0.695480  0.709869
412.0    20.0  0.700204  0.003909  0.695480  0.709869
413.0    20.0  0.700204  0.003909  0.695480  0.709869
414.0    20.0  0.700204  0.003909  0.695480  0.709869
415.0    20.0  0.700204  0.003909  0.695480  0.709869
416.0    20.0  0.700204  0.003909  0.695480  0.709869
417.0    20.0  0.700204  0.003909  0.695480  0.709869
418.0    20.0  0.700204  0.003909  0.695480  0.709869
419.0    20.0  0.700204  0.003909  0.695480  0.709869
420.0    20.0  0.700204  0.003909  0.695480  0.709869
421.0    20.0  0.700204  0.003909  0.695480  0.709869
422.0    20.0  0.700204  0.003909  0.695480  0.709869
423.0    20.0  0.700204  0.003909  0.695480  0.709869
424.0    20.0  0.700204  0.003909  0.695480  0.709869
425.0    20.0  0.700204  0.003909  0.695480  0.709869
426.0    20.0  0.700204  0.003909  0.695480  0.709869
427.0    20.0  0.700204  0.003909  0.695480  0.709869
428.0    20.0  0.700204  0.003909  0.695480  0.709869
429.0    20.0  0.700204  0.003909  0.695480  0.709869
430.0    20.0  0.700204  0.003909  0.695480  0.709869
431.0    20.0  0.700204  0.003909  0.695480  0.709869
432.0    20.0  0.700204  0.003909  0.695480  0.709869
433.0    20.0  0.700307  0.003810  0.695480  0.709869
434.0    20.0  0.700307  0.003810  0.695480  0.709869
435.0    20.0  0.700307  0.003810  0.695480  0.709869
436.0    20.0  0.700307  0.003810  0.695480  0.709869
437.0    20.0  0.701026  0.004172  0.695480  0.709869
438.0    20.0  0.701026  0.004172  0.695480  0.709869
439.0    20.0  0.701437  0.003900  0.697525  0.709869
440.0    20.0  0.701437  0.003900  0.697525  0.709869
441.0    20.0  0.701437  0.003900  0.697525  0.709869
442.0    20.0  0.701437  0.003900  0.697525  0.709869
443.0    20.0  0.701437  0.003900  0.697525  0.709869
444.0    20.0  0.701437  0.003900  0.697525  0.709869
445.0    20.0  0.701437  0.003900  0.697525  0.709869
446.0    20.0  0.701437  0.003900  0.697525  0.709869
447.0    20.0  0.701437  0.003900  0.697525  0.709869
448.0    20.0  0.701437  0.003900  0.697525  0.709869
449.0    20.0  0.701437  0.003900  0.697525  0.709869
450.0    20.0  0.701437  0.003900  0.697525  0.709869
451.0    20.0  0.701437  0.003900  0.697525  0.709869
452.0    20.0  0.701437  0.003900  0.697525  0.709869
453.0    20.0  0.701437  0.003900  0.697525  0.709869
454.0    20.0  0.701437  0.003900  0.697525  0.709869
455.0    20.0  0.701437  0.003900  0.697525  0.709869
456.0    20.0  0.701437  0.003900  0.697525  0.709869
457.0    20.0  0.701437  0.003900  0.697525  0.709869
458.0    20.0  0.701437  0.003900  0.697525  0.709869
459.0    20.0  0.701437  0.003900  0.697525  0.709869
460.0    20.0  0.701437  0.003900  0.697525  0.709869
461.0    20.0  0.701437  0.003900  0.697525  0.709869
462.0    20.0  0.701437  0.003900  0.697525  0.709869
463.0    20.0  0.701437  0.003900  0.697525  0.709869
464.0    20.0  0.701437  0.003900  0.697525  0.709869
465.0    20.0  0.701437  0.003900  0.697525  0.709869
466.0    20.0  0.701437  0.003900  0.697525  0.709869
467.0    20.0  0.701540  0.003821  0.697525  0.709869
468.0    20.0  0.701540  0.003821  0.697525  0.709869
469.0    20.0  0.701540  0.003821  0.697525  0.709869
470.0    20.0  0.701540  0.003821  0.697525  0.709869
471.0    20.0  0.701540  0.003821  0.697525  0.709869
472.0    20.0  0.701540  0.003821  0.697525  0.709869
473.0    20.0  0.701540  0.003821  0.697525  0.709869
474.0    20.0  0.701540  0.003821  0.697525  0.709869
475.0    20.0  0.701540  0.003821  0.697525  0.709869
476.0    20.0  0.701540  0.003821  0.697525  0.709869
477.0    20.0  0.701540  0.003821  0.697525  0.709869
478.0    20.0  0.701540  0.003821  0.697525  0.709869
479.0    20.0  0.701540  0.003821  0.697525  0.709869
480.0    20.0  0.701540  0.003821  0.697525  0.709869
481.0    20.0  0.701540  0.003821  0.697525  0.709869
482.0    20.0  0.701540  0.003821  0.697525  0.709869
483.0    20.0  0.701540  0.003821  0.697525  0.709869
484.0    20.0  0.701540  0.003821  0.697525  0.709869
485.0    20.0  0.701643  0.003739  0.697525  0.709869
486.0    20.0  0.701643  0.003739  0.697525  0.709869
487.0    20.0  0.701643  0.003739  0.697525  0.709869
488.0    20.0  0.701643  0.003739  0.697525  0.709869
489.0    20.0  0.701643  0.003739  0.697525  0.709869
490.0    20.0  0.701643  0.003739  0.697525  0.709869
491.0    20.0  0.701643  0.003739  0.697525  0.709869
492.0    20.0  0.701643  0.003739  0.697525  0.709869
493.0    20.0  0.701643  0.003739  0.697525  0.709869
494.0    20.0  0.701643  0.003739  0.697525  0.709869
495.0    20.0  0.701643  0.003739  0.697525  0.709869
496.0    20.0  0.701643  0.003739  0.697525  0.709869
497.0    20.0  0.701643  0.003739  0.697525  0.709869
498.0    20.0  0.701643  0.003739  0.697525  0.709869
499.0    20.0  0.701643  0.003739  0.697525  0.709869
