gen  nevals       avg       std       min       max
  0.0    20.0  0.581361  0.028370  0.502960  0.627213
  1.0    20.0  0.603255  0.013292  0.585800  0.627213
  2.0    20.0  0.619526  0.016108  0.603546  0.668640
  3.0    20.0  0.632250  0.015797  0.615387  0.668640
  4.0    20.0  0.639940  0.013270  0.621307  0.668640
  5.0    20.0  0.647338  0.012328  0.633133  0.668640
  6.0    20.0  0.650890  0.009722  0.639053  0.668640
  7.0    20.0  0.654144  0.007820  0.644974  0.668640
  8.0    20.0  0.657101  0.006606  0.644974  0.668640
  9.0    20.0  0.659468  0.009626  0.650894  0.692307
 10.0    20.0  0.661833  0.009219  0.650894  0.692307
 11.0    20.0  0.665383  0.008674  0.656799  0.692307
 12.0    20.0  0.666567  0.008001  0.656799  0.692307
 13.0    20.0  0.667455  0.007392  0.662720  0.692307
 14.0    20.0  0.667751  0.007315  0.662720  0.692307
 15.0    20.0  0.667751  0.007315  0.662720  0.692307
 16.0    20.0  0.671303  0.009446  0.662720  0.698227
 17.0    20.0  0.672191  0.009053  0.662720  0.698227
 18.0    20.0  0.676038  0.010729  0.662720  0.704147
 19.0    20.0  0.678701  0.010927  0.668640  0.704147
 20.0    20.0  0.681068  0.010568  0.668640  0.704147
 21.0    20.0  0.684026  0.009429  0.674561  0.704147
 22.0    20.0  0.686096  0.008465  0.674561  0.704147
 23.0    20.0  0.688166  0.006508  0.680481  0.704147
 24.0    20.0  0.690237  0.009591  0.680481  0.721893
 25.0    20.0  0.691715  0.009148  0.680481  0.721893
 26.0    20.0  0.692602  0.008469  0.686386  0.721893
 27.0    20.0  0.693785  0.009144  0.686386  0.721893
 28.0    20.0  0.696152  0.012453  0.686386  0.733734
 29.0    20.0  0.696152  0.012453  0.686386  0.733734
 30.0    20.0  0.698520  0.014674  0.686386  0.733734
 31.0    20.0  0.700888  0.013427  0.686386  0.733734
 32.0    20.0  0.701184  0.013167  0.686386  0.733734
 33.0    20.0  0.702959  0.012911  0.692307  0.733734
 34.0    20.0  0.702959  0.012911  0.692307  0.733734
 35.0    20.0  0.702959  0.012911  0.692307  0.733734
 36.0    20.0  0.704143  0.012553  0.692307  0.733734
 37.0    20.0  0.705918  0.012141  0.692307  0.733734
 38.0    20.0  0.705918  0.012141  0.692307  0.733734
 39.0    20.0  0.707397  0.011607  0.698227  0.733734
 40.0    20.0  0.708581  0.011816  0.698227  0.733734
 41.0    20.0  0.708877  0.011625  0.698227  0.733734
 42.0    20.0  0.709173  0.011424  0.698227  0.733734
 43.0    20.0  0.709469  0.011211  0.698227  0.733734
 44.0    20.0  0.712132  0.013134  0.698227  0.745560
 45.0    20.0  0.715090  0.013000  0.698227  0.745560
 46.0    20.0  0.716865  0.011875  0.704147  0.745560
 47.0    20.0  0.716865  0.011875  0.704147  0.745560
 48.0    20.0  0.717752  0.011550  0.704147  0.745560
 49.0    20.0  0.719231  0.011607  0.704147  0.745560
 50.0    20.0  0.719527  0.011291  0.704147  0.745560
 51.0    20.0  0.722189  0.009448  0.710052  0.745560
 52.0    20.0  0.722189  0.009448  0.710052  0.745560
 53.0    20.0  0.722189  0.009448  0.710052  0.745560
 54.0    20.0  0.722189  0.009448  0.710052  0.745560
 55.0    20.0  0.723373  0.009336  0.710052  0.745560
 56.0    20.0  0.723965  0.008834  0.710052  0.745560
 57.0    20.0  0.726037  0.007740  0.715973  0.745560
 58.0    20.0  0.726037  0.007740  0.715973  0.745560
 59.0    20.0  0.727813  0.006748  0.715973  0.745560
 60.0    20.0  0.728405  0.006179  0.721893  0.745560
 61.0    20.0  0.728701  0.005999  0.721893  0.745560
 62.0    20.0  0.728701  0.005999  0.721893  0.745560
 63.0    20.0  0.728701  0.005999  0.721893  0.745560
 64.0    20.0  0.728701  0.005999  0.721893  0.745560
 65.0    20.0  0.728701  0.005999  0.721893  0.745560
 66.0    20.0  0.728701  0.005999  0.721893  0.745560
 67.0    20.0  0.728701  0.005999  0.721893  0.745560
 68.0    20.0  0.728701  0.005999  0.721893  0.745560
 69.0    20.0  0.729293  0.005575  0.721893  0.745560
 70.0    20.0  0.729293  0.005575  0.721893  0.745560
 71.0    20.0  0.729293  0.005575  0.721893  0.745560
 72.0    20.0  0.729293  0.005575  0.721893  0.745560
 73.0    20.0  0.729293  0.005575  0.721893  0.745560
 74.0    20.0  0.729293  0.005575  0.721893  0.745560
 75.0    20.0  0.729885  0.005383  0.721893  0.745560
 76.0    20.0  0.730773  0.004771  0.721893  0.745560
 77.0    20.0  0.730773  0.004771  0.721893  0.745560
 78.0    20.0  0.730773  0.004771  0.721893  0.745560
 79.0    20.0  0.730773  0.004771  0.721893  0.745560
 80.0    20.0  0.730773  0.004771  0.721893  0.745560
 81.0    20.0  0.731069  0.004378  0.727814  0.745560
 82.0    20.0  0.731069  0.004378  0.727814  0.745560
 83.0    20.0  0.731660  0.004686  0.727814  0.745560
 84.0    20.0  0.731660  0.004686  0.727814  0.745560
 85.0    20.0  0.731660  0.004686  0.727814  0.745560
 86.0    20.0  0.733140  0.007222  0.727814  0.757401
 87.0    20.0  0.734027  0.007594  0.727814  0.757401
 88.0    20.0  0.734027  0.007594  0.727814  0.757401
 89.0    20.0  0.734027  0.007594  0.727814  0.757401
 90.0    20.0  0.734027  0.007594  0.727814  0.757401
 91.0    20.0  0.734027  0.007594  0.727814  0.757401
 92.0    20.0  0.735506  0.008992  0.727814  0.757401
 93.0    20.0  0.735802  0.008830  0.727814  0.757401
 94.0    20.0  0.735802  0.008830  0.727814  0.757401
 95.0    20.0  0.735802  0.008830  0.727814  0.757401
 96.0    20.0  0.736098  0.008655  0.727814  0.757401
 97.0    20.0  0.736098  0.008655  0.727814  0.757401
 98.0    20.0  0.736098  0.008655  0.727814  0.757401
 99.0    20.0  0.736690  0.008471  0.727814  0.757401
100.0    20.0  0.737281  0.008240  0.727814  0.757401
101.0    20.0  0.737872  0.007959  0.727814  0.757401
102.0    20.0  0.738464  0.007622  0.727814  0.757401
103.0    20.0  0.738760  0.007311  0.733734  0.757401
104.0    20.0  0.738760  0.007311  0.733734  0.757401
105.0    20.0  0.739647  0.007713  0.733734  0.757401
106.0    20.0  0.739647  0.007713  0.733734  0.757401
107.0    20.0  0.739647  0.007713  0.733734  0.757401
108.0    20.0  0.739647  0.007713  0.733734  0.757401
109.0    20.0  0.739647  0.007713  0.733734  0.757401
110.0    20.0  0.739647  0.007713  0.733734  0.757401
111.0    20.0  0.739647  0.007713  0.733734  0.757401
112.0    20.0  0.739647  0.007713  0.733734  0.757401
113.0    20.0  0.739647  0.007713  0.733734  0.757401
114.0    20.0  0.739647  0.007713  0.733734  0.757401
115.0    20.0  0.739647  0.007713  0.733734  0.757401
116.0    20.0  0.739647  0.007713  0.733734  0.757401
117.0    20.0  0.739647  0.007713  0.733734  0.757401
118.0    20.0  0.739647  0.007713  0.733734  0.757401
119.0    20.0  0.739647  0.007713  0.733734  0.757401
120.0    20.0  0.739647  0.007713  0.733734  0.757401
121.0    20.0  0.740237  0.007460  0.733734  0.757401
122.0    20.0  0.741717  0.008831  0.733734  0.763321
123.0    20.0  0.741717  0.008831  0.733734  0.763321
124.0    20.0  0.741717  0.008831  0.733734  0.763321
125.0    20.0  0.741717  0.008831  0.733734  0.763321
126.0    20.0  0.742604  0.008876  0.733734  0.763321
127.0    20.0  0.742604  0.008876  0.733734  0.763321
128.0    20.0  0.743195  0.008657  0.733734  0.763321
129.0    20.0  0.743195  0.008657  0.733734  0.763321
130.0    20.0  0.743195  0.008657  0.733734  0.763321
131.0    20.0  0.743195  0.008657  0.733734  0.763321
132.0    20.0  0.743491  0.008427  0.733734  0.763321
133.0    20.0  0.743491  0.008427  0.733734  0.763321
134.0    20.0  0.744082  0.008131  0.733734  0.763321
135.0    20.0  0.744082  0.008131  0.733734  0.763321
136.0    20.0  0.744377  0.007852  0.733734  0.763321
137.0    20.0  0.744377  0.007852  0.733734  0.763321
138.0    20.0  0.744672  0.007552  0.733734  0.763321
139.0    20.0  0.744672  0.007552  0.733734  0.763321
140.0    20.0  0.745560  0.007251  0.739639  0.763321
141.0    20.0  0.745560  0.007251  0.739639  0.763321
142.0    20.0  0.745560  0.007251  0.739639  0.763321
143.0    20.0  0.745560  0.007251  0.739639  0.763321
144.0    20.0  0.745560  0.007251  0.739639  0.763321
145.0    20.0  0.745560  0.007251  0.739639  0.763321
146.0    20.0  0.745856  0.007123  0.739639  0.763321
147.0    20.0  0.745856  0.007123  0.739639  0.763321
148.0    20.0  0.745856  0.007123  0.739639  0.763321
149.0    20.0  0.745856  0.007123  0.739639  0.763321
150.0    20.0  0.745856  0.007123  0.739639  0.763321
151.0    20.0  0.746152  0.006980  0.739639  0.763321
152.0    20.0  0.746152  0.006980  0.739639  0.763321
153.0    20.0  0.746152  0.006980  0.739639  0.763321
154.0    20.0  0.746152  0.006980  0.739639  0.763321
155.0    20.0  0.747040  0.007221  0.739639  0.763321
156.0    20.0  0.747632  0.007074  0.739639  0.763321
157.0    20.0  0.747632  0.007074  0.739639  0.763321
158.0    20.0  0.747632  0.007074  0.739639  0.763321
159.0    20.0  0.747632  0.007074  0.739639  0.763321
160.0    20.0  0.747632  0.007074  0.739639  0.763321
161.0    20.0  0.747632  0.007074  0.739639  0.763321
162.0    20.0  0.748816  0.007599  0.739639  0.763321
163.0    20.0  0.750000  0.007915  0.739639  0.763321
164.0    20.0  0.750000  0.007915  0.739639  0.763321
165.0    20.0  0.750000  0.007915  0.739639  0.763321
166.0    20.0  0.750000  0.007915  0.739639  0.763321
167.0    20.0  0.750000  0.007915  0.739639  0.763321
168.0    20.0  0.750000  0.007915  0.739639  0.763321
169.0    20.0  0.750296  0.007628  0.739639  0.763321
170.0    20.0  0.750296  0.007628  0.739639  0.763321
171.0    20.0  0.750592  0.007317  0.739639  0.763321
172.0    20.0  0.750592  0.007317  0.739639  0.763321
173.0    20.0  0.750592  0.007317  0.739639  0.763321
174.0    20.0  0.750592  0.007317  0.739639  0.763321
175.0    20.0  0.750592  0.007317  0.739639  0.763321
176.0    20.0  0.750592  0.007317  0.739639  0.763321
177.0    20.0  0.750592  0.007317  0.739639  0.763321
178.0    20.0  0.750592  0.007317  0.739639  0.763321
179.0    20.0  0.750592  0.007317  0.739639  0.763321
180.0    20.0  0.750592  0.007317  0.739639  0.763321
181.0    20.0  0.750592  0.007317  0.739639  0.763321
182.0    20.0  0.750888  0.006980  0.739639  0.763321
183.0    20.0  0.751480  0.006485  0.745560  0.763321
184.0    20.0  0.751480  0.006485  0.745560  0.763321
185.0    20.0  0.751480  0.006485  0.745560  0.763321
186.0    20.0  0.751480  0.006485  0.745560  0.763321
187.0    20.0  0.751480  0.006485  0.745560  0.763321
188.0    20.0  0.751480  0.006485  0.745560  0.763321
189.0    20.0  0.751480  0.006485  0.745560  0.763321
190.0    20.0  0.751480  0.006485  0.745560  0.763321
191.0    20.0  0.751480  0.006485  0.745560  0.763321
192.0    20.0  0.751480  0.006485  0.745560  0.763321
193.0    20.0  0.752072  0.006458  0.745560  0.763321
194.0    20.0  0.752368  0.006287  0.745560  0.763321
195.0    20.0  0.752368  0.006287  0.745560  0.763321
196.0    20.0  0.752368  0.006287  0.745560  0.763321
197.0    20.0  0.752368  0.006287  0.745560  0.763321
198.0    20.0  0.752368  0.006287  0.745560  0.763321
199.0    20.0  0.752368  0.006287  0.745560  0.763321
200.0    20.0  0.752368  0.006287  0.745560  0.763321
201.0    20.0  0.752368  0.006287  0.745560  0.763321
202.0    20.0  0.752368  0.006287  0.745560  0.763321
203.0    20.0  0.752368  0.006287  0.745560  0.763321
204.0    20.0  0.752664  0.006095  0.745560  0.763321
205.0    20.0  0.752664  0.006095  0.745560  0.763321
206.0    20.0  0.752664  0.006095  0.745560  0.763321
207.0    20.0  0.752664  0.006095  0.745560  0.763321
208.0    20.0  0.752664  0.006095  0.745560  0.763321
209.0    20.0  0.752664  0.006095  0.745560  0.763321
210.0    20.0  0.752664  0.006095  0.745560  0.763321
211.0    20.0  0.752664  0.006095  0.745560  0.763321
212.0    20.0  0.752664  0.006095  0.745560  0.763321
213.0    20.0  0.752664  0.006095  0.745560  0.763321
214.0    20.0  0.753848  0.006852  0.745560  0.769226
215.0    20.0  0.753848  0.006852  0.745560  0.769226
216.0    20.0  0.753848  0.006852  0.745560  0.769226
217.0    20.0  0.753848  0.006852  0.745560  0.769226
218.0    20.0  0.753848  0.006852  0.745560  0.769226
219.0    20.0  0.753848  0.006852  0.745560  0.769226
220.0    20.0  0.753848  0.006852  0.745560  0.769226
221.0    20.0  0.753848  0.006852  0.745560  0.769226
222.0    20.0  0.753848  0.006852  0.745560  0.769226
223.0    20.0  0.753848  0.006852  0.745560  0.769226
224.0    20.0  0.753848  0.006852  0.745560  0.769226
225.0    20.0  0.753848  0.006852  0.745560  0.769226
226.0    20.0  0.754736  0.006871  0.745560  0.769226
227.0    20.0  0.754736  0.006871  0.745560  0.769226
228.0    20.0  0.754736  0.006871  0.745560  0.769226
229.0    20.0  0.755328  0.006558  0.745560  0.769226
230.0    20.0  0.755328  0.006558  0.745560  0.769226
231.0    20.0  0.755328  0.006558  0.745560  0.769226
232.0    20.0  0.755328  0.006558  0.745560  0.769226
233.0    20.0  0.757104  0.006058  0.745560  0.769226
234.0    20.0  0.758287  0.005998  0.751480  0.769226
235.0    20.0  0.758287  0.005998  0.751480  0.769226
236.0    20.0  0.758287  0.005998  0.751480  0.769226
237.0    20.0  0.758287  0.005998  0.751480  0.769226
238.0    20.0  0.758287  0.005998  0.751480  0.769226
239.0    20.0  0.758287  0.005998  0.751480  0.769226
240.0    20.0  0.758287  0.005998  0.751480  0.769226
241.0    20.0  0.758879  0.005881  0.751480  0.769226
242.0    20.0  0.759175  0.005645  0.751480  0.769226
243.0    20.0  0.759175  0.005645  0.751480  0.769226
244.0    20.0  0.759175  0.005645  0.751480  0.769226
245.0    20.0  0.759175  0.005645  0.751480  0.769226
246.0    20.0  0.759175  0.005645  0.751480  0.769226
247.0    20.0  0.759175  0.005645  0.751480  0.769226
248.0    20.0  0.759175  0.005645  0.751480  0.769226
249.0    20.0  0.759175  0.005645  0.751480  0.769226
250.0    20.0  0.759175  0.005645  0.751480  0.769226
251.0    20.0  0.759175  0.005645  0.751480  0.769226
252.0    20.0  0.759175  0.005645  0.751480  0.769226
253.0    20.0  0.759175  0.005645  0.751480  0.769226
254.0    20.0  0.759175  0.005645  0.751480  0.769226
255.0    20.0  0.759175  0.005645  0.751480  0.769226
256.0    20.0  0.759175  0.005645  0.751480  0.769226
257.0    20.0  0.759175  0.005645  0.751480  0.769226
258.0    20.0  0.759767  0.005423  0.751480  0.769226
259.0    20.0  0.759767  0.005423  0.751480  0.769226
260.0    20.0  0.759767  0.005423  0.751480  0.769226
261.0    20.0  0.759767  0.005423  0.751480  0.769226
262.0    20.0  0.759767  0.005423  0.751480  0.769226
263.0    20.0  0.759767  0.005423  0.751480  0.769226
264.0    20.0  0.759767  0.005423  0.751480  0.769226
265.0    20.0  0.759767  0.005423  0.751480  0.769226
266.0    20.0  0.760063  0.005116  0.751480  0.769226
267.0    20.0  0.760063  0.005116  0.751480  0.769226
268.0    20.0  0.760063  0.005116  0.751480  0.769226
269.0    20.0  0.760063  0.005116  0.751480  0.769226
270.0    20.0  0.760063  0.005116  0.751480  0.769226
271.0    20.0  0.760063  0.005116  0.751480  0.769226
272.0    20.0  0.760063  0.005116  0.751480  0.769226
273.0    20.0  0.760063  0.005116  0.751480  0.769226
274.0    20.0  0.760359  0.004770  0.751480  0.769226
275.0    20.0  0.760655  0.004378  0.751480  0.769226
276.0    20.0  0.760655  0.004378  0.751480  0.769226
277.0    20.0  0.760951  0.003924  0.757401  0.769226
278.0    20.0  0.761247  0.003868  0.757401  0.769226
279.0    20.0  0.761247  0.003868  0.757401  0.769226
280.0    20.0  0.761247  0.003868  0.757401  0.769226
281.0    20.0  0.761247  0.003868  0.757401  0.769226
282.0    20.0  0.761247  0.003868  0.757401  0.769226
283.0    20.0  0.761839  0.004130  0.757401  0.769226
284.0    20.0  0.763318  0.006746  0.757401  0.786987
285.0    20.0  0.764205  0.007068  0.757401  0.786987
286.0    20.0  0.764205  0.007068  0.757401  0.786987
287.0    20.0  0.764205  0.007068  0.757401  0.786987
288.0    20.0  0.764205  0.007068  0.757401  0.786987
289.0    20.0  0.764205  0.007068  0.757401  0.786987
290.0    20.0  0.764205  0.007068  0.757401  0.786987
291.0    20.0  0.764205  0.007068  0.757401  0.786987
292.0    20.0  0.764205  0.007068  0.757401  0.786987
293.0    20.0  0.764205  0.007068  0.757401  0.786987
294.0    20.0  0.764205  0.007068  0.757401  0.786987
295.0    20.0  0.764205  0.007068  0.757401  0.786987
296.0    20.0  0.764205  0.007068  0.757401  0.786987
297.0    20.0  0.764205  0.007068  0.757401  0.786987
298.0    20.0  0.764205  0.007068  0.757401  0.786987
299.0    20.0  0.764205  0.007068  0.757401  0.786987
300.0    20.0  0.764501  0.006899  0.757401  0.786987
301.0    20.0  0.764501  0.006899  0.757401  0.786987
302.0    20.0  0.764501  0.006899  0.757401  0.786987
303.0    20.0  0.764501  0.006899  0.757401  0.786987
304.0    20.0  0.764501  0.006899  0.757401  0.786987
305.0    20.0  0.764501  0.006899  0.757401  0.786987
306.0    20.0  0.764501  0.006899  0.757401  0.786987
307.0    20.0  0.764501  0.006899  0.757401  0.786987
308.0    20.0  0.764501  0.006899  0.757401  0.786987
309.0    20.0  0.764501  0.006899  0.757401  0.786987
310.0    20.0  0.764501  0.006899  0.757401  0.786987
311.0    20.0  0.764501  0.006899  0.757401  0.786987
312.0    20.0  0.764501  0.006899  0.757401  0.786987
313.0    20.0  0.764501  0.006899  0.757401  0.786987
314.0    20.0  0.764501  0.006899  0.757401  0.786987
315.0    20.0  0.764501  0.006899  0.757401  0.786987
316.0    20.0  0.764501  0.006899  0.757401  0.786987
317.0    20.0  0.764501  0.006899  0.757401  0.786987
318.0    20.0  0.764501  0.006899  0.757401  0.786987
319.0    20.0  0.764501  0.006899  0.757401  0.786987
320.0    20.0  0.764501  0.006899  0.757401  0.786987
321.0    20.0  0.764501  0.006899  0.757401  0.786987
322.0    20.0  0.764501  0.006899  0.757401  0.786987
323.0    20.0  0.764501  0.006899  0.757401  0.786987
324.0    20.0  0.764501  0.006899  0.757401  0.786987
325.0    20.0  0.764501  0.006899  0.757401  0.786987
326.0    20.0  0.764501  0.006899  0.757401  0.786987
327.0    20.0  0.764501  0.006899  0.757401  0.786987
328.0    20.0  0.764501  0.006899  0.757401  0.786987
329.0    20.0  0.764501  0.006899  0.757401  0.786987
330.0    20.0  0.764501  0.006899  0.757401  0.786987
331.0    20.0  0.764501  0.006899  0.757401  0.786987
332.0    20.0  0.764501  0.006899  0.757401  0.786987
333.0    20.0  0.764501  0.006899  0.757401  0.786987
334.0    20.0  0.764501  0.006899  0.757401  0.786987
335.0    20.0  0.764501  0.006899  0.757401  0.786987
336.0    20.0  0.764501  0.006899  0.757401  0.786987
337.0    20.0  0.764501  0.006899  0.757401  0.786987
338.0    20.0  0.764501  0.006899  0.757401  0.786987
339.0    20.0  0.764501  0.006899  0.757401  0.786987
340.0    20.0  0.765092  0.006771  0.757401  0.786987
341.0    20.0  0.765092  0.006771  0.757401  0.786987
342.0    20.0  0.765092  0.006771  0.757401  0.786987
343.0    20.0  0.765092  0.006771  0.757401  0.786987
344.0    20.0  0.765092  0.006771  0.757401  0.786987
345.0    20.0  0.765092  0.006771  0.757401  0.786987
346.0    20.0  0.765092  0.006771  0.757401  0.786987
347.0    20.0  0.765092  0.006771  0.757401  0.786987
348.0    20.0  0.765092  0.006771  0.757401  0.786987
349.0    20.0  0.765092  0.006771  0.757401  0.786987
350.0    20.0  0.765092  0.006771  0.757401  0.786987
351.0    20.0  0.765092  0.006771  0.757401  0.786987
352.0    20.0  0.765092  0.006771  0.757401  0.786987
353.0    20.0  0.765092  0.006771  0.757401  0.786987
354.0    20.0  0.765092  0.006771  0.757401  0.786987
355.0    20.0  0.765092  0.006771  0.757401  0.786987
356.0    20.0  0.765092  0.006771  0.757401  0.786987
357.0    20.0  0.765980  0.006867  0.757401  0.786987
358.0    20.0  0.765980  0.006867  0.757401  0.786987
359.0    20.0  0.765980  0.006867  0.757401  0.786987
360.0    20.0  0.765980  0.006867  0.757401  0.786987
361.0    20.0  0.765980  0.006867  0.757401  0.786987
362.0    20.0  0.765980  0.006867  0.757401  0.786987
363.0    20.0  0.765980  0.006867  0.757401  0.786987
364.0    20.0  0.765980  0.006867  0.757401  0.786987
365.0    20.0  0.767163  0.007311  0.757401  0.786987
366.0    20.0  0.767163  0.007311  0.757401  0.786987
367.0    20.0  0.767163  0.007311  0.757401  0.786987
368.0    20.0  0.767163  0.007311  0.757401  0.786987
369.0    20.0  0.767163  0.007311  0.757401  0.786987
370.0    20.0  0.767163  0.007311  0.757401  0.786987
371.0    20.0  0.767163  0.007311  0.757401  0.786987
372.0    20.0  0.767163  0.007311  0.757401  0.786987
373.0    20.0  0.767459  0.007024  0.757401  0.786987
374.0    20.0  0.767459  0.007024  0.757401  0.786987
375.0    20.0  0.767459  0.007024  0.757401  0.786987
376.0    20.0  0.767459  0.007024  0.757401  0.786987
377.0    20.0  0.767459  0.007024  0.757401  0.786987
378.0    20.0  0.767459  0.007024  0.757401  0.786987
379.0    20.0  0.767459  0.007024  0.757401  0.786987
380.0    20.0  0.767459  0.007024  0.757401  0.786987
381.0    20.0  0.768346  0.006815  0.763321  0.786987
382.0    20.0  0.768346  0.006815  0.763321  0.786987
383.0    20.0  0.768346  0.006815  0.763321  0.786987
384.0    20.0  0.768346  0.006815  0.763321  0.786987
385.0    20.0  0.768346  0.006815  0.763321  0.786987
386.0    20.0  0.768346  0.006815  0.763321  0.786987
387.0    20.0  0.768346  0.006815  0.763321  0.786987
388.0    20.0  0.768346  0.006815  0.763321  0.786987
389.0    20.0  0.768346  0.006815  0.763321  0.786987
390.0    20.0  0.768346  0.006815  0.763321  0.786987
391.0    20.0  0.768346  0.006815  0.763321  0.786987
392.0    20.0  0.768346  0.006815  0.763321  0.786987
393.0    20.0  0.768346  0.006815  0.763321  0.786987
394.0    20.0  0.768346  0.006815  0.763321  0.786987
395.0    20.0  0.768346  0.006815  0.763321  0.786987
396.0    20.0  0.768346  0.006815  0.763321  0.786987
397.0    20.0  0.769530  0.007820  0.763321  0.786987
398.0    20.0  0.769530  0.007820  0.763321  0.786987
399.0    20.0  0.769530  0.007820  0.763321  0.786987
400.0    20.0  0.769530  0.007820  0.763321  0.786987
401.0    20.0  0.769530  0.007820  0.763321  0.786987
402.0    20.0  0.769530  0.007820  0.763321  0.786987
403.0    20.0  0.769530  0.007820  0.763321  0.786987
404.0    20.0  0.769530  0.007820  0.763321  0.786987
405.0    20.0  0.769530  0.007820  0.763321  0.786987
406.0    20.0  0.769530  0.007820  0.763321  0.786987
407.0    20.0  0.769530  0.007820  0.763321  0.786987
408.0    20.0  0.769530  0.007820  0.763321  0.786987
409.0    20.0  0.769530  0.007820  0.763321  0.786987
410.0    20.0  0.769530  0.007820  0.763321  0.786987
411.0    20.0  0.769530  0.007820  0.763321  0.786987
412.0    20.0  0.769530  0.007820  0.763321  0.786987
413.0    20.0  0.769530  0.007820  0.763321  0.786987
414.0    20.0  0.769530  0.007820  0.763321  0.786987
415.0    20.0  0.769530  0.007820  0.763321  0.786987
416.0    20.0  0.769530  0.007820  0.763321  0.786987
417.0    20.0  0.769530  0.007820  0.763321  0.786987
418.0    20.0  0.769530  0.007820  0.763321  0.786987
419.0    20.0  0.769530  0.007820  0.763321  0.786987
420.0    20.0  0.769530  0.007820  0.763321  0.786987
421.0    20.0  0.769530  0.007820  0.763321  0.786987
422.0    20.0  0.769530  0.007820  0.763321  0.786987
423.0    20.0  0.769530  0.007820  0.763321  0.786987
424.0    20.0  0.769825  0.007691  0.763321  0.786987
425.0    20.0  0.769825  0.007691  0.763321  0.786987
426.0    20.0  0.769825  0.007691  0.763321  0.786987
427.0    20.0  0.770120  0.007547  0.763321  0.786987
428.0    20.0  0.770120  0.007547  0.763321  0.786987
429.0    20.0  0.770120  0.007547  0.763321  0.786987
430.0    20.0  0.770120  0.007547  0.763321  0.786987
431.0    20.0  0.770120  0.007547  0.763321  0.786987
432.0    20.0  0.770120  0.007547  0.763321  0.786987
433.0    20.0  0.770120  0.007547  0.763321  0.786987
434.0    20.0  0.770120  0.007547  0.763321  0.786987
435.0    20.0  0.770120  0.007547  0.763321  0.786987
436.0    20.0  0.771008  0.007737  0.763321  0.786987
437.0    20.0  0.771008  0.007737  0.763321  0.786987
438.0    20.0  0.771008  0.007737  0.763321  0.786987
439.0    20.0  0.771008  0.007737  0.763321  0.786987
440.0    20.0  0.771008  0.007737  0.763321  0.786987
441.0    20.0  0.771008  0.007737  0.763321  0.786987
442.0    20.0  0.771008  0.007737  0.763321  0.786987
443.0    20.0  0.771008  0.007737  0.763321  0.786987
444.0    20.0  0.771008  0.007737  0.763321  0.786987
445.0    20.0  0.771008  0.007737  0.763321  0.786987
446.0    20.0  0.771008  0.007737  0.763321  0.786987
447.0    20.0  0.771008  0.007737  0.763321  0.786987
448.0    20.0  0.771008  0.007737  0.763321  0.786987
449.0    20.0  0.771008  0.007737  0.763321  0.786987
450.0    20.0  0.771895  0.007821  0.763321  0.786987
451.0    20.0  0.771895  0.007821  0.763321  0.786987
452.0    20.0  0.771895  0.007821  0.763321  0.786987
453.0    20.0  0.771895  0.007821  0.763321  0.786987
454.0    20.0  0.771895  0.007821  0.763321  0.786987
455.0    20.0  0.771895  0.007821  0.763321  0.786987
456.0    20.0  0.772486  0.007595  0.763321  0.786987
457.0    20.0  0.772486  0.007595  0.763321  0.786987
458.0    20.0  0.772486  0.007595  0.763321  0.786987
459.0    20.0  0.772486  0.007595  0.763321  0.786987
460.0    20.0  0.772486  0.007595  0.763321  0.786987
461.0    20.0  0.772486  0.007595  0.763321  0.786987
462.0    20.0  0.772486  0.007595  0.763321  0.786987
463.0    20.0  0.772486  0.007595  0.763321  0.786987
464.0    20.0  0.772486  0.007595  0.763321  0.786987
465.0    20.0  0.772486  0.007595  0.763321  0.786987
466.0    20.0  0.773077  0.007313  0.763321  0.786987
467.0    20.0  0.773077  0.007313  0.763321  0.786987
468.0    20.0  0.773077  0.007313  0.763321  0.786987
469.0    20.0  0.773077  0.007313  0.763321  0.786987
470.0    20.0  0.773077  0.007313  0.763321  0.786987
471.0    20.0  0.773077  0.007313  0.763321  0.786987
472.0    20.0  0.773077  0.007313  0.763321  0.786987
473.0    20.0  0.773077  0.007313  0.763321  0.786987
474.0    20.0  0.773077  0.007313  0.763321  0.786987
475.0    20.0  0.773077  0.007313  0.763321  0.786987
476.0    20.0  0.773077  0.007313  0.763321  0.786987
477.0    20.0  0.773077  0.007313  0.763321  0.786987
478.0    20.0  0.773373  0.007027  0.763321  0.786987
479.0    20.0  0.773373  0.007027  0.763321  0.786987
480.0    20.0  0.773373  0.007027  0.763321  0.786987
481.0    20.0  0.773668  0.006715  0.763321  0.786987
482.0    20.0  0.773668  0.006715  0.763321  0.786987
483.0    20.0  0.773668  0.006715  0.763321  0.786987
484.0    20.0  0.773668  0.006715  0.763321  0.786987
485.0    20.0  0.773668  0.006715  0.763321  0.786987
486.0    20.0  0.773668  0.006715  0.763321  0.786987
487.0    20.0  0.773668  0.006715  0.763321  0.786987
488.0    20.0  0.773668  0.006715  0.763321  0.786987
489.0    20.0  0.773668  0.006715  0.763321  0.786987
490.0    20.0  0.773668  0.006715  0.763321  0.786987
491.0    20.0  0.773668  0.006715  0.763321  0.786987
492.0    20.0  0.773668  0.006715  0.763321  0.786987
493.0    20.0  0.773668  0.006715  0.763321  0.786987
494.0    20.0  0.773668  0.006715  0.763321  0.786987
495.0    20.0  0.773668  0.006715  0.763321  0.786987
496.0    20.0  0.773668  0.006715  0.763321  0.786987
497.0    20.0  0.774259  0.006285  0.763321  0.786987
498.0    20.0  0.774850  0.005763  0.769226  0.786987
499.0    20.0  0.774850  0.005763  0.769226  0.786987
