gen  nevals       avg       std       min       max
  0.0    20.0  0.582546  0.025235  0.541824  0.625458
  1.0    20.0  0.604546  0.011434  0.585449  0.625458
  2.0    20.0  0.612545  0.009720  0.600006  0.629089
  3.0    20.0  0.618909  0.007679  0.607269  0.632721
  4.0    20.0  0.624000  0.008712  0.614548  0.650909
  5.0    20.0  0.630181  0.008302  0.621811  0.650909
  6.0    20.0  0.632728  0.007452  0.625458  0.650909
  7.0    20.0  0.637636  0.009362  0.629089  0.661819
  8.0    20.0  0.639999  0.008529  0.629089  0.661819
  9.0    20.0  0.648547  0.008471  0.636368  0.665451
 10.0    20.0  0.652001  0.006715  0.639999  0.665451
 11.0    20.0  0.654729  0.006653  0.647278  0.672729
 12.0    20.0  0.656728  0.005909  0.647278  0.672729
 13.0    20.0  0.659455  0.006328  0.650909  0.676361
 14.0    20.0  0.660911  0.005850  0.654541  0.676361
 15.0    20.0  0.662912  0.005525  0.658188  0.676361
 16.0    20.0  0.663820  0.005202  0.658188  0.676361
 17.0    20.0  0.663820  0.005202  0.658188  0.676361
 18.0    20.0  0.664001  0.005063  0.658188  0.676361
 19.0    20.0  0.666000  0.004916  0.661819  0.676361
 20.0    20.0  0.666364  0.004862  0.661819  0.676361
 21.0    20.0  0.669091  0.007271  0.661819  0.690903
 22.0    20.0  0.669819  0.006860  0.661819  0.690903
 23.0    20.0  0.670910  0.006137  0.665451  0.690903
 24.0    20.0  0.674548  0.006347  0.669098  0.690903
 25.0    20.0  0.674548  0.006347  0.669098  0.690903
 26.0    20.0  0.674548  0.006347  0.669098  0.690903
 27.0    20.0  0.675092  0.006323  0.669098  0.690903
 28.0    20.0  0.676183  0.006550  0.669098  0.690903
 29.0    20.0  0.676183  0.006550  0.669098  0.690903
 30.0    20.0  0.676727  0.006389  0.669098  0.690903
 31.0    20.0  0.678181  0.005573  0.672729  0.690903
 32.0    20.0  0.678544  0.005318  0.672729  0.690903
 33.0    20.0  0.680725  0.008877  0.672729  0.712723
 34.0    20.0  0.680725  0.008877  0.672729  0.712723
 35.0    20.0  0.682179  0.008403  0.676361  0.712723
 36.0    20.0  0.682179  0.008403  0.676361  0.712723
 37.0    20.0  0.683452  0.008868  0.676361  0.712723
 38.0    20.0  0.685088  0.010311  0.676361  0.712723
 39.0    20.0  0.685997  0.010043  0.676361  0.712723
 40.0    20.0  0.686543  0.009799  0.676361  0.712723
 41.0    20.0  0.686906  0.009546  0.676361  0.712723
 42.0    20.0  0.687452  0.009234  0.676361  0.712723
 43.0    20.0  0.688544  0.008549  0.679993  0.712723
 44.0    20.0  0.690180  0.008496  0.679993  0.712723
 45.0    20.0  0.691270  0.007874  0.683640  0.712723
 46.0    20.0  0.692179  0.007651  0.683640  0.712723
 47.0    20.0  0.692725  0.007408  0.687271  0.712723
 48.0    20.0  0.693270  0.007388  0.687271  0.712723
 49.0    20.0  0.693270  0.007388  0.687271  0.712723
 50.0    20.0  0.693270  0.007388  0.687271  0.712723
 51.0    20.0  0.693452  0.007282  0.687271  0.712723
 52.0    20.0  0.693997  0.007207  0.687271  0.712723
 53.0    20.0  0.695634  0.008381  0.687271  0.716370
 54.0    20.0  0.696543  0.008411  0.687271  0.716370
 55.0    20.0  0.698362  0.007925  0.690903  0.716370
 56.0    20.0  0.699090  0.007531  0.690903  0.716370
 57.0    20.0  0.699454  0.007299  0.690903  0.716370
 58.0    20.0  0.701455  0.006074  0.694550  0.716370
 59.0    20.0  0.701455  0.006074  0.694550  0.716370
 60.0    20.0  0.701455  0.006074  0.694550  0.716370
 61.0    20.0  0.702364  0.006327  0.694550  0.716370
 62.0    20.0  0.702364  0.006327  0.694550  0.716370
 63.0    20.0  0.702364  0.006327  0.694550  0.716370
 64.0    20.0  0.702545  0.006150  0.694550  0.716370
 65.0    20.0  0.703454  0.006243  0.698181  0.716370
 66.0    20.0  0.703999  0.006235  0.698181  0.716370
 67.0    20.0  0.703999  0.006235  0.698181  0.716370
 68.0    20.0  0.704726  0.006361  0.698181  0.716370
 69.0    20.0  0.704726  0.006361  0.698181  0.716370
 70.0    20.0  0.704908  0.006222  0.698181  0.716370
 71.0    20.0  0.704908  0.006222  0.698181  0.716370
 72.0    20.0  0.705272  0.006028  0.698181  0.716370
 73.0    20.0  0.705636  0.005804  0.698181  0.716370
 74.0    20.0  0.705817  0.005622  0.698181  0.716370
 75.0    20.0  0.705817  0.005622  0.698181  0.716370
 76.0    20.0  0.706363  0.005127  0.698181  0.716370
 77.0    20.0  0.706544  0.004893  0.698181  0.716370
 78.0    20.0  0.706726  0.004640  0.701813  0.716370
 79.0    20.0  0.706726  0.004640  0.701813  0.716370
 80.0    20.0  0.707090  0.004525  0.701813  0.716370
 81.0    20.0  0.707090  0.004525  0.701813  0.716370
 82.0    20.0  0.707090  0.004525  0.701813  0.716370
 83.0    20.0  0.707635  0.004513  0.701813  0.716370
 84.0    20.0  0.707999  0.004318  0.701813  0.716370
 85.0    20.0  0.707999  0.004318  0.701813  0.716370
 86.0    20.0  0.707999  0.004318  0.701813  0.716370
 87.0    20.0  0.707999  0.004318  0.701813  0.716370
 88.0    20.0  0.708363  0.004082  0.701813  0.716370
 89.0    20.0  0.708363  0.004082  0.701813  0.716370
 90.0    20.0  0.708363  0.004082  0.701813  0.716370
 91.0    20.0  0.708363  0.004082  0.701813  0.716370
 92.0    20.0  0.708363  0.004082  0.701813  0.716370
 93.0    20.0  0.708363  0.004082  0.701813  0.716370
 94.0    20.0  0.708363  0.004082  0.701813  0.716370
 95.0    20.0  0.708363  0.004082  0.701813  0.716370
 96.0    20.0  0.708363  0.004082  0.701813  0.716370
 97.0    20.0  0.709091  0.004146  0.701813  0.716370
 98.0    20.0  0.709274  0.003894  0.701813  0.716370
 99.0    20.0  0.709274  0.003894  0.701813  0.716370
100.0    20.0  0.709274  0.003894  0.701813  0.716370
101.0    20.0  0.710001  0.003791  0.705460  0.716370
102.0    20.0  0.710365  0.003685  0.705460  0.716370
103.0    20.0  0.710365  0.003685  0.705460  0.716370
104.0    20.0  0.710365  0.003685  0.705460  0.716370
105.0    20.0  0.710365  0.003685  0.705460  0.716370
106.0    20.0  0.710365  0.003685  0.705460  0.716370
107.0    20.0  0.710365  0.003685  0.705460  0.716370
108.0    20.0  0.710365  0.003685  0.705460  0.716370
109.0    20.0  0.710365  0.003685  0.705460  0.716370
110.0    20.0  0.710365  0.003685  0.705460  0.716370
111.0    20.0  0.711273  0.004511  0.705460  0.723633
112.0    20.0  0.711636  0.004317  0.705460  0.723633
113.0    20.0  0.711636  0.004317  0.705460  0.723633
114.0    20.0  0.711818  0.004125  0.705460  0.723633
115.0    20.0  0.711818  0.004125  0.705460  0.723633
116.0    20.0  0.712727  0.003984  0.709091  0.723633
117.0    20.0  0.712727  0.003984  0.709091  0.723633
118.0    20.0  0.712727  0.003984  0.709091  0.723633
119.0    20.0  0.712727  0.003984  0.709091  0.723633
120.0    20.0  0.712727  0.003984  0.709091  0.723633
121.0    20.0  0.712727  0.003984  0.709091  0.723633
122.0    20.0  0.712727  0.003984  0.709091  0.723633
123.0    20.0  0.712727  0.003984  0.709091  0.723633
124.0    20.0  0.713091  0.003967  0.709091  0.723633
125.0    20.0  0.713091  0.003967  0.709091  0.723633
126.0    20.0  0.713091  0.003967  0.709091  0.723633
127.0    20.0  0.713091  0.003967  0.709091  0.723633
128.0    20.0  0.713091  0.003967  0.709091  0.723633
129.0    20.0  0.713272  0.003862  0.709091  0.723633
130.0    20.0  0.713272  0.003862  0.709091  0.723633
131.0    20.0  0.714000  0.003687  0.709091  0.723633
132.0    20.0  0.714000  0.003687  0.709091  0.723633
133.0    20.0  0.714000  0.003687  0.709091  0.723633
134.0    20.0  0.714364  0.003541  0.709091  0.723633
135.0    20.0  0.714364  0.003541  0.709091  0.723633
136.0    20.0  0.714364  0.003541  0.709091  0.723633
137.0    20.0  0.714364  0.003541  0.709091  0.723633
138.0    20.0  0.714364  0.003541  0.709091  0.723633
139.0    20.0  0.714364  0.003541  0.709091  0.723633
140.0    20.0  0.714364  0.003541  0.709091  0.723633
141.0    20.0  0.714364  0.003541  0.709091  0.723633
142.0    20.0  0.715091  0.003862  0.709091  0.723633
143.0    20.0  0.715091  0.003862  0.709091  0.723633
144.0    20.0  0.715091  0.003862  0.709091  0.723633
145.0    20.0  0.715091  0.003862  0.709091  0.723633
146.0    20.0  0.715091  0.003862  0.709091  0.723633
147.0    20.0  0.715273  0.003656  0.709091  0.723633
148.0    20.0  0.715273  0.003656  0.709091  0.723633
149.0    20.0  0.715273  0.003656  0.709091  0.723633
150.0    20.0  0.715273  0.003656  0.709091  0.723633
151.0    20.0  0.715273  0.003656  0.709091  0.723633
152.0    20.0  0.715273  0.003656  0.709091  0.723633
153.0    20.0  0.715273  0.003656  0.709091  0.723633
154.0    20.0  0.715273  0.003656  0.709091  0.723633
155.0    20.0  0.715273  0.003656  0.709091  0.723633
156.0    20.0  0.715273  0.003656  0.709091  0.723633
157.0    20.0  0.715273  0.003656  0.709091  0.723633
158.0    20.0  0.715273  0.003656  0.709091  0.723633
159.0    20.0  0.715273  0.003656  0.709091  0.723633
160.0    20.0  0.715454  0.003427  0.712723  0.723633
161.0    20.0  0.715454  0.003427  0.712723  0.723633
162.0    20.0  0.715454  0.003427  0.712723  0.723633
163.0    20.0  0.715454  0.003427  0.712723  0.723633
164.0    20.0  0.715454  0.003427  0.712723  0.723633
165.0    20.0  0.715454  0.003427  0.712723  0.723633
166.0    20.0  0.715454  0.003427  0.712723  0.723633
167.0    20.0  0.715454  0.003427  0.712723  0.723633
168.0    20.0  0.715454  0.003427  0.712723  0.723633
169.0    20.0  0.715454  0.003427  0.712723  0.723633
170.0    20.0  0.715454  0.003427  0.712723  0.723633
171.0    20.0  0.715454  0.003427  0.712723  0.723633
172.0    20.0  0.715454  0.003427  0.712723  0.723633
173.0    20.0  0.715454  0.003427  0.712723  0.723633
174.0    20.0  0.715454  0.003427  0.712723  0.723633
175.0    20.0  0.715454  0.003427  0.712723  0.723633
176.0    20.0  0.715454  0.003427  0.712723  0.723633
177.0    20.0  0.715454  0.003427  0.712723  0.723633
178.0    20.0  0.715454  0.003427  0.712723  0.723633
179.0    20.0  0.715454  0.003427  0.712723  0.723633
180.0    20.0  0.715454  0.003427  0.712723  0.723633
181.0    20.0  0.715454  0.003427  0.712723  0.723633
182.0    20.0  0.715454  0.003427  0.712723  0.723633
183.0    20.0  0.715454  0.003427  0.712723  0.723633
184.0    20.0  0.715454  0.003427  0.712723  0.723633
185.0    20.0  0.715636  0.003374  0.712723  0.723633
186.0    20.0  0.715636  0.003374  0.712723  0.723633
187.0    20.0  0.715636  0.003374  0.712723  0.723633
188.0    20.0  0.715636  0.003374  0.712723  0.723633
189.0    20.0  0.715636  0.003374  0.712723  0.723633
190.0    20.0  0.715636  0.003374  0.712723  0.723633
191.0    20.0  0.715636  0.003374  0.712723  0.723633
192.0    20.0  0.715636  0.003374  0.712723  0.723633
193.0    20.0  0.716547  0.004063  0.712723  0.727280
194.0    20.0  0.716547  0.004063  0.712723  0.727280
195.0    20.0  0.716547  0.004063  0.712723  0.727280
196.0    20.0  0.716547  0.004063  0.712723  0.727280
197.0    20.0  0.716547  0.004063  0.712723  0.727280
198.0    20.0  0.717274  0.004584  0.712723  0.727280
199.0    20.0  0.717274  0.004584  0.712723  0.727280
200.0    20.0  0.717274  0.004584  0.712723  0.727280
201.0    20.0  0.717457  0.004470  0.712723  0.727280
202.0    20.0  0.717457  0.004470  0.712723  0.727280
203.0    20.0  0.717457  0.004470  0.712723  0.727280
204.0    20.0  0.717457  0.004470  0.712723  0.727280
205.0    20.0  0.717457  0.004470  0.712723  0.727280
206.0    20.0  0.717457  0.004470  0.712723  0.727280
207.0    20.0  0.717821  0.004365  0.712723  0.727280
208.0    20.0  0.717821  0.004365  0.712723  0.727280
209.0    20.0  0.717821  0.004365  0.712723  0.727280
210.0    20.0  0.717821  0.004365  0.712723  0.727280
211.0    20.0  0.717821  0.004365  0.712723  0.727280
212.0    20.0  0.717821  0.004365  0.712723  0.727280
213.0    20.0  0.718366  0.004375  0.712723  0.727280
214.0    20.0  0.718366  0.004375  0.712723  0.727280
215.0    20.0  0.718366  0.004375  0.712723  0.727280
216.0    20.0  0.720184  0.005802  0.712723  0.738174
217.0    20.0  0.720184  0.005802  0.712723  0.738174
218.0    20.0  0.720184  0.005802  0.712723  0.738174
219.0    20.0  0.720184  0.005802  0.712723  0.738174
220.0    20.0  0.720912  0.005733  0.716370  0.738174
221.0    20.0  0.720912  0.005733  0.716370  0.738174
222.0    20.0  0.720912  0.005733  0.716370  0.738174
223.0    20.0  0.720912  0.005733  0.716370  0.738174
224.0    20.0  0.720912  0.005733  0.716370  0.738174
225.0    20.0  0.720912  0.005733  0.716370  0.738174
226.0    20.0  0.720912  0.005733  0.716370  0.738174
227.0    20.0  0.720912  0.005733  0.716370  0.738174
228.0    20.0  0.721094  0.005643  0.716370  0.738174
229.0    20.0  0.721094  0.005643  0.716370  0.738174
230.0    20.0  0.721094  0.005643  0.716370  0.738174
231.0    20.0  0.721094  0.005643  0.716370  0.738174
232.0    20.0  0.721094  0.005643  0.716370  0.738174
233.0    20.0  0.721094  0.005643  0.716370  0.738174
234.0    20.0  0.721094  0.005643  0.716370  0.738174
235.0    20.0  0.721094  0.005643  0.716370  0.738174
236.0    20.0  0.721094  0.005643  0.716370  0.738174
237.0    20.0  0.721275  0.005545  0.716370  0.738174
238.0    20.0  0.721275  0.005545  0.716370  0.738174
239.0    20.0  0.721638  0.005449  0.716370  0.738174
240.0    20.0  0.721638  0.005449  0.716370  0.738174
241.0    20.0  0.721638  0.005449  0.716370  0.738174
242.0    20.0  0.721638  0.005449  0.716370  0.738174
243.0    20.0  0.721638  0.005449  0.716370  0.738174
244.0    20.0  0.721820  0.005330  0.716370  0.738174
245.0    20.0  0.721820  0.005330  0.716370  0.738174
246.0    20.0  0.721820  0.005330  0.716370  0.738174
247.0    20.0  0.722183  0.005192  0.716370  0.738174
248.0    20.0  0.722183  0.005192  0.716370  0.738174
249.0    20.0  0.722183  0.005192  0.716370  0.738174
250.0    20.0  0.722183  0.005192  0.716370  0.738174
251.0    20.0  0.722183  0.005192  0.716370  0.738174
252.0    20.0  0.722183  0.005192  0.716370  0.738174
253.0    20.0  0.722183  0.005192  0.716370  0.738174
254.0    20.0  0.722910  0.005343  0.716370  0.738174
255.0    20.0  0.722910  0.005343  0.716370  0.738174
256.0    20.0  0.723092  0.005176  0.716370  0.738174
257.0    20.0  0.723092  0.005176  0.716370  0.738174
258.0    20.0  0.723092  0.005176  0.716370  0.738174
259.0    20.0  0.723273  0.004998  0.716370  0.738174
260.0    20.0  0.723637  0.004740  0.716370  0.738174
261.0    20.0  0.723818  0.004523  0.720001  0.738174
262.0    20.0  0.723818  0.004523  0.720001  0.738174
263.0    20.0  0.723818  0.004523  0.720001  0.738174
264.0    20.0  0.723818  0.004523  0.720001  0.738174
265.0    20.0  0.723818  0.004523  0.720001  0.738174
266.0    20.0  0.723818  0.004523  0.720001  0.738174
267.0    20.0  0.723818  0.004523  0.720001  0.738174
268.0    20.0  0.723818  0.004523  0.720001  0.738174
269.0    20.0  0.723818  0.004523  0.720001  0.738174
270.0    20.0  0.723818  0.004523  0.720001  0.738174
271.0    20.0  0.723818  0.004523  0.720001  0.738174
272.0    20.0  0.723818  0.004523  0.720001  0.738174
273.0    20.0  0.723818  0.004523  0.720001  0.738174
274.0    20.0  0.723818  0.004523  0.720001  0.738174
275.0    20.0  0.723818  0.004523  0.720001  0.738174
276.0    20.0  0.724000  0.004438  0.720001  0.738174
277.0    20.0  0.724000  0.004438  0.720001  0.738174
278.0    20.0  0.724000  0.004438  0.720001  0.738174
279.0    20.0  0.724181  0.004344  0.720001  0.738174
280.0    20.0  0.724181  0.004344  0.720001  0.738174
281.0    20.0  0.724181  0.004344  0.720001  0.738174
282.0    20.0  0.724727  0.004162  0.720001  0.738174
283.0    20.0  0.724727  0.004162  0.720001  0.738174
284.0    20.0  0.724727  0.004162  0.720001  0.738174
285.0    20.0  0.724727  0.004162  0.720001  0.738174
286.0    20.0  0.724727  0.004162  0.720001  0.738174
287.0    20.0  0.724727  0.004162  0.720001  0.738174
288.0    20.0  0.724727  0.004162  0.720001  0.738174
289.0    20.0  0.724727  0.004162  0.720001  0.738174
290.0    20.0  0.724727  0.004162  0.720001  0.738174
291.0    20.0  0.724727  0.004162  0.720001  0.738174
292.0    20.0  0.724727  0.004162  0.720001  0.738174
293.0    20.0  0.724727  0.004162  0.720001  0.738174
294.0    20.0  0.724727  0.004162  0.720001  0.738174
295.0    20.0  0.724727  0.004162  0.720001  0.738174
296.0    20.0  0.724727  0.004162  0.720001  0.738174
297.0    20.0  0.725454  0.004527  0.720001  0.738174
298.0    20.0  0.725454  0.004527  0.720001  0.738174
299.0    20.0  0.727272  0.007967  0.720001  0.756363
300.0    20.0  0.727272  0.007967  0.720001  0.756363
301.0    20.0  0.728181  0.007617  0.723633  0.756363
302.0    20.0  0.728364  0.007549  0.723633  0.756363
303.0    20.0  0.728364  0.007549  0.723633  0.756363
304.0    20.0  0.728364  0.007549  0.723633  0.756363
305.0    20.0  0.728364  0.007549  0.723633  0.756363
306.0    20.0  0.729456  0.007917  0.723633  0.756363
307.0    20.0  0.729456  0.007917  0.723633  0.756363
308.0    20.0  0.730001  0.007873  0.723633  0.756363
309.0    20.0  0.730001  0.007873  0.723633  0.756363
310.0    20.0  0.730001  0.007873  0.723633  0.756363
311.0    20.0  0.730001  0.007873  0.723633  0.756363
312.0    20.0  0.730001  0.007873  0.723633  0.756363
313.0    20.0  0.730001  0.007873  0.723633  0.756363
314.0    20.0  0.730001  0.007873  0.723633  0.756363
315.0    20.0  0.730001  0.007873  0.723633  0.756363
316.0    20.0  0.730001  0.007873  0.723633  0.756363
317.0    20.0  0.730001  0.007873  0.723633  0.756363
318.0    20.0  0.730001  0.007873  0.723633  0.756363
319.0    20.0  0.730547  0.007618  0.723633  0.756363
320.0    20.0  0.731457  0.007821  0.723633  0.756363
321.0    20.0  0.732366  0.007916  0.723633  0.756363
322.0    20.0  0.732366  0.007916  0.723633  0.756363
323.0    20.0  0.732366  0.007916  0.723633  0.756363
324.0    20.0  0.732366  0.007916  0.723633  0.756363
325.0    20.0  0.732366  0.007916  0.723633  0.756363
326.0    20.0  0.732730  0.007669  0.723633  0.756363
327.0    20.0  0.732730  0.007669  0.723633  0.756363
328.0    20.0  0.732912  0.007492  0.727280  0.756363
329.0    20.0  0.732912  0.007492  0.727280  0.756363
330.0    20.0  0.733094  0.007397  0.727280  0.756363
331.0    20.0  0.733094  0.007397  0.727280  0.756363
332.0    20.0  0.733094  0.007397  0.727280  0.756363
333.0    20.0  0.733094  0.007397  0.727280  0.756363
334.0    20.0  0.733094  0.007397  0.727280  0.756363
335.0    20.0  0.733276  0.007296  0.727280  0.756363
336.0    20.0  0.733276  0.007296  0.727280  0.756363
337.0    20.0  0.734184  0.007617  0.727280  0.756363
338.0    20.0  0.734184  0.007617  0.727280  0.756363
339.0    20.0  0.734729  0.007492  0.727280  0.756363
340.0    20.0  0.734729  0.007492  0.727280  0.756363
341.0    20.0  0.734729  0.007492  0.727280  0.756363
342.0    20.0  0.734729  0.007492  0.727280  0.756363
343.0    20.0  0.734729  0.007492  0.727280  0.756363
344.0    20.0  0.734729  0.007492  0.727280  0.756363
345.0    20.0  0.734729  0.007492  0.727280  0.756363
346.0    20.0  0.734729  0.007492  0.727280  0.756363
347.0    20.0  0.734729  0.007492  0.727280  0.756363
348.0    20.0  0.735092  0.007296  0.727280  0.756363
349.0    20.0  0.735092  0.007296  0.727280  0.756363
350.0    20.0  0.735092  0.007296  0.727280  0.756363
351.0    20.0  0.735092  0.007296  0.727280  0.756363
352.0    20.0  0.735092  0.007296  0.727280  0.756363
353.0    20.0  0.735092  0.007296  0.727280  0.756363
354.0    20.0  0.735092  0.007296  0.727280  0.756363
355.0    20.0  0.735274  0.007143  0.727280  0.756363
356.0    20.0  0.735274  0.007143  0.727280  0.756363
357.0    20.0  0.735274  0.007143  0.727280  0.756363
358.0    20.0  0.735274  0.007143  0.727280  0.756363
359.0    20.0  0.736001  0.007031  0.727280  0.756363
360.0    20.0  0.736001  0.007031  0.727280  0.756363
361.0    20.0  0.736001  0.007031  0.727280  0.756363
362.0    20.0  0.736001  0.007031  0.727280  0.756363
363.0    20.0  0.736182  0.006848  0.727280  0.756363
364.0    20.0  0.736182  0.006848  0.727280  0.756363
365.0    20.0  0.738000  0.008794  0.730911  0.763641
366.0    20.0  0.738182  0.008682  0.730911  0.763641
367.0    20.0  0.738182  0.008682  0.730911  0.763641
368.0    20.0  0.738182  0.008682  0.730911  0.763641
369.0    20.0  0.738182  0.008682  0.730911  0.763641
370.0    20.0  0.738182  0.008682  0.730911  0.763641
371.0    20.0  0.738182  0.008682  0.730911  0.763641
372.0    20.0  0.738182  0.008682  0.730911  0.763641
373.0    20.0  0.738182  0.008682  0.730911  0.763641
374.0    20.0  0.738728  0.008550  0.730911  0.763641
375.0    20.0  0.738728  0.008550  0.730911  0.763641
376.0    20.0  0.738728  0.008550  0.730911  0.763641
377.0    20.0  0.738728  0.008550  0.730911  0.763641
378.0    20.0  0.738728  0.008550  0.730911  0.763641
379.0    20.0  0.738728  0.008550  0.730911  0.763641
380.0    20.0  0.738728  0.008550  0.730911  0.763641
381.0    20.0  0.738728  0.008550  0.730911  0.763641
382.0    20.0  0.738728  0.008550  0.730911  0.763641
383.0    20.0  0.738728  0.008550  0.730911  0.763641
384.0    20.0  0.738728  0.008550  0.730911  0.763641
385.0    20.0  0.738728  0.008550  0.730911  0.763641
386.0    20.0  0.738728  0.008550  0.730911  0.763641
387.0    20.0  0.738728  0.008550  0.730911  0.763641
388.0    20.0  0.738728  0.008550  0.730911  0.763641
389.0    20.0  0.738728  0.008550  0.730911  0.763641
390.0    20.0  0.738728  0.008550  0.730911  0.763641
391.0    20.0  0.738728  0.008550  0.730911  0.763641
392.0    20.0  0.739273  0.008380  0.730911  0.763641
393.0    20.0  0.739273  0.008380  0.730911  0.763641
394.0    20.0  0.739273  0.008380  0.730911  0.763641
395.0    20.0  0.739273  0.008380  0.730911  0.763641
396.0    20.0  0.739273  0.008380  0.730911  0.763641
397.0    20.0  0.739273  0.008380  0.730911  0.763641
398.0    20.0  0.739273  0.008380  0.730911  0.763641
399.0    20.0  0.739273  0.008380  0.730911  0.763641
400.0    20.0  0.739273  0.008380  0.730911  0.763641
401.0    20.0  0.739273  0.008380  0.730911  0.763641
402.0    20.0  0.739273  0.008380  0.730911  0.763641
403.0    20.0  0.739273  0.008380  0.730911  0.763641
404.0    20.0  0.739273  0.008380  0.730911  0.763641
405.0    20.0  0.739273  0.008380  0.730911  0.763641
406.0    20.0  0.739273  0.008380  0.730911  0.763641
407.0    20.0  0.739273  0.008380  0.730911  0.763641
408.0    20.0  0.739273  0.008380  0.730911  0.763641
409.0    20.0  0.739273  0.008380  0.730911  0.763641
410.0    20.0  0.739273  0.008380  0.730911  0.763641
411.0    20.0  0.739273  0.008380  0.730911  0.763641
412.0    20.0  0.739636  0.008165  0.730911  0.763641
413.0    20.0  0.739999  0.007926  0.730911  0.763641
414.0    20.0  0.739999  0.007926  0.730911  0.763641
415.0    20.0  0.739999  0.007926  0.730911  0.763641
416.0    20.0  0.739999  0.007926  0.730911  0.763641
417.0    20.0  0.739999  0.007926  0.730911  0.763641
418.0    20.0  0.739999  0.007926  0.730911  0.763641
419.0    20.0  0.739999  0.007926  0.730911  0.763641
420.0    20.0  0.739999  0.007926  0.730911  0.763641
421.0    20.0  0.739999  0.007926  0.730911  0.763641
422.0    20.0  0.739999  0.007926  0.730911  0.763641
423.0    20.0  0.739999  0.007926  0.730911  0.763641
424.0    20.0  0.739999  0.007926  0.730911  0.763641
425.0    20.0  0.739999  0.007926  0.730911  0.763641
426.0    20.0  0.739999  0.007926  0.730911  0.763641
427.0    20.0  0.739999  0.007926  0.730911  0.763641
428.0    20.0  0.739999  0.007926  0.730911  0.763641
429.0    20.0  0.739999  0.007926  0.730911  0.763641
430.0    20.0  0.739999  0.007926  0.730911  0.763641
431.0    20.0  0.739999  0.007926  0.730911  0.763641
432.0    20.0  0.739999  0.007926  0.730911  0.763641
433.0    20.0  0.739999  0.007926  0.730911  0.763641
434.0    20.0  0.739999  0.007926  0.730911  0.763641
435.0    20.0  0.739999  0.007926  0.730911  0.763641
436.0    20.0  0.739999  0.007926  0.730911  0.763641
437.0    20.0  0.739999  0.007926  0.730911  0.763641
438.0    20.0  0.739999  0.007926  0.730911  0.763641
439.0    20.0  0.739999  0.007926  0.730911  0.763641
440.0    20.0  0.741272  0.008394  0.730911  0.763641
441.0    20.0  0.741272  0.008394  0.730911  0.763641
442.0    20.0  0.741272  0.008394  0.730911  0.763641
443.0    20.0  0.741817  0.008051  0.730911  0.763641
444.0    20.0  0.741817  0.008051  0.730911  0.763641
445.0    20.0  0.741817  0.008051  0.730911  0.763641
446.0    20.0  0.741817  0.008051  0.730911  0.763641
447.0    20.0  0.741817  0.008051  0.730911  0.763641
448.0    20.0  0.741817  0.008051  0.730911  0.763641
449.0    20.0  0.741817  0.008051  0.730911  0.763641
450.0    20.0  0.742545  0.007681  0.734543  0.763641
451.0    20.0  0.742545  0.007681  0.734543  0.763641
452.0    20.0  0.742545  0.007681  0.734543  0.763641
453.0    20.0  0.742545  0.007681  0.734543  0.763641
454.0    20.0  0.742545  0.007681  0.734543  0.763641
455.0    20.0  0.742545  0.007681  0.734543  0.763641
456.0    20.0  0.742545  0.007681  0.734543  0.763641
457.0    20.0  0.742545  0.007681  0.734543  0.763641
458.0    20.0  0.742545  0.007681  0.734543  0.763641
459.0    20.0  0.742545  0.007681  0.734543  0.763641
460.0    20.0  0.742545  0.007681  0.734543  0.763641
461.0    20.0  0.742545  0.007681  0.734543  0.763641
462.0    20.0  0.742545  0.007681  0.734543  0.763641
463.0    20.0  0.742545  0.007681  0.734543  0.763641
464.0    20.0  0.742545  0.007681  0.734543  0.763641
465.0    20.0  0.742545  0.007681  0.734543  0.763641
466.0    20.0  0.742545  0.007681  0.734543  0.763641
467.0    20.0  0.743090  0.007478  0.734543  0.763641
468.0    20.0  0.743090  0.007478  0.734543  0.763641
469.0    20.0  0.743090  0.007478  0.734543  0.763641
470.0    20.0  0.743090  0.007478  0.734543  0.763641
471.0    20.0  0.743454  0.007226  0.734543  0.763641
472.0    20.0  0.743454  0.007226  0.734543  0.763641
473.0    20.0  0.743454  0.007226  0.734543  0.763641
474.0    20.0  0.743454  0.007226  0.734543  0.763641
475.0    20.0  0.743818  0.006946  0.734543  0.763641
476.0    20.0  0.743818  0.006946  0.734543  0.763641
477.0    20.0  0.743818  0.006946  0.734543  0.763641
478.0    20.0  0.743999  0.006746  0.738174  0.763641
479.0    20.0  0.743999  0.006746  0.738174  0.763641
480.0    20.0  0.743999  0.006746  0.738174  0.763641
481.0    20.0  0.743999  0.006746  0.738174  0.763641
482.0    20.0  0.743999  0.006746  0.738174  0.763641
483.0    20.0  0.743999  0.006746  0.738174  0.763641
484.0    20.0  0.743999  0.006746  0.738174  0.763641
485.0    20.0  0.743999  0.006746  0.738174  0.763641
486.0    20.0  0.743999  0.006746  0.738174  0.763641
487.0    20.0  0.743999  0.006746  0.738174  0.763641
488.0    20.0  0.743999  0.006746  0.738174  0.763641
489.0    20.0  0.743999  0.006746  0.738174  0.763641
490.0    20.0  0.743999  0.006746  0.738174  0.763641
491.0    20.0  0.743999  0.006746  0.738174  0.763641
492.0    20.0  0.743999  0.006746  0.738174  0.763641
493.0    20.0  0.743999  0.006746  0.738174  0.763641
494.0    20.0  0.743999  0.006746  0.738174  0.763641
495.0    20.0  0.743999  0.006746  0.738174  0.763641
496.0    20.0  0.743999  0.006746  0.738174  0.763641
497.0    20.0  0.744182  0.006635  0.738174  0.763641
498.0    20.0  0.744182  0.006635  0.738174  0.763641
499.0    20.0  0.744182  0.006635  0.738174  0.763641
