gen  nevals       avg       std       min       max
  0.0    20.0  0.589599  0.013678  0.565689  0.620438
  1.0    20.0  0.602190  0.009374  0.587585  0.620438
  2.0    20.0  0.606021  0.007951  0.594894  0.620438
  3.0    20.0  0.612223  0.005758  0.605835  0.624084
  4.0    20.0  0.621716  0.009745  0.609482  0.638687
  5.0    20.0  0.631206  0.008827  0.616791  0.653290
  6.0    20.0  0.635403  0.007290  0.624084  0.653290
  7.0    20.0  0.638688  0.006627  0.631393  0.653290
  8.0    20.0  0.642336  0.007566  0.635040  0.660583
  9.0    20.0  0.645438  0.007232  0.635040  0.660583
 10.0    20.0  0.648356  0.006855  0.638687  0.664230
 11.0    20.0  0.650727  0.006009  0.642334  0.664230
 12.0    20.0  0.652004  0.005804  0.645981  0.664230
 13.0    20.0  0.654012  0.005841  0.645981  0.664230
 14.0    20.0  0.654560  0.005448  0.649628  0.664230
 15.0    20.0  0.655292  0.005094  0.649628  0.664230
 16.0    20.0  0.656935  0.005885  0.649628  0.671539
 17.0    20.0  0.658395  0.007335  0.649628  0.678833
 18.0    20.0  0.661863  0.009534  0.653290  0.682480
 19.0    20.0  0.663504  0.008527  0.653290  0.682480
 20.0    20.0  0.665693  0.007946  0.656937  0.682480
 21.0    20.0  0.666970  0.007289  0.660583  0.682480
 22.0    20.0  0.667335  0.007141  0.660583  0.682480
 23.0    20.0  0.667883  0.007021  0.660583  0.682480
 24.0    20.0  0.667883  0.007021  0.660583  0.682480
 25.0    20.0  0.669890  0.006160  0.660583  0.682480
 26.0    20.0  0.670802  0.005726  0.664230  0.682480
 27.0    20.0  0.671716  0.005350  0.664230  0.682480
 28.0    20.0  0.673541  0.006579  0.664230  0.693436
 29.0    20.0  0.673907  0.006246  0.667877  0.693436
 30.0    20.0  0.674090  0.006119  0.667877  0.693436
 31.0    20.0  0.674090  0.006119  0.667877  0.693436
 32.0    20.0  0.674090  0.006119  0.667877  0.693436
 33.0    20.0  0.675733  0.007046  0.667877  0.693436
 34.0    20.0  0.676099  0.006716  0.671539  0.693436
 35.0    20.0  0.676099  0.006716  0.671539  0.693436
 36.0    20.0  0.677011  0.006679  0.671539  0.693436
 37.0    20.0  0.677376  0.006466  0.671539  0.693436
 38.0    20.0  0.678105  0.006278  0.671539  0.693436
 39.0    20.0  0.678652  0.005938  0.671539  0.693436
 40.0    20.0  0.679382  0.005915  0.671539  0.693436
 41.0    20.0  0.679929  0.005665  0.675186  0.693436
 42.0    20.0  0.680293  0.005582  0.675186  0.693436
 43.0    20.0  0.680840  0.005591  0.675186  0.693436
 44.0    20.0  0.681570  0.005755  0.675186  0.693436
 45.0    20.0  0.682117  0.005641  0.675186  0.693436
 46.0    20.0  0.682299  0.005470  0.675186  0.693436
 47.0    20.0  0.684306  0.005595  0.675186  0.693436
 48.0    20.0  0.685036  0.005302  0.678833  0.693436
 49.0    20.0  0.685583  0.005197  0.678833  0.693436
 50.0    20.0  0.685583  0.005197  0.678833  0.693436
 51.0    20.0  0.685765  0.005018  0.678833  0.693436
 52.0    20.0  0.686130  0.004760  0.678833  0.693436
 53.0    20.0  0.686130  0.004760  0.678833  0.693436
 54.0    20.0  0.686130  0.004760  0.678833  0.693436
 55.0    20.0  0.686494  0.004304  0.682480  0.693436
 56.0    20.0  0.686494  0.004304  0.682480  0.693436
 57.0    20.0  0.687041  0.004143  0.682480  0.693436
 58.0    20.0  0.687041  0.004143  0.682480  0.693436
 59.0    20.0  0.687772  0.004542  0.682480  0.697083
 60.0    20.0  0.687772  0.004542  0.682480  0.697083
 61.0    20.0  0.688867  0.004454  0.682480  0.697083
 62.0    20.0  0.689232  0.004208  0.682480  0.697083
 63.0    20.0  0.689779  0.003653  0.682480  0.697083
 64.0    20.0  0.689779  0.003653  0.682480  0.697083
 65.0    20.0  0.689961  0.003364  0.686127  0.697083
 66.0    20.0  0.689961  0.003364  0.686127  0.697083
 67.0    20.0  0.690144  0.003248  0.686127  0.697083
 68.0    20.0  0.690144  0.003248  0.686127  0.697083
 69.0    20.0  0.690144  0.003248  0.686127  0.697083
 70.0    20.0  0.691969  0.005587  0.686127  0.711685
 71.0    20.0  0.692516  0.005149  0.686127  0.711685
 72.0    20.0  0.693246  0.005226  0.689774  0.711685
 73.0    20.0  0.693977  0.005689  0.689774  0.711685
 74.0    20.0  0.695255  0.006055  0.689774  0.711685
 75.0    20.0  0.695621  0.005818  0.689774  0.711685
 76.0    20.0  0.695621  0.005818  0.689774  0.711685
 77.0    20.0  0.695621  0.005818  0.689774  0.711685
 78.0    20.0  0.695621  0.005818  0.689774  0.711685
 79.0    20.0  0.695621  0.005818  0.689774  0.711685
 80.0    20.0  0.695621  0.005818  0.689774  0.711685
 81.0    20.0  0.695986  0.005667  0.689774  0.711685
 82.0    20.0  0.696169  0.005520  0.689774  0.711685
 83.0    20.0  0.696900  0.005093  0.689774  0.711685
 84.0    20.0  0.697266  0.004823  0.693436  0.711685
 85.0    20.0  0.697630  0.004795  0.693436  0.711685
 86.0    20.0  0.698360  0.005195  0.693436  0.711685
 87.0    20.0  0.698360  0.005195  0.693436  0.711685
 88.0    20.0  0.698360  0.005195  0.693436  0.711685
 89.0    20.0  0.698907  0.004962  0.693436  0.711685
 90.0    20.0  0.698907  0.004962  0.693436  0.711685
 91.0    20.0  0.698907  0.004962  0.693436  0.711685
 92.0    20.0  0.698907  0.004962  0.693436  0.711685
 93.0    20.0  0.699454  0.004932  0.693436  0.711685
 94.0    20.0  0.699454  0.004932  0.693436  0.711685
 95.0    20.0  0.699454  0.004932  0.693436  0.711685
 96.0    20.0  0.699454  0.004932  0.693436  0.711685
 97.0    20.0  0.699454  0.004932  0.693436  0.711685
 98.0    20.0  0.699454  0.004932  0.693436  0.711685
 99.0    20.0  0.701460  0.007261  0.693436  0.726273
100.0    20.0  0.701460  0.007261  0.693436  0.726273
101.0    20.0  0.701643  0.007101  0.693436  0.726273
102.0    20.0  0.701825  0.006933  0.697083  0.726273
103.0    20.0  0.702737  0.007432  0.697083  0.726273
104.0    20.0  0.703102  0.007323  0.697083  0.726273
105.0    20.0  0.703102  0.007323  0.697083  0.726273
106.0    20.0  0.703102  0.007323  0.697083  0.726273
107.0    20.0  0.703102  0.007323  0.697083  0.726273
108.0    20.0  0.703832  0.007414  0.697083  0.726273
109.0    20.0  0.703832  0.007414  0.697083  0.726273
110.0    20.0  0.703832  0.007414  0.697083  0.726273
111.0    20.0  0.704562  0.007432  0.697083  0.726273
112.0    20.0  0.704562  0.007432  0.697083  0.726273
113.0    20.0  0.705657  0.007851  0.697083  0.726273
114.0    20.0  0.705657  0.007851  0.697083  0.726273
115.0    20.0  0.705657  0.007851  0.697083  0.726273
116.0    20.0  0.706022  0.007610  0.697083  0.726273
117.0    20.0  0.706022  0.007610  0.697083  0.726273
118.0    20.0  0.707117  0.007103  0.697083  0.726273
119.0    20.0  0.707299  0.006887  0.700729  0.726273
120.0    20.0  0.707299  0.006887  0.700729  0.726273
121.0    20.0  0.707846  0.006578  0.700729  0.726273
122.0    20.0  0.709489  0.008435  0.700729  0.733582
123.0    20.0  0.709489  0.008435  0.700729  0.733582
124.0    20.0  0.709671  0.008282  0.700729  0.733582
125.0    20.0  0.710036  0.008037  0.700729  0.733582
126.0    20.0  0.710036  0.008037  0.700729  0.733582
127.0    20.0  0.710036  0.008037  0.700729  0.733582
128.0    20.0  0.710766  0.007819  0.704376  0.733582
129.0    20.0  0.710766  0.007819  0.704376  0.733582
130.0    20.0  0.710766  0.007819  0.704376  0.733582
131.0    20.0  0.711496  0.007870  0.704376  0.733582
132.0    20.0  0.711861  0.007699  0.704376  0.733582
133.0    20.0  0.711861  0.007699  0.704376  0.733582
134.0    20.0  0.712227  0.007506  0.704376  0.733582
135.0    20.0  0.712227  0.007506  0.704376  0.733582
136.0    20.0  0.712227  0.007506  0.704376  0.733582
137.0    20.0  0.713322  0.007869  0.704376  0.733582
138.0    20.0  0.713322  0.007869  0.704376  0.733582
139.0    20.0  0.713322  0.007869  0.704376  0.733582
140.0    20.0  0.713322  0.007869  0.704376  0.733582
141.0    20.0  0.713504  0.007700  0.704376  0.733582
142.0    20.0  0.713686  0.007523  0.704376  0.733582
143.0    20.0  0.714052  0.007234  0.704376  0.733582
144.0    20.0  0.714052  0.007234  0.704376  0.733582
145.0    20.0  0.714600  0.006887  0.708023  0.733582
146.0    20.0  0.714600  0.006887  0.708023  0.733582
147.0    20.0  0.714600  0.006887  0.708023  0.733582
148.0    20.0  0.714600  0.006887  0.708023  0.733582
149.0    20.0  0.714600  0.006887  0.708023  0.733582
150.0    20.0  0.714600  0.006887  0.708023  0.733582
151.0    20.0  0.715878  0.006756  0.708023  0.733582
152.0    20.0  0.715878  0.006756  0.708023  0.733582
153.0    20.0  0.716243  0.006515  0.708023  0.733582
154.0    20.0  0.716243  0.006515  0.708023  0.733582
155.0    20.0  0.716426  0.006330  0.708023  0.733582
156.0    20.0  0.716426  0.006330  0.708023  0.733582
157.0    20.0  0.716426  0.006330  0.708023  0.733582
158.0    20.0  0.716426  0.006330  0.708023  0.733582
159.0    20.0  0.716426  0.006330  0.708023  0.733582
160.0    20.0  0.716426  0.006330  0.708023  0.733582
161.0    20.0  0.716792  0.006039  0.711685  0.733582
162.0    20.0  0.716792  0.006039  0.711685  0.733582
163.0    20.0  0.716792  0.006039  0.711685  0.733582
164.0    20.0  0.716792  0.006039  0.711685  0.733582
165.0    20.0  0.716792  0.006039  0.711685  0.733582
166.0    20.0  0.716792  0.006039  0.711685  0.733582
167.0    20.0  0.716792  0.006039  0.711685  0.733582
168.0    20.0  0.716792  0.006039  0.711685  0.733582
169.0    20.0  0.716792  0.006039  0.711685  0.733582
170.0    20.0  0.717339  0.006047  0.711685  0.733582
171.0    20.0  0.717339  0.006047  0.711685  0.733582
172.0    20.0  0.717339  0.006047  0.711685  0.733582
173.0    20.0  0.717339  0.006047  0.711685  0.733582
174.0    20.0  0.717339  0.006047  0.711685  0.733582
175.0    20.0  0.717521  0.005927  0.711685  0.733582
176.0    20.0  0.717521  0.005927  0.711685  0.733582
177.0    20.0  0.717521  0.005927  0.711685  0.733582
178.0    20.0  0.717521  0.005927  0.711685  0.733582
179.0    20.0  0.717521  0.005927  0.711685  0.733582
180.0    20.0  0.717521  0.005927  0.711685  0.733582
181.0    20.0  0.717521  0.005927  0.711685  0.733582
182.0    20.0  0.717521  0.005927  0.711685  0.733582
183.0    20.0  0.718068  0.005868  0.711685  0.733582
184.0    20.0  0.718068  0.005868  0.711685  0.733582
185.0    20.0  0.718068  0.005868  0.711685  0.733582
186.0    20.0  0.718250  0.005722  0.711685  0.733582
187.0    20.0  0.718250  0.005722  0.711685  0.733582
188.0    20.0  0.718250  0.005722  0.711685  0.733582
189.0    20.0  0.718250  0.005722  0.711685  0.733582
190.0    20.0  0.718615  0.005521  0.711685  0.733582
191.0    20.0  0.718615  0.005521  0.711685  0.733582
192.0    20.0  0.718615  0.005521  0.711685  0.733582
193.0    20.0  0.718615  0.005521  0.711685  0.733582
194.0    20.0  0.718615  0.005521  0.711685  0.733582
195.0    20.0  0.718615  0.005521  0.711685  0.733582
196.0    20.0  0.718615  0.005521  0.711685  0.733582
197.0    20.0  0.718797  0.005346  0.711685  0.733582
198.0    20.0  0.718797  0.005346  0.711685  0.733582
199.0    20.0  0.718797  0.005346  0.711685  0.733582
200.0    20.0  0.718797  0.005346  0.711685  0.733582
201.0    20.0  0.718797  0.005346  0.711685  0.733582
202.0    20.0  0.718797  0.005346  0.711685  0.733582
203.0    20.0  0.718797  0.005346  0.711685  0.733582
204.0    20.0  0.718797  0.005346  0.711685  0.733582
205.0    20.0  0.718797  0.005346  0.711685  0.733582
206.0    20.0  0.718797  0.005346  0.711685  0.733582
207.0    20.0  0.718797  0.005346  0.711685  0.733582
208.0    20.0  0.718980  0.005160  0.711685  0.733582
209.0    20.0  0.718980  0.005160  0.711685  0.733582
210.0    20.0  0.718980  0.005160  0.711685  0.733582
211.0    20.0  0.719162  0.004959  0.715332  0.733582
212.0    20.0  0.719162  0.004959  0.715332  0.733582
213.0    20.0  0.719162  0.004959  0.715332  0.733582
214.0    20.0  0.719162  0.004959  0.715332  0.733582
215.0    20.0  0.719162  0.004959  0.715332  0.733582
216.0    20.0  0.719162  0.004959  0.715332  0.733582
217.0    20.0  0.719162  0.004959  0.715332  0.733582
218.0    20.0  0.719162  0.004959  0.715332  0.733582
219.0    20.0  0.719344  0.004881  0.715332  0.733582
220.0    20.0  0.719344  0.004881  0.715332  0.733582
221.0    20.0  0.719344  0.004881  0.715332  0.733582
222.0    20.0  0.719344  0.004881  0.715332  0.733582
223.0    20.0  0.719527  0.004795  0.715332  0.733582
224.0    20.0  0.719527  0.004795  0.715332  0.733582
225.0    20.0  0.719527  0.004795  0.715332  0.733582
226.0    20.0  0.719527  0.004795  0.715332  0.733582
227.0    20.0  0.719527  0.004795  0.715332  0.733582
228.0    20.0  0.719527  0.004795  0.715332  0.733582
229.0    20.0  0.719527  0.004795  0.715332  0.733582
230.0    20.0  0.719527  0.004795  0.715332  0.733582
231.0    20.0  0.719527  0.004795  0.715332  0.733582
232.0    20.0  0.719527  0.004795  0.715332  0.733582
233.0    20.0  0.719527  0.004795  0.715332  0.733582
234.0    20.0  0.719527  0.004795  0.715332  0.733582
235.0    20.0  0.719527  0.004795  0.715332  0.733582
236.0    20.0  0.719527  0.004795  0.715332  0.733582
237.0    20.0  0.719527  0.004795  0.715332  0.733582
238.0    20.0  0.719527  0.004795  0.715332  0.733582
239.0    20.0  0.719527  0.004795  0.715332  0.733582
240.0    20.0  0.719527  0.004795  0.715332  0.733582
241.0    20.0  0.719527  0.004795  0.715332  0.733582
242.0    20.0  0.719527  0.004795  0.715332  0.733582
243.0    20.0  0.719527  0.004795  0.715332  0.733582
244.0    20.0  0.719527  0.004795  0.715332  0.733582
245.0    20.0  0.719527  0.004795  0.715332  0.733582
246.0    20.0  0.719527  0.004795  0.715332  0.733582
247.0    20.0  0.719527  0.004795  0.715332  0.733582
248.0    20.0  0.719527  0.004795  0.715332  0.733582
249.0    20.0  0.719527  0.004795  0.715332  0.733582
250.0    20.0  0.719527  0.004795  0.715332  0.733582
251.0    20.0  0.719527  0.004795  0.715332  0.733582
252.0    20.0  0.719527  0.004795  0.715332  0.733582
253.0    20.0  0.719527  0.004795  0.715332  0.733582
254.0    20.0  0.719527  0.004795  0.715332  0.733582
255.0    20.0  0.719527  0.004795  0.715332  0.733582
256.0    20.0  0.719891  0.004740  0.715332  0.733582
257.0    20.0  0.719891  0.004740  0.715332  0.733582
258.0    20.0  0.719891  0.004740  0.715332  0.733582
259.0    20.0  0.719891  0.004740  0.715332  0.733582
260.0    20.0  0.719891  0.004740  0.715332  0.733582
261.0    20.0  0.720074  0.004630  0.715332  0.733582
262.0    20.0  0.720074  0.004630  0.715332  0.733582
263.0    20.0  0.720074  0.004630  0.715332  0.733582
264.0    20.0  0.720438  0.004528  0.715332  0.733582
265.0    20.0  0.720438  0.004528  0.715332  0.733582
266.0    20.0  0.720621  0.004390  0.715332  0.733582
267.0    20.0  0.720621  0.004390  0.715332  0.733582
268.0    20.0  0.720621  0.004390  0.715332  0.733582
269.0    20.0  0.720803  0.004240  0.715332  0.733582
270.0    20.0  0.720803  0.004240  0.715332  0.733582
271.0    20.0  0.720803  0.004240  0.715332  0.733582
272.0    20.0  0.720803  0.004240  0.715332  0.733582
273.0    20.0  0.720803  0.004240  0.715332  0.733582
274.0    20.0  0.720803  0.004240  0.715332  0.733582
275.0    20.0  0.720803  0.004240  0.715332  0.733582
276.0    20.0  0.720803  0.004240  0.715332  0.733582
277.0    20.0  0.720803  0.004240  0.715332  0.733582
278.0    20.0  0.721350  0.004204  0.715332  0.733582
279.0    20.0  0.721350  0.004204  0.715332  0.733582
280.0    20.0  0.721350  0.004204  0.715332  0.733582
281.0    20.0  0.721350  0.004204  0.715332  0.733582
282.0    20.0  0.721897  0.004096  0.715332  0.733582
283.0    20.0  0.721897  0.004096  0.715332  0.733582
284.0    20.0  0.723357  0.005486  0.718979  0.740875
285.0    20.0  0.723357  0.005486  0.718979  0.740875
286.0    20.0  0.723357  0.005486  0.718979  0.740875
287.0    20.0  0.723357  0.005486  0.718979  0.740875
288.0    20.0  0.723357  0.005486  0.718979  0.740875
289.0    20.0  0.723357  0.005486  0.718979  0.740875
290.0    20.0  0.723357  0.005486  0.718979  0.740875
291.0    20.0  0.723357  0.005486  0.718979  0.740875
292.0    20.0  0.724087  0.005817  0.718979  0.740875
293.0    20.0  0.724087  0.005817  0.718979  0.740875
294.0    20.0  0.724817  0.006042  0.718979  0.740875
295.0    20.0  0.724817  0.006042  0.718979  0.740875
296.0    20.0  0.724817  0.006042  0.718979  0.740875
297.0    20.0  0.725729  0.005803  0.718979  0.740875
298.0    20.0  0.725729  0.005803  0.718979  0.740875
299.0    20.0  0.726459  0.005826  0.718979  0.740875
300.0    20.0  0.726459  0.005826  0.718979  0.740875
301.0    20.0  0.726459  0.005826  0.718979  0.740875
302.0    20.0  0.726459  0.005826  0.718979  0.740875
303.0    20.0  0.726459  0.005826  0.718979  0.740875
304.0    20.0  0.726459  0.005826  0.718979  0.740875
305.0    20.0  0.726459  0.005826  0.718979  0.740875
306.0    20.0  0.726641  0.005644  0.718979  0.740875
307.0    20.0  0.726641  0.005644  0.718979  0.740875
308.0    20.0  0.726641  0.005644  0.718979  0.740875
309.0    20.0  0.726823  0.005449  0.718979  0.740875
310.0    20.0  0.727188  0.005147  0.722626  0.740875
311.0    20.0  0.727188  0.005147  0.722626  0.740875
312.0    20.0  0.727188  0.005147  0.722626  0.740875
313.0    20.0  0.727188  0.005147  0.722626  0.740875
314.0    20.0  0.727188  0.005147  0.722626  0.740875
315.0    20.0  0.727188  0.005147  0.722626  0.740875
316.0    20.0  0.727188  0.005147  0.722626  0.740875
317.0    20.0  0.727188  0.005147  0.722626  0.740875
318.0    20.0  0.727188  0.005147  0.722626  0.740875
319.0    20.0  0.727188  0.005147  0.722626  0.740875
320.0    20.0  0.727188  0.005147  0.722626  0.740875
321.0    20.0  0.727188  0.005147  0.722626  0.740875
322.0    20.0  0.727188  0.005147  0.722626  0.740875
323.0    20.0  0.727918  0.005095  0.722626  0.740875
324.0    20.0  0.727918  0.005095  0.722626  0.740875
325.0    20.0  0.727918  0.005095  0.722626  0.740875
326.0    20.0  0.728466  0.005086  0.722626  0.740875
327.0    20.0  0.728466  0.005086  0.722626  0.740875
328.0    20.0  0.728466  0.005086  0.722626  0.740875
329.0    20.0  0.728466  0.005086  0.722626  0.740875
330.0    20.0  0.728831  0.004913  0.722626  0.740875
331.0    20.0  0.729013  0.004744  0.722626  0.740875
332.0    20.0  0.729378  0.004513  0.722626  0.740875
333.0    20.0  0.729560  0.004306  0.722626  0.740875
334.0    20.0  0.729560  0.004306  0.722626  0.740875
335.0    20.0  0.729560  0.004306  0.722626  0.740875
336.0    20.0  0.729560  0.004306  0.722626  0.740875
337.0    20.0  0.729560  0.004306  0.722626  0.740875
338.0    20.0  0.729560  0.004306  0.722626  0.740875
339.0    20.0  0.729560  0.004306  0.722626  0.740875
340.0    20.0  0.729560  0.004306  0.722626  0.740875
341.0    20.0  0.729925  0.004001  0.726273  0.740875
342.0    20.0  0.729925  0.004001  0.726273  0.740875
343.0    20.0  0.729925  0.004001  0.726273  0.740875
344.0    20.0  0.729925  0.004001  0.726273  0.740875
345.0    20.0  0.729925  0.004001  0.726273  0.740875
346.0    20.0  0.729925  0.004001  0.726273  0.740875
347.0    20.0  0.729925  0.004001  0.726273  0.740875
348.0    20.0  0.729925  0.004001  0.726273  0.740875
349.0    20.0  0.729925  0.004001  0.726273  0.740875
350.0    20.0  0.729925  0.004001  0.726273  0.740875
351.0    20.0  0.729925  0.004001  0.726273  0.740875
352.0    20.0  0.729925  0.004001  0.726273  0.740875
353.0    20.0  0.729925  0.004001  0.726273  0.740875
354.0    20.0  0.729925  0.004001  0.726273  0.740875
355.0    20.0  0.729925  0.004001  0.726273  0.740875
356.0    20.0  0.729925  0.004001  0.726273  0.740875
357.0    20.0  0.729925  0.004001  0.726273  0.740875
358.0    20.0  0.729925  0.004001  0.726273  0.740875
359.0    20.0  0.729925  0.004001  0.726273  0.740875
360.0    20.0  0.729925  0.004001  0.726273  0.740875
361.0    20.0  0.729925  0.004001  0.726273  0.740875
362.0    20.0  0.729925  0.004001  0.726273  0.740875
363.0    20.0  0.730290  0.003985  0.726273  0.740875
364.0    20.0  0.730290  0.003985  0.726273  0.740875
365.0    20.0  0.730290  0.003985  0.726273  0.740875
366.0    20.0  0.730290  0.003985  0.726273  0.740875
367.0    20.0  0.730290  0.003985  0.726273  0.740875
368.0    20.0  0.730290  0.003985  0.726273  0.740875
369.0    20.0  0.730290  0.003985  0.726273  0.740875
370.0    20.0  0.730290  0.003985  0.726273  0.740875
371.0    20.0  0.730290  0.003985  0.726273  0.740875
372.0    20.0  0.730290  0.003985  0.726273  0.740875
373.0    20.0  0.730290  0.003985  0.726273  0.740875
374.0    20.0  0.730290  0.003985  0.726273  0.740875
375.0    20.0  0.730290  0.003985  0.726273  0.740875
376.0    20.0  0.730290  0.003985  0.726273  0.740875
377.0    20.0  0.730473  0.003879  0.726273  0.740875
378.0    20.0  0.730473  0.003879  0.726273  0.740875
379.0    20.0  0.730473  0.003879  0.726273  0.740875
380.0    20.0  0.730473  0.003879  0.726273  0.740875
381.0    20.0  0.730473  0.003879  0.726273  0.740875
382.0    20.0  0.730473  0.003879  0.726273  0.740875
383.0    20.0  0.730473  0.003879  0.726273  0.740875
384.0    20.0  0.730473  0.003879  0.726273  0.740875
385.0    20.0  0.730473  0.003879  0.726273  0.740875
386.0    20.0  0.730473  0.003879  0.726273  0.740875
387.0    20.0  0.730473  0.003879  0.726273  0.740875
388.0    20.0  0.730473  0.003879  0.726273  0.740875
389.0    20.0  0.730473  0.003879  0.726273  0.740875
390.0    20.0  0.730473  0.003879  0.726273  0.740875
391.0    20.0  0.730838  0.003809  0.726273  0.740875
392.0    20.0  0.730838  0.003809  0.726273  0.740875
393.0    20.0  0.730838  0.003809  0.726273  0.740875
394.0    20.0  0.730838  0.003809  0.726273  0.740875
395.0    20.0  0.730838  0.003809  0.726273  0.740875
396.0    20.0  0.730838  0.003809  0.726273  0.740875
397.0    20.0  0.730838  0.003809  0.726273  0.740875
398.0    20.0  0.730838  0.003809  0.726273  0.740875
399.0    20.0  0.730838  0.003809  0.726273  0.740875
400.0    20.0  0.730838  0.003809  0.726273  0.740875
401.0    20.0  0.730838  0.003809  0.726273  0.740875
402.0    20.0  0.730838  0.003809  0.726273  0.740875
403.0    20.0  0.730838  0.003809  0.726273  0.740875
404.0    20.0  0.730838  0.003809  0.726273  0.740875
405.0    20.0  0.731020  0.003671  0.726273  0.740875
406.0    20.0  0.731020  0.003671  0.726273  0.740875
407.0    20.0  0.731020  0.003671  0.726273  0.740875
408.0    20.0  0.731020  0.003671  0.726273  0.740875
409.0    20.0  0.731020  0.003671  0.726273  0.740875
410.0    20.0  0.731020  0.003671  0.726273  0.740875
411.0    20.0  0.731933  0.004542  0.726273  0.744522
412.0    20.0  0.731933  0.004542  0.726273  0.744522
413.0    20.0  0.731933  0.004542  0.726273  0.744522
414.0    20.0  0.731933  0.004542  0.726273  0.744522
415.0    20.0  0.732115  0.004382  0.726273  0.744522
416.0    20.0  0.732115  0.004382  0.726273  0.744522
417.0    20.0  0.732663  0.004301  0.726273  0.744522
418.0    20.0  0.732663  0.004301  0.726273  0.744522
419.0    20.0  0.732663  0.004301  0.726273  0.744522
420.0    20.0  0.732663  0.004301  0.726273  0.744522
421.0    20.0  0.732663  0.004301  0.726273  0.744522
422.0    20.0  0.732663  0.004301  0.726273  0.744522
423.0    20.0  0.732663  0.004301  0.726273  0.744522
424.0    20.0  0.732663  0.004301  0.726273  0.744522
425.0    20.0  0.732663  0.004301  0.726273  0.744522
426.0    20.0  0.732663  0.004301  0.726273  0.744522
427.0    20.0  0.732663  0.004301  0.726273  0.744522
428.0    20.0  0.732845  0.004099  0.726273  0.744522
429.0    20.0  0.732845  0.004099  0.726273  0.744522
430.0    20.0  0.732845  0.004099  0.726273  0.744522
431.0    20.0  0.732845  0.004099  0.726273  0.744522
432.0    20.0  0.732845  0.004099  0.726273  0.744522
433.0    20.0  0.732845  0.004099  0.726273  0.744522
434.0    20.0  0.732845  0.004099  0.726273  0.744522
435.0    20.0  0.732845  0.004099  0.726273  0.744522
436.0    20.0  0.732845  0.004099  0.726273  0.744522
437.0    20.0  0.732845  0.004099  0.726273  0.744522
438.0    20.0  0.732845  0.004099  0.726273  0.744522
439.0    20.0  0.732845  0.004099  0.726273  0.744522
440.0    20.0  0.732845  0.004099  0.726273  0.744522
441.0    20.0  0.732845  0.004099  0.726273  0.744522
442.0    20.0  0.732845  0.004099  0.726273  0.744522
443.0    20.0  0.732845  0.004099  0.726273  0.744522
444.0    20.0  0.732845  0.004099  0.726273  0.744522
445.0    20.0  0.732845  0.004099  0.726273  0.744522
446.0    20.0  0.732845  0.004099  0.726273  0.744522
447.0    20.0  0.732845  0.004099  0.726273  0.744522
448.0    20.0  0.733028  0.003878  0.729919  0.744522
449.0    20.0  0.733028  0.003878  0.729919  0.744522
450.0    20.0  0.733028  0.003878  0.729919  0.744522
451.0    20.0  0.733028  0.003878  0.729919  0.744522
452.0    20.0  0.733028  0.003878  0.729919  0.744522
453.0    20.0  0.733028  0.003878  0.729919  0.744522
454.0    20.0  0.733028  0.003878  0.729919  0.744522
455.0    20.0  0.733028  0.003878  0.729919  0.744522
456.0    20.0  0.733028  0.003878  0.729919  0.744522
457.0    20.0  0.733028  0.003878  0.729919  0.744522
458.0    20.0  0.733028  0.003878  0.729919  0.744522
459.0    20.0  0.733028  0.003878  0.729919  0.744522
460.0    20.0  0.733028  0.003878  0.729919  0.744522
461.0    20.0  0.733028  0.003878  0.729919  0.744522
462.0    20.0  0.733028  0.003878  0.729919  0.744522
463.0    20.0  0.733028  0.003878  0.729919  0.744522
464.0    20.0  0.733028  0.003878  0.729919  0.744522
465.0    20.0  0.733028  0.003878  0.729919  0.744522
466.0    20.0  0.733028  0.003878  0.729919  0.744522
467.0    20.0  0.733028  0.003878  0.729919  0.744522
468.0    20.0  0.733028  0.003878  0.729919  0.744522
469.0    20.0  0.733028  0.003878  0.729919  0.744522
470.0    20.0  0.733028  0.003878  0.729919  0.744522
471.0    20.0  0.733028  0.003878  0.729919  0.744522
472.0    20.0  0.733028  0.003878  0.729919  0.744522
473.0    20.0  0.733028  0.003878  0.729919  0.744522
474.0    20.0  0.733028  0.003878  0.729919  0.744522
475.0    20.0  0.733028  0.003878  0.729919  0.744522
476.0    20.0  0.733028  0.003878  0.729919  0.744522
477.0    20.0  0.733028  0.003878  0.729919  0.744522
478.0    20.0  0.733028  0.003878  0.729919  0.744522
479.0    20.0  0.733393  0.003912  0.729919  0.744522
480.0    20.0  0.733393  0.003912  0.729919  0.744522
481.0    20.0  0.733393  0.003912  0.729919  0.744522
482.0    20.0  0.733393  0.003912  0.729919  0.744522
483.0    20.0  0.733393  0.003912  0.729919  0.744522
484.0    20.0  0.733393  0.003912  0.729919  0.744522
485.0    20.0  0.733393  0.003912  0.729919  0.744522
486.0    20.0  0.733393  0.003912  0.729919  0.744522
487.0    20.0  0.733393  0.003912  0.729919  0.744522
488.0    20.0  0.733393  0.003912  0.729919  0.744522
489.0    20.0  0.733393  0.003912  0.729919  0.744522
490.0    20.0  0.733393  0.003912  0.729919  0.744522
491.0    20.0  0.733393  0.003912  0.729919  0.744522
492.0    20.0  0.733393  0.003912  0.729919  0.744522
493.0    20.0  0.733393  0.003912  0.729919  0.744522
494.0    20.0  0.733393  0.003912  0.729919  0.744522
495.0    20.0  0.733393  0.003912  0.729919  0.744522
496.0    20.0  0.733393  0.003912  0.729919  0.744522
497.0    20.0  0.733393  0.003912  0.729919  0.744522
498.0    20.0  0.733393  0.003912  0.729919  0.744522
499.0    20.0  0.733393  0.003912  0.729919  0.744522
