gen  nevals       avg       std       min       max
  0.0    20.0  0.599394  0.029748  0.551514  0.654541
  1.0    20.0  0.621213  0.021811  0.587875  0.672729
  2.0    20.0  0.635759  0.012553  0.618179  0.672729
  3.0    20.0  0.641821  0.010121  0.630310  0.672729
  4.0    20.0  0.646365  0.009823  0.636368  0.672729
  5.0    20.0  0.650606  0.011382  0.642426  0.684845
  6.0    20.0  0.654847  0.011253  0.642426  0.684845
  7.0    20.0  0.659392  0.010944  0.648483  0.684845
  8.0    20.0  0.668180  0.014329  0.654541  0.696976
  9.0    20.0  0.673637  0.013319  0.654541  0.696976
 10.0    20.0  0.678487  0.011088  0.666672  0.696976
 11.0    20.0  0.679093  0.010752  0.666672  0.696976
 12.0    20.0  0.681517  0.010581  0.666672  0.696976
 13.0    20.0  0.684849  0.008784  0.672729  0.696976
 14.0    20.0  0.686060  0.008042  0.672729  0.696976
 15.0    20.0  0.688181  0.006494  0.678787  0.696976
 16.0    20.0  0.688483  0.006183  0.678787  0.696976
 17.0    20.0  0.689392  0.005029  0.684845  0.696976
 18.0    20.0  0.691211  0.006495  0.684845  0.709091
 19.0    20.0  0.691514  0.006331  0.684845  0.709091
 20.0    20.0  0.692423  0.006026  0.684845  0.709091
 21.0    20.0  0.693333  0.005558  0.684845  0.709091
 22.0    20.0  0.694241  0.004489  0.690903  0.709091
 23.0    20.0  0.694241  0.004489  0.690903  0.709091
 24.0    20.0  0.694545  0.004458  0.690903  0.709091
 25.0    20.0  0.696668  0.005901  0.690903  0.715149
 26.0    20.0  0.698184  0.006803  0.690903  0.715149
 27.0    20.0  0.698488  0.006604  0.690903  0.715149
 28.0    20.0  0.698488  0.006604  0.690903  0.715149
 29.0    20.0  0.699095  0.006141  0.690903  0.715149
 30.0    20.0  0.699399  0.005873  0.696976  0.715149
 31.0    20.0  0.700307  0.006766  0.696976  0.715149
 32.0    20.0  0.701519  0.008099  0.696976  0.721207
 33.0    20.0  0.702428  0.008105  0.696976  0.721207
 34.0    20.0  0.702428  0.008105  0.696976  0.721207
 35.0    20.0  0.703639  0.007875  0.696976  0.721207
 36.0    20.0  0.704245  0.007566  0.696976  0.721207
 37.0    20.0  0.704548  0.007388  0.696976  0.721207
 38.0    20.0  0.704548  0.007388  0.696976  0.721207
 39.0    20.0  0.706366  0.009479  0.696976  0.733337
 40.0    20.0  0.707275  0.009406  0.696976  0.733337
 41.0    20.0  0.708183  0.009244  0.696976  0.733337
 42.0    20.0  0.710910  0.009976  0.696976  0.733337
 43.0    20.0  0.711516  0.009466  0.696976  0.733337
 44.0    20.0  0.712424  0.008672  0.703033  0.733337
 45.0    20.0  0.712424  0.008672  0.703033  0.733337
 46.0    20.0  0.713030  0.008414  0.703033  0.733337
 47.0    20.0  0.714848  0.007539  0.703033  0.733337
 48.0    20.0  0.714848  0.007539  0.703033  0.733337
 49.0    20.0  0.716059  0.006715  0.709091  0.733337
 50.0    20.0  0.716665  0.006605  0.709091  0.733337
 51.0    20.0  0.717877  0.007293  0.709091  0.733337
 52.0    20.0  0.717877  0.007293  0.709091  0.733337
 53.0    20.0  0.717877  0.007293  0.709091  0.733337
 54.0    20.0  0.718180  0.007043  0.709091  0.733337
 55.0    20.0  0.718786  0.006751  0.709091  0.733337
 56.0    20.0  0.718786  0.006751  0.709091  0.733337
 57.0    20.0  0.719695  0.006607  0.715149  0.733337
 58.0    20.0  0.720302  0.006718  0.715149  0.733337
 59.0    20.0  0.720908  0.006772  0.715149  0.733337
 60.0    20.0  0.722121  0.006986  0.715149  0.733337
 61.0    20.0  0.722121  0.006986  0.715149  0.733337
 62.0    20.0  0.723029  0.006389  0.715149  0.733337
 63.0    20.0  0.724242  0.005911  0.715149  0.733337
 64.0    20.0  0.724242  0.005911  0.715149  0.733337
 65.0    20.0  0.725455  0.006389  0.715149  0.739395
 66.0    20.0  0.725455  0.006389  0.715149  0.739395
 67.0    20.0  0.726668  0.005390  0.721207  0.739395
 68.0    20.0  0.727577  0.005902  0.721207  0.739395
 69.0    20.0  0.727881  0.005720  0.721207  0.739395
 70.0    20.0  0.727881  0.005720  0.721207  0.739395
 71.0    20.0  0.727881  0.005720  0.721207  0.739395
 72.0    20.0  0.728487  0.005623  0.721207  0.739395
 73.0    20.0  0.728487  0.005623  0.721207  0.739395
 74.0    20.0  0.730003  0.006203  0.721207  0.745453
 75.0    20.0  0.730003  0.006203  0.721207  0.745453
 76.0    20.0  0.731216  0.005835  0.721207  0.745453
 77.0    20.0  0.731520  0.005452  0.727280  0.745453
 78.0    20.0  0.732429  0.006140  0.727280  0.745453
 79.0    20.0  0.733035  0.006200  0.727280  0.745453
 80.0    20.0  0.733943  0.006027  0.727280  0.745453
 81.0    20.0  0.734246  0.005834  0.727280  0.745453
 82.0    20.0  0.734246  0.005834  0.727280  0.745453
 83.0    20.0  0.734246  0.005834  0.727280  0.745453
 84.0    20.0  0.734246  0.005834  0.727280  0.745453
 85.0    20.0  0.734852  0.005376  0.727280  0.745453
 86.0    20.0  0.734852  0.005376  0.727280  0.745453
 87.0    20.0  0.735760  0.005552  0.727280  0.745453
 88.0    20.0  0.735760  0.005552  0.727280  0.745453
 89.0    20.0  0.736669  0.004875  0.727280  0.745453
 90.0    20.0  0.736669  0.004875  0.727280  0.745453
 91.0    20.0  0.737275  0.004400  0.733337  0.745453
 92.0    20.0  0.737275  0.004400  0.733337  0.745453
 93.0    20.0  0.737275  0.004400  0.733337  0.745453
 94.0    20.0  0.737275  0.004400  0.733337  0.745453
 95.0    20.0  0.738486  0.006140  0.733337  0.757568
 96.0    20.0  0.739092  0.006200  0.733337  0.757568
 97.0    20.0  0.739092  0.006200  0.733337  0.757568
 98.0    20.0  0.739092  0.006200  0.733337  0.757568
 99.0    20.0  0.739092  0.006200  0.733337  0.757568
100.0    20.0  0.739698  0.006200  0.733337  0.757568
101.0    20.0  0.740910  0.007136  0.733337  0.757568
102.0    20.0  0.740910  0.007136  0.733337  0.757568
103.0    20.0  0.740910  0.007136  0.733337  0.757568
104.0    20.0  0.740910  0.007136  0.733337  0.757568
105.0    20.0  0.740910  0.007136  0.733337  0.757568
106.0    20.0  0.741212  0.006933  0.733337  0.757568
107.0    20.0  0.741818  0.006746  0.733337  0.757568
108.0    20.0  0.741818  0.006746  0.733337  0.757568
109.0    20.0  0.741818  0.006746  0.733337  0.757568
110.0    20.0  0.741818  0.006746  0.733337  0.757568
111.0    20.0  0.741818  0.006746  0.733337  0.757568
112.0    20.0  0.741818  0.006746  0.733337  0.757568
113.0    20.0  0.741818  0.006746  0.733337  0.757568
114.0    20.0  0.741818  0.006746  0.733337  0.757568
115.0    20.0  0.741818  0.006746  0.733337  0.757568
116.0    20.0  0.742727  0.006200  0.733337  0.757568
117.0    20.0  0.742727  0.006200  0.733337  0.757568
118.0    20.0  0.742727  0.006200  0.733337  0.757568
119.0    20.0  0.742727  0.006200  0.733337  0.757568
120.0    20.0  0.742727  0.006200  0.733337  0.757568
121.0    20.0  0.742727  0.006200  0.733337  0.757568
122.0    20.0  0.742727  0.006200  0.733337  0.757568
123.0    20.0  0.743333  0.005834  0.733337  0.757568
124.0    20.0  0.743333  0.005834  0.733337  0.757568
125.0    20.0  0.743636  0.005452  0.739395  0.757568
126.0    20.0  0.743636  0.005452  0.739395  0.757568
127.0    20.0  0.743636  0.005452  0.739395  0.757568
128.0    20.0  0.743636  0.005452  0.739395  0.757568
129.0    20.0  0.743636  0.005452  0.739395  0.757568
130.0    20.0  0.743636  0.005452  0.739395  0.757568
131.0    20.0  0.743636  0.005452  0.739395  0.757568
132.0    20.0  0.744544  0.005511  0.739395  0.757568
133.0    20.0  0.745756  0.005897  0.739395  0.757568
134.0    20.0  0.746362  0.005834  0.739395  0.757568
135.0    20.0  0.746664  0.005618  0.739395  0.757568
136.0    20.0  0.746664  0.005618  0.739395  0.757568
137.0    20.0  0.746664  0.005618  0.739395  0.757568
138.0    20.0  0.746664  0.005618  0.739395  0.757568
139.0    20.0  0.747573  0.005834  0.739395  0.757568
140.0    20.0  0.748785  0.004875  0.745453  0.757568
141.0    20.0  0.749390  0.005167  0.745453  0.757568
142.0    20.0  0.749390  0.005167  0.745453  0.757568
143.0    20.0  0.749390  0.005167  0.745453  0.757568
144.0    20.0  0.749390  0.005167  0.745453  0.757568
145.0    20.0  0.749390  0.005167  0.745453  0.757568
146.0    20.0  0.749390  0.005167  0.745453  0.757568
147.0    20.0  0.749390  0.005167  0.745453  0.757568
148.0    20.0  0.749693  0.005104  0.745453  0.757568
149.0    20.0  0.749693  0.005104  0.745453  0.757568
150.0    20.0  0.750603  0.005836  0.745453  0.763641
151.0    20.0  0.750603  0.005836  0.745453  0.763641
152.0    20.0  0.750603  0.005836  0.745453  0.763641
153.0    20.0  0.750603  0.005836  0.745453  0.763641
154.0    20.0  0.750906  0.005717  0.745453  0.763641
155.0    20.0  0.751815  0.006203  0.745453  0.763641
156.0    20.0  0.751815  0.006203  0.745453  0.763641
157.0    20.0  0.751815  0.006203  0.745453  0.763641
158.0    20.0  0.751815  0.006203  0.745453  0.763641
159.0    20.0  0.751815  0.006203  0.745453  0.763641
160.0    20.0  0.751815  0.006203  0.745453  0.763641
161.0    20.0  0.751815  0.006203  0.745453  0.763641
162.0    20.0  0.751815  0.006203  0.745453  0.763641
163.0    20.0  0.752421  0.006143  0.745453  0.763641
164.0    20.0  0.753936  0.007762  0.745453  0.775757
165.0    20.0  0.753936  0.007762  0.745453  0.775757
166.0    20.0  0.753936  0.007762  0.745453  0.775757
167.0    20.0  0.754239  0.007540  0.745453  0.775757
168.0    20.0  0.754239  0.007540  0.745453  0.775757
169.0    20.0  0.754542  0.007299  0.745453  0.775757
170.0    20.0  0.754542  0.007299  0.745453  0.775757
171.0    20.0  0.754542  0.007299  0.745453  0.775757
172.0    20.0  0.754542  0.007299  0.745453  0.775757
173.0    20.0  0.754542  0.007299  0.745453  0.775757
174.0    20.0  0.754845  0.007036  0.745453  0.775757
175.0    20.0  0.754845  0.007036  0.745453  0.775757
176.0    20.0  0.755148  0.006750  0.745453  0.775757
177.0    20.0  0.755753  0.006386  0.745453  0.775757
178.0    20.0  0.755753  0.006386  0.745453  0.775757
179.0    20.0  0.755753  0.006386  0.745453  0.775757
180.0    20.0  0.755753  0.006386  0.745453  0.775757
181.0    20.0  0.756056  0.006024  0.751511  0.775757
182.0    20.0  0.756056  0.006024  0.751511  0.775757
183.0    20.0  0.756056  0.006024  0.751511  0.775757
184.0    20.0  0.756056  0.006024  0.751511  0.775757
185.0    20.0  0.756056  0.006024  0.751511  0.775757
186.0    20.0  0.756359  0.005940  0.751511  0.775757
187.0    20.0  0.757571  0.007173  0.751511  0.775757
188.0    20.0  0.757571  0.007173  0.751511  0.775757
189.0    20.0  0.757571  0.007173  0.751511  0.775757
190.0    20.0  0.757571  0.007173  0.751511  0.775757
191.0    20.0  0.757571  0.007173  0.751511  0.775757
192.0    20.0  0.757571  0.007173  0.751511  0.775757
193.0    20.0  0.757571  0.007173  0.751511  0.775757
194.0    20.0  0.757571  0.007173  0.751511  0.775757
195.0    20.0  0.757571  0.007173  0.751511  0.775757
196.0    20.0  0.757571  0.007173  0.751511  0.775757
197.0    20.0  0.757874  0.007037  0.751511  0.775757
198.0    20.0  0.757874  0.007037  0.751511  0.775757
199.0    20.0  0.757874  0.007037  0.751511  0.775757
200.0    20.0  0.757874  0.007037  0.751511  0.775757
201.0    20.0  0.757874  0.007037  0.751511  0.775757
202.0    20.0  0.757874  0.007037  0.751511  0.775757
203.0    20.0  0.757874  0.007037  0.751511  0.775757
204.0    20.0  0.758177  0.006885  0.751511  0.775757
205.0    20.0  0.758177  0.006885  0.751511  0.775757
206.0    20.0  0.759087  0.007141  0.751511  0.775757
207.0    20.0  0.759693  0.006985  0.751511  0.775757
208.0    20.0  0.759693  0.006985  0.751511  0.775757
209.0    20.0  0.759693  0.006985  0.751511  0.775757
210.0    20.0  0.759693  0.006985  0.751511  0.775757
211.0    20.0  0.759996  0.006752  0.751511  0.775757
212.0    20.0  0.759996  0.006752  0.751511  0.775757
213.0    20.0  0.759996  0.006752  0.751511  0.775757
214.0    20.0  0.759996  0.006752  0.751511  0.775757
215.0    20.0  0.759996  0.006752  0.751511  0.775757
216.0    20.0  0.760603  0.006502  0.751511  0.775757
217.0    20.0  0.760603  0.006502  0.751511  0.775757
218.0    20.0  0.760603  0.006502  0.751511  0.775757
219.0    20.0  0.760603  0.006502  0.751511  0.775757
220.0    20.0  0.760603  0.006502  0.751511  0.775757
221.0    20.0  0.760603  0.006502  0.751511  0.775757
222.0    20.0  0.761512  0.006439  0.751511  0.775757
223.0    20.0  0.761512  0.006439  0.751511  0.775757
224.0    20.0  0.762119  0.006026  0.757568  0.775757
225.0    20.0  0.762119  0.006026  0.757568  0.775757
226.0    20.0  0.762119  0.006026  0.757568  0.775757
227.0    20.0  0.762119  0.006026  0.757568  0.775757
228.0    20.0  0.762119  0.006026  0.757568  0.775757
229.0    20.0  0.762119  0.006026  0.757568  0.775757
230.0    20.0  0.762119  0.006026  0.757568  0.775757
231.0    20.0  0.762119  0.006026  0.757568  0.775757
232.0    20.0  0.762119  0.006026  0.757568  0.775757
233.0    20.0  0.762422  0.005942  0.757568  0.775757
234.0    20.0  0.762422  0.005942  0.757568  0.775757
235.0    20.0  0.762422  0.005942  0.757568  0.775757
236.0    20.0  0.762726  0.005840  0.757568  0.775757
237.0    20.0  0.762726  0.005840  0.757568  0.775757
238.0    20.0  0.762726  0.005840  0.757568  0.775757
239.0    20.0  0.762726  0.005840  0.757568  0.775757
240.0    20.0  0.762726  0.005840  0.757568  0.775757
241.0    20.0  0.762726  0.005840  0.757568  0.775757
242.0    20.0  0.762726  0.005840  0.757568  0.775757
243.0    20.0  0.762726  0.005840  0.757568  0.775757
244.0    20.0  0.762726  0.005840  0.757568  0.775757
245.0    20.0  0.762726  0.005840  0.757568  0.775757
246.0    20.0  0.762726  0.005840  0.757568  0.775757
247.0    20.0  0.762726  0.005840  0.757568  0.775757
248.0    20.0  0.763635  0.006359  0.757568  0.775757
249.0    20.0  0.763635  0.006359  0.757568  0.775757
250.0    20.0  0.763635  0.006359  0.757568  0.775757
251.0    20.0  0.763635  0.006359  0.757568  0.775757
252.0    20.0  0.763635  0.006359  0.757568  0.775757
253.0    20.0  0.764545  0.006146  0.757568  0.775757
254.0    20.0  0.764545  0.006146  0.757568  0.775757
255.0    20.0  0.764545  0.006146  0.757568  0.775757
256.0    20.0  0.765152  0.006025  0.757568  0.775757
257.0    20.0  0.765152  0.006025  0.757568  0.775757
258.0    20.0  0.765759  0.005838  0.757568  0.775757
259.0    20.0  0.765759  0.005838  0.757568  0.775757
260.0    20.0  0.765759  0.005838  0.757568  0.775757
261.0    20.0  0.765759  0.005838  0.757568  0.775757
262.0    20.0  0.765759  0.005838  0.757568  0.775757
263.0    20.0  0.765759  0.005838  0.757568  0.775757
264.0    20.0  0.765759  0.005838  0.757568  0.775757
265.0    20.0  0.765759  0.005838  0.757568  0.775757
266.0    20.0  0.766971  0.006492  0.757568  0.781815
267.0    20.0  0.766971  0.006492  0.757568  0.781815
268.0    20.0  0.766971  0.006492  0.757568  0.781815
269.0    20.0  0.766971  0.006492  0.757568  0.781815
270.0    20.0  0.766971  0.006492  0.757568  0.781815
271.0    20.0  0.766971  0.006492  0.757568  0.781815
272.0    20.0  0.767274  0.006180  0.757568  0.781815
273.0    20.0  0.767274  0.006180  0.757568  0.781815
274.0    20.0  0.767274  0.006180  0.757568  0.781815
275.0    20.0  0.767274  0.006180  0.757568  0.781815
276.0    20.0  0.767274  0.006180  0.757568  0.781815
277.0    20.0  0.767274  0.006180  0.757568  0.781815
278.0    20.0  0.767274  0.006180  0.757568  0.781815
279.0    20.0  0.767274  0.006180  0.757568  0.781815
280.0    20.0  0.767274  0.006180  0.757568  0.781815
281.0    20.0  0.767274  0.006180  0.757568  0.781815
282.0    20.0  0.767274  0.006180  0.757568  0.781815
283.0    20.0  0.767274  0.006180  0.757568  0.781815
284.0    20.0  0.767274  0.006180  0.757568  0.781815
285.0    20.0  0.767882  0.005452  0.763641  0.781815
286.0    20.0  0.767882  0.005452  0.763641  0.781815
287.0    20.0  0.767882  0.005452  0.763641  0.781815
288.0    20.0  0.767882  0.005452  0.763641  0.781815
289.0    20.0  0.767882  0.005452  0.763641  0.781815
290.0    20.0  0.767882  0.005452  0.763641  0.781815
291.0    20.0  0.767882  0.005452  0.763641  0.781815
292.0    20.0  0.767882  0.005452  0.763641  0.781815
293.0    20.0  0.767882  0.005452  0.763641  0.781815
294.0    20.0  0.768790  0.006140  0.763641  0.781815
295.0    20.0  0.769396  0.006200  0.763641  0.781815
296.0    20.0  0.770002  0.006200  0.763641  0.781815
297.0    20.0  0.770002  0.006200  0.763641  0.781815
298.0    20.0  0.770911  0.006524  0.763641  0.781815
299.0    20.0  0.770911  0.006524  0.763641  0.781815
300.0    20.0  0.770911  0.006524  0.763641  0.781815
301.0    20.0  0.770911  0.006524  0.763641  0.781815
302.0    20.0  0.770911  0.006524  0.763641  0.781815
303.0    20.0  0.770911  0.006524  0.763641  0.781815
304.0    20.0  0.771214  0.006317  0.763641  0.781815
305.0    20.0  0.771819  0.006140  0.763641  0.781815
306.0    20.0  0.771819  0.006140  0.763641  0.781815
307.0    20.0  0.771819  0.006140  0.763641  0.781815
308.0    20.0  0.771819  0.006140  0.763641  0.781815
309.0    20.0  0.771819  0.006140  0.763641  0.781815
310.0    20.0  0.772728  0.005585  0.763641  0.781815
311.0    20.0  0.772728  0.005585  0.763641  0.781815
312.0    20.0  0.772728  0.005585  0.763641  0.781815
313.0    20.0  0.773637  0.005511  0.763641  0.781815
314.0    20.0  0.773637  0.005511  0.763641  0.781815
315.0    20.0  0.773637  0.005511  0.763641  0.781815
316.0    20.0  0.773637  0.005511  0.763641  0.781815
317.0    20.0  0.773637  0.005511  0.763641  0.781815
318.0    20.0  0.773637  0.005511  0.763641  0.781815
319.0    20.0  0.773637  0.005511  0.763641  0.781815
320.0    20.0  0.773637  0.005511  0.763641  0.781815
321.0    20.0  0.773637  0.005511  0.763641  0.781815
322.0    20.0  0.773637  0.005511  0.763641  0.781815
323.0    20.0  0.774545  0.005281  0.763641  0.781815
324.0    20.0  0.774545  0.005281  0.763641  0.781815
325.0    20.0  0.774848  0.004799  0.769699  0.781815
326.0    20.0  0.774848  0.004799  0.769699  0.781815
327.0    20.0  0.774848  0.004799  0.769699  0.781815
328.0    20.0  0.774848  0.004799  0.769699  0.781815
329.0    20.0  0.774848  0.004799  0.769699  0.781815
330.0    20.0  0.774848  0.004799  0.769699  0.781815
331.0    20.0  0.775151  0.004653  0.769699  0.781815
332.0    20.0  0.775151  0.004653  0.769699  0.781815
333.0    20.0  0.775151  0.004653  0.769699  0.781815
334.0    20.0  0.775151  0.004653  0.769699  0.781815
335.0    20.0  0.775151  0.004653  0.769699  0.781815
336.0    20.0  0.775757  0.004692  0.769699  0.781815
337.0    20.0  0.775757  0.004692  0.769699  0.781815
338.0    20.0  0.775757  0.004692  0.769699  0.781815
339.0    20.0  0.775757  0.004692  0.769699  0.781815
340.0    20.0  0.775757  0.004692  0.769699  0.781815
341.0    20.0  0.775757  0.004692  0.769699  0.781815
342.0    20.0  0.775757  0.004692  0.769699  0.781815
343.0    20.0  0.776060  0.004482  0.769699  0.781815
344.0    20.0  0.776060  0.004482  0.769699  0.781815
345.0    20.0  0.776060  0.004482  0.769699  0.781815
346.0    20.0  0.776060  0.004482  0.769699  0.781815
347.0    20.0  0.776060  0.004482  0.769699  0.781815
348.0    20.0  0.776060  0.004482  0.769699  0.781815
349.0    20.0  0.776060  0.004482  0.769699  0.781815
350.0    20.0  0.776060  0.004482  0.769699  0.781815
351.0    20.0  0.776060  0.004482  0.769699  0.781815
352.0    20.0  0.776060  0.004482  0.769699  0.781815
353.0    20.0  0.776060  0.004482  0.769699  0.781815
354.0    20.0  0.776060  0.004482  0.769699  0.781815
355.0    20.0  0.776060  0.004482  0.769699  0.781815
356.0    20.0  0.776060  0.004482  0.769699  0.781815
357.0    20.0  0.776060  0.004482  0.769699  0.781815
358.0    20.0  0.776060  0.004482  0.769699  0.781815
359.0    20.0  0.776060  0.004482  0.769699  0.781815
360.0    20.0  0.776060  0.004482  0.769699  0.781815
361.0    20.0  0.776060  0.004482  0.769699  0.781815
362.0    20.0  0.776060  0.004482  0.769699  0.781815
363.0    20.0  0.776060  0.004482  0.769699  0.781815
364.0    20.0  0.776060  0.004482  0.769699  0.781815
365.0    20.0  0.776060  0.004482  0.769699  0.781815
366.0    20.0  0.776060  0.004482  0.769699  0.781815
367.0    20.0  0.776060  0.004482  0.769699  0.781815
368.0    20.0  0.776060  0.004482  0.769699  0.781815
369.0    20.0  0.776060  0.004482  0.769699  0.781815
370.0    20.0  0.776060  0.004482  0.769699  0.781815
371.0    20.0  0.776060  0.004482  0.769699  0.781815
372.0    20.0  0.776060  0.004482  0.769699  0.781815
373.0    20.0  0.776060  0.004482  0.769699  0.781815
374.0    20.0  0.776060  0.004482  0.769699  0.781815
375.0    20.0  0.776060  0.004482  0.769699  0.781815
376.0    20.0  0.776968  0.004921  0.769699  0.787872
377.0    20.0  0.776968  0.004921  0.769699  0.787872
378.0    20.0  0.776968  0.004921  0.769699  0.787872
379.0    20.0  0.777574  0.004731  0.769699  0.787872
380.0    20.0  0.777574  0.004731  0.769699  0.787872
381.0    20.0  0.777574  0.004731  0.769699  0.787872
382.0    20.0  0.777574  0.004731  0.769699  0.787872
383.0    20.0  0.777574  0.004731  0.769699  0.787872
384.0    20.0  0.777574  0.004731  0.769699  0.787872
385.0    20.0  0.777574  0.004731  0.769699  0.787872
386.0    20.0  0.777574  0.004731  0.769699  0.787872
387.0    20.0  0.777574  0.004731  0.769699  0.787872
388.0    20.0  0.777574  0.004731  0.769699  0.787872
389.0    20.0  0.777574  0.004731  0.769699  0.787872
390.0    20.0  0.777877  0.004400  0.769699  0.787872
391.0    20.0  0.777877  0.004400  0.769699  0.787872
392.0    20.0  0.777877  0.004400  0.769699  0.787872
393.0    20.0  0.777877  0.004400  0.769699  0.787872
394.0    20.0  0.777877  0.004400  0.769699  0.787872
395.0    20.0  0.777877  0.004400  0.769699  0.787872
396.0    20.0  0.777877  0.004400  0.769699  0.787872
397.0    20.0  0.777877  0.004400  0.769699  0.787872
398.0    20.0  0.777877  0.004400  0.769699  0.787872
399.0    20.0  0.779089  0.004052  0.775757  0.787872
400.0    20.0  0.779089  0.004052  0.775757  0.787872
401.0    20.0  0.779089  0.004052  0.775757  0.787872
402.0    20.0  0.779089  0.004052  0.775757  0.787872
403.0    20.0  0.779089  0.004052  0.775757  0.787872
404.0    20.0  0.779089  0.004052  0.775757  0.787872
405.0    20.0  0.779089  0.004052  0.775757  0.787872
406.0    20.0  0.779089  0.004052  0.775757  0.787872
407.0    20.0  0.779089  0.004052  0.775757  0.787872
408.0    20.0  0.779089  0.004052  0.775757  0.787872
409.0    20.0  0.779089  0.004052  0.775757  0.787872
410.0    20.0  0.779089  0.004052  0.775757  0.787872
411.0    20.0  0.779089  0.004052  0.775757  0.787872
412.0    20.0  0.779089  0.004052  0.775757  0.787872
413.0    20.0  0.779089  0.004052  0.775757  0.787872
414.0    20.0  0.779089  0.004052  0.775757  0.787872
415.0    20.0  0.779089  0.004052  0.775757  0.787872
416.0    20.0  0.779089  0.004052  0.775757  0.787872
417.0    20.0  0.779089  0.004052  0.775757  0.787872
418.0    20.0  0.779089  0.004052  0.775757  0.787872
419.0    20.0  0.779089  0.004052  0.775757  0.787872
420.0    20.0  0.779089  0.004052  0.775757  0.787872
421.0    20.0  0.779089  0.004052  0.775757  0.787872
422.0    20.0  0.779089  0.004052  0.775757  0.787872
423.0    20.0  0.779089  0.004052  0.775757  0.787872
424.0    20.0  0.779694  0.004400  0.775757  0.787872
425.0    20.0  0.779694  0.004400  0.775757  0.787872
426.0    20.0  0.779694  0.004400  0.775757  0.787872
427.0    20.0  0.779694  0.004400  0.775757  0.787872
428.0    20.0  0.779694  0.004400  0.775757  0.787872
429.0    20.0  0.779694  0.004400  0.775757  0.787872
430.0    20.0  0.779694  0.004400  0.775757  0.787872
431.0    20.0  0.779694  0.004400  0.775757  0.787872
432.0    20.0  0.779694  0.004400  0.775757  0.787872
433.0    20.0  0.779694  0.004400  0.775757  0.787872
434.0    20.0  0.779694  0.004400  0.775757  0.787872
435.0    20.0  0.779694  0.004400  0.775757  0.787872
436.0    20.0  0.779694  0.004400  0.775757  0.787872
437.0    20.0  0.779694  0.004400  0.775757  0.787872
438.0    20.0  0.779694  0.004400  0.775757  0.787872
439.0    20.0  0.779694  0.004400  0.775757  0.787872
440.0    20.0  0.779694  0.004400  0.775757  0.787872
441.0    20.0  0.779694  0.004400  0.775757  0.787872
442.0    20.0  0.779694  0.004400  0.775757  0.787872
443.0    20.0  0.779694  0.004400  0.775757  0.787872
444.0    20.0  0.779694  0.004400  0.775757  0.787872
445.0    20.0  0.779694  0.004400  0.775757  0.787872
446.0    20.0  0.779694  0.004400  0.775757  0.787872
447.0    20.0  0.779694  0.004400  0.775757  0.787872
448.0    20.0  0.779694  0.004400  0.775757  0.787872
449.0    20.0  0.779694  0.004400  0.775757  0.787872
450.0    20.0  0.779694  0.004400  0.775757  0.787872
451.0    20.0  0.779694  0.004400  0.775757  0.787872
452.0    20.0  0.779694  0.004400  0.775757  0.787872
453.0    20.0  0.779694  0.004400  0.775757  0.787872
454.0    20.0  0.779694  0.004400  0.775757  0.787872
455.0    20.0  0.779694  0.004400  0.775757  0.787872
456.0    20.0  0.779694  0.004400  0.775757  0.787872
457.0    20.0  0.779694  0.004400  0.775757  0.787872
458.0    20.0  0.779694  0.004400  0.775757  0.787872
459.0    20.0  0.779997  0.004326  0.775757  0.787872
460.0    20.0  0.779997  0.004326  0.775757  0.787872
461.0    20.0  0.779997  0.004326  0.775757  0.787872
462.0    20.0  0.779997  0.004326  0.775757  0.787872
463.0    20.0  0.779997  0.004326  0.775757  0.787872
464.0    20.0  0.779997  0.004326  0.775757  0.787872
465.0    20.0  0.779997  0.004326  0.775757  0.787872
466.0    20.0  0.779997  0.004326  0.775757  0.787872
467.0    20.0  0.780603  0.004533  0.775757  0.787872
468.0    20.0  0.780603  0.004533  0.775757  0.787872
469.0    20.0  0.780603  0.004533  0.775757  0.787872
470.0    20.0  0.780603  0.004533  0.775757  0.787872
471.0    20.0  0.780603  0.004533  0.775757  0.787872
472.0    20.0  0.780603  0.004533  0.775757  0.787872
473.0    20.0  0.780603  0.004533  0.775757  0.787872
474.0    20.0  0.780603  0.004533  0.775757  0.787872
475.0    20.0  0.780603  0.004533  0.775757  0.787872
476.0    20.0  0.780603  0.004533  0.775757  0.787872
477.0    20.0  0.780603  0.004533  0.775757  0.787872
478.0    20.0  0.780603  0.004533  0.775757  0.787872
479.0    20.0  0.780603  0.004533  0.775757  0.787872
480.0    20.0  0.780603  0.004533  0.775757  0.787872
481.0    20.0  0.780603  0.004533  0.775757  0.787872
482.0    20.0  0.780603  0.004533  0.775757  0.787872
483.0    20.0  0.780603  0.004533  0.775757  0.787872
484.0    20.0  0.780603  0.004533  0.775757  0.787872
485.0    20.0  0.780603  0.004533  0.775757  0.787872
486.0    20.0  0.780603  0.004533  0.775757  0.787872
487.0    20.0  0.780603  0.004533  0.775757  0.787872
488.0    20.0  0.780603  0.004533  0.775757  0.787872
489.0    20.0  0.780603  0.004533  0.775757  0.787872
490.0    20.0  0.780603  0.004533  0.775757  0.787872
491.0    20.0  0.780603  0.004533  0.775757  0.787872
492.0    20.0  0.780906  0.004400  0.775757  0.787872
493.0    20.0  0.780906  0.004400  0.775757  0.787872
494.0    20.0  0.781512  0.004052  0.775757  0.787872
495.0    20.0  0.781512  0.004052  0.775757  0.787872
496.0    20.0  0.781512  0.004052  0.775757  0.787872
497.0    20.0  0.781512  0.004052  0.775757  0.787872
498.0    20.0  0.781512  0.004052  0.775757  0.787872
499.0    20.0  0.781512  0.004052  0.775757  0.787872
