gen  nevals       avg       std       min       max
  0.0    20.0  0.585185  0.047876  0.506180  0.679016
  1.0    20.0  0.645677  0.039257  0.580246  0.728394
  2.0    20.0  0.670371  0.034281  0.629623  0.728394
  3.0    20.0  0.687657  0.032449  0.654327  0.777771
  4.0    20.0  0.707408  0.026215  0.679016  0.777771
  5.0    20.0  0.722221  0.028014  0.679016  0.777771
  6.0    20.0  0.735801  0.031329  0.703705  0.827164
  7.0    20.0  0.754319  0.028664  0.728394  0.827164
  8.0    20.0  0.767899  0.023942  0.728394  0.827164
  9.0    20.0  0.774072  0.028451  0.753082  0.851852
 10.0    20.0  0.774072  0.028451  0.753082  0.851852
 11.0    20.0  0.783949  0.031113  0.753082  0.851852
 12.0    20.0  0.795061  0.024818  0.753082  0.851852
 13.0    20.0  0.798765  0.023783  0.777771  0.851852
 14.0    20.0  0.804939  0.023297  0.777771  0.851852
 15.0    20.0  0.806174  0.022463  0.777771  0.851852
 16.0    20.0  0.812350  0.016377  0.802475  0.851852
 17.0    20.0  0.814819  0.018310  0.802475  0.851852
 18.0    20.0  0.814819  0.018310  0.802475  0.851852
 19.0    20.0  0.816054  0.018268  0.802475  0.851852
 20.0    20.0  0.816054  0.018268  0.802475  0.851852
 21.0    20.0  0.820992  0.025746  0.802475  0.901230
 22.0    20.0  0.824695  0.025776  0.802475  0.901230
 23.0    20.0  0.828398  0.025268  0.802475  0.901230
 24.0    20.0  0.838274  0.022728  0.802475  0.901230
 25.0    20.0  0.844446  0.019283  0.827164  0.901230
 26.0    20.0  0.845680  0.018923  0.827164  0.901230
 27.0    20.0  0.854321  0.020508  0.827164  0.901230
 28.0    20.0  0.855556  0.019557  0.827164  0.901230
 29.0    20.0  0.858025  0.017238  0.827164  0.901230
 30.0    20.0  0.858025  0.017238  0.827164  0.901230
 31.0    20.0  0.859259  0.015808  0.851852  0.901230
 32.0    20.0  0.859259  0.015808  0.851852  0.901230
 33.0    20.0  0.860493  0.016142  0.851852  0.901230
 34.0    20.0  0.860493  0.016142  0.851852  0.901230
 35.0    20.0  0.862962  0.016516  0.851852  0.901230
 36.0    20.0  0.865431  0.018268  0.851852  0.901230
 37.0    20.0  0.867900  0.017931  0.851852  0.901230
 38.0    20.0  0.869135  0.017631  0.851852  0.901230
 39.0    20.0  0.869135  0.017631  0.851852  0.901230
 40.0    20.0  0.871603  0.016745  0.851852  0.901230
 41.0    20.0  0.872838  0.016142  0.851852  0.901230
 42.0    20.0  0.875307  0.014554  0.851852  0.901230
 43.0    20.0  0.875307  0.014554  0.851852  0.901230
 44.0    20.0  0.877776  0.012283  0.851852  0.901230
 45.0    20.0  0.881479  0.009875  0.876541  0.901230
 46.0    20.0  0.881479  0.009875  0.876541  0.901230
 47.0    20.0  0.882713  0.010691  0.876541  0.901230
 48.0    20.0  0.883948  0.011314  0.876541  0.901230
 49.0    20.0  0.883948  0.011314  0.876541  0.901230
 50.0    20.0  0.883948  0.011314  0.876541  0.901230
 51.0    20.0  0.883948  0.011314  0.876541  0.901230
 52.0    20.0  0.883948  0.011314  0.876541  0.901230
 53.0    20.0  0.885182  0.011776  0.876541  0.901230
 54.0    20.0  0.885182  0.011776  0.876541  0.901230
 55.0    20.0  0.886417  0.012095  0.876541  0.901230
 56.0    20.0  0.887651  0.012283  0.876541  0.901230
 57.0    20.0  0.887651  0.012283  0.876541  0.901230
 58.0    20.0  0.888885  0.012344  0.876541  0.901230
 59.0    20.0  0.888885  0.012344  0.876541  0.901230
 60.0    20.0  0.888885  0.012344  0.876541  0.901230
 61.0    20.0  0.888885  0.012344  0.876541  0.901230
 62.0    20.0  0.888885  0.012344  0.876541  0.901230
 63.0    20.0  0.888885  0.012344  0.876541  0.901230
 64.0    20.0  0.888885  0.012344  0.876541  0.901230
 65.0    20.0  0.888885  0.012344  0.876541  0.901230
 66.0    20.0  0.888885  0.012344  0.876541  0.901230
 67.0    20.0  0.888885  0.012344  0.876541  0.901230
 68.0    20.0  0.890120  0.012283  0.876541  0.901230
 69.0    20.0  0.890120  0.012283  0.876541  0.901230
 70.0    20.0  0.891354  0.012095  0.876541  0.901230
 71.0    20.0  0.893823  0.013746  0.876541  0.925919
 72.0    20.0  0.895058  0.013238  0.876541  0.925919
 73.0    20.0  0.895058  0.013238  0.876541  0.925919
 74.0    20.0  0.895058  0.013238  0.876541  0.925919
 75.0    20.0  0.896292  0.012589  0.876541  0.925919
 76.0    20.0  0.899995  0.012283  0.876541  0.925919
 77.0    20.0  0.901230  0.011041  0.876541  0.925919
 78.0    20.0  0.901230  0.011041  0.876541  0.925919
 79.0    20.0  0.903699  0.007407  0.901230  0.925919
 80.0    20.0  0.903699  0.007407  0.901230  0.925919
 81.0    20.0  0.904933  0.008816  0.901230  0.925919
 82.0    20.0  0.904933  0.008816  0.901230  0.925919
 83.0    20.0  0.904933  0.008816  0.901230  0.925919
 84.0    20.0  0.906168  0.009875  0.901230  0.925919
 85.0    20.0  0.906168  0.009875  0.901230  0.925919
 86.0    20.0  0.906168  0.009875  0.901230  0.925919
 87.0    20.0  0.907402  0.010691  0.901230  0.925919
 88.0    20.0  0.907402  0.010691  0.901230  0.925919
 89.0    20.0  0.907402  0.010691  0.901230  0.925919
 90.0    20.0  0.907402  0.010691  0.901230  0.925919
 91.0    20.0  0.907402  0.010691  0.901230  0.925919
 92.0    20.0  0.907402  0.010691  0.901230  0.925919
 93.0    20.0  0.907402  0.010691  0.901230  0.925919
 94.0    20.0  0.908636  0.011314  0.901230  0.925919
 95.0    20.0  0.908636  0.011314  0.901230  0.925919
 96.0    20.0  0.908636  0.011314  0.901230  0.925919
 97.0    20.0  0.909871  0.011776  0.901230  0.925919
 98.0    20.0  0.909871  0.011776  0.901230  0.925919
 99.0    20.0  0.909871  0.011776  0.901230  0.925919
100.0    20.0  0.911105  0.012095  0.901230  0.925919
101.0    20.0  0.911105  0.012095  0.901230  0.925919
102.0    20.0  0.911105  0.012095  0.901230  0.925919
103.0    20.0  0.911105  0.012095  0.901230  0.925919
104.0    20.0  0.911105  0.012095  0.901230  0.925919
105.0    20.0  0.911105  0.012095  0.901230  0.925919
106.0    20.0  0.911105  0.012095  0.901230  0.925919
107.0    20.0  0.912340  0.012283  0.901230  0.925919
108.0    20.0  0.912340  0.012283  0.901230  0.925919
109.0    20.0  0.913574  0.012344  0.901230  0.925919
110.0    20.0  0.913574  0.012344  0.901230  0.925919
111.0    20.0  0.917278  0.014131  0.901230  0.950623
112.0    20.0  0.922217  0.014132  0.901230  0.950623
113.0    20.0  0.922217  0.014132  0.901230  0.950623
114.0    20.0  0.923451  0.013298  0.901230  0.950623
115.0    20.0  0.923451  0.013298  0.901230  0.950623
116.0    20.0  0.923451  0.013298  0.901230  0.950623
117.0    20.0  0.927155  0.012287  0.901230  0.950623
118.0    20.0  0.927155  0.012287  0.901230  0.950623
119.0    20.0  0.927155  0.012287  0.901230  0.950623
120.0    20.0  0.929625  0.011781  0.901230  0.950623
121.0    20.0  0.929625  0.011781  0.901230  0.950623
122.0    20.0  0.932095  0.010697  0.925919  0.950623
123.0    20.0  0.932095  0.010697  0.925919  0.950623
124.0    20.0  0.932095  0.010697  0.925919  0.950623
125.0    20.0  0.932095  0.010697  0.925919  0.950623
126.0    20.0  0.932095  0.010697  0.925919  0.950623
127.0    20.0  0.932095  0.010697  0.925919  0.950623
128.0    20.0  0.933330  0.011321  0.925919  0.950623
129.0    20.0  0.933330  0.011321  0.925919  0.950623
130.0    20.0  0.933330  0.011321  0.925919  0.950623
131.0    20.0  0.933330  0.011321  0.925919  0.950623
132.0    20.0  0.933330  0.011321  0.925919  0.950623
133.0    20.0  0.933330  0.011321  0.925919  0.950623
134.0    20.0  0.933330  0.011321  0.925919  0.950623
135.0    20.0  0.933330  0.011321  0.925919  0.950623
136.0    20.0  0.933330  0.011321  0.925919  0.950623
137.0    20.0  0.933330  0.011321  0.925919  0.950623
138.0    20.0  0.933330  0.011321  0.925919  0.950623
139.0    20.0  0.933330  0.011321  0.925919  0.950623
140.0    20.0  0.933330  0.011321  0.925919  0.950623
141.0    20.0  0.933330  0.011321  0.925919  0.950623
142.0    20.0  0.933330  0.011321  0.925919  0.950623
143.0    20.0  0.933330  0.011321  0.925919  0.950623
144.0    20.0  0.933330  0.011321  0.925919  0.950623
145.0    20.0  0.933330  0.011321  0.925919  0.950623
146.0    20.0  0.933330  0.011321  0.925919  0.950623
147.0    20.0  0.933330  0.011321  0.925919  0.950623
148.0    20.0  0.933330  0.011321  0.925919  0.950623
149.0    20.0  0.933330  0.011321  0.925919  0.950623
150.0    20.0  0.933330  0.011321  0.925919  0.950623
151.0    20.0  0.933330  0.011321  0.925919  0.950623
152.0    20.0  0.933330  0.011321  0.925919  0.950623
153.0    20.0  0.933330  0.011321  0.925919  0.950623
154.0    20.0  0.933330  0.011321  0.925919  0.950623
155.0    20.0  0.933330  0.011321  0.925919  0.950623
156.0    20.0  0.933330  0.011321  0.925919  0.950623
157.0    20.0  0.933330  0.011321  0.925919  0.950623
158.0    20.0  0.933330  0.011321  0.925919  0.950623
159.0    20.0  0.933330  0.011321  0.925919  0.950623
160.0    20.0  0.934565  0.011783  0.925919  0.950623
161.0    20.0  0.934565  0.011783  0.925919  0.950623
162.0    20.0  0.934565  0.011783  0.925919  0.950623
163.0    20.0  0.934565  0.011783  0.925919  0.950623
164.0    20.0  0.934565  0.011783  0.925919  0.950623
165.0    20.0  0.935800  0.012102  0.925919  0.950623
166.0    20.0  0.937035  0.012290  0.925919  0.950623
167.0    20.0  0.937035  0.012290  0.925919  0.950623
168.0    20.0  0.938271  0.012352  0.925919  0.950623
169.0    20.0  0.938271  0.012352  0.925919  0.950623
170.0    20.0  0.938271  0.012352  0.925919  0.950623
171.0    20.0  0.939506  0.012290  0.925919  0.950623
172.0    20.0  0.939506  0.012290  0.925919  0.950623
173.0    20.0  0.939506  0.012290  0.925919  0.950623
174.0    20.0  0.939506  0.012290  0.925919  0.950623
175.0    20.0  0.939506  0.012290  0.925919  0.950623
176.0    20.0  0.939506  0.012290  0.925919  0.950623
177.0    20.0  0.939506  0.012290  0.925919  0.950623
178.0    20.0  0.939506  0.012290  0.925919  0.950623
179.0    20.0  0.939506  0.012290  0.925919  0.950623
180.0    20.0  0.939506  0.012290  0.925919  0.950623
181.0    20.0  0.939506  0.012290  0.925919  0.950623
182.0    20.0  0.939506  0.012290  0.925919  0.950623
183.0    20.0  0.940741  0.012102  0.925919  0.950623
184.0    20.0  0.940741  0.012102  0.925919  0.950623
185.0    20.0  0.940741  0.012102  0.925919  0.950623
186.0    20.0  0.940741  0.012102  0.925919  0.950623
187.0    20.0  0.941976  0.011783  0.925919  0.950623
188.0    20.0  0.941976  0.011783  0.925919  0.950623
189.0    20.0  0.941976  0.011783  0.925919  0.950623
190.0    20.0  0.941976  0.011783  0.925919  0.950623
191.0    20.0  0.941976  0.011783  0.925919  0.950623
192.0    20.0  0.941976  0.011783  0.925919  0.950623
193.0    20.0  0.941976  0.011783  0.925919  0.950623
194.0    20.0  0.941976  0.011783  0.925919  0.950623
195.0    20.0  0.941976  0.011783  0.925919  0.950623
196.0    20.0  0.941976  0.011783  0.925919  0.950623
197.0    20.0  0.943211  0.011321  0.925919  0.950623
198.0    20.0  0.943211  0.011321  0.925919  0.950623
199.0    20.0  0.943211  0.011321  0.925919  0.950623
200.0    20.0  0.944447  0.010697  0.925919  0.950623
201.0    20.0  0.944447  0.010697  0.925919  0.950623
202.0    20.0  0.945682  0.009882  0.925919  0.950623
203.0    20.0  0.945682  0.009882  0.925919  0.950623
204.0    20.0  0.945682  0.009882  0.925919  0.950623
205.0    20.0  0.945682  0.009882  0.925919  0.950623
206.0    20.0  0.945682  0.009882  0.925919  0.950623
207.0    20.0  0.945682  0.009882  0.925919  0.950623
208.0    20.0  0.945682  0.009882  0.925919  0.950623
209.0    20.0  0.945682  0.009882  0.925919  0.950623
210.0    20.0  0.945682  0.009882  0.925919  0.950623
211.0    20.0  0.945682  0.009882  0.925919  0.950623
212.0    20.0  0.946917  0.008821  0.925919  0.950623
213.0    20.0  0.946917  0.008821  0.925919  0.950623
214.0    20.0  0.946917  0.008821  0.925919  0.950623
215.0    20.0  0.946917  0.008821  0.925919  0.950623
216.0    20.0  0.946917  0.008821  0.925919  0.950623
217.0    20.0  0.946917  0.008821  0.925919  0.950623
218.0    20.0  0.949387  0.005384  0.925919  0.950623
219.0    20.0  0.949387  0.005384  0.925919  0.950623
220.0    20.0  0.949387  0.005384  0.925919  0.950623
221.0    20.0  0.949387  0.005384  0.925919  0.950623
222.0    20.0  0.949387  0.005384  0.925919  0.950623
223.0    20.0  0.950623  0.000000  0.950623  0.950623
224.0    20.0  0.950623  0.000000  0.950623  0.950623
225.0    20.0  0.950623  0.000000  0.950623  0.950623
226.0    20.0  0.950623  0.000000  0.950623  0.950623
227.0    20.0  0.950623  0.000000  0.950623  0.950623
228.0    20.0  0.950623  0.000000  0.950623  0.950623
229.0    20.0  0.950623  0.000000  0.950623  0.950623
230.0    20.0  0.950623  0.000000  0.950623  0.950623
231.0    20.0  0.950623  0.000000  0.950623  0.950623
232.0    20.0  0.950623  0.000000  0.950623  0.950623
233.0    20.0  0.950623  0.000000  0.950623  0.950623
234.0    20.0  0.950623  0.000000  0.950623  0.950623
235.0    20.0  0.950623  0.000000  0.950623  0.950623
236.0    20.0  0.950623  0.000000  0.950623  0.950623
237.0    20.0  0.950623  0.000000  0.950623  0.950623
238.0    20.0  0.951857  0.005381  0.950623  0.975311
239.0    20.0  0.951857  0.005381  0.950623  0.975311
240.0    20.0  0.951857  0.005381  0.950623  0.975311
241.0    20.0  0.953091  0.007407  0.950623  0.975311
242.0    20.0  0.953091  0.007407  0.950623  0.975311
243.0    20.0  0.954326  0.008816  0.950623  0.975311
244.0    20.0  0.954326  0.008816  0.950623  0.975311
245.0    20.0  0.954326  0.008816  0.950623  0.975311
246.0    20.0  0.954326  0.008816  0.950623  0.975311
247.0    20.0  0.954326  0.008816  0.950623  0.975311
248.0    20.0  0.954326  0.008816  0.950623  0.975311
249.0    20.0  0.954326  0.008816  0.950623  0.975311
250.0    20.0  0.954326  0.008816  0.950623  0.975311
251.0    20.0  0.954326  0.008816  0.950623  0.975311
252.0    20.0  0.954326  0.008816  0.950623  0.975311
253.0    20.0  0.954326  0.008816  0.950623  0.975311
254.0    20.0  0.954326  0.008816  0.950623  0.975311
255.0    20.0  0.954326  0.008816  0.950623  0.975311
256.0    20.0  0.954326  0.008816  0.950623  0.975311
257.0    20.0  0.954326  0.008816  0.950623  0.975311
258.0    20.0  0.954326  0.008816  0.950623  0.975311
259.0    20.0  0.954326  0.008816  0.950623  0.975311
260.0    20.0  0.954326  0.008816  0.950623  0.975311
261.0    20.0  0.954326  0.008816  0.950623  0.975311
262.0    20.0  0.954326  0.008816  0.950623  0.975311
263.0    20.0  0.954326  0.008816  0.950623  0.975311
264.0    20.0  0.954326  0.008816  0.950623  0.975311
265.0    20.0  0.954326  0.008816  0.950623  0.975311
266.0    20.0  0.954326  0.008816  0.950623  0.975311
267.0    20.0  0.954326  0.008816  0.950623  0.975311
268.0    20.0  0.954326  0.008816  0.950623  0.975311
269.0    20.0  0.954326  0.008816  0.950623  0.975311
270.0    20.0  0.954326  0.008816  0.950623  0.975311
271.0    20.0  0.954326  0.008816  0.950623  0.975311
272.0    20.0  0.954326  0.008816  0.950623  0.975311
273.0    20.0  0.954326  0.008816  0.950623  0.975311
274.0    20.0  0.954326  0.008816  0.950623  0.975311
275.0    20.0  0.954326  0.008816  0.950623  0.975311
276.0    20.0  0.954326  0.008816  0.950623  0.975311
277.0    20.0  0.954326  0.008816  0.950623  0.975311
278.0    20.0  0.954326  0.008816  0.950623  0.975311
279.0    20.0  0.954326  0.008816  0.950623  0.975311
280.0    20.0  0.954326  0.008816  0.950623  0.975311
281.0    20.0  0.954326  0.008816  0.950623  0.975311
282.0    20.0  0.954326  0.008816  0.950623  0.975311
283.0    20.0  0.954326  0.008816  0.950623  0.975311
284.0    20.0  0.954326  0.008816  0.950623  0.975311
285.0    20.0  0.954326  0.008816  0.950623  0.975311
286.0    20.0  0.954326  0.008816  0.950623  0.975311
287.0    20.0  0.954326  0.008816  0.950623  0.975311
288.0    20.0  0.954326  0.008816  0.950623  0.975311
289.0    20.0  0.954326  0.008816  0.950623  0.975311
290.0    20.0  0.955560  0.009875  0.950623  0.975311
291.0    20.0  0.955560  0.009875  0.950623  0.975311
292.0    20.0  0.955560  0.009875  0.950623  0.975311
293.0    20.0  0.955560  0.009875  0.950623  0.975311
294.0    20.0  0.955560  0.009875  0.950623  0.975311
295.0    20.0  0.955560  0.009875  0.950623  0.975311
296.0    20.0  0.955560  0.009875  0.950623  0.975311
297.0    20.0  0.955560  0.009875  0.950623  0.975311
298.0    20.0  0.955560  0.009875  0.950623  0.975311
299.0    20.0  0.955560  0.009875  0.950623  0.975311
300.0    20.0  0.955560  0.009875  0.950623  0.975311
301.0    20.0  0.955560  0.009875  0.950623  0.975311
302.0    20.0  0.955560  0.009875  0.950623  0.975311
303.0    20.0  0.955560  0.009875  0.950623  0.975311
304.0    20.0  0.955560  0.009875  0.950623  0.975311
305.0    20.0  0.956795  0.010691  0.950623  0.975311
306.0    20.0  0.956795  0.010691  0.950623  0.975311
307.0    20.0  0.956795  0.010691  0.950623  0.975311
308.0    20.0  0.956795  0.010691  0.950623  0.975311
309.0    20.0  0.956795  0.010691  0.950623  0.975311
310.0    20.0  0.956795  0.010691  0.950623  0.975311
311.0    20.0  0.958029  0.011314  0.950623  0.975311
312.0    20.0  0.958029  0.011314  0.950623  0.975311
313.0    20.0  0.958029  0.011314  0.950623  0.975311
314.0    20.0  0.958029  0.011314  0.950623  0.975311
315.0    20.0  0.958029  0.011314  0.950623  0.975311
316.0    20.0  0.958029  0.011314  0.950623  0.975311
317.0    20.0  0.958029  0.011314  0.950623  0.975311
318.0    20.0  0.958029  0.011314  0.950623  0.975311
319.0    20.0  0.958029  0.011314  0.950623  0.975311
320.0    20.0  0.958029  0.011314  0.950623  0.975311
321.0    20.0  0.958029  0.011314  0.950623  0.975311
322.0    20.0  0.958029  0.011314  0.950623  0.975311
323.0    20.0  0.958029  0.011314  0.950623  0.975311
324.0    20.0  0.958029  0.011314  0.950623  0.975311
325.0    20.0  0.958029  0.011314  0.950623  0.975311
326.0    20.0  0.958029  0.011314  0.950623  0.975311
327.0    20.0  0.958029  0.011314  0.950623  0.975311
328.0    20.0  0.958029  0.011314  0.950623  0.975311
329.0    20.0  0.958029  0.011314  0.950623  0.975311
330.0    20.0  0.958029  0.011314  0.950623  0.975311
331.0    20.0  0.958029  0.011314  0.950623  0.975311
332.0    20.0  0.958029  0.011314  0.950623  0.975311
333.0    20.0  0.958029  0.011314  0.950623  0.975311
334.0    20.0  0.958029  0.011314  0.950623  0.975311
335.0    20.0  0.958029  0.011314  0.950623  0.975311
336.0    20.0  0.958029  0.011314  0.950623  0.975311
337.0    20.0  0.958029  0.011314  0.950623  0.975311
338.0    20.0  0.958029  0.011314  0.950623  0.975311
339.0    20.0  0.958029  0.011314  0.950623  0.975311
340.0    20.0  0.958029  0.011314  0.950623  0.975311
341.0    20.0  0.958029  0.011314  0.950623  0.975311
342.0    20.0  0.958029  0.011314  0.950623  0.975311
343.0    20.0  0.958029  0.011314  0.950623  0.975311
344.0    20.0  0.958029  0.011314  0.950623  0.975311
345.0    20.0  0.958029  0.011314  0.950623  0.975311
346.0    20.0  0.959264  0.011776  0.950623  0.975311
347.0    20.0  0.959264  0.011776  0.950623  0.975311
348.0    20.0  0.959264  0.011776  0.950623  0.975311
349.0    20.0  0.959264  0.011776  0.950623  0.975311
350.0    20.0  0.959264  0.011776  0.950623  0.975311
351.0    20.0  0.960498  0.012095  0.950623  0.975311
352.0    20.0  0.960498  0.012095  0.950623  0.975311
353.0    20.0  0.960498  0.012095  0.950623  0.975311
354.0    20.0  0.960498  0.012095  0.950623  0.975311
355.0    20.0  0.960498  0.012095  0.950623  0.975311
356.0    20.0  0.960498  0.012095  0.950623  0.975311
357.0    20.0  0.961732  0.012283  0.950623  0.975311
358.0    20.0  0.962967  0.012344  0.950623  0.975311
359.0    20.0  0.964201  0.012283  0.950623  0.975311
360.0    20.0  0.964201  0.012283  0.950623  0.975311
361.0    20.0  0.964201  0.012283  0.950623  0.975311
362.0    20.0  0.964201  0.012283  0.950623  0.975311
363.0    20.0  0.964201  0.012283  0.950623  0.975311
364.0    20.0  0.964201  0.012283  0.950623  0.975311
365.0    20.0  0.964201  0.012283  0.950623  0.975311
366.0    20.0  0.965436  0.012095  0.950623  0.975311
367.0    20.0  0.965436  0.012095  0.950623  0.975311
368.0    20.0  0.966670  0.011776  0.950623  0.975311
369.0    20.0  0.966670  0.011776  0.950623  0.975311
370.0    20.0  0.966670  0.011776  0.950623  0.975311
371.0    20.0  0.966670  0.011776  0.950623  0.975311
372.0    20.0  0.966670  0.011776  0.950623  0.975311
373.0    20.0  0.966670  0.011776  0.950623  0.975311
374.0    20.0  0.966670  0.011776  0.950623  0.975311
375.0    20.0  0.966670  0.011776  0.950623  0.975311
376.0    20.0  0.966670  0.011776  0.950623  0.975311
377.0    20.0  0.966670  0.011776  0.950623  0.975311
378.0    20.0  0.966670  0.011776  0.950623  0.975311
379.0    20.0  0.966670  0.011776  0.950623  0.975311
380.0    20.0  0.966670  0.011776  0.950623  0.975311
381.0    20.0  0.966670  0.011776  0.950623  0.975311
382.0    20.0  0.966670  0.011776  0.950623  0.975311
383.0    20.0  0.966670  0.011776  0.950623  0.975311
384.0    20.0  0.966670  0.011776  0.950623  0.975311
385.0    20.0  0.967905  0.011314  0.950623  0.975311
386.0    20.0  0.967905  0.011314  0.950623  0.975311
387.0    20.0  0.967905  0.011314  0.950623  0.975311
388.0    20.0  0.967905  0.011314  0.950623  0.975311
389.0    20.0  0.969139  0.010691  0.950623  0.975311
390.0    20.0  0.969139  0.010691  0.950623  0.975311
391.0    20.0  0.969139  0.010691  0.950623  0.975311
392.0    20.0  0.969139  0.010691  0.950623  0.975311
393.0    20.0  0.969139  0.010691  0.950623  0.975311
394.0    20.0  0.969139  0.010691  0.950623  0.975311
395.0    20.0  0.969139  0.010691  0.950623  0.975311
396.0    20.0  0.969139  0.010691  0.950623  0.975311
397.0    20.0  0.969139  0.010691  0.950623  0.975311
398.0    20.0  0.969139  0.010691  0.950623  0.975311
399.0    20.0  0.969139  0.010691  0.950623  0.975311
400.0    20.0  0.969139  0.010691  0.950623  0.975311
401.0    20.0  0.969139  0.010691  0.950623  0.975311
402.0    20.0  0.969139  0.010691  0.950623  0.975311
403.0    20.0  0.970374  0.009875  0.950623  0.975311
404.0    20.0  0.970374  0.009875  0.950623  0.975311
405.0    20.0  0.971608  0.008816  0.950623  0.975311
406.0    20.0  0.971608  0.008816  0.950623  0.975311
407.0    20.0  0.972842  0.007407  0.950623  0.975311
408.0    20.0  0.972842  0.007407  0.950623  0.975311
409.0    20.0  0.972842  0.007407  0.950623  0.975311
410.0    20.0  0.972842  0.007407  0.950623  0.975311
411.0    20.0  0.974077  0.005381  0.950623  0.975311
412.0    20.0  0.975311  0.000000  0.975311  0.975311
413.0    20.0  0.975311  0.000000  0.975311  0.975311
414.0    20.0  0.975311  0.000000  0.975311  0.975311
415.0    20.0  0.975311  0.000000  0.975311  0.975311
416.0    20.0  0.975311  0.000000  0.975311  0.975311
417.0    20.0  0.975311  0.000000  0.975311  0.975311
418.0    20.0  0.975311  0.000000  0.975311  0.975311
419.0    20.0  0.975311  0.000000  0.975311  0.975311
420.0    20.0  0.975311  0.000000  0.975311  0.975311
421.0    20.0  0.975311  0.000000  0.975311  0.975311
422.0    20.0  0.975311  0.000000  0.975311  0.975311
423.0    20.0  0.976546  0.005381  0.975311  1.000000
424.0    20.0  0.976546  0.005381  0.975311  1.000000
425.0    20.0  0.976546  0.005381  0.975311  1.000000
426.0    20.0  0.976546  0.005381  0.975311  1.000000
427.0    20.0  0.976546  0.005381  0.975311  1.000000
428.0    20.0  0.976546  0.005381  0.975311  1.000000
429.0    20.0  0.976546  0.005381  0.975311  1.000000
430.0    20.0  0.976546  0.005381  0.975311  1.000000
431.0    20.0  0.976546  0.005381  0.975311  1.000000
432.0    20.0  0.976546  0.005381  0.975311  1.000000
433.0    20.0  0.976546  0.005381  0.975311  1.000000
434.0    20.0  0.976546  0.005381  0.975311  1.000000
435.0    20.0  0.976546  0.005381  0.975311  1.000000
436.0    20.0  0.976546  0.005381  0.975311  1.000000
437.0    20.0  0.976546  0.005381  0.975311  1.000000
438.0    20.0  0.976546  0.005381  0.975311  1.000000
439.0    20.0  0.976546  0.005381  0.975311  1.000000
440.0    20.0  0.976546  0.005381  0.975311  1.000000
441.0    20.0  0.976546  0.005381  0.975311  1.000000
442.0    20.0  0.976546  0.005381  0.975311  1.000000
443.0    20.0  0.976546  0.005381  0.975311  1.000000
444.0    20.0  0.976546  0.005381  0.975311  1.000000
445.0    20.0  0.976546  0.005381  0.975311  1.000000
446.0    20.0  0.976546  0.005381  0.975311  1.000000
447.0    20.0  0.976546  0.005381  0.975311  1.000000
448.0    20.0  0.976546  0.005381  0.975311  1.000000
449.0    20.0  0.976546  0.005381  0.975311  1.000000
450.0    20.0  0.976546  0.005381  0.975311  1.000000
451.0    20.0  0.976546  0.005381  0.975311  1.000000
452.0    20.0  0.976546  0.005381  0.975311  1.000000
453.0    20.0  0.976546  0.005381  0.975311  1.000000
454.0    20.0  0.976546  0.005381  0.975311  1.000000
455.0    20.0  0.977780  0.007407  0.975311  1.000000
456.0    20.0  0.977780  0.007407  0.975311  1.000000
457.0    20.0  0.977780  0.007407  0.975311  1.000000
458.0    20.0  0.977780  0.007407  0.975311  1.000000
459.0    20.0  0.977780  0.007407  0.975311  1.000000
460.0    20.0  0.977780  0.007407  0.975311  1.000000
461.0    20.0  0.977780  0.007407  0.975311  1.000000
462.0    20.0  0.977780  0.007407  0.975311  1.000000
463.0    20.0  0.977780  0.007407  0.975311  1.000000
464.0    20.0  0.977780  0.007407  0.975311  1.000000
465.0    20.0  0.977780  0.007407  0.975311  1.000000
466.0    20.0  0.977780  0.007407  0.975311  1.000000
467.0    20.0  0.977780  0.007407  0.975311  1.000000
468.0    20.0  0.977780  0.007407  0.975311  1.000000
469.0    20.0  0.977780  0.007407  0.975311  1.000000
470.0    20.0  0.977780  0.007407  0.975311  1.000000
471.0    20.0  0.979015  0.008816  0.975311  1.000000
472.0    20.0  0.979015  0.008816  0.975311  1.000000
473.0    20.0  0.979015  0.008816  0.975311  1.000000
474.0    20.0  0.979015  0.008816  0.975311  1.000000
475.0    20.0  0.979015  0.008816  0.975311  1.000000
476.0    20.0  0.979015  0.008816  0.975311  1.000000
477.0    20.0  0.979015  0.008816  0.975311  1.000000
478.0    20.0  0.979015  0.008816  0.975311  1.000000
479.0    20.0  0.979015  0.008816  0.975311  1.000000
480.0    20.0  0.979015  0.008816  0.975311  1.000000
481.0    20.0  0.979015  0.008816  0.975311  1.000000
482.0    20.0  0.979015  0.008816  0.975311  1.000000
483.0    20.0  0.979015  0.008816  0.975311  1.000000
484.0    20.0  0.979015  0.008816  0.975311  1.000000
485.0    20.0  0.979015  0.008816  0.975311  1.000000
486.0    20.0  0.980249  0.009875  0.975311  1.000000
487.0    20.0  0.980249  0.009875  0.975311  1.000000
488.0    20.0  0.980249  0.009875  0.975311  1.000000
489.0    20.0  0.980249  0.009875  0.975311  1.000000
490.0    20.0  0.980249  0.009875  0.975311  1.000000
491.0    20.0  0.980249  0.009875  0.975311  1.000000
492.0    20.0  0.980249  0.009875  0.975311  1.000000
493.0    20.0  0.980249  0.009875  0.975311  1.000000
494.0    20.0  0.980249  0.009875  0.975311  1.000000
495.0    20.0  0.981483  0.010691  0.975311  1.000000
496.0    20.0  0.981483  0.010691  0.975311  1.000000
497.0    20.0  0.981483  0.010691  0.975311  1.000000
498.0    20.0  0.981483  0.010691  0.975311  1.000000
499.0    20.0  0.981483  0.010691  0.975311  1.000000
