gen  nevals       avg       std       min       max
  0.0    20.0  0.594118  0.012746  0.566177  0.612747
  1.0    20.0  0.603922  0.008610  0.593140  0.625000
  2.0    20.0  0.608089  0.008308  0.598038  0.627457
  3.0    20.0  0.610908  0.006339  0.602936  0.627457
  4.0    20.0  0.619117  0.007411  0.610291  0.639709
  5.0    20.0  0.624509  0.007045  0.615189  0.642151
  6.0    20.0  0.629289  0.006663  0.622543  0.647064
  7.0    20.0  0.634438  0.006858  0.625000  0.647064
  8.0    20.0  0.637133  0.006176  0.629898  0.649506
  9.0    20.0  0.639217  0.006181  0.629898  0.651962
 10.0    20.0  0.642280  0.006026  0.634811  0.656860
 11.0    20.0  0.645342  0.006892  0.637253  0.661758
 12.0    20.0  0.646813  0.006194  0.639709  0.661758
 13.0    20.0  0.648897  0.005134  0.642151  0.661758
 14.0    20.0  0.651104  0.005657  0.644608  0.666672
 15.0    20.0  0.652207  0.005474  0.647064  0.666672
 16.0    20.0  0.652207  0.005474  0.647064  0.666672
 17.0    20.0  0.652329  0.005385  0.647064  0.666672
 18.0    20.0  0.653799  0.005075  0.647064  0.666672
 19.0    20.0  0.654903  0.004425  0.649506  0.666672
 20.0    20.0  0.655762  0.004550  0.649506  0.666672
 21.0    20.0  0.657967  0.008218  0.651962  0.688721
 22.0    20.0  0.657967  0.008218  0.651962  0.688721
 23.0    20.0  0.658457  0.007988  0.651962  0.688721
 24.0    20.0  0.660173  0.008175  0.654419  0.688721
 25.0    20.0  0.662132  0.008102  0.654419  0.688721
 26.0    20.0  0.662621  0.007801  0.656860  0.688721
 27.0    20.0  0.662744  0.007728  0.656860  0.688721
 28.0    20.0  0.663847  0.007283  0.656860  0.688721
 29.0    20.0  0.664338  0.007124  0.656860  0.688721
 30.0    20.0  0.664338  0.007124  0.656860  0.688721
 31.0    20.0  0.665686  0.008070  0.656860  0.688721
 32.0    20.0  0.665809  0.007952  0.659317  0.688721
 33.0    20.0  0.666053  0.007785  0.659317  0.688721
 34.0    20.0  0.666421  0.007630  0.659317  0.688721
 35.0    20.0  0.666421  0.007630  0.659317  0.688721
 36.0    20.0  0.666788  0.007454  0.659317  0.688721
 37.0    20.0  0.666911  0.007350  0.661758  0.688721
 38.0    20.0  0.666911  0.007350  0.661758  0.688721
 39.0    20.0  0.667156  0.007256  0.661758  0.688721
 40.0    20.0  0.667402  0.007109  0.661758  0.688721
 41.0    20.0  0.667402  0.007109  0.661758  0.688721
 42.0    20.0  0.669609  0.007538  0.661758  0.688721
 43.0    20.0  0.670100  0.007245  0.664215  0.688721
 44.0    20.0  0.670590  0.007035  0.664215  0.688721
 45.0    20.0  0.671081  0.006914  0.664215  0.688721
 46.0    20.0  0.671081  0.006914  0.664215  0.688721
 47.0    20.0  0.672429  0.007156  0.666672  0.688721
 48.0    20.0  0.673042  0.006905  0.666672  0.688721
 49.0    20.0  0.673654  0.006588  0.666672  0.688721
 50.0    20.0  0.673654  0.006588  0.666672  0.688721
 51.0    20.0  0.673776  0.006480  0.666672  0.688721
 52.0    20.0  0.675124  0.007166  0.666672  0.691177
 53.0    20.0  0.675858  0.007013  0.669113  0.691177
 54.0    20.0  0.676839  0.006543  0.669113  0.691177
 55.0    20.0  0.677085  0.006289  0.671570  0.691177
 56.0    20.0  0.677085  0.006289  0.671570  0.691177
 57.0    20.0  0.677330  0.006164  0.671570  0.691177
 58.0    20.0  0.677330  0.006164  0.671570  0.691177
 59.0    20.0  0.677330  0.006164  0.671570  0.691177
 60.0    20.0  0.677943  0.006170  0.671570  0.691177
 61.0    20.0  0.677943  0.006170  0.671570  0.691177
 62.0    20.0  0.678065  0.006065  0.671570  0.691177
 63.0    20.0  0.678065  0.006065  0.671570  0.691177
 64.0    20.0  0.678188  0.005956  0.671570  0.691177
 65.0    20.0  0.679169  0.005635  0.671570  0.691177
 66.0    20.0  0.679292  0.005493  0.674026  0.691177
 67.0    20.0  0.679414  0.005401  0.674026  0.691177
 68.0    20.0  0.680148  0.005168  0.674026  0.691177
 69.0    20.0  0.680148  0.005168  0.674026  0.691177
 70.0    20.0  0.681985  0.005896  0.674026  0.698532
 71.0    20.0  0.682475  0.005397  0.676468  0.698532
 72.0    20.0  0.682475  0.005397  0.676468  0.698532
 73.0    20.0  0.682598  0.005285  0.676468  0.698532
 74.0    20.0  0.682721  0.005169  0.676468  0.698532
 75.0    20.0  0.684437  0.005528  0.678925  0.698532
 76.0    20.0  0.684437  0.005528  0.678925  0.698532
 77.0    20.0  0.684437  0.005528  0.678925  0.698532
 78.0    20.0  0.684559  0.005431  0.678925  0.698532
 79.0    20.0  0.684559  0.005431  0.678925  0.698532
 80.0    20.0  0.684559  0.005431  0.678925  0.698532
 81.0    20.0  0.684559  0.005431  0.678925  0.698532
 82.0    20.0  0.685539  0.004909  0.678925  0.698532
 83.0    20.0  0.685906  0.004539  0.681366  0.698532
 84.0    20.0  0.685906  0.004539  0.681366  0.698532
 85.0    20.0  0.686152  0.004418  0.681366  0.698532
 86.0    20.0  0.686765  0.004560  0.681366  0.698532
 87.0    20.0  0.686765  0.004560  0.681366  0.698532
 88.0    20.0  0.686765  0.004560  0.681366  0.698532
 89.0    20.0  0.687011  0.004392  0.681366  0.698532
 90.0    20.0  0.687011  0.004392  0.681366  0.698532
 91.0    20.0  0.687502  0.004138  0.683823  0.698532
 92.0    20.0  0.687502  0.004138  0.683823  0.698532
 93.0    20.0  0.687502  0.004138  0.683823  0.698532
 94.0    20.0  0.687502  0.004138  0.683823  0.698532
 95.0    20.0  0.687502  0.004138  0.683823  0.698532
 96.0    20.0  0.687502  0.004138  0.683823  0.698532
 97.0    20.0  0.687502  0.004138  0.683823  0.698532
 98.0    20.0  0.687746  0.004057  0.683823  0.698532
 99.0    20.0  0.688237  0.004145  0.683823  0.698532
100.0    20.0  0.688237  0.004145  0.683823  0.698532
101.0    20.0  0.688605  0.004063  0.683823  0.698532
102.0    20.0  0.688605  0.004063  0.683823  0.698532
103.0    20.0  0.688605  0.004063  0.683823  0.698532
104.0    20.0  0.689340  0.004444  0.683823  0.698532
105.0    20.0  0.689708  0.004273  0.683823  0.698532
106.0    20.0  0.690688  0.004998  0.686279  0.703430
107.0    20.0  0.691056  0.004930  0.686279  0.703430
108.0    20.0  0.691056  0.004930  0.686279  0.703430
109.0    20.0  0.691056  0.004930  0.686279  0.703430
110.0    20.0  0.691056  0.004930  0.686279  0.703430
111.0    20.0  0.691056  0.004930  0.686279  0.703430
112.0    20.0  0.691056  0.004930  0.686279  0.703430
113.0    20.0  0.691301  0.004807  0.686279  0.703430
114.0    20.0  0.691791  0.004577  0.686279  0.703430
115.0    20.0  0.691791  0.004577  0.686279  0.703430
116.0    20.0  0.691913  0.004460  0.686279  0.703430
117.0    20.0  0.692035  0.004336  0.686279  0.703430
118.0    20.0  0.692035  0.004336  0.686279  0.703430
119.0    20.0  0.692035  0.004336  0.686279  0.703430
120.0    20.0  0.692035  0.004336  0.686279  0.703430
121.0    20.0  0.692280  0.004137  0.686279  0.703430
122.0    20.0  0.692280  0.004137  0.686279  0.703430
123.0    20.0  0.692402  0.003992  0.688721  0.703430
124.0    20.0  0.692402  0.003992  0.688721  0.703430
125.0    20.0  0.692648  0.003908  0.688721  0.703430
126.0    20.0  0.693138  0.003999  0.688721  0.703430
127.0    20.0  0.693138  0.003999  0.688721  0.703430
128.0    20.0  0.693138  0.003999  0.688721  0.703430
129.0    20.0  0.693138  0.003999  0.688721  0.703430
130.0    20.0  0.693138  0.003999  0.688721  0.703430
131.0    20.0  0.693138  0.003999  0.688721  0.703430
132.0    20.0  0.693384  0.003869  0.688721  0.703430
133.0    20.0  0.693384  0.003869  0.688721  0.703430
134.0    20.0  0.693384  0.003869  0.688721  0.703430
135.0    20.0  0.693874  0.003628  0.688721  0.703430
136.0    20.0  0.694610  0.003584  0.691177  0.703430
137.0    20.0  0.694610  0.003584  0.691177  0.703430
138.0    20.0  0.694610  0.003584  0.691177  0.703430
139.0    20.0  0.694610  0.003584  0.691177  0.703430
140.0    20.0  0.694733  0.003506  0.691177  0.703430
141.0    20.0  0.694733  0.003506  0.691177  0.703430
142.0    20.0  0.694733  0.003506  0.691177  0.703430
143.0    20.0  0.694733  0.003506  0.691177  0.703430
144.0    20.0  0.694733  0.003506  0.691177  0.703430
145.0    20.0  0.694733  0.003506  0.691177  0.703430
146.0    20.0  0.694733  0.003506  0.691177  0.703430
147.0    20.0  0.694733  0.003506  0.691177  0.703430
148.0    20.0  0.694733  0.003506  0.691177  0.703430
149.0    20.0  0.694733  0.003506  0.691177  0.703430
150.0    20.0  0.694733  0.003506  0.691177  0.703430
151.0    20.0  0.694733  0.003506  0.691177  0.703430
152.0    20.0  0.694733  0.003506  0.691177  0.703430
153.0    20.0  0.694733  0.003506  0.691177  0.703430
154.0    20.0  0.694733  0.003506  0.691177  0.703430
155.0    20.0  0.694733  0.003506  0.691177  0.703430
156.0    20.0  0.694733  0.003506  0.691177  0.703430
157.0    20.0  0.694733  0.003506  0.691177  0.703430
158.0    20.0  0.694733  0.003506  0.691177  0.703430
159.0    20.0  0.694733  0.003506  0.691177  0.703430
160.0    20.0  0.694978  0.003419  0.691177  0.703430
161.0    20.0  0.694978  0.003419  0.691177  0.703430
162.0    20.0  0.694978  0.003419  0.691177  0.703430
163.0    20.0  0.695100  0.003323  0.691177  0.703430
164.0    20.0  0.695100  0.003323  0.691177  0.703430
165.0    20.0  0.695100  0.003323  0.691177  0.703430
166.0    20.0  0.695100  0.003323  0.691177  0.703430
167.0    20.0  0.695100  0.003323  0.691177  0.703430
168.0    20.0  0.695100  0.003323  0.691177  0.703430
169.0    20.0  0.695223  0.003219  0.691177  0.703430
170.0    20.0  0.695223  0.003219  0.691177  0.703430
171.0    20.0  0.695223  0.003219  0.691177  0.703430
172.0    20.0  0.695223  0.003219  0.691177  0.703430
173.0    20.0  0.695223  0.003219  0.691177  0.703430
174.0    20.0  0.695223  0.003219  0.691177  0.703430
175.0    20.0  0.695223  0.003219  0.691177  0.703430
176.0    20.0  0.695223  0.003219  0.691177  0.703430
177.0    20.0  0.695223  0.003219  0.691177  0.703430
178.0    20.0  0.695346  0.003108  0.691177  0.703430
179.0    20.0  0.695346  0.003108  0.691177  0.703430
180.0    20.0  0.695469  0.002987  0.691177  0.703430
181.0    20.0  0.695592  0.002855  0.693634  0.703430
182.0    20.0  0.695592  0.002855  0.693634  0.703430
183.0    20.0  0.695592  0.002855  0.693634  0.703430
184.0    20.0  0.695592  0.002855  0.693634  0.703430
185.0    20.0  0.695592  0.002855  0.693634  0.703430
186.0    20.0  0.695592  0.002855  0.693634  0.703430
187.0    20.0  0.696082  0.003285  0.693634  0.703430
188.0    20.0  0.696082  0.003285  0.693634  0.703430
189.0    20.0  0.697062  0.004925  0.693634  0.713242
190.0    20.0  0.697062  0.004925  0.693634  0.713242
191.0    20.0  0.697062  0.004925  0.693634  0.713242
192.0    20.0  0.697062  0.004925  0.693634  0.713242
193.0    20.0  0.697062  0.004925  0.693634  0.713242
194.0    20.0  0.697062  0.004925  0.693634  0.713242
195.0    20.0  0.697062  0.004925  0.693634  0.713242
196.0    20.0  0.697062  0.004925  0.693634  0.713242
197.0    20.0  0.697062  0.004925  0.693634  0.713242
198.0    20.0  0.697307  0.004870  0.693634  0.713242
199.0    20.0  0.697307  0.004870  0.693634  0.713242
200.0    20.0  0.697307  0.004870  0.693634  0.713242
201.0    20.0  0.697307  0.004870  0.693634  0.713242
202.0    20.0  0.697307  0.004870  0.693634  0.713242
203.0    20.0  0.697552  0.004802  0.693634  0.713242
204.0    20.0  0.697919  0.004769  0.693634  0.713242
205.0    20.0  0.697919  0.004769  0.693634  0.713242
206.0    20.0  0.697919  0.004769  0.693634  0.713242
207.0    20.0  0.697919  0.004769  0.693634  0.713242
208.0    20.0  0.697919  0.004769  0.693634  0.713242
209.0    20.0  0.698041  0.004688  0.693634  0.713242
210.0    20.0  0.698041  0.004688  0.693634  0.713242
211.0    20.0  0.698041  0.004688  0.693634  0.713242
212.0    20.0  0.698041  0.004688  0.693634  0.713242
213.0    20.0  0.698041  0.004688  0.693634  0.713242
214.0    20.0  0.698041  0.004688  0.693634  0.713242
215.0    20.0  0.698041  0.004688  0.693634  0.713242
216.0    20.0  0.698041  0.004688  0.693634  0.713242
217.0    20.0  0.698041  0.004688  0.693634  0.713242
218.0    20.0  0.698286  0.004578  0.693634  0.713242
219.0    20.0  0.698286  0.004578  0.693634  0.713242
220.0    20.0  0.698775  0.004308  0.693634  0.713242
221.0    20.0  0.698775  0.004308  0.693634  0.713242
222.0    20.0  0.699265  0.004252  0.693634  0.713242
223.0    20.0  0.699265  0.004252  0.693634  0.713242
224.0    20.0  0.699265  0.004252  0.693634  0.713242
225.0    20.0  0.699265  0.004252  0.693634  0.713242
226.0    20.0  0.699265  0.004252  0.693634  0.713242
227.0    20.0  0.699265  0.004252  0.693634  0.713242
228.0    20.0  0.699265  0.004252  0.693634  0.713242
229.0    20.0  0.699265  0.004252  0.693634  0.713242
230.0    20.0  0.699265  0.004252  0.693634  0.713242
231.0    20.0  0.699265  0.004252  0.693634  0.713242
232.0    20.0  0.699265  0.004252  0.693634  0.713242
233.0    20.0  0.699265  0.004252  0.693634  0.713242
234.0    20.0  0.699265  0.004252  0.693634  0.713242
235.0    20.0  0.699265  0.004252  0.693634  0.713242
236.0    20.0  0.699265  0.004252  0.693634  0.713242
237.0    20.0  0.699265  0.004252  0.693634  0.713242
238.0    20.0  0.699265  0.004252  0.693634  0.713242
239.0    20.0  0.699265  0.004252  0.693634  0.713242
240.0    20.0  0.699265  0.004252  0.693634  0.713242
241.0    20.0  0.699265  0.004252  0.693634  0.713242
242.0    20.0  0.699265  0.004252  0.693634  0.713242
243.0    20.0  0.699510  0.004057  0.693634  0.713242
244.0    20.0  0.699510  0.004057  0.693634  0.713242
245.0    20.0  0.699510  0.004057  0.693634  0.713242
246.0    20.0  0.699632  0.003913  0.696075  0.713242
247.0    20.0  0.699632  0.003913  0.696075  0.713242
248.0    20.0  0.699632  0.003913  0.696075  0.713242
249.0    20.0  0.699632  0.003913  0.696075  0.713242
250.0    20.0  0.699632  0.003913  0.696075  0.713242
251.0    20.0  0.699632  0.003913  0.696075  0.713242
252.0    20.0  0.700000  0.003907  0.696075  0.713242
253.0    20.0  0.700000  0.003907  0.696075  0.713242
254.0    20.0  0.700000  0.003907  0.696075  0.713242
255.0    20.0  0.700000  0.003907  0.696075  0.713242
256.0    20.0  0.700000  0.003907  0.696075  0.713242
257.0    20.0  0.700245  0.003806  0.696075  0.713242
258.0    20.0  0.700245  0.003806  0.696075  0.713242
259.0    20.0  0.700245  0.003806  0.696075  0.713242
260.0    20.0  0.700245  0.003806  0.696075  0.713242
261.0    20.0  0.700245  0.003806  0.696075  0.713242
262.0    20.0  0.700245  0.003806  0.696075  0.713242
263.0    20.0  0.700245  0.003806  0.696075  0.713242
264.0    20.0  0.700245  0.003806  0.696075  0.713242
265.0    20.0  0.700490  0.003685  0.696075  0.713242
266.0    20.0  0.700490  0.003685  0.696075  0.713242
267.0    20.0  0.700490  0.003685  0.696075  0.713242
268.0    20.0  0.700490  0.003685  0.696075  0.713242
269.0    20.0  0.700490  0.003685  0.696075  0.713242
270.0    20.0  0.700490  0.003685  0.696075  0.713242
271.0    20.0  0.700613  0.003575  0.696075  0.713242
272.0    20.0  0.700613  0.003575  0.696075  0.713242
273.0    20.0  0.700613  0.003575  0.696075  0.713242
274.0    20.0  0.700613  0.003575  0.696075  0.713242
275.0    20.0  0.700858  0.003420  0.698532  0.713242
276.0    20.0  0.700858  0.003420  0.698532  0.713242
277.0    20.0  0.700858  0.003420  0.698532  0.713242
278.0    20.0  0.700858  0.003420  0.698532  0.713242
279.0    20.0  0.700980  0.003379  0.698532  0.713242
280.0    20.0  0.700980  0.003379  0.698532  0.713242
281.0    20.0  0.700980  0.003379  0.698532  0.713242
282.0    20.0  0.700980  0.003379  0.698532  0.713242
283.0    20.0  0.700980  0.003379  0.698532  0.713242
284.0    20.0  0.700980  0.003379  0.698532  0.713242
285.0    20.0  0.700980  0.003379  0.698532  0.713242
286.0    20.0  0.700980  0.003379  0.698532  0.713242
287.0    20.0  0.700980  0.003379  0.698532  0.713242
288.0    20.0  0.700980  0.003379  0.698532  0.713242
289.0    20.0  0.700980  0.003379  0.698532  0.713242
290.0    20.0  0.700980  0.003379  0.698532  0.713242
291.0    20.0  0.701347  0.003491  0.698532  0.713242
292.0    20.0  0.701347  0.003491  0.698532  0.713242
293.0    20.0  0.701592  0.003456  0.698532  0.713242
294.0    20.0  0.701592  0.003456  0.698532  0.713242
295.0    20.0  0.701592  0.003456  0.698532  0.713242
296.0    20.0  0.701592  0.003456  0.698532  0.713242
297.0    20.0  0.701592  0.003456  0.698532  0.713242
298.0    20.0  0.701592  0.003456  0.698532  0.713242
299.0    20.0  0.701592  0.003456  0.698532  0.713242
300.0    20.0  0.701592  0.003456  0.698532  0.713242
301.0    20.0  0.701592  0.003456  0.698532  0.713242
302.0    20.0  0.701592  0.003456  0.698532  0.713242
303.0    20.0  0.701592  0.003456  0.698532  0.713242
304.0    20.0  0.701592  0.003456  0.698532  0.713242
305.0    20.0  0.701592  0.003456  0.698532  0.713242
306.0    20.0  0.701592  0.003456  0.698532  0.713242
307.0    20.0  0.702450  0.004546  0.698532  0.715683
308.0    20.0  0.702450  0.004546  0.698532  0.715683
309.0    20.0  0.702450  0.004546  0.698532  0.715683
310.0    20.0  0.702450  0.004546  0.698532  0.715683
311.0    20.0  0.702450  0.004546  0.698532  0.715683
312.0    20.0  0.702450  0.004546  0.698532  0.715683
313.0    20.0  0.702450  0.004546  0.698532  0.715683
314.0    20.0  0.702450  0.004546  0.698532  0.715683
315.0    20.0  0.702450  0.004546  0.698532  0.715683
316.0    20.0  0.702450  0.004546  0.698532  0.715683
317.0    20.0  0.702450  0.004546  0.698532  0.715683
318.0    20.0  0.702450  0.004546  0.698532  0.715683
319.0    20.0  0.702450  0.004546  0.698532  0.715683
320.0    20.0  0.702450  0.004546  0.698532  0.715683
321.0    20.0  0.702450  0.004546  0.698532  0.715683
322.0    20.0  0.702450  0.004546  0.698532  0.715683
323.0    20.0  0.702450  0.004546  0.698532  0.715683
324.0    20.0  0.702450  0.004546  0.698532  0.715683
325.0    20.0  0.702450  0.004546  0.698532  0.715683
326.0    20.0  0.702450  0.004546  0.698532  0.715683
327.0    20.0  0.702450  0.004546  0.698532  0.715683
328.0    20.0  0.702450  0.004546  0.698532  0.715683
329.0    20.0  0.702450  0.004546  0.698532  0.715683
330.0    20.0  0.702450  0.004546  0.698532  0.715683
331.0    20.0  0.702450  0.004546  0.698532  0.715683
332.0    20.0  0.702450  0.004546  0.698532  0.715683
333.0    20.0  0.702450  0.004546  0.698532  0.715683
334.0    20.0  0.702450  0.004546  0.698532  0.715683
335.0    20.0  0.702450  0.004546  0.698532  0.715683
336.0    20.0  0.702450  0.004546  0.698532  0.715683
337.0    20.0  0.702450  0.004546  0.698532  0.715683
338.0    20.0  0.703307  0.004552  0.698532  0.715683
339.0    20.0  0.703797  0.004538  0.698532  0.715683
340.0    20.0  0.703797  0.004538  0.698532  0.715683
341.0    20.0  0.703797  0.004538  0.698532  0.715683
342.0    20.0  0.703797  0.004538  0.698532  0.715683
343.0    20.0  0.703797  0.004538  0.698532  0.715683
344.0    20.0  0.703797  0.004538  0.698532  0.715683
345.0    20.0  0.703797  0.004538  0.698532  0.715683
346.0    20.0  0.703797  0.004538  0.698532  0.715683
347.0    20.0  0.703797  0.004538  0.698532  0.715683
348.0    20.0  0.704165  0.004392  0.698532  0.715683
349.0    20.0  0.704287  0.004266  0.698532  0.715683
350.0    20.0  0.704287  0.004266  0.698532  0.715683
351.0    20.0  0.704287  0.004266  0.698532  0.715683
352.0    20.0  0.704287  0.004266  0.698532  0.715683
353.0    20.0  0.704287  0.004266  0.698532  0.715683
354.0    20.0  0.704287  0.004266  0.698532  0.715683
355.0    20.0  0.704287  0.004266  0.698532  0.715683
356.0    20.0  0.704287  0.004266  0.698532  0.715683
357.0    20.0  0.704287  0.004266  0.698532  0.715683
358.0    20.0  0.704287  0.004266  0.698532  0.715683
359.0    20.0  0.704287  0.004266  0.698532  0.715683
360.0    20.0  0.704287  0.004266  0.698532  0.715683
361.0    20.0  0.704287  0.004266  0.698532  0.715683
362.0    20.0  0.704287  0.004266  0.698532  0.715683
363.0    20.0  0.704287  0.004266  0.698532  0.715683
364.0    20.0  0.704287  0.004266  0.698532  0.715683
365.0    20.0  0.704287  0.004266  0.698532  0.715683
366.0    20.0  0.704287  0.004266  0.698532  0.715683
367.0    20.0  0.704409  0.004133  0.700974  0.715683
368.0    20.0  0.704409  0.004133  0.700974  0.715683
369.0    20.0  0.704409  0.004133  0.700974  0.715683
370.0    20.0  0.704409  0.004133  0.700974  0.715683
371.0    20.0  0.704409  0.004133  0.700974  0.715683
372.0    20.0  0.704409  0.004133  0.700974  0.715683
373.0    20.0  0.704409  0.004133  0.700974  0.715683
374.0    20.0  0.704409  0.004133  0.700974  0.715683
375.0    20.0  0.705267  0.005018  0.700974  0.718140
376.0    20.0  0.705267  0.005018  0.700974  0.718140
377.0    20.0  0.705267  0.005018  0.700974  0.718140
378.0    20.0  0.705267  0.005018  0.700974  0.718140
379.0    20.0  0.705267  0.005018  0.700974  0.718140
380.0    20.0  0.705267  0.005018  0.700974  0.718140
381.0    20.0  0.705267  0.005018  0.700974  0.718140
382.0    20.0  0.705513  0.004859  0.700974  0.718140
383.0    20.0  0.705513  0.004859  0.700974  0.718140
384.0    20.0  0.705636  0.004773  0.700974  0.718140
385.0    20.0  0.705636  0.004773  0.700974  0.718140
386.0    20.0  0.705636  0.004773  0.700974  0.718140
387.0    20.0  0.705882  0.004652  0.700974  0.718140
388.0    20.0  0.705882  0.004652  0.700974  0.718140
389.0    20.0  0.705882  0.004652  0.700974  0.718140
390.0    20.0  0.705882  0.004652  0.700974  0.718140
391.0    20.0  0.705882  0.004652  0.700974  0.718140
392.0    20.0  0.705882  0.004652  0.700974  0.718140
393.0    20.0  0.705882  0.004652  0.700974  0.718140
394.0    20.0  0.705882  0.004652  0.700974  0.718140
395.0    20.0  0.705882  0.004652  0.700974  0.718140
396.0    20.0  0.705882  0.004652  0.700974  0.718140
397.0    20.0  0.705882  0.004652  0.700974  0.718140
398.0    20.0  0.705882  0.004652  0.700974  0.718140
399.0    20.0  0.705882  0.004652  0.700974  0.718140
400.0    20.0  0.705882  0.004652  0.700974  0.718140
401.0    20.0  0.705882  0.004652  0.700974  0.718140
402.0    20.0  0.705882  0.004652  0.700974  0.718140
403.0    20.0  0.705882  0.004652  0.700974  0.718140
404.0    20.0  0.705882  0.004652  0.700974  0.718140
405.0    20.0  0.705882  0.004652  0.700974  0.718140
406.0    20.0  0.705882  0.004652  0.700974  0.718140
407.0    20.0  0.705882  0.004652  0.700974  0.718140
408.0    20.0  0.705882  0.004652  0.700974  0.718140
409.0    20.0  0.705882  0.004652  0.700974  0.718140
410.0    20.0  0.705882  0.004652  0.700974  0.718140
411.0    20.0  0.705882  0.004652  0.700974  0.718140
412.0    20.0  0.705882  0.004652  0.700974  0.718140
413.0    20.0  0.705882  0.004652  0.700974  0.718140
414.0    20.0  0.705882  0.004652  0.700974  0.718140
415.0    20.0  0.705882  0.004652  0.700974  0.718140
416.0    20.0  0.705882  0.004652  0.700974  0.718140
417.0    20.0  0.705882  0.004652  0.700974  0.718140
418.0    20.0  0.705882  0.004652  0.700974  0.718140
419.0    20.0  0.705882  0.004652  0.700974  0.718140
420.0    20.0  0.705882  0.004652  0.700974  0.718140
421.0    20.0  0.705882  0.004652  0.700974  0.718140
422.0    20.0  0.705882  0.004652  0.700974  0.718140
423.0    20.0  0.706127  0.004514  0.700974  0.718140
424.0    20.0  0.706127  0.004514  0.700974  0.718140
425.0    20.0  0.706127  0.004514  0.700974  0.718140
426.0    20.0  0.706373  0.004358  0.700974  0.718140
427.0    20.0  0.706373  0.004358  0.700974  0.718140
428.0    20.0  0.706863  0.004274  0.703430  0.718140
429.0    20.0  0.706863  0.004274  0.703430  0.718140
430.0    20.0  0.706863  0.004274  0.703430  0.718140
431.0    20.0  0.706863  0.004274  0.703430  0.718140
432.0    20.0  0.706863  0.004274  0.703430  0.718140
433.0    20.0  0.706863  0.004274  0.703430  0.718140
434.0    20.0  0.706863  0.004274  0.703430  0.718140
435.0    20.0  0.706863  0.004274  0.703430  0.718140
436.0    20.0  0.706863  0.004274  0.703430  0.718140
437.0    20.0  0.706863  0.004274  0.703430  0.718140
438.0    20.0  0.706863  0.004274  0.703430  0.718140
439.0    20.0  0.706863  0.004274  0.703430  0.718140
440.0    20.0  0.706863  0.004274  0.703430  0.718140
441.0    20.0  0.706863  0.004274  0.703430  0.718140
442.0    20.0  0.706863  0.004274  0.703430  0.718140
443.0    20.0  0.706863  0.004274  0.703430  0.718140
444.0    20.0  0.706863  0.004274  0.703430  0.718140
445.0    20.0  0.706863  0.004274  0.703430  0.718140
446.0    20.0  0.706863  0.004274  0.703430  0.718140
447.0    20.0  0.706863  0.004274  0.703430  0.718140
448.0    20.0  0.706863  0.004274  0.703430  0.718140
449.0    20.0  0.706863  0.004274  0.703430  0.718140
450.0    20.0  0.706863  0.004274  0.703430  0.718140
451.0    20.0  0.706863  0.004274  0.703430  0.718140
452.0    20.0  0.706863  0.004274  0.703430  0.718140
453.0    20.0  0.706863  0.004274  0.703430  0.718140
454.0    20.0  0.706863  0.004274  0.703430  0.718140
455.0    20.0  0.706863  0.004274  0.703430  0.718140
456.0    20.0  0.706863  0.004274  0.703430  0.718140
457.0    20.0  0.706863  0.004274  0.703430  0.718140
458.0    20.0  0.706863  0.004274  0.703430  0.718140
459.0    20.0  0.706863  0.004274  0.703430  0.718140
460.0    20.0  0.706863  0.004274  0.703430  0.718140
461.0    20.0  0.706863  0.004274  0.703430  0.718140
462.0    20.0  0.706863  0.004274  0.703430  0.718140
463.0    20.0  0.706986  0.004208  0.703430  0.718140
464.0    20.0  0.706986  0.004208  0.703430  0.718140
465.0    20.0  0.706986  0.004208  0.703430  0.718140
466.0    20.0  0.706986  0.004208  0.703430  0.718140
467.0    20.0  0.706986  0.004208  0.703430  0.718140
468.0    20.0  0.706986  0.004208  0.703430  0.718140
469.0    20.0  0.706986  0.004208  0.703430  0.718140
470.0    20.0  0.706986  0.004208  0.703430  0.718140
471.0    20.0  0.706986  0.004208  0.703430  0.718140
472.0    20.0  0.706986  0.004208  0.703430  0.718140
473.0    20.0  0.706986  0.004208  0.703430  0.718140
474.0    20.0  0.706986  0.004208  0.703430  0.718140
475.0    20.0  0.706986  0.004208  0.703430  0.718140
476.0    20.0  0.706986  0.004208  0.703430  0.718140
477.0    20.0  0.706986  0.004208  0.703430  0.718140
478.0    20.0  0.706986  0.004208  0.703430  0.718140
479.0    20.0  0.706986  0.004208  0.703430  0.718140
480.0    20.0  0.706986  0.004208  0.703430  0.718140
481.0    20.0  0.707477  0.004335  0.703430  0.718140
482.0    20.0  0.707477  0.004335  0.703430  0.718140
483.0    20.0  0.707477  0.004335  0.703430  0.718140
484.0    20.0  0.707477  0.004335  0.703430  0.718140
485.0    20.0  0.707477  0.004335  0.703430  0.718140
486.0    20.0  0.707477  0.004335  0.703430  0.718140
487.0    20.0  0.707477  0.004335  0.703430  0.718140
488.0    20.0  0.707477  0.004335  0.703430  0.718140
489.0    20.0  0.707477  0.004335  0.703430  0.718140
490.0    20.0  0.707477  0.004335  0.703430  0.718140
491.0    20.0  0.707477  0.004335  0.703430  0.718140
492.0    20.0  0.707477  0.004335  0.703430  0.718140
493.0    20.0  0.707477  0.004335  0.703430  0.718140
494.0    20.0  0.707600  0.004253  0.703430  0.718140
495.0    20.0  0.708090  0.004309  0.703430  0.718140
496.0    20.0  0.708090  0.004309  0.703430  0.718140
497.0    20.0  0.708090  0.004309  0.703430  0.718140
498.0    20.0  0.708090  0.004309  0.703430  0.718140
499.0    20.0  0.708090  0.004309  0.703430  0.718140
