gen  nevals       avg       std       min       max
  0.0    20.0  0.564514  0.068046  0.451614  0.677414
  1.0    20.0  0.620964  0.045476  0.548386  0.709671
  2.0    20.0  0.658060  0.031274  0.612900  0.709671
  3.0    20.0  0.680640  0.024777  0.645157  0.741928
  4.0    20.0  0.691930  0.019015  0.677414  0.741928
  5.0    20.0  0.704832  0.021091  0.677414  0.741928
  6.0    20.0  0.722575  0.021401  0.709671  0.774200
  7.0    20.0  0.729028  0.023708  0.709671  0.774200
  8.0    20.0  0.733867  0.024730  0.709671  0.774200
  9.0    20.0  0.743546  0.025963  0.709671  0.774200
 10.0    20.0  0.756451  0.021585  0.709671  0.806458
 11.0    20.0  0.761290  0.021404  0.741928  0.806458
 12.0    20.0  0.767744  0.021884  0.741928  0.806458
 13.0    20.0  0.775811  0.019019  0.741928  0.806458
 14.0    20.0  0.783878  0.014782  0.774200  0.806458
 15.0    20.0  0.783878  0.014782  0.774200  0.806458
 16.0    20.0  0.783878  0.014782  0.774200  0.806458
 17.0    20.0  0.783878  0.014782  0.774200  0.806458
 18.0    20.0  0.787103  0.015803  0.774200  0.806458
 19.0    20.0  0.788716  0.016048  0.774200  0.806458
 20.0    20.0  0.791942  0.016048  0.774200  0.806458
 21.0    20.0  0.795168  0.018460  0.774200  0.838715
 22.0    20.0  0.798393  0.017296  0.774200  0.838715
 23.0    20.0  0.803232  0.017371  0.774200  0.838715
 24.0    20.0  0.806458  0.014426  0.774200  0.838715
 25.0    20.0  0.811296  0.011518  0.806458  0.838715
 26.0    20.0  0.811296  0.011518  0.806458  0.838715
 27.0    20.0  0.812909  0.012903  0.806458  0.838715
 28.0    20.0  0.812909  0.012903  0.806458  0.838715
 29.0    20.0  0.812909  0.012903  0.806458  0.838715
 30.0    20.0  0.816135  0.017960  0.806458  0.870972
 31.0    20.0  0.820973  0.021579  0.806458  0.870972
 32.0    20.0  0.825812  0.023704  0.806458  0.870972
 33.0    20.0  0.829037  0.023036  0.806458  0.870972
 34.0    20.0  0.833876  0.023428  0.806458  0.870972
 35.0    20.0  0.843553  0.021091  0.806458  0.870972
 36.0    20.0  0.845166  0.019354  0.806458  0.870972
 37.0    20.0  0.846779  0.017296  0.806458  0.870972
 38.0    20.0  0.850005  0.015386  0.838715  0.870972
 39.0    20.0  0.853230  0.016048  0.838715  0.870972
 40.0    20.0  0.856456  0.016048  0.838715  0.870972
 41.0    20.0  0.858069  0.015803  0.838715  0.870972
 42.0    20.0  0.858069  0.015803  0.838715  0.870972
 43.0    20.0  0.859682  0.015386  0.838715  0.870972
 44.0    20.0  0.861295  0.014782  0.838715  0.870972
 45.0    20.0  0.862907  0.013968  0.838715  0.870972
 46.0    20.0  0.862907  0.013968  0.838715  0.870972
 47.0    20.0  0.862907  0.013968  0.838715  0.870972
 48.0    20.0  0.862907  0.013968  0.838715  0.870972
 49.0    20.0  0.862907  0.013968  0.838715  0.870972
 50.0    20.0  0.862907  0.013968  0.838715  0.870972
 51.0    20.0  0.867746  0.009677  0.838715  0.870972
 52.0    20.0  0.872585  0.007030  0.870972  0.903229
 53.0    20.0  0.872585  0.007030  0.870972  0.903229
 54.0    20.0  0.874197  0.009677  0.870972  0.903229
 55.0    20.0  0.874197  0.009677  0.870972  0.903229
 56.0    20.0  0.874197  0.009677  0.870972  0.903229
 57.0    20.0  0.875810  0.011518  0.870972  0.903229
 58.0    20.0  0.875810  0.011518  0.870972  0.903229
 59.0    20.0  0.875810  0.011518  0.870972  0.903229
 60.0    20.0  0.875810  0.011518  0.870972  0.903229
 61.0    20.0  0.877423  0.012903  0.870972  0.903229
 62.0    20.0  0.877423  0.012903  0.870972  0.903229
 63.0    20.0  0.877423  0.012903  0.870972  0.903229
 64.0    20.0  0.877423  0.012903  0.870972  0.903229
 65.0    20.0  0.877423  0.012903  0.870972  0.903229
 66.0    20.0  0.877423  0.012903  0.870972  0.903229
 67.0    20.0  0.877423  0.012903  0.870972  0.903229
 68.0    20.0  0.877423  0.012903  0.870972  0.903229
 69.0    20.0  0.877423  0.012903  0.870972  0.903229
 70.0    20.0  0.877423  0.012903  0.870972  0.903229
 71.0    20.0  0.877423  0.012903  0.870972  0.903229
 72.0    20.0  0.880649  0.017960  0.870972  0.935486
 73.0    20.0  0.880649  0.017960  0.870972  0.935486
 74.0    20.0  0.880649  0.017960  0.870972  0.935486
 75.0    20.0  0.883875  0.021397  0.870972  0.935486
 76.0    20.0  0.885487  0.021579  0.870972  0.935486
 77.0    20.0  0.885487  0.021579  0.870972  0.935486
 78.0    20.0  0.885487  0.021579  0.870972  0.935486
 79.0    20.0  0.887100  0.021639  0.870972  0.935486
 80.0    20.0  0.887100  0.021639  0.870972  0.935486
 81.0    20.0  0.888713  0.021579  0.870972  0.935486
 82.0    20.0  0.891939  0.021091  0.870972  0.935486
 83.0    20.0  0.893552  0.020655  0.870972  0.935486
 84.0    20.0  0.896777  0.019354  0.870972  0.935486
 85.0    20.0  0.896777  0.019354  0.870972  0.935486
 86.0    20.0  0.900003  0.020144  0.870972  0.935486
 87.0    20.0  0.900003  0.020144  0.870972  0.935486
 88.0    20.0  0.904842  0.023868  0.870972  0.967743
 89.0    20.0  0.906454  0.022580  0.870972  0.967743
 90.0    20.0  0.908067  0.021091  0.870972  0.967743
 91.0    20.0  0.911293  0.017296  0.903229  0.967743
 92.0    20.0  0.912906  0.017960  0.903229  0.967743
 93.0    20.0  0.912906  0.017960  0.903229  0.967743
 94.0    20.0  0.914519  0.018460  0.903229  0.967743
 95.0    20.0  0.914519  0.018460  0.903229  0.967743
 96.0    20.0  0.914519  0.018460  0.903229  0.967743
 97.0    20.0  0.914519  0.018460  0.903229  0.967743
 98.0    20.0  0.914519  0.018460  0.903229  0.967743
 99.0    20.0  0.914519  0.018460  0.903229  0.967743
100.0    20.0  0.916132  0.018809  0.903229  0.967743
101.0    20.0  0.917744  0.019015  0.903229  0.967743
102.0    20.0  0.919357  0.019083  0.903229  0.967743
103.0    20.0  0.920970  0.019015  0.903229  0.967743
104.0    20.0  0.922583  0.018809  0.903229  0.967743
105.0    20.0  0.922583  0.018809  0.903229  0.967743
106.0    20.0  0.922583  0.018809  0.903229  0.967743
107.0    20.0  0.925809  0.020655  0.903229  0.967743
108.0    20.0  0.925809  0.020655  0.903229  0.967743
109.0    20.0  0.925809  0.020655  0.903229  0.967743
110.0    20.0  0.929034  0.019354  0.903229  0.967743
111.0    20.0  0.929034  0.019354  0.903229  0.967743
112.0    20.0  0.933873  0.016048  0.903229  0.967743
113.0    20.0  0.937099  0.012389  0.903229  0.967743
114.0    20.0  0.938712  0.009677  0.935486  0.967743
115.0    20.0  0.938712  0.009677  0.935486  0.967743
116.0    20.0  0.938712  0.009677  0.935486  0.967743
117.0    20.0  0.938712  0.009677  0.935486  0.967743
118.0    20.0  0.938712  0.009677  0.935486  0.967743
119.0    20.0  0.938712  0.009677  0.935486  0.967743
120.0    20.0  0.938712  0.009677  0.935486  0.967743
121.0    20.0  0.938712  0.009677  0.935486  0.967743
122.0    20.0  0.938712  0.009677  0.935486  0.967743
123.0    20.0  0.938712  0.009677  0.935486  0.967743
124.0    20.0  0.938712  0.009677  0.935486  0.967743
125.0    20.0  0.940324  0.011518  0.935486  0.967743
126.0    20.0  0.941937  0.012903  0.935486  0.967743
127.0    20.0  0.941937  0.012903  0.935486  0.967743
128.0    20.0  0.941937  0.012903  0.935486  0.967743
129.0    20.0  0.941937  0.012903  0.935486  0.967743
130.0    20.0  0.941937  0.012903  0.935486  0.967743
131.0    20.0  0.941937  0.012903  0.935486  0.967743
132.0    20.0  0.943550  0.013968  0.935486  0.967743
133.0    20.0  0.943550  0.013968  0.935486  0.967743
134.0    20.0  0.943550  0.013968  0.935486  0.967743
135.0    20.0  0.943550  0.013968  0.935486  0.967743
136.0    20.0  0.943550  0.013968  0.935486  0.967743
137.0    20.0  0.943550  0.013968  0.935486  0.967743
138.0    20.0  0.943550  0.013968  0.935486  0.967743
139.0    20.0  0.943550  0.013968  0.935486  0.967743
140.0    20.0  0.943550  0.013968  0.935486  0.967743
141.0    20.0  0.943550  0.013968  0.935486  0.967743
142.0    20.0  0.943550  0.013968  0.935486  0.967743
143.0    20.0  0.943550  0.013968  0.935486  0.967743
144.0    20.0  0.945163  0.014782  0.935486  0.967743
145.0    20.0  0.945163  0.014782  0.935486  0.967743
146.0    20.0  0.945163  0.014782  0.935486  0.967743
147.0    20.0  0.945163  0.014782  0.935486  0.967743
148.0    20.0  0.945163  0.014782  0.935486  0.967743
149.0    20.0  0.945163  0.014782  0.935486  0.967743
150.0    20.0  0.945163  0.014782  0.935486  0.967743
151.0    20.0  0.948389  0.015803  0.935486  0.967743
152.0    20.0  0.948389  0.015803  0.935486  0.967743
153.0    20.0  0.948389  0.015803  0.935486  0.967743
154.0    20.0  0.948389  0.015803  0.935486  0.967743
155.0    20.0  0.948389  0.015803  0.935486  0.967743
156.0    20.0  0.948389  0.015803  0.935486  0.967743
157.0    20.0  0.951614  0.016129  0.935486  0.967743
158.0    20.0  0.951614  0.016129  0.935486  0.967743
159.0    20.0  0.951614  0.016129  0.935486  0.967743
160.0    20.0  0.951614  0.016129  0.935486  0.967743
161.0    20.0  0.953227  0.016048  0.935486  0.967743
162.0    20.0  0.954840  0.015803  0.935486  0.967743
163.0    20.0  0.954840  0.015803  0.935486  0.967743
164.0    20.0  0.954840  0.015803  0.935486  0.967743
165.0    20.0  0.954840  0.015803  0.935486  0.967743
166.0    20.0  0.956453  0.015386  0.935486  0.967743
167.0    20.0  0.956453  0.015386  0.935486  0.967743
168.0    20.0  0.956453  0.015386  0.935486  0.967743
169.0    20.0  0.958066  0.014782  0.935486  0.967743
170.0    20.0  0.958066  0.014782  0.935486  0.967743
171.0    20.0  0.959679  0.013968  0.935486  0.967743
172.0    20.0  0.959679  0.013968  0.935486  0.967743
173.0    20.0  0.959679  0.013968  0.935486  0.967743
174.0    20.0  0.961292  0.012903  0.935486  0.967743
175.0    20.0  0.961292  0.012903  0.935486  0.967743
176.0    20.0  0.964517  0.009677  0.935486  0.967743
177.0    20.0  0.966130  0.007030  0.935486  0.967743
178.0    20.0  0.966130  0.007030  0.935486  0.967743
179.0    20.0  0.967743  0.000000  0.967743  0.967743
180.0    20.0  0.967743  0.000000  0.967743  0.967743
181.0    20.0  0.967743  0.000000  0.967743  0.967743
182.0    20.0  0.967743  0.000000  0.967743  0.967743
183.0    20.0  0.967743  0.000000  0.967743  0.967743
184.0    20.0  0.967743  0.000000  0.967743  0.967743
185.0    20.0  0.967743  0.000000  0.967743  0.967743
186.0    20.0  0.967743  0.000000  0.967743  0.967743
187.0    20.0  0.967743  0.000000  0.967743  0.967743
188.0    20.0  0.967743  0.000000  0.967743  0.967743
189.0    20.0  0.967743  0.000000  0.967743  0.967743
190.0    20.0  0.967743  0.000000  0.967743  0.967743
191.0    20.0  0.967743  0.000000  0.967743  0.967743
192.0    20.0  0.967743  0.000000  0.967743  0.967743
193.0    20.0  0.967743  0.000000  0.967743  0.967743
194.0    20.0  0.967743  0.000000  0.967743  0.967743
195.0    20.0  0.967743  0.000000  0.967743  0.967743
196.0    20.0  0.967743  0.000000  0.967743  0.967743
197.0    20.0  0.967743  0.000000  0.967743  0.967743
198.0    20.0  0.967743  0.000000  0.967743  0.967743
199.0    20.0  0.967743  0.000000  0.967743  0.967743
200.0    20.0  0.967743  0.000000  0.967743  0.967743
201.0    20.0  0.967743  0.000000  0.967743  0.967743
202.0    20.0  0.967743  0.000000  0.967743  0.967743
203.0    20.0  0.967743  0.000000  0.967743  0.967743
204.0    20.0  0.967743  0.000000  0.967743  0.967743
205.0    20.0  0.967743  0.000000  0.967743  0.967743
206.0    20.0  0.967743  0.000000  0.967743  0.967743
207.0    20.0  0.967743  0.000000  0.967743  0.967743
208.0    20.0  0.967743  0.000000  0.967743  0.967743
209.0    20.0  0.967743  0.000000  0.967743  0.967743
210.0    20.0  0.967743  0.000000  0.967743  0.967743
211.0    20.0  0.967743  0.000000  0.967743  0.967743
212.0    20.0  0.967743  0.000000  0.967743  0.967743
213.0    20.0  0.967743  0.000000  0.967743  0.967743
214.0    20.0  0.967743  0.000000  0.967743  0.967743
215.0    20.0  0.967743  0.000000  0.967743  0.967743
216.0    20.0  0.967743  0.000000  0.967743  0.967743
217.0    20.0  0.967743  0.000000  0.967743  0.967743
218.0    20.0  0.967743  0.000000  0.967743  0.967743
219.0    20.0  0.967743  0.000000  0.967743  0.967743
220.0    20.0  0.967743  0.000000  0.967743  0.967743
221.0    20.0  0.967743  0.000000  0.967743  0.967743
222.0    20.0  0.967743  0.000000  0.967743  0.967743
223.0    20.0  0.967743  0.000000  0.967743  0.967743
224.0    20.0  0.967743  0.000000  0.967743  0.967743
225.0    20.0  0.967743  0.000000  0.967743  0.967743
226.0    20.0  0.967743  0.000000  0.967743  0.967743
227.0    20.0  0.967743  0.000000  0.967743  0.967743
228.0    20.0  0.967743  0.000000  0.967743  0.967743
229.0    20.0  0.967743  0.000000  0.967743  0.967743
230.0    20.0  0.967743  0.000000  0.967743  0.967743
231.0    20.0  0.967743  0.000000  0.967743  0.967743
232.0    20.0  0.967743  0.000000  0.967743  0.967743
233.0    20.0  0.967743  0.000000  0.967743  0.967743
234.0    20.0  0.967743  0.000000  0.967743  0.967743
235.0    20.0  0.967743  0.000000  0.967743  0.967743
236.0    20.0  0.967743  0.000000  0.967743  0.967743
237.0    20.0  0.967743  0.000000  0.967743  0.967743
238.0    20.0  0.967743  0.000000  0.967743  0.967743
239.0    20.0  0.967743  0.000000  0.967743  0.967743
240.0    20.0  0.967743  0.000000  0.967743  0.967743
241.0    20.0  0.967743  0.000000  0.967743  0.967743
242.0    20.0  0.967743  0.000000  0.967743  0.967743
243.0    20.0  0.967743  0.000000  0.967743  0.967743
244.0    20.0  0.967743  0.000000  0.967743  0.967743
245.0    20.0  0.967743  0.000000  0.967743  0.967743
246.0    20.0  0.967743  0.000000  0.967743  0.967743
247.0    20.0  0.967743  0.000000  0.967743  0.967743
248.0    20.0  0.967743  0.000000  0.967743  0.967743
249.0    20.0  0.967743  0.000000  0.967743  0.967743
250.0    20.0  0.967743  0.000000  0.967743  0.967743
251.0    20.0  0.967743  0.000000  0.967743  0.967743
252.0    20.0  0.967743  0.000000  0.967743  0.967743
253.0    20.0  0.967743  0.000000  0.967743  0.967743
254.0    20.0  0.967743  0.000000  0.967743  0.967743
255.0    20.0  0.967743  0.000000  0.967743  0.967743
256.0    20.0  0.967743  0.000000  0.967743  0.967743
257.0    20.0  0.967743  0.000000  0.967743  0.967743
258.0    20.0  0.967743  0.000000  0.967743  0.967743
259.0    20.0  0.967743  0.000000  0.967743  0.967743
260.0    20.0  0.967743  0.000000  0.967743  0.967743
261.0    20.0  0.967743  0.000000  0.967743  0.967743
262.0    20.0  0.967743  0.000000  0.967743  0.967743
263.0    20.0  0.967743  0.000000  0.967743  0.967743
264.0    20.0  0.967743  0.000000  0.967743  0.967743
265.0    20.0  0.967743  0.000000  0.967743  0.967743
266.0    20.0  0.967743  0.000000  0.967743  0.967743
267.0    20.0  0.967743  0.000000  0.967743  0.967743
268.0    20.0  0.967743  0.000000  0.967743  0.967743
269.0    20.0  0.967743  0.000000  0.967743  0.967743
270.0    20.0  0.967743  0.000000  0.967743  0.967743
271.0    20.0  0.967743  0.000000  0.967743  0.967743
272.0    20.0  0.967743  0.000000  0.967743  0.967743
273.0    20.0  0.967743  0.000000  0.967743  0.967743
274.0    20.0  0.967743  0.000000  0.967743  0.967743
275.0    20.0  0.967743  0.000000  0.967743  0.967743
276.0    20.0  0.967743  0.000000  0.967743  0.967743
277.0    20.0  0.967743  0.000000  0.967743  0.967743
278.0    20.0  0.967743  0.000000  0.967743  0.967743
279.0    20.0  0.967743  0.000000  0.967743  0.967743
280.0    20.0  0.967743  0.000000  0.967743  0.967743
281.0    20.0  0.967743  0.000000  0.967743  0.967743
282.0    20.0  0.967743  0.000000  0.967743  0.967743
283.0    20.0  0.967743  0.000000  0.967743  0.967743
284.0    20.0  0.967743  0.000000  0.967743  0.967743
285.0    20.0  0.967743  0.000000  0.967743  0.967743
286.0    20.0  0.967743  0.000000  0.967743  0.967743
287.0    20.0  0.967743  0.000000  0.967743  0.967743
288.0    20.0  0.967743  0.000000  0.967743  0.967743
289.0    20.0  0.967743  0.000000  0.967743  0.967743
290.0    20.0  0.967743  0.000000  0.967743  0.967743
291.0    20.0  0.967743  0.000000  0.967743  0.967743
292.0    20.0  0.967743  0.000000  0.967743  0.967743
293.0    20.0  0.967743  0.000000  0.967743  0.967743
294.0    20.0  0.967743  0.000000  0.967743  0.967743
295.0    20.0  0.967743  0.000000  0.967743  0.967743
296.0    20.0  0.967743  0.000000  0.967743  0.967743
297.0    20.0  0.967743  0.000000  0.967743  0.967743
298.0    20.0  0.967743  0.000000  0.967743  0.967743
299.0    20.0  0.967743  0.000000  0.967743  0.967743
300.0    20.0  0.967743  0.000000  0.967743  0.967743
301.0    20.0  0.967743  0.000000  0.967743  0.967743
302.0    20.0  0.967743  0.000000  0.967743  0.967743
303.0    20.0  0.967743  0.000000  0.967743  0.967743
304.0    20.0  0.967743  0.000000  0.967743  0.967743
305.0    20.0  0.967743  0.000000  0.967743  0.967743
306.0    20.0  0.967743  0.000000  0.967743  0.967743
307.0    20.0  0.967743  0.000000  0.967743  0.967743
308.0    20.0  0.967743  0.000000  0.967743  0.967743
309.0    20.0  0.967743  0.000000  0.967743  0.967743
310.0    20.0  0.967743  0.000000  0.967743  0.967743
311.0    20.0  0.967743  0.000000  0.967743  0.967743
312.0    20.0  0.967743  0.000000  0.967743  0.967743
313.0    20.0  0.967743  0.000000  0.967743  0.967743
314.0    20.0  0.967743  0.000000  0.967743  0.967743
315.0    20.0  0.967743  0.000000  0.967743  0.967743
316.0    20.0  0.967743  0.000000  0.967743  0.967743
317.0    20.0  0.967743  0.000000  0.967743  0.967743
318.0    20.0  0.967743  0.000000  0.967743  0.967743
319.0    20.0  0.967743  0.000000  0.967743  0.967743
320.0    20.0  0.967743  0.000000  0.967743  0.967743
321.0    20.0  0.967743  0.000000  0.967743  0.967743
322.0    20.0  0.967743  0.000000  0.967743  0.967743
323.0    20.0  0.967743  0.000000  0.967743  0.967743
324.0    20.0  0.967743  0.000000  0.967743  0.967743
325.0    20.0  0.967743  0.000000  0.967743  0.967743
326.0    20.0  0.967743  0.000000  0.967743  0.967743
327.0    20.0  0.967743  0.000000  0.967743  0.967743
328.0    20.0  0.967743  0.000000  0.967743  0.967743
329.0    20.0  0.967743  0.000000  0.967743  0.967743
330.0    20.0  0.967743  0.000000  0.967743  0.967743
331.0    20.0  0.967743  0.000000  0.967743  0.967743
332.0    20.0  0.967743  0.000000  0.967743  0.967743
333.0    20.0  0.967743  0.000000  0.967743  0.967743
334.0    20.0  0.967743  0.000000  0.967743  0.967743
335.0    20.0  0.967743  0.000000  0.967743  0.967743
336.0    20.0  0.967743  0.000000  0.967743  0.967743
337.0    20.0  0.967743  0.000000  0.967743  0.967743
338.0    20.0  0.967743  0.000000  0.967743  0.967743
339.0    20.0  0.967743  0.000000  0.967743  0.967743
340.0    20.0  0.967743  0.000000  0.967743  0.967743
341.0    20.0  0.967743  0.000000  0.967743  0.967743
342.0    20.0  0.967743  0.000000  0.967743  0.967743
343.0    20.0  0.967743  0.000000  0.967743  0.967743
344.0    20.0  0.967743  0.000000  0.967743  0.967743
345.0    20.0  0.967743  0.000000  0.967743  0.967743
346.0    20.0  0.967743  0.000000  0.967743  0.967743
347.0    20.0  0.967743  0.000000  0.967743  0.967743
348.0    20.0  0.967743  0.000000  0.967743  0.967743
349.0    20.0  0.967743  0.000000  0.967743  0.967743
350.0    20.0  0.967743  0.000000  0.967743  0.967743
351.0    20.0  0.967743  0.000000  0.967743  0.967743
352.0    20.0  0.967743  0.000000  0.967743  0.967743
353.0    20.0  0.967743  0.000000  0.967743  0.967743
354.0    20.0  0.967743  0.000000  0.967743  0.967743
355.0    20.0  0.969356  0.007030  0.967743  1.000000
356.0    20.0  0.969356  0.007030  0.967743  1.000000
357.0    20.0  0.969356  0.007030  0.967743  1.000000
358.0    20.0  0.969356  0.007030  0.967743  1.000000
359.0    20.0  0.969356  0.007030  0.967743  1.000000
360.0    20.0  0.969356  0.007030  0.967743  1.000000
361.0    20.0  0.969356  0.007030  0.967743  1.000000
362.0    20.0  0.969356  0.007030  0.967743  1.000000
363.0    20.0  0.969356  0.007030  0.967743  1.000000
364.0    20.0  0.970969  0.009677  0.967743  1.000000
365.0    20.0  0.970969  0.009677  0.967743  1.000000
366.0    20.0  0.972581  0.011518  0.967743  1.000000
367.0    20.0  0.972581  0.011518  0.967743  1.000000
368.0    20.0  0.972581  0.011518  0.967743  1.000000
369.0    20.0  0.974194  0.012903  0.967743  1.000000
370.0    20.0  0.974194  0.012903  0.967743  1.000000
371.0    20.0  0.974194  0.012903  0.967743  1.000000
372.0    20.0  0.974194  0.012903  0.967743  1.000000
373.0    20.0  0.974194  0.012903  0.967743  1.000000
374.0    20.0  0.975807  0.013968  0.967743  1.000000
375.0    20.0  0.975807  0.013968  0.967743  1.000000
376.0    20.0  0.975807  0.013968  0.967743  1.000000
377.0    20.0  0.975807  0.013968  0.967743  1.000000
378.0    20.0  0.975807  0.013968  0.967743  1.000000
379.0    20.0  0.975807  0.013968  0.967743  1.000000
380.0    20.0  0.977420  0.014782  0.967743  1.000000
381.0    20.0  0.977420  0.014782  0.967743  1.000000
382.0    20.0  0.977420  0.014782  0.967743  1.000000
383.0    20.0  0.977420  0.014782  0.967743  1.000000
384.0    20.0  0.977420  0.014782  0.967743  1.000000
385.0    20.0  0.977420  0.014782  0.967743  1.000000
386.0    20.0  0.979033  0.015386  0.967743  1.000000
387.0    20.0  0.979033  0.015386  0.967743  1.000000
388.0    20.0  0.980646  0.015803  0.967743  1.000000
389.0    20.0  0.982259  0.016048  0.967743  1.000000
390.0    20.0  0.985484  0.016048  0.967743  1.000000
391.0    20.0  0.985484  0.016048  0.967743  1.000000
392.0    20.0  0.985484  0.016048  0.967743  1.000000
393.0    20.0  0.985484  0.016048  0.967743  1.000000
394.0    20.0  0.988710  0.015386  0.967743  1.000000
395.0    20.0  0.988710  0.015386  0.967743  1.000000
396.0    20.0  0.988710  0.015386  0.967743  1.000000
397.0    20.0  0.990323  0.014782  0.967743  1.000000
398.0    20.0  0.990323  0.014782  0.967743  1.000000
399.0    20.0  0.991936  0.013968  0.967743  1.000000
400.0    20.0  0.991936  0.013968  0.967743  1.000000
401.0    20.0  0.991936  0.013968  0.967743  1.000000
402.0    20.0  0.993549  0.012903  0.967743  1.000000
403.0    20.0  0.993549  0.012903  0.967743  1.000000
404.0    20.0  0.995161  0.011518  0.967743  1.000000
405.0    20.0  0.995161  0.011518  0.967743  1.000000
406.0    20.0  0.998387  0.007030  0.967743  1.000000
407.0    20.0  0.998387  0.007030  0.967743  1.000000
408.0    20.0  0.998387  0.007030  0.967743  1.000000
409.0    20.0  1.000000  0.000000  1.000000  1.000000
410.0    20.0  1.000000  0.000000  1.000000  1.000000
411.0    20.0  1.000000  0.000000  1.000000  1.000000
412.0    20.0  1.000000  0.000000  1.000000  1.000000
413.0    20.0  1.000000  0.000000  1.000000  1.000000
414.0    20.0  1.000000  0.000000  1.000000  1.000000
415.0    20.0  1.000000  0.000000  1.000000  1.000000
416.0    20.0  1.000000  0.000000  1.000000  1.000000
417.0    20.0  1.000000  0.000000  1.000000  1.000000
418.0    20.0  1.000000  0.000000  1.000000  1.000000
419.0    20.0  1.000000  0.000000  1.000000  1.000000
420.0    20.0  1.000000  0.000000  1.000000  1.000000
421.0    20.0  1.000000  0.000000  1.000000  1.000000
422.0    20.0  1.000000  0.000000  1.000000  1.000000
423.0    20.0  1.000000  0.000000  1.000000  1.000000
424.0    20.0  1.000000  0.000000  1.000000  1.000000
425.0    20.0  1.000000  0.000000  1.000000  1.000000
426.0    20.0  1.000000  0.000000  1.000000  1.000000
427.0    20.0  1.000000  0.000000  1.000000  1.000000
428.0    20.0  1.000000  0.000000  1.000000  1.000000
429.0    20.0  1.000000  0.000000  1.000000  1.000000
430.0    20.0  1.000000  0.000000  1.000000  1.000000
431.0    20.0  1.000000  0.000000  1.000000  1.000000
432.0    20.0  1.000000  0.000000  1.000000  1.000000
433.0    20.0  1.000000  0.000000  1.000000  1.000000
434.0    20.0  1.000000  0.000000  1.000000  1.000000
435.0    20.0  1.000000  0.000000  1.000000  1.000000
436.0    20.0  1.000000  0.000000  1.000000  1.000000
437.0    20.0  1.000000  0.000000  1.000000  1.000000
438.0    20.0  1.000000  0.000000  1.000000  1.000000
439.0    20.0  1.000000  0.000000  1.000000  1.000000
440.0    20.0  1.000000  0.000000  1.000000  1.000000
441.0    20.0  1.000000  0.000000  1.000000  1.000000
442.0    20.0  1.000000  0.000000  1.000000  1.000000
443.0    20.0  1.000000  0.000000  1.000000  1.000000
444.0    20.0  1.000000  0.000000  1.000000  1.000000
445.0    20.0  1.000000  0.000000  1.000000  1.000000
446.0    20.0  1.000000  0.000000  1.000000  1.000000
447.0    20.0  1.000000  0.000000  1.000000  1.000000
448.0    20.0  1.000000  0.000000  1.000000  1.000000
449.0    20.0  1.000000  0.000000  1.000000  1.000000
450.0    20.0  1.000000  0.000000  1.000000  1.000000
451.0    20.0  1.000000  0.000000  1.000000  1.000000
452.0    20.0  1.000000  0.000000  1.000000  1.000000
453.0    20.0  1.000000  0.000000  1.000000  1.000000
454.0    20.0  1.000000  0.000000  1.000000  1.000000
455.0    20.0  1.000000  0.000000  1.000000  1.000000
456.0    20.0  1.000000  0.000000  1.000000  1.000000
457.0    20.0  1.000000  0.000000  1.000000  1.000000
458.0    20.0  1.000000  0.000000  1.000000  1.000000
459.0    20.0  1.000000  0.000000  1.000000  1.000000
460.0    20.0  1.000000  0.000000  1.000000  1.000000
461.0    20.0  1.000000  0.000000  1.000000  1.000000
462.0    20.0  1.000000  0.000000  1.000000  1.000000
463.0    20.0  1.000000  0.000000  1.000000  1.000000
464.0    20.0  1.000000  0.000000  1.000000  1.000000
465.0    20.0  1.000000  0.000000  1.000000  1.000000
466.0    20.0  1.000000  0.000000  1.000000  1.000000
467.0    20.0  1.000000  0.000000  1.000000  1.000000
468.0    20.0  1.000000  0.000000  1.000000  1.000000
469.0    20.0  1.000000  0.000000  1.000000  1.000000
470.0    20.0  1.000000  0.000000  1.000000  1.000000
471.0    20.0  1.000000  0.000000  1.000000  1.000000
472.0    20.0  1.000000  0.000000  1.000000  1.000000
473.0    20.0  1.000000  0.000000  1.000000  1.000000
474.0    20.0  1.000000  0.000000  1.000000  1.000000
475.0    20.0  1.000000  0.000000  1.000000  1.000000
476.0    20.0  1.000000  0.000000  1.000000  1.000000
477.0    20.0  1.000000  0.000000  1.000000  1.000000
478.0    20.0  1.000000  0.000000  1.000000  1.000000
479.0    20.0  1.000000  0.000000  1.000000  1.000000
480.0    20.0  1.000000  0.000000  1.000000  1.000000
481.0    20.0  1.000000  0.000000  1.000000  1.000000
482.0    20.0  1.000000  0.000000  1.000000  1.000000
483.0    20.0  1.000000  0.000000  1.000000  1.000000
484.0    20.0  1.000000  0.000000  1.000000  1.000000
485.0    20.0  1.000000  0.000000  1.000000  1.000000
486.0    20.0  1.000000  0.000000  1.000000  1.000000
487.0    20.0  1.000000  0.000000  1.000000  1.000000
488.0    20.0  1.000000  0.000000  1.000000  1.000000
489.0    20.0  1.000000  0.000000  1.000000  1.000000
490.0    20.0  1.000000  0.000000  1.000000  1.000000
491.0    20.0  1.000000  0.000000  1.000000  1.000000
492.0    20.0  1.000000  0.000000  1.000000  1.000000
493.0    20.0  1.000000  0.000000  1.000000  1.000000
494.0    20.0  1.000000  0.000000  1.000000  1.000000
495.0    20.0  1.000000  0.000000  1.000000  1.000000
496.0    20.0  1.000000  0.000000  1.000000  1.000000
497.0    20.0  1.000000  0.000000  1.000000  1.000000
498.0    20.0  1.000000  0.000000  1.000000  1.000000
499.0    20.0  1.000000  0.000000  1.000000  1.000000
