gen  nevals       avg       std       min       max
  0.0    20.0  0.583334  0.011373  0.563522  0.608368
  1.0    20.0  0.592228  0.007957  0.581467  0.608368
  2.0    20.0  0.599399  0.004888  0.590439  0.611359
  3.0    20.0  0.605826  0.005204  0.599396  0.617340
  4.0    20.0  0.610312  0.004636  0.602386  0.618835
  5.0    20.0  0.612032  0.003224  0.606873  0.618835
  6.0    20.0  0.614648  0.005193  0.609863  0.630798
  7.0    20.0  0.619359  0.006331  0.612854  0.630798
  8.0    20.0  0.621976  0.004820  0.614349  0.630798
  9.0    20.0  0.623845  0.004157  0.618835  0.630798
 10.0    20.0  0.626386  0.003736  0.621826  0.635269
 11.0    20.0  0.627059  0.003359  0.621826  0.635269
 12.0    20.0  0.628555  0.003045  0.623322  0.635269
 13.0    20.0  0.629974  0.002853  0.626312  0.635269
 14.0    20.0  0.630049  0.002775  0.626312  0.635269
 15.0    20.0  0.630273  0.002556  0.626312  0.635269
 16.0    20.0  0.631021  0.002327  0.627808  0.635269
 17.0    20.0  0.632066  0.002510  0.629303  0.638260
 18.0    20.0  0.633112  0.002851  0.629303  0.641251
 19.0    20.0  0.634456  0.003320  0.630798  0.642746
 20.0    20.0  0.635350  0.002771  0.632294  0.642746
 21.0    20.0  0.635574  0.002695  0.632294  0.642746
 22.0    20.0  0.635648  0.002623  0.632294  0.642746
 23.0    20.0  0.635648  0.002623  0.632294  0.642746
 24.0    20.0  0.636170  0.002516  0.633789  0.642746
 25.0    20.0  0.637289  0.003109  0.633789  0.645737
 26.0    20.0  0.637438  0.003008  0.633789  0.645737
 27.0    20.0  0.637662  0.002853  0.635269  0.645737
 28.0    20.0  0.637886  0.002832  0.635269  0.645737
 29.0    20.0  0.638335  0.003082  0.635269  0.645737
 30.0    20.0  0.639980  0.004591  0.635269  0.656204
 31.0    20.0  0.639980  0.004591  0.635269  0.656204
 32.0    20.0  0.640428  0.004448  0.636765  0.656204
 33.0    20.0  0.640652  0.004370  0.636765  0.656204
 34.0    20.0  0.641101  0.004200  0.636765  0.656204
 35.0    20.0  0.641176  0.004135  0.636765  0.656204
 36.0    20.0  0.641176  0.004135  0.636765  0.656204
 37.0    20.0  0.642223  0.004443  0.638260  0.656204
 38.0    20.0  0.644241  0.004681  0.639755  0.656204
 39.0    20.0  0.644466  0.004567  0.639755  0.656204
 40.0    20.0  0.645288  0.004388  0.639755  0.656204
 41.0    20.0  0.645587  0.004120  0.641251  0.656204
 42.0    20.0  0.646111  0.004037  0.641251  0.656204
 43.0    20.0  0.646335  0.003882  0.641251  0.656204
 44.0    20.0  0.647830  0.003645  0.642746  0.656204
 45.0    20.0  0.647980  0.003491  0.642746  0.656204
 46.0    20.0  0.648727  0.003310  0.644241  0.656204
 47.0    20.0  0.648727  0.003310  0.644241  0.656204
 48.0    20.0  0.648952  0.003146  0.644241  0.656204
 49.0    20.0  0.649026  0.003050  0.645737  0.656204
 50.0    20.0  0.649326  0.002892  0.645737  0.656204
 51.0    20.0  0.650148  0.002933  0.645737  0.656204
 52.0    20.0  0.650148  0.002933  0.645737  0.656204
 53.0    20.0  0.650148  0.002933  0.645737  0.656204
 54.0    20.0  0.650298  0.002776  0.645737  0.656204
 55.0    20.0  0.650821  0.002650  0.647232  0.656204
 56.0    20.0  0.651120  0.002564  0.647232  0.656204
 57.0    20.0  0.651120  0.002564  0.647232  0.656204
 58.0    20.0  0.651419  0.002439  0.648727  0.656204
 59.0    20.0  0.651419  0.002439  0.648727  0.656204
 60.0    20.0  0.651419  0.002439  0.648727  0.656204
 61.0    20.0  0.651419  0.002439  0.648727  0.656204
 62.0    20.0  0.651494  0.002377  0.648727  0.656204
 63.0    20.0  0.651494  0.002377  0.648727  0.656204
 64.0    20.0  0.651494  0.002377  0.648727  0.656204
 65.0    20.0  0.651494  0.002377  0.648727  0.656204
 66.0    20.0  0.651494  0.002377  0.648727  0.656204
 67.0    20.0  0.651494  0.002377  0.648727  0.656204
 68.0    20.0  0.651494  0.002377  0.648727  0.656204
 69.0    20.0  0.651494  0.002377  0.648727  0.656204
 70.0    20.0  0.651494  0.002377  0.648727  0.656204
 71.0    20.0  0.651494  0.002377  0.648727  0.656204
 72.0    20.0  0.651494  0.002377  0.648727  0.656204
 73.0    20.0  0.651494  0.002377  0.648727  0.656204
 74.0    20.0  0.651569  0.002312  0.648727  0.656204
 75.0    20.0  0.651643  0.002242  0.648727  0.656204
 76.0    20.0  0.651868  0.002056  0.648727  0.656204
 77.0    20.0  0.651868  0.002056  0.648727  0.656204
 78.0    20.0  0.651868  0.002056  0.648727  0.656204
 79.0    20.0  0.652017  0.001927  0.650223  0.656204
 80.0    20.0  0.652316  0.001915  0.650223  0.656204
 81.0    20.0  0.652615  0.002028  0.650223  0.656204
 82.0    20.0  0.652615  0.002028  0.650223  0.656204
 83.0    20.0  0.653064  0.002407  0.650223  0.659195
 84.0    20.0  0.653214  0.002317  0.650223  0.659195
 85.0    20.0  0.653214  0.002317  0.650223  0.659195
 86.0    20.0  0.653587  0.002405  0.650223  0.659195
 87.0    20.0  0.653737  0.002281  0.650223  0.659195
 88.0    20.0  0.653737  0.002281  0.650223  0.659195
 89.0    20.0  0.653737  0.002281  0.650223  0.659195
 90.0    20.0  0.653737  0.002281  0.650223  0.659195
 91.0    20.0  0.653737  0.002281  0.650223  0.659195
 92.0    20.0  0.653737  0.002281  0.650223  0.659195
 93.0    20.0  0.653812  0.002188  0.650223  0.659195
 94.0    20.0  0.653812  0.002188  0.650223  0.659195
 95.0    20.0  0.653961  0.002034  0.651718  0.659195
 96.0    20.0  0.653961  0.002034  0.651718  0.659195
 97.0    20.0  0.654185  0.002022  0.651718  0.659195
 98.0    20.0  0.655232  0.003516  0.651718  0.668167
 99.0    20.0  0.655457  0.003426  0.651718  0.668167
100.0    20.0  0.655457  0.003426  0.651718  0.668167
101.0    20.0  0.655606  0.003324  0.653214  0.668167
102.0    20.0  0.655606  0.003324  0.653214  0.668167
103.0    20.0  0.655606  0.003324  0.653214  0.668167
104.0    20.0  0.655606  0.003324  0.653214  0.668167
105.0    20.0  0.655606  0.003324  0.653214  0.668167
106.0    20.0  0.656876  0.005123  0.653214  0.674133
107.0    20.0  0.656876  0.005123  0.653214  0.674133
108.0    20.0  0.656876  0.005123  0.653214  0.674133
109.0    20.0  0.656876  0.005123  0.653214  0.674133
110.0    20.0  0.656876  0.005123  0.653214  0.674133
111.0    20.0  0.656876  0.005123  0.653214  0.674133
112.0    20.0  0.656876  0.005123  0.653214  0.674133
113.0    20.0  0.656876  0.005123  0.653214  0.674133
114.0    20.0  0.657400  0.005255  0.653214  0.674133
115.0    20.0  0.657475  0.005205  0.653214  0.674133
116.0    20.0  0.657475  0.005205  0.653214  0.674133
117.0    20.0  0.657475  0.005205  0.653214  0.674133
118.0    20.0  0.657923  0.005008  0.653214  0.674133
119.0    20.0  0.657923  0.005008  0.653214  0.674133
120.0    20.0  0.657998  0.004948  0.654709  0.674133
121.0    20.0  0.658447  0.005035  0.654709  0.674133
122.0    20.0  0.658447  0.005035  0.654709  0.674133
123.0    20.0  0.658447  0.005035  0.654709  0.674133
124.0    20.0  0.658447  0.005035  0.654709  0.674133
125.0    20.0  0.659194  0.005069  0.654709  0.674133
126.0    20.0  0.659194  0.005069  0.654709  0.674133
127.0    20.0  0.659194  0.005069  0.654709  0.674133
128.0    20.0  0.659344  0.004978  0.654709  0.674133
129.0    20.0  0.659344  0.004978  0.654709  0.674133
130.0    20.0  0.659344  0.004978  0.654709  0.674133
131.0    20.0  0.659344  0.004978  0.654709  0.674133
132.0    20.0  0.659344  0.004978  0.654709  0.674133
133.0    20.0  0.660091  0.004806  0.654709  0.674133
134.0    20.0  0.660091  0.004806  0.654709  0.674133
135.0    20.0  0.660091  0.004806  0.654709  0.674133
136.0    20.0  0.660091  0.004806  0.654709  0.674133
137.0    20.0  0.660091  0.004806  0.654709  0.674133
138.0    20.0  0.660091  0.004806  0.654709  0.674133
139.0    20.0  0.660540  0.004700  0.656204  0.674133
140.0    20.0  0.660615  0.004642  0.656204  0.674133
141.0    20.0  0.660615  0.004642  0.656204  0.674133
142.0    20.0  0.660690  0.004582  0.656204  0.674133
143.0    20.0  0.661362  0.004496  0.657700  0.674133
144.0    20.0  0.661362  0.004496  0.657700  0.674133
145.0    20.0  0.661587  0.004419  0.657700  0.674133
146.0    20.0  0.662185  0.004655  0.657700  0.674133
147.0    20.0  0.662185  0.004655  0.657700  0.674133
148.0    20.0  0.662185  0.004655  0.657700  0.674133
149.0    20.0  0.662409  0.004491  0.657700  0.674133
150.0    20.0  0.662783  0.004393  0.657700  0.674133
151.0    20.0  0.662783  0.004393  0.657700  0.674133
152.0    20.0  0.662933  0.004267  0.657700  0.674133
153.0    20.0  0.663306  0.004117  0.657700  0.674133
154.0    20.0  0.663456  0.003962  0.657700  0.674133
155.0    20.0  0.663456  0.003962  0.657700  0.674133
156.0    20.0  0.663456  0.003962  0.657700  0.674133
157.0    20.0  0.663456  0.003962  0.657700  0.674133
158.0    20.0  0.663456  0.003962  0.657700  0.674133
159.0    20.0  0.663680  0.003751  0.659195  0.674133
160.0    20.0  0.663680  0.003751  0.659195  0.674133
161.0    20.0  0.664129  0.003476  0.659195  0.674133
162.0    20.0  0.664353  0.003290  0.660690  0.674133
163.0    20.0  0.664428  0.003222  0.660690  0.674133
164.0    20.0  0.664428  0.003222  0.660690  0.674133
165.0    20.0  0.664428  0.003222  0.660690  0.674133
166.0    20.0  0.664428  0.003222  0.660690  0.674133
167.0    20.0  0.664428  0.003222  0.660690  0.674133
168.0    20.0  0.664428  0.003222  0.660690  0.674133
169.0    20.0  0.664428  0.003222  0.660690  0.674133
170.0    20.0  0.664428  0.003222  0.660690  0.674133
171.0    20.0  0.664428  0.003222  0.660690  0.674133
172.0    20.0  0.664503  0.003151  0.660690  0.674133
173.0    20.0  0.664503  0.003151  0.660690  0.674133
174.0    20.0  0.664503  0.003151  0.660690  0.674133
175.0    20.0  0.664503  0.003151  0.660690  0.674133
176.0    20.0  0.664503  0.003151  0.660690  0.674133
177.0    20.0  0.665250  0.003358  0.662186  0.674133
178.0    20.0  0.665250  0.003358  0.662186  0.674133
179.0    20.0  0.665250  0.003358  0.662186  0.674133
180.0    20.0  0.665250  0.003358  0.662186  0.674133
181.0    20.0  0.665325  0.003305  0.662186  0.674133
182.0    20.0  0.665325  0.003305  0.662186  0.674133
183.0    20.0  0.665475  0.003226  0.662186  0.674133
184.0    20.0  0.665475  0.003226  0.662186  0.674133
185.0    20.0  0.665475  0.003226  0.662186  0.674133
186.0    20.0  0.665624  0.003138  0.662186  0.674133
187.0    20.0  0.665624  0.003138  0.662186  0.674133
188.0    20.0  0.665699  0.003073  0.662186  0.674133
189.0    20.0  0.665699  0.003073  0.662186  0.674133
190.0    20.0  0.666073  0.002928  0.663681  0.674133
191.0    20.0  0.666073  0.002928  0.663681  0.674133
192.0    20.0  0.666073  0.002928  0.663681  0.674133
193.0    20.0  0.666073  0.002928  0.663681  0.674133
194.0    20.0  0.666073  0.002928  0.663681  0.674133
195.0    20.0  0.666148  0.002885  0.663681  0.674133
196.0    20.0  0.666148  0.002885  0.663681  0.674133
197.0    20.0  0.666148  0.002885  0.663681  0.674133
198.0    20.0  0.666148  0.002885  0.663681  0.674133
199.0    20.0  0.666148  0.002885  0.663681  0.674133
200.0    20.0  0.666148  0.002885  0.663681  0.674133
201.0    20.0  0.666148  0.002885  0.663681  0.674133
202.0    20.0  0.666148  0.002885  0.663681  0.674133
203.0    20.0  0.666447  0.002924  0.663681  0.674133
204.0    20.0  0.666671  0.002874  0.663681  0.674133
205.0    20.0  0.666746  0.002814  0.663681  0.674133
206.0    20.0  0.666746  0.002814  0.663681  0.674133
207.0    20.0  0.666746  0.002814  0.663681  0.674133
208.0    20.0  0.666746  0.002814  0.663681  0.674133
209.0    20.0  0.666746  0.002814  0.663681  0.674133
210.0    20.0  0.666746  0.002814  0.663681  0.674133
211.0    20.0  0.666746  0.002814  0.663681  0.674133
212.0    20.0  0.666746  0.002814  0.663681  0.674133
213.0    20.0  0.666746  0.002814  0.663681  0.674133
214.0    20.0  0.666746  0.002814  0.663681  0.674133
215.0    20.0  0.666746  0.002814  0.663681  0.674133
216.0    20.0  0.666746  0.002814  0.663681  0.674133
217.0    20.0  0.666746  0.002814  0.663681  0.674133
218.0    20.0  0.666821  0.002751  0.663681  0.674133
219.0    20.0  0.666970  0.002656  0.663681  0.674133
220.0    20.0  0.666970  0.002656  0.663681  0.674133
221.0    20.0  0.667568  0.002605  0.665176  0.674133
222.0    20.0  0.667568  0.002605  0.665176  0.674133
223.0    20.0  0.667568  0.002605  0.665176  0.674133
224.0    20.0  0.667568  0.002605  0.665176  0.674133
225.0    20.0  0.667568  0.002605  0.665176  0.674133
226.0    20.0  0.667718  0.002549  0.665176  0.674133
227.0    20.0  0.667718  0.002549  0.665176  0.674133
228.0    20.0  0.667718  0.002549  0.665176  0.674133
229.0    20.0  0.667718  0.002549  0.665176  0.674133
230.0    20.0  0.667718  0.002549  0.665176  0.674133
231.0    20.0  0.667718  0.002549  0.665176  0.674133
232.0    20.0  0.667718  0.002549  0.665176  0.674133
233.0    20.0  0.667718  0.002549  0.665176  0.674133
234.0    20.0  0.667718  0.002549  0.665176  0.674133
235.0    20.0  0.667793  0.002495  0.665176  0.674133
236.0    20.0  0.667793  0.002495  0.665176  0.674133
237.0    20.0  0.667793  0.002495  0.665176  0.674133
238.0    20.0  0.667942  0.002375  0.665176  0.674133
239.0    20.0  0.667942  0.002375  0.665176  0.674133
240.0    20.0  0.667942  0.002375  0.665176  0.674133
241.0    20.0  0.667942  0.002375  0.665176  0.674133
242.0    20.0  0.667942  0.002375  0.665176  0.674133
243.0    20.0  0.668465  0.002818  0.665176  0.675629
244.0    20.0  0.668764  0.002770  0.665176  0.675629
245.0    20.0  0.668764  0.002770  0.665176  0.675629
246.0    20.0  0.668764  0.002770  0.665176  0.675629
247.0    20.0  0.668764  0.002770  0.665176  0.675629
248.0    20.0  0.668764  0.002770  0.665176  0.675629
249.0    20.0  0.668988  0.002650  0.666672  0.675629
250.0    20.0  0.668988  0.002650  0.666672  0.675629
251.0    20.0  0.668988  0.002650  0.666672  0.675629
252.0    20.0  0.668988  0.002650  0.666672  0.675629
253.0    20.0  0.668988  0.002650  0.666672  0.675629
254.0    20.0  0.668988  0.002650  0.666672  0.675629
255.0    20.0  0.668988  0.002650  0.666672  0.675629
256.0    20.0  0.668988  0.002650  0.666672  0.675629
257.0    20.0  0.669063  0.002604  0.666672  0.675629
258.0    20.0  0.669362  0.002655  0.666672  0.675629
259.0    20.0  0.669362  0.002655  0.666672  0.675629
260.0    20.0  0.669362  0.002655  0.666672  0.675629
261.0    20.0  0.669362  0.002655  0.666672  0.675629
262.0    20.0  0.669362  0.002655  0.666672  0.675629
263.0    20.0  0.669362  0.002655  0.666672  0.675629
264.0    20.0  0.669362  0.002655  0.666672  0.675629
265.0    20.0  0.669362  0.002655  0.666672  0.675629
266.0    20.0  0.669362  0.002655  0.666672  0.675629
267.0    20.0  0.669362  0.002655  0.666672  0.675629
268.0    20.0  0.669362  0.002655  0.666672  0.675629
269.0    20.0  0.669362  0.002655  0.666672  0.675629
270.0    20.0  0.669362  0.002655  0.666672  0.675629
271.0    20.0  0.669362  0.002655  0.666672  0.675629
272.0    20.0  0.669362  0.002655  0.666672  0.675629
273.0    20.0  0.669362  0.002655  0.666672  0.675629
274.0    20.0  0.669362  0.002655  0.666672  0.675629
275.0    20.0  0.669362  0.002655  0.666672  0.675629
276.0    20.0  0.669362  0.002655  0.666672  0.675629
277.0    20.0  0.669362  0.002655  0.666672  0.675629
278.0    20.0  0.669362  0.002655  0.666672  0.675629
279.0    20.0  0.669362  0.002655  0.666672  0.675629
280.0    20.0  0.669362  0.002655  0.666672  0.675629
281.0    20.0  0.669810  0.002907  0.666672  0.675629
282.0    20.0  0.669810  0.002907  0.666672  0.675629
283.0    20.0  0.669810  0.002907  0.666672  0.675629
284.0    20.0  0.669810  0.002907  0.666672  0.675629
285.0    20.0  0.669810  0.002907  0.666672  0.675629
286.0    20.0  0.669810  0.002907  0.666672  0.675629
287.0    20.0  0.669810  0.002907  0.666672  0.675629
288.0    20.0  0.669810  0.002907  0.666672  0.675629
289.0    20.0  0.669810  0.002907  0.666672  0.675629
290.0    20.0  0.669884  0.002844  0.666672  0.675629
291.0    20.0  0.669884  0.002844  0.666672  0.675629
292.0    20.0  0.669959  0.002777  0.666672  0.675629
293.0    20.0  0.669959  0.002777  0.666672  0.675629
294.0    20.0  0.669959  0.002777  0.666672  0.675629
295.0    20.0  0.669959  0.002777  0.666672  0.675629
296.0    20.0  0.669959  0.002777  0.666672  0.675629
297.0    20.0  0.670109  0.002675  0.666672  0.675629
298.0    20.0  0.670109  0.002675  0.666672  0.675629
299.0    20.0  0.670109  0.002675  0.666672  0.675629
300.0    20.0  0.670109  0.002675  0.666672  0.675629
301.0    20.0  0.670184  0.002598  0.666672  0.675629
302.0    20.0  0.670184  0.002598  0.666672  0.675629
303.0    20.0  0.670184  0.002598  0.666672  0.675629
304.0    20.0  0.670184  0.002598  0.666672  0.675629
305.0    20.0  0.670483  0.002519  0.668167  0.675629
306.0    20.0  0.670483  0.002519  0.668167  0.675629
307.0    20.0  0.670483  0.002519  0.668167  0.675629
308.0    20.0  0.670483  0.002519  0.668167  0.675629
309.0    20.0  0.670483  0.002519  0.668167  0.675629
310.0    20.0  0.670483  0.002519  0.668167  0.675629
311.0    20.0  0.670483  0.002519  0.668167  0.675629
312.0    20.0  0.670483  0.002519  0.668167  0.675629
313.0    20.0  0.670483  0.002519  0.668167  0.675629
314.0    20.0  0.670483  0.002519  0.668167  0.675629
315.0    20.0  0.670483  0.002519  0.668167  0.675629
316.0    20.0  0.671155  0.003438  0.668167  0.681610
317.0    20.0  0.671155  0.003438  0.668167  0.681610
318.0    20.0  0.671304  0.003369  0.668167  0.681610
319.0    20.0  0.671304  0.003369  0.668167  0.681610
320.0    20.0  0.671454  0.003292  0.668167  0.681610
321.0    20.0  0.671454  0.003292  0.668167  0.681610
322.0    20.0  0.671603  0.003206  0.668167  0.681610
323.0    20.0  0.671603  0.003206  0.668167  0.681610
324.0    20.0  0.671603  0.003206  0.668167  0.681610
325.0    20.0  0.671603  0.003206  0.668167  0.681610
326.0    20.0  0.671603  0.003206  0.668167  0.681610
327.0    20.0  0.671603  0.003206  0.668167  0.681610
328.0    20.0  0.671603  0.003206  0.668167  0.681610
329.0    20.0  0.671603  0.003206  0.668167  0.681610
330.0    20.0  0.671603  0.003206  0.668167  0.681610
331.0    20.0  0.671603  0.003206  0.668167  0.681610
332.0    20.0  0.671603  0.003206  0.668167  0.681610
333.0    20.0  0.671603  0.003206  0.668167  0.681610
334.0    20.0  0.671603  0.003206  0.668167  0.681610
335.0    20.0  0.671603  0.003206  0.668167  0.681610
336.0    20.0  0.671603  0.003206  0.668167  0.681610
337.0    20.0  0.672575  0.004639  0.668167  0.687592
338.0    20.0  0.672575  0.004639  0.668167  0.687592
339.0    20.0  0.672575  0.004639  0.668167  0.687592
340.0    20.0  0.672575  0.004639  0.668167  0.687592
341.0    20.0  0.672799  0.004528  0.668167  0.687592
342.0    20.0  0.672799  0.004528  0.668167  0.687592
343.0    20.0  0.672874  0.004463  0.668167  0.687592
344.0    20.0  0.673695  0.005001  0.669662  0.687592
345.0    20.0  0.673695  0.005001  0.669662  0.687592
346.0    20.0  0.673695  0.005001  0.669662  0.687592
347.0    20.0  0.673695  0.005001  0.669662  0.687592
348.0    20.0  0.673919  0.004915  0.669662  0.687592
349.0    20.0  0.673919  0.004915  0.669662  0.687592
350.0    20.0  0.673919  0.004915  0.669662  0.687592
351.0    20.0  0.673919  0.004915  0.669662  0.687592
352.0    20.0  0.674068  0.004828  0.669662  0.687592
353.0    20.0  0.674218  0.004735  0.669662  0.687592
354.0    20.0  0.674442  0.004618  0.669662  0.687592
355.0    20.0  0.674442  0.004618  0.669662  0.687592
356.0    20.0  0.674740  0.004491  0.671158  0.687592
357.0    20.0  0.674740  0.004491  0.671158  0.687592
358.0    20.0  0.674740  0.004491  0.671158  0.687592
359.0    20.0  0.674740  0.004491  0.671158  0.687592
360.0    20.0  0.674740  0.004491  0.671158  0.687592
361.0    20.0  0.674740  0.004491  0.671158  0.687592
362.0    20.0  0.674740  0.004491  0.671158  0.687592
363.0    20.0  0.674740  0.004491  0.671158  0.687592
364.0    20.0  0.674740  0.004491  0.671158  0.687592
365.0    20.0  0.674740  0.004491  0.671158  0.687592
366.0    20.0  0.674740  0.004491  0.671158  0.687592
367.0    20.0  0.674740  0.004491  0.671158  0.687592
368.0    20.0  0.674740  0.004491  0.671158  0.687592
369.0    20.0  0.674889  0.004418  0.671158  0.687592
370.0    20.0  0.674889  0.004418  0.671158  0.687592
371.0    20.0  0.674889  0.004418  0.671158  0.687592
372.0    20.0  0.674889  0.004418  0.671158  0.687592
373.0    20.0  0.674889  0.004418  0.671158  0.687592
374.0    20.0  0.674889  0.004418  0.671158  0.687592
375.0    20.0  0.674889  0.004418  0.671158  0.687592
376.0    20.0  0.675486  0.004674  0.671158  0.687592
377.0    20.0  0.675486  0.004674  0.671158  0.687592
378.0    20.0  0.675486  0.004674  0.671158  0.687592
379.0    20.0  0.675561  0.004616  0.671158  0.687592
380.0    20.0  0.675710  0.004518  0.671158  0.687592
381.0    20.0  0.675710  0.004518  0.671158  0.687592
382.0    20.0  0.675710  0.004518  0.671158  0.687592
383.0    20.0  0.675710  0.004518  0.671158  0.687592
384.0    20.0  0.675710  0.004518  0.671158  0.687592
385.0    20.0  0.675710  0.004518  0.671158  0.687592
386.0    20.0  0.675710  0.004518  0.671158  0.687592
387.0    20.0  0.675710  0.004518  0.671158  0.687592
388.0    20.0  0.675710  0.004518  0.671158  0.687592
389.0    20.0  0.675784  0.004454  0.672653  0.687592
390.0    20.0  0.675784  0.004454  0.672653  0.687592
391.0    20.0  0.675784  0.004454  0.672653  0.687592
392.0    20.0  0.675784  0.004454  0.672653  0.687592
393.0    20.0  0.675784  0.004454  0.672653  0.687592
394.0    20.0  0.675784  0.004454  0.672653  0.687592
395.0    20.0  0.675784  0.004454  0.672653  0.687592
396.0    20.0  0.675858  0.004414  0.672653  0.687592
397.0    20.0  0.675858  0.004414  0.672653  0.687592
398.0    20.0  0.675858  0.004414  0.672653  0.687592
399.0    20.0  0.675858  0.004414  0.672653  0.687592
400.0    20.0  0.675858  0.004414  0.672653  0.687592
401.0    20.0  0.675858  0.004414  0.672653  0.687592
402.0    20.0  0.675858  0.004414  0.672653  0.687592
403.0    20.0  0.675858  0.004414  0.672653  0.687592
404.0    20.0  0.675858  0.004414  0.672653  0.687592
405.0    20.0  0.675858  0.004414  0.672653  0.687592
406.0    20.0  0.675858  0.004414  0.672653  0.687592
407.0    20.0  0.675858  0.004414  0.672653  0.687592
408.0    20.0  0.675858  0.004414  0.672653  0.687592
409.0    20.0  0.676007  0.004353  0.672653  0.687592
410.0    20.0  0.676305  0.004317  0.672653  0.687592
411.0    20.0  0.676305  0.004317  0.672653  0.687592
412.0    20.0  0.676305  0.004317  0.672653  0.687592
413.0    20.0  0.676305  0.004317  0.672653  0.687592
414.0    20.0  0.676305  0.004317  0.672653  0.687592
415.0    20.0  0.676305  0.004317  0.672653  0.687592
416.0    20.0  0.676305  0.004317  0.672653  0.687592
417.0    20.0  0.676305  0.004317  0.672653  0.687592
418.0    20.0  0.676305  0.004317  0.672653  0.687592
419.0    20.0  0.676305  0.004317  0.672653  0.687592
420.0    20.0  0.676305  0.004317  0.672653  0.687592
421.0    20.0  0.676305  0.004317  0.672653  0.687592
422.0    20.0  0.676305  0.004317  0.672653  0.687592
423.0    20.0  0.676305  0.004317  0.672653  0.687592
424.0    20.0  0.676305  0.004317  0.672653  0.687592
425.0    20.0  0.676305  0.004317  0.672653  0.687592
426.0    20.0  0.676305  0.004317  0.672653  0.687592
427.0    20.0  0.676305  0.004317  0.672653  0.687592
428.0    20.0  0.676678  0.004308  0.672653  0.687592
429.0    20.0  0.676678  0.004308  0.672653  0.687592
430.0    20.0  0.676678  0.004308  0.672653  0.687592
431.0    20.0  0.676678  0.004308  0.672653  0.687592
432.0    20.0  0.676678  0.004308  0.672653  0.687592
433.0    20.0  0.676678  0.004308  0.672653  0.687592
434.0    20.0  0.676678  0.004308  0.672653  0.687592
435.0    20.0  0.676678  0.004308  0.672653  0.687592
436.0    20.0  0.676977  0.004225  0.672653  0.687592
437.0    20.0  0.676977  0.004225  0.672653  0.687592
438.0    20.0  0.677499  0.004303  0.672653  0.687592
439.0    20.0  0.677872  0.004189  0.672653  0.687592
440.0    20.0  0.677872  0.004189  0.672653  0.687592
441.0    20.0  0.678246  0.004037  0.674133  0.687592
442.0    20.0  0.678246  0.004037  0.674133  0.687592
443.0    20.0  0.678246  0.004037  0.674133  0.687592
444.0    20.0  0.678545  0.003941  0.674133  0.687592
445.0    20.0  0.678545  0.003941  0.674133  0.687592
446.0    20.0  0.678545  0.003941  0.674133  0.687592
447.0    20.0  0.678545  0.003941  0.674133  0.687592
448.0    20.0  0.678545  0.003941  0.674133  0.687592
449.0    20.0  0.678545  0.003941  0.674133  0.687592
450.0    20.0  0.678545  0.003941  0.674133  0.687592
451.0    20.0  0.678545  0.003941  0.674133  0.687592
452.0    20.0  0.678545  0.003941  0.674133  0.687592
453.0    20.0  0.678545  0.003941  0.674133  0.687592
454.0    20.0  0.678769  0.003809  0.674133  0.687592
455.0    20.0  0.678769  0.003809  0.674133  0.687592
456.0    20.0  0.678844  0.003732  0.674133  0.687592
457.0    20.0  0.678844  0.003732  0.674133  0.687592
458.0    20.0  0.678844  0.003732  0.674133  0.687592
459.0    20.0  0.678844  0.003732  0.674133  0.687592
460.0    20.0  0.678844  0.003732  0.674133  0.687592
461.0    20.0  0.678844  0.003732  0.674133  0.687592
462.0    20.0  0.678844  0.003732  0.674133  0.687592
463.0    20.0  0.678844  0.003732  0.674133  0.687592
464.0    20.0  0.678844  0.003732  0.674133  0.687592
465.0    20.0  0.678844  0.003732  0.674133  0.687592
466.0    20.0  0.678844  0.003732  0.674133  0.687592
467.0    20.0  0.678844  0.003732  0.674133  0.687592
468.0    20.0  0.678844  0.003732  0.674133  0.687592
469.0    20.0  0.678844  0.003732  0.674133  0.687592
470.0    20.0  0.678844  0.003732  0.674133  0.687592
471.0    20.0  0.678844  0.003732  0.674133  0.687592
472.0    20.0  0.678844  0.003732  0.674133  0.687592
473.0    20.0  0.678844  0.003732  0.674133  0.687592
474.0    20.0  0.679068  0.003573  0.674133  0.687592
475.0    20.0  0.679068  0.003573  0.674133  0.687592
476.0    20.0  0.679068  0.003573  0.674133  0.687592
477.0    20.0  0.679068  0.003573  0.674133  0.687592
478.0    20.0  0.679068  0.003573  0.674133  0.687592
479.0    20.0  0.679068  0.003573  0.674133  0.687592
480.0    20.0  0.679068  0.003573  0.674133  0.687592
481.0    20.0  0.679068  0.003573  0.674133  0.687592
482.0    20.0  0.679068  0.003573  0.674133  0.687592
483.0    20.0  0.679068  0.003573  0.674133  0.687592
484.0    20.0  0.679068  0.003573  0.674133  0.687592
485.0    20.0  0.679068  0.003573  0.674133  0.687592
486.0    20.0  0.679068  0.003573  0.674133  0.687592
487.0    20.0  0.679068  0.003573  0.674133  0.687592
488.0    20.0  0.679068  0.003573  0.674133  0.687592
489.0    20.0  0.679068  0.003573  0.674133  0.687592
490.0    20.0  0.679068  0.003573  0.674133  0.687592
491.0    20.0  0.679068  0.003573  0.674133  0.687592
492.0    20.0  0.679143  0.003484  0.674133  0.687592
493.0    20.0  0.679143  0.003484  0.674133  0.687592
494.0    20.0  0.679143  0.003484  0.674133  0.687592
495.0    20.0  0.679143  0.003484  0.674133  0.687592
496.0    20.0  0.679143  0.003484  0.674133  0.687592
497.0    20.0  0.679143  0.003484  0.674133  0.687592
498.0    20.0  0.679218  0.003390  0.675629  0.687592
499.0    20.0  0.679218  0.003390  0.675629  0.687592
