gen  nevals       avg       std       min       max
  0.0    20.0  0.612605  0.034433  0.521011  0.663864
  1.0    20.0  0.634032  0.017115  0.613449  0.672272
  2.0    20.0  0.651682  0.014909  0.630249  0.680679
  3.0    20.0  0.660506  0.011399  0.647064  0.680679
  4.0    20.0  0.665966  0.009162  0.655457  0.680679
  5.0    20.0  0.670169  0.008353  0.655457  0.689072
  6.0    20.0  0.673112  0.006456  0.663864  0.689072
  7.0    20.0  0.676474  0.005637  0.672272  0.689072
  8.0    20.0  0.678995  0.008651  0.672272  0.705887
  9.0    20.0  0.681936  0.008922  0.672272  0.705887
 10.0    20.0  0.691599  0.014578  0.680679  0.739502
 11.0    20.0  0.693699  0.014427  0.680679  0.739502
 12.0    20.0  0.702940  0.017279  0.689072  0.756302
 13.0    20.0  0.705463  0.016050  0.689072  0.756302
 14.0    20.0  0.711345  0.014861  0.697479  0.756302
 15.0    20.0  0.716806  0.014578  0.705887  0.756302
 16.0    20.0  0.719327  0.014651  0.705887  0.756302
 17.0    20.0  0.719746  0.014378  0.705887  0.756302
 18.0    20.0  0.725208  0.012775  0.714279  0.756302
 19.0    20.0  0.730251  0.012151  0.714279  0.756302
 20.0    20.0  0.731933  0.010597  0.714279  0.756302
 21.0    20.0  0.736135  0.010083  0.722687  0.756302
 22.0    20.0  0.737816  0.009431  0.722687  0.756302
 23.0    20.0  0.738657  0.008771  0.731094  0.756302
 24.0    20.0  0.743698  0.012320  0.731094  0.773102
 25.0    20.0  0.744118  0.012022  0.731094  0.773102
 26.0    20.0  0.744118  0.012022  0.731094  0.773102
 27.0    20.0  0.744118  0.012022  0.731094  0.773102
 28.0    20.0  0.745379  0.011912  0.731094  0.773102
 29.0    20.0  0.745379  0.011912  0.731094  0.773102
 30.0    20.0  0.747479  0.011106  0.731094  0.773102
 31.0    20.0  0.747900  0.010627  0.731094  0.773102
 32.0    20.0  0.749160  0.010038  0.731094  0.773102
 33.0    20.0  0.749160  0.010038  0.731094  0.773102
 34.0    20.0  0.751680  0.009000  0.739502  0.773102
 35.0    20.0  0.752940  0.008147  0.739502  0.773102
 36.0    20.0  0.756300  0.008814  0.747894  0.773102
 37.0    20.0  0.756300  0.008814  0.747894  0.773102
 38.0    20.0  0.756720  0.008601  0.747894  0.773102
 39.0    20.0  0.756720  0.008601  0.747894  0.773102
 40.0    20.0  0.760502  0.010794  0.747894  0.789917
 41.0    20.0  0.761343  0.010428  0.747894  0.789917
 42.0    20.0  0.761343  0.010428  0.747894  0.789917
 43.0    20.0  0.762604  0.009534  0.747894  0.789917
 44.0    20.0  0.764285  0.009754  0.756302  0.789917
 45.0    20.0  0.765125  0.009385  0.756302  0.789917
 46.0    20.0  0.765125  0.009385  0.756302  0.789917
 47.0    20.0  0.765125  0.009385  0.756302  0.789917
 48.0    20.0  0.765125  0.009385  0.756302  0.789917
 49.0    20.0  0.765125  0.009385  0.756302  0.789917
 50.0    20.0  0.765125  0.009385  0.756302  0.789917
 51.0    20.0  0.765125  0.009385  0.756302  0.789917
 52.0    20.0  0.765125  0.009385  0.756302  0.789917
 53.0    20.0  0.765125  0.009385  0.756302  0.789917
 54.0    20.0  0.766386  0.009799  0.756302  0.789917
 55.0    20.0  0.766386  0.009799  0.756302  0.789917
 56.0    20.0  0.766386  0.009799  0.756302  0.789917
 57.0    20.0  0.767646  0.010039  0.756302  0.789917
 58.0    20.0  0.768066  0.009726  0.756302  0.789917
 59.0    20.0  0.768906  0.009393  0.756302  0.789917
 60.0    20.0  0.769747  0.008568  0.756302  0.789917
 61.0    20.0  0.771008  0.008348  0.756302  0.789917
 62.0    20.0  0.771008  0.008348  0.756302  0.789917
 63.0    20.0  0.771008  0.008348  0.756302  0.789917
 64.0    20.0  0.771008  0.008348  0.756302  0.789917
 65.0    20.0  0.772268  0.007925  0.764709  0.789917
 66.0    20.0  0.772268  0.007925  0.764709  0.789917
 67.0    20.0  0.772268  0.007925  0.764709  0.789917
 68.0    20.0  0.772268  0.007925  0.764709  0.789917
 69.0    20.0  0.772268  0.007925  0.764709  0.789917
 70.0    20.0  0.772268  0.007925  0.764709  0.789917
 71.0    20.0  0.772688  0.007734  0.764709  0.789917
 72.0    20.0  0.772688  0.007734  0.764709  0.789917
 73.0    20.0  0.773107  0.007514  0.764709  0.789917
 74.0    20.0  0.773107  0.007514  0.764709  0.789917
 75.0    20.0  0.773107  0.007514  0.764709  0.789917
 76.0    20.0  0.773107  0.007514  0.764709  0.789917
 77.0    20.0  0.773107  0.007514  0.764709  0.789917
 78.0    20.0  0.773107  0.007514  0.764709  0.789917
 79.0    20.0  0.773527  0.007263  0.764709  0.789917
 80.0    20.0  0.773527  0.007263  0.764709  0.789917
 81.0    20.0  0.773946  0.006979  0.764709  0.789917
 82.0    20.0  0.773946  0.006979  0.764709  0.789917
 83.0    20.0  0.773946  0.006979  0.764709  0.789917
 84.0    20.0  0.773946  0.006979  0.764709  0.789917
 85.0    20.0  0.773946  0.006979  0.764709  0.789917
 86.0    20.0  0.773946  0.006979  0.764709  0.789917
 87.0    20.0  0.774366  0.006656  0.764709  0.789917
 88.0    20.0  0.775626  0.006001  0.764709  0.789917
 89.0    20.0  0.777306  0.007280  0.764709  0.798325
 90.0    20.0  0.777306  0.007280  0.764709  0.798325
 91.0    20.0  0.777726  0.006765  0.773102  0.798325
 92.0    20.0  0.777726  0.006765  0.773102  0.798325
 93.0    20.0  0.777726  0.006765  0.773102  0.798325
 94.0    20.0  0.778146  0.006726  0.773102  0.798325
 95.0    20.0  0.779408  0.006971  0.773102  0.798325
 96.0    20.0  0.779408  0.006971  0.773102  0.798325
 97.0    20.0  0.779408  0.006971  0.773102  0.798325
 98.0    20.0  0.779408  0.006971  0.773102  0.798325
 99.0    20.0  0.779408  0.006971  0.773102  0.798325
100.0    20.0  0.779408  0.006971  0.773102  0.798325
101.0    20.0  0.779408  0.006971  0.773102  0.798325
102.0    20.0  0.779408  0.006971  0.773102  0.798325
103.0    20.0  0.779408  0.006971  0.773102  0.798325
104.0    20.0  0.780669  0.006984  0.773102  0.798325
105.0    20.0  0.781509  0.007034  0.773102  0.798325
106.0    20.0  0.781509  0.007034  0.773102  0.798325
107.0    20.0  0.781509  0.007034  0.773102  0.798325
108.0    20.0  0.781930  0.006765  0.773102  0.798325
109.0    20.0  0.781930  0.006765  0.773102  0.798325
110.0    20.0  0.781930  0.006765  0.773102  0.798325
111.0    20.0  0.781930  0.006765  0.773102  0.798325
112.0    20.0  0.781930  0.006765  0.773102  0.798325
113.0    20.0  0.781930  0.006765  0.773102  0.798325
114.0    20.0  0.782350  0.006458  0.773102  0.798325
115.0    20.0  0.782350  0.006458  0.773102  0.798325
116.0    20.0  0.783611  0.005870  0.773102  0.798325
117.0    20.0  0.783611  0.005870  0.773102  0.798325
118.0    20.0  0.783611  0.005870  0.773102  0.798325
119.0    20.0  0.785293  0.004956  0.781509  0.798325
120.0    20.0  0.785293  0.004956  0.781509  0.798325
121.0    20.0  0.785293  0.004956  0.781509  0.798325
122.0    20.0  0.785293  0.004956  0.781509  0.798325
123.0    20.0  0.785293  0.004956  0.781509  0.798325
124.0    20.0  0.785293  0.004956  0.781509  0.798325
125.0    20.0  0.786554  0.005577  0.781509  0.798325
126.0    20.0  0.786554  0.005577  0.781509  0.798325
127.0    20.0  0.786554  0.005577  0.781509  0.798325
128.0    20.0  0.787395  0.006004  0.781509  0.798325
129.0    20.0  0.787395  0.006004  0.781509  0.798325
130.0    20.0  0.787395  0.006004  0.781509  0.798325
131.0    20.0  0.787395  0.006004  0.781509  0.798325
132.0    20.0  0.787395  0.006004  0.781509  0.798325
133.0    20.0  0.787395  0.006004  0.781509  0.798325
134.0    20.0  0.787395  0.006004  0.781509  0.798325
135.0    20.0  0.787395  0.006004  0.781509  0.798325
136.0    20.0  0.788656  0.006106  0.781509  0.798325
137.0    20.0  0.788656  0.006106  0.781509  0.798325
138.0    20.0  0.789497  0.006221  0.781509  0.798325
139.0    20.0  0.789497  0.006221  0.781509  0.798325
140.0    20.0  0.789497  0.006221  0.781509  0.798325
141.0    20.0  0.789497  0.006221  0.781509  0.798325
142.0    20.0  0.789497  0.006221  0.781509  0.798325
143.0    20.0  0.789497  0.006221  0.781509  0.798325
144.0    20.0  0.789497  0.006221  0.781509  0.798325
145.0    20.0  0.789497  0.006221  0.781509  0.798325
146.0    20.0  0.789497  0.006221  0.781509  0.798325
147.0    20.0  0.789497  0.006221  0.781509  0.798325
148.0    20.0  0.789497  0.006221  0.781509  0.798325
149.0    20.0  0.790337  0.006221  0.781509  0.798325
150.0    20.0  0.790337  0.006221  0.781509  0.798325
151.0    20.0  0.790337  0.006221  0.781509  0.798325
152.0    20.0  0.790758  0.005885  0.781509  0.798325
153.0    20.0  0.790758  0.005885  0.781509  0.798325
154.0    20.0  0.790758  0.005885  0.781509  0.798325
155.0    20.0  0.790758  0.005885  0.781509  0.798325
156.0    20.0  0.790758  0.005885  0.781509  0.798325
157.0    20.0  0.790758  0.005885  0.781509  0.798325
158.0    20.0  0.791178  0.005497  0.781509  0.798325
159.0    20.0  0.791178  0.005497  0.781509  0.798325
160.0    20.0  0.791178  0.005497  0.781509  0.798325
161.0    20.0  0.791178  0.005497  0.781509  0.798325
162.0    20.0  0.791178  0.005497  0.781509  0.798325
163.0    20.0  0.791178  0.005497  0.781509  0.798325
164.0    20.0  0.792019  0.004508  0.781509  0.798325
165.0    20.0  0.793700  0.004954  0.789917  0.806717
166.0    20.0  0.793700  0.004954  0.789917  0.806717
167.0    20.0  0.793700  0.004954  0.789917  0.806717
168.0    20.0  0.793700  0.004954  0.789917  0.806717
169.0    20.0  0.793700  0.004954  0.789917  0.806717
170.0    20.0  0.794120  0.004972  0.789917  0.806717
171.0    20.0  0.794120  0.004972  0.789917  0.806717
172.0    20.0  0.794120  0.004972  0.789917  0.806717
173.0    20.0  0.794120  0.004972  0.789917  0.806717
174.0    20.0  0.794120  0.004972  0.789917  0.806717
175.0    20.0  0.794120  0.004972  0.789917  0.806717
176.0    20.0  0.795380  0.006657  0.789917  0.815125
177.0    20.0  0.795380  0.006657  0.789917  0.815125
178.0    20.0  0.795380  0.006657  0.789917  0.815125
179.0    20.0  0.795380  0.006657  0.789917  0.815125
180.0    20.0  0.795380  0.006657  0.789917  0.815125
181.0    20.0  0.795380  0.006657  0.789917  0.815125
182.0    20.0  0.795380  0.006657  0.789917  0.815125
183.0    20.0  0.795380  0.006657  0.789917  0.815125
184.0    20.0  0.797061  0.008923  0.789917  0.823532
185.0    20.0  0.797482  0.008773  0.789917  0.823532
186.0    20.0  0.797482  0.008773  0.789917  0.823532
187.0    20.0  0.797482  0.008773  0.789917  0.823532
188.0    20.0  0.797482  0.008773  0.789917  0.823532
189.0    20.0  0.797482  0.008773  0.789917  0.823532
190.0    20.0  0.797482  0.008773  0.789917  0.823532
191.0    20.0  0.798322  0.008813  0.789917  0.823532
192.0    20.0  0.798322  0.008813  0.789917  0.823532
193.0    20.0  0.798322  0.008813  0.789917  0.823532
194.0    20.0  0.798322  0.008813  0.789917  0.823532
195.0    20.0  0.798322  0.008813  0.789917  0.823532
196.0    20.0  0.798322  0.008813  0.789917  0.823532
197.0    20.0  0.798322  0.008813  0.789917  0.823532
198.0    20.0  0.798322  0.008813  0.789917  0.823532
199.0    20.0  0.798322  0.008813  0.789917  0.823532
200.0    20.0  0.799582  0.009309  0.789917  0.823532
201.0    20.0  0.799582  0.009309  0.789917  0.823532
202.0    20.0  0.799582  0.009309  0.789917  0.823532
203.0    20.0  0.800842  0.009617  0.789917  0.823532
204.0    20.0  0.800842  0.009617  0.789917  0.823532
205.0    20.0  0.801683  0.008971  0.789917  0.823532
206.0    20.0  0.801683  0.008971  0.789917  0.823532
207.0    20.0  0.801683  0.008971  0.789917  0.823532
208.0    20.0  0.801683  0.008971  0.789917  0.823532
209.0    20.0  0.801683  0.008971  0.789917  0.823532
210.0    20.0  0.802103  0.008599  0.789917  0.823532
211.0    20.0  0.802524  0.008188  0.789917  0.823532
212.0    20.0  0.802524  0.008188  0.789917  0.823532
213.0    20.0  0.803364  0.007699  0.798325  0.823532
214.0    20.0  0.803364  0.007699  0.798325  0.823532
215.0    20.0  0.803783  0.007642  0.798325  0.823532
216.0    20.0  0.805464  0.009681  0.798325  0.831940
217.0    20.0  0.805464  0.009681  0.798325  0.831940
218.0    20.0  0.805464  0.009681  0.798325  0.831940
219.0    20.0  0.805464  0.009681  0.798325  0.831940
220.0    20.0  0.805464  0.009681  0.798325  0.831940
221.0    20.0  0.805464  0.009681  0.798325  0.831940
222.0    20.0  0.805464  0.009681  0.798325  0.831940
223.0    20.0  0.805464  0.009681  0.798325  0.831940
224.0    20.0  0.805464  0.009681  0.798325  0.831940
225.0    20.0  0.805464  0.009681  0.798325  0.831940
226.0    20.0  0.805464  0.009681  0.798325  0.831940
227.0    20.0  0.805464  0.009681  0.798325  0.831940
228.0    20.0  0.805464  0.009681  0.798325  0.831940
229.0    20.0  0.805464  0.009681  0.798325  0.831940
230.0    20.0  0.805884  0.009543  0.798325  0.831940
231.0    20.0  0.805884  0.009543  0.798325  0.831940
232.0    20.0  0.807144  0.010109  0.798325  0.831940
233.0    20.0  0.807984  0.010039  0.798325  0.831940
234.0    20.0  0.807984  0.010039  0.798325  0.831940
235.0    20.0  0.807984  0.010039  0.798325  0.831940
236.0    20.0  0.807984  0.010039  0.798325  0.831940
237.0    20.0  0.808404  0.009799  0.798325  0.831940
238.0    20.0  0.808823  0.009535  0.798325  0.831940
239.0    20.0  0.808823  0.009535  0.798325  0.831940
240.0    20.0  0.808823  0.009535  0.798325  0.831940
241.0    20.0  0.808823  0.009535  0.798325  0.831940
242.0    20.0  0.809243  0.009244  0.798325  0.831940
243.0    20.0  0.809663  0.008924  0.798325  0.831940
244.0    20.0  0.809663  0.008924  0.798325  0.831940
245.0    20.0  0.810922  0.008192  0.798325  0.831940
246.0    20.0  0.810922  0.008192  0.798325  0.831940
247.0    20.0  0.811342  0.007739  0.798325  0.831940
248.0    20.0  0.811761  0.007232  0.806717  0.831940
249.0    20.0  0.811761  0.007232  0.806717  0.831940
250.0    20.0  0.811761  0.007232  0.806717  0.831940
251.0    20.0  0.811761  0.007232  0.806717  0.831940
252.0    20.0  0.811761  0.007232  0.806717  0.831940
253.0    20.0  0.811761  0.007232  0.806717  0.831940
254.0    20.0  0.811761  0.007232  0.806717  0.831940
255.0    20.0  0.811761  0.007232  0.806717  0.831940
256.0    20.0  0.811761  0.007232  0.806717  0.831940
257.0    20.0  0.811761  0.007232  0.806717  0.831940
258.0    20.0  0.811761  0.007232  0.806717  0.831940
259.0    20.0  0.812182  0.007171  0.806717  0.831940
260.0    20.0  0.812182  0.007171  0.806717  0.831940
261.0    20.0  0.812182  0.007171  0.806717  0.831940
262.0    20.0  0.813443  0.008238  0.806717  0.831940
263.0    20.0  0.813443  0.008238  0.806717  0.831940
264.0    20.0  0.813443  0.008238  0.806717  0.831940
265.0    20.0  0.813443  0.008238  0.806717  0.831940
266.0    20.0  0.813443  0.008238  0.806717  0.831940
267.0    20.0  0.813443  0.008238  0.806717  0.831940
268.0    20.0  0.814704  0.009006  0.806717  0.831940
269.0    20.0  0.814704  0.009006  0.806717  0.831940
270.0    20.0  0.814704  0.009006  0.806717  0.831940
271.0    20.0  0.814704  0.009006  0.806717  0.831940
272.0    20.0  0.814704  0.009006  0.806717  0.831940
273.0    20.0  0.814704  0.009006  0.806717  0.831940
274.0    20.0  0.814704  0.009006  0.806717  0.831940
275.0    20.0  0.814704  0.009006  0.806717  0.831940
276.0    20.0  0.814704  0.009006  0.806717  0.831940
277.0    20.0  0.814704  0.009006  0.806717  0.831940
278.0    20.0  0.814704  0.009006  0.806717  0.831940
279.0    20.0  0.814704  0.009006  0.806717  0.831940
280.0    20.0  0.814704  0.009006  0.806717  0.831940
281.0    20.0  0.814704  0.009006  0.806717  0.831940
282.0    20.0  0.814704  0.009006  0.806717  0.831940
283.0    20.0  0.814704  0.009006  0.806717  0.831940
284.0    20.0  0.814704  0.009006  0.806717  0.831940
285.0    20.0  0.815125  0.008818  0.806717  0.831940
286.0    20.0  0.815125  0.008818  0.806717  0.831940
287.0    20.0  0.815125  0.008818  0.806717  0.831940
288.0    20.0  0.815125  0.008818  0.806717  0.831940
289.0    20.0  0.815125  0.008818  0.806717  0.831940
290.0    20.0  0.815125  0.008818  0.806717  0.831940
291.0    20.0  0.815125  0.008818  0.806717  0.831940
292.0    20.0  0.815125  0.008818  0.806717  0.831940
293.0    20.0  0.815125  0.008818  0.806717  0.831940
294.0    20.0  0.815125  0.008818  0.806717  0.831940
295.0    20.0  0.815125  0.008818  0.806717  0.831940
296.0    20.0  0.815125  0.008818  0.806717  0.831940
297.0    20.0  0.815125  0.008818  0.806717  0.831940
298.0    20.0  0.815125  0.008818  0.806717  0.831940
299.0    20.0  0.815965  0.008778  0.806717  0.831940
300.0    20.0  0.816386  0.008522  0.806717  0.831940
301.0    20.0  0.816386  0.008522  0.806717  0.831940
302.0    20.0  0.816386  0.008522  0.806717  0.831940
303.0    20.0  0.816386  0.008522  0.806717  0.831940
304.0    20.0  0.816386  0.008522  0.806717  0.831940
305.0    20.0  0.816806  0.008238  0.806717  0.831940
306.0    20.0  0.818487  0.009361  0.806717  0.840332
307.0    20.0  0.818487  0.009361  0.806717  0.840332
308.0    20.0  0.818487  0.009361  0.806717  0.840332
309.0    20.0  0.818487  0.009361  0.806717  0.840332
310.0    20.0  0.818907  0.009005  0.806717  0.840332
311.0    20.0  0.818907  0.009005  0.806717  0.840332
312.0    20.0  0.818907  0.009005  0.806717  0.840332
313.0    20.0  0.818907  0.009005  0.806717  0.840332
314.0    20.0  0.820168  0.008150  0.806717  0.840332
315.0    20.0  0.821849  0.008653  0.815125  0.840332
316.0    20.0  0.821849  0.008653  0.815125  0.840332
317.0    20.0  0.821849  0.008653  0.815125  0.840332
318.0    20.0  0.821849  0.008653  0.815125  0.840332
319.0    20.0  0.821849  0.008653  0.815125  0.840332
320.0    20.0  0.821849  0.008653  0.815125  0.840332
321.0    20.0  0.821849  0.008653  0.815125  0.840332
322.0    20.0  0.821849  0.008653  0.815125  0.840332
323.0    20.0  0.821849  0.008653  0.815125  0.840332
324.0    20.0  0.821849  0.008653  0.815125  0.840332
325.0    20.0  0.821849  0.008653  0.815125  0.840332
326.0    20.0  0.821849  0.008653  0.815125  0.840332
327.0    20.0  0.822269  0.008519  0.815125  0.840332
328.0    20.0  0.822269  0.008519  0.815125  0.840332
329.0    20.0  0.822269  0.008519  0.815125  0.840332
330.0    20.0  0.822269  0.008519  0.815125  0.840332
331.0    20.0  0.822269  0.008519  0.815125  0.840332
332.0    20.0  0.822269  0.008519  0.815125  0.840332
333.0    20.0  0.822690  0.008362  0.815125  0.840332
334.0    20.0  0.822690  0.008362  0.815125  0.840332
335.0    20.0  0.822690  0.008362  0.815125  0.840332
336.0    20.0  0.823110  0.008181  0.815125  0.840332
337.0    20.0  0.823110  0.008181  0.815125  0.840332
338.0    20.0  0.823110  0.008181  0.815125  0.840332
339.0    20.0  0.823110  0.008181  0.815125  0.840332
340.0    20.0  0.823110  0.008181  0.815125  0.840332
341.0    20.0  0.823110  0.008181  0.815125  0.840332
342.0    20.0  0.823110  0.008181  0.815125  0.840332
343.0    20.0  0.823110  0.008181  0.815125  0.840332
344.0    20.0  0.823110  0.008181  0.815125  0.840332
345.0    20.0  0.823110  0.008181  0.815125  0.840332
346.0    20.0  0.823110  0.008181  0.815125  0.840332
347.0    20.0  0.823110  0.008181  0.815125  0.840332
348.0    20.0  0.823110  0.008181  0.815125  0.840332
349.0    20.0  0.823110  0.008181  0.815125  0.840332
350.0    20.0  0.823110  0.008181  0.815125  0.840332
351.0    20.0  0.823110  0.008181  0.815125  0.840332
352.0    20.0  0.823531  0.007973  0.815125  0.840332
353.0    20.0  0.824371  0.007929  0.815125  0.840332
354.0    20.0  0.824371  0.007929  0.815125  0.840332
355.0    20.0  0.824371  0.007929  0.815125  0.840332
356.0    20.0  0.824371  0.007929  0.815125  0.840332
357.0    20.0  0.824371  0.007929  0.815125  0.840332
358.0    20.0  0.824371  0.007929  0.815125  0.840332
359.0    20.0  0.824371  0.007929  0.815125  0.840332
360.0    20.0  0.824371  0.007929  0.815125  0.840332
361.0    20.0  0.824371  0.007929  0.815125  0.840332
362.0    20.0  0.824371  0.007929  0.815125  0.840332
363.0    20.0  0.824371  0.007929  0.815125  0.840332
364.0    20.0  0.824371  0.007929  0.815125  0.840332
365.0    20.0  0.824371  0.007929  0.815125  0.840332
366.0    20.0  0.824371  0.007929  0.815125  0.840332
367.0    20.0  0.824371  0.007929  0.815125  0.840332
368.0    20.0  0.824371  0.007929  0.815125  0.840332
369.0    20.0  0.824371  0.007929  0.815125  0.840332
370.0    20.0  0.824371  0.007929  0.815125  0.840332
371.0    20.0  0.824371  0.007929  0.815125  0.840332
372.0    20.0  0.824371  0.007929  0.815125  0.840332
373.0    20.0  0.824371  0.007929  0.815125  0.840332
374.0    20.0  0.824371  0.007929  0.815125  0.840332
375.0    20.0  0.824371  0.007929  0.815125  0.840332
376.0    20.0  0.824371  0.007929  0.815125  0.840332
377.0    20.0  0.824371  0.007929  0.815125  0.840332
378.0    20.0  0.824371  0.007929  0.815125  0.840332
379.0    20.0  0.824371  0.007929  0.815125  0.840332
380.0    20.0  0.824792  0.007645  0.815125  0.840332
381.0    20.0  0.824792  0.007645  0.815125  0.840332
382.0    20.0  0.825632  0.007458  0.815125  0.840332
383.0    20.0  0.825632  0.007458  0.815125  0.840332
384.0    20.0  0.825632  0.007458  0.815125  0.840332
385.0    20.0  0.825632  0.007458  0.815125  0.840332
386.0    20.0  0.825632  0.007458  0.815125  0.840332
387.0    20.0  0.825632  0.007458  0.815125  0.840332
388.0    20.0  0.825632  0.007458  0.815125  0.840332
389.0    20.0  0.825632  0.007458  0.815125  0.840332
390.0    20.0  0.825632  0.007458  0.815125  0.840332
391.0    20.0  0.826053  0.007081  0.815125  0.840332
392.0    20.0  0.826053  0.007081  0.815125  0.840332
393.0    20.0  0.826053  0.007081  0.815125  0.840332
394.0    20.0  0.826053  0.007081  0.815125  0.840332
395.0    20.0  0.826053  0.007081  0.815125  0.840332
396.0    20.0  0.826053  0.007081  0.815125  0.840332
397.0    20.0  0.826053  0.007081  0.815125  0.840332
398.0    20.0  0.826053  0.007081  0.815125  0.840332
399.0    20.0  0.826053  0.007081  0.815125  0.840332
400.0    20.0  0.826053  0.007081  0.815125  0.840332
401.0    20.0  0.826053  0.007081  0.815125  0.840332
402.0    20.0  0.826053  0.007081  0.815125  0.840332
403.0    20.0  0.826053  0.007081  0.815125  0.840332
404.0    20.0  0.826053  0.007081  0.815125  0.840332
405.0    20.0  0.826053  0.007081  0.815125  0.840332
406.0    20.0  0.826053  0.007081  0.815125  0.840332
407.0    20.0  0.826053  0.007081  0.815125  0.840332
408.0    20.0  0.826053  0.007081  0.815125  0.840332
409.0    20.0  0.826053  0.007081  0.815125  0.840332
410.0    20.0  0.826053  0.007081  0.815125  0.840332
411.0    20.0  0.826053  0.007081  0.815125  0.840332
412.0    20.0  0.826053  0.007081  0.815125  0.840332
413.0    20.0  0.826053  0.007081  0.815125  0.840332
414.0    20.0  0.826053  0.007081  0.815125  0.840332
415.0    20.0  0.826894  0.006723  0.815125  0.840332
416.0    20.0  0.826894  0.006723  0.815125  0.840332
417.0    20.0  0.826894  0.006723  0.815125  0.840332
418.0    20.0  0.826894  0.006723  0.815125  0.840332
419.0    20.0  0.826894  0.006723  0.815125  0.840332
420.0    20.0  0.827314  0.006218  0.815125  0.840332
421.0    20.0  0.827314  0.006218  0.815125  0.840332
422.0    20.0  0.827314  0.006218  0.815125  0.840332
423.0    20.0  0.827314  0.006218  0.815125  0.840332
424.0    20.0  0.827314  0.006218  0.815125  0.840332
425.0    20.0  0.827314  0.006218  0.815125  0.840332
426.0    20.0  0.827314  0.006218  0.815125  0.840332
427.0    20.0  0.827314  0.006218  0.815125  0.840332
428.0    20.0  0.827314  0.006218  0.815125  0.840332
429.0    20.0  0.827314  0.006218  0.815125  0.840332
430.0    20.0  0.827734  0.005637  0.823532  0.840332
431.0    20.0  0.827734  0.005637  0.823532  0.840332
432.0    20.0  0.827734  0.005637  0.823532  0.840332
433.0    20.0  0.827734  0.005637  0.823532  0.840332
434.0    20.0  0.827734  0.005637  0.823532  0.840332
435.0    20.0  0.827734  0.005637  0.823532  0.840332
436.0    20.0  0.827734  0.005637  0.823532  0.840332
437.0    20.0  0.827734  0.005637  0.823532  0.840332
438.0    20.0  0.827734  0.005637  0.823532  0.840332
439.0    20.0  0.827734  0.005637  0.823532  0.840332
440.0    20.0  0.827734  0.005637  0.823532  0.840332
441.0    20.0  0.827734  0.005637  0.823532  0.840332
442.0    20.0  0.827734  0.005637  0.823532  0.840332
443.0    20.0  0.827734  0.005637  0.823532  0.840332
444.0    20.0  0.827734  0.005637  0.823532  0.840332
445.0    20.0  0.827734  0.005637  0.823532  0.840332
446.0    20.0  0.827734  0.005637  0.823532  0.840332
447.0    20.0  0.827734  0.005637  0.823532  0.840332
448.0    20.0  0.827734  0.005637  0.823532  0.840332
449.0    20.0  0.827734  0.005637  0.823532  0.840332
450.0    20.0  0.827734  0.005637  0.823532  0.840332
451.0    20.0  0.827734  0.005637  0.823532  0.840332
452.0    20.0  0.828155  0.005621  0.823532  0.840332
453.0    20.0  0.828155  0.005621  0.823532  0.840332
454.0    20.0  0.828155  0.005621  0.823532  0.840332
455.0    20.0  0.828155  0.005621  0.823532  0.840332
456.0    20.0  0.828155  0.005621  0.823532  0.840332
457.0    20.0  0.828155  0.005621  0.823532  0.840332
458.0    20.0  0.828155  0.005621  0.823532  0.840332
459.0    20.0  0.828155  0.005621  0.823532  0.840332
460.0    20.0  0.828155  0.005621  0.823532  0.840332
461.0    20.0  0.828155  0.005621  0.823532  0.840332
462.0    20.0  0.828155  0.005621  0.823532  0.840332
463.0    20.0  0.828155  0.005621  0.823532  0.840332
464.0    20.0  0.828155  0.005621  0.823532  0.840332
465.0    20.0  0.828155  0.005621  0.823532  0.840332
466.0    20.0  0.828155  0.005621  0.823532  0.840332
467.0    20.0  0.828155  0.005621  0.823532  0.840332
468.0    20.0  0.828155  0.005621  0.823532  0.840332
469.0    20.0  0.828155  0.005621  0.823532  0.840332
470.0    20.0  0.828155  0.005621  0.823532  0.840332
471.0    20.0  0.828155  0.005621  0.823532  0.840332
472.0    20.0  0.828155  0.005621  0.823532  0.840332
473.0    20.0  0.828155  0.005621  0.823532  0.840332
474.0    20.0  0.828155  0.005621  0.823532  0.840332
475.0    20.0  0.828575  0.005574  0.823532  0.840332
476.0    20.0  0.828575  0.005574  0.823532  0.840332
477.0    20.0  0.828575  0.005574  0.823532  0.840332
478.0    20.0  0.828575  0.005574  0.823532  0.840332
479.0    20.0  0.828575  0.005574  0.823532  0.840332
480.0    20.0  0.828575  0.005574  0.823532  0.840332
481.0    20.0  0.828575  0.005574  0.823532  0.840332
482.0    20.0  0.828575  0.005574  0.823532  0.840332
483.0    20.0  0.828575  0.005574  0.823532  0.840332
484.0    20.0  0.828575  0.005574  0.823532  0.840332
485.0    20.0  0.828575  0.005574  0.823532  0.840332
486.0    20.0  0.828575  0.005574  0.823532  0.840332
487.0    20.0  0.828575  0.005574  0.823532  0.840332
488.0    20.0  0.828575  0.005574  0.823532  0.840332
489.0    20.0  0.828575  0.005574  0.823532  0.840332
490.0    20.0  0.828575  0.005574  0.823532  0.840332
491.0    20.0  0.828575  0.005574  0.823532  0.840332
492.0    20.0  0.828575  0.005574  0.823532  0.840332
493.0    20.0  0.828575  0.005574  0.823532  0.840332
494.0    20.0  0.828575  0.005574  0.823532  0.840332
495.0    20.0  0.828575  0.005574  0.823532  0.840332
496.0    20.0  0.829415  0.006000  0.823532  0.840332
497.0    20.0  0.829415  0.006000  0.823532  0.840332
498.0    20.0  0.829415  0.006000  0.823532  0.840332
499.0    20.0  0.829836  0.005866  0.823532  0.840332
