gen	nevals	avg     	std	min     	max     
0  	1     	0.517242	0  	0.517242	0.517242
1  	2     	0.517242	0  	0.517242	0.517242
2  	2     	0.517242	0  	0.517242	0.517242
3  	4     	0.517242	0  	0.517242	0.517242
4  	4     	0.551727	0  	0.551727	0.551727
5  	2     	0.551727	0  	0.551727	0.551727
6  	2     	0.574707	0  	0.574707	0.574707
7  	2     	0.597702	0  	0.597702	0.597702
8  	2     	0.597702	0  	0.597702	0.597702
9  	2     	0.597702	0  	0.597702	0.597702
10 	4     	0.620697	0  	0.620697	0.620697
11 	2     	0.620697	0  	0.620697	0.620697
12 	2     	0.620697	0  	0.620697	0.620697
13 	4     	0.620697	0  	0.620697	0.620697
14 	4     	0.632187	0  	0.632187	0.632187
15 	2     	0.632187	0  	0.632187	0.632187
16 	2     	0.632187	0  	0.632187	0.632187
17 	4     	0.632187	0  	0.632187	0.632187
18 	4     	0.643677	0  	0.643677	0.643677
19 	2     	0.643677	0  	0.643677	0.643677
20 	2     	0.643677	0  	0.643677	0.643677
21 	4     	0.643677	0  	0.643677	0.643677
22 	4     	0.655167	0  	0.655167	0.655167
23 	2     	0.655167	0  	0.655167	0.655167
24 	2     	0.655167	0  	0.655167	0.655167
25 	4     	0.666672	0  	0.666672	0.666672
26 	2     	0.666672	0  	0.666672	0.666672
27 	2     	0.666672	0  	0.666672	0.666672
28 	4     	0.678162	0  	0.678162	0.678162
29 	2     	0.678162	0  	0.678162	0.678162
30 	2     	0.678162	0  	0.678162	0.678162
31 	4     	0.678162	0  	0.678162	0.678162
32 	4     	0.678162	0  	0.678162	0.678162
33 	6     	0.689651	0  	0.689651	0.689651
34 	2     	0.689651	0  	0.689651	0.689651
35 	2     	0.689651	0  	0.689651	0.689651
36 	4     	0.724136	0  	0.724136	0.724136
37 	2     	0.724136	0  	0.724136	0.724136
38 	2     	0.758621	0  	0.758621	0.758621
39 	2     	0.758621	0  	0.758621	0.758621
40 	2     	0.758621	0  	0.758621	0.758621
41 	4     	0.758621	0  	0.758621	0.758621
42 	4     	0.758621	0  	0.758621	0.758621
43 	6     	0.758621	0  	0.758621	0.758621
44 	6     	0.758621	0  	0.758621	0.758621
45 	8     	0.758621	0  	0.758621	0.758621
46 	10    	0.781616	0  	0.781616	0.781616
47 	4     	0.781616	0  	0.781616	0.781616
48 	6     	0.816086	0  	0.816086	0.816086
49 	2     	0.816086	0  	0.816086	0.816086
50 	2     	0.816086	0  	0.816086	0.816086
51 	4     	0.816086	0  	0.816086	0.816086
52 	4     	0.816086	0  	0.816086	0.816086
53 	6     	0.816086	0  	0.816086	0.816086
54 	6     	0.816086	0  	0.816086	0.816086
55 	8     	0.816086	0  	0.816086	0.816086
56 	10    	0.816086	0  	0.816086	0.816086
57 	12    	0.839081	0  	0.839081	0.839081
58 	6     	0.839081	0  	0.839081	0.839081
59 	6     	0.839081	0  	0.839081	0.839081
60 	8     	0.839081	0  	0.839081	0.839081
61 	10    	0.839081	0  	0.839081	0.839081
62 	12    	0.862076	0  	0.862076	0.862076
63 	6     	0.862076	0  	0.862076	0.862076
64 	6     	0.862076	0  	0.862076	0.862076
65 	8     	0.862076	0  	0.862076	0.862076
66 	10    	0.862076	0  	0.862076	0.862076
67 	12    	0.862076	0  	0.862076	0.862076
68 	16    	0.873566	0  	0.873566	0.873566
69 	6     	0.873566	0  	0.873566	0.873566
70 	8     	0.885056	0  	0.885056	0.885056
71 	4     	0.885056	0  	0.885056	0.885056
72 	4     	0.885056	0  	0.885056	0.885056
73 	6     	0.885056	0  	0.885056	0.885056
74 	6     	0.885056	0  	0.885056	0.885056
75 	8     	0.885056	0  	0.885056	0.885056
76 	10    	0.885056	0  	0.885056	0.885056
77 	12    	0.885056	0  	0.885056	0.885056
78 	16    	0.885056	0  	0.885056	0.885056
79 	20    	0.885056	0  	0.885056	0.885056
80 	24    	0.885056	0  	0.885056	0.885056
81 	32    	0.885056	0  	0.885056	0.885056
82 	40    	0.896545	0  	0.896545	0.896545
83 	16    	0.896545	0  	0.896545	0.896545
84 	20    	0.896545	0  	0.896545	0.896545
85 	24    	0.896545	0  	0.896545	0.896545
86 	32    	0.896545	0  	0.896545	0.896545
87 	40    	0.896545	0  	0.896545	0.896545
88 	50    	0.896545	0  	0.896545	0.896545
89 	62    	0.896545	0  	0.896545	0.896545
90 	78    	0.896545	0  	0.896545	0.896545
91 	98    	0.908051	0  	0.908051	0.908051
92 	40    	0.93103 	0  	0.93103 	0.93103 
93 	16    	0.93103 	0  	0.93103 	0.93103 
94 	20    	0.93103 	0  	0.93103 	0.93103 
95 	24    	0.93103 	0  	0.93103 	0.93103 
96 	32    	0.93103 	0  	0.93103 	0.93103 
97 	40    	0.93103 	0  	0.93103 	0.93103 
98 	50    	0.93103 	0  	0.93103 	0.93103 
99 	62    	0.93103 	0  	0.93103 	0.93103 
100	78    	0.93103 	0  	0.93103 	0.93103 
101	98    	0.93103 	0  	0.93103 	0.93103 
102	124   	0.93103 	0  	0.93103 	0.93103 
103	156   	0.93103 	0  	0.93103 	0.93103 
104	196   	0.93103 	0  	0.93103 	0.93103 
105	200   	0.93103 	0  	0.93103 	0.93103 
106	200   	0.93103 	0  	0.93103 	0.93103 
107	200   	0.93103 	0  	0.93103 	0.93103 
108	200   	0.93103 	0  	0.93103 	0.93103 
109	200   	0.93103 	0  	0.93103 	0.93103 
110	200   	0.93103 	0  	0.93103 	0.93103 
111	200   	0.93103 	0  	0.93103 	0.93103 
112	200   	0.93103 	0  	0.93103 	0.93103 
113	200   	0.93103 	0  	0.93103 	0.93103 
114	200   	0.93103 	0  	0.93103 	0.93103 
115	200   	0.93103 	0  	0.93103 	0.93103 
116	200   	0.93103 	0  	0.93103 	0.93103 
117	200   	0.93103 	0  	0.93103 	0.93103 
118	200   	0.93103 	0  	0.93103 	0.93103 
119	200   	0.93103 	0  	0.93103 	0.93103 
120	200   	0.93103 	0  	0.93103 	0.93103 
121	200   	0.93103 	0  	0.93103 	0.93103 
122	200   	0.93103 	0  	0.93103 	0.93103 
123	200   	0.93103 	0  	0.93103 	0.93103 
124	200   	0.93103 	0  	0.93103 	0.93103 
125	200   	0.93103 	0  	0.93103 	0.93103 
126	200   	0.93103 	0  	0.93103 	0.93103 
127	200   	0.93103 	0  	0.93103 	0.93103 
128	200   	0.93103 	0  	0.93103 	0.93103 
129	200   	0.93103 	0  	0.93103 	0.93103 
130	200   	0.93103 	0  	0.93103 	0.93103 
131	200   	0.93103 	0  	0.93103 	0.93103 
132	200   	0.93103 	0  	0.93103 	0.93103 
133	200   	0.93103 	0  	0.93103 	0.93103 
134	200   	0.93103 	0  	0.93103 	0.93103 
135	200   	0.93103 	0  	0.93103 	0.93103 
136	200   	0.93103 	0  	0.93103 	0.93103 
137	200   	0.93103 	0  	0.93103 	0.93103 
138	200   	0.93103 	0  	0.93103 	0.93103 
139	200   	0.93103 	0  	0.93103 	0.93103 
140	200   	0.93103 	0  	0.93103 	0.93103 
141	200   	0.93103 	0  	0.93103 	0.93103 
142	200   	0.93103 	0  	0.93103 	0.93103 
143	200   	0.93103 	0  	0.93103 	0.93103 
144	200   	0.93103 	0  	0.93103 	0.93103 
145	200   	0.93103 	0  	0.93103 	0.93103 
