gen	nevals	avg     	std	min     	max     
0  	1     	0.590103	0  	0.590103	0.590103
1  	2     	0.590103	0  	0.590103	0.590103
2  	2     	0.590103	0  	0.590103	0.590103
3  	4     	0.604233	0  	0.604233	0.604233
4  	2     	0.604233	0  	0.604233	0.604233
5  	2     	0.604233	0  	0.604233	0.604233
6  	4     	0.604233	0  	0.604233	0.604233
7  	4     	0.611313	0  	0.611313	0.611313
8  	2     	0.611313	0  	0.611313	0.611313
9  	2     	0.611313	0  	0.611313	0.611313
10 	4     	0.611313	0  	0.611313	0.611313
11 	4     	0.618378	0  	0.618378	0.618378
12 	2     	0.625443	0  	0.625443	0.625443
13 	2     	0.625443	0  	0.625443	0.625443
14 	2     	0.625443	0  	0.625443	0.625443
15 	4     	0.625443	0  	0.625443	0.625443
16 	4     	0.625443	0  	0.625443	0.625443
17 	6     	0.625443	0  	0.625443	0.625443
18 	6     	0.632507	0  	0.632507	0.632507
19 	2     	0.632507	0  	0.632507	0.632507
20 	4     	0.639572	0  	0.639572	0.639572
21 	2     	0.653717	0  	0.653717	0.653717
22 	2     	0.660782	0  	0.660782	0.660782
23 	2     	0.660782	0  	0.660782	0.660782
24 	2     	0.660782	0  	0.660782	0.660782
25 	4     	0.660782	0  	0.660782	0.660782
26 	4     	0.681976	0  	0.681976	0.681976
27 	2     	0.681976	0  	0.681976	0.681976
28 	2     	0.681976	0  	0.681976	0.681976
29 	4     	0.681976	0  	0.681976	0.681976
30 	4     	0.681976	0  	0.681976	0.681976
31 	6     	0.681976	0  	0.681976	0.681976
32 	6     	0.696106	0  	0.696106	0.696106
33 	2     	0.703186	0  	0.703186	0.703186
34 	2     	0.710251	0  	0.710251	0.710251
35 	2     	0.710251	0  	0.710251	0.710251
36 	2     	0.710251	0  	0.710251	0.710251
37 	4     	0.710251	0  	0.710251	0.710251
38 	4     	0.710251	0  	0.710251	0.710251
39 	6     	0.710251	0  	0.710251	0.710251
40 	6     	0.710251	0  	0.710251	0.710251
41 	8     	0.710251	0  	0.710251	0.710251
42 	10    	0.72438 	0  	0.72438 	0.72438 
43 	4     	0.72438 	0  	0.72438 	0.72438 
44 	6     	0.731445	0  	0.731445	0.731445
45 	2     	0.731445	0  	0.731445	0.731445
46 	2     	0.731445	0  	0.731445	0.731445
47 	4     	0.731445	0  	0.731445	0.731445
48 	4     	0.73851 	0  	0.73851 	0.73851 
49 	2     	0.73851 	0  	0.73851 	0.73851 
50 	2     	0.74559 	0  	0.74559 	0.74559 
51 	2     	0.74559 	0  	0.74559 	0.74559 
52 	2     	0.74559 	0  	0.74559 	0.74559 
53 	4     	0.74559 	0  	0.74559 	0.74559 
54 	4     	0.74559 	0  	0.74559 	0.74559 
55 	6     	0.752655	0  	0.752655	0.752655
56 	2     	0.752655	0  	0.752655	0.752655
57 	2     	0.752655	0  	0.752655	0.752655
58 	4     	0.752655	0  	0.752655	0.752655
59 	4     	0.75972 	0  	0.75972 	0.75972 
60 	2     	0.75972 	0  	0.75972 	0.75972 
61 	2     	0.75972 	0  	0.75972 	0.75972 
62 	4     	0.75972 	0  	0.75972 	0.75972 
63 	4     	0.766785	0  	0.766785	0.766785
64 	2     	0.766785	0  	0.766785	0.766785
65 	2     	0.766785	0  	0.766785	0.766785
66 	4     	0.766785	0  	0.766785	0.766785
67 	4     	0.766785	0  	0.766785	0.766785
68 	6     	0.766785	0  	0.766785	0.766785
69 	6     	0.780914	0  	0.780914	0.780914
70 	2     	0.780914	0  	0.780914	0.780914
71 	4     	0.780914	0  	0.780914	0.780914
72 	4     	0.780914	0  	0.780914	0.780914
73 	6     	0.787979	0  	0.787979	0.787979
74 	2     	0.787979	0  	0.787979	0.787979
75 	2     	0.787979	0  	0.787979	0.787979
76 	4     	0.795059	0  	0.795059	0.795059
77 	2     	0.795059	0  	0.795059	0.795059
78 	2     	0.795059	0  	0.795059	0.795059
79 	4     	0.795059	0  	0.795059	0.795059
80 	4     	0.795059	0  	0.795059	0.795059
81 	6     	0.795059	0  	0.795059	0.795059
82 	6     	0.795059	0  	0.795059	0.795059
83 	8     	0.795059	0  	0.795059	0.795059
84 	10    	0.795059	0  	0.795059	0.795059
85 	12    	0.795059	0  	0.795059	0.795059
86 	16    	0.802124	0  	0.802124	0.802124
87 	6     	0.802124	0  	0.802124	0.802124
88 	8     	0.802124	0  	0.802124	0.802124
89 	10    	0.809189	0  	0.809189	0.809189
90 	4     	0.816254	0  	0.816254	0.816254
91 	2     	0.816254	0  	0.816254	0.816254
92 	2     	0.816254	0  	0.816254	0.816254
93 	4     	0.816254	0  	0.816254	0.816254
94 	4     	0.823318	0  	0.823318	0.823318
95 	2     	0.823318	0  	0.823318	0.823318
96 	2     	0.823318	0  	0.823318	0.823318
97 	4     	0.823318	0  	0.823318	0.823318
98 	4     	0.823318	0  	0.823318	0.823318
99 	6     	0.823318	0  	0.823318	0.823318
100	6     	0.823318	0  	0.823318	0.823318
101	8     	0.823318	0  	0.823318	0.823318
102	10    	0.823318	0  	0.823318	0.823318
103	12    	0.823318	0  	0.823318	0.823318
104	16    	0.823318	0  	0.823318	0.823318
105	20    	0.823318	0  	0.823318	0.823318
106	24    	0.823318	0  	0.823318	0.823318
107	32    	0.830383	0  	0.830383	0.830383
108	12    	0.837463	0  	0.837463	0.837463
109	6     	0.837463	0  	0.837463	0.837463
110	6     	0.837463	0  	0.837463	0.837463
111	8     	0.837463	0  	0.837463	0.837463
112	10    	0.837463	0  	0.837463	0.837463
113	12    	0.837463	0  	0.837463	0.837463
114	16    	0.837463	0  	0.837463	0.837463
115	20    	0.837463	0  	0.837463	0.837463
116	24    	0.837463	0  	0.837463	0.837463
117	32    	0.837463	0  	0.837463	0.837463
118	40    	0.837463	0  	0.837463	0.837463
119	50    	0.837463	0  	0.837463	0.837463
120	62    	0.837463	0  	0.837463	0.837463
121	78    	0.837463	0  	0.837463	0.837463
122	98    	0.844528	0  	0.844528	0.844528
123	40    	0.851593	0  	0.851593	0.851593
124	16    	0.851593	0  	0.851593	0.851593
125	20    	0.851593	0  	0.851593	0.851593
126	24    	0.851593	0  	0.851593	0.851593
127	32    	0.851593	0  	0.851593	0.851593
128	40    	0.851593	0  	0.851593	0.851593
129	50    	0.858658	0  	0.858658	0.858658
130	20    	0.865723	0  	0.865723	0.865723
131	8     	0.865723	0  	0.865723	0.865723
132	10    	0.865723	0  	0.865723	0.865723
133	12    	0.865723	0  	0.865723	0.865723
134	16    	0.872787	0  	0.872787	0.872787
135	6     	0.872787	0  	0.872787	0.872787
136	8     	0.872787	0  	0.872787	0.872787
137	10    	0.872787	0  	0.872787	0.872787
138	12    	0.872787	0  	0.872787	0.872787
139	16    	0.872787	0  	0.872787	0.872787
140	20    	0.872787	0  	0.872787	0.872787
141	24    	0.872787	0  	0.872787	0.872787
142	32    	0.872787	0  	0.872787	0.872787
143	40    	0.872787	0  	0.872787	0.872787
144	50    	0.872787	0  	0.872787	0.872787
145	62    	0.872787	0  	0.872787	0.872787
146	78    	0.872787	0  	0.872787	0.872787
147	98    	0.872787	0  	0.872787	0.872787
148	124   	0.872787	0  	0.872787	0.872787
149	156   	0.872787	0  	0.872787	0.872787
150	196   	0.872787	0  	0.872787	0.872787
151	246   	0.872787	0  	0.872787	0.872787
152	308   	0.872787	0  	0.872787	0.872787
153	338   	0.872787	0  	0.872787	0.872787
154	338   	0.879852	0  	0.879852	0.879852
155	136   	0.879852	0  	0.879852	0.879852
156	170   	0.879852	0  	0.879852	0.879852
157	214   	0.879852	0  	0.879852	0.879852
158	268   	0.879852	0  	0.879852	0.879852
159	338   	0.879852	0  	0.879852	0.879852
160	338   	0.879852	0  	0.879852	0.879852
161	338   	0.879852	0  	0.879852	0.879852
162	338   	0.879852	0  	0.879852	0.879852
163	338   	0.879852	0  	0.879852	0.879852
164	338   	0.879852	0  	0.879852	0.879852
165	338   	0.879852	0  	0.879852	0.879852
166	338   	0.879852	0  	0.879852	0.879852
167	338   	0.879852	0  	0.879852	0.879852
168	338   	0.879852	0  	0.879852	0.879852
169	338   	0.879852	0  	0.879852	0.879852
170	338   	0.879852	0  	0.879852	0.879852
171	338   	0.879852	0  	0.879852	0.879852
172	338   	0.879852	0  	0.879852	0.879852
173	338   	0.879852	0  	0.879852	0.879852
174	338   	0.879852	0  	0.879852	0.879852
175	338   	0.879852	0  	0.879852	0.879852
176	338   	0.879852	0  	0.879852	0.879852
