gen	nevals	avg     	std	min     	max     
0  	1     	0.581009	0  	0.581009	0.581009
1  	2     	0.581009	0  	0.581009	0.581009
2  	2     	0.581009	0  	0.581009	0.581009
3  	4     	0.581009	0  	0.581009	0.581009
4  	4     	0.581009	0  	0.581009	0.581009
5  	6     	0.581009	0  	0.581009	0.581009
6  	6     	0.58429 	0  	0.58429 	0.58429 
7  	2     	0.58429 	0  	0.58429 	0.58429 
8  	4     	0.58429 	0  	0.58429 	0.58429 
9  	4     	0.587555	0  	0.587555	0.587555
10 	2     	0.587555	0  	0.587555	0.587555
11 	2     	0.587555	0  	0.587555	0.587555
12 	4     	0.587555	0  	0.587555	0.587555
13 	4     	0.587555	0  	0.587555	0.587555
14 	6     	0.590836	0  	0.590836	0.590836
15 	2     	0.590836	0  	0.590836	0.590836
16 	2     	0.590836	0  	0.590836	0.590836
17 	4     	0.594101	0  	0.594101	0.594101
18 	2     	0.594101	0  	0.594101	0.594101
19 	2     	0.594101	0  	0.594101	0.594101
20 	4     	0.594101	0  	0.594101	0.594101
21 	4     	0.594101	0  	0.594101	0.594101
22 	6     	0.603928	0  	0.603928	0.603928
23 	2     	0.603928	0  	0.603928	0.603928
24 	2     	0.603928	0  	0.603928	0.603928
25 	4     	0.607208	0  	0.607208	0.607208
26 	2     	0.607208	0  	0.607208	0.607208
27 	2     	0.607208	0  	0.607208	0.607208
28 	4     	0.607208	0  	0.607208	0.607208
29 	4     	0.607208	0  	0.607208	0.607208
30 	6     	0.607208	0  	0.607208	0.607208
31 	6     	0.607208	0  	0.607208	0.607208
32 	8     	0.607208	0  	0.607208	0.607208
33 	10    	0.607208	0  	0.607208	0.607208
34 	12    	0.610474	0  	0.610474	0.610474
35 	6     	0.610474	0  	0.610474	0.610474
36 	6     	0.61702 	0  	0.61702 	0.61702 
37 	2     	0.61702 	0  	0.61702 	0.61702 
38 	4     	0.61702 	0  	0.61702 	0.61702 
39 	4     	0.6203  	0  	0.6203  	0.6203  
40 	2     	0.6203  	0  	0.6203  	0.6203  
41 	2     	0.6203  	0  	0.6203  	0.6203  
42 	4     	0.626846	0  	0.626846	0.626846
43 	2     	0.626846	0  	0.626846	0.626846
44 	2     	0.626846	0  	0.626846	0.626846
45 	4     	0.630112	0  	0.630112	0.630112
46 	2     	0.630112	0  	0.630112	0.630112
47 	2     	0.630112	0  	0.630112	0.630112
48 	4     	0.633392	0  	0.633392	0.633392
49 	2     	0.633392	0  	0.633392	0.633392
50 	2     	0.633392	0  	0.633392	0.633392
51 	4     	0.633392	0  	0.633392	0.633392
52 	4     	0.633392	0  	0.633392	0.633392
53 	6     	0.639938	0  	0.639938	0.639938
54 	2     	0.639938	0  	0.639938	0.639938
55 	2     	0.639938	0  	0.639938	0.639938
56 	4     	0.639938	0  	0.639938	0.639938
57 	4     	0.646484	0  	0.646484	0.646484
58 	2     	0.646484	0  	0.646484	0.646484
59 	2     	0.64975 	0  	0.64975 	0.64975 
60 	2     	0.64975 	0  	0.64975 	0.64975 
61 	2     	0.656296	0  	0.656296	0.656296
62 	2     	0.656296	0  	0.656296	0.656296
63 	2     	0.662842	0  	0.662842	0.662842
64 	2     	0.662842	0  	0.662842	0.662842
65 	2     	0.666122	0  	0.666122	0.666122
66 	2     	0.666122	0  	0.666122	0.666122
67 	2     	0.669388	0  	0.669388	0.669388
68 	2     	0.669388	0  	0.669388	0.669388
69 	2     	0.669388	0  	0.669388	0.669388
70 	4     	0.672668	0  	0.672668	0.672668
71 	2     	0.672668	0  	0.672668	0.672668
72 	2     	0.672668	0  	0.672668	0.672668
73 	4     	0.672668	0  	0.672668	0.672668
74 	4     	0.679214	0  	0.679214	0.679214
75 	2     	0.679214	0  	0.679214	0.679214
76 	2     	0.679214	0  	0.679214	0.679214
77 	4     	0.682495	0  	0.682495	0.682495
78 	2     	0.682495	0  	0.682495	0.682495
79 	2     	0.682495	0  	0.682495	0.682495
80 	4     	0.682495	0  	0.682495	0.682495
81 	4     	0.682495	0  	0.682495	0.682495
82 	6     	0.68576 	0  	0.68576 	0.68576 
83 	2     	0.68576 	0  	0.68576 	0.68576 
84 	2     	0.68576 	0  	0.68576 	0.68576 
85 	4     	0.68576 	0  	0.68576 	0.68576 
86 	4     	0.68576 	0  	0.68576 	0.68576 
87 	6     	0.689041	0  	0.689041	0.689041
88 	2     	0.689041	0  	0.689041	0.689041
89 	2     	0.689041	0  	0.689041	0.689041
90 	4     	0.689041	0  	0.689041	0.689041
91 	4     	0.689041	0  	0.689041	0.689041
92 	6     	0.698853	0  	0.698853	0.698853
93 	2     	0.698853	0  	0.698853	0.698853
94 	2     	0.698853	0  	0.698853	0.698853
95 	4     	0.705399	0  	0.705399	0.705399
96 	2     	0.708679	0  	0.708679	0.708679
97 	2     	0.708679	0  	0.708679	0.708679
98 	2     	0.708679	0  	0.708679	0.708679
99 	4     	0.711945	0  	0.711945	0.711945
100	2     	0.711945	0  	0.711945	0.711945
101	2     	0.711945	0  	0.711945	0.711945
102	4     	0.711945	0  	0.711945	0.711945
103	4     	0.711945	0  	0.711945	0.711945
104	6     	0.711945	0  	0.711945	0.711945
105	6     	0.711945	0  	0.711945	0.711945
106	8     	0.718491	0  	0.718491	0.718491
107	4     	0.718491	0  	0.718491	0.718491
108	4     	0.718491	0  	0.718491	0.718491
109	6     	0.718491	0  	0.718491	0.718491
110	6     	0.718491	0  	0.718491	0.718491
111	8     	0.721771	0  	0.721771	0.721771
112	4     	0.721771	0  	0.721771	0.721771
113	4     	0.721771	0  	0.721771	0.721771
114	6     	0.721771	0  	0.721771	0.721771
115	6     	0.721771	0  	0.721771	0.721771
116	8     	0.725037	0  	0.725037	0.725037
117	4     	0.725037	0  	0.725037	0.725037
118	4     	0.725037	0  	0.725037	0.725037
119	6     	0.725037	0  	0.725037	0.725037
120	6     	0.725037	0  	0.725037	0.725037
121	8     	0.725037	0  	0.725037	0.725037
122	10    	0.728317	0  	0.728317	0.728317
123	4     	0.728317	0  	0.728317	0.728317
124	6     	0.728317	0  	0.728317	0.728317
125	6     	0.728317	0  	0.728317	0.728317
126	8     	0.728317	0  	0.728317	0.728317
127	10    	0.731583	0  	0.731583	0.731583
128	4     	0.731583	0  	0.731583	0.731583
129	6     	0.731583	0  	0.731583	0.731583
130	6     	0.731583	0  	0.731583	0.731583
131	8     	0.731583	0  	0.731583	0.731583
132	10    	0.734863	0  	0.734863	0.734863
133	4     	0.734863	0  	0.734863	0.734863
134	6     	0.741409	0  	0.741409	0.741409
135	2     	0.741409	0  	0.741409	0.741409
136	2     	0.741409	0  	0.741409	0.741409
137	4     	0.741409	0  	0.741409	0.741409
138	4     	0.744675	0  	0.744675	0.744675
139	2     	0.744675	0  	0.744675	0.744675
140	2     	0.744675	0  	0.744675	0.744675
141	4     	0.744675	0  	0.744675	0.744675
142	4     	0.744675	0  	0.744675	0.744675
143	6     	0.754501	0  	0.754501	0.754501
144	2     	0.754501	0  	0.754501	0.754501
145	2     	0.754501	0  	0.754501	0.754501
146	4     	0.754501	0  	0.754501	0.754501
147	4     	0.754501	0  	0.754501	0.754501
148	6     	0.754501	0  	0.754501	0.754501
149	6     	0.754501	0  	0.754501	0.754501
150	8     	0.754501	0  	0.754501	0.754501
151	10    	0.754501	0  	0.754501	0.754501
152	12    	0.757767	0  	0.757767	0.757767
153	6     	0.757767	0  	0.757767	0.757767
154	6     	0.757767	0  	0.757767	0.757767
155	8     	0.761047	0  	0.761047	0.761047
156	4     	0.761047	0  	0.761047	0.761047
157	4     	0.761047	0  	0.761047	0.761047
158	6     	0.761047	0  	0.761047	0.761047
159	6     	0.761047	0  	0.761047	0.761047
160	8     	0.764328	0  	0.764328	0.764328
161	4     	0.764328	0  	0.764328	0.764328
162	4     	0.764328	0  	0.764328	0.764328
163	6     	0.764328	0  	0.764328	0.764328
164	6     	0.770874	0  	0.770874	0.770874
165	2     	0.770874	0  	0.770874	0.770874
166	4     	0.774139	0  	0.774139	0.774139
167	2     	0.774139	0  	0.774139	0.774139
168	2     	0.774139	0  	0.774139	0.774139
169	4     	0.774139	0  	0.774139	0.774139
170	4     	0.774139	0  	0.774139	0.774139
171	6     	0.774139	0  	0.774139	0.774139
172	6     	0.77742 	0  	0.77742 	0.77742 
173	2     	0.77742 	0  	0.77742 	0.77742 
174	4     	0.780685	0  	0.780685	0.780685
175	2     	0.780685	0  	0.780685	0.780685
176	2     	0.780685	0  	0.780685	0.780685
177	4     	0.780685	0  	0.780685	0.780685
178	4     	0.780685	0  	0.780685	0.780685
179	6     	0.780685	0  	0.780685	0.780685
180	6     	0.780685	0  	0.780685	0.780685
181	8     	0.783966	0  	0.783966	0.783966
182	4     	0.783966	0  	0.783966	0.783966
183	4     	0.783966	0  	0.783966	0.783966
184	6     	0.783966	0  	0.783966	0.783966
185	6     	0.790512	0  	0.790512	0.790512
186	2     	0.790512	0  	0.790512	0.790512
187	4     	0.790512	0  	0.790512	0.790512
188	4     	0.793777	0  	0.793777	0.793777
189	2     	0.793777	0  	0.793777	0.793777
190	2     	0.793777	0  	0.793777	0.793777
191	4     	0.793777	0  	0.793777	0.793777
192	4     	0.793777	0  	0.793777	0.793777
193	6     	0.793777	0  	0.793777	0.793777
194	6     	0.797058	0  	0.797058	0.797058
195	2     	0.797058	0  	0.797058	0.797058
196	4     	0.797058	0  	0.797058	0.797058
197	4     	0.797058	0  	0.797058	0.797058
198	6     	0.800323	0  	0.800323	0.800323
199	2     	0.803604	0  	0.803604	0.803604
200	2     	0.803604	0  	0.803604	0.803604
201	2     	0.803604	0  	0.803604	0.803604
202	4     	0.803604	0  	0.803604	0.803604
203	4     	0.803604	0  	0.803604	0.803604
204	6     	0.80687 	0  	0.80687 	0.80687 
205	2     	0.80687 	0  	0.80687 	0.80687 
206	2     	0.80687 	0  	0.80687 	0.80687 
207	4     	0.80687 	0  	0.80687 	0.80687 
208	4     	0.80687 	0  	0.80687 	0.80687 
209	6     	0.80687 	0  	0.80687 	0.80687 
210	6     	0.81015 	0  	0.81015 	0.81015 
211	2     	0.81015 	0  	0.81015 	0.81015 
212	4     	0.81015 	0  	0.81015 	0.81015 
213	4     	0.813416	0  	0.813416	0.813416
214	2     	0.813416	0  	0.813416	0.813416
215	2     	0.813416	0  	0.813416	0.813416
216	4     	0.813416	0  	0.813416	0.813416
217	4     	0.813416	0  	0.813416	0.813416
218	6     	0.813416	0  	0.813416	0.813416
219	6     	0.813416	0  	0.813416	0.813416
220	8     	0.816696	0  	0.816696	0.816696
221	4     	0.816696	0  	0.816696	0.816696
222	4     	0.816696	0  	0.816696	0.816696
223	6     	0.816696	0  	0.816696	0.816696
224	6     	0.816696	0  	0.816696	0.816696
225	8     	0.819962	0  	0.819962	0.819962
226	4     	0.819962	0  	0.819962	0.819962
227	4     	0.819962	0  	0.819962	0.819962
228	6     	0.819962	0  	0.819962	0.819962
229	6     	0.823242	0  	0.823242	0.823242
230	2     	0.823242	0  	0.823242	0.823242
231	4     	0.826508	0  	0.826508	0.826508
232	2     	0.826508	0  	0.826508	0.826508
233	2     	0.826508	0  	0.826508	0.826508
234	4     	0.826508	0  	0.826508	0.826508
235	4     	0.826508	0  	0.826508	0.826508
236	6     	0.826508	0  	0.826508	0.826508
237	6     	0.826508	0  	0.826508	0.826508
238	8     	0.829788	0  	0.829788	0.829788
239	4     	0.829788	0  	0.829788	0.829788
240	4     	0.829788	0  	0.829788	0.829788
241	6     	0.829788	0  	0.829788	0.829788
242	6     	0.829788	0  	0.829788	0.829788
243	8     	0.829788	0  	0.829788	0.829788
244	10    	0.836334	0  	0.836334	0.836334
245	4     	0.836334	0  	0.836334	0.836334
246	6     	0.8396  	0  	0.8396  	0.8396  
247	2     	0.8396  	0  	0.8396  	0.8396  
248	2     	0.8396  	0  	0.8396  	0.8396  
249	4     	0.84288 	0  	0.84288 	0.84288 
250	2     	0.84288 	0  	0.84288 	0.84288 
251	2     	0.84288 	0  	0.84288 	0.84288 
252	4     	0.84288 	0  	0.84288 	0.84288 
253	4     	0.84288 	0  	0.84288 	0.84288 
254	6     	0.84288 	0  	0.84288 	0.84288 
255	6     	0.84288 	0  	0.84288 	0.84288 
256	8     	0.84288 	0  	0.84288 	0.84288 
257	10    	0.846161	0  	0.846161	0.846161
258	4     	0.849426	0  	0.849426	0.849426
259	2     	0.849426	0  	0.849426	0.849426
260	2     	0.852707	0  	0.852707	0.852707
261	2     	0.852707	0  	0.852707	0.852707
262	2     	0.852707	0  	0.852707	0.852707
263	4     	0.852707	0  	0.852707	0.852707
264	4     	0.852707	0  	0.852707	0.852707
265	6     	0.852707	0  	0.852707	0.852707
266	6     	0.852707	0  	0.852707	0.852707
267	8     	0.852707	0  	0.852707	0.852707
268	10    	0.852707	0  	0.852707	0.852707
269	12    	0.852707	0  	0.852707	0.852707
270	16    	0.852707	0  	0.852707	0.852707
271	20    	0.852707	0  	0.852707	0.852707
272	24    	0.852707	0  	0.852707	0.852707
273	32    	0.855972	0  	0.855972	0.855972
274	12    	0.855972	0  	0.855972	0.855972
275	16    	0.859253	0  	0.859253	0.859253
276	6     	0.859253	0  	0.859253	0.859253
277	8     	0.859253	0  	0.859253	0.859253
278	10    	0.859253	0  	0.859253	0.859253
279	12    	0.859253	0  	0.859253	0.859253
280	16    	0.859253	0  	0.859253	0.859253
281	20    	0.859253	0  	0.859253	0.859253
282	24    	0.859253	0  	0.859253	0.859253
283	32    	0.862518	0  	0.862518	0.862518
284	12    	0.862518	0  	0.862518	0.862518
285	16    	0.862518	0  	0.862518	0.862518
286	20    	0.865799	0  	0.865799	0.865799
287	8     	0.865799	0  	0.865799	0.865799
288	10    	0.869064	0  	0.869064	0.869064
289	4     	0.869064	0  	0.869064	0.869064
290	6     	0.869064	0  	0.869064	0.869064
291	6     	0.869064	0  	0.869064	0.869064
292	8     	0.869064	0  	0.869064	0.869064
293	10    	0.869064	0  	0.869064	0.869064
294	12    	0.869064	0  	0.869064	0.869064
295	16    	0.869064	0  	0.869064	0.869064
296	20    	0.869064	0  	0.869064	0.869064
297	24    	0.869064	0  	0.869064	0.869064
298	32    	0.869064	0  	0.869064	0.869064
299	40    	0.869064	0  	0.869064	0.869064
300	50    	0.872345	0  	0.872345	0.872345
301	20    	0.872345	0  	0.872345	0.872345
302	24    	0.872345	0  	0.872345	0.872345
303	32    	0.87561 	0  	0.87561 	0.87561 
304	12    	0.87561 	0  	0.87561 	0.87561 
305	16    	0.87561 	0  	0.87561 	0.87561 
306	20    	0.87561 	0  	0.87561 	0.87561 
307	24    	0.878891	0  	0.878891	0.878891
308	10    	0.882156	0  	0.882156	0.882156
309	4     	0.882156	0  	0.882156	0.882156
310	6     	0.882156	0  	0.882156	0.882156
311	6     	0.882156	0  	0.882156	0.882156
312	8     	0.882156	0  	0.882156	0.882156
313	10    	0.885437	0  	0.885437	0.885437
314	4     	0.885437	0  	0.885437	0.885437
315	6     	0.885437	0  	0.885437	0.885437
316	6     	0.888702	0  	0.888702	0.888702
317	2     	0.888702	0  	0.888702	0.888702
318	4     	0.888702	0  	0.888702	0.888702
319	4     	0.888702	0  	0.888702	0.888702
320	6     	0.888702	0  	0.888702	0.888702
321	6     	0.888702	0  	0.888702	0.888702
322	8     	0.888702	0  	0.888702	0.888702
323	10    	0.888702	0  	0.888702	0.888702
324	12    	0.888702	0  	0.888702	0.888702
325	16    	0.888702	0  	0.888702	0.888702
326	20    	0.888702	0  	0.888702	0.888702
327	24    	0.888702	0  	0.888702	0.888702
328	32    	0.888702	0  	0.888702	0.888702
329	40    	0.891983	0  	0.891983	0.891983
330	16    	0.891983	0  	0.891983	0.891983
331	20    	0.891983	0  	0.891983	0.891983
332	24    	0.891983	0  	0.891983	0.891983
333	32    	0.891983	0  	0.891983	0.891983
334	40    	0.895248	0  	0.895248	0.895248
335	16    	0.895248	0  	0.895248	0.895248
336	20    	0.895248	0  	0.895248	0.895248
337	24    	0.895248	0  	0.895248	0.895248
338	32    	0.895248	0  	0.895248	0.895248
339	40    	0.901794	0  	0.901794	0.901794
340	16    	0.901794	0  	0.901794	0.901794
341	20    	0.901794	0  	0.901794	0.901794
342	24    	0.901794	0  	0.901794	0.901794
343	32    	0.901794	0  	0.901794	0.901794
344	40    	0.901794	0  	0.901794	0.901794
345	50    	0.901794	0  	0.901794	0.901794
346	62    	0.901794	0  	0.901794	0.901794
347	78    	0.901794	0  	0.901794	0.901794
348	98    	0.901794	0  	0.901794	0.901794
349	124   	0.905075	0  	0.905075	0.905075
350	50    	0.905075	0  	0.905075	0.905075
351	62    	0.90834 	0  	0.90834 	0.90834 
352	24    	0.90834 	0  	0.90834 	0.90834 
353	32    	0.90834 	0  	0.90834 	0.90834 
354	40    	0.90834 	0  	0.90834 	0.90834 
355	50    	0.90834 	0  	0.90834 	0.90834 
356	62    	0.911621	0  	0.911621	0.911621
357	24    	0.911621	0  	0.911621	0.911621
358	32    	0.911621	0  	0.911621	0.911621
359	40    	0.911621	0  	0.911621	0.911621
360	50    	0.911621	0  	0.911621	0.911621
361	62    	0.911621	0  	0.911621	0.911621
362	78    	0.911621	0  	0.911621	0.911621
363	98    	0.911621	0  	0.911621	0.911621
364	124   	0.911621	0  	0.911621	0.911621
365	156   	0.911621	0  	0.911621	0.911621
366	196   	0.911621	0  	0.911621	0.911621
367	246   	0.911621	0  	0.911621	0.911621
368	308   	0.914886	0  	0.914886	0.914886
369	124   	0.914886	0  	0.914886	0.914886
370	156   	0.914886	0  	0.914886	0.914886
371	196   	0.914886	0  	0.914886	0.914886
372	246   	0.914886	0  	0.914886	0.914886
373	308   	0.914886	0  	0.914886	0.914886
374	388   	0.914886	0  	0.914886	0.914886
375	488   	0.914886	0  	0.914886	0.914886
376	614   	0.914886	0  	0.914886	0.914886
377	722   	0.914886	0  	0.914886	0.914886
378	722   	0.918167	0  	0.918167	0.918167
379	288   	0.921448	0  	0.921448	0.921448
380	116   	0.921448	0  	0.921448	0.921448
381	146   	0.921448	0  	0.921448	0.921448
382	182   	0.921448	0  	0.921448	0.921448
383	230   	0.921448	0  	0.921448	0.921448
384	288   	0.921448	0  	0.921448	0.921448
385	364   	0.921448	0  	0.921448	0.921448
