gen	nevals	avg     	std	min     	max     
0  	1     	0.756104	0  	0.756104	0.756104
1  	2     	0.756104	0  	0.756104	0.756104
2  	2     	0.756104	0  	0.756104	0.756104
3  	4     	0.756104	0  	0.756104	0.756104
4  	4     	0.756104	0  	0.756104	0.756104
5  	6     	0.804871	0  	0.804871	0.804871
6  	2     	0.804871	0  	0.804871	0.804871
7  	2     	0.804871	0  	0.804871	0.804871
8  	4     	0.804871	0  	0.804871	0.804871
9  	4     	0.804871	0  	0.804871	0.804871
10 	6     	0.804871	0  	0.804871	0.804871
11 	6     	0.804871	0  	0.804871	0.804871
12 	8     	0.853653	0  	0.853653	0.853653
13 	4     	0.853653	0  	0.853653	0.853653
14 	4     	0.853653	0  	0.853653	0.853653
15 	6     	0.853653	0  	0.853653	0.853653
16 	6     	0.902435	0  	0.902435	0.902435
17 	2     	0.902435	0  	0.902435	0.902435
18 	4     	0.951218	0  	0.951218	0.951218
19 	2     	0.951218	0  	0.951218	0.951218
20 	2     	0.951218	0  	0.951218	0.951218
21 	4     	0.951218	0  	0.951218	0.951218
22 	4     	0.951218	0  	0.951218	0.951218
23 	6     	0.951218	0  	0.951218	0.951218
24 	6     	0.951218	0  	0.951218	0.951218
25 	8     	0.951218	0  	0.951218	0.951218
26 	10    	0.951218	0  	0.951218	0.951218
27 	12    	0.951218	0  	0.951218	0.951218
28 	16    	0.951218	0  	0.951218	0.951218
29 	20    	0.951218	0  	0.951218	0.951218
30 	24    	0.951218	0  	0.951218	0.951218
31 	32    	0.951218	0  	0.951218	0.951218
32 	40    	0.951218	0  	0.951218	0.951218
33 	50    	0.951218	0  	0.951218	0.951218
34 	50    	0.951218	0  	0.951218	0.951218
35 	50    	0.951218	0  	0.951218	0.951218
36 	50    	0.951218	0  	0.951218	0.951218
37 	50    	0.951218	0  	0.951218	0.951218
38 	50    	0.951218	0  	0.951218	0.951218
39 	50    	0.951218	0  	0.951218	0.951218
40 	50    	0.951218	0  	0.951218	0.951218
41 	50    	0.951218	0  	0.951218	0.951218
42 	50    	0.951218	0  	0.951218	0.951218
43 	50    	0.951218	0  	0.951218	0.951218
44 	50    	0.951218	0  	0.951218	0.951218
45 	50    	0.951218	0  	0.951218	0.951218
46 	50    	0.951218	0  	0.951218	0.951218
47 	50    	0.951218	0  	0.951218	0.951218
48 	50    	0.951218	0  	0.951218	0.951218
49 	50    	0.951218	0  	0.951218	0.951218
50 	50    	0.951218	0  	0.951218	0.951218
51 	50    	0.951218	0  	0.951218	0.951218
52 	50    	0.951218	0  	0.951218	0.951218
53 	50    	0.951218	0  	0.951218	0.951218
54 	50    	0.951218	0  	0.951218	0.951218
55 	50    	0.951218	0  	0.951218	0.951218
56 	50    	0.951218	0  	0.951218	0.951218
57 	50    	0.951218	0  	0.951218	0.951218
58 	50    	0.951218	0  	0.951218	0.951218
59 	50    	0.951218	0  	0.951218	0.951218
60 	50    	0.951218	0  	0.951218	0.951218
61 	50    	0.951218	0  	0.951218	0.951218
62 	50    	0.951218	0  	0.951218	0.951218
63 	50    	0.951218	0  	0.951218	0.951218
64 	50    	0.951218	0  	0.951218	0.951218
65 	50    	0.951218	0  	0.951218	0.951218
66 	50    	0.951218	0  	0.951218	0.951218
67 	50    	0.951218	0  	0.951218	0.951218
68 	50    	0.951218	0  	0.951218	0.951218
69 	50    	0.951218	0  	0.951218	0.951218
70 	50    	0.951218	0  	0.951218	0.951218
71 	50    	0.951218	0  	0.951218	0.951218
72 	50    	0.951218	0  	0.951218	0.951218
73 	50    	0.951218	0  	0.951218	0.951218
74 	50    	0.951218	0  	0.951218	0.951218
75 	50    	0.951218	0  	0.951218	0.951218
76 	50    	0.951218	0  	0.951218	0.951218
77 	50    	0.951218	0  	0.951218	0.951218
78 	50    	0.951218	0  	0.951218	0.951218
79 	50    	0.951218	0  	0.951218	0.951218
80 	50    	0.951218	0  	0.951218	0.951218
81 	50    	0.951218	0  	0.951218	0.951218
82 	50    	0.951218	0  	0.951218	0.951218
83 	50    	0.951218	0  	0.951218	0.951218
84 	50    	0.951218	0  	0.951218	0.951218
85 	50    	0.951218	0  	0.951218	0.951218
86 	50    	0.951218	0  	0.951218	0.951218
87 	50    	0.951218	0  	0.951218	0.951218
88 	50    	0.951218	0  	0.951218	0.951218
89 	50    	0.951218	0  	0.951218	0.951218
90 	50    	0.951218	0  	0.951218	0.951218
91 	50    	0.951218	0  	0.951218	0.951218
92 	50    	0.951218	0  	0.951218	0.951218
93 	50    	0.951218	0  	0.951218	0.951218
94 	50    	0.951218	0  	0.951218	0.951218
95 	50    	0.951218	0  	0.951218	0.951218
96 	50    	0.951218	0  	0.951218	0.951218
97 	50    	0.951218	0  	0.951218	0.951218
98 	50    	0.951218	0  	0.951218	0.951218
99 	50    	0.951218	0  	0.951218	0.951218
100	50    	0.951218	0  	0.951218	0.951218
101	50    	0.951218	0  	0.951218	0.951218
102	50    	0.951218	0  	0.951218	0.951218
103	50    	0.951218	0  	0.951218	0.951218
104	50    	0.951218	0  	0.951218	0.951218
105	50    	0.951218	0  	0.951218	0.951218
106	50    	0.951218	0  	0.951218	0.951218
107	50    	0.951218	0  	0.951218	0.951218
108	50    	0.951218	0  	0.951218	0.951218
109	50    	0.951218	0  	0.951218	0.951218
110	50    	0.951218	0  	0.951218	0.951218
111	50    	0.951218	0  	0.951218	0.951218
112	50    	0.951218	0  	0.951218	0.951218
113	50    	0.951218	0  	0.951218	0.951218
114	50    	0.951218	0  	0.951218	0.951218
115	50    	0.951218	0  	0.951218	0.951218
116	50    	0.951218	0  	0.951218	0.951218
117	50    	0.951218	0  	0.951218	0.951218
118	50    	0.951218	0  	0.951218	0.951218
119	50    	0.951218	0  	0.951218	0.951218
120	50    	0.951218	0  	0.951218	0.951218
121	50    	0.951218	0  	0.951218	0.951218
122	50    	0.951218	0  	0.951218	0.951218
123	50    	0.951218	0  	0.951218	0.951218
124	50    	0.951218	0  	0.951218	0.951218
125	50    	0.951218	0  	0.951218	0.951218
126	50    	0.951218	0  	0.951218	0.951218
127	50    	0.951218	0  	0.951218	0.951218
128	50    	0.951218	0  	0.951218	0.951218
129	50    	0.951218	0  	0.951218	0.951218
130	50    	0.951218	0  	0.951218	0.951218
131	50    	0.951218	0  	0.951218	0.951218
132	50    	0.951218	0  	0.951218	0.951218
133	50    	0.951218	0  	0.951218	0.951218
134	50    	0.951218	0  	0.951218	0.951218
135	50    	0.951218	0  	0.951218	0.951218
136	50    	0.951218	0  	0.951218	0.951218
137	50    	0.951218	0  	0.951218	0.951218
138	50    	0.951218	0  	0.951218	0.951218
139	50    	0.951218	0  	0.951218	0.951218
140	50    	0.951218	0  	0.951218	0.951218
141	50    	0.951218	0  	0.951218	0.951218
142	50    	0.951218	0  	0.951218	0.951218
143	50    	0.951218	0  	0.951218	0.951218
144	50    	0.951218	0  	0.951218	0.951218
145	50    	0.951218	0  	0.951218	0.951218
146	50    	0.951218	0  	0.951218	0.951218
147	50    	0.951218	0  	0.951218	0.951218
148	50    	0.951218	0  	0.951218	0.951218
149	50    	0.951218	0  	0.951218	0.951218
150	50    	0.951218	0  	0.951218	0.951218
151	50    	0.951218	0  	0.951218	0.951218
152	50    	0.951218	0  	0.951218	0.951218
153	50    	0.951218	0  	0.951218	0.951218
154	50    	0.951218	0  	0.951218	0.951218
155	50    	0.951218	0  	0.951218	0.951218
156	50    	0.951218	0  	0.951218	0.951218
157	50    	0.951218	0  	0.951218	0.951218
158	50    	0.951218	0  	0.951218	0.951218
159	50    	0.951218	0  	0.951218	0.951218
160	50    	0.951218	0  	0.951218	0.951218
161	50    	0.951218	0  	0.951218	0.951218
162	50    	0.951218	0  	0.951218	0.951218
163	50    	0.951218	0  	0.951218	0.951218
164	50    	0.951218	0  	0.951218	0.951218
165	50    	0.951218	0  	0.951218	0.951218
166	50    	0.951218	0  	0.951218	0.951218
167	50    	0.951218	0  	0.951218	0.951218
168	50    	0.951218	0  	0.951218	0.951218
169	50    	0.951218	0  	0.951218	0.951218
170	50    	0.951218	0  	0.951218	0.951218
171	50    	0.951218	0  	0.951218	0.951218
172	50    	0.951218	0  	0.951218	0.951218
173	50    	0.951218	0  	0.951218	0.951218
174	50    	0.951218	0  	0.951218	0.951218
175	50    	0.951218	0  	0.951218	0.951218
176	50    	0.951218	0  	0.951218	0.951218
177	50    	0.951218	0  	0.951218	0.951218
178	50    	0.951218	0  	0.951218	0.951218
179	50    	0.951218	0  	0.951218	0.951218
180	50    	0.951218	0  	0.951218	0.951218
181	50    	0.951218	0  	0.951218	0.951218
182	50    	0.951218	0  	0.951218	0.951218
183	50    	0.951218	0  	0.951218	0.951218
184	50    	0.951218	0  	0.951218	0.951218
185	50    	0.951218	0  	0.951218	0.951218
186	50    	0.951218	0  	0.951218	0.951218
187	50    	0.951218	0  	0.951218	0.951218
188	50    	0.951218	0  	0.951218	0.951218
189	50    	0.951218	0  	0.951218	0.951218
190	50    	0.951218	0  	0.951218	0.951218
191	50    	0.951218	0  	0.951218	0.951218
192	50    	0.951218	0  	0.951218	0.951218
193	50    	0.951218	0  	0.951218	0.951218
194	50    	0.951218	0  	0.951218	0.951218
195	50    	0.951218	0  	0.951218	0.951218
196	50    	0.951218	0  	0.951218	0.951218
197	50    	0.951218	0  	0.951218	0.951218
198	50    	0.951218	0  	0.951218	0.951218
199	50    	0.951218	0  	0.951218	0.951218
200	50    	0.951218	0  	0.951218	0.951218
201	50    	0.951218	0  	0.951218	0.951218
202	50    	0.951218	0  	0.951218	0.951218
203	50    	0.951218	0  	0.951218	0.951218
204	50    	0.951218	0  	0.951218	0.951218
205	50    	0.951218	0  	0.951218	0.951218
206	50    	0.951218	0  	0.951218	0.951218
207	50    	0.951218	0  	0.951218	0.951218
208	50    	0.951218	0  	0.951218	0.951218
209	50    	0.951218	0  	0.951218	0.951218
210	50    	0.951218	0  	0.951218	0.951218
211	50    	0.951218	0  	0.951218	0.951218
212	50    	0.951218	0  	0.951218	0.951218
213	50    	0.951218	0  	0.951218	0.951218
214	50    	0.951218	0  	0.951218	0.951218
215	50    	0.951218	0  	0.951218	0.951218
216	50    	0.951218	0  	0.951218	0.951218
217	50    	0.951218	0  	0.951218	0.951218
218	50    	0.951218	0  	0.951218	0.951218
219	50    	0.951218	0  	0.951218	0.951218
220	50    	0.951218	0  	0.951218	0.951218
221	50    	0.951218	0  	0.951218	0.951218
222	50    	0.951218	0  	0.951218	0.951218
223	50    	0.951218	0  	0.951218	0.951218
224	50    	0.951218	0  	0.951218	0.951218
225	50    	0.951218	0  	0.951218	0.951218
226	50    	0.951218	0  	0.951218	0.951218
227	50    	0.951218	0  	0.951218	0.951218
