gen	nevals	avg     	std	min     	max     
0  	1     	0.56955 	0  	0.56955 	0.56955 
1  	2     	0.56955 	0  	0.56955 	0.56955 
2  	2     	0.56955 	0  	0.56955 	0.56955 
3  	4     	0.56955 	0  	0.56955 	0.56955 
4  	4     	0.574799	0  	0.574799	0.574799
5  	2     	0.574799	0  	0.574799	0.574799
6  	2     	0.580048	0  	0.580048	0.580048
7  	2     	0.580048	0  	0.580048	0.580048
8  	2     	0.580048	0  	0.580048	0.580048
9  	4     	0.580048	0  	0.580048	0.580048
10 	4     	0.580048	0  	0.580048	0.580048
11 	6     	0.580048	0  	0.580048	0.580048
12 	6     	0.585297	0  	0.585297	0.585297
13 	2     	0.585297	0  	0.585297	0.585297
14 	4     	0.585297	0  	0.585297	0.585297
15 	4     	0.601044	0  	0.601044	0.601044
16 	2     	0.601044	0  	0.601044	0.601044
17 	2     	0.601044	0  	0.601044	0.601044
18 	4     	0.601044	0  	0.601044	0.601044
19 	4     	0.601044	0  	0.601044	0.601044
20 	6     	0.601044	0  	0.601044	0.601044
21 	6     	0.616791	0  	0.616791	0.616791
22 	2     	0.62204 	0  	0.62204 	0.62204 
23 	2     	0.62204 	0  	0.62204 	0.62204 
24 	2     	0.62204 	0  	0.62204 	0.62204 
25 	4     	0.627304	0  	0.627304	0.627304
26 	2     	0.627304	0  	0.627304	0.627304
27 	2     	0.632553	0  	0.632553	0.632553
28 	2     	0.632553	0  	0.632553	0.632553
29 	2     	0.632553	0  	0.632553	0.632553
30 	4     	0.632553	0  	0.632553	0.632553
31 	4     	0.632553	0  	0.632553	0.632553
32 	6     	0.637802	0  	0.637802	0.637802
33 	2     	0.637802	0  	0.637802	0.637802
34 	2     	0.637802	0  	0.637802	0.637802
35 	4     	0.643051	0  	0.643051	0.643051
36 	2     	0.643051	0  	0.643051	0.643051
37 	2     	0.643051	0  	0.643051	0.643051
38 	4     	0.643051	0  	0.643051	0.643051
39 	4     	0.6483  	0  	0.6483  	0.6483  
40 	2     	0.653549	0  	0.653549	0.653549
41 	2     	0.653549	0  	0.653549	0.653549
42 	2     	0.653549	0  	0.653549	0.653549
43 	4     	0.653549	0  	0.653549	0.653549
44 	4     	0.658798	0  	0.658798	0.658798
45 	2     	0.664047	0  	0.664047	0.664047
46 	2     	0.664047	0  	0.664047	0.664047
47 	2     	0.664047	0  	0.664047	0.664047
48 	4     	0.664047	0  	0.664047	0.664047
49 	4     	0.664047	0  	0.664047	0.664047
50 	6     	0.664047	0  	0.664047	0.664047
51 	6     	0.669296	0  	0.669296	0.669296
52 	2     	0.674545	0  	0.674545	0.674545
53 	2     	0.674545	0  	0.674545	0.674545
54 	2     	0.674545	0  	0.674545	0.674545
55 	4     	0.679794	0  	0.679794	0.679794
56 	2     	0.679794	0  	0.679794	0.679794
57 	2     	0.679794	0  	0.679794	0.679794
58 	4     	0.679794	0  	0.679794	0.679794
59 	4     	0.679794	0  	0.679794	0.679794
60 	6     	0.679794	0  	0.679794	0.679794
61 	6     	0.690292	0  	0.690292	0.690292
62 	2     	0.690292	0  	0.690292	0.690292
63 	4     	0.690292	0  	0.690292	0.690292
64 	4     	0.695541	0  	0.695541	0.695541
65 	2     	0.695541	0  	0.695541	0.695541
66 	2     	0.695541	0  	0.695541	0.695541
67 	4     	0.695541	0  	0.695541	0.695541
68 	4     	0.706039	0  	0.706039	0.706039
69 	2     	0.706039	0  	0.706039	0.706039
70 	2     	0.706039	0  	0.706039	0.706039
71 	4     	0.706039	0  	0.706039	0.706039
72 	4     	0.706039	0  	0.706039	0.706039
73 	6     	0.711288	0  	0.711288	0.711288
74 	2     	0.711288	0  	0.711288	0.711288
75 	2     	0.711288	0  	0.711288	0.711288
76 	4     	0.716537	0  	0.716537	0.716537
77 	2     	0.716537	0  	0.716537	0.716537
78 	2     	0.721786	0  	0.721786	0.721786
79 	2     	0.721786	0  	0.721786	0.721786
80 	2     	0.721786	0  	0.721786	0.721786
81 	4     	0.721786	0  	0.721786	0.721786
82 	4     	0.721786	0  	0.721786	0.721786
83 	6     	0.732285	0  	0.732285	0.732285
84 	2     	0.732285	0  	0.732285	0.732285
85 	2     	0.737534	0  	0.737534	0.737534
86 	2     	0.737534	0  	0.737534	0.737534
87 	2     	0.737534	0  	0.737534	0.737534
88 	4     	0.737534	0  	0.737534	0.737534
89 	4     	0.748032	0  	0.748032	0.748032
90 	2     	0.748032	0  	0.748032	0.748032
91 	2     	0.748032	0  	0.748032	0.748032
92 	4     	0.75853 	0  	0.75853 	0.75853 
93 	2     	0.75853 	0  	0.75853 	0.75853 
94 	2     	0.75853 	0  	0.75853 	0.75853 
95 	4     	0.75853 	0  	0.75853 	0.75853 
96 	4     	0.779526	0  	0.779526	0.779526
97 	2     	0.779526	0  	0.779526	0.779526
98 	2     	0.779526	0  	0.779526	0.779526
99 	4     	0.779526	0  	0.779526	0.779526
100	4     	0.779526	0  	0.779526	0.779526
101	6     	0.779526	0  	0.779526	0.779526
102	6     	0.784775	0  	0.784775	0.784775
103	2     	0.784775	0  	0.784775	0.784775
104	4     	0.790024	0  	0.790024	0.790024
105	2     	0.790024	0  	0.790024	0.790024
106	2     	0.790024	0  	0.790024	0.790024
107	4     	0.790024	0  	0.790024	0.790024
108	4     	0.790024	0  	0.790024	0.790024
109	6     	0.790024	0  	0.790024	0.790024
110	6     	0.795273	0  	0.795273	0.795273
111	2     	0.795273	0  	0.795273	0.795273
112	4     	0.805771	0  	0.805771	0.805771
113	2     	0.805771	0  	0.805771	0.805771
114	2     	0.805771	0  	0.805771	0.805771
115	4     	0.805771	0  	0.805771	0.805771
116	4     	0.805771	0  	0.805771	0.805771
117	6     	0.805771	0  	0.805771	0.805771
118	6     	0.81102 	0  	0.81102 	0.81102 
119	2     	0.81102 	0  	0.81102 	0.81102 
120	4     	0.81102 	0  	0.81102 	0.81102 
121	4     	0.816269	0  	0.816269	0.816269
122	2     	0.816269	0  	0.816269	0.816269
123	2     	0.816269	0  	0.816269	0.816269
124	4     	0.816269	0  	0.816269	0.816269
125	4     	0.816269	0  	0.816269	0.816269
126	6     	0.816269	0  	0.816269	0.816269
127	6     	0.816269	0  	0.816269	0.816269
128	8     	0.816269	0  	0.816269	0.816269
129	10    	0.816269	0  	0.816269	0.816269
130	12    	0.816269	0  	0.816269	0.816269
131	16    	0.821518	0  	0.821518	0.821518
132	6     	0.826767	0  	0.826767	0.826767
133	2     	0.826767	0  	0.826767	0.826767
134	4     	0.826767	0  	0.826767	0.826767
135	4     	0.826767	0  	0.826767	0.826767
136	6     	0.826767	0  	0.826767	0.826767
137	6     	0.832016	0  	0.832016	0.832016
138	2     	0.832016	0  	0.832016	0.832016
139	4     	0.832016	0  	0.832016	0.832016
140	4     	0.832016	0  	0.832016	0.832016
141	6     	0.832016	0  	0.832016	0.832016
142	6     	0.832016	0  	0.832016	0.832016
143	8     	0.837265	0  	0.837265	0.837265
144	4     	0.837265	0  	0.837265	0.837265
145	4     	0.837265	0  	0.837265	0.837265
146	6     	0.837265	0  	0.837265	0.837265
147	6     	0.837265	0  	0.837265	0.837265
148	8     	0.842514	0  	0.842514	0.842514
149	4     	0.842514	0  	0.842514	0.842514
150	4     	0.847763	0  	0.847763	0.847763
151	2     	0.847763	0  	0.847763	0.847763
152	2     	0.847763	0  	0.847763	0.847763
153	4     	0.853012	0  	0.853012	0.853012
154	2     	0.853012	0  	0.853012	0.853012
155	2     	0.853012	0  	0.853012	0.853012
156	4     	0.853012	0  	0.853012	0.853012
157	4     	0.853012	0  	0.853012	0.853012
158	6     	0.853012	0  	0.853012	0.853012
159	6     	0.853012	0  	0.853012	0.853012
160	8     	0.853012	0  	0.853012	0.853012
161	10    	0.858261	0  	0.858261	0.858261
162	4     	0.858261	0  	0.858261	0.858261
163	6     	0.858261	0  	0.858261	0.858261
164	6     	0.86351 	0  	0.86351 	0.86351 
165	2     	0.86351 	0  	0.86351 	0.86351 
166	4     	0.86351 	0  	0.86351 	0.86351 
167	4     	0.86351 	0  	0.86351 	0.86351 
168	6     	0.86351 	0  	0.86351 	0.86351 
169	6     	0.86351 	0  	0.86351 	0.86351 
170	8     	0.86351 	0  	0.86351 	0.86351 
171	10    	0.86351 	0  	0.86351 	0.86351 
172	12    	0.86351 	0  	0.86351 	0.86351 
173	16    	0.868759	0  	0.868759	0.868759
174	6     	0.868759	0  	0.868759	0.868759
175	8     	0.868759	0  	0.868759	0.868759
176	10    	0.868759	0  	0.868759	0.868759
177	12    	0.874008	0  	0.874008	0.874008
178	6     	0.874008	0  	0.874008	0.874008
179	6     	0.874008	0  	0.874008	0.874008
180	8     	0.874008	0  	0.874008	0.874008
181	10    	0.874008	0  	0.874008	0.874008
182	12    	0.874008	0  	0.874008	0.874008
183	16    	0.874008	0  	0.874008	0.874008
184	20    	0.879272	0  	0.879272	0.879272
185	8     	0.884521	0  	0.884521	0.884521
186	4     	0.884521	0  	0.884521	0.884521
187	4     	0.884521	0  	0.884521	0.884521
188	6     	0.884521	0  	0.884521	0.884521
189	6     	0.884521	0  	0.884521	0.884521
190	8     	0.884521	0  	0.884521	0.884521
191	10    	0.884521	0  	0.884521	0.884521
192	12    	0.884521	0  	0.884521	0.884521
193	16    	0.884521	0  	0.884521	0.884521
194	20    	0.889771	0  	0.889771	0.889771
195	8     	0.889771	0  	0.889771	0.889771
196	10    	0.889771	0  	0.889771	0.889771
197	12    	0.889771	0  	0.889771	0.889771
198	16    	0.889771	0  	0.889771	0.889771
199	20    	0.889771	0  	0.889771	0.889771
200	24    	0.889771	0  	0.889771	0.889771
201	32    	0.889771	0  	0.889771	0.889771
202	40    	0.889771	0  	0.889771	0.889771
203	50    	0.89502 	0  	0.89502 	0.89502 
204	20    	0.89502 	0  	0.89502 	0.89502 
205	24    	0.89502 	0  	0.89502 	0.89502 
206	32    	0.900269	0  	0.900269	0.900269
207	12    	0.900269	0  	0.900269	0.900269
208	16    	0.900269	0  	0.900269	0.900269
209	20    	0.900269	0  	0.900269	0.900269
210	24    	0.900269	0  	0.900269	0.900269
211	32    	0.900269	0  	0.900269	0.900269
212	40    	0.900269	0  	0.900269	0.900269
213	50    	0.900269	0  	0.900269	0.900269
214	62    	0.900269	0  	0.900269	0.900269
215	78    	0.900269	0  	0.900269	0.900269
216	98    	0.900269	0  	0.900269	0.900269
217	124   	0.900269	0  	0.900269	0.900269
218	156   	0.900269	0  	0.900269	0.900269
219	196   	0.900269	0  	0.900269	0.900269
220	246   	0.900269	0  	0.900269	0.900269
221	308   	0.900269	0  	0.900269	0.900269
222	388   	0.900269	0  	0.900269	0.900269
223	450   	0.900269	0  	0.900269	0.900269
224	450   	0.900269	0  	0.900269	0.900269
225	450   	0.900269	0  	0.900269	0.900269
226	450   	0.900269	0  	0.900269	0.900269
227	450   	0.900269	0  	0.900269	0.900269
228	450   	0.900269	0  	0.900269	0.900269
229	450   	0.900269	0  	0.900269	0.900269
230	450   	0.900269	0  	0.900269	0.900269
231	450   	0.900269	0  	0.900269	0.900269
232	450   	0.900269	0  	0.900269	0.900269
233	450   	0.900269	0  	0.900269	0.900269
234	450   	0.900269	0  	0.900269	0.900269
235	450   	0.900269	0  	0.900269	0.900269
236	450   	0.900269	0  	0.900269	0.900269
237	450   	0.900269	0  	0.900269	0.900269
238	450   	0.900269	0  	0.900269	0.900269
