gen	nevals	avg     	std	min     	max     
0  	1     	0.617523	0  	0.617523	0.617523
1  	2     	0.617523	0  	0.617523	0.617523
2  	2     	0.620193	0  	0.620193	0.620193
3  	2     	0.620193	0  	0.620193	0.620193
4  	2     	0.622849	0  	0.622849	0.622849
5  	2     	0.622849	0  	0.622849	0.622849
6  	2     	0.622849	0  	0.622849	0.622849
7  	4     	0.622849	0  	0.622849	0.622849
8  	4     	0.622849	0  	0.622849	0.622849
9  	6     	0.622849	0  	0.622849	0.622849
10 	6     	0.625504	0  	0.625504	0.625504
11 	2     	0.625504	0  	0.625504	0.625504
12 	4     	0.625504	0  	0.625504	0.625504
13 	4     	0.625504	0  	0.625504	0.625504
14 	6     	0.625504	0  	0.625504	0.625504
15 	6     	0.630814	0  	0.630814	0.630814
16 	2     	0.630814	0  	0.630814	0.630814
17 	4     	0.630814	0  	0.630814	0.630814
18 	4     	0.630814	0  	0.630814	0.630814
19 	6     	0.636124	0  	0.636124	0.636124
20 	2     	0.636124	0  	0.636124	0.636124
21 	2     	0.636124	0  	0.636124	0.636124
22 	4     	0.638779	0  	0.638779	0.638779
23 	2     	0.638779	0  	0.638779	0.638779
24 	2     	0.638779	0  	0.638779	0.638779
25 	4     	0.641434	0  	0.641434	0.641434
26 	2     	0.641434	0  	0.641434	0.641434
27 	2     	0.641434	0  	0.641434	0.641434
28 	4     	0.641434	0  	0.641434	0.641434
29 	4     	0.646744	0  	0.646744	0.646744
30 	2     	0.646744	0  	0.646744	0.646744
31 	2     	0.646744	0  	0.646744	0.646744
32 	4     	0.646744	0  	0.646744	0.646744
33 	4     	0.646744	0  	0.646744	0.646744
34 	6     	0.649399	0  	0.649399	0.649399
35 	2     	0.649399	0  	0.649399	0.649399
36 	2     	0.649399	0  	0.649399	0.649399
37 	4     	0.649399	0  	0.649399	0.649399
38 	4     	0.649399	0  	0.649399	0.649399
39 	6     	0.652054	0  	0.652054	0.652054
40 	2     	0.654709	0  	0.654709	0.654709
41 	2     	0.654709	0  	0.654709	0.654709
42 	2     	0.654709	0  	0.654709	0.654709
43 	4     	0.654709	0  	0.654709	0.654709
44 	4     	0.654709	0  	0.654709	0.654709
45 	6     	0.654709	0  	0.654709	0.654709
46 	6     	0.654709	0  	0.654709	0.654709
47 	8     	0.660034	0  	0.660034	0.660034
48 	4     	0.660034	0  	0.660034	0.660034
49 	4     	0.662689	0  	0.662689	0.662689
50 	2     	0.662689	0  	0.662689	0.662689
51 	2     	0.662689	0  	0.662689	0.662689
52 	4     	0.662689	0  	0.662689	0.662689
53 	4     	0.662689	0  	0.662689	0.662689
54 	6     	0.662689	0  	0.662689	0.662689
55 	6     	0.667999	0  	0.667999	0.667999
56 	2     	0.667999	0  	0.667999	0.667999
57 	4     	0.667999	0  	0.667999	0.667999
58 	4     	0.673309	0  	0.673309	0.673309
59 	2     	0.675964	0  	0.675964	0.675964
60 	2     	0.678619	0  	0.678619	0.678619
61 	2     	0.681274	0  	0.681274	0.681274
62 	2     	0.681274	0  	0.681274	0.681274
63 	2     	0.681274	0  	0.681274	0.681274
64 	4     	0.681274	0  	0.681274	0.681274
65 	4     	0.683929	0  	0.683929	0.683929
66 	2     	0.683929	0  	0.683929	0.683929
67 	2     	0.686584	0  	0.686584	0.686584
68 	2     	0.686584	0  	0.686584	0.686584
69 	2     	0.686584	0  	0.686584	0.686584
70 	4     	0.686584	0  	0.686584	0.686584
71 	4     	0.686584	0  	0.686584	0.686584
72 	6     	0.686584	0  	0.686584	0.686584
73 	6     	0.686584	0  	0.686584	0.686584
74 	8     	0.69455 	0  	0.69455 	0.69455 
75 	4     	0.69455 	0  	0.69455 	0.69455 
76 	4     	0.697205	0  	0.697205	0.697205
77 	2     	0.697205	0  	0.697205	0.697205
78 	2     	0.697205	0  	0.697205	0.697205
79 	4     	0.697205	0  	0.697205	0.697205
80 	4     	0.697205	0  	0.697205	0.697205
81 	6     	0.697205	0  	0.697205	0.697205
82 	6     	0.697205	0  	0.697205	0.697205
83 	8     	0.69986 	0  	0.69986 	0.69986 
84 	4     	0.69986 	0  	0.69986 	0.69986 
85 	4     	0.70253 	0  	0.70253 	0.70253 
86 	2     	0.70253 	0  	0.70253 	0.70253 
87 	2     	0.70253 	0  	0.70253 	0.70253 
88 	4     	0.705185	0  	0.705185	0.705185
89 	2     	0.705185	0  	0.705185	0.705185
90 	2     	0.705185	0  	0.705185	0.705185
91 	4     	0.705185	0  	0.705185	0.705185
92 	4     	0.710495	0  	0.710495	0.710495
93 	2     	0.710495	0  	0.710495	0.710495
94 	2     	0.710495	0  	0.710495	0.710495
95 	4     	0.71315 	0  	0.71315 	0.71315 
96 	2     	0.715805	0  	0.715805	0.715805
97 	2     	0.715805	0  	0.715805	0.715805
98 	2     	0.715805	0  	0.715805	0.715805
99 	4     	0.715805	0  	0.715805	0.715805
100	4     	0.715805	0  	0.715805	0.715805
101	6     	0.71846 	0  	0.71846 	0.71846 
102	2     	0.721115	0  	0.721115	0.721115
103	2     	0.726425	0  	0.726425	0.726425
104	2     	0.726425	0  	0.726425	0.726425
105	2     	0.726425	0  	0.726425	0.726425
106	4     	0.726425	0  	0.726425	0.726425
107	4     	0.726425	0  	0.726425	0.726425
108	6     	0.726425	0  	0.726425	0.726425
109	6     	0.726425	0  	0.726425	0.726425
110	8     	0.726425	0  	0.726425	0.726425
111	10    	0.726425	0  	0.726425	0.726425
112	12    	0.731735	0  	0.731735	0.731735
113	6     	0.731735	0  	0.731735	0.731735
114	6     	0.731735	0  	0.731735	0.731735
115	8     	0.73439 	0  	0.73439 	0.73439 
116	4     	0.737045	0  	0.737045	0.737045
117	2     	0.737045	0  	0.737045	0.737045
118	2     	0.737045	0  	0.737045	0.737045
119	4     	0.737045	0  	0.737045	0.737045
120	4     	0.737045	0  	0.737045	0.737045
121	6     	0.7397  	0  	0.7397  	0.7397  
122	2     	0.7397  	0  	0.7397  	0.7397  
123	2     	0.7397  	0  	0.7397  	0.7397  
124	4     	0.7397  	0  	0.7397  	0.7397  
125	4     	0.742371	0  	0.742371	0.742371
126	2     	0.742371	0  	0.742371	0.742371
127	2     	0.742371	0  	0.742371	0.742371
128	4     	0.742371	0  	0.742371	0.742371
129	4     	0.742371	0  	0.742371	0.742371
130	6     	0.742371	0  	0.742371	0.742371
131	6     	0.742371	0  	0.742371	0.742371
132	8     	0.742371	0  	0.742371	0.742371
133	10    	0.742371	0  	0.742371	0.742371
134	12    	0.745026	0  	0.745026	0.745026
135	6     	0.745026	0  	0.745026	0.745026
136	6     	0.747681	0  	0.747681	0.747681
137	2     	0.747681	0  	0.747681	0.747681
138	4     	0.747681	0  	0.747681	0.747681
139	4     	0.747681	0  	0.747681	0.747681
140	6     	0.747681	0  	0.747681	0.747681
141	6     	0.747681	0  	0.747681	0.747681
142	8     	0.747681	0  	0.747681	0.747681
143	10    	0.752991	0  	0.752991	0.752991
144	4     	0.752991	0  	0.752991	0.752991
145	6     	0.752991	0  	0.752991	0.752991
146	6     	0.752991	0  	0.752991	0.752991
147	8     	0.755646	0  	0.755646	0.755646
148	4     	0.755646	0  	0.755646	0.755646
149	4     	0.755646	0  	0.755646	0.755646
150	6     	0.760956	0  	0.760956	0.760956
151	2     	0.760956	0  	0.760956	0.760956
152	2     	0.760956	0  	0.760956	0.760956
153	4     	0.760956	0  	0.760956	0.760956
154	4     	0.760956	0  	0.760956	0.760956
155	6     	0.760956	0  	0.760956	0.760956
156	6     	0.760956	0  	0.760956	0.760956
157	8     	0.760956	0  	0.760956	0.760956
158	10    	0.760956	0  	0.760956	0.760956
159	12    	0.763611	0  	0.763611	0.763611
160	6     	0.763611	0  	0.763611	0.763611
161	6     	0.766266	0  	0.766266	0.766266
162	2     	0.766266	0  	0.766266	0.766266
163	4     	0.766266	0  	0.766266	0.766266
164	4     	0.768921	0  	0.768921	0.768921
165	2     	0.768921	0  	0.768921	0.768921
166	2     	0.768921	0  	0.768921	0.768921
167	4     	0.768921	0  	0.768921	0.768921
168	4     	0.768921	0  	0.768921	0.768921
169	6     	0.768921	0  	0.768921	0.768921
170	6     	0.771576	0  	0.771576	0.771576
171	2     	0.771576	0  	0.771576	0.771576
172	4     	0.771576	0  	0.771576	0.771576
173	4     	0.771576	0  	0.771576	0.771576
174	6     	0.771576	0  	0.771576	0.771576
175	6     	0.771576	0  	0.771576	0.771576
176	8     	0.771576	0  	0.771576	0.771576
177	10    	0.774231	0  	0.774231	0.774231
178	4     	0.774231	0  	0.774231	0.774231
179	6     	0.774231	0  	0.774231	0.774231
180	6     	0.774231	0  	0.774231	0.774231
181	8     	0.774231	0  	0.774231	0.774231
182	10    	0.779541	0  	0.779541	0.779541
183	4     	0.779541	0  	0.779541	0.779541
184	6     	0.779541	0  	0.779541	0.779541
185	6     	0.779541	0  	0.779541	0.779541
186	8     	0.779541	0  	0.779541	0.779541
187	10    	0.779541	0  	0.779541	0.779541
188	12    	0.779541	0  	0.779541	0.779541
189	16    	0.779541	0  	0.779541	0.779541
190	20    	0.782211	0  	0.782211	0.782211
191	8     	0.782211	0  	0.782211	0.782211
192	10    	0.782211	0  	0.782211	0.782211
193	12    	0.782211	0  	0.782211	0.782211
194	16    	0.782211	0  	0.782211	0.782211
195	20    	0.782211	0  	0.782211	0.782211
196	24    	0.782211	0  	0.782211	0.782211
197	32    	0.787521	0  	0.787521	0.787521
198	12    	0.787521	0  	0.787521	0.787521
199	16    	0.792831	0  	0.792831	0.792831
200	6     	0.792831	0  	0.792831	0.792831
201	8     	0.795486	0  	0.795486	0.795486
202	4     	0.795486	0  	0.795486	0.795486
203	4     	0.795486	0  	0.795486	0.795486
204	6     	0.795486	0  	0.795486	0.795486
205	6     	0.795486	0  	0.795486	0.795486
206	8     	0.795486	0  	0.795486	0.795486
207	10    	0.795486	0  	0.795486	0.795486
208	12    	0.798141	0  	0.798141	0.798141
209	6     	0.798141	0  	0.798141	0.798141
210	6     	0.798141	0  	0.798141	0.798141
211	8     	0.800797	0  	0.800797	0.800797
212	4     	0.800797	0  	0.800797	0.800797
213	4     	0.800797	0  	0.800797	0.800797
214	6     	0.800797	0  	0.800797	0.800797
215	6     	0.806107	0  	0.806107	0.806107
216	2     	0.806107	0  	0.806107	0.806107
217	4     	0.806107	0  	0.806107	0.806107
218	4     	0.806107	0  	0.806107	0.806107
219	6     	0.806107	0  	0.806107	0.806107
220	6     	0.806107	0  	0.806107	0.806107
221	8     	0.806107	0  	0.806107	0.806107
222	10    	0.808762	0  	0.808762	0.808762
223	4     	0.808762	0  	0.808762	0.808762
224	6     	0.811417	0  	0.811417	0.811417
225	2     	0.811417	0  	0.811417	0.811417
226	2     	0.811417	0  	0.811417	0.811417
227	4     	0.811417	0  	0.811417	0.811417
228	4     	0.811417	0  	0.811417	0.811417
229	6     	0.811417	0  	0.811417	0.811417
230	6     	0.814072	0  	0.814072	0.814072
231	2     	0.814072	0  	0.814072	0.814072
232	4     	0.814072	0  	0.814072	0.814072
233	4     	0.814072	0  	0.814072	0.814072
234	6     	0.814072	0  	0.814072	0.814072
235	6     	0.814072	0  	0.814072	0.814072
236	8     	0.814072	0  	0.814072	0.814072
237	10    	0.816727	0  	0.816727	0.816727
238	4     	0.816727	0  	0.816727	0.816727
239	6     	0.816727	0  	0.816727	0.816727
240	6     	0.816727	0  	0.816727	0.816727
241	8     	0.816727	0  	0.816727	0.816727
242	10    	0.816727	0  	0.816727	0.816727
243	12    	0.819382	0  	0.819382	0.819382
244	6     	0.819382	0  	0.819382	0.819382
245	6     	0.819382	0  	0.819382	0.819382
246	8     	0.822052	0  	0.822052	0.822052
247	4     	0.822052	0  	0.822052	0.822052
248	4     	0.822052	0  	0.822052	0.822052
249	6     	0.824707	0  	0.824707	0.824707
250	2     	0.824707	0  	0.824707	0.824707
251	2     	0.824707	0  	0.824707	0.824707
252	4     	0.824707	0  	0.824707	0.824707
253	4     	0.824707	0  	0.824707	0.824707
254	6     	0.824707	0  	0.824707	0.824707
255	6     	0.824707	0  	0.824707	0.824707
256	8     	0.824707	0  	0.824707	0.824707
257	10    	0.827362	0  	0.827362	0.827362
258	4     	0.827362	0  	0.827362	0.827362
259	6     	0.827362	0  	0.827362	0.827362
260	6     	0.827362	0  	0.827362	0.827362
261	8     	0.827362	0  	0.827362	0.827362
262	10    	0.827362	0  	0.827362	0.827362
263	12    	0.830017	0  	0.830017	0.830017
264	6     	0.830017	0  	0.830017	0.830017
265	6     	0.830017	0  	0.830017	0.830017
266	8     	0.830017	0  	0.830017	0.830017
267	10    	0.830017	0  	0.830017	0.830017
268	12    	0.830017	0  	0.830017	0.830017
269	16    	0.830017	0  	0.830017	0.830017
270	20    	0.830017	0  	0.830017	0.830017
271	24    	0.830017	0  	0.830017	0.830017
272	32    	0.832672	0  	0.832672	0.832672
273	12    	0.835327	0  	0.835327	0.835327
274	6     	0.835327	0  	0.835327	0.835327
275	6     	0.835327	0  	0.835327	0.835327
276	8     	0.835327	0  	0.835327	0.835327
277	10    	0.835327	0  	0.835327	0.835327
278	12    	0.835327	0  	0.835327	0.835327
279	16    	0.835327	0  	0.835327	0.835327
280	20    	0.835327	0  	0.835327	0.835327
281	24    	0.835327	0  	0.835327	0.835327
282	32    	0.835327	0  	0.835327	0.835327
283	40    	0.835327	0  	0.835327	0.835327
284	50    	0.837982	0  	0.837982	0.837982
285	20    	0.840637	0  	0.840637	0.840637
286	8     	0.840637	0  	0.840637	0.840637
287	10    	0.840637	0  	0.840637	0.840637
288	12    	0.840637	0  	0.840637	0.840637
289	16    	0.840637	0  	0.840637	0.840637
290	20    	0.843292	0  	0.843292	0.843292
291	8     	0.843292	0  	0.843292	0.843292
292	10    	0.843292	0  	0.843292	0.843292
293	12    	0.845947	0  	0.845947	0.845947
294	6     	0.845947	0  	0.845947	0.845947
295	6     	0.845947	0  	0.845947	0.845947
296	8     	0.845947	0  	0.845947	0.845947
297	10    	0.845947	0  	0.845947	0.845947
298	12    	0.845947	0  	0.845947	0.845947
299	16    	0.845947	0  	0.845947	0.845947
300	20    	0.845947	0  	0.845947	0.845947
301	24    	0.845947	0  	0.845947	0.845947
302	32    	0.845947	0  	0.845947	0.845947
303	40    	0.845947	0  	0.845947	0.845947
304	50    	0.845947	0  	0.845947	0.845947
305	62    	0.845947	0  	0.845947	0.845947
306	78    	0.848602	0  	0.848602	0.848602
307	32    	0.848602	0  	0.848602	0.848602
308	40    	0.851257	0  	0.851257	0.851257
309	16    	0.853912	0  	0.853912	0.853912
310	6     	0.853912	0  	0.853912	0.853912
311	8     	0.853912	0  	0.853912	0.853912
312	10    	0.853912	0  	0.853912	0.853912
313	12    	0.853912	0  	0.853912	0.853912
314	16    	0.853912	0  	0.853912	0.853912
315	20    	0.853912	0  	0.853912	0.853912
316	24    	0.859222	0  	0.859222	0.859222
317	10    	0.859222	0  	0.859222	0.859222
318	12    	0.859222	0  	0.859222	0.859222
319	16    	0.859222	0  	0.859222	0.859222
320	20    	0.859222	0  	0.859222	0.859222
321	24    	0.859222	0  	0.859222	0.859222
322	32    	0.859222	0  	0.859222	0.859222
323	40    	0.859222	0  	0.859222	0.859222
324	50    	0.859222	0  	0.859222	0.859222
325	62    	0.859222	0  	0.859222	0.859222
326	78    	0.859222	0  	0.859222	0.859222
327	98    	0.859222	0  	0.859222	0.859222
328	124   	0.861893	0  	0.861893	0.861893
329	50    	0.861893	0  	0.861893	0.861893
330	62    	0.861893	0  	0.861893	0.861893
331	78    	0.861893	0  	0.861893	0.861893
332	98    	0.864548	0  	0.864548	0.864548
333	40    	0.864548	0  	0.864548	0.864548
334	50    	0.867203	0  	0.867203	0.867203
335	20    	0.867203	0  	0.867203	0.867203
336	24    	0.867203	0  	0.867203	0.867203
337	32    	0.867203	0  	0.867203	0.867203
338	40    	0.867203	0  	0.867203	0.867203
339	50    	0.867203	0  	0.867203	0.867203
340	62    	0.867203	0  	0.867203	0.867203
341	78    	0.867203	0  	0.867203	0.867203
342	98    	0.867203	0  	0.867203	0.867203
343	124   	0.867203	0  	0.867203	0.867203
344	156   	0.867203	0  	0.867203	0.867203
345	196   	0.867203	0  	0.867203	0.867203
346	246   	0.867203	0  	0.867203	0.867203
347	308   	0.869858	0  	0.869858	0.869858
348	124   	0.869858	0  	0.869858	0.869858
349	156   	0.869858	0  	0.869858	0.869858
350	196   	0.872513	0  	0.872513	0.872513
351	78    	0.875168	0  	0.875168	0.875168
352	32    	0.875168	0  	0.875168	0.875168
353	40    	0.875168	0  	0.875168	0.875168
354	50    	0.875168	0  	0.875168	0.875168
355	62    	0.875168	0  	0.875168	0.875168
356	78    	0.875168	0  	0.875168	0.875168
357	98    	0.875168	0  	0.875168	0.875168
358	124   	0.877823	0  	0.877823	0.877823
359	50    	0.877823	0  	0.877823	0.877823
360	62    	0.877823	0  	0.877823	0.877823
361	78    	0.877823	0  	0.877823	0.877823
362	98    	0.877823	0  	0.877823	0.877823
363	124   	0.877823	0  	0.877823	0.877823
364	156   	0.877823	0  	0.877823	0.877823
365	196   	0.877823	0  	0.877823	0.877823
366	246   	0.877823	0  	0.877823	0.877823
367	308   	0.877823	0  	0.877823	0.877823
368	388   	0.877823	0  	0.877823	0.877823
369	488   	0.877823	0  	0.877823	0.877823
370	614   	0.877823	0  	0.877823	0.877823
371	772   	0.877823	0  	0.877823	0.877823
372	882   	0.877823	0  	0.877823	0.877823
