gen	nevals	avg     	std	min     	max     
0  	1     	0.583328	0  	0.583328	0.583328
1  	2     	0.583328	0  	0.583328	0.583328
2  	2     	0.583328	0  	0.583328	0.583328
3  	4     	0.583328	0  	0.583328	0.583328
4  	4     	0.587402	0  	0.587402	0.587402
5  	2     	0.587402	0  	0.587402	0.587402
6  	2     	0.591461	0  	0.591461	0.591461
7  	2     	0.591461	0  	0.591461	0.591461
8  	2     	0.591461	0  	0.591461	0.591461
9  	4     	0.593491	0  	0.593491	0.593491
10 	2     	0.593491	0  	0.593491	0.593491
11 	2     	0.593491	0  	0.593491	0.593491
12 	4     	0.593491	0  	0.593491	0.593491
13 	4     	0.593491	0  	0.593491	0.593491
14 	6     	0.595535	0  	0.595535	0.595535
15 	2     	0.595535	0  	0.595535	0.595535
16 	2     	0.595535	0  	0.595535	0.595535
17 	4     	0.597565	0  	0.597565	0.597565
18 	2     	0.597565	0  	0.597565	0.597565
19 	2     	0.599594	0  	0.599594	0.599594
20 	2     	0.599594	0  	0.599594	0.599594
21 	2     	0.599594	0  	0.599594	0.599594
22 	4     	0.601624	0  	0.601624	0.601624
23 	2     	0.601624	0  	0.601624	0.601624
24 	2     	0.601624	0  	0.601624	0.601624
25 	4     	0.601624	0  	0.601624	0.601624
26 	4     	0.603653	0  	0.603653	0.603653
27 	2     	0.603653	0  	0.603653	0.603653
28 	2     	0.603653	0  	0.603653	0.603653
29 	4     	0.603653	0  	0.603653	0.603653
30 	4     	0.603653	0  	0.603653	0.603653
31 	6     	0.603653	0  	0.603653	0.603653
32 	6     	0.605698	0  	0.605698	0.605698
33 	2     	0.605698	0  	0.605698	0.605698
34 	4     	0.609756	0  	0.609756	0.609756
35 	2     	0.609756	0  	0.609756	0.609756
36 	2     	0.609756	0  	0.609756	0.609756
37 	4     	0.611786	0  	0.611786	0.611786
38 	2     	0.611786	0  	0.611786	0.611786
39 	2     	0.613815	0  	0.613815	0.613815
40 	2     	0.613815	0  	0.613815	0.613815
41 	2     	0.613815	0  	0.613815	0.613815
42 	4     	0.61586 	0  	0.61586 	0.61586 
43 	2     	0.61586 	0  	0.61586 	0.61586 
44 	2     	0.61586 	0  	0.61586 	0.61586 
45 	4     	0.61586 	0  	0.61586 	0.61586 
46 	4     	0.61586 	0  	0.61586 	0.61586 
47 	6     	0.619919	0  	0.619919	0.619919
48 	2     	0.621948	0  	0.621948	0.621948
49 	2     	0.621948	0  	0.621948	0.621948
50 	2     	0.621948	0  	0.621948	0.621948
51 	4     	0.621948	0  	0.621948	0.621948
52 	4     	0.621948	0  	0.621948	0.621948
53 	6     	0.626022	0  	0.626022	0.626022
54 	2     	0.626022	0  	0.626022	0.626022
55 	2     	0.626022	0  	0.626022	0.626022
56 	4     	0.626022	0  	0.626022	0.626022
57 	4     	0.626022	0  	0.626022	0.626022
58 	6     	0.628052	0  	0.628052	0.628052
59 	2     	0.628052	0  	0.628052	0.628052
60 	2     	0.630081	0  	0.630081	0.630081
61 	2     	0.630081	0  	0.630081	0.630081
62 	2     	0.632111	0  	0.632111	0.632111
63 	2     	0.632111	0  	0.632111	0.632111
64 	2     	0.632111	0  	0.632111	0.632111
65 	4     	0.63414 	0  	0.63414 	0.63414 
66 	2     	0.63414 	0  	0.63414 	0.63414 
67 	2     	0.63414 	0  	0.63414 	0.63414 
68 	4     	0.63414 	0  	0.63414 	0.63414 
69 	4     	0.636185	0  	0.636185	0.636185
70 	2     	0.636185	0  	0.636185	0.636185
71 	2     	0.636185	0  	0.636185	0.636185
72 	4     	0.636185	0  	0.636185	0.636185
73 	4     	0.636185	0  	0.636185	0.636185
74 	6     	0.640244	0  	0.640244	0.640244
75 	2     	0.640244	0  	0.640244	0.640244
76 	2     	0.640244	0  	0.640244	0.640244
77 	4     	0.640244	0  	0.640244	0.640244
78 	4     	0.640244	0  	0.640244	0.640244
79 	6     	0.642273	0  	0.642273	0.642273
80 	2     	0.642273	0  	0.642273	0.642273
81 	2     	0.642273	0  	0.642273	0.642273
82 	4     	0.642273	0  	0.642273	0.642273
83 	4     	0.644302	0  	0.644302	0.644302
84 	2     	0.644302	0  	0.644302	0.644302
85 	2     	0.644302	0  	0.644302	0.644302
86 	4     	0.644302	0  	0.644302	0.644302
87 	4     	0.644302	0  	0.644302	0.644302
88 	6     	0.644302	0  	0.644302	0.644302
89 	6     	0.648376	0  	0.648376	0.648376
90 	2     	0.648376	0  	0.648376	0.648376
91 	4     	0.648376	0  	0.648376	0.648376
92 	4     	0.648376	0  	0.648376	0.648376
93 	6     	0.648376	0  	0.648376	0.648376
94 	6     	0.652435	0  	0.652435	0.652435
95 	2     	0.652435	0  	0.652435	0.652435
96 	4     	0.652435	0  	0.652435	0.652435
97 	4     	0.654465	0  	0.654465	0.654465
98 	2     	0.656509	0  	0.656509	0.656509
99 	2     	0.658539	0  	0.658539	0.658539
100	2     	0.658539	0  	0.658539	0.658539
101	2     	0.658539	0  	0.658539	0.658539
102	4     	0.660568	0  	0.660568	0.660568
103	2     	0.660568	0  	0.660568	0.660568
104	2     	0.660568	0  	0.660568	0.660568
105	4     	0.662598	0  	0.662598	0.662598
106	2     	0.662598	0  	0.662598	0.662598
107	2     	0.662598	0  	0.662598	0.662598
108	4     	0.662598	0  	0.662598	0.662598
109	4     	0.662598	0  	0.662598	0.662598
110	6     	0.668701	0  	0.668701	0.668701
111	2     	0.668701	0  	0.668701	0.668701
112	2     	0.668701	0  	0.668701	0.668701
113	4     	0.67276 	0  	0.67276 	0.67276 
114	2     	0.67276 	0  	0.67276 	0.67276 
115	2     	0.67276 	0  	0.67276 	0.67276 
116	4     	0.674789	0  	0.674789	0.674789
117	2     	0.674789	0  	0.674789	0.674789
118	2     	0.674789	0  	0.674789	0.674789
119	4     	0.676834	0  	0.676834	0.676834
120	2     	0.676834	0  	0.676834	0.676834
121	2     	0.678864	0  	0.678864	0.678864
122	2     	0.678864	0  	0.678864	0.678864
123	2     	0.678864	0  	0.678864	0.678864
124	4     	0.680893	0  	0.680893	0.680893
125	2     	0.680893	0  	0.680893	0.680893
126	2     	0.680893	0  	0.680893	0.680893
127	4     	0.682922	0  	0.682922	0.682922
128	2     	0.682922	0  	0.682922	0.682922
129	2     	0.682922	0  	0.682922	0.682922
130	4     	0.682922	0  	0.682922	0.682922
131	4     	0.682922	0  	0.682922	0.682922
132	6     	0.684952	0  	0.684952	0.684952
133	2     	0.686996	0  	0.686996	0.686996
134	2     	0.686996	0  	0.686996	0.686996
135	2     	0.686996	0  	0.686996	0.686996
136	4     	0.686996	0  	0.686996	0.686996
137	4     	0.689026	0  	0.689026	0.689026
138	2     	0.689026	0  	0.689026	0.689026
139	2     	0.689026	0  	0.689026	0.689026
140	4     	0.691055	0  	0.691055	0.691055
141	2     	0.691055	0  	0.691055	0.691055
142	2     	0.691055	0  	0.691055	0.691055
143	4     	0.691055	0  	0.691055	0.691055
144	4     	0.691055	0  	0.691055	0.691055
145	6     	0.693085	0  	0.693085	0.693085
146	2     	0.695129	0  	0.695129	0.695129
147	2     	0.695129	0  	0.695129	0.695129
148	2     	0.695129	0  	0.695129	0.695129
149	4     	0.695129	0  	0.695129	0.695129
150	4     	0.695129	0  	0.695129	0.695129
151	6     	0.695129	0  	0.695129	0.695129
152	6     	0.697159	0  	0.697159	0.697159
153	2     	0.697159	0  	0.697159	0.697159
154	4     	0.697159	0  	0.697159	0.697159
155	4     	0.699188	0  	0.699188	0.699188
156	2     	0.699188	0  	0.699188	0.699188
157	2     	0.699188	0  	0.699188	0.699188
158	4     	0.699188	0  	0.699188	0.699188
159	4     	0.699188	0  	0.699188	0.699188
160	6     	0.701218	0  	0.701218	0.701218
161	2     	0.701218	0  	0.701218	0.701218
162	2     	0.701218	0  	0.701218	0.701218
163	4     	0.701218	0  	0.701218	0.701218
164	4     	0.705292	0  	0.705292	0.705292
165	2     	0.705292	0  	0.705292	0.705292
166	2     	0.705292	0  	0.705292	0.705292
167	4     	0.709351	0  	0.709351	0.709351
168	2     	0.709351	0  	0.709351	0.709351
169	2     	0.709351	0  	0.709351	0.709351
170	4     	0.709351	0  	0.709351	0.709351
171	4     	0.71138 	0  	0.71138 	0.71138 
172	2     	0.71138 	0  	0.71138 	0.71138 
173	2     	0.71138 	0  	0.71138 	0.71138 
174	4     	0.71138 	0  	0.71138 	0.71138 
175	4     	0.71138 	0  	0.71138 	0.71138 
176	6     	0.71138 	0  	0.71138 	0.71138 
177	6     	0.71138 	0  	0.71138 	0.71138 
178	8     	0.713409	0  	0.713409	0.713409
179	4     	0.715454	0  	0.715454	0.715454
180	2     	0.715454	0  	0.715454	0.715454
181	2     	0.715454	0  	0.715454	0.715454
182	4     	0.715454	0  	0.715454	0.715454
183	4     	0.715454	0  	0.715454	0.715454
184	6     	0.715454	0  	0.715454	0.715454
185	6     	0.719513	0  	0.719513	0.719513
186	2     	0.723572	0  	0.723572	0.723572
187	2     	0.723572	0  	0.723572	0.723572
188	2     	0.725616	0  	0.725616	0.725616
189	2     	0.725616	0  	0.725616	0.725616
190	2     	0.725616	0  	0.725616	0.725616
191	4     	0.727646	0  	0.727646	0.727646
192	2     	0.727646	0  	0.727646	0.727646
193	2     	0.727646	0  	0.727646	0.727646
194	4     	0.729675	0  	0.729675	0.729675
195	2     	0.729675	0  	0.729675	0.729675
196	2     	0.729675	0  	0.729675	0.729675
197	4     	0.729675	0  	0.729675	0.729675
198	4     	0.729675	0  	0.729675	0.729675
199	6     	0.729675	0  	0.729675	0.729675
200	6     	0.729675	0  	0.729675	0.729675
201	8     	0.729675	0  	0.729675	0.729675
202	10    	0.729675	0  	0.729675	0.729675
203	12    	0.729675	0  	0.729675	0.729675
204	16    	0.731705	0  	0.731705	0.731705
205	6     	0.731705	0  	0.731705	0.731705
206	8     	0.731705	0  	0.731705	0.731705
207	10    	0.733734	0  	0.733734	0.733734
208	4     	0.733734	0  	0.733734	0.733734
209	6     	0.733734	0  	0.733734	0.733734
210	6     	0.737808	0  	0.737808	0.737808
211	2     	0.737808	0  	0.737808	0.737808
212	4     	0.737808	0  	0.737808	0.737808
213	4     	0.737808	0  	0.737808	0.737808
214	6     	0.737808	0  	0.737808	0.737808
215	6     	0.737808	0  	0.737808	0.737808
216	8     	0.739838	0  	0.739838	0.739838
217	4     	0.739838	0  	0.739838	0.739838
218	4     	0.739838	0  	0.739838	0.739838
219	6     	0.739838	0  	0.739838	0.739838
220	6     	0.739838	0  	0.739838	0.739838
221	8     	0.741867	0  	0.741867	0.741867
222	4     	0.743896	0  	0.743896	0.743896
223	2     	0.743896	0  	0.743896	0.743896
224	2     	0.743896	0  	0.743896	0.743896
225	4     	0.743896	0  	0.743896	0.743896
226	4     	0.743896	0  	0.743896	0.743896
227	6     	0.743896	0  	0.743896	0.743896
228	6     	0.743896	0  	0.743896	0.743896
229	8     	0.747971	0  	0.747971	0.747971
230	4     	0.747971	0  	0.747971	0.747971
231	4     	0.747971	0  	0.747971	0.747971
232	6     	0.75    	0  	0.75    	0.75    
233	2     	0.75    	0  	0.75    	0.75    
234	2     	0.75    	0  	0.75    	0.75    
235	4     	0.75    	0  	0.75    	0.75    
236	4     	0.75    	0  	0.75    	0.75    
237	6     	0.75    	0  	0.75    	0.75    
238	6     	0.75    	0  	0.75    	0.75    
239	8     	0.754059	0  	0.754059	0.754059
240	4     	0.754059	0  	0.754059	0.754059
241	4     	0.754059	0  	0.754059	0.754059
242	6     	0.754059	0  	0.754059	0.754059
243	6     	0.754059	0  	0.754059	0.754059
244	8     	0.758133	0  	0.758133	0.758133
245	4     	0.760162	0  	0.760162	0.760162
246	2     	0.760162	0  	0.760162	0.760162
247	2     	0.760162	0  	0.760162	0.760162
248	4     	0.760162	0  	0.760162	0.760162
249	4     	0.760162	0  	0.760162	0.760162
250	6     	0.762192	0  	0.762192	0.762192
251	2     	0.762192	0  	0.762192	0.762192
252	2     	0.762192	0  	0.762192	0.762192
253	4     	0.762192	0  	0.762192	0.762192
254	4     	0.762192	0  	0.762192	0.762192
255	6     	0.766266	0  	0.766266	0.766266
256	2     	0.766266	0  	0.766266	0.766266
257	2     	0.766266	0  	0.766266	0.766266
258	4     	0.766266	0  	0.766266	0.766266
259	4     	0.766266	0  	0.766266	0.766266
260	6     	0.766266	0  	0.766266	0.766266
261	6     	0.766266	0  	0.766266	0.766266
262	8     	0.766266	0  	0.766266	0.766266
263	10    	0.770325	0  	0.770325	0.770325
264	4     	0.770325	0  	0.770325	0.770325
265	6     	0.770325	0  	0.770325	0.770325
266	6     	0.770325	0  	0.770325	0.770325
267	8     	0.772354	0  	0.772354	0.772354
268	4     	0.772354	0  	0.772354	0.772354
269	4     	0.772354	0  	0.772354	0.772354
270	6     	0.772354	0  	0.772354	0.772354
271	6     	0.772354	0  	0.772354	0.772354
272	8     	0.772354	0  	0.772354	0.772354
273	10    	0.772354	0  	0.772354	0.772354
274	12    	0.776428	0  	0.776428	0.776428
275	6     	0.776428	0  	0.776428	0.776428
276	6     	0.776428	0  	0.776428	0.776428
277	8     	0.778458	0  	0.778458	0.778458
278	4     	0.778458	0  	0.778458	0.778458
279	4     	0.778458	0  	0.778458	0.778458
280	6     	0.780487	0  	0.780487	0.780487
281	2     	0.780487	0  	0.780487	0.780487
282	2     	0.780487	0  	0.780487	0.780487
283	4     	0.780487	0  	0.780487	0.780487
284	4     	0.780487	0  	0.780487	0.780487
285	6     	0.780487	0  	0.780487	0.780487
286	6     	0.780487	0  	0.780487	0.780487
287	8     	0.780487	0  	0.780487	0.780487
288	10    	0.780487	0  	0.780487	0.780487
289	12    	0.782516	0  	0.782516	0.782516
290	6     	0.782516	0  	0.782516	0.782516
291	6     	0.784546	0  	0.784546	0.784546
292	2     	0.784546	0  	0.784546	0.784546
293	4     	0.784546	0  	0.784546	0.784546
294	4     	0.784546	0  	0.784546	0.784546
295	6     	0.784546	0  	0.784546	0.784546
296	6     	0.784546	0  	0.784546	0.784546
297	8     	0.784546	0  	0.784546	0.784546
298	10    	0.786591	0  	0.786591	0.786591
299	4     	0.786591	0  	0.786591	0.786591
300	6     	0.786591	0  	0.786591	0.786591
301	6     	0.786591	0  	0.786591	0.786591
302	8     	0.786591	0  	0.786591	0.786591
303	10    	0.786591	0  	0.786591	0.786591
304	12    	0.786591	0  	0.786591	0.786591
305	16    	0.78862 	0  	0.78862 	0.78862 
306	6     	0.78862 	0  	0.78862 	0.78862 
307	8     	0.78862 	0  	0.78862 	0.78862 
308	10    	0.790649	0  	0.790649	0.790649
309	4     	0.790649	0  	0.790649	0.790649
310	6     	0.790649	0  	0.790649	0.790649
311	6     	0.790649	0  	0.790649	0.790649
312	8     	0.790649	0  	0.790649	0.790649
313	10    	0.790649	0  	0.790649	0.790649
314	12    	0.790649	0  	0.790649	0.790649
315	16    	0.792679	0  	0.792679	0.792679
316	6     	0.792679	0  	0.792679	0.792679
317	8     	0.794708	0  	0.794708	0.794708
318	4     	0.794708	0  	0.794708	0.794708
319	4     	0.794708	0  	0.794708	0.794708
320	6     	0.794708	0  	0.794708	0.794708
321	6     	0.794708	0  	0.794708	0.794708
322	8     	0.794708	0  	0.794708	0.794708
323	10    	0.794708	0  	0.794708	0.794708
324	12    	0.794708	0  	0.794708	0.794708
325	16    	0.794708	0  	0.794708	0.794708
326	20    	0.796753	0  	0.796753	0.796753
327	8     	0.796753	0  	0.796753	0.796753
328	10    	0.800812	0  	0.800812	0.800812
329	4     	0.800812	0  	0.800812	0.800812
330	6     	0.800812	0  	0.800812	0.800812
331	6     	0.800812	0  	0.800812	0.800812
332	8     	0.800812	0  	0.800812	0.800812
333	10    	0.802841	0  	0.802841	0.802841
334	4     	0.802841	0  	0.802841	0.802841
335	6     	0.802841	0  	0.802841	0.802841
336	6     	0.806915	0  	0.806915	0.806915
337	2     	0.806915	0  	0.806915	0.806915
338	4     	0.806915	0  	0.806915	0.806915
339	4     	0.806915	0  	0.806915	0.806915
340	6     	0.806915	0  	0.806915	0.806915
341	6     	0.808945	0  	0.808945	0.808945
342	2     	0.808945	0  	0.808945	0.808945
343	4     	0.808945	0  	0.808945	0.808945
344	4     	0.808945	0  	0.808945	0.808945
345	6     	0.808945	0  	0.808945	0.808945
346	6     	0.808945	0  	0.808945	0.808945
347	8     	0.810974	0  	0.810974	0.810974
348	4     	0.810974	0  	0.810974	0.810974
349	4     	0.810974	0  	0.810974	0.810974
350	6     	0.810974	0  	0.810974	0.810974
351	6     	0.810974	0  	0.810974	0.810974
352	8     	0.810974	0  	0.810974	0.810974
353	10    	0.810974	0  	0.810974	0.810974
354	12    	0.810974	0  	0.810974	0.810974
355	16    	0.810974	0  	0.810974	0.810974
356	20    	0.813004	0  	0.813004	0.813004
357	8     	0.813004	0  	0.813004	0.813004
358	10    	0.813004	0  	0.813004	0.813004
359	12    	0.815048	0  	0.815048	0.815048
360	6     	0.817078	0  	0.817078	0.817078
361	2     	0.817078	0  	0.817078	0.817078
362	2     	0.817078	0  	0.817078	0.817078
363	4     	0.817078	0  	0.817078	0.817078
364	4     	0.817078	0  	0.817078	0.817078
365	6     	0.817078	0  	0.817078	0.817078
366	6     	0.817078	0  	0.817078	0.817078
367	8     	0.817078	0  	0.817078	0.817078
368	10    	0.817078	0  	0.817078	0.817078
369	12    	0.817078	0  	0.817078	0.817078
370	16    	0.817078	0  	0.817078	0.817078
371	20    	0.819107	0  	0.819107	0.819107
372	8     	0.819107	0  	0.819107	0.819107
373	10    	0.819107	0  	0.819107	0.819107
374	12    	0.819107	0  	0.819107	0.819107
375	16    	0.823166	0  	0.823166	0.823166
376	6     	0.825211	0  	0.825211	0.825211
377	2     	0.825211	0  	0.825211	0.825211
378	4     	0.825211	0  	0.825211	0.825211
379	4     	0.825211	0  	0.825211	0.825211
380	6     	0.825211	0  	0.825211	0.825211
381	6     	0.825211	0  	0.825211	0.825211
382	8     	0.825211	0  	0.825211	0.825211
383	10    	0.82724 	0  	0.82724 	0.82724 
384	4     	0.82724 	0  	0.82724 	0.82724 
385	6     	0.82724 	0  	0.82724 	0.82724 
386	6     	0.82724 	0  	0.82724 	0.82724 
387	8     	0.82724 	0  	0.82724 	0.82724 
388	10    	0.82724 	0  	0.82724 	0.82724 
389	12    	0.82724 	0  	0.82724 	0.82724 
390	16    	0.831299	0  	0.831299	0.831299
391	6     	0.831299	0  	0.831299	0.831299
392	8     	0.831299	0  	0.831299	0.831299
393	10    	0.833328	0  	0.833328	0.833328
394	4     	0.833328	0  	0.833328	0.833328
395	6     	0.833328	0  	0.833328	0.833328
396	6     	0.833328	0  	0.833328	0.833328
397	8     	0.835373	0  	0.835373	0.835373
398	4     	0.835373	0  	0.835373	0.835373
399	4     	0.835373	0  	0.835373	0.835373
400	6     	0.835373	0  	0.835373	0.835373
401	6     	0.835373	0  	0.835373	0.835373
402	8     	0.835373	0  	0.835373	0.835373
403	10    	0.835373	0  	0.835373	0.835373
404	12    	0.835373	0  	0.835373	0.835373
405	16    	0.835373	0  	0.835373	0.835373
406	20    	0.837402	0  	0.837402	0.837402
407	8     	0.837402	0  	0.837402	0.837402
408	10    	0.841461	0  	0.841461	0.841461
409	4     	0.841461	0  	0.841461	0.841461
410	6     	0.841461	0  	0.841461	0.841461
411	6     	0.841461	0  	0.841461	0.841461
412	8     	0.841461	0  	0.841461	0.841461
413	10    	0.841461	0  	0.841461	0.841461
414	12    	0.841461	0  	0.841461	0.841461
415	16    	0.841461	0  	0.841461	0.841461
416	20    	0.845535	0  	0.845535	0.845535
417	8     	0.845535	0  	0.845535	0.845535
418	10    	0.845535	0  	0.845535	0.845535
419	12    	0.845535	0  	0.845535	0.845535
420	16    	0.845535	0  	0.845535	0.845535
421	20    	0.847565	0  	0.847565	0.847565
422	8     	0.849594	0  	0.849594	0.849594
423	4     	0.849594	0  	0.849594	0.849594
424	4     	0.849594	0  	0.849594	0.849594
425	6     	0.849594	0  	0.849594	0.849594
426	6     	0.849594	0  	0.849594	0.849594
427	8     	0.849594	0  	0.849594	0.849594
428	10    	0.851624	0  	0.851624	0.851624
429	4     	0.851624	0  	0.851624	0.851624
430	6     	0.851624	0  	0.851624	0.851624
431	6     	0.851624	0  	0.851624	0.851624
432	8     	0.851624	0  	0.851624	0.851624
433	10    	0.851624	0  	0.851624	0.851624
434	12    	0.851624	0  	0.851624	0.851624
435	16    	0.851624	0  	0.851624	0.851624
436	20    	0.851624	0  	0.851624	0.851624
437	24    	0.853653	0  	0.853653	0.853653
438	10    	0.855698	0  	0.855698	0.855698
439	4     	0.855698	0  	0.855698	0.855698
440	6     	0.855698	0  	0.855698	0.855698
441	6     	0.855698	0  	0.855698	0.855698
442	8     	0.855698	0  	0.855698	0.855698
443	10    	0.855698	0  	0.855698	0.855698
444	12    	0.855698	0  	0.855698	0.855698
445	16    	0.855698	0  	0.855698	0.855698
446	20    	0.855698	0  	0.855698	0.855698
447	24    	0.857727	0  	0.857727	0.857727
448	10    	0.857727	0  	0.857727	0.857727
449	12    	0.859756	0  	0.859756	0.859756
450	6     	0.859756	0  	0.859756	0.859756
451	6     	0.859756	0  	0.859756	0.859756
452	8     	0.859756	0  	0.859756	0.859756
453	10    	0.859756	0  	0.859756	0.859756
454	12    	0.859756	0  	0.859756	0.859756
455	16    	0.859756	0  	0.859756	0.859756
456	20    	0.859756	0  	0.859756	0.859756
457	24    	0.859756	0  	0.859756	0.859756
458	32    	0.859756	0  	0.859756	0.859756
459	40    	0.859756	0  	0.859756	0.859756
460	50    	0.859756	0  	0.859756	0.859756
461	62    	0.859756	0  	0.859756	0.859756
462	78    	0.861786	0  	0.861786	0.861786
463	32    	0.861786	0  	0.861786	0.861786
464	40    	0.861786	0  	0.861786	0.861786
465	50    	0.861786	0  	0.861786	0.861786
466	62    	0.863815	0  	0.863815	0.863815
467	24    	0.863815	0  	0.863815	0.863815
468	32    	0.863815	0  	0.863815	0.863815
469	40    	0.863815	0  	0.863815	0.863815
470	50    	0.863815	0  	0.863815	0.863815
471	62    	0.86586 	0  	0.86586 	0.86586 
472	24    	0.86586 	0  	0.86586 	0.86586 
473	32    	0.867889	0  	0.867889	0.867889
474	12    	0.867889	0  	0.867889	0.867889
475	16    	0.867889	0  	0.867889	0.867889
476	20    	0.869919	0  	0.869919	0.869919
477	8     	0.869919	0  	0.869919	0.869919
478	10    	0.869919	0  	0.869919	0.869919
479	12    	0.869919	0  	0.869919	0.869919
480	16    	0.871948	0  	0.871948	0.871948
481	6     	0.871948	0  	0.871948	0.871948
482	8     	0.871948	0  	0.871948	0.871948
483	10    	0.871948	0  	0.871948	0.871948
484	12    	0.871948	0  	0.871948	0.871948
485	16    	0.871948	0  	0.871948	0.871948
486	20    	0.871948	0  	0.871948	0.871948
487	24    	0.871948	0  	0.871948	0.871948
488	32    	0.871948	0  	0.871948	0.871948
489	40    	0.871948	0  	0.871948	0.871948
490	50    	0.871948	0  	0.871948	0.871948
491	62    	0.873978	0  	0.873978	0.873978
492	24    	0.873978	0  	0.873978	0.873978
493	32    	0.876022	0  	0.876022	0.876022
494	12    	0.876022	0  	0.876022	0.876022
495	16    	0.876022	0  	0.876022	0.876022
496	20    	0.878052	0  	0.878052	0.878052
497	8     	0.878052	0  	0.878052	0.878052
498	10    	0.878052	0  	0.878052	0.878052
499	12    	0.878052	0  	0.878052	0.878052
500	16    	0.878052	0  	0.878052	0.878052
501	20    	0.878052	0  	0.878052	0.878052
502	24    	0.878052	0  	0.878052	0.878052
503	32    	0.878052	0  	0.878052	0.878052
504	40    	0.878052	0  	0.878052	0.878052
505	50    	0.878052	0  	0.878052	0.878052
506	62    	0.880081	0  	0.880081	0.880081
507	24    	0.880081	0  	0.880081	0.880081
508	32    	0.880081	0  	0.880081	0.880081
509	40    	0.880081	0  	0.880081	0.880081
510	50    	0.880081	0  	0.880081	0.880081
511	62    	0.880081	0  	0.880081	0.880081
512	78    	0.880081	0  	0.880081	0.880081
513	98    	0.880081	0  	0.880081	0.880081
514	124   	0.880081	0  	0.880081	0.880081
515	156   	0.880081	0  	0.880081	0.880081
516	196   	0.882111	0  	0.882111	0.882111
517	78    	0.882111	0  	0.882111	0.882111
518	98    	0.882111	0  	0.882111	0.882111
519	124   	0.882111	0  	0.882111	0.882111
520	156   	0.882111	0  	0.882111	0.882111
521	196   	0.882111	0  	0.882111	0.882111
522	246   	0.882111	0  	0.882111	0.882111
523	308   	0.882111	0  	0.882111	0.882111
524	388   	0.882111	0  	0.882111	0.882111
525	488   	0.882111	0  	0.882111	0.882111
526	614   	0.882111	0  	0.882111	0.882111
527	772   	0.882111	0  	0.882111	0.882111
528	970   	0.882111	0  	0.882111	0.882111
529	1152  	0.882111	0  	0.882111	0.882111
