gen	nevals	avg     	std	min     	max     
0  	1     	0.63855 	0  	0.63855 	0.63855 
1  	2     	0.63855 	0  	0.63855 	0.63855 
2  	2     	0.650604	0  	0.650604	0.650604
3  	2     	0.650604	0  	0.650604	0.650604
4  	2     	0.650604	0  	0.650604	0.650604
5  	4     	0.662643	0  	0.662643	0.662643
6  	2     	0.662643	0  	0.662643	0.662643
7  	2     	0.662643	0  	0.662643	0.662643
8  	4     	0.674698	0  	0.674698	0.674698
9  	2     	0.674698	0  	0.674698	0.674698
10 	2     	0.674698	0  	0.674698	0.674698
11 	4     	0.674698	0  	0.674698	0.674698
12 	4     	0.674698	0  	0.674698	0.674698
13 	6     	0.674698	0  	0.674698	0.674698
14 	6     	0.674698	0  	0.674698	0.674698
15 	8     	0.674698	0  	0.674698	0.674698
16 	10    	0.710846	0  	0.710846	0.710846
17 	4     	0.710846	0  	0.710846	0.710846
18 	6     	0.722885	0  	0.722885	0.722885
19 	2     	0.722885	0  	0.722885	0.722885
20 	2     	0.73494 	0  	0.73494 	0.73494 
21 	2     	0.73494 	0  	0.73494 	0.73494 
22 	2     	0.759033	0  	0.759033	0.759033
23 	2     	0.759033	0  	0.759033	0.759033
24 	2     	0.759033	0  	0.759033	0.759033
25 	4     	0.759033	0  	0.759033	0.759033
26 	4     	0.759033	0  	0.759033	0.759033
27 	6     	0.759033	0  	0.759033	0.759033
28 	6     	0.759033	0  	0.759033	0.759033
29 	8     	0.759033	0  	0.759033	0.759033
30 	10    	0.771088	0  	0.771088	0.771088
31 	4     	0.771088	0  	0.771088	0.771088
32 	6     	0.771088	0  	0.771088	0.771088
33 	6     	0.771088	0  	0.771088	0.771088
34 	8     	0.783127	0  	0.783127	0.783127
35 	4     	0.795181	0  	0.795181	0.795181
36 	2     	0.795181	0  	0.795181	0.795181
37 	2     	0.807236	0  	0.807236	0.807236
38 	2     	0.807236	0  	0.807236	0.807236
39 	2     	0.807236	0  	0.807236	0.807236
40 	4     	0.807236	0  	0.807236	0.807236
41 	4     	0.807236	0  	0.807236	0.807236
42 	6     	0.819275	0  	0.819275	0.819275
43 	2     	0.819275	0  	0.819275	0.819275
44 	2     	0.819275	0  	0.819275	0.819275
45 	4     	0.819275	0  	0.819275	0.819275
46 	4     	0.819275	0  	0.819275	0.819275
47 	6     	0.819275	0  	0.819275	0.819275
48 	6     	0.819275	0  	0.819275	0.819275
49 	8     	0.819275	0  	0.819275	0.819275
50 	10    	0.831329	0  	0.831329	0.831329
51 	4     	0.831329	0  	0.831329	0.831329
52 	6     	0.831329	0  	0.831329	0.831329
53 	6     	0.831329	0  	0.831329	0.831329
54 	8     	0.831329	0  	0.831329	0.831329
55 	10    	0.843369	0  	0.843369	0.843369
56 	4     	0.843369	0  	0.843369	0.843369
57 	6     	0.843369	0  	0.843369	0.843369
58 	6     	0.843369	0  	0.843369	0.843369
59 	8     	0.843369	0  	0.843369	0.843369
60 	10    	0.855423	0  	0.855423	0.855423
61 	4     	0.855423	0  	0.855423	0.855423
62 	6     	0.867477	0  	0.867477	0.867477
63 	2     	0.867477	0  	0.867477	0.867477
64 	2     	0.867477	0  	0.867477	0.867477
65 	4     	0.867477	0  	0.867477	0.867477
66 	4     	0.879517	0  	0.879517	0.879517
67 	2     	0.879517	0  	0.879517	0.879517
68 	2     	0.879517	0  	0.879517	0.879517
69 	4     	0.879517	0  	0.879517	0.879517
70 	4     	0.879517	0  	0.879517	0.879517
71 	6     	0.879517	0  	0.879517	0.879517
72 	6     	0.879517	0  	0.879517	0.879517
73 	8     	0.879517	0  	0.879517	0.879517
74 	10    	0.879517	0  	0.879517	0.879517
75 	12    	0.879517	0  	0.879517	0.879517
76 	16    	0.879517	0  	0.879517	0.879517
77 	20    	0.879517	0  	0.879517	0.879517
78 	24    	0.879517	0  	0.879517	0.879517
79 	32    	0.879517	0  	0.879517	0.879517
80 	40    	0.879517	0  	0.879517	0.879517
81 	50    	0.879517	0  	0.879517	0.879517
82 	62    	0.879517	0  	0.879517	0.879517
83 	78    	0.891571	0  	0.891571	0.891571
84 	32    	0.891571	0  	0.891571	0.891571
85 	40    	0.891571	0  	0.891571	0.891571
86 	50    	0.891571	0  	0.891571	0.891571
87 	62    	0.90361 	0  	0.90361 	0.90361 
88 	24    	0.90361 	0  	0.90361 	0.90361 
89 	32    	0.90361 	0  	0.90361 	0.90361 
90 	40    	0.90361 	0  	0.90361 	0.90361 
91 	50    	0.90361 	0  	0.90361 	0.90361 
92 	62    	0.90361 	0  	0.90361 	0.90361 
93 	78    	0.90361 	0  	0.90361 	0.90361 
94 	98    	0.90361 	0  	0.90361 	0.90361 
95 	124   	0.90361 	0  	0.90361 	0.90361 
96 	156   	0.90361 	0  	0.90361 	0.90361 
97 	196   	0.90361 	0  	0.90361 	0.90361 
98 	200   	0.90361 	0  	0.90361 	0.90361 
99 	200   	0.90361 	0  	0.90361 	0.90361 
100	200   	0.90361 	0  	0.90361 	0.90361 
101	200   	0.90361 	0  	0.90361 	0.90361 
102	200   	0.90361 	0  	0.90361 	0.90361 
103	200   	0.90361 	0  	0.90361 	0.90361 
104	200   	0.90361 	0  	0.90361 	0.90361 
105	200   	0.90361 	0  	0.90361 	0.90361 
106	200   	0.90361 	0  	0.90361 	0.90361 
107	200   	0.90361 	0  	0.90361 	0.90361 
108	200   	0.90361 	0  	0.90361 	0.90361 
109	200   	0.90361 	0  	0.90361 	0.90361 
110	200   	0.90361 	0  	0.90361 	0.90361 
111	200   	0.90361 	0  	0.90361 	0.90361 
112	200   	0.90361 	0  	0.90361 	0.90361 
113	200   	0.90361 	0  	0.90361 	0.90361 
114	200   	0.90361 	0  	0.90361 	0.90361 
115	200   	0.90361 	0  	0.90361 	0.90361 
116	200   	0.90361 	0  	0.90361 	0.90361 
117	200   	0.90361 	0  	0.90361 	0.90361 
118	200   	0.90361 	0  	0.90361 	0.90361 
119	200   	0.90361 	0  	0.90361 	0.90361 
120	200   	0.90361 	0  	0.90361 	0.90361 
121	200   	0.90361 	0  	0.90361 	0.90361 
122	200   	0.90361 	0  	0.90361 	0.90361 
123	200   	0.90361 	0  	0.90361 	0.90361 
124	200   	0.90361 	0  	0.90361 	0.90361 
125	200   	0.90361 	0  	0.90361 	0.90361 
126	200   	0.90361 	0  	0.90361 	0.90361 
127	200   	0.90361 	0  	0.90361 	0.90361 
128	200   	0.90361 	0  	0.90361 	0.90361 
129	200   	0.90361 	0  	0.90361 	0.90361 
130	200   	0.90361 	0  	0.90361 	0.90361 
131	200   	0.90361 	0  	0.90361 	0.90361 
132	200   	0.90361 	0  	0.90361 	0.90361 
133	200   	0.90361 	0  	0.90361 	0.90361 
134	200   	0.90361 	0  	0.90361 	0.90361 
135	200   	0.90361 	0  	0.90361 	0.90361 
136	200   	0.90361 	0  	0.90361 	0.90361 
137	200   	0.90361 	0  	0.90361 	0.90361 
138	200   	0.90361 	0  	0.90361 	0.90361 
139	200   	0.90361 	0  	0.90361 	0.90361 
