gen	nevals	avg     	std	min     	max     
0  	1     	0.707321	0  	0.707321	0.707321
1  	2     	0.707321	0  	0.707321	0.707321
2  	2     	0.707321	0  	0.707321	0.707321
3  	4     	0.707321	0  	0.707321	0.707321
4  	4     	0.756104	0  	0.756104	0.756104
5  	2     	0.756104	0  	0.756104	0.756104
6  	2     	0.756104	0  	0.756104	0.756104
7  	4     	0.756104	0  	0.756104	0.756104
8  	4     	0.756104	0  	0.756104	0.756104
9  	6     	0.756104	0  	0.756104	0.756104
10 	6     	0.804871	0  	0.804871	0.804871
11 	2     	0.804871	0  	0.804871	0.804871
12 	4     	0.804871	0  	0.804871	0.804871
13 	4     	0.804871	0  	0.804871	0.804871
14 	6     	0.804871	0  	0.804871	0.804871
15 	6     	0.804871	0  	0.804871	0.804871
16 	8     	0.804871	0  	0.804871	0.804871
17 	10    	0.804871	0  	0.804871	0.804871
18 	12    	0.804871	0  	0.804871	0.804871
19 	16    	0.853653	0  	0.853653	0.853653
20 	6     	0.853653	0  	0.853653	0.853653
21 	8     	0.853653	0  	0.853653	0.853653
22 	10    	0.853653	0  	0.853653	0.853653
23 	12    	0.853653	0  	0.853653	0.853653
24 	16    	0.853653	0  	0.853653	0.853653
25 	20    	0.853653	0  	0.853653	0.853653
26 	24    	0.853653	0  	0.853653	0.853653
27 	32    	0.853653	0  	0.853653	0.853653
28 	40    	0.853653	0  	0.853653	0.853653
29 	50    	0.853653	0  	0.853653	0.853653
30 	50    	0.853653	0  	0.853653	0.853653
31 	50    	0.853653	0  	0.853653	0.853653
32 	50    	0.853653	0  	0.853653	0.853653
33 	50    	0.853653	0  	0.853653	0.853653
34 	50    	0.853653	0  	0.853653	0.853653
35 	50    	0.853653	0  	0.853653	0.853653
36 	50    	0.853653	0  	0.853653	0.853653
37 	50    	0.853653	0  	0.853653	0.853653
38 	50    	0.853653	0  	0.853653	0.853653
39 	50    	0.853653	0  	0.853653	0.853653
40 	50    	0.853653	0  	0.853653	0.853653
41 	50    	0.853653	0  	0.853653	0.853653
42 	50    	0.853653	0  	0.853653	0.853653
43 	50    	0.853653	0  	0.853653	0.853653
44 	50    	0.853653	0  	0.853653	0.853653
45 	50    	0.853653	0  	0.853653	0.853653
46 	50    	0.853653	0  	0.853653	0.853653
47 	50    	0.853653	0  	0.853653	0.853653
48 	50    	0.853653	0  	0.853653	0.853653
49 	50    	0.853653	0  	0.853653	0.853653
50 	50    	0.853653	0  	0.853653	0.853653
51 	50    	0.853653	0  	0.853653	0.853653
52 	50    	0.853653	0  	0.853653	0.853653
53 	50    	0.853653	0  	0.853653	0.853653
54 	50    	0.853653	0  	0.853653	0.853653
55 	50    	0.853653	0  	0.853653	0.853653
56 	50    	0.853653	0  	0.853653	0.853653
57 	50    	0.853653	0  	0.853653	0.853653
58 	50    	0.853653	0  	0.853653	0.853653
59 	50    	0.853653	0  	0.853653	0.853653
60 	50    	0.853653	0  	0.853653	0.853653
61 	50    	0.853653	0  	0.853653	0.853653
62 	50    	0.853653	0  	0.853653	0.853653
63 	50    	0.853653	0  	0.853653	0.853653
64 	50    	0.853653	0  	0.853653	0.853653
65 	50    	0.853653	0  	0.853653	0.853653
66 	50    	0.853653	0  	0.853653	0.853653
67 	50    	0.853653	0  	0.853653	0.853653
68 	50    	0.853653	0  	0.853653	0.853653
69 	50    	0.853653	0  	0.853653	0.853653
70 	50    	0.853653	0  	0.853653	0.853653
71 	50    	0.853653	0  	0.853653	0.853653
72 	50    	0.853653	0  	0.853653	0.853653
73 	50    	0.853653	0  	0.853653	0.853653
74 	50    	0.853653	0  	0.853653	0.853653
75 	50    	0.853653	0  	0.853653	0.853653
76 	50    	0.902435	0  	0.902435	0.902435
77 	20    	0.902435	0  	0.902435	0.902435
78 	26    	0.902435	0  	0.902435	0.902435
79 	32    	0.902435	0  	0.902435	0.902435
80 	40    	0.951218	0  	0.951218	0.951218
81 	16    	0.951218	0  	0.951218	0.951218
82 	20    	0.951218	0  	0.951218	0.951218
83 	26    	0.951218	0  	0.951218	0.951218
84 	32    	0.951218	0  	0.951218	0.951218
85 	40    	0.951218	0  	0.951218	0.951218
86 	50    	0.951218	0  	0.951218	0.951218
87 	50    	0.951218	0  	0.951218	0.951218
88 	50    	0.951218	0  	0.951218	0.951218
89 	50    	0.951218	0  	0.951218	0.951218
90 	50    	0.951218	0  	0.951218	0.951218
91 	50    	0.951218	0  	0.951218	0.951218
92 	50    	0.951218	0  	0.951218	0.951218
93 	50    	0.951218	0  	0.951218	0.951218
94 	50    	0.951218	0  	0.951218	0.951218
95 	50    	0.951218	0  	0.951218	0.951218
96 	50    	0.951218	0  	0.951218	0.951218
97 	50    	0.951218	0  	0.951218	0.951218
98 	50    	0.951218	0  	0.951218	0.951218
99 	50    	0.951218	0  	0.951218	0.951218
100	50    	0.951218	0  	0.951218	0.951218
101	50    	0.951218	0  	0.951218	0.951218
102	50    	0.951218	0  	0.951218	0.951218
103	50    	0.951218	0  	0.951218	0.951218
104	50    	0.951218	0  	0.951218	0.951218
105	50    	0.951218	0  	0.951218	0.951218
106	50    	0.951218	0  	0.951218	0.951218
107	50    	0.951218	0  	0.951218	0.951218
108	50    	0.951218	0  	0.951218	0.951218
109	50    	0.951218	0  	0.951218	0.951218
110	50    	0.951218	0  	0.951218	0.951218
111	50    	0.951218	0  	0.951218	0.951218
112	50    	0.951218	0  	0.951218	0.951218
113	50    	0.951218	0  	0.951218	0.951218
114	50    	0.951218	0  	0.951218	0.951218
115	50    	0.951218	0  	0.951218	0.951218
116	50    	0.951218	0  	0.951218	0.951218
117	50    	0.951218	0  	0.951218	0.951218
118	50    	0.951218	0  	0.951218	0.951218
119	50    	0.951218	0  	0.951218	0.951218
120	50    	0.951218	0  	0.951218	0.951218
121	50    	0.951218	0  	0.951218	0.951218
122	50    	0.951218	0  	0.951218	0.951218
123	50    	0.951218	0  	0.951218	0.951218
124	50    	0.951218	0  	0.951218	0.951218
125	50    	0.951218	0  	0.951218	0.951218
126	50    	0.951218	0  	0.951218	0.951218
127	50    	0.951218	0  	0.951218	0.951218
128	50    	0.951218	0  	0.951218	0.951218
129	50    	0.951218	0  	0.951218	0.951218
130	50    	0.951218	0  	0.951218	0.951218
131	50    	0.951218	0  	0.951218	0.951218
132	50    	0.951218	0  	0.951218	0.951218
133	50    	0.951218	0  	0.951218	0.951218
134	50    	0.951218	0  	0.951218	0.951218
135	50    	0.951218	0  	0.951218	0.951218
136	50    	0.951218	0  	0.951218	0.951218
137	50    	0.951218	0  	0.951218	0.951218
138	50    	0.951218	0  	0.951218	0.951218
139	50    	0.951218	0  	0.951218	0.951218
140	50    	0.951218	0  	0.951218	0.951218
141	50    	0.951218	0  	0.951218	0.951218
142	50    	0.951218	0  	0.951218	0.951218
143	50    	0.951218	0  	0.951218	0.951218
144	50    	0.951218	0  	0.951218	0.951218
145	50    	0.951218	0  	0.951218	0.951218
146	50    	0.951218	0  	0.951218	0.951218
147	50    	0.951218	0  	0.951218	0.951218
148	50    	0.951218	0  	0.951218	0.951218
149	50    	0.951218	0  	0.951218	0.951218
150	50    	0.951218	0  	0.951218	0.951218
151	50    	0.951218	0  	0.951218	0.951218
152	50    	0.951218	0  	0.951218	0.951218
153	50    	0.951218	0  	0.951218	0.951218
154	50    	0.951218	0  	0.951218	0.951218
155	50    	0.951218	0  	0.951218	0.951218
156	50    	0.951218	0  	0.951218	0.951218
157	50    	0.951218	0  	0.951218	0.951218
158	50    	0.951218	0  	0.951218	0.951218
159	50    	0.951218	0  	0.951218	0.951218
160	50    	0.951218	0  	0.951218	0.951218
161	50    	0.951218	0  	0.951218	0.951218
162	50    	0.951218	0  	0.951218	0.951218
163	50    	0.951218	0  	0.951218	0.951218
164	50    	0.951218	0  	0.951218	0.951218
165	50    	0.951218	0  	0.951218	0.951218
166	50    	0.951218	0  	0.951218	0.951218
167	50    	0.951218	0  	0.951218	0.951218
168	50    	0.951218	0  	0.951218	0.951218
169	50    	0.951218	0  	0.951218	0.951218
170	50    	0.951218	0  	0.951218	0.951218
171	50    	0.951218	0  	0.951218	0.951218
172	50    	0.951218	0  	0.951218	0.951218
173	50    	0.951218	0  	0.951218	0.951218
174	50    	0.951218	0  	0.951218	0.951218
175	50    	0.951218	0  	0.951218	0.951218
176	50    	0.951218	0  	0.951218	0.951218
177	50    	0.951218	0  	0.951218	0.951218
178	50    	0.951218	0  	0.951218	0.951218
179	50    	0.951218	0  	0.951218	0.951218
180	50    	0.951218	0  	0.951218	0.951218
181	50    	0.951218	0  	0.951218	0.951218
182	50    	0.951218	0  	0.951218	0.951218
183	50    	0.951218	0  	0.951218	0.951218
184	50    	0.951218	0  	0.951218	0.951218
185	50    	0.951218	0  	0.951218	0.951218
186	50    	0.951218	0  	0.951218	0.951218
187	50    	0.951218	0  	0.951218	0.951218
188	50    	0.951218	0  	0.951218	0.951218
189	50    	0.951218	0  	0.951218	0.951218
190	50    	0.951218	0  	0.951218	0.951218
191	50    	0.951218	0  	0.951218	0.951218
192	50    	0.951218	0  	0.951218	0.951218
193	50    	0.951218	0  	0.951218	0.951218
194	50    	0.951218	0  	0.951218	0.951218
195	50    	0.951218	0  	0.951218	0.951218
196	50    	0.951218	0  	0.951218	0.951218
197	50    	0.951218	0  	0.951218	0.951218
198	50    	0.951218	0  	0.951218	0.951218
199	50    	0.951218	0  	0.951218	0.951218
200	50    	0.951218	0  	0.951218	0.951218
201	50    	0.951218	0  	0.951218	0.951218
202	50    	0.951218	0  	0.951218	0.951218
203	50    	0.951218	0  	0.951218	0.951218
204	50    	0.951218	0  	0.951218	0.951218
205	50    	0.951218	0  	0.951218	0.951218
206	50    	0.951218	0  	0.951218	0.951218
207	50    	0.951218	0  	0.951218	0.951218
208	50    	0.951218	0  	0.951218	0.951218
209	50    	0.951218	0  	0.951218	0.951218
210	50    	0.951218	0  	0.951218	0.951218
211	50    	0.951218	0  	0.951218	0.951218
212	50    	0.951218	0  	0.951218	0.951218
213	50    	0.951218	0  	0.951218	0.951218
214	50    	0.951218	0  	0.951218	0.951218
215	50    	0.951218	0  	0.951218	0.951218
216	50    	0.951218	0  	0.951218	0.951218
217	50    	0.951218	0  	0.951218	0.951218
218	50    	0.951218	0  	0.951218	0.951218
219	50    	0.951218	0  	0.951218	0.951218
220	50    	0.951218	0  	0.951218	0.951218
221	50    	0.951218	0  	0.951218	0.951218
222	50    	0.951218	0  	0.951218	0.951218
223	50    	1       	0  	1       	1       
224	20    	1       	0  	1       	1       
225	26    	1       	0  	1       	1       
226	32    	1       	0  	1       	1       
227	40    	1       	0  	1       	1       
228	50    	1       	0  	1       	1       
229	50    	1       	0  	1       	1       
