gen	nevals	avg     	std	min     	max     
0  	1     	0.590836	0  	0.590836	0.590836
1  	2     	0.590836	0  	0.590836	0.590836
2  	2     	0.594101	0  	0.594101	0.594101
3  	2     	0.600662	0  	0.600662	0.600662
4  	2     	0.600662	0  	0.600662	0.600662
5  	2     	0.603928	0  	0.603928	0.603928
6  	2     	0.603928	0  	0.603928	0.603928
7  	2     	0.603928	0  	0.603928	0.603928
8  	4     	0.603928	0  	0.603928	0.603928
9  	4     	0.603928	0  	0.603928	0.603928
10 	6     	0.607208	0  	0.607208	0.607208
11 	2     	0.607208	0  	0.607208	0.607208
12 	2     	0.607208	0  	0.607208	0.607208
13 	4     	0.610474	0  	0.610474	0.610474
14 	2     	0.610474	0  	0.610474	0.610474
15 	2     	0.61702 	0  	0.61702 	0.61702 
16 	2     	0.61702 	0  	0.61702 	0.61702 
17 	2     	0.61702 	0  	0.61702 	0.61702 
18 	4     	0.61702 	0  	0.61702 	0.61702 
19 	4     	0.61702 	0  	0.61702 	0.61702 
20 	6     	0.6203  	0  	0.6203  	0.6203  
21 	2     	0.6203  	0  	0.6203  	0.6203  
22 	2     	0.623566	0  	0.623566	0.623566
23 	2     	0.623566	0  	0.623566	0.623566
24 	2     	0.623566	0  	0.623566	0.623566
25 	4     	0.626846	0  	0.626846	0.626846
26 	2     	0.626846	0  	0.626846	0.626846
27 	2     	0.626846	0  	0.626846	0.626846
28 	4     	0.626846	0  	0.626846	0.626846
29 	4     	0.626846	0  	0.626846	0.626846
30 	6     	0.630112	0  	0.630112	0.630112
31 	2     	0.633392	0  	0.633392	0.633392
32 	2     	0.633392	0  	0.633392	0.633392
33 	2     	0.633392	0  	0.633392	0.633392
34 	4     	0.636658	0  	0.636658	0.636658
35 	2     	0.636658	0  	0.636658	0.636658
36 	2     	0.636658	0  	0.636658	0.636658
37 	4     	0.636658	0  	0.636658	0.636658
38 	4     	0.636658	0  	0.636658	0.636658
39 	6     	0.646484	0  	0.646484	0.646484
40 	2     	0.64975 	0  	0.64975 	0.64975 
41 	2     	0.656296	0  	0.656296	0.656296
42 	2     	0.656296	0  	0.656296	0.656296
43 	2     	0.656296	0  	0.656296	0.656296
44 	4     	0.656296	0  	0.656296	0.656296
45 	4     	0.656296	0  	0.656296	0.656296
46 	6     	0.659576	0  	0.659576	0.659576
47 	2     	0.659576	0  	0.659576	0.659576
48 	2     	0.662842	0  	0.662842	0.662842
49 	2     	0.666122	0  	0.666122	0.666122
50 	2     	0.666122	0  	0.666122	0.666122
51 	2     	0.666122	0  	0.666122	0.666122
52 	4     	0.666122	0  	0.666122	0.666122
53 	4     	0.669388	0  	0.669388	0.669388
54 	2     	0.669388	0  	0.669388	0.669388
55 	2     	0.669388	0  	0.669388	0.669388
56 	4     	0.669388	0  	0.669388	0.669388
57 	4     	0.672668	0  	0.672668	0.672668
58 	2     	0.672668	0  	0.672668	0.672668
59 	2     	0.672668	0  	0.672668	0.672668
60 	4     	0.675934	0  	0.675934	0.675934
61 	2     	0.675934	0  	0.675934	0.675934
62 	2     	0.675934	0  	0.675934	0.675934
63 	4     	0.679214	0  	0.679214	0.679214
64 	2     	0.679214	0  	0.679214	0.679214
65 	2     	0.679214	0  	0.679214	0.679214
66 	4     	0.682495	0  	0.682495	0.682495
67 	2     	0.682495	0  	0.682495	0.682495
68 	2     	0.682495	0  	0.682495	0.682495
69 	4     	0.682495	0  	0.682495	0.682495
70 	4     	0.682495	0  	0.682495	0.682495
71 	6     	0.682495	0  	0.682495	0.682495
72 	6     	0.68576 	0  	0.68576 	0.68576 
73 	2     	0.68576 	0  	0.68576 	0.68576 
74 	4     	0.689041	0  	0.689041	0.689041
75 	2     	0.689041	0  	0.689041	0.689041
76 	2     	0.689041	0  	0.689041	0.689041
77 	4     	0.695587	0  	0.695587	0.695587
78 	2     	0.695587	0  	0.695587	0.695587
79 	2     	0.695587	0  	0.695587	0.695587
80 	4     	0.695587	0  	0.695587	0.695587
81 	4     	0.695587	0  	0.695587	0.695587
82 	6     	0.695587	0  	0.695587	0.695587
83 	6     	0.702133	0  	0.702133	0.702133
84 	2     	0.702133	0  	0.702133	0.702133
85 	4     	0.702133	0  	0.702133	0.702133
86 	4     	0.705399	0  	0.705399	0.705399
87 	2     	0.705399	0  	0.705399	0.705399
88 	2     	0.705399	0  	0.705399	0.705399
89 	4     	0.708679	0  	0.708679	0.708679
90 	2     	0.708679	0  	0.708679	0.708679
91 	2     	0.708679	0  	0.708679	0.708679
92 	4     	0.708679	0  	0.708679	0.708679
93 	4     	0.708679	0  	0.708679	0.708679
94 	6     	0.708679	0  	0.708679	0.708679
95 	6     	0.711945	0  	0.711945	0.711945
96 	2     	0.711945	0  	0.711945	0.711945
97 	4     	0.711945	0  	0.711945	0.711945
98 	4     	0.711945	0  	0.711945	0.711945
99 	6     	0.715225	0  	0.715225	0.715225
100	2     	0.715225	0  	0.715225	0.715225
101	2     	0.715225	0  	0.715225	0.715225
102	4     	0.715225	0  	0.715225	0.715225
103	4     	0.715225	0  	0.715225	0.715225
104	6     	0.715225	0  	0.715225	0.715225
105	6     	0.715225	0  	0.715225	0.715225
106	8     	0.718491	0  	0.718491	0.718491
107	4     	0.718491	0  	0.718491	0.718491
108	4     	0.718491	0  	0.718491	0.718491
109	6     	0.725037	0  	0.725037	0.725037
110	2     	0.725037	0  	0.725037	0.725037
111	2     	0.725037	0  	0.725037	0.725037
112	4     	0.725037	0  	0.725037	0.725037
113	4     	0.725037	0  	0.725037	0.725037
114	6     	0.725037	0  	0.725037	0.725037
115	6     	0.725037	0  	0.725037	0.725037
116	8     	0.728317	0  	0.728317	0.728317
117	4     	0.728317	0  	0.728317	0.728317
118	4     	0.728317	0  	0.728317	0.728317
119	6     	0.728317	0  	0.728317	0.728317
120	6     	0.728317	0  	0.728317	0.728317
121	8     	0.728317	0  	0.728317	0.728317
122	10    	0.728317	0  	0.728317	0.728317
123	12    	0.731583	0  	0.731583	0.731583
124	6     	0.734863	0  	0.734863	0.734863
125	2     	0.734863	0  	0.734863	0.734863
126	2     	0.734863	0  	0.734863	0.734863
127	4     	0.734863	0  	0.734863	0.734863
128	4     	0.734863	0  	0.734863	0.734863
129	6     	0.734863	0  	0.734863	0.734863
130	6     	0.738129	0  	0.738129	0.738129
131	2     	0.738129	0  	0.738129	0.738129
132	4     	0.738129	0  	0.738129	0.738129
133	4     	0.741409	0  	0.741409	0.741409
134	2     	0.741409	0  	0.741409	0.741409
135	2     	0.741409	0  	0.741409	0.741409
136	4     	0.744675	0  	0.744675	0.744675
137	2     	0.744675	0  	0.744675	0.744675
138	2     	0.744675	0  	0.744675	0.744675
139	4     	0.747955	0  	0.747955	0.747955
140	2     	0.747955	0  	0.747955	0.747955
141	2     	0.747955	0  	0.747955	0.747955
142	4     	0.747955	0  	0.747955	0.747955
143	4     	0.747955	0  	0.747955	0.747955
144	6     	0.747955	0  	0.747955	0.747955
145	6     	0.747955	0  	0.747955	0.747955
146	8     	0.747955	0  	0.747955	0.747955
147	10    	0.751221	0  	0.751221	0.751221
148	4     	0.751221	0  	0.751221	0.751221
149	6     	0.757767	0  	0.757767	0.757767
150	2     	0.757767	0  	0.757767	0.757767
151	2     	0.757767	0  	0.757767	0.757767
152	4     	0.757767	0  	0.757767	0.757767
153	4     	0.761047	0  	0.761047	0.761047
154	2     	0.761047	0  	0.761047	0.761047
155	2     	0.761047	0  	0.761047	0.761047
156	4     	0.761047	0  	0.761047	0.761047
157	4     	0.761047	0  	0.761047	0.761047
158	6     	0.761047	0  	0.761047	0.761047
159	6     	0.761047	0  	0.761047	0.761047
160	8     	0.761047	0  	0.761047	0.761047
161	10    	0.764328	0  	0.764328	0.764328
162	4     	0.764328	0  	0.764328	0.764328
163	6     	0.767593	0  	0.767593	0.767593
164	2     	0.767593	0  	0.767593	0.767593
165	2     	0.767593	0  	0.767593	0.767593
166	4     	0.767593	0  	0.767593	0.767593
167	4     	0.767593	0  	0.767593	0.767593
168	6     	0.770874	0  	0.770874	0.770874
169	2     	0.770874	0  	0.770874	0.770874
170	2     	0.770874	0  	0.770874	0.770874
171	4     	0.770874	0  	0.770874	0.770874
172	4     	0.770874	0  	0.770874	0.770874
173	6     	0.770874	0  	0.770874	0.770874
174	6     	0.774139	0  	0.774139	0.774139
175	2     	0.774139	0  	0.774139	0.774139
176	4     	0.774139	0  	0.774139	0.774139
177	4     	0.774139	0  	0.774139	0.774139
178	6     	0.774139	0  	0.774139	0.774139
179	6     	0.774139	0  	0.774139	0.774139
180	8     	0.77742 	0  	0.77742 	0.77742 
181	4     	0.77742 	0  	0.77742 	0.77742 
182	4     	0.780685	0  	0.780685	0.780685
183	2     	0.780685	0  	0.780685	0.780685
184	2     	0.780685	0  	0.780685	0.780685
185	4     	0.780685	0  	0.780685	0.780685
186	4     	0.780685	0  	0.780685	0.780685
187	6     	0.783966	0  	0.783966	0.783966
188	2     	0.783966	0  	0.783966	0.783966
189	2     	0.783966	0  	0.783966	0.783966
190	4     	0.787231	0  	0.787231	0.787231
191	2     	0.787231	0  	0.787231	0.787231
192	2     	0.787231	0  	0.787231	0.787231
193	4     	0.787231	0  	0.787231	0.787231
194	4     	0.787231	0  	0.787231	0.787231
195	6     	0.787231	0  	0.787231	0.787231
196	6     	0.790512	0  	0.790512	0.790512
197	2     	0.790512	0  	0.790512	0.790512
198	4     	0.790512	0  	0.790512	0.790512
199	4     	0.790512	0  	0.790512	0.790512
200	6     	0.790512	0  	0.790512	0.790512
201	6     	0.793777	0  	0.793777	0.793777
202	2     	0.793777	0  	0.793777	0.793777
203	4     	0.793777	0  	0.793777	0.793777
204	4     	0.793777	0  	0.793777	0.793777
205	6     	0.793777	0  	0.793777	0.793777
206	6     	0.797058	0  	0.797058	0.797058
207	2     	0.797058	0  	0.797058	0.797058
208	4     	0.797058	0  	0.797058	0.797058
209	4     	0.800323	0  	0.800323	0.800323
210	2     	0.803604	0  	0.803604	0.803604
211	2     	0.803604	0  	0.803604	0.803604
212	2     	0.803604	0  	0.803604	0.803604
213	4     	0.803604	0  	0.803604	0.803604
214	4     	0.803604	0  	0.803604	0.803604
215	6     	0.80687 	0  	0.80687 	0.80687 
216	2     	0.80687 	0  	0.80687 	0.80687 
217	2     	0.80687 	0  	0.80687 	0.80687 
218	4     	0.80687 	0  	0.80687 	0.80687 
219	4     	0.80687 	0  	0.80687 	0.80687 
220	6     	0.80687 	0  	0.80687 	0.80687 
221	6     	0.81015 	0  	0.81015 	0.81015 
222	2     	0.81015 	0  	0.81015 	0.81015 
223	4     	0.81015 	0  	0.81015 	0.81015 
224	4     	0.81015 	0  	0.81015 	0.81015 
225	6     	0.813416	0  	0.813416	0.813416
226	2     	0.813416	0  	0.813416	0.813416
227	2     	0.813416	0  	0.813416	0.813416
228	4     	0.813416	0  	0.813416	0.813416
229	4     	0.813416	0  	0.813416	0.813416
230	6     	0.813416	0  	0.813416	0.813416
231	6     	0.813416	0  	0.813416	0.813416
232	8     	0.816696	0  	0.816696	0.816696
233	4     	0.816696	0  	0.816696	0.816696
234	4     	0.816696	0  	0.816696	0.816696
235	6     	0.816696	0  	0.816696	0.816696
236	6     	0.816696	0  	0.816696	0.816696
237	8     	0.816696	0  	0.816696	0.816696
238	10    	0.819962	0  	0.819962	0.819962
239	4     	0.819962	0  	0.819962	0.819962
240	6     	0.819962	0  	0.819962	0.819962
241	6     	0.819962	0  	0.819962	0.819962
242	8     	0.819962	0  	0.819962	0.819962
243	10    	0.819962	0  	0.819962	0.819962
244	12    	0.819962	0  	0.819962	0.819962
245	16    	0.819962	0  	0.819962	0.819962
246	20    	0.826508	0  	0.826508	0.826508
247	8     	0.826508	0  	0.826508	0.826508
248	10    	0.826508	0  	0.826508	0.826508
249	12    	0.826508	0  	0.826508	0.826508
250	16    	0.829788	0  	0.829788	0.829788
251	6     	0.829788	0  	0.829788	0.829788
252	8     	0.829788	0  	0.829788	0.829788
253	10    	0.829788	0  	0.829788	0.829788
254	12    	0.829788	0  	0.829788	0.829788
255	16    	0.829788	0  	0.829788	0.829788
256	20    	0.833054	0  	0.833054	0.833054
257	8     	0.8396  	0  	0.8396  	0.8396  
258	4     	0.8396  	0  	0.8396  	0.8396  
259	4     	0.8396  	0  	0.8396  	0.8396  
260	6     	0.84288 	0  	0.84288 	0.84288 
261	2     	0.84288 	0  	0.84288 	0.84288 
262	2     	0.84288 	0  	0.84288 	0.84288 
263	4     	0.84288 	0  	0.84288 	0.84288 
264	4     	0.84288 	0  	0.84288 	0.84288 
265	6     	0.846161	0  	0.846161	0.846161
266	2     	0.846161	0  	0.846161	0.846161
267	2     	0.846161	0  	0.846161	0.846161
268	4     	0.846161	0  	0.846161	0.846161
269	4     	0.846161	0  	0.846161	0.846161
270	6     	0.846161	0  	0.846161	0.846161
271	6     	0.846161	0  	0.846161	0.846161
272	8     	0.846161	0  	0.846161	0.846161
273	10    	0.846161	0  	0.846161	0.846161
274	12    	0.852707	0  	0.852707	0.852707
275	6     	0.852707	0  	0.852707	0.852707
276	6     	0.852707	0  	0.852707	0.852707
277	8     	0.852707	0  	0.852707	0.852707
278	10    	0.852707	0  	0.852707	0.852707
279	12    	0.852707	0  	0.852707	0.852707
280	16    	0.855972	0  	0.855972	0.855972
281	6     	0.855972	0  	0.855972	0.855972
282	8     	0.855972	0  	0.855972	0.855972
283	10    	0.855972	0  	0.855972	0.855972
284	12    	0.859253	0  	0.859253	0.859253
285	6     	0.862518	0  	0.862518	0.862518
286	2     	0.862518	0  	0.862518	0.862518
287	2     	0.862518	0  	0.862518	0.862518
288	4     	0.862518	0  	0.862518	0.862518
289	4     	0.862518	0  	0.862518	0.862518
290	6     	0.865799	0  	0.865799	0.865799
291	2     	0.865799	0  	0.865799	0.865799
292	2     	0.865799	0  	0.865799	0.865799
293	4     	0.865799	0  	0.865799	0.865799
294	4     	0.865799	0  	0.865799	0.865799
295	6     	0.865799	0  	0.865799	0.865799
296	6     	0.865799	0  	0.865799	0.865799
297	8     	0.869064	0  	0.869064	0.869064
298	4     	0.869064	0  	0.869064	0.869064
299	4     	0.869064	0  	0.869064	0.869064
300	6     	0.872345	0  	0.872345	0.872345
301	2     	0.872345	0  	0.872345	0.872345
302	2     	0.872345	0  	0.872345	0.872345
303	4     	0.872345	0  	0.872345	0.872345
304	4     	0.87561 	0  	0.87561 	0.87561 
305	2     	0.87561 	0  	0.87561 	0.87561 
306	2     	0.87561 	0  	0.87561 	0.87561 
307	4     	0.87561 	0  	0.87561 	0.87561 
308	4     	0.87561 	0  	0.87561 	0.87561 
309	6     	0.87561 	0  	0.87561 	0.87561 
310	6     	0.87561 	0  	0.87561 	0.87561 
311	8     	0.87561 	0  	0.87561 	0.87561 
312	10    	0.87561 	0  	0.87561 	0.87561 
313	12    	0.87561 	0  	0.87561 	0.87561 
314	16    	0.878891	0  	0.878891	0.878891
315	6     	0.878891	0  	0.878891	0.878891
316	8     	0.878891	0  	0.878891	0.878891
317	10    	0.878891	0  	0.878891	0.878891
318	12    	0.878891	0  	0.878891	0.878891
319	16    	0.878891	0  	0.878891	0.878891
320	20    	0.878891	0  	0.878891	0.878891
321	24    	0.878891	0  	0.878891	0.878891
322	32    	0.882156	0  	0.882156	0.882156
323	12    	0.882156	0  	0.882156	0.882156
324	16    	0.882156	0  	0.882156	0.882156
325	20    	0.882156	0  	0.882156	0.882156
326	24    	0.882156	0  	0.882156	0.882156
327	32    	0.882156	0  	0.882156	0.882156
328	40    	0.882156	0  	0.882156	0.882156
329	50    	0.882156	0  	0.882156	0.882156
330	62    	0.885437	0  	0.885437	0.885437
331	24    	0.885437	0  	0.885437	0.885437
332	32    	0.885437	0  	0.885437	0.885437
333	40    	0.885437	0  	0.885437	0.885437
334	50    	0.885437	0  	0.885437	0.885437
335	62    	0.885437	0  	0.885437	0.885437
336	78    	0.888702	0  	0.888702	0.888702
337	32    	0.888702	0  	0.888702	0.888702
338	40    	0.888702	0  	0.888702	0.888702
339	50    	0.888702	0  	0.888702	0.888702
340	62    	0.888702	0  	0.888702	0.888702
341	78    	0.888702	0  	0.888702	0.888702
342	98    	0.888702	0  	0.888702	0.888702
343	124   	0.888702	0  	0.888702	0.888702
344	156   	0.888702	0  	0.888702	0.888702
345	196   	0.888702	0  	0.888702	0.888702
346	246   	0.888702	0  	0.888702	0.888702
347	308   	0.888702	0  	0.888702	0.888702
348	388   	0.888702	0  	0.888702	0.888702
349	488   	0.888702	0  	0.888702	0.888702
350	614   	0.891983	0  	0.891983	0.891983
351	246   	0.891983	0  	0.891983	0.891983
352	308   	0.895248	0  	0.895248	0.895248
353	124   	0.895248	0  	0.895248	0.895248
354	156   	0.895248	0  	0.895248	0.895248
355	196   	0.895248	0  	0.895248	0.895248
356	246   	0.898529	0  	0.898529	0.898529
357	98    	0.898529	0  	0.898529	0.898529
358	124   	0.901794	0  	0.901794	0.901794
359	50    	0.901794	0  	0.901794	0.901794
360	62    	0.901794	0  	0.901794	0.901794
361	78    	0.901794	0  	0.901794	0.901794
362	98    	0.901794	0  	0.901794	0.901794
363	124   	0.901794	0  	0.901794	0.901794
364	156   	0.901794	0  	0.901794	0.901794
365	196   	0.905075	0  	0.905075	0.905075
366	78    	0.905075	0  	0.905075	0.905075
367	98    	0.905075	0  	0.905075	0.905075
368	124   	0.905075	0  	0.905075	0.905075
369	156   	0.905075	0  	0.905075	0.905075
370	196   	0.905075	0  	0.905075	0.905075
371	246   	0.905075	0  	0.905075	0.905075
372	308   	0.905075	0  	0.905075	0.905075
373	388   	0.905075	0  	0.905075	0.905075
374	488   	0.90834 	0  	0.90834 	0.90834 
375	196   	0.90834 	0  	0.90834 	0.90834 
376	246   	0.90834 	0  	0.90834 	0.90834 
377	308   	0.90834 	0  	0.90834 	0.90834 
