gen	nevals	avg     	std	min     	max     
0  	1     	0.560287	0  	0.560287	0.560287
1  	2     	0.560287	0  	0.560287	0.560287
2  	2     	0.574463	0  	0.574463	0.574463
3  	2     	0.574463	0  	0.574463	0.574463
4  	2     	0.602844	0  	0.602844	0.602844
5  	2     	0.602844	0  	0.602844	0.602844
6  	2     	0.61702 	0  	0.61702 	0.61702 
7  	2     	0.61702 	0  	0.61702 	0.61702 
8  	2     	0.61702 	0  	0.61702 	0.61702 
9  	4     	0.61702 	0  	0.61702 	0.61702 
10 	4     	0.61702 	0  	0.61702 	0.61702 
11 	6     	0.645386	0  	0.645386	0.645386
12 	2     	0.645386	0  	0.645386	0.645386
13 	2     	0.659576	0  	0.659576	0.659576
14 	2     	0.659576	0  	0.659576	0.659576
15 	2     	0.659576	0  	0.659576	0.659576
16 	4     	0.659576	0  	0.659576	0.659576
17 	4     	0.659576	0  	0.659576	0.659576
18 	6     	0.673752	0  	0.673752	0.673752
19 	2     	0.673752	0  	0.673752	0.673752
20 	2     	0.673752	0  	0.673752	0.673752
21 	4     	0.687943	0  	0.687943	0.687943
22 	2     	0.702133	0  	0.702133	0.702133
23 	2     	0.702133	0  	0.702133	0.702133
24 	2     	0.716309	0  	0.716309	0.716309
25 	2     	0.716309	0  	0.716309	0.716309
26 	2     	0.716309	0  	0.716309	0.716309
27 	4     	0.744675	0  	0.744675	0.744675
28 	2     	0.758865	0  	0.758865	0.758865
29 	2     	0.758865	0  	0.758865	0.758865
30 	2     	0.758865	0  	0.758865	0.758865
31 	4     	0.758865	0  	0.758865	0.758865
32 	4     	0.758865	0  	0.758865	0.758865
33 	6     	0.773056	0  	0.773056	0.773056
34 	2     	0.773056	0  	0.773056	0.773056
35 	2     	0.773056	0  	0.773056	0.773056
36 	4     	0.773056	0  	0.773056	0.773056
37 	4     	0.773056	0  	0.773056	0.773056
38 	6     	0.787231	0  	0.787231	0.787231
39 	2     	0.801422	0  	0.801422	0.801422
40 	2     	0.801422	0  	0.801422	0.801422
41 	2     	0.801422	0  	0.801422	0.801422
42 	4     	0.801422	0  	0.801422	0.801422
43 	4     	0.801422	0  	0.801422	0.801422
44 	6     	0.801422	0  	0.801422	0.801422
45 	6     	0.815598	0  	0.815598	0.815598
46 	2     	0.815598	0  	0.815598	0.815598
47 	4     	0.815598	0  	0.815598	0.815598
48 	4     	0.829788	0  	0.829788	0.829788
49 	2     	0.829788	0  	0.829788	0.829788
50 	2     	0.829788	0  	0.829788	0.829788
51 	4     	0.829788	0  	0.829788	0.829788
52 	4     	0.843979	0  	0.843979	0.843979
53 	2     	0.843979	0  	0.843979	0.843979
54 	2     	0.843979	0  	0.843979	0.843979
55 	4     	0.843979	0  	0.843979	0.843979
56 	4     	0.843979	0  	0.843979	0.843979
57 	6     	0.843979	0  	0.843979	0.843979
58 	6     	0.858154	0  	0.858154	0.858154
59 	2     	0.858154	0  	0.858154	0.858154
60 	4     	0.858154	0  	0.858154	0.858154
61 	4     	0.858154	0  	0.858154	0.858154
62 	6     	0.858154	0  	0.858154	0.858154
63 	6     	0.858154	0  	0.858154	0.858154
64 	8     	0.872345	0  	0.872345	0.872345
65 	4     	0.872345	0  	0.872345	0.872345
66 	4     	0.872345	0  	0.872345	0.872345
67 	6     	0.872345	0  	0.872345	0.872345
68 	6     	0.872345	0  	0.872345	0.872345
69 	8     	0.872345	0  	0.872345	0.872345
70 	10    	0.872345	0  	0.872345	0.872345
71 	12    	0.872345	0  	0.872345	0.872345
72 	16    	0.872345	0  	0.872345	0.872345
73 	20    	0.872345	0  	0.872345	0.872345
74 	24    	0.88652 	0  	0.88652 	0.88652 
75 	10    	0.88652 	0  	0.88652 	0.88652 
76 	12    	0.88652 	0  	0.88652 	0.88652 
77 	16    	0.88652 	0  	0.88652 	0.88652 
78 	20    	0.88652 	0  	0.88652 	0.88652 
79 	24    	0.88652 	0  	0.88652 	0.88652 
80 	32    	0.88652 	0  	0.88652 	0.88652 
81 	40    	0.88652 	0  	0.88652 	0.88652 
82 	50    	0.88652 	0  	0.88652 	0.88652 
83 	62    	0.88652 	0  	0.88652 	0.88652 
84 	78    	0.88652 	0  	0.88652 	0.88652 
85 	98    	0.88652 	0  	0.88652 	0.88652 
86 	124   	0.88652 	0  	0.88652 	0.88652 
87 	156   	0.88652 	0  	0.88652 	0.88652 
88 	162   	0.88652 	0  	0.88652 	0.88652 
89 	162   	0.88652 	0  	0.88652 	0.88652 
90 	162   	0.88652 	0  	0.88652 	0.88652 
91 	162   	0.88652 	0  	0.88652 	0.88652 
92 	162   	0.88652 	0  	0.88652 	0.88652 
93 	162   	0.88652 	0  	0.88652 	0.88652 
94 	162   	0.88652 	0  	0.88652 	0.88652 
95 	162   	0.88652 	0  	0.88652 	0.88652 
96 	162   	0.88652 	0  	0.88652 	0.88652 
97 	162   	0.88652 	0  	0.88652 	0.88652 
98 	162   	0.88652 	0  	0.88652 	0.88652 
99 	162   	0.88652 	0  	0.88652 	0.88652 
100	162   	0.88652 	0  	0.88652 	0.88652 
101	162   	0.88652 	0  	0.88652 	0.88652 
102	162   	0.88652 	0  	0.88652 	0.88652 
103	162   	0.88652 	0  	0.88652 	0.88652 
104	162   	0.88652 	0  	0.88652 	0.88652 
105	162   	0.88652 	0  	0.88652 	0.88652 
106	162   	0.88652 	0  	0.88652 	0.88652 
107	162   	0.88652 	0  	0.88652 	0.88652 
108	162   	0.88652 	0  	0.88652 	0.88652 
109	162   	0.88652 	0  	0.88652 	0.88652 
110	162   	0.88652 	0  	0.88652 	0.88652 
111	162   	0.88652 	0  	0.88652 	0.88652 
112	162   	0.88652 	0  	0.88652 	0.88652 
113	162   	0.88652 	0  	0.88652 	0.88652 
114	162   	0.88652 	0  	0.88652 	0.88652 
115	162   	0.88652 	0  	0.88652 	0.88652 
116	162   	0.88652 	0  	0.88652 	0.88652 
117	162   	0.88652 	0  	0.88652 	0.88652 
118	162   	0.88652 	0  	0.88652 	0.88652 
119	162   	0.88652 	0  	0.88652 	0.88652 
120	162   	0.88652 	0  	0.88652 	0.88652 
121	162   	0.88652 	0  	0.88652 	0.88652 
122	162   	0.88652 	0  	0.88652 	0.88652 
123	162   	0.88652 	0  	0.88652 	0.88652 
124	162   	0.88652 	0  	0.88652 	0.88652 
125	162   	0.88652 	0  	0.88652 	0.88652 
126	162   	0.88652 	0  	0.88652 	0.88652 
127	162   	0.88652 	0  	0.88652 	0.88652 
128	162   	0.88652 	0  	0.88652 	0.88652 
129	162   	0.88652 	0  	0.88652 	0.88652 
130	162   	0.88652 	0  	0.88652 	0.88652 
131	162   	0.88652 	0  	0.88652 	0.88652 
132	162   	0.88652 	0  	0.88652 	0.88652 
133	162   	0.88652 	0  	0.88652 	0.88652 
134	162   	0.88652 	0  	0.88652 	0.88652 
135	162   	0.88652 	0  	0.88652 	0.88652 
136	162   	0.88652 	0  	0.88652 	0.88652 
137	162   	0.88652 	0  	0.88652 	0.88652 
138	162   	0.88652 	0  	0.88652 	0.88652 
139	162   	0.88652 	0  	0.88652 	0.88652 
140	162   	0.88652 	0  	0.88652 	0.88652 
141	162   	0.88652 	0  	0.88652 	0.88652 
142	162   	0.88652 	0  	0.88652 	0.88652 
143	162   	0.88652 	0  	0.88652 	0.88652 
