gen	nevals	avg     	std	min     	max     
0  	1     	0.654327	0  	0.654327	0.654327
1  	2     	0.654327	0  	0.654327	0.654327
2  	2     	0.654327	0  	0.654327	0.654327
3  	4     	0.654327	0  	0.654327	0.654327
4  	4     	0.654327	0  	0.654327	0.654327
5  	6     	0.703705	0  	0.703705	0.703705
6  	2     	0.703705	0  	0.703705	0.703705
7  	2     	0.703705	0  	0.703705	0.703705
8  	4     	0.703705	0  	0.703705	0.703705
9  	4     	0.728394	0  	0.728394	0.728394
10 	2     	0.728394	0  	0.728394	0.728394
11 	2     	0.728394	0  	0.728394	0.728394
12 	4     	0.753082	0  	0.753082	0.753082
13 	2     	0.753082	0  	0.753082	0.753082
14 	2     	0.753082	0  	0.753082	0.753082
15 	4     	0.753082	0  	0.753082	0.753082
16 	4     	0.753082	0  	0.753082	0.753082
17 	6     	0.753082	0  	0.753082	0.753082
18 	6     	0.753082	0  	0.753082	0.753082
19 	8     	0.802475	0  	0.802475	0.802475
20 	4     	0.802475	0  	0.802475	0.802475
21 	4     	0.802475	0  	0.802475	0.802475
22 	6     	0.851852	0  	0.851852	0.851852
23 	2     	0.851852	0  	0.851852	0.851852
24 	2     	0.851852	0  	0.851852	0.851852
25 	4     	0.851852	0  	0.851852	0.851852
26 	4     	0.851852	0  	0.851852	0.851852
27 	6     	0.851852	0  	0.851852	0.851852
28 	6     	0.876541	0  	0.876541	0.876541
29 	2     	0.876541	0  	0.876541	0.876541
30 	4     	0.876541	0  	0.876541	0.876541
31 	4     	0.90123 	0  	0.90123 	0.90123 
32 	2     	0.90123 	0  	0.90123 	0.90123 
33 	2     	0.90123 	0  	0.90123 	0.90123 
34 	4     	0.90123 	0  	0.90123 	0.90123 
35 	4     	0.90123 	0  	0.90123 	0.90123 
36 	6     	0.90123 	0  	0.90123 	0.90123 
37 	6     	0.90123 	0  	0.90123 	0.90123 
38 	8     	0.90123 	0  	0.90123 	0.90123 
39 	10    	0.90123 	0  	0.90123 	0.90123 
40 	12    	0.90123 	0  	0.90123 	0.90123 
41 	16    	0.90123 	0  	0.90123 	0.90123 
42 	20    	0.90123 	0  	0.90123 	0.90123 
43 	24    	0.90123 	0  	0.90123 	0.90123 
44 	32    	0.90123 	0  	0.90123 	0.90123 
45 	40    	0.925919	0  	0.925919	0.925919
46 	16    	0.925919	0  	0.925919	0.925919
47 	20    	0.925919	0  	0.925919	0.925919
48 	24    	0.925919	0  	0.925919	0.925919
49 	32    	0.925919	0  	0.925919	0.925919
50 	40    	0.925919	0  	0.925919	0.925919
51 	50    	0.925919	0  	0.925919	0.925919
52 	62    	0.925919	0  	0.925919	0.925919
53 	78    	0.925919	0  	0.925919	0.925919
54 	98    	0.925919	0  	0.925919	0.925919
55 	98    	0.925919	0  	0.925919	0.925919
56 	98    	0.925919	0  	0.925919	0.925919
57 	98    	0.950623	0  	0.950623	0.950623
58 	40    	0.950623	0  	0.950623	0.950623
59 	50    	0.950623	0  	0.950623	0.950623
60 	62    	0.950623	0  	0.950623	0.950623
61 	78    	0.950623	0  	0.950623	0.950623
62 	98    	0.950623	0  	0.950623	0.950623
63 	98    	0.950623	0  	0.950623	0.950623
64 	98    	0.950623	0  	0.950623	0.950623
65 	98    	0.950623	0  	0.950623	0.950623
66 	98    	0.950623	0  	0.950623	0.950623
67 	98    	0.950623	0  	0.950623	0.950623
68 	98    	0.950623	0  	0.950623	0.950623
69 	98    	0.950623	0  	0.950623	0.950623
70 	98    	0.950623	0  	0.950623	0.950623
71 	98    	0.950623	0  	0.950623	0.950623
72 	98    	0.950623	0  	0.950623	0.950623
73 	98    	0.950623	0  	0.950623	0.950623
74 	98    	0.950623	0  	0.950623	0.950623
75 	98    	0.950623	0  	0.950623	0.950623
76 	98    	0.950623	0  	0.950623	0.950623
77 	98    	0.950623	0  	0.950623	0.950623
78 	98    	0.950623	0  	0.950623	0.950623
79 	98    	0.950623	0  	0.950623	0.950623
80 	98    	0.950623	0  	0.950623	0.950623
81 	98    	0.950623	0  	0.950623	0.950623
82 	98    	0.950623	0  	0.950623	0.950623
83 	98    	0.950623	0  	0.950623	0.950623
84 	98    	0.950623	0  	0.950623	0.950623
85 	98    	0.950623	0  	0.950623	0.950623
86 	98    	0.950623	0  	0.950623	0.950623
87 	98    	0.950623	0  	0.950623	0.950623
88 	98    	0.950623	0  	0.950623	0.950623
89 	98    	0.950623	0  	0.950623	0.950623
90 	98    	0.950623	0  	0.950623	0.950623
91 	98    	0.950623	0  	0.950623	0.950623
92 	98    	0.950623	0  	0.950623	0.950623
93 	98    	0.950623	0  	0.950623	0.950623
94 	98    	0.950623	0  	0.950623	0.950623
95 	98    	0.950623	0  	0.950623	0.950623
96 	98    	0.950623	0  	0.950623	0.950623
97 	98    	0.950623	0  	0.950623	0.950623
98 	98    	0.950623	0  	0.950623	0.950623
99 	98    	0.950623	0  	0.950623	0.950623
100	98    	0.950623	0  	0.950623	0.950623
101	98    	0.950623	0  	0.950623	0.950623
102	98    	0.950623	0  	0.950623	0.950623
103	98    	0.950623	0  	0.950623	0.950623
104	98    	0.950623	0  	0.950623	0.950623
105	98    	0.950623	0  	0.950623	0.950623
106	98    	0.950623	0  	0.950623	0.950623
107	98    	0.950623	0  	0.950623	0.950623
108	98    	0.950623	0  	0.950623	0.950623
109	98    	0.950623	0  	0.950623	0.950623
110	98    	0.950623	0  	0.950623	0.950623
111	98    	0.950623	0  	0.950623	0.950623
112	98    	0.950623	0  	0.950623	0.950623
113	98    	0.950623	0  	0.950623	0.950623
114	98    	0.950623	0  	0.950623	0.950623
115	98    	0.950623	0  	0.950623	0.950623
116	98    	0.950623	0  	0.950623	0.950623
117	98    	0.950623	0  	0.950623	0.950623
118	98    	0.950623	0  	0.950623	0.950623
119	98    	0.950623	0  	0.950623	0.950623
120	98    	0.950623	0  	0.950623	0.950623
121	98    	0.950623	0  	0.950623	0.950623
122	98    	0.950623	0  	0.950623	0.950623
123	98    	0.950623	0  	0.950623	0.950623
124	98    	0.950623	0  	0.950623	0.950623
125	98    	0.950623	0  	0.950623	0.950623
126	98    	0.950623	0  	0.950623	0.950623
127	98    	0.950623	0  	0.950623	0.950623
128	98    	0.950623	0  	0.950623	0.950623
129	98    	0.950623	0  	0.950623	0.950623
130	98    	0.950623	0  	0.950623	0.950623
131	98    	0.950623	0  	0.950623	0.950623
132	98    	0.950623	0  	0.950623	0.950623
133	98    	0.950623	0  	0.950623	0.950623
134	98    	0.950623	0  	0.950623	0.950623
135	98    	0.950623	0  	0.950623	0.950623
136	98    	0.950623	0  	0.950623	0.950623
137	98    	0.950623	0  	0.950623	0.950623
138	98    	0.950623	0  	0.950623	0.950623
139	98    	0.950623	0  	0.950623	0.950623
140	98    	0.950623	0  	0.950623	0.950623
141	98    	0.950623	0  	0.950623	0.950623
142	98    	0.950623	0  	0.950623	0.950623
143	98    	0.950623	0  	0.950623	0.950623
144	98    	0.950623	0  	0.950623	0.950623
145	98    	0.950623	0  	0.950623	0.950623
146	98    	0.950623	0  	0.950623	0.950623
147	98    	0.950623	0  	0.950623	0.950623
148	98    	0.950623	0  	0.950623	0.950623
149	98    	0.950623	0  	0.950623	0.950623
150	98    	0.950623	0  	0.950623	0.950623
151	98    	0.950623	0  	0.950623	0.950623
