gen	nevals	avg     	std	min     	max     
0  	1     	0.57991 	0  	0.57991 	0.57991 
1  	2     	0.57991 	0  	0.57991 	0.57991 
2  	2     	0.57991 	0  	0.57991 	0.57991 
3  	4     	0.584473	0  	0.584473	0.584473
4  	2     	0.584473	0  	0.584473	0.584473
5  	2     	0.584473	0  	0.584473	0.584473
6  	4     	0.584473	0  	0.584473	0.584473
7  	4     	0.584473	0  	0.584473	0.584473
8  	6     	0.589035	0  	0.589035	0.589035
9  	2     	0.589035	0  	0.589035	0.589035
10 	2     	0.589035	0  	0.589035	0.589035
11 	4     	0.589035	0  	0.589035	0.589035
12 	4     	0.589035	0  	0.589035	0.589035
13 	6     	0.593613	0  	0.593613	0.593613
14 	2     	0.593613	0  	0.593613	0.593613
15 	2     	0.593613	0  	0.593613	0.593613
16 	4     	0.593613	0  	0.593613	0.593613
17 	4     	0.598175	0  	0.598175	0.598175
18 	2     	0.598175	0  	0.598175	0.598175
19 	2     	0.602737	0  	0.602737	0.602737
20 	2     	0.602737	0  	0.602737	0.602737
21 	2     	0.602737	0  	0.602737	0.602737
22 	4     	0.611877	0  	0.611877	0.611877
23 	2     	0.611877	0  	0.611877	0.611877
24 	2     	0.625565	0  	0.625565	0.625565
25 	2     	0.625565	0  	0.625565	0.625565
26 	2     	0.625565	0  	0.625565	0.625565
27 	4     	0.625565	0  	0.625565	0.625565
28 	4     	0.625565	0  	0.625565	0.625565
29 	6     	0.634705	0  	0.634705	0.634705
30 	2     	0.634705	0  	0.634705	0.634705
31 	2     	0.634705	0  	0.634705	0.634705
32 	4     	0.634705	0  	0.634705	0.634705
33 	4     	0.639267	0  	0.639267	0.639267
34 	2     	0.639267	0  	0.639267	0.639267
35 	2     	0.639267	0  	0.639267	0.639267
36 	4     	0.639267	0  	0.639267	0.639267
37 	4     	0.639267	0  	0.639267	0.639267
38 	6     	0.639267	0  	0.639267	0.639267
39 	6     	0.648407	0  	0.648407	0.648407
40 	2     	0.648407	0  	0.648407	0.648407
41 	4     	0.648407	0  	0.648407	0.648407
42 	4     	0.657532	0  	0.657532	0.657532
43 	2     	0.666672	0  	0.666672	0.666672
44 	2     	0.666672	0  	0.666672	0.666672
45 	2     	0.666672	0  	0.666672	0.666672
46 	4     	0.671234	0  	0.671234	0.671234
47 	2     	0.671234	0  	0.671234	0.671234
48 	2     	0.671234	0  	0.671234	0.671234
49 	4     	0.671234	0  	0.671234	0.671234
50 	4     	0.680359	0  	0.680359	0.680359
51 	2     	0.680359	0  	0.680359	0.680359
52 	2     	0.680359	0  	0.680359	0.680359
53 	4     	0.684937	0  	0.684937	0.684937
54 	2     	0.684937	0  	0.684937	0.684937
55 	2     	0.684937	0  	0.684937	0.684937
56 	4     	0.684937	0  	0.684937	0.684937
57 	4     	0.694061	0  	0.694061	0.694061
58 	2     	0.694061	0  	0.694061	0.694061
59 	2     	0.694061	0  	0.694061	0.694061
60 	4     	0.694061	0  	0.694061	0.694061
61 	4     	0.694061	0  	0.694061	0.694061
62 	6     	0.694061	0  	0.694061	0.694061
63 	6     	0.694061	0  	0.694061	0.694061
64 	8     	0.698624	0  	0.698624	0.698624
65 	4     	0.698624	0  	0.698624	0.698624
66 	4     	0.698624	0  	0.698624	0.698624
67 	6     	0.698624	0  	0.698624	0.698624
68 	6     	0.698624	0  	0.698624	0.698624
69 	8     	0.703201	0  	0.703201	0.703201
70 	4     	0.703201	0  	0.703201	0.703201
71 	4     	0.703201	0  	0.703201	0.703201
72 	6     	0.703201	0  	0.703201	0.703201
73 	6     	0.703201	0  	0.703201	0.703201
74 	8     	0.712326	0  	0.712326	0.712326
75 	4     	0.712326	0  	0.712326	0.712326
76 	4     	0.716888	0  	0.716888	0.716888
77 	2     	0.716888	0  	0.716888	0.716888
78 	2     	0.716888	0  	0.716888	0.716888
79 	4     	0.716888	0  	0.716888	0.716888
80 	4     	0.716888	0  	0.716888	0.716888
81 	6     	0.716888	0  	0.716888	0.716888
82 	6     	0.716888	0  	0.716888	0.716888
83 	8     	0.716888	0  	0.716888	0.716888
84 	10    	0.716888	0  	0.716888	0.716888
85 	12    	0.726028	0  	0.726028	0.726028
86 	6     	0.726028	0  	0.726028	0.726028
87 	6     	0.726028	0  	0.726028	0.726028
88 	8     	0.726028	0  	0.726028	0.726028
89 	10    	0.730591	0  	0.730591	0.730591
90 	4     	0.739731	0  	0.739731	0.739731
91 	2     	0.744293	0  	0.744293	0.744293
92 	2     	0.744293	0  	0.744293	0.744293
93 	2     	0.744293	0  	0.744293	0.744293
94 	4     	0.744293	0  	0.744293	0.744293
95 	4     	0.744293	0  	0.744293	0.744293
96 	6     	0.753418	0  	0.753418	0.753418
97 	2     	0.753418	0  	0.753418	0.753418
98 	2     	0.757996	0  	0.757996	0.757996
99 	2     	0.757996	0  	0.757996	0.757996
100	2     	0.757996	0  	0.757996	0.757996
101	4     	0.757996	0  	0.757996	0.757996
102	4     	0.757996	0  	0.757996	0.757996
103	6     	0.76712 	0  	0.76712 	0.76712 
104	2     	0.771683	0  	0.771683	0.771683
105	2     	0.771683	0  	0.771683	0.771683
106	2     	0.771683	0  	0.771683	0.771683
107	4     	0.771683	0  	0.771683	0.771683
108	4     	0.771683	0  	0.771683	0.771683
109	6     	0.780823	0  	0.780823	0.780823
110	2     	0.780823	0  	0.780823	0.780823
111	2     	0.780823	0  	0.780823	0.780823
112	4     	0.780823	0  	0.780823	0.780823
113	4     	0.780823	0  	0.780823	0.780823
114	6     	0.780823	0  	0.780823	0.780823
115	6     	0.785385	0  	0.785385	0.785385
116	2     	0.785385	0  	0.785385	0.785385
117	4     	0.785385	0  	0.785385	0.785385
118	4     	0.785385	0  	0.785385	0.785385
119	6     	0.785385	0  	0.785385	0.785385
120	6     	0.789948	0  	0.789948	0.789948
121	2     	0.789948	0  	0.789948	0.789948
122	4     	0.789948	0  	0.789948	0.789948
123	4     	0.789948	0  	0.789948	0.789948
124	6     	0.789948	0  	0.789948	0.789948
125	6     	0.789948	0  	0.789948	0.789948
126	8     	0.789948	0  	0.789948	0.789948
127	10    	0.789948	0  	0.789948	0.789948
128	12    	0.789948	0  	0.789948	0.789948
129	16    	0.789948	0  	0.789948	0.789948
130	20    	0.789948	0  	0.789948	0.789948
131	24    	0.794525	0  	0.794525	0.794525
132	10    	0.794525	0  	0.794525	0.794525
133	12    	0.794525	0  	0.794525	0.794525
134	16    	0.794525	0  	0.794525	0.794525
135	20    	0.794525	0  	0.794525	0.794525
136	24    	0.794525	0  	0.794525	0.794525
137	32    	0.799088	0  	0.799088	0.799088
138	12    	0.80365 	0  	0.80365 	0.80365 
139	6     	0.80365 	0  	0.80365 	0.80365 
140	6     	0.80365 	0  	0.80365 	0.80365 
141	8     	0.80365 	0  	0.80365 	0.80365 
142	10    	0.80365 	0  	0.80365 	0.80365 
143	12    	0.80365 	0  	0.80365 	0.80365 
144	16    	0.80365 	0  	0.80365 	0.80365 
145	20    	0.80365 	0  	0.80365 	0.80365 
146	24    	0.808212	0  	0.808212	0.808212
147	10    	0.808212	0  	0.808212	0.808212
148	12    	0.81279 	0  	0.81279 	0.81279 
149	6     	0.81279 	0  	0.81279 	0.81279 
150	6     	0.817352	0  	0.817352	0.817352
151	2     	0.817352	0  	0.817352	0.817352
152	4     	0.817352	0  	0.817352	0.817352
153	4     	0.821915	0  	0.821915	0.821915
154	2     	0.821915	0  	0.821915	0.821915
155	2     	0.821915	0  	0.821915	0.821915
156	4     	0.821915	0  	0.821915	0.821915
157	4     	0.821915	0  	0.821915	0.821915
158	6     	0.821915	0  	0.821915	0.821915
159	6     	0.821915	0  	0.821915	0.821915
160	8     	0.821915	0  	0.821915	0.821915
161	10    	0.821915	0  	0.821915	0.821915
162	12    	0.821915	0  	0.821915	0.821915
163	16    	0.826477	0  	0.826477	0.826477
164	6     	0.826477	0  	0.826477	0.826477
165	8     	0.831055	0  	0.831055	0.831055
166	4     	0.831055	0  	0.831055	0.831055
167	4     	0.831055	0  	0.831055	0.831055
168	6     	0.831055	0  	0.831055	0.831055
169	6     	0.831055	0  	0.831055	0.831055
170	8     	0.831055	0  	0.831055	0.831055
171	10    	0.835617	0  	0.835617	0.835617
172	4     	0.835617	0  	0.835617	0.835617
173	6     	0.835617	0  	0.835617	0.835617
174	6     	0.835617	0  	0.835617	0.835617
175	8     	0.840179	0  	0.840179	0.840179
176	4     	0.840179	0  	0.840179	0.840179
177	4     	0.840179	0  	0.840179	0.840179
178	6     	0.840179	0  	0.840179	0.840179
179	6     	0.840179	0  	0.840179	0.840179
180	8     	0.840179	0  	0.840179	0.840179
181	10    	0.840179	0  	0.840179	0.840179
182	12    	0.840179	0  	0.840179	0.840179
183	16    	0.840179	0  	0.840179	0.840179
184	20    	0.840179	0  	0.840179	0.840179
185	24    	0.840179	0  	0.840179	0.840179
186	32    	0.840179	0  	0.840179	0.840179
187	40    	0.840179	0  	0.840179	0.840179
188	50    	0.840179	0  	0.840179	0.840179
189	62    	0.840179	0  	0.840179	0.840179
190	78    	0.844742	0  	0.844742	0.844742
191	32    	0.844742	0  	0.844742	0.844742
192	40    	0.844742	0  	0.844742	0.844742
193	50    	0.853882	0  	0.853882	0.853882
194	20    	0.853882	0  	0.853882	0.853882
195	24    	0.853882	0  	0.853882	0.853882
196	32    	0.853882	0  	0.853882	0.853882
197	40    	0.853882	0  	0.853882	0.853882
198	50    	0.853882	0  	0.853882	0.853882
199	62    	0.853882	0  	0.853882	0.853882
200	78    	0.853882	0  	0.853882	0.853882
201	98    	0.858444	0  	0.858444	0.858444
202	40    	0.858444	0  	0.858444	0.858444
203	50    	0.858444	0  	0.858444	0.858444
204	62    	0.858444	0  	0.858444	0.858444
205	78    	0.858444	0  	0.858444	0.858444
206	98    	0.858444	0  	0.858444	0.858444
207	124   	0.863007	0  	0.863007	0.863007
208	50    	0.863007	0  	0.863007	0.863007
209	62    	0.863007	0  	0.863007	0.863007
210	78    	0.867584	0  	0.867584	0.867584
211	32    	0.867584	0  	0.867584	0.867584
212	40    	0.872147	0  	0.872147	0.872147
213	16    	0.872147	0  	0.872147	0.872147
214	20    	0.872147	0  	0.872147	0.872147
215	24    	0.872147	0  	0.872147	0.872147
216	32    	0.872147	0  	0.872147	0.872147
217	40    	0.872147	0  	0.872147	0.872147
218	50    	0.872147	0  	0.872147	0.872147
219	62    	0.872147	0  	0.872147	0.872147
220	78    	0.872147	0  	0.872147	0.872147
221	98    	0.872147	0  	0.872147	0.872147
222	124   	0.872147	0  	0.872147	0.872147
223	156   	0.876709	0  	0.876709	0.876709
224	62    	0.876709	0  	0.876709	0.876709
225	78    	0.876709	0  	0.876709	0.876709
226	98    	0.876709	0  	0.876709	0.876709
227	124   	0.876709	0  	0.876709	0.876709
228	156   	0.876709	0  	0.876709	0.876709
229	196   	0.876709	0  	0.876709	0.876709
230	246   	0.881271	0  	0.881271	0.881271
231	98    	0.885849	0  	0.885849	0.885849
232	40    	0.885849	0  	0.885849	0.885849
233	50    	0.885849	0  	0.885849	0.885849
234	62    	0.885849	0  	0.885849	0.885849
235	78    	0.885849	0  	0.885849	0.885849
236	98    	0.885849	0  	0.885849	0.885849
237	124   	0.885849	0  	0.885849	0.885849
238	156   	0.885849	0  	0.885849	0.885849
239	196   	0.885849	0  	0.885849	0.885849
240	246   	0.890411	0  	0.890411	0.890411
241	98    	0.890411	0  	0.890411	0.890411
242	124   	0.890411	0  	0.890411	0.890411
243	156   	0.890411	0  	0.890411	0.890411
244	196   	0.890411	0  	0.890411	0.890411
245	246   	0.894974	0  	0.894974	0.894974
246	98    	0.894974	0  	0.894974	0.894974
247	124   	0.894974	0  	0.894974	0.894974
248	156   	0.894974	0  	0.894974	0.894974
249	196   	0.894974	0  	0.894974	0.894974
250	246   	0.894974	0  	0.894974	0.894974
251	308   	0.894974	0  	0.894974	0.894974
252	388   	0.894974	0  	0.894974	0.894974
253	488   	0.894974	0  	0.894974	0.894974
254	512   	0.894974	0  	0.894974	0.894974
255	512   	0.894974	0  	0.894974	0.894974
256	512   	0.894974	0  	0.894974	0.894974
257	512   	0.894974	0  	0.894974	0.894974
