gen	nevals	avg     	std	min     	max     
0  	1     	0.621948	0  	0.621948	0.621948
1  	2     	0.621948	0  	0.621948	0.621948
2  	2     	0.621948	0  	0.621948	0.621948
3  	4     	0.621948	0  	0.621948	0.621948
4  	4     	0.640244	0  	0.640244	0.640244
5  	2     	0.640244	0  	0.640244	0.640244
6  	2     	0.640244	0  	0.640244	0.640244
7  	4     	0.640244	0  	0.640244	0.640244
8  	4     	0.640244	0  	0.640244	0.640244
9  	6     	0.640244	0  	0.640244	0.640244
10 	6     	0.640244	0  	0.640244	0.640244
11 	8     	0.640244	0  	0.640244	0.640244
12 	10    	0.658539	0  	0.658539	0.658539
13 	4     	0.658539	0  	0.658539	0.658539
14 	6     	0.664627	0  	0.664627	0.664627
15 	2     	0.664627	0  	0.664627	0.664627
16 	2     	0.664627	0  	0.664627	0.664627
17 	4     	0.664627	0  	0.664627	0.664627
18 	4     	0.664627	0  	0.664627	0.664627
19 	6     	0.670731	0  	0.670731	0.670731
20 	2     	0.676834	0  	0.676834	0.676834
21 	2     	0.676834	0  	0.676834	0.676834
22 	2     	0.676834	0  	0.676834	0.676834
23 	4     	0.689026	0  	0.689026	0.689026
24 	2     	0.689026	0  	0.689026	0.689026
25 	2     	0.689026	0  	0.689026	0.689026
26 	4     	0.689026	0  	0.689026	0.689026
27 	4     	0.701218	0  	0.701218	0.701218
28 	2     	0.701218	0  	0.701218	0.701218
29 	2     	0.707321	0  	0.707321	0.707321
30 	2     	0.707321	0  	0.707321	0.707321
31 	2     	0.707321	0  	0.707321	0.707321
32 	4     	0.707321	0  	0.707321	0.707321
33 	4     	0.707321	0  	0.707321	0.707321
34 	6     	0.713409	0  	0.713409	0.713409
35 	2     	0.713409	0  	0.713409	0.713409
36 	2     	0.713409	0  	0.713409	0.713409
37 	4     	0.713409	0  	0.713409	0.713409
38 	4     	0.713409	0  	0.713409	0.713409
39 	6     	0.725616	0  	0.725616	0.725616
40 	2     	0.725616	0  	0.725616	0.725616
41 	2     	0.725616	0  	0.725616	0.725616
42 	4     	0.725616	0  	0.725616	0.725616
43 	4     	0.725616	0  	0.725616	0.725616
44 	6     	0.725616	0  	0.725616	0.725616
45 	6     	0.725616	0  	0.725616	0.725616
46 	8     	0.725616	0  	0.725616	0.725616
47 	10    	0.725616	0  	0.725616	0.725616
48 	12    	0.731705	0  	0.731705	0.731705
49 	6     	0.731705	0  	0.731705	0.731705
50 	6     	0.731705	0  	0.731705	0.731705
51 	8     	0.731705	0  	0.731705	0.731705
52 	10    	0.731705	0  	0.731705	0.731705
53 	12    	0.731705	0  	0.731705	0.731705
54 	16    	0.743896	0  	0.743896	0.743896
55 	6     	0.756104	0  	0.756104	0.756104
56 	2     	0.762192	0  	0.762192	0.762192
57 	2     	0.762192	0  	0.762192	0.762192
58 	2     	0.762192	0  	0.762192	0.762192
59 	4     	0.774384	0  	0.774384	0.774384
60 	2     	0.774384	0  	0.774384	0.774384
61 	2     	0.774384	0  	0.774384	0.774384
62 	4     	0.774384	0  	0.774384	0.774384
63 	4     	0.774384	0  	0.774384	0.774384
64 	6     	0.786591	0  	0.786591	0.786591
65 	2     	0.786591	0  	0.786591	0.786591
66 	2     	0.792679	0  	0.792679	0.792679
67 	2     	0.792679	0  	0.792679	0.792679
68 	2     	0.792679	0  	0.792679	0.792679
69 	4     	0.792679	0  	0.792679	0.792679
70 	4     	0.792679	0  	0.792679	0.792679
71 	6     	0.798782	0  	0.798782	0.798782
72 	2     	0.798782	0  	0.798782	0.798782
73 	2     	0.798782	0  	0.798782	0.798782
74 	4     	0.798782	0  	0.798782	0.798782
75 	4     	0.798782	0  	0.798782	0.798782
76 	6     	0.798782	0  	0.798782	0.798782
77 	6     	0.798782	0  	0.798782	0.798782
78 	8     	0.798782	0  	0.798782	0.798782
79 	10    	0.804871	0  	0.804871	0.804871
80 	4     	0.804871	0  	0.804871	0.804871
81 	6     	0.804871	0  	0.804871	0.804871
82 	6     	0.804871	0  	0.804871	0.804871
83 	8     	0.804871	0  	0.804871	0.804871
84 	10    	0.804871	0  	0.804871	0.804871
85 	12    	0.804871	0  	0.804871	0.804871
86 	16    	0.804871	0  	0.804871	0.804871
87 	20    	0.810974	0  	0.810974	0.810974
88 	8     	0.817078	0  	0.817078	0.817078
89 	4     	0.817078	0  	0.817078	0.817078
90 	4     	0.823166	0  	0.823166	0.823166
91 	2     	0.823166	0  	0.823166	0.823166
92 	2     	0.823166	0  	0.823166	0.823166
93 	4     	0.823166	0  	0.823166	0.823166
94 	4     	0.823166	0  	0.823166	0.823166
95 	6     	0.829269	0  	0.829269	0.829269
96 	2     	0.829269	0  	0.829269	0.829269
97 	2     	0.829269	0  	0.829269	0.829269
98 	4     	0.829269	0  	0.829269	0.829269
99 	4     	0.829269	0  	0.829269	0.829269
100	6     	0.829269	0  	0.829269	0.829269
101	6     	0.835373	0  	0.835373	0.835373
102	2     	0.835373	0  	0.835373	0.835373
103	4     	0.835373	0  	0.835373	0.835373
104	4     	0.835373	0  	0.835373	0.835373
105	6     	0.835373	0  	0.835373	0.835373
106	6     	0.835373	0  	0.835373	0.835373
107	8     	0.835373	0  	0.835373	0.835373
108	10    	0.847565	0  	0.847565	0.847565
109	4     	0.847565	0  	0.847565	0.847565
110	6     	0.853653	0  	0.853653	0.853653
111	2     	0.853653	0  	0.853653	0.853653
112	2     	0.853653	0  	0.853653	0.853653
113	4     	0.853653	0  	0.853653	0.853653
114	4     	0.853653	0  	0.853653	0.853653
115	6     	0.853653	0  	0.853653	0.853653
116	6     	0.853653	0  	0.853653	0.853653
117	8     	0.859756	0  	0.859756	0.859756
118	4     	0.859756	0  	0.859756	0.859756
119	4     	0.859756	0  	0.859756	0.859756
120	6     	0.859756	0  	0.859756	0.859756
121	6     	0.859756	0  	0.859756	0.859756
122	8     	0.859756	0  	0.859756	0.859756
123	10    	0.86586 	0  	0.86586 	0.86586 
124	4     	0.86586 	0  	0.86586 	0.86586 
125	6     	0.86586 	0  	0.86586 	0.86586 
126	6     	0.86586 	0  	0.86586 	0.86586 
127	8     	0.86586 	0  	0.86586 	0.86586 
128	10    	0.86586 	0  	0.86586 	0.86586 
129	12    	0.871948	0  	0.871948	0.871948
130	6     	0.871948	0  	0.871948	0.871948
131	6     	0.871948	0  	0.871948	0.871948
132	8     	0.871948	0  	0.871948	0.871948
133	10    	0.878052	0  	0.878052	0.878052
134	4     	0.878052	0  	0.878052	0.878052
135	6     	0.878052	0  	0.878052	0.878052
136	6     	0.878052	0  	0.878052	0.878052
137	8     	0.878052	0  	0.878052	0.878052
138	10    	0.878052	0  	0.878052	0.878052
139	12    	0.890244	0  	0.890244	0.890244
140	6     	0.890244	0  	0.890244	0.890244
141	6     	0.890244	0  	0.890244	0.890244
142	8     	0.890244	0  	0.890244	0.890244
143	10    	0.896347	0  	0.896347	0.896347
144	4     	0.896347	0  	0.896347	0.896347
145	6     	0.896347	0  	0.896347	0.896347
146	6     	0.896347	0  	0.896347	0.896347
147	8     	0.896347	0  	0.896347	0.896347
148	10    	0.902435	0  	0.902435	0.902435
149	4     	0.902435	0  	0.902435	0.902435
150	6     	0.902435	0  	0.902435	0.902435
151	6     	0.902435	0  	0.902435	0.902435
152	8     	0.902435	0  	0.902435	0.902435
153	10    	0.902435	0  	0.902435	0.902435
154	12    	0.908539	0  	0.908539	0.908539
155	6     	0.908539	0  	0.908539	0.908539
156	6     	0.908539	0  	0.908539	0.908539
157	8     	0.908539	0  	0.908539	0.908539
158	10    	0.908539	0  	0.908539	0.908539
159	12    	0.908539	0  	0.908539	0.908539
160	16    	0.908539	0  	0.908539	0.908539
161	20    	0.908539	0  	0.908539	0.908539
162	24    	0.908539	0  	0.908539	0.908539
163	32    	0.908539	0  	0.908539	0.908539
164	40    	0.908539	0  	0.908539	0.908539
165	50    	0.914627	0  	0.914627	0.914627
166	20    	0.914627	0  	0.914627	0.914627
167	24    	0.914627	0  	0.914627	0.914627
168	32    	0.914627	0  	0.914627	0.914627
169	40    	0.914627	0  	0.914627	0.914627
170	50    	0.914627	0  	0.914627	0.914627
171	62    	0.914627	0  	0.914627	0.914627
172	78    	0.914627	0  	0.914627	0.914627
173	98    	0.920731	0  	0.920731	0.920731
174	40    	0.920731	0  	0.920731	0.920731
175	50    	0.920731	0  	0.920731	0.920731
176	62    	0.920731	0  	0.920731	0.920731
177	78    	0.920731	0  	0.920731	0.920731
178	98    	0.920731	0  	0.920731	0.920731
179	124   	0.920731	0  	0.920731	0.920731
180	156   	0.920731	0  	0.920731	0.920731
181	196   	0.920731	0  	0.920731	0.920731
182	246   	0.920731	0  	0.920731	0.920731
183	308   	0.920731	0  	0.920731	0.920731
184	388   	0.920731	0  	0.920731	0.920731
185	392   	0.920731	0  	0.920731	0.920731
186	392   	0.920731	0  	0.920731	0.920731
187	392   	0.920731	0  	0.920731	0.920731
188	392   	0.920731	0  	0.920731	0.920731
189	392   	0.920731	0  	0.920731	0.920731
190	392   	0.920731	0  	0.920731	0.920731
191	392   	0.920731	0  	0.920731	0.920731
192	392   	0.920731	0  	0.920731	0.920731
193	392   	0.920731	0  	0.920731	0.920731
194	392   	0.920731	0  	0.920731	0.920731
195	392   	0.920731	0  	0.920731	0.920731
196	392   	0.920731	0  	0.920731	0.920731
197	392   	0.920731	0  	0.920731	0.920731
198	392   	0.920731	0  	0.920731	0.920731
199	392   	0.920731	0  	0.920731	0.920731
200	392   	0.920731	0  	0.920731	0.920731
201	392   	0.920731	0  	0.920731	0.920731
202	392   	0.920731	0  	0.920731	0.920731
