gen	nevals	avg     	std	min     	max     
0  	1     	0.518066	0  	0.518066	0.518066
1  	2     	0.518066	0  	0.518066	0.518066
2  	2     	0.518066	0  	0.518066	0.518066
3  	4     	0.518066	0  	0.518066	0.518066
4  	4     	0.542175	0  	0.542175	0.542175
5  	2     	0.542175	0  	0.542175	0.542175
6  	2     	0.542175	0  	0.542175	0.542175
7  	4     	0.566269	0  	0.566269	0.566269
8  	2     	0.566269	0  	0.566269	0.566269
9  	2     	0.566269	0  	0.566269	0.566269
10 	4     	0.662643	0  	0.662643	0.662643
11 	2     	0.662643	0  	0.662643	0.662643
12 	2     	0.662643	0  	0.662643	0.662643
13 	4     	0.686752	0  	0.686752	0.686752
14 	2     	0.710846	0  	0.710846	0.710846
15 	2     	0.710846	0  	0.710846	0.710846
16 	2     	0.710846	0  	0.710846	0.710846
17 	4     	0.73494 	0  	0.73494 	0.73494 
18 	2     	0.73494 	0  	0.73494 	0.73494 
19 	2     	0.73494 	0  	0.73494 	0.73494 
20 	4     	0.73494 	0  	0.73494 	0.73494 
21 	4     	0.73494 	0  	0.73494 	0.73494 
22 	6     	0.73494 	0  	0.73494 	0.73494 
23 	6     	0.759033	0  	0.759033	0.759033
24 	2     	0.759033	0  	0.759033	0.759033
25 	4     	0.759033	0  	0.759033	0.759033
26 	4     	0.759033	0  	0.759033	0.759033
27 	6     	0.783127	0  	0.783127	0.783127
28 	2     	0.783127	0  	0.783127	0.783127
29 	2     	0.783127	0  	0.783127	0.783127
30 	4     	0.783127	0  	0.783127	0.783127
31 	4     	0.783127	0  	0.783127	0.783127
32 	6     	0.831329	0  	0.831329	0.831329
33 	2     	0.831329	0  	0.831329	0.831329
34 	2     	0.831329	0  	0.831329	0.831329
35 	4     	0.831329	0  	0.831329	0.831329
36 	4     	0.831329	0  	0.831329	0.831329
37 	6     	0.831329	0  	0.831329	0.831329
38 	6     	0.831329	0  	0.831329	0.831329
39 	8     	0.855423	0  	0.855423	0.855423
40 	4     	0.855423	0  	0.855423	0.855423
41 	4     	0.855423	0  	0.855423	0.855423
42 	6     	0.855423	0  	0.855423	0.855423
43 	6     	0.855423	0  	0.855423	0.855423
44 	8     	0.855423	0  	0.855423	0.855423
45 	10    	0.855423	0  	0.855423	0.855423
46 	12    	0.879517	0  	0.879517	0.879517
47 	6     	0.879517	0  	0.879517	0.879517
48 	6     	0.879517	0  	0.879517	0.879517
49 	8     	0.879517	0  	0.879517	0.879517
50 	10    	0.879517	0  	0.879517	0.879517
51 	12    	0.879517	0  	0.879517	0.879517
52 	16    	0.879517	0  	0.879517	0.879517
53 	20    	0.879517	0  	0.879517	0.879517
54 	24    	0.879517	0  	0.879517	0.879517
55 	32    	0.879517	0  	0.879517	0.879517
56 	40    	0.879517	0  	0.879517	0.879517
57 	50    	0.879517	0  	0.879517	0.879517
58 	62    	0.879517	0  	0.879517	0.879517
59 	78    	0.90361 	0  	0.90361 	0.90361 
60 	32    	0.927704	0  	0.927704	0.927704
61 	12    	0.927704	0  	0.927704	0.927704
62 	16    	0.927704	0  	0.927704	0.927704
63 	20    	0.927704	0  	0.927704	0.927704
64 	24    	0.951813	0  	0.951813	0.951813
65 	10    	0.951813	0  	0.951813	0.951813
66 	12    	0.951813	0  	0.951813	0.951813
67 	16    	0.951813	0  	0.951813	0.951813
68 	20    	0.951813	0  	0.951813	0.951813
69 	24    	0.951813	0  	0.951813	0.951813
70 	32    	0.951813	0  	0.951813	0.951813
71 	40    	0.975906	0  	0.975906	0.975906
72 	16    	0.975906	0  	0.975906	0.975906
73 	20    	0.975906	0  	0.975906	0.975906
74 	24    	0.975906	0  	0.975906	0.975906
75 	32    	0.975906	0  	0.975906	0.975906
76 	40    	0.975906	0  	0.975906	0.975906
77 	50    	0.975906	0  	0.975906	0.975906
78 	62    	0.975906	0  	0.975906	0.975906
79 	78    	0.975906	0  	0.975906	0.975906
80 	98    	0.975906	0  	0.975906	0.975906
81 	98    	0.975906	0  	0.975906	0.975906
82 	98    	0.975906	0  	0.975906	0.975906
83 	98    	0.975906	0  	0.975906	0.975906
84 	98    	0.975906	0  	0.975906	0.975906
85 	98    	0.975906	0  	0.975906	0.975906
86 	98    	0.975906	0  	0.975906	0.975906
87 	98    	0.975906	0  	0.975906	0.975906
88 	98    	0.975906	0  	0.975906	0.975906
89 	98    	0.975906	0  	0.975906	0.975906
90 	98    	0.975906	0  	0.975906	0.975906
91 	98    	0.975906	0  	0.975906	0.975906
92 	98    	0.975906	0  	0.975906	0.975906
93 	98    	0.975906	0  	0.975906	0.975906
94 	98    	0.975906	0  	0.975906	0.975906
95 	98    	0.975906	0  	0.975906	0.975906
96 	98    	0.975906	0  	0.975906	0.975906
97 	98    	0.975906	0  	0.975906	0.975906
98 	98    	0.975906	0  	0.975906	0.975906
99 	98    	0.975906	0  	0.975906	0.975906
100	98    	0.975906	0  	0.975906	0.975906
101	98    	0.975906	0  	0.975906	0.975906
102	98    	0.975906	0  	0.975906	0.975906
103	98    	0.975906	0  	0.975906	0.975906
104	98    	0.975906	0  	0.975906	0.975906
105	98    	0.975906	0  	0.975906	0.975906
106	98    	0.975906	0  	0.975906	0.975906
107	98    	0.975906	0  	0.975906	0.975906
108	98    	0.975906	0  	0.975906	0.975906
109	98    	0.975906	0  	0.975906	0.975906
110	98    	0.975906	0  	0.975906	0.975906
111	98    	0.975906	0  	0.975906	0.975906
112	98    	0.975906	0  	0.975906	0.975906
113	98    	0.975906	0  	0.975906	0.975906
114	98    	0.975906	0  	0.975906	0.975906
115	98    	0.975906	0  	0.975906	0.975906
116	98    	0.975906	0  	0.975906	0.975906
117	98    	0.975906	0  	0.975906	0.975906
118	98    	0.975906	0  	0.975906	0.975906
119	98    	0.975906	0  	0.975906	0.975906
120	98    	0.975906	0  	0.975906	0.975906
121	98    	0.975906	0  	0.975906	0.975906
122	98    	0.975906	0  	0.975906	0.975906
123	98    	0.975906	0  	0.975906	0.975906
124	98    	0.975906	0  	0.975906	0.975906
125	98    	0.975906	0  	0.975906	0.975906
126	98    	0.975906	0  	0.975906	0.975906
127	98    	0.975906	0  	0.975906	0.975906
128	98    	0.975906	0  	0.975906	0.975906
129	98    	0.975906	0  	0.975906	0.975906
130	98    	0.975906	0  	0.975906	0.975906
131	98    	0.975906	0  	0.975906	0.975906
132	98    	0.975906	0  	0.975906	0.975906
133	98    	0.975906	0  	0.975906	0.975906
134	98    	0.975906	0  	0.975906	0.975906
135	98    	0.975906	0  	0.975906	0.975906
136	98    	0.975906	0  	0.975906	0.975906
137	98    	0.975906	0  	0.975906	0.975906
138	98    	0.975906	0  	0.975906	0.975906
139	98    	0.975906	0  	0.975906	0.975906
140	98    	0.975906	0  	0.975906	0.975906
141	98    	0.975906	0  	0.975906	0.975906
142	98    	0.975906	0  	0.975906	0.975906
143	98    	0.975906	0  	0.975906	0.975906
144	98    	0.975906	0  	0.975906	0.975906
145	98    	0.975906	0  	0.975906	0.975906
146	98    	0.975906	0  	0.975906	0.975906
147	98    	0.975906	0  	0.975906	0.975906
148	98    	0.975906	0  	0.975906	0.975906
149	98    	0.975906	0  	0.975906	0.975906
150	98    	0.975906	0  	0.975906	0.975906
151	98    	0.975906	0  	0.975906	0.975906
152	98    	0.975906	0  	0.975906	0.975906
153	98    	0.975906	0  	0.975906	0.975906
154	98    	0.975906	0  	0.975906	0.975906
155	98    	0.975906	0  	0.975906	0.975906
156	98    	0.975906	0  	0.975906	0.975906
157	98    	0.975906	0  	0.975906	0.975906
158	98    	0.975906	0  	0.975906	0.975906
159	98    	0.975906	0  	0.975906	0.975906
160	98    	0.975906	0  	0.975906	0.975906
161	98    	0.975906	0  	0.975906	0.975906
162	98    	0.975906	0  	0.975906	0.975906
163	98    	0.975906	0  	0.975906	0.975906
164	98    	0.975906	0  	0.975906	0.975906
165	98    	0.975906	0  	0.975906	0.975906
166	98    	0.975906	0  	0.975906	0.975906
167	98    	0.975906	0  	0.975906	0.975906
168	98    	0.975906	0  	0.975906	0.975906
169	98    	0.975906	0  	0.975906	0.975906
170	98    	0.975906	0  	0.975906	0.975906
