gen	nevals	avg     	std	min     	max     
0  	1     	0.572601	0  	0.572601	0.572601
1  	2     	0.572601	0  	0.572601	0.572601
2  	2     	0.572601	0  	0.572601	0.572601
3  	4     	0.572601	0  	0.572601	0.572601
4  	4     	0.572601	0  	0.572601	0.572601
5  	6     	0.574646	0  	0.574646	0.574646
6  	2     	0.574646	0  	0.574646	0.574646
7  	2     	0.574646	0  	0.574646	0.574646
8  	4     	0.576691	0  	0.576691	0.576691
9  	2     	0.576691	0  	0.576691	0.576691
10 	2     	0.576691	0  	0.576691	0.576691
11 	4     	0.576691	0  	0.576691	0.576691
12 	4     	0.578735	0  	0.578735	0.578735
13 	2     	0.578735	0  	0.578735	0.578735
14 	2     	0.578735	0  	0.578735	0.578735
15 	4     	0.58078 	0  	0.58078 	0.58078 
16 	2     	0.58078 	0  	0.58078 	0.58078 
17 	2     	0.582825	0  	0.582825	0.582825
18 	2     	0.582825	0  	0.582825	0.582825
19 	2     	0.582825	0  	0.582825	0.582825
20 	4     	0.582825	0  	0.582825	0.582825
21 	4     	0.582825	0  	0.582825	0.582825
22 	6     	0.584869	0  	0.584869	0.584869
23 	2     	0.584869	0  	0.584869	0.584869
24 	2     	0.586914	0  	0.586914	0.586914
25 	2     	0.586914	0  	0.586914	0.586914
26 	2     	0.586914	0  	0.586914	0.586914
27 	4     	0.586914	0  	0.586914	0.586914
28 	4     	0.586914	0  	0.586914	0.586914
29 	6     	0.591003	0  	0.591003	0.591003
30 	2     	0.591003	0  	0.591003	0.591003
31 	2     	0.591003	0  	0.591003	0.591003
32 	4     	0.591003	0  	0.591003	0.591003
33 	4     	0.591003	0  	0.591003	0.591003
34 	6     	0.597137	0  	0.597137	0.597137
35 	2     	0.597137	0  	0.597137	0.597137
36 	2     	0.597137	0  	0.597137	0.597137
37 	4     	0.597137	0  	0.597137	0.597137
38 	4     	0.597137	0  	0.597137	0.597137
39 	6     	0.597137	0  	0.597137	0.597137
40 	6     	0.601227	0  	0.601227	0.601227
41 	2     	0.601227	0  	0.601227	0.601227
42 	4     	0.603271	0  	0.603271	0.603271
43 	2     	0.603271	0  	0.603271	0.603271
44 	2     	0.603271	0  	0.603271	0.603271
45 	4     	0.603271	0  	0.603271	0.603271
46 	4     	0.603271	0  	0.603271	0.603271
47 	6     	0.605316	0  	0.605316	0.605316
48 	2     	0.605316	0  	0.605316	0.605316
49 	2     	0.605316	0  	0.605316	0.605316
50 	4     	0.607361	0  	0.607361	0.607361
51 	2     	0.607361	0  	0.607361	0.607361
52 	2     	0.607361	0  	0.607361	0.607361
53 	4     	0.61145 	0  	0.61145 	0.61145 
54 	2     	0.61145 	0  	0.61145 	0.61145 
55 	2     	0.61145 	0  	0.61145 	0.61145 
56 	4     	0.61554 	0  	0.61554 	0.61554 
57 	2     	0.61554 	0  	0.61554 	0.61554 
58 	2     	0.61554 	0  	0.61554 	0.61554 
59 	4     	0.617584	0  	0.617584	0.617584
60 	2     	0.617584	0  	0.617584	0.617584
61 	2     	0.621674	0  	0.621674	0.621674
62 	2     	0.621674	0  	0.621674	0.621674
63 	2     	0.621674	0  	0.621674	0.621674
64 	4     	0.623718	0  	0.623718	0.623718
65 	2     	0.623718	0  	0.623718	0.623718
66 	2     	0.623718	0  	0.623718	0.623718
67 	4     	0.625763	0  	0.625763	0.625763
68 	2     	0.625763	0  	0.625763	0.625763
69 	2     	0.625763	0  	0.625763	0.625763
70 	4     	0.625763	0  	0.625763	0.625763
71 	4     	0.627808	0  	0.627808	0.627808
72 	2     	0.631897	0  	0.631897	0.631897
73 	2     	0.631897	0  	0.631897	0.631897
74 	2     	0.631897	0  	0.631897	0.631897
75 	4     	0.631897	0  	0.631897	0.631897
76 	4     	0.631897	0  	0.631897	0.631897
77 	6     	0.633942	0  	0.633942	0.633942
78 	2     	0.633942	0  	0.633942	0.633942
79 	2     	0.638031	0  	0.638031	0.638031
80 	2     	0.638031	0  	0.638031	0.638031
81 	2     	0.638031	0  	0.638031	0.638031
82 	4     	0.638031	0  	0.638031	0.638031
83 	4     	0.638031	0  	0.638031	0.638031
84 	6     	0.638031	0  	0.638031	0.638031
85 	6     	0.64212 	0  	0.64212 	0.64212 
86 	2     	0.64212 	0  	0.64212 	0.64212 
87 	4     	0.64212 	0  	0.64212 	0.64212 
88 	4     	0.64621 	0  	0.64621 	0.64621 
89 	2     	0.64621 	0  	0.64621 	0.64621 
90 	2     	0.648254	0  	0.648254	0.648254
91 	2     	0.648254	0  	0.648254	0.648254
92 	2     	0.648254	0  	0.648254	0.648254
93 	4     	0.648254	0  	0.648254	0.648254
94 	4     	0.648254	0  	0.648254	0.648254
95 	6     	0.648254	0  	0.648254	0.648254
96 	6     	0.648254	0  	0.648254	0.648254
97 	8     	0.652359	0  	0.652359	0.652359
98 	4     	0.656448	0  	0.656448	0.656448
99 	2     	0.656448	0  	0.656448	0.656448
100	2     	0.656448	0  	0.656448	0.656448
101	4     	0.656448	0  	0.656448	0.656448
102	4     	0.656448	0  	0.656448	0.656448
103	6     	0.656448	0  	0.656448	0.656448
104	6     	0.656448	0  	0.656448	0.656448
105	8     	0.658493	0  	0.658493	0.658493
106	4     	0.658493	0  	0.658493	0.658493
107	4     	0.666672	0  	0.666672	0.666672
108	2     	0.666672	0  	0.666672	0.666672
109	2     	0.666672	0  	0.666672	0.666672
110	4     	0.666672	0  	0.666672	0.666672
111	4     	0.666672	0  	0.666672	0.666672
112	6     	0.666672	0  	0.666672	0.666672
113	6     	0.666672	0  	0.666672	0.666672
114	8     	0.666672	0  	0.666672	0.666672
115	10    	0.670761	0  	0.670761	0.670761
116	4     	0.670761	0  	0.670761	0.670761
117	6     	0.672806	0  	0.672806	0.672806
118	2     	0.672806	0  	0.672806	0.672806
119	2     	0.672806	0  	0.672806	0.672806
120	4     	0.672806	0  	0.672806	0.672806
121	4     	0.676895	0  	0.676895	0.676895
122	2     	0.676895	0  	0.676895	0.676895
123	2     	0.67894 	0  	0.67894 	0.67894 
124	2     	0.67894 	0  	0.67894 	0.67894 
125	2     	0.67894 	0  	0.67894 	0.67894 
126	4     	0.680984	0  	0.680984	0.680984
127	2     	0.680984	0  	0.680984	0.680984
128	2     	0.680984	0  	0.680984	0.680984
129	4     	0.680984	0  	0.680984	0.680984
130	4     	0.683029	0  	0.683029	0.683029
131	2     	0.683029	0  	0.683029	0.683029
132	2     	0.683029	0  	0.683029	0.683029
133	4     	0.687119	0  	0.687119	0.687119
134	2     	0.687119	0  	0.687119	0.687119
135	2     	0.687119	0  	0.687119	0.687119
136	4     	0.687119	0  	0.687119	0.687119
137	4     	0.689163	0  	0.689163	0.689163
138	2     	0.689163	0  	0.689163	0.689163
139	2     	0.689163	0  	0.689163	0.689163
140	4     	0.689163	0  	0.689163	0.689163
141	4     	0.691208	0  	0.691208	0.691208
142	2     	0.691208	0  	0.691208	0.691208
143	2     	0.691208	0  	0.691208	0.691208
144	4     	0.693253	0  	0.693253	0.693253
145	2     	0.693253	0  	0.693253	0.693253
146	2     	0.693253	0  	0.693253	0.693253
147	4     	0.693253	0  	0.693253	0.693253
148	4     	0.693253	0  	0.693253	0.693253
149	6     	0.693253	0  	0.693253	0.693253
150	6     	0.695297	0  	0.695297	0.695297
151	2     	0.695297	0  	0.695297	0.695297
152	4     	0.695297	0  	0.695297	0.695297
153	4     	0.695297	0  	0.695297	0.695297
154	6     	0.695297	0  	0.695297	0.695297
155	6     	0.697342	0  	0.697342	0.697342
156	2     	0.697342	0  	0.697342	0.697342
157	4     	0.699387	0  	0.699387	0.699387
158	2     	0.699387	0  	0.699387	0.699387
159	2     	0.699387	0  	0.699387	0.699387
160	4     	0.699387	0  	0.699387	0.699387
161	4     	0.699387	0  	0.699387	0.699387
162	6     	0.699387	0  	0.699387	0.699387
163	6     	0.699387	0  	0.699387	0.699387
164	8     	0.701431	0  	0.701431	0.701431
165	4     	0.701431	0  	0.701431	0.701431
166	4     	0.705521	0  	0.705521	0.705521
167	2     	0.705521	0  	0.705521	0.705521
168	2     	0.705521	0  	0.705521	0.705521
169	4     	0.705521	0  	0.705521	0.705521
170	4     	0.705521	0  	0.705521	0.705521
171	6     	0.707565	0  	0.707565	0.707565
172	2     	0.70961 	0  	0.70961 	0.70961 
173	2     	0.70961 	0  	0.70961 	0.70961 
174	2     	0.70961 	0  	0.70961 	0.70961 
175	4     	0.70961 	0  	0.70961 	0.70961 
176	4     	0.711655	0  	0.711655	0.711655
177	2     	0.711655	0  	0.711655	0.711655
178	2     	0.711655	0  	0.711655	0.711655
179	4     	0.711655	0  	0.711655	0.711655
180	4     	0.711655	0  	0.711655	0.711655
181	6     	0.711655	0  	0.711655	0.711655
182	6     	0.715744	0  	0.715744	0.715744
183	2     	0.715744	0  	0.715744	0.715744
184	4     	0.717789	0  	0.717789	0.717789
185	2     	0.717789	0  	0.717789	0.717789
186	2     	0.717789	0  	0.717789	0.717789
187	4     	0.717789	0  	0.717789	0.717789
188	4     	0.717789	0  	0.717789	0.717789
189	6     	0.719833	0  	0.719833	0.719833
190	2     	0.719833	0  	0.719833	0.719833
191	2     	0.719833	0  	0.719833	0.719833
192	4     	0.721878	0  	0.721878	0.721878
193	2     	0.721878	0  	0.721878	0.721878
194	2     	0.721878	0  	0.721878	0.721878
195	4     	0.721878	0  	0.721878	0.721878
196	4     	0.721878	0  	0.721878	0.721878
197	6     	0.721878	0  	0.721878	0.721878
198	6     	0.723923	0  	0.723923	0.723923
199	2     	0.723923	0  	0.723923	0.723923
200	4     	0.723923	0  	0.723923	0.723923
201	4     	0.725967	0  	0.725967	0.725967
202	2     	0.725967	0  	0.725967	0.725967
203	2     	0.725967	0  	0.725967	0.725967
204	4     	0.725967	0  	0.725967	0.725967
205	4     	0.728012	0  	0.728012	0.728012
206	2     	0.734146	0  	0.734146	0.734146
207	2     	0.734146	0  	0.734146	0.734146
208	2     	0.734146	0  	0.734146	0.734146
209	4     	0.734146	0  	0.734146	0.734146
210	4     	0.734146	0  	0.734146	0.734146
211	6     	0.734146	0  	0.734146	0.734146
212	6     	0.734146	0  	0.734146	0.734146
213	8     	0.734146	0  	0.734146	0.734146
214	10    	0.734146	0  	0.734146	0.734146
215	12    	0.734146	0  	0.734146	0.734146
216	16    	0.738235	0  	0.738235	0.738235
217	6     	0.738235	0  	0.738235	0.738235
218	8     	0.738235	0  	0.738235	0.738235
219	10    	0.738235	0  	0.738235	0.738235
220	12    	0.738235	0  	0.738235	0.738235
221	16    	0.74028 	0  	0.74028 	0.74028 
222	6     	0.742325	0  	0.742325	0.742325
223	2     	0.742325	0  	0.742325	0.742325
224	4     	0.742325	0  	0.742325	0.742325
225	4     	0.742325	0  	0.742325	0.742325
226	6     	0.74437 	0  	0.74437 	0.74437 
227	2     	0.74437 	0  	0.74437 	0.74437 
228	2     	0.74437 	0  	0.74437 	0.74437 
229	4     	0.74437 	0  	0.74437 	0.74437 
230	4     	0.746414	0  	0.746414	0.746414
231	2     	0.746414	0  	0.746414	0.746414
232	2     	0.746414	0  	0.746414	0.746414
233	4     	0.748459	0  	0.748459	0.748459
234	2     	0.748459	0  	0.748459	0.748459
235	2     	0.748459	0  	0.748459	0.748459
236	4     	0.748459	0  	0.748459	0.748459
237	4     	0.748459	0  	0.748459	0.748459
238	6     	0.752563	0  	0.752563	0.752563
239	2     	0.752563	0  	0.752563	0.752563
240	2     	0.752563	0  	0.752563	0.752563
241	4     	0.752563	0  	0.752563	0.752563
242	4     	0.752563	0  	0.752563	0.752563
243	6     	0.756653	0  	0.756653	0.756653
244	2     	0.756653	0  	0.756653	0.756653
245	2     	0.756653	0  	0.756653	0.756653
246	4     	0.756653	0  	0.756653	0.756653
247	4     	0.756653	0  	0.756653	0.756653
248	6     	0.756653	0  	0.756653	0.756653
249	6     	0.758698	0  	0.758698	0.758698
250	2     	0.758698	0  	0.758698	0.758698
251	4     	0.758698	0  	0.758698	0.758698
252	4     	0.758698	0  	0.758698	0.758698
253	6     	0.758698	0  	0.758698	0.758698
254	6     	0.758698	0  	0.758698	0.758698
255	8     	0.760742	0  	0.760742	0.760742
256	4     	0.760742	0  	0.760742	0.760742
257	4     	0.760742	0  	0.760742	0.760742
258	6     	0.760742	0  	0.760742	0.760742
259	6     	0.760742	0  	0.760742	0.760742
260	8     	0.764832	0  	0.764832	0.764832
261	4     	0.766876	0  	0.766876	0.766876
262	2     	0.766876	0  	0.766876	0.766876
263	2     	0.766876	0  	0.766876	0.766876
264	4     	0.766876	0  	0.766876	0.766876
265	4     	0.768921	0  	0.768921	0.768921
266	2     	0.768921	0  	0.768921	0.768921
267	2     	0.768921	0  	0.768921	0.768921
268	4     	0.768921	0  	0.768921	0.768921
269	4     	0.768921	0  	0.768921	0.768921
270	6     	0.770966	0  	0.770966	0.770966
271	2     	0.770966	0  	0.770966	0.770966
272	2     	0.770966	0  	0.770966	0.770966
273	4     	0.770966	0  	0.770966	0.770966
274	4     	0.77301 	0  	0.77301 	0.77301 
275	2     	0.77301 	0  	0.77301 	0.77301 
276	2     	0.77301 	0  	0.77301 	0.77301 
277	4     	0.77301 	0  	0.77301 	0.77301 
278	4     	0.77301 	0  	0.77301 	0.77301 
279	6     	0.77301 	0  	0.77301 	0.77301 
280	6     	0.77301 	0  	0.77301 	0.77301 
281	8     	0.77301 	0  	0.77301 	0.77301 
282	10    	0.775055	0  	0.775055	0.775055
283	4     	0.775055	0  	0.775055	0.775055
284	6     	0.7771  	0  	0.7771  	0.7771  
285	2     	0.7771  	0  	0.7771  	0.7771  
286	2     	0.7771  	0  	0.7771  	0.7771  
287	4     	0.7771  	0  	0.7771  	0.7771  
288	4     	0.779144	0  	0.779144	0.779144
289	2     	0.779144	0  	0.779144	0.779144
290	2     	0.779144	0  	0.779144	0.779144
291	4     	0.779144	0  	0.779144	0.779144
292	4     	0.779144	0  	0.779144	0.779144
293	6     	0.779144	0  	0.779144	0.779144
294	6     	0.781189	0  	0.781189	0.781189
295	2     	0.781189	0  	0.781189	0.781189
296	4     	0.781189	0  	0.781189	0.781189
297	4     	0.781189	0  	0.781189	0.781189
298	6     	0.781189	0  	0.781189	0.781189
299	6     	0.781189	0  	0.781189	0.781189
300	8     	0.783234	0  	0.783234	0.783234
301	4     	0.783234	0  	0.783234	0.783234
302	4     	0.783234	0  	0.783234	0.783234
303	6     	0.783234	0  	0.783234	0.783234
304	6     	0.783234	0  	0.783234	0.783234
305	8     	0.787323	0  	0.787323	0.787323
306	4     	0.787323	0  	0.787323	0.787323
307	4     	0.787323	0  	0.787323	0.787323
308	6     	0.787323	0  	0.787323	0.787323
309	6     	0.789368	0  	0.789368	0.789368
310	2     	0.789368	0  	0.789368	0.789368
311	4     	0.789368	0  	0.789368	0.789368
312	4     	0.789368	0  	0.789368	0.789368
313	6     	0.789368	0  	0.789368	0.789368
314	6     	0.791412	0  	0.791412	0.791412
315	2     	0.791412	0  	0.791412	0.791412
316	4     	0.791412	0  	0.791412	0.791412
317	4     	0.791412	0  	0.791412	0.791412
318	6     	0.791412	0  	0.791412	0.791412
319	6     	0.791412	0  	0.791412	0.791412
320	8     	0.793457	0  	0.793457	0.793457
321	4     	0.793457	0  	0.793457	0.793457
322	4     	0.793457	0  	0.793457	0.793457
323	6     	0.793457	0  	0.793457	0.793457
324	6     	0.793457	0  	0.793457	0.793457
325	8     	0.795502	0  	0.795502	0.795502
326	4     	0.795502	0  	0.795502	0.795502
327	4     	0.795502	0  	0.795502	0.795502
328	6     	0.795502	0  	0.795502	0.795502
329	6     	0.795502	0  	0.795502	0.795502
330	8     	0.797546	0  	0.797546	0.797546
331	4     	0.797546	0  	0.797546	0.797546
332	4     	0.797546	0  	0.797546	0.797546
333	6     	0.801636	0  	0.801636	0.801636
334	2     	0.801636	0  	0.801636	0.801636
335	2     	0.801636	0  	0.801636	0.801636
336	4     	0.801636	0  	0.801636	0.801636
337	4     	0.801636	0  	0.801636	0.801636
338	6     	0.801636	0  	0.801636	0.801636
339	6     	0.801636	0  	0.801636	0.801636
340	8     	0.801636	0  	0.801636	0.801636
341	10    	0.80368 	0  	0.80368 	0.80368 
342	4     	0.80368 	0  	0.80368 	0.80368 
343	6     	0.80368 	0  	0.80368 	0.80368 
344	6     	0.80368 	0  	0.80368 	0.80368 
345	8     	0.805725	0  	0.805725	0.805725
346	4     	0.805725	0  	0.805725	0.805725
347	4     	0.805725	0  	0.805725	0.805725
348	6     	0.809814	0  	0.809814	0.809814
349	2     	0.809814	0  	0.809814	0.809814
350	2     	0.809814	0  	0.809814	0.809814
351	4     	0.809814	0  	0.809814	0.809814
352	4     	0.809814	0  	0.809814	0.809814
353	6     	0.809814	0  	0.809814	0.809814
354	6     	0.809814	0  	0.809814	0.809814
355	8     	0.809814	0  	0.809814	0.809814
356	10    	0.809814	0  	0.809814	0.809814
357	12    	0.809814	0  	0.809814	0.809814
358	16    	0.809814	0  	0.809814	0.809814
359	20    	0.811859	0  	0.811859	0.811859
360	8     	0.813904	0  	0.813904	0.813904
361	4     	0.813904	0  	0.813904	0.813904
362	4     	0.813904	0  	0.813904	0.813904
363	6     	0.813904	0  	0.813904	0.813904
364	6     	0.813904	0  	0.813904	0.813904
365	8     	0.813904	0  	0.813904	0.813904
366	10    	0.815948	0  	0.815948	0.815948
367	4     	0.817993	0  	0.817993	0.817993
368	2     	0.817993	0  	0.817993	0.817993
369	2     	0.817993	0  	0.817993	0.817993
370	4     	0.820038	0  	0.820038	0.820038
371	2     	0.820038	0  	0.820038	0.820038
372	2     	0.820038	0  	0.820038	0.820038
373	4     	0.820038	0  	0.820038	0.820038
374	4     	0.820038	0  	0.820038	0.820038
375	6     	0.820038	0  	0.820038	0.820038
376	6     	0.820038	0  	0.820038	0.820038
377	8     	0.820038	0  	0.820038	0.820038
378	10    	0.820038	0  	0.820038	0.820038
379	12    	0.820038	0  	0.820038	0.820038
380	16    	0.824127	0  	0.824127	0.824127
381	6     	0.824127	0  	0.824127	0.824127
382	8     	0.824127	0  	0.824127	0.824127
383	10    	0.826172	0  	0.826172	0.826172
384	4     	0.826172	0  	0.826172	0.826172
385	6     	0.826172	0  	0.826172	0.826172
386	6     	0.826172	0  	0.826172	0.826172
387	8     	0.830261	0  	0.830261	0.830261
388	4     	0.830261	0  	0.830261	0.830261
389	4     	0.830261	0  	0.830261	0.830261
390	6     	0.830261	0  	0.830261	0.830261
391	6     	0.830261	0  	0.830261	0.830261
392	8     	0.830261	0  	0.830261	0.830261
393	10    	0.830261	0  	0.830261	0.830261
394	12    	0.830261	0  	0.830261	0.830261
395	16    	0.830261	0  	0.830261	0.830261
396	20    	0.832306	0  	0.832306	0.832306
397	8     	0.832306	0  	0.832306	0.832306
398	10    	0.832306	0  	0.832306	0.832306
399	12    	0.832306	0  	0.832306	0.832306
400	16    	0.834351	0  	0.834351	0.834351
401	6     	0.834351	0  	0.834351	0.834351
402	8     	0.834351	0  	0.834351	0.834351
403	10    	0.834351	0  	0.834351	0.834351
404	12    	0.836395	0  	0.836395	0.836395
405	6     	0.836395	0  	0.836395	0.836395
406	6     	0.836395	0  	0.836395	0.836395
407	8     	0.836395	0  	0.836395	0.836395
408	10    	0.836395	0  	0.836395	0.836395
409	12    	0.836395	0  	0.836395	0.836395
410	16    	0.836395	0  	0.836395	0.836395
411	20    	0.83844 	0  	0.83844 	0.83844 
412	8     	0.83844 	0  	0.83844 	0.83844 
413	10    	0.83844 	0  	0.83844 	0.83844 
414	12    	0.83844 	0  	0.83844 	0.83844 
415	16    	0.840485	0  	0.840485	0.840485
416	6     	0.840485	0  	0.840485	0.840485
417	8     	0.840485	0  	0.840485	0.840485
418	10    	0.840485	0  	0.840485	0.840485
419	12    	0.840485	0  	0.840485	0.840485
420	16    	0.842529	0  	0.842529	0.842529
421	6     	0.842529	0  	0.842529	0.842529
422	8     	0.842529	0  	0.842529	0.842529
423	10    	0.842529	0  	0.842529	0.842529
424	12    	0.844574	0  	0.844574	0.844574
425	6     	0.844574	0  	0.844574	0.844574
426	6     	0.844574	0  	0.844574	0.844574
427	8     	0.844574	0  	0.844574	0.844574
428	10    	0.844574	0  	0.844574	0.844574
429	12    	0.844574	0  	0.844574	0.844574
430	16    	0.844574	0  	0.844574	0.844574
431	20    	0.844574	0  	0.844574	0.844574
432	24    	0.846619	0  	0.846619	0.846619
433	10    	0.846619	0  	0.846619	0.846619
434	12    	0.848663	0  	0.848663	0.848663
435	6     	0.848663	0  	0.848663	0.848663
436	6     	0.848663	0  	0.848663	0.848663
437	8     	0.848663	0  	0.848663	0.848663
438	10    	0.848663	0  	0.848663	0.848663
439	12    	0.852768	0  	0.852768	0.852768
440	6     	0.852768	0  	0.852768	0.852768
441	6     	0.852768	0  	0.852768	0.852768
442	8     	0.852768	0  	0.852768	0.852768
443	10    	0.852768	0  	0.852768	0.852768
444	12    	0.852768	0  	0.852768	0.852768
445	16    	0.852768	0  	0.852768	0.852768
446	20    	0.854813	0  	0.854813	0.854813
447	8     	0.854813	0  	0.854813	0.854813
448	10    	0.856857	0  	0.856857	0.856857
449	4     	0.856857	0  	0.856857	0.856857
450	6     	0.856857	0  	0.856857	0.856857
451	6     	0.858902	0  	0.858902	0.858902
452	2     	0.858902	0  	0.858902	0.858902
453	4     	0.858902	0  	0.858902	0.858902
454	4     	0.858902	0  	0.858902	0.858902
455	6     	0.858902	0  	0.858902	0.858902
456	6     	0.858902	0  	0.858902	0.858902
457	8     	0.858902	0  	0.858902	0.858902
458	10    	0.858902	0  	0.858902	0.858902
459	12    	0.858902	0  	0.858902	0.858902
460	16    	0.858902	0  	0.858902	0.858902
461	20    	0.858902	0  	0.858902	0.858902
462	24    	0.858902	0  	0.858902	0.858902
463	32    	0.860947	0  	0.860947	0.860947
464	12    	0.860947	0  	0.860947	0.860947
465	16    	0.860947	0  	0.860947	0.860947
466	20    	0.860947	0  	0.860947	0.860947
467	24    	0.860947	0  	0.860947	0.860947
468	32    	0.860947	0  	0.860947	0.860947
469	40    	0.860947	0  	0.860947	0.860947
470	50    	0.862991	0  	0.862991	0.862991
471	20    	0.865036	0  	0.865036	0.865036
472	8     	0.865036	0  	0.865036	0.865036
473	10    	0.865036	0  	0.865036	0.865036
474	12    	0.865036	0  	0.865036	0.865036
475	16    	0.865036	0  	0.865036	0.865036
476	20    	0.865036	0  	0.865036	0.865036
477	24    	0.867081	0  	0.867081	0.867081
478	10    	0.867081	0  	0.867081	0.867081
479	12    	0.867081	0  	0.867081	0.867081
480	16    	0.867081	0  	0.867081	0.867081
481	20    	0.867081	0  	0.867081	0.867081
482	24    	0.867081	0  	0.867081	0.867081
483	32    	0.867081	0  	0.867081	0.867081
484	40    	0.867081	0  	0.867081	0.867081
485	50    	0.867081	0  	0.867081	0.867081
486	62    	0.867081	0  	0.867081	0.867081
487	78    	0.869125	0  	0.869125	0.869125
488	32    	0.869125	0  	0.869125	0.869125
489	40    	0.869125	0  	0.869125	0.869125
490	50    	0.869125	0  	0.869125	0.869125
491	62    	0.87117 	0  	0.87117 	0.87117 
492	24    	0.87117 	0  	0.87117 	0.87117 
493	32    	0.87117 	0  	0.87117 	0.87117 
494	40    	0.87117 	0  	0.87117 	0.87117 
495	50    	0.87117 	0  	0.87117 	0.87117 
496	62    	0.87117 	0  	0.87117 	0.87117 
497	78    	0.87117 	0  	0.87117 	0.87117 
498	98    	0.87117 	0  	0.87117 	0.87117 
499	124   	0.87117 	0  	0.87117 	0.87117 
500	156   	0.873215	0  	0.873215	0.873215
501	62    	0.873215	0  	0.873215	0.873215
502	78    	0.873215	0  	0.873215	0.873215
503	98    	0.875259	0  	0.875259	0.875259
504	40    	0.875259	0  	0.875259	0.875259
505	50    	0.875259	0  	0.875259	0.875259
506	62    	0.877304	0  	0.877304	0.877304
507	24    	0.877304	0  	0.877304	0.877304
508	32    	0.877304	0  	0.877304	0.877304
509	40    	0.877304	0  	0.877304	0.877304
510	50    	0.877304	0  	0.877304	0.877304
511	62    	0.877304	0  	0.877304	0.877304
512	78    	0.877304	0  	0.877304	0.877304
513	98    	0.877304	0  	0.877304	0.877304
514	124   	0.877304	0  	0.877304	0.877304
515	156   	0.877304	0  	0.877304	0.877304
516	196   	0.879349	0  	0.879349	0.879349
517	78    	0.879349	0  	0.879349	0.879349
518	98    	0.881393	0  	0.881393	0.881393
519	40    	0.881393	0  	0.881393	0.881393
520	50    	0.883438	0  	0.883438	0.883438
521	20    	0.883438	0  	0.883438	0.883438
522	24    	0.883438	0  	0.883438	0.883438
523	32    	0.885483	0  	0.885483	0.885483
524	12    	0.885483	0  	0.885483	0.885483
525	16    	0.885483	0  	0.885483	0.885483
526	20    	0.885483	0  	0.885483	0.885483
527	24    	0.885483	0  	0.885483	0.885483
528	32    	0.885483	0  	0.885483	0.885483
529	40    	0.885483	0  	0.885483	0.885483
530	50    	0.885483	0  	0.885483	0.885483
531	62    	0.885483	0  	0.885483	0.885483
532	78    	0.885483	0  	0.885483	0.885483
533	98    	0.887527	0  	0.887527	0.887527
534	40    	0.889572	0  	0.889572	0.889572
535	16    	0.889572	0  	0.889572	0.889572
536	20    	0.889572	0  	0.889572	0.889572
537	24    	0.889572	0  	0.889572	0.889572
538	32    	0.889572	0  	0.889572	0.889572
539	40    	0.889572	0  	0.889572	0.889572
540	50    	0.889572	0  	0.889572	0.889572
541	62    	0.889572	0  	0.889572	0.889572
542	78    	0.889572	0  	0.889572	0.889572
543	98    	0.891617	0  	0.891617	0.891617
544	40    	0.891617	0  	0.891617	0.891617
545	50    	0.891617	0  	0.891617	0.891617
546	62    	0.891617	0  	0.891617	0.891617
547	78    	0.891617	0  	0.891617	0.891617
548	98    	0.891617	0  	0.891617	0.891617
549	124   	0.891617	0  	0.891617	0.891617
550	156   	0.891617	0  	0.891617	0.891617
551	196   	0.891617	0  	0.891617	0.891617
552	246   	0.893661	0  	0.893661	0.893661
553	98    	0.893661	0  	0.893661	0.893661
554	124   	0.893661	0  	0.893661	0.893661
555	156   	0.893661	0  	0.893661	0.893661
556	196   	0.893661	0  	0.893661	0.893661
557	246   	0.893661	0  	0.893661	0.893661
558	308   	0.893661	0  	0.893661	0.893661
559	388   	0.893661	0  	0.893661	0.893661
560	488   	0.893661	0  	0.893661	0.893661
561	614   	0.893661	0  	0.893661	0.893661
