gen	nevals	avg     	std	min     	max     
0  	1     	0.602188	0  	0.602188	0.602188
1  	2     	0.602188	0  	0.602188	0.602188
2  	2     	0.602188	0  	0.602188	0.602188
3  	4     	0.605835	0  	0.605835	0.605835
4  	2     	0.605835	0  	0.605835	0.605835
5  	2     	0.609482	0  	0.609482	0.609482
6  	2     	0.616791	0  	0.616791	0.616791
7  	2     	0.624084	0  	0.624084	0.624084
8  	2     	0.63504 	0  	0.63504 	0.63504 
9  	2     	0.63504 	0  	0.63504 	0.63504 
10 	2     	0.63504 	0  	0.63504 	0.63504 
11 	4     	0.638687	0  	0.638687	0.638687
12 	2     	0.638687	0  	0.638687	0.638687
13 	2     	0.638687	0  	0.638687	0.638687
14 	4     	0.638687	0  	0.638687	0.638687
15 	4     	0.638687	0  	0.638687	0.638687
16 	6     	0.642334	0  	0.642334	0.642334
17 	2     	0.642334	0  	0.642334	0.642334
18 	2     	0.642334	0  	0.642334	0.642334
19 	4     	0.645981	0  	0.645981	0.645981
20 	2     	0.645981	0  	0.645981	0.645981
21 	2     	0.645981	0  	0.645981	0.645981
22 	4     	0.649628	0  	0.649628	0.649628
23 	2     	0.649628	0  	0.649628	0.649628
24 	2     	0.649628	0  	0.649628	0.649628
25 	4     	0.65329 	0  	0.65329 	0.65329 
26 	2     	0.65329 	0  	0.65329 	0.65329 
27 	2     	0.656937	0  	0.656937	0.656937
28 	2     	0.656937	0  	0.656937	0.656937
29 	2     	0.656937	0  	0.656937	0.656937
30 	4     	0.656937	0  	0.656937	0.656937
31 	4     	0.656937	0  	0.656937	0.656937
32 	6     	0.656937	0  	0.656937	0.656937
33 	6     	0.656937	0  	0.656937	0.656937
34 	8     	0.656937	0  	0.656937	0.656937
35 	10    	0.660583	0  	0.660583	0.660583
36 	4     	0.660583	0  	0.660583	0.660583
37 	6     	0.671539	0  	0.671539	0.671539
38 	2     	0.671539	0  	0.671539	0.671539
39 	2     	0.671539	0  	0.671539	0.671539
40 	4     	0.671539	0  	0.671539	0.671539
41 	4     	0.671539	0  	0.671539	0.671539
42 	6     	0.678833	0  	0.678833	0.678833
43 	2     	0.678833	0  	0.678833	0.678833
44 	2     	0.678833	0  	0.678833	0.678833
45 	4     	0.68248 	0  	0.68248 	0.68248 
46 	2     	0.686127	0  	0.686127	0.686127
47 	2     	0.686127	0  	0.686127	0.686127
48 	2     	0.686127	0  	0.686127	0.686127
49 	4     	0.689774	0  	0.689774	0.689774
50 	2     	0.689774	0  	0.689774	0.689774
51 	2     	0.689774	0  	0.689774	0.689774
52 	4     	0.697083	0  	0.697083	0.697083
53 	2     	0.697083	0  	0.697083	0.697083
54 	2     	0.697083	0  	0.697083	0.697083
55 	4     	0.697083	0  	0.697083	0.697083
56 	4     	0.697083	0  	0.697083	0.697083
57 	6     	0.697083	0  	0.697083	0.697083
58 	6     	0.697083	0  	0.697083	0.697083
59 	8     	0.700729	0  	0.700729	0.700729
60 	4     	0.700729	0  	0.700729	0.700729
61 	4     	0.700729	0  	0.700729	0.700729
62 	6     	0.704376	0  	0.704376	0.704376
63 	2     	0.704376	0  	0.704376	0.704376
64 	2     	0.704376	0  	0.704376	0.704376
65 	4     	0.704376	0  	0.704376	0.704376
66 	4     	0.704376	0  	0.704376	0.704376
67 	6     	0.708023	0  	0.708023	0.708023
68 	2     	0.708023	0  	0.708023	0.708023
69 	2     	0.708023	0  	0.708023	0.708023
70 	4     	0.708023	0  	0.708023	0.708023
71 	4     	0.708023	0  	0.708023	0.708023
72 	6     	0.708023	0  	0.708023	0.708023
73 	6     	0.711685	0  	0.711685	0.711685
74 	2     	0.711685	0  	0.711685	0.711685
75 	4     	0.715332	0  	0.715332	0.715332
76 	2     	0.715332	0  	0.715332	0.715332
77 	2     	0.715332	0  	0.715332	0.715332
78 	4     	0.715332	0  	0.715332	0.715332
79 	4     	0.715332	0  	0.715332	0.715332
80 	6     	0.715332	0  	0.715332	0.715332
81 	6     	0.715332	0  	0.715332	0.715332
82 	8     	0.718979	0  	0.718979	0.718979
83 	4     	0.718979	0  	0.718979	0.718979
84 	4     	0.722626	0  	0.722626	0.722626
85 	2     	0.722626	0  	0.722626	0.722626
86 	2     	0.722626	0  	0.722626	0.722626
87 	4     	0.722626	0  	0.722626	0.722626
88 	4     	0.722626	0  	0.722626	0.722626
89 	6     	0.722626	0  	0.722626	0.722626
90 	6     	0.722626	0  	0.722626	0.722626
91 	8     	0.726273	0  	0.726273	0.726273
92 	4     	0.726273	0  	0.726273	0.726273
93 	4     	0.726273	0  	0.726273	0.726273
94 	6     	0.729919	0  	0.729919	0.729919
95 	2     	0.729919	0  	0.729919	0.729919
96 	2     	0.729919	0  	0.729919	0.729919
97 	4     	0.729919	0  	0.729919	0.729919
98 	4     	0.729919	0  	0.729919	0.729919
99 	6     	0.737228	0  	0.737228	0.737228
100	2     	0.737228	0  	0.737228	0.737228
101	2     	0.737228	0  	0.737228	0.737228
102	4     	0.737228	0  	0.737228	0.737228
103	4     	0.737228	0  	0.737228	0.737228
104	6     	0.737228	0  	0.737228	0.737228
105	6     	0.740875	0  	0.740875	0.740875
106	2     	0.740875	0  	0.740875	0.740875
107	4     	0.740875	0  	0.740875	0.740875
108	4     	0.740875	0  	0.740875	0.740875
109	6     	0.740875	0  	0.740875	0.740875
110	6     	0.744522	0  	0.744522	0.744522
111	2     	0.748169	0  	0.748169	0.748169
112	2     	0.748169	0  	0.748169	0.748169
113	2     	0.748169	0  	0.748169	0.748169
114	4     	0.748169	0  	0.748169	0.748169
115	4     	0.751831	0  	0.751831	0.751831
116	2     	0.751831	0  	0.751831	0.751831
117	2     	0.751831	0  	0.751831	0.751831
118	4     	0.755478	0  	0.755478	0.755478
119	2     	0.755478	0  	0.755478	0.755478
120	2     	0.755478	0  	0.755478	0.755478
121	4     	0.755478	0  	0.755478	0.755478
122	4     	0.755478	0  	0.755478	0.755478
123	6     	0.755478	0  	0.755478	0.755478
124	6     	0.755478	0  	0.755478	0.755478
125	8     	0.759125	0  	0.759125	0.759125
126	4     	0.759125	0  	0.759125	0.759125
127	4     	0.766418	0  	0.766418	0.766418
128	2     	0.766418	0  	0.766418	0.766418
129	2     	0.766418	0  	0.766418	0.766418
130	4     	0.766418	0  	0.766418	0.766418
131	4     	0.766418	0  	0.766418	0.766418
132	6     	0.766418	0  	0.766418	0.766418
133	6     	0.766418	0  	0.766418	0.766418
134	8     	0.766418	0  	0.766418	0.766418
135	10    	0.770081	0  	0.770081	0.770081
136	4     	0.773727	0  	0.773727	0.773727
137	2     	0.773727	0  	0.773727	0.773727
138	2     	0.773727	0  	0.773727	0.773727
139	4     	0.773727	0  	0.773727	0.773727
140	4     	0.773727	0  	0.773727	0.773727
141	6     	0.781021	0  	0.781021	0.781021
142	2     	0.781021	0  	0.781021	0.781021
143	2     	0.781021	0  	0.781021	0.781021
144	4     	0.784668	0  	0.784668	0.784668
145	2     	0.784668	0  	0.784668	0.784668
146	2     	0.784668	0  	0.784668	0.784668
147	4     	0.784668	0  	0.784668	0.784668
148	4     	0.784668	0  	0.784668	0.784668
149	6     	0.788315	0  	0.788315	0.788315
150	2     	0.788315	0  	0.788315	0.788315
151	2     	0.788315	0  	0.788315	0.788315
152	4     	0.788315	0  	0.788315	0.788315
153	4     	0.788315	0  	0.788315	0.788315
154	6     	0.788315	0  	0.788315	0.788315
155	6     	0.788315	0  	0.788315	0.788315
156	8     	0.788315	0  	0.788315	0.788315
157	10    	0.788315	0  	0.788315	0.788315
158	12    	0.788315	0  	0.788315	0.788315
159	16    	0.788315	0  	0.788315	0.788315
160	20    	0.788315	0  	0.788315	0.788315
161	24    	0.795624	0  	0.795624	0.795624
162	10    	0.795624	0  	0.795624	0.795624
163	12    	0.795624	0  	0.795624	0.795624
164	16    	0.799271	0  	0.799271	0.799271
165	6     	0.799271	0  	0.799271	0.799271
166	8     	0.806564	0  	0.806564	0.806564
167	4     	0.810226	0  	0.810226	0.810226
168	2     	0.810226	0  	0.810226	0.810226
169	2     	0.810226	0  	0.810226	0.810226
170	4     	0.810226	0  	0.810226	0.810226
171	4     	0.810226	0  	0.810226	0.810226
172	6     	0.810226	0  	0.810226	0.810226
173	6     	0.810226	0  	0.810226	0.810226
174	8     	0.810226	0  	0.810226	0.810226
175	10    	0.813873	0  	0.813873	0.813873
176	4     	0.813873	0  	0.813873	0.813873
177	6     	0.813873	0  	0.813873	0.813873
178	6     	0.813873	0  	0.813873	0.813873
179	8     	0.813873	0  	0.813873	0.813873
180	10    	0.821167	0  	0.821167	0.821167
181	4     	0.821167	0  	0.821167	0.821167
182	6     	0.824814	0  	0.824814	0.824814
183	2     	0.824814	0  	0.824814	0.824814
184	2     	0.824814	0  	0.824814	0.824814
185	4     	0.824814	0  	0.824814	0.824814
186	4     	0.824814	0  	0.824814	0.824814
187	6     	0.824814	0  	0.824814	0.824814
188	6     	0.828461	0  	0.828461	0.828461
189	2     	0.828461	0  	0.828461	0.828461
190	4     	0.828461	0  	0.828461	0.828461
191	4     	0.828461	0  	0.828461	0.828461
192	6     	0.828461	0  	0.828461	0.828461
193	6     	0.828461	0  	0.828461	0.828461
194	8     	0.828461	0  	0.828461	0.828461
195	10    	0.828461	0  	0.828461	0.828461
196	12    	0.828461	0  	0.828461	0.828461
197	16    	0.828461	0  	0.828461	0.828461
198	20    	0.832123	0  	0.832123	0.832123
199	8     	0.832123	0  	0.832123	0.832123
200	10    	0.83577 	0  	0.83577 	0.83577 
201	4     	0.83577 	0  	0.83577 	0.83577 
202	6     	0.83577 	0  	0.83577 	0.83577 
203	6     	0.83577 	0  	0.83577 	0.83577 
204	8     	0.83577 	0  	0.83577 	0.83577 
205	10    	0.83577 	0  	0.83577 	0.83577 
206	12    	0.839417	0  	0.839417	0.839417
207	6     	0.839417	0  	0.839417	0.839417
208	6     	0.839417	0  	0.839417	0.839417
209	8     	0.843063	0  	0.843063	0.843063
210	4     	0.843063	0  	0.843063	0.843063
211	4     	0.843063	0  	0.843063	0.843063
212	6     	0.843063	0  	0.843063	0.843063
213	6     	0.843063	0  	0.843063	0.843063
214	8     	0.843063	0  	0.843063	0.843063
215	10    	0.84671 	0  	0.84671 	0.84671 
216	4     	0.850372	0  	0.850372	0.850372
217	2     	0.850372	0  	0.850372	0.850372
218	2     	0.850372	0  	0.850372	0.850372
219	4     	0.850372	0  	0.850372	0.850372
220	4     	0.850372	0  	0.850372	0.850372
221	6     	0.850372	0  	0.850372	0.850372
222	6     	0.850372	0  	0.850372	0.850372
223	8     	0.850372	0  	0.850372	0.850372
224	10    	0.850372	0  	0.850372	0.850372
225	12    	0.850372	0  	0.850372	0.850372
226	16    	0.850372	0  	0.850372	0.850372
227	20    	0.850372	0  	0.850372	0.850372
228	24    	0.850372	0  	0.850372	0.850372
229	32    	0.850372	0  	0.850372	0.850372
230	40    	0.850372	0  	0.850372	0.850372
231	50    	0.850372	0  	0.850372	0.850372
232	62    	0.850372	0  	0.850372	0.850372
233	78    	0.850372	0  	0.850372	0.850372
234	98    	0.854019	0  	0.854019	0.854019
235	40    	0.854019	0  	0.854019	0.854019
236	50    	0.854019	0  	0.854019	0.854019
237	62    	0.854019	0  	0.854019	0.854019
238	78    	0.861313	0  	0.861313	0.861313
239	32    	0.86496 	0  	0.86496 	0.86496 
240	12    	0.86496 	0  	0.86496 	0.86496 
241	16    	0.86496 	0  	0.86496 	0.86496 
242	20    	0.868607	0  	0.868607	0.868607
243	8     	0.868607	0  	0.868607	0.868607
244	10    	0.868607	0  	0.868607	0.868607
245	12    	0.868607	0  	0.868607	0.868607
246	16    	0.868607	0  	0.868607	0.868607
247	20    	0.868607	0  	0.868607	0.868607
248	24    	0.868607	0  	0.868607	0.868607
249	32    	0.868607	0  	0.868607	0.868607
250	40    	0.868607	0  	0.868607	0.868607
251	50    	0.868607	0  	0.868607	0.868607
252	62    	0.872269	0  	0.872269	0.872269
253	24    	0.872269	0  	0.872269	0.872269
254	32    	0.875916	0  	0.875916	0.875916
255	12    	0.875916	0  	0.875916	0.875916
256	16    	0.875916	0  	0.875916	0.875916
257	20    	0.875916	0  	0.875916	0.875916
258	24    	0.875916	0  	0.875916	0.875916
259	32    	0.875916	0  	0.875916	0.875916
260	40    	0.875916	0  	0.875916	0.875916
261	50    	0.879562	0  	0.879562	0.879562
262	20    	0.879562	0  	0.879562	0.879562
263	24    	0.879562	0  	0.879562	0.879562
264	32    	0.879562	0  	0.879562	0.879562
265	40    	0.879562	0  	0.879562	0.879562
266	50    	0.879562	0  	0.879562	0.879562
267	62    	0.879562	0  	0.879562	0.879562
268	78    	0.879562	0  	0.879562	0.879562
269	98    	0.879562	0  	0.879562	0.879562
270	124   	0.879562	0  	0.879562	0.879562
271	156   	0.883209	0  	0.883209	0.883209
272	62    	0.883209	0  	0.883209	0.883209
273	78    	0.883209	0  	0.883209	0.883209
274	98    	0.883209	0  	0.883209	0.883209
275	124   	0.883209	0  	0.883209	0.883209
276	156   	0.886856	0  	0.886856	0.886856
277	62    	0.886856	0  	0.886856	0.886856
278	78    	0.886856	0  	0.886856	0.886856
279	98    	0.886856	0  	0.886856	0.886856
280	124   	0.886856	0  	0.886856	0.886856
281	156   	0.886856	0  	0.886856	0.886856
282	196   	0.886856	0  	0.886856	0.886856
283	246   	0.886856	0  	0.886856	0.886856
284	308   	0.886856	0  	0.886856	0.886856
285	388   	0.886856	0  	0.886856	0.886856
286	488   	0.886856	0  	0.886856	0.886856
287	614   	0.886856	0  	0.886856	0.886856
288	648   	0.886856	0  	0.886856	0.886856
289	648   	0.886856	0  	0.886856	0.886856
290	648   	0.886856	0  	0.886856	0.886856
291	648   	0.886856	0  	0.886856	0.886856
292	648   	0.886856	0  	0.886856	0.886856
293	648   	0.886856	0  	0.886856	0.886856
