gen	nevals	avg     	std	min     	max     
0  	1     	0.562042	0  	0.562042	0.562042
1  	2     	0.562042	0  	0.562042	0.562042
2  	2     	0.576645	0  	0.576645	0.576645
3  	2     	0.576645	0  	0.576645	0.576645
4  	2     	0.591248	0  	0.591248	0.591248
5  	2     	0.591248	0  	0.591248	0.591248
6  	2     	0.591248	0  	0.591248	0.591248
7  	4     	0.591248	0  	0.591248	0.591248
8  	4     	0.591248	0  	0.591248	0.591248
9  	6     	0.620438	0  	0.620438	0.620438
10 	2     	0.649628	0  	0.649628	0.649628
11 	2     	0.649628	0  	0.649628	0.649628
12 	2     	0.649628	0  	0.649628	0.649628
13 	4     	0.649628	0  	0.649628	0.649628
14 	4     	0.649628	0  	0.649628	0.649628
15 	6     	0.66423 	0  	0.66423 	0.66423 
16 	2     	0.678833	0  	0.678833	0.678833
17 	2     	0.678833	0  	0.678833	0.678833
18 	2     	0.678833	0  	0.678833	0.678833
19 	4     	0.708023	0  	0.708023	0.708023
20 	2     	0.708023	0  	0.708023	0.708023
21 	2     	0.708023	0  	0.708023	0.708023
22 	4     	0.708023	0  	0.708023	0.708023
23 	4     	0.708023	0  	0.708023	0.708023
24 	6     	0.708023	0  	0.708023	0.708023
25 	6     	0.722626	0  	0.722626	0.722626
26 	2     	0.722626	0  	0.722626	0.722626
27 	4     	0.722626	0  	0.722626	0.722626
28 	4     	0.766418	0  	0.766418	0.766418
29 	2     	0.766418	0  	0.766418	0.766418
30 	2     	0.766418	0  	0.766418	0.766418
31 	4     	0.766418	0  	0.766418	0.766418
32 	4     	0.766418	0  	0.766418	0.766418
33 	6     	0.781021	0  	0.781021	0.781021
34 	2     	0.781021	0  	0.781021	0.781021
35 	2     	0.781021	0  	0.781021	0.781021
36 	4     	0.781021	0  	0.781021	0.781021
37 	4     	0.781021	0  	0.781021	0.781021
38 	6     	0.795624	0  	0.795624	0.795624
39 	2     	0.795624	0  	0.795624	0.795624
40 	2     	0.795624	0  	0.795624	0.795624
41 	4     	0.795624	0  	0.795624	0.795624
42 	4     	0.795624	0  	0.795624	0.795624
43 	6     	0.795624	0  	0.795624	0.795624
44 	6     	0.795624	0  	0.795624	0.795624
45 	8     	0.795624	0  	0.795624	0.795624
46 	10    	0.795624	0  	0.795624	0.795624
47 	12    	0.795624	0  	0.795624	0.795624
48 	16    	0.795624	0  	0.795624	0.795624
49 	20    	0.810226	0  	0.810226	0.810226
50 	8     	0.810226	0  	0.810226	0.810226
51 	10    	0.824814	0  	0.824814	0.824814
52 	4     	0.824814	0  	0.824814	0.824814
53 	6     	0.824814	0  	0.824814	0.824814
54 	6     	0.824814	0  	0.824814	0.824814
55 	8     	0.824814	0  	0.824814	0.824814
56 	10    	0.824814	0  	0.824814	0.824814
57 	12    	0.824814	0  	0.824814	0.824814
58 	16    	0.824814	0  	0.824814	0.824814
59 	20    	0.824814	0  	0.824814	0.824814
60 	24    	0.839417	0  	0.839417	0.839417
61 	10    	0.839417	0  	0.839417	0.839417
62 	12    	0.854019	0  	0.854019	0.854019
63 	6     	0.854019	0  	0.854019	0.854019
64 	6     	0.854019	0  	0.854019	0.854019
65 	8     	0.854019	0  	0.854019	0.854019
66 	10    	0.854019	0  	0.854019	0.854019
67 	12    	0.868607	0  	0.868607	0.868607
68 	6     	0.868607	0  	0.868607	0.868607
69 	6     	0.868607	0  	0.868607	0.868607
70 	8     	0.868607	0  	0.868607	0.868607
71 	10    	0.868607	0  	0.868607	0.868607
72 	12    	0.897812	0  	0.897812	0.897812
73 	6     	0.897812	0  	0.897812	0.897812
74 	6     	0.897812	0  	0.897812	0.897812
75 	8     	0.897812	0  	0.897812	0.897812
76 	10    	0.897812	0  	0.897812	0.897812
77 	12    	0.897812	0  	0.897812	0.897812
78 	16    	0.897812	0  	0.897812	0.897812
79 	20    	0.897812	0  	0.897812	0.897812
80 	24    	0.897812	0  	0.897812	0.897812
81 	32    	0.897812	0  	0.897812	0.897812
82 	40    	0.897812	0  	0.897812	0.897812
83 	50    	0.897812	0  	0.897812	0.897812
84 	62    	0.897812	0  	0.897812	0.897812
85 	78    	0.897812	0  	0.897812	0.897812
86 	98    	0.897812	0  	0.897812	0.897812
87 	124   	0.897812	0  	0.897812	0.897812
88 	156   	0.897812	0  	0.897812	0.897812
89 	162   	0.897812	0  	0.897812	0.897812
90 	162   	0.897812	0  	0.897812	0.897812
91 	162   	0.897812	0  	0.897812	0.897812
92 	162   	0.897812	0  	0.897812	0.897812
93 	162   	0.897812	0  	0.897812	0.897812
94 	162   	0.897812	0  	0.897812	0.897812
95 	162   	0.897812	0  	0.897812	0.897812
96 	162   	0.897812	0  	0.897812	0.897812
97 	162   	0.897812	0  	0.897812	0.897812
98 	162   	0.897812	0  	0.897812	0.897812
99 	162   	0.897812	0  	0.897812	0.897812
100	162   	0.897812	0  	0.897812	0.897812
101	162   	0.897812	0  	0.897812	0.897812
102	162   	0.897812	0  	0.897812	0.897812
103	162   	0.897812	0  	0.897812	0.897812
104	162   	0.897812	0  	0.897812	0.897812
105	162   	0.897812	0  	0.897812	0.897812
106	162   	0.897812	0  	0.897812	0.897812
107	162   	0.897812	0  	0.897812	0.897812
108	162   	0.897812	0  	0.897812	0.897812
109	162   	0.897812	0  	0.897812	0.897812
110	162   	0.897812	0  	0.897812	0.897812
111	162   	0.897812	0  	0.897812	0.897812
112	162   	0.897812	0  	0.897812	0.897812
113	162   	0.897812	0  	0.897812	0.897812
114	162   	0.897812	0  	0.897812	0.897812
115	162   	0.897812	0  	0.897812	0.897812
116	162   	0.897812	0  	0.897812	0.897812
117	162   	0.897812	0  	0.897812	0.897812
118	162   	0.897812	0  	0.897812	0.897812
119	162   	0.897812	0  	0.897812	0.897812
120	162   	0.897812	0  	0.897812	0.897812
121	162   	0.897812	0  	0.897812	0.897812
122	162   	0.897812	0  	0.897812	0.897812
123	162   	0.897812	0  	0.897812	0.897812
124	162   	0.897812	0  	0.897812	0.897812
125	162   	0.897812	0  	0.897812	0.897812
126	162   	0.897812	0  	0.897812	0.897812
127	162   	0.897812	0  	0.897812	0.897812
128	162   	0.897812	0  	0.897812	0.897812
129	162   	0.897812	0  	0.897812	0.897812
130	162   	0.897812	0  	0.897812	0.897812
131	162   	0.897812	0  	0.897812	0.897812
132	162   	0.897812	0  	0.897812	0.897812
133	162   	0.897812	0  	0.897812	0.897812
134	162   	0.897812	0  	0.897812	0.897812
135	162   	0.897812	0  	0.897812	0.897812
136	162   	0.897812	0  	0.897812	0.897812
137	162   	0.897812	0  	0.897812	0.897812
138	162   	0.897812	0  	0.897812	0.897812
139	162   	0.897812	0  	0.897812	0.897812
140	162   	0.897812	0  	0.897812	0.897812
141	162   	0.897812	0  	0.897812	0.897812
142	162   	0.897812	0  	0.897812	0.897812
143	162   	0.897812	0  	0.897812	0.897812
