gen	nevals	avg     	std	min     	max     
0  	1     	0.604233	0  	0.604233	0.604233
1  	2     	0.604233	0  	0.604233	0.604233
2  	2     	0.604233	0  	0.604233	0.604233
3  	4     	0.604233	0  	0.604233	0.604233
4  	4     	0.604233	0  	0.604233	0.604233
5  	6     	0.611313	0  	0.611313	0.611313
6  	2     	0.625443	0  	0.625443	0.625443
7  	2     	0.625443	0  	0.625443	0.625443
8  	2     	0.625443	0  	0.625443	0.625443
9  	4     	0.625443	0  	0.625443	0.625443
10 	4     	0.632507	0  	0.632507	0.632507
11 	2     	0.632507	0  	0.632507	0.632507
12 	2     	0.632507	0  	0.632507	0.632507
13 	4     	0.639572	0  	0.639572	0.639572
14 	2     	0.639572	0  	0.639572	0.639572
15 	2     	0.639572	0  	0.639572	0.639572
16 	4     	0.653717	0  	0.653717	0.653717
17 	2     	0.653717	0  	0.653717	0.653717
18 	2     	0.653717	0  	0.653717	0.653717
19 	4     	0.653717	0  	0.653717	0.653717
20 	4     	0.653717	0  	0.653717	0.653717
21 	6     	0.653717	0  	0.653717	0.653717
22 	6     	0.653717	0  	0.653717	0.653717
23 	8     	0.660782	0  	0.660782	0.660782
24 	4     	0.660782	0  	0.660782	0.660782
25 	4     	0.660782	0  	0.660782	0.660782
26 	6     	0.660782	0  	0.660782	0.660782
27 	6     	0.667847	0  	0.667847	0.667847
28 	2     	0.681976	0  	0.681976	0.681976
29 	2     	0.681976	0  	0.681976	0.681976
30 	2     	0.689041	0  	0.689041	0.689041
31 	2     	0.689041	0  	0.689041	0.689041
32 	2     	0.689041	0  	0.689041	0.689041
33 	4     	0.696106	0  	0.696106	0.696106
34 	2     	0.696106	0  	0.696106	0.696106
35 	2     	0.696106	0  	0.696106	0.696106
36 	4     	0.703186	0  	0.703186	0.703186
37 	2     	0.703186	0  	0.703186	0.703186
38 	2     	0.703186	0  	0.703186	0.703186
39 	4     	0.703186	0  	0.703186	0.703186
40 	4     	0.703186	0  	0.703186	0.703186
41 	6     	0.703186	0  	0.703186	0.703186
42 	6     	0.710251	0  	0.710251	0.710251
43 	2     	0.717316	0  	0.717316	0.717316
44 	2     	0.717316	0  	0.717316	0.717316
45 	2     	0.717316	0  	0.717316	0.717316
46 	4     	0.72438 	0  	0.72438 	0.72438 
47 	2     	0.72438 	0  	0.72438 	0.72438 
48 	2     	0.72438 	0  	0.72438 	0.72438 
49 	4     	0.72438 	0  	0.72438 	0.72438 
50 	4     	0.72438 	0  	0.72438 	0.72438 
51 	6     	0.72438 	0  	0.72438 	0.72438 
52 	6     	0.72438 	0  	0.72438 	0.72438 
53 	8     	0.72438 	0  	0.72438 	0.72438 
54 	10    	0.73851 	0  	0.73851 	0.73851 
55 	4     	0.74559 	0  	0.74559 	0.74559 
56 	2     	0.74559 	0  	0.74559 	0.74559 
57 	2     	0.74559 	0  	0.74559 	0.74559 
58 	4     	0.752655	0  	0.752655	0.752655
59 	2     	0.752655	0  	0.752655	0.752655
60 	2     	0.752655	0  	0.752655	0.752655
61 	4     	0.752655	0  	0.752655	0.752655
62 	4     	0.752655	0  	0.752655	0.752655
63 	6     	0.752655	0  	0.752655	0.752655
64 	6     	0.752655	0  	0.752655	0.752655
65 	8     	0.766785	0  	0.766785	0.766785
66 	4     	0.766785	0  	0.766785	0.766785
67 	4     	0.766785	0  	0.766785	0.766785
68 	6     	0.766785	0  	0.766785	0.766785
69 	6     	0.766785	0  	0.766785	0.766785
70 	8     	0.766785	0  	0.766785	0.766785
71 	10    	0.766785	0  	0.766785	0.766785
72 	12    	0.766785	0  	0.766785	0.766785
73 	16    	0.780914	0  	0.780914	0.780914
74 	6     	0.780914	0  	0.780914	0.780914
75 	8     	0.780914	0  	0.780914	0.780914
76 	10    	0.787979	0  	0.787979	0.787979
77 	4     	0.787979	0  	0.787979	0.787979
78 	6     	0.795059	0  	0.795059	0.795059
79 	2     	0.802124	0  	0.802124	0.802124
80 	2     	0.802124	0  	0.802124	0.802124
81 	2     	0.802124	0  	0.802124	0.802124
82 	4     	0.802124	0  	0.802124	0.802124
83 	4     	0.802124	0  	0.802124	0.802124
84 	6     	0.802124	0  	0.802124	0.802124
85 	6     	0.802124	0  	0.802124	0.802124
86 	8     	0.802124	0  	0.802124	0.802124
87 	10    	0.809189	0  	0.809189	0.809189
88 	4     	0.809189	0  	0.809189	0.809189
89 	6     	0.809189	0  	0.809189	0.809189
90 	6     	0.809189	0  	0.809189	0.809189
91 	8     	0.816254	0  	0.816254	0.816254
92 	4     	0.816254	0  	0.816254	0.816254
93 	4     	0.816254	0  	0.816254	0.816254
94 	6     	0.816254	0  	0.816254	0.816254
95 	6     	0.816254	0  	0.816254	0.816254
96 	8     	0.816254	0  	0.816254	0.816254
97 	10    	0.816254	0  	0.816254	0.816254
98 	12    	0.816254	0  	0.816254	0.816254
99 	16    	0.816254	0  	0.816254	0.816254
100	20    	0.823318	0  	0.823318	0.823318
101	8     	0.823318	0  	0.823318	0.823318
102	10    	0.830383	0  	0.830383	0.830383
103	4     	0.830383	0  	0.830383	0.830383
104	6     	0.830383	0  	0.830383	0.830383
105	6     	0.837463	0  	0.837463	0.837463
106	2     	0.837463	0  	0.837463	0.837463
107	4     	0.837463	0  	0.837463	0.837463
108	4     	0.844528	0  	0.844528	0.844528
109	2     	0.844528	0  	0.844528	0.844528
110	2     	0.844528	0  	0.844528	0.844528
111	4     	0.844528	0  	0.844528	0.844528
112	4     	0.844528	0  	0.844528	0.844528
113	6     	0.844528	0  	0.844528	0.844528
114	6     	0.844528	0  	0.844528	0.844528
115	8     	0.844528	0  	0.844528	0.844528
116	10    	0.844528	0  	0.844528	0.844528
117	12    	0.844528	0  	0.844528	0.844528
118	16    	0.844528	0  	0.844528	0.844528
119	20    	0.844528	0  	0.844528	0.844528
120	24    	0.851593	0  	0.851593	0.851593
121	10    	0.851593	0  	0.851593	0.851593
122	12    	0.851593	0  	0.851593	0.851593
123	16    	0.851593	0  	0.851593	0.851593
124	20    	0.851593	0  	0.851593	0.851593
125	24    	0.858658	0  	0.858658	0.858658
126	10    	0.858658	0  	0.858658	0.858658
127	12    	0.858658	0  	0.858658	0.858658
128	16    	0.858658	0  	0.858658	0.858658
129	20    	0.858658	0  	0.858658	0.858658
130	24    	0.865723	0  	0.865723	0.865723
131	10    	0.865723	0  	0.865723	0.865723
132	12    	0.865723	0  	0.865723	0.865723
133	16    	0.865723	0  	0.865723	0.865723
134	20    	0.865723	0  	0.865723	0.865723
135	24    	0.865723	0  	0.865723	0.865723
136	32    	0.865723	0  	0.865723	0.865723
137	40    	0.865723	0  	0.865723	0.865723
138	50    	0.865723	0  	0.865723	0.865723
139	62    	0.865723	0  	0.865723	0.865723
140	78    	0.865723	0  	0.865723	0.865723
141	98    	0.865723	0  	0.865723	0.865723
142	124   	0.865723	0  	0.865723	0.865723
143	156   	0.872787	0  	0.872787	0.872787
144	62    	0.872787	0  	0.872787	0.872787
145	78    	0.872787	0  	0.872787	0.872787
146	98    	0.872787	0  	0.872787	0.872787
147	124   	0.872787	0  	0.872787	0.872787
148	156   	0.872787	0  	0.872787	0.872787
149	196   	0.872787	0  	0.872787	0.872787
150	246   	0.879852	0  	0.879852	0.879852
151	98    	0.879852	0  	0.879852	0.879852
152	124   	0.879852	0  	0.879852	0.879852
153	156   	0.879852	0  	0.879852	0.879852
154	196   	0.879852	0  	0.879852	0.879852
155	246   	0.879852	0  	0.879852	0.879852
156	308   	0.879852	0  	0.879852	0.879852
157	338   	0.879852	0  	0.879852	0.879852
158	338   	0.879852	0  	0.879852	0.879852
159	338   	0.879852	0  	0.879852	0.879852
160	338   	0.879852	0  	0.879852	0.879852
161	338   	0.879852	0  	0.879852	0.879852
162	338   	0.879852	0  	0.879852	0.879852
163	338   	0.879852	0  	0.879852	0.879852
164	338   	0.879852	0  	0.879852	0.879852
165	338   	0.879852	0  	0.879852	0.879852
166	338   	0.879852	0  	0.879852	0.879852
167	338   	0.879852	0  	0.879852	0.879852
168	338   	0.879852	0  	0.879852	0.879852
169	338   	0.879852	0  	0.879852	0.879852
170	338   	0.879852	0  	0.879852	0.879852
171	338   	0.879852	0  	0.879852	0.879852
172	338   	0.879852	0  	0.879852	0.879852
173	338   	0.879852	0  	0.879852	0.879852
174	338   	0.879852	0  	0.879852	0.879852
175	338   	0.879852	0  	0.879852	0.879852
