gen	nevals	avg     	std	min     	max     
0  	1     	0.606476	0  	0.606476	0.606476
1  	2     	0.606476	0  	0.606476	0.606476
2  	2     	0.606476	0  	0.606476	0.606476
3  	4     	0.617249	0  	0.617249	0.617249
4  	2     	0.617249	0  	0.617249	0.617249
5  	2     	0.617249	0  	0.617249	0.617249
6  	4     	0.622635	0  	0.622635	0.622635
7  	2     	0.622635	0  	0.622635	0.622635
8  	2     	0.622635	0  	0.622635	0.622635
9  	4     	0.628036	0  	0.628036	0.628036
10 	2     	0.628036	0  	0.628036	0.628036
11 	2     	0.628036	0  	0.628036	0.628036
12 	4     	0.628036	0  	0.628036	0.628036
13 	4     	0.633423	0  	0.633423	0.633423
14 	2     	0.633423	0  	0.633423	0.633423
15 	2     	0.633423	0  	0.633423	0.633423
16 	4     	0.633423	0  	0.633423	0.633423
17 	4     	0.633423	0  	0.633423	0.633423
18 	6     	0.638809	0  	0.638809	0.638809
19 	2     	0.638809	0  	0.638809	0.638809
20 	2     	0.638809	0  	0.638809	0.638809
21 	4     	0.638809	0  	0.638809	0.638809
22 	4     	0.638809	0  	0.638809	0.638809
23 	6     	0.644211	0  	0.644211	0.644211
24 	2     	0.644211	0  	0.644211	0.644211
25 	2     	0.644211	0  	0.644211	0.644211
26 	4     	0.644211	0  	0.644211	0.644211
27 	4     	0.644211	0  	0.644211	0.644211
28 	6     	0.644211	0  	0.644211	0.644211
29 	6     	0.644211	0  	0.644211	0.644211
30 	8     	0.654984	0  	0.654984	0.654984
31 	4     	0.66037 	0  	0.66037 	0.66037 
32 	2     	0.66037 	0  	0.66037 	0.66037 
33 	2     	0.66037 	0  	0.66037 	0.66037 
34 	4     	0.66037 	0  	0.66037 	0.66037 
35 	4     	0.66037 	0  	0.66037 	0.66037 
36 	6     	0.66037 	0  	0.66037 	0.66037 
37 	6     	0.671158	0  	0.671158	0.671158
38 	2     	0.687332	0  	0.687332	0.687332
39 	2     	0.687332	0  	0.687332	0.687332
40 	2     	0.687332	0  	0.687332	0.687332
41 	4     	0.687332	0  	0.687332	0.687332
42 	4     	0.692719	0  	0.692719	0.692719
43 	2     	0.692719	0  	0.692719	0.692719
44 	2     	0.692719	0  	0.692719	0.692719
45 	4     	0.692719	0  	0.692719	0.692719
46 	4     	0.692719	0  	0.692719	0.692719
47 	6     	0.708893	0  	0.708893	0.708893
48 	2     	0.708893	0  	0.708893	0.708893
49 	2     	0.719681	0  	0.719681	0.719681
50 	2     	0.719681	0  	0.719681	0.719681
51 	2     	0.719681	0  	0.719681	0.719681
52 	4     	0.725067	0  	0.725067	0.725067
53 	2     	0.725067	0  	0.725067	0.725067
54 	2     	0.725067	0  	0.725067	0.725067
55 	4     	0.725067	0  	0.725067	0.725067
56 	4     	0.725067	0  	0.725067	0.725067
57 	6     	0.725067	0  	0.725067	0.725067
58 	6     	0.725067	0  	0.725067	0.725067
59 	8     	0.730453	0  	0.730453	0.730453
60 	4     	0.730453	0  	0.730453	0.730453
61 	4     	0.730453	0  	0.730453	0.730453
62 	6     	0.730453	0  	0.730453	0.730453
63 	6     	0.730453	0  	0.730453	0.730453
64 	8     	0.730453	0  	0.730453	0.730453
65 	10    	0.735855	0  	0.735855	0.735855
66 	4     	0.741241	0  	0.741241	0.741241
67 	2     	0.741241	0  	0.741241	0.741241
68 	2     	0.741241	0  	0.741241	0.741241
69 	4     	0.741241	0  	0.741241	0.741241
70 	4     	0.741241	0  	0.741241	0.741241
71 	6     	0.741241	0  	0.741241	0.741241
72 	6     	0.746628	0  	0.746628	0.746628
73 	2     	0.746628	0  	0.746628	0.746628
74 	4     	0.746628	0  	0.746628	0.746628
75 	4     	0.746628	0  	0.746628	0.746628
76 	6     	0.752014	0  	0.752014	0.752014
77 	2     	0.752014	0  	0.752014	0.752014
78 	2     	0.752014	0  	0.752014	0.752014
79 	4     	0.752014	0  	0.752014	0.752014
80 	4     	0.752014	0  	0.752014	0.752014
81 	6     	0.752014	0  	0.752014	0.752014
82 	6     	0.752014	0  	0.752014	0.752014
83 	8     	0.752014	0  	0.752014	0.752014
84 	10    	0.752014	0  	0.752014	0.752014
85 	12    	0.757416	0  	0.757416	0.757416
86 	6     	0.762802	0  	0.762802	0.762802
87 	2     	0.762802	0  	0.762802	0.762802
88 	2     	0.762802	0  	0.762802	0.762802
89 	4     	0.762802	0  	0.762802	0.762802
90 	4     	0.762802	0  	0.762802	0.762802
91 	6     	0.762802	0  	0.762802	0.762802
92 	6     	0.768188	0  	0.768188	0.768188
93 	2     	0.768188	0  	0.768188	0.768188
94 	4     	0.768188	0  	0.768188	0.768188
95 	4     	0.768188	0  	0.768188	0.768188
96 	6     	0.768188	0  	0.768188	0.768188
97 	6     	0.768188	0  	0.768188	0.768188
98 	8     	0.778976	0  	0.778976	0.778976
99 	4     	0.778976	0  	0.778976	0.778976
100	4     	0.778976	0  	0.778976	0.778976
101	6     	0.784363	0  	0.784363	0.784363
102	2     	0.784363	0  	0.784363	0.784363
103	2     	0.789764	0  	0.789764	0.789764
104	2     	0.789764	0  	0.789764	0.789764
105	2     	0.789764	0  	0.789764	0.789764
106	4     	0.789764	0  	0.789764	0.789764
107	4     	0.789764	0  	0.789764	0.789764
108	6     	0.789764	0  	0.789764	0.789764
109	6     	0.789764	0  	0.789764	0.789764
110	8     	0.795151	0  	0.795151	0.795151
111	4     	0.795151	0  	0.795151	0.795151
112	4     	0.795151	0  	0.795151	0.795151
113	6     	0.795151	0  	0.795151	0.795151
114	6     	0.800537	0  	0.800537	0.800537
115	2     	0.800537	0  	0.800537	0.800537
116	4     	0.800537	0  	0.800537	0.800537
117	4     	0.800537	0  	0.800537	0.800537
118	6     	0.805923	0  	0.805923	0.805923
119	2     	0.805923	0  	0.805923	0.805923
120	2     	0.805923	0  	0.805923	0.805923
121	4     	0.805923	0  	0.805923	0.805923
122	4     	0.805923	0  	0.805923	0.805923
123	6     	0.805923	0  	0.805923	0.805923
124	6     	0.805923	0  	0.805923	0.805923
125	8     	0.805923	0  	0.805923	0.805923
126	10    	0.805923	0  	0.805923	0.805923
127	12    	0.811325	0  	0.811325	0.811325
128	6     	0.822098	0  	0.822098	0.822098
129	2     	0.822098	0  	0.822098	0.822098
130	2     	0.822098	0  	0.822098	0.822098
131	4     	0.822098	0  	0.822098	0.822098
132	4     	0.822098	0  	0.822098	0.822098
133	6     	0.827499	0  	0.827499	0.827499
134	2     	0.827499	0  	0.827499	0.827499
135	2     	0.827499	0  	0.827499	0.827499
136	4     	0.827499	0  	0.827499	0.827499
137	4     	0.827499	0  	0.827499	0.827499
138	6     	0.827499	0  	0.827499	0.827499
139	6     	0.827499	0  	0.827499	0.827499
140	8     	0.832886	0  	0.832886	0.832886
141	4     	0.832886	0  	0.832886	0.832886
142	4     	0.832886	0  	0.832886	0.832886
143	6     	0.832886	0  	0.832886	0.832886
144	6     	0.832886	0  	0.832886	0.832886
145	8     	0.832886	0  	0.832886	0.832886
146	10    	0.832886	0  	0.832886	0.832886
147	12    	0.838272	0  	0.838272	0.838272
148	6     	0.838272	0  	0.838272	0.838272
149	6     	0.838272	0  	0.838272	0.838272
150	8     	0.838272	0  	0.838272	0.838272
151	10    	0.838272	0  	0.838272	0.838272
152	12    	0.843658	0  	0.843658	0.843658
153	6     	0.843658	0  	0.843658	0.843658
154	6     	0.843658	0  	0.843658	0.843658
155	8     	0.843658	0  	0.843658	0.843658
156	10    	0.843658	0  	0.843658	0.843658
157	12    	0.843658	0  	0.843658	0.843658
158	16    	0.84906 	0  	0.84906 	0.84906 
159	6     	0.84906 	0  	0.84906 	0.84906 
160	8     	0.84906 	0  	0.84906 	0.84906 
161	10    	0.84906 	0  	0.84906 	0.84906 
162	12    	0.84906 	0  	0.84906 	0.84906 
163	16    	0.84906 	0  	0.84906 	0.84906 
164	20    	0.84906 	0  	0.84906 	0.84906 
165	24    	0.854446	0  	0.854446	0.854446
166	10    	0.854446	0  	0.854446	0.854446
167	12    	0.854446	0  	0.854446	0.854446
168	16    	0.859833	0  	0.859833	0.859833
169	6     	0.865234	0  	0.865234	0.865234
170	2     	0.865234	0  	0.865234	0.865234
171	4     	0.865234	0  	0.865234	0.865234
172	4     	0.865234	0  	0.865234	0.865234
173	6     	0.870621	0  	0.870621	0.870621
174	2     	0.870621	0  	0.870621	0.870621
175	2     	0.870621	0  	0.870621	0.870621
176	4     	0.870621	0  	0.870621	0.870621
177	4     	0.870621	0  	0.870621	0.870621
178	6     	0.870621	0  	0.870621	0.870621
179	6     	0.870621	0  	0.870621	0.870621
180	8     	0.876007	0  	0.876007	0.876007
181	4     	0.876007	0  	0.876007	0.876007
182	4     	0.876007	0  	0.876007	0.876007
183	6     	0.876007	0  	0.876007	0.876007
184	6     	0.876007	0  	0.876007	0.876007
185	8     	0.876007	0  	0.876007	0.876007
186	10    	0.876007	0  	0.876007	0.876007
187	12    	0.876007	0  	0.876007	0.876007
188	16    	0.881409	0  	0.881409	0.881409
189	6     	0.881409	0  	0.881409	0.881409
190	8     	0.881409	0  	0.881409	0.881409
191	10    	0.881409	0  	0.881409	0.881409
192	12    	0.881409	0  	0.881409	0.881409
193	16    	0.881409	0  	0.881409	0.881409
194	20    	0.881409	0  	0.881409	0.881409
195	24    	0.881409	0  	0.881409	0.881409
196	32    	0.881409	0  	0.881409	0.881409
197	40    	0.886795	0  	0.886795	0.886795
198	16    	0.886795	0  	0.886795	0.886795
199	20    	0.886795	0  	0.886795	0.886795
200	24    	0.886795	0  	0.886795	0.886795
201	32    	0.886795	0  	0.886795	0.886795
202	40    	0.886795	0  	0.886795	0.886795
203	50    	0.886795	0  	0.886795	0.886795
204	62    	0.892181	0  	0.892181	0.892181
205	24    	0.897568	0  	0.897568	0.897568
206	10    	0.897568	0  	0.897568	0.897568
207	12    	0.897568	0  	0.897568	0.897568
208	16    	0.897568	0  	0.897568	0.897568
209	20    	0.897568	0  	0.897568	0.897568
210	24    	0.897568	0  	0.897568	0.897568
211	32    	0.897568	0  	0.897568	0.897568
212	40    	0.897568	0  	0.897568	0.897568
213	50    	0.897568	0  	0.897568	0.897568
214	62    	0.897568	0  	0.897568	0.897568
215	78    	0.897568	0  	0.897568	0.897568
216	98    	0.897568	0  	0.897568	0.897568
217	124   	0.897568	0  	0.897568	0.897568
218	156   	0.897568	0  	0.897568	0.897568
219	196   	0.897568	0  	0.897568	0.897568
220	246   	0.902969	0  	0.902969	0.902969
221	98    	0.902969	0  	0.902969	0.902969
222	124   	0.902969	0  	0.902969	0.902969
223	156   	0.902969	0  	0.902969	0.902969
224	196   	0.902969	0  	0.902969	0.902969
225	246   	0.902969	0  	0.902969	0.902969
226	308   	0.908356	0  	0.908356	0.908356
227	124   	0.908356	0  	0.908356	0.908356
228	156   	0.908356	0  	0.908356	0.908356
229	196   	0.908356	0  	0.908356	0.908356
230	246   	0.908356	0  	0.908356	0.908356
231	308   	0.908356	0  	0.908356	0.908356
232	388   	0.908356	0  	0.908356	0.908356
233	450   	0.908356	0  	0.908356	0.908356
234	450   	0.908356	0  	0.908356	0.908356
235	450   	0.908356	0  	0.908356	0.908356
236	450   	0.908356	0  	0.908356	0.908356
237	450   	0.908356	0  	0.908356	0.908356
238	450   	0.908356	0  	0.908356	0.908356
239	450   	0.908356	0  	0.908356	0.908356
240	450   	0.908356	0  	0.908356	0.908356
241	450   	0.913742	0  	0.913742	0.913742
242	180   	0.913742	0  	0.913742	0.913742
243	226   	0.913742	0  	0.913742	0.913742
244	284   	0.913742	0  	0.913742	0.913742
245	358   	0.913742	0  	0.913742	0.913742
