gen	nevals	avg     	std	min     	max     
0  	1     	0.62561 	0  	0.62561 	0.62561 
1  	2     	0.62561 	0  	0.62561 	0.62561 
2  	2     	0.62561 	0  	0.62561 	0.62561 
3  	4     	0.645325	0  	0.645325	0.645325
4  	2     	0.655167	0  	0.655167	0.655167
5  	2     	0.655167	0  	0.655167	0.655167
6  	2     	0.655167	0  	0.655167	0.655167
7  	4     	0.665024	0  	0.665024	0.665024
8  	2     	0.665024	0  	0.665024	0.665024
9  	2     	0.665024	0  	0.665024	0.665024
10 	4     	0.665024	0  	0.665024	0.665024
11 	4     	0.665024	0  	0.665024	0.665024
12 	6     	0.674881	0  	0.674881	0.674881
13 	2     	0.674881	0  	0.674881	0.674881
14 	2     	0.674881	0  	0.674881	0.674881
15 	4     	0.674881	0  	0.674881	0.674881
16 	4     	0.674881	0  	0.674881	0.674881
17 	6     	0.704437	0  	0.704437	0.704437
18 	2     	0.704437	0  	0.704437	0.704437
19 	2     	0.704437	0  	0.704437	0.704437
20 	4     	0.704437	0  	0.704437	0.704437
21 	4     	0.714279	0  	0.714279	0.714279
22 	2     	0.714279	0  	0.714279	0.714279
23 	2     	0.714279	0  	0.714279	0.714279
24 	4     	0.724136	0  	0.724136	0.724136
25 	2     	0.724136	0  	0.724136	0.724136
26 	2     	0.724136	0  	0.724136	0.724136
27 	4     	0.724136	0  	0.724136	0.724136
28 	4     	0.724136	0  	0.724136	0.724136
29 	6     	0.724136	0  	0.724136	0.724136
30 	6     	0.743835	0  	0.743835	0.743835
31 	2     	0.743835	0  	0.743835	0.743835
32 	4     	0.743835	0  	0.743835	0.743835
33 	4     	0.743835	0  	0.743835	0.743835
34 	6     	0.743835	0  	0.743835	0.743835
35 	6     	0.753693	0  	0.753693	0.753693
36 	2     	0.753693	0  	0.753693	0.753693
37 	4     	0.753693	0  	0.753693	0.753693
38 	4     	0.753693	0  	0.753693	0.753693
39 	6     	0.753693	0  	0.753693	0.753693
40 	6     	0.753693	0  	0.753693	0.753693
41 	8     	0.783249	0  	0.783249	0.783249
42 	4     	0.783249	0  	0.783249	0.783249
43 	4     	0.783249	0  	0.783249	0.783249
44 	6     	0.783249	0  	0.783249	0.783249
45 	6     	0.783249	0  	0.783249	0.783249
46 	8     	0.793106	0  	0.793106	0.793106
47 	4     	0.793106	0  	0.793106	0.793106
48 	4     	0.793106	0  	0.793106	0.793106
49 	6     	0.802963	0  	0.802963	0.802963
50 	2     	0.802963	0  	0.802963	0.802963
51 	2     	0.802963	0  	0.802963	0.802963
52 	4     	0.802963	0  	0.802963	0.802963
53 	4     	0.802963	0  	0.802963	0.802963
54 	6     	0.812805	0  	0.812805	0.812805
55 	2     	0.812805	0  	0.812805	0.812805
56 	2     	0.812805	0  	0.812805	0.812805
57 	4     	0.812805	0  	0.812805	0.812805
58 	4     	0.812805	0  	0.812805	0.812805
59 	6     	0.812805	0  	0.812805	0.812805
60 	6     	0.812805	0  	0.812805	0.812805
61 	8     	0.822662	0  	0.822662	0.822662
62 	4     	0.822662	0  	0.822662	0.822662
63 	4     	0.822662	0  	0.822662	0.822662
64 	6     	0.822662	0  	0.822662	0.822662
65 	6     	0.822662	0  	0.822662	0.822662
66 	8     	0.822662	0  	0.822662	0.822662
67 	10    	0.83252 	0  	0.83252 	0.83252 
68 	4     	0.83252 	0  	0.83252 	0.83252 
69 	6     	0.83252 	0  	0.83252 	0.83252 
70 	6     	0.83252 	0  	0.83252 	0.83252 
71 	8     	0.83252 	0  	0.83252 	0.83252 
72 	10    	0.83252 	0  	0.83252 	0.83252 
73 	12    	0.83252 	0  	0.83252 	0.83252 
74 	16    	0.83252 	0  	0.83252 	0.83252 
75 	20    	0.83252 	0  	0.83252 	0.83252 
76 	24    	0.83252 	0  	0.83252 	0.83252 
77 	32    	0.83252 	0  	0.83252 	0.83252 
78 	40    	0.842361	0  	0.842361	0.842361
79 	16    	0.842361	0  	0.842361	0.842361
80 	20    	0.852219	0  	0.852219	0.852219
81 	8     	0.852219	0  	0.852219	0.852219
82 	10    	0.852219	0  	0.852219	0.852219
83 	12    	0.852219	0  	0.852219	0.852219
84 	16    	0.852219	0  	0.852219	0.852219
85 	20    	0.862076	0  	0.862076	0.862076
86 	8     	0.862076	0  	0.862076	0.862076
87 	10    	0.871918	0  	0.871918	0.871918
88 	4     	0.871918	0  	0.871918	0.871918
89 	6     	0.871918	0  	0.871918	0.871918
90 	6     	0.871918	0  	0.871918	0.871918
91 	8     	0.871918	0  	0.871918	0.871918
92 	10    	0.871918	0  	0.871918	0.871918
93 	12    	0.871918	0  	0.871918	0.871918
94 	16    	0.881775	0  	0.881775	0.881775
95 	6     	0.881775	0  	0.881775	0.881775
96 	8     	0.881775	0  	0.881775	0.881775
97 	10    	0.881775	0  	0.881775	0.881775
98 	12    	0.881775	0  	0.881775	0.881775
99 	16    	0.891632	0  	0.891632	0.891632
100	6     	0.891632	0  	0.891632	0.891632
101	8     	0.891632	0  	0.891632	0.891632
102	10    	0.891632	0  	0.891632	0.891632
103	12    	0.891632	0  	0.891632	0.891632
104	16    	0.891632	0  	0.891632	0.891632
105	20    	0.891632	0  	0.891632	0.891632
106	24    	0.891632	0  	0.891632	0.891632
107	32    	0.891632	0  	0.891632	0.891632
108	40    	0.891632	0  	0.891632	0.891632
109	50    	0.891632	0  	0.891632	0.891632
110	62    	0.901474	0  	0.901474	0.901474
111	24    	0.901474	0  	0.901474	0.901474
112	32    	0.901474	0  	0.901474	0.901474
113	40    	0.901474	0  	0.901474	0.901474
114	50    	0.901474	0  	0.901474	0.901474
115	62    	0.901474	0  	0.901474	0.901474
116	78    	0.901474	0  	0.901474	0.901474
117	98    	0.901474	0  	0.901474	0.901474
118	124   	0.901474	0  	0.901474	0.901474
119	156   	0.901474	0  	0.901474	0.901474
120	196   	0.901474	0  	0.901474	0.901474
121	242   	0.901474	0  	0.901474	0.901474
122	242   	0.901474	0  	0.901474	0.901474
123	242   	0.901474	0  	0.901474	0.901474
124	242   	0.901474	0  	0.901474	0.901474
125	242   	0.901474	0  	0.901474	0.901474
126	242   	0.901474	0  	0.901474	0.901474
127	242   	0.901474	0  	0.901474	0.901474
128	242   	0.901474	0  	0.901474	0.901474
129	242   	0.901474	0  	0.901474	0.901474
130	242   	0.901474	0  	0.901474	0.901474
131	242   	0.901474	0  	0.901474	0.901474
132	242   	0.901474	0  	0.901474	0.901474
133	242   	0.901474	0  	0.901474	0.901474
134	242   	0.901474	0  	0.901474	0.901474
135	242   	0.901474	0  	0.901474	0.901474
136	242   	0.901474	0  	0.901474	0.901474
137	242   	0.901474	0  	0.901474	0.901474
138	242   	0.901474	0  	0.901474	0.901474
139	242   	0.901474	0  	0.901474	0.901474
140	242   	0.901474	0  	0.901474	0.901474
141	242   	0.901474	0  	0.901474	0.901474
142	242   	0.901474	0  	0.901474	0.901474
143	242   	0.901474	0  	0.901474	0.901474
144	242   	0.901474	0  	0.901474	0.901474
145	242   	0.901474	0  	0.901474	0.901474
146	242   	0.901474	0  	0.901474	0.901474
147	242   	0.901474	0  	0.901474	0.901474
148	242   	0.901474	0  	0.901474	0.901474
149	242   	0.901474	0  	0.901474	0.901474
150	242   	0.901474	0  	0.901474	0.901474
151	242   	0.901474	0  	0.901474	0.901474
152	242   	0.901474	0  	0.901474	0.901474
153	242   	0.901474	0  	0.901474	0.901474
154	242   	0.901474	0  	0.901474	0.901474
