gen	nevals	avg     	std	min     	max     
0  	1     	0.575851	0  	0.575851	0.575851
1  	2     	0.575851	0  	0.575851	0.575851
2  	2     	0.575851	0  	0.575851	0.575851
3  	4     	0.579117	0  	0.579117	0.579117
4  	2     	0.579117	0  	0.579117	0.579117
5  	2     	0.579117	0  	0.579117	0.579117
6  	4     	0.579117	0  	0.579117	0.579117
7  	4     	0.585648	0  	0.585648	0.585648
8  	2     	0.585648	0  	0.585648	0.585648
9  	2     	0.585648	0  	0.585648	0.585648
10 	4     	0.585648	0  	0.585648	0.585648
11 	4     	0.585648	0  	0.585648	0.585648
12 	6     	0.592163	0  	0.592163	0.592163
13 	2     	0.592163	0  	0.592163	0.592163
14 	2     	0.592163	0  	0.592163	0.592163
15 	4     	0.592163	0  	0.592163	0.592163
16 	4     	0.592163	0  	0.592163	0.592163
17 	6     	0.598694	0  	0.598694	0.598694
18 	2     	0.598694	0  	0.598694	0.598694
19 	2     	0.598694	0  	0.598694	0.598694
20 	4     	0.598694	0  	0.598694	0.598694
21 	4     	0.598694	0  	0.598694	0.598694
22 	6     	0.601959	0  	0.601959	0.601959
23 	2     	0.601959	0  	0.601959	0.601959
24 	2     	0.601959	0  	0.601959	0.601959
25 	4     	0.601959	0  	0.601959	0.601959
26 	4     	0.601959	0  	0.601959	0.601959
27 	6     	0.601959	0  	0.601959	0.601959
28 	6     	0.601959	0  	0.601959	0.601959
29 	8     	0.601959	0  	0.601959	0.601959
30 	10    	0.60849 	0  	0.60849 	0.60849 
31 	4     	0.61174 	0  	0.61174 	0.61174 
32 	2     	0.618271	0  	0.618271	0.618271
33 	2     	0.618271	0  	0.618271	0.618271
34 	2     	0.621536	0  	0.621536	0.621536
35 	2     	0.621536	0  	0.621536	0.621536
36 	2     	0.621536	0  	0.621536	0.621536
37 	4     	0.621536	0  	0.621536	0.621536
38 	4     	0.621536	0  	0.621536	0.621536
39 	6     	0.631317	0  	0.631317	0.631317
40 	2     	0.631317	0  	0.631317	0.631317
41 	2     	0.631317	0  	0.631317	0.631317
42 	4     	0.631317	0  	0.631317	0.631317
43 	4     	0.631317	0  	0.631317	0.631317
44 	6     	0.634583	0  	0.634583	0.634583
45 	2     	0.634583	0  	0.634583	0.634583
46 	2     	0.634583	0  	0.634583	0.634583
47 	4     	0.637848	0  	0.637848	0.637848
48 	2     	0.637848	0  	0.637848	0.637848
49 	2     	0.637848	0  	0.637848	0.637848
50 	4     	0.641113	0  	0.641113	0.641113
51 	2     	0.641113	0  	0.641113	0.641113
52 	2     	0.641113	0  	0.641113	0.641113
53 	4     	0.644379	0  	0.644379	0.644379
54 	2     	0.644379	0  	0.644379	0.644379
55 	2     	0.647629	0  	0.647629	0.647629
56 	2     	0.647629	0  	0.647629	0.647629
57 	2     	0.647629	0  	0.647629	0.647629
58 	4     	0.647629	0  	0.647629	0.647629
59 	4     	0.647629	0  	0.647629	0.647629
60 	6     	0.647629	0  	0.647629	0.647629
61 	6     	0.650894	0  	0.650894	0.650894
62 	2     	0.650894	0  	0.650894	0.650894
63 	4     	0.650894	0  	0.650894	0.650894
64 	4     	0.657425	0  	0.657425	0.657425
65 	2     	0.667206	0  	0.667206	0.667206
66 	2     	0.667206	0  	0.667206	0.667206
67 	2     	0.667206	0  	0.667206	0.667206
68 	4     	0.670471	0  	0.670471	0.670471
69 	2     	0.670471	0  	0.670471	0.670471
70 	2     	0.670471	0  	0.670471	0.670471
71 	4     	0.670471	0  	0.670471	0.670471
72 	4     	0.673737	0  	0.673737	0.673737
73 	2     	0.673737	0  	0.673737	0.673737
74 	2     	0.673737	0  	0.673737	0.673737
75 	4     	0.680267	0  	0.680267	0.680267
76 	2     	0.680267	0  	0.680267	0.680267
77 	2     	0.680267	0  	0.680267	0.680267
78 	4     	0.683517	0  	0.683517	0.683517
79 	2     	0.683517	0  	0.683517	0.683517
80 	2     	0.683517	0  	0.683517	0.683517
81 	4     	0.686783	0  	0.686783	0.686783
82 	2     	0.686783	0  	0.686783	0.686783
83 	2     	0.686783	0  	0.686783	0.686783
84 	4     	0.686783	0  	0.686783	0.686783
85 	4     	0.690048	0  	0.690048	0.690048
86 	2     	0.690048	0  	0.690048	0.690048
87 	2     	0.690048	0  	0.690048	0.690048
88 	4     	0.690048	0  	0.690048	0.690048
89 	4     	0.690048	0  	0.690048	0.690048
90 	6     	0.690048	0  	0.690048	0.690048
91 	6     	0.690048	0  	0.690048	0.690048
92 	8     	0.693314	0  	0.693314	0.693314
93 	4     	0.693314	0  	0.693314	0.693314
94 	4     	0.693314	0  	0.693314	0.693314
95 	6     	0.693314	0  	0.693314	0.693314
96 	6     	0.699844	0  	0.699844	0.699844
97 	2     	0.699844	0  	0.699844	0.699844
98 	4     	0.699844	0  	0.699844	0.699844
99 	4     	0.699844	0  	0.699844	0.699844
100	6     	0.699844	0  	0.699844	0.699844
101	6     	0.699844	0  	0.699844	0.699844
102	8     	0.699844	0  	0.699844	0.699844
103	10    	0.703094	0  	0.703094	0.703094
104	4     	0.703094	0  	0.703094	0.703094
105	6     	0.70636 	0  	0.70636 	0.70636 
106	2     	0.70636 	0  	0.70636 	0.70636 
107	2     	0.70636 	0  	0.70636 	0.70636 
108	4     	0.70636 	0  	0.70636 	0.70636 
109	4     	0.709625	0  	0.709625	0.709625
110	2     	0.709625	0  	0.709625	0.709625
111	2     	0.709625	0  	0.709625	0.709625
112	4     	0.709625	0  	0.709625	0.709625
113	4     	0.709625	0  	0.709625	0.709625
114	6     	0.709625	0  	0.709625	0.709625
115	6     	0.712891	0  	0.712891	0.712891
116	2     	0.712891	0  	0.712891	0.712891
117	4     	0.712891	0  	0.712891	0.712891
118	4     	0.716156	0  	0.716156	0.716156
119	2     	0.716156	0  	0.716156	0.716156
120	2     	0.716156	0  	0.716156	0.716156
121	4     	0.716156	0  	0.716156	0.716156
122	4     	0.719406	0  	0.719406	0.719406
123	2     	0.719406	0  	0.719406	0.719406
124	2     	0.719406	0  	0.719406	0.719406
125	4     	0.725937	0  	0.725937	0.725937
126	2     	0.729202	0  	0.729202	0.729202
127	2     	0.729202	0  	0.729202	0.729202
128	2     	0.729202	0  	0.729202	0.729202
129	4     	0.729202	0  	0.729202	0.729202
130	4     	0.729202	0  	0.729202	0.729202
131	6     	0.729202	0  	0.729202	0.729202
132	6     	0.732468	0  	0.732468	0.732468
133	2     	0.732468	0  	0.732468	0.732468
134	4     	0.732468	0  	0.732468	0.732468
135	4     	0.742249	0  	0.742249	0.742249
136	2     	0.742249	0  	0.742249	0.742249
137	2     	0.742249	0  	0.742249	0.742249
138	4     	0.745514	0  	0.745514	0.745514
139	2     	0.745514	0  	0.745514	0.745514
140	2     	0.745514	0  	0.745514	0.745514
141	4     	0.745514	0  	0.745514	0.745514
142	4     	0.745514	0  	0.745514	0.745514
143	6     	0.745514	0  	0.745514	0.745514
144	6     	0.748779	0  	0.748779	0.748779
145	2     	0.748779	0  	0.748779	0.748779
146	4     	0.748779	0  	0.748779	0.748779
147	4     	0.748779	0  	0.748779	0.748779
148	6     	0.748779	0  	0.748779	0.748779
149	6     	0.752045	0  	0.752045	0.752045
150	2     	0.752045	0  	0.752045	0.752045
151	4     	0.752045	0  	0.752045	0.752045
152	4     	0.752045	0  	0.752045	0.752045
153	6     	0.75856 	0  	0.75856 	0.75856 
154	2     	0.75856 	0  	0.75856 	0.75856 
155	2     	0.75856 	0  	0.75856 	0.75856 
156	4     	0.75856 	0  	0.75856 	0.75856 
157	4     	0.75856 	0  	0.75856 	0.75856 
158	6     	0.765091	0  	0.765091	0.765091
159	2     	0.768356	0  	0.768356	0.768356
160	2     	0.768356	0  	0.768356	0.768356
161	2     	0.768356	0  	0.768356	0.768356
162	4     	0.768356	0  	0.768356	0.768356
163	4     	0.768356	0  	0.768356	0.768356
164	6     	0.768356	0  	0.768356	0.768356
165	6     	0.768356	0  	0.768356	0.768356
166	8     	0.771622	0  	0.771622	0.771622
167	4     	0.771622	0  	0.771622	0.771622
168	4     	0.771622	0  	0.771622	0.771622
169	6     	0.771622	0  	0.771622	0.771622
170	6     	0.778137	0  	0.778137	0.778137
171	2     	0.778137	0  	0.778137	0.778137
172	4     	0.778137	0  	0.778137	0.778137
173	4     	0.778137	0  	0.778137	0.778137
174	6     	0.778137	0  	0.778137	0.778137
175	6     	0.778137	0  	0.778137	0.778137
176	8     	0.781403	0  	0.781403	0.781403
177	4     	0.781403	0  	0.781403	0.781403
178	4     	0.781403	0  	0.781403	0.781403
179	6     	0.781403	0  	0.781403	0.781403
180	6     	0.787933	0  	0.787933	0.787933
181	2     	0.787933	0  	0.787933	0.787933
182	4     	0.787933	0  	0.787933	0.787933
183	4     	0.787933	0  	0.787933	0.787933
184	6     	0.791183	0  	0.791183	0.791183
185	2     	0.791183	0  	0.791183	0.791183
186	2     	0.791183	0  	0.791183	0.791183
187	4     	0.791183	0  	0.791183	0.791183
188	4     	0.791183	0  	0.791183	0.791183
189	6     	0.791183	0  	0.791183	0.791183
190	6     	0.794449	0  	0.794449	0.794449
191	2     	0.794449	0  	0.794449	0.794449
192	4     	0.794449	0  	0.794449	0.794449
193	4     	0.794449	0  	0.794449	0.794449
194	6     	0.794449	0  	0.794449	0.794449
195	6     	0.794449	0  	0.794449	0.794449
196	8     	0.794449	0  	0.794449	0.794449
197	10    	0.794449	0  	0.794449	0.794449
198	12    	0.797714	0  	0.797714	0.797714
199	6     	0.797714	0  	0.797714	0.797714
200	6     	0.797714	0  	0.797714	0.797714
201	8     	0.797714	0  	0.797714	0.797714
202	10    	0.797714	0  	0.797714	0.797714
203	12    	0.797714	0  	0.797714	0.797714
204	16    	0.80098 	0  	0.80098 	0.80098 
205	6     	0.80098 	0  	0.80098 	0.80098 
206	8     	0.80098 	0  	0.80098 	0.80098 
207	10    	0.804245	0  	0.804245	0.804245
208	4     	0.81076 	0  	0.81076 	0.81076 
209	2     	0.81076 	0  	0.81076 	0.81076 
210	2     	0.81076 	0  	0.81076 	0.81076 
211	4     	0.81076 	0  	0.81076 	0.81076 
212	4     	0.81076 	0  	0.81076 	0.81076 
213	6     	0.81076 	0  	0.81076 	0.81076 
214	6     	0.81076 	0  	0.81076 	0.81076 
215	8     	0.814026	0  	0.814026	0.814026
216	4     	0.814026	0  	0.814026	0.814026
217	4     	0.814026	0  	0.814026	0.814026
218	6     	0.814026	0  	0.814026	0.814026
219	6     	0.814026	0  	0.814026	0.814026
220	8     	0.814026	0  	0.814026	0.814026
221	10    	0.814026	0  	0.814026	0.814026
222	12    	0.817291	0  	0.817291	0.817291
223	6     	0.817291	0  	0.817291	0.817291
224	6     	0.817291	0  	0.817291	0.817291
225	8     	0.817291	0  	0.817291	0.817291
226	10    	0.817291	0  	0.817291	0.817291
227	12    	0.823822	0  	0.823822	0.823822
228	6     	0.823822	0  	0.823822	0.823822
229	6     	0.823822	0  	0.823822	0.823822
230	8     	0.823822	0  	0.823822	0.823822
231	10    	0.823822	0  	0.823822	0.823822
232	12    	0.823822	0  	0.823822	0.823822
233	16    	0.823822	0  	0.823822	0.823822
234	20    	0.823822	0  	0.823822	0.823822
235	24    	0.823822	0  	0.823822	0.823822
236	32    	0.823822	0  	0.823822	0.823822
237	40    	0.827087	0  	0.827087	0.827087
238	16    	0.833603	0  	0.833603	0.833603
239	6     	0.836868	0  	0.836868	0.836868
240	2     	0.836868	0  	0.836868	0.836868
241	4     	0.836868	0  	0.836868	0.836868
242	4     	0.836868	0  	0.836868	0.836868
243	6     	0.836868	0  	0.836868	0.836868
244	6     	0.836868	0  	0.836868	0.836868
245	8     	0.836868	0  	0.836868	0.836868
246	10    	0.836868	0  	0.836868	0.836868
247	12    	0.836868	0  	0.836868	0.836868
248	16    	0.836868	0  	0.836868	0.836868
249	20    	0.836868	0  	0.836868	0.836868
250	24    	0.840134	0  	0.840134	0.840134
251	10    	0.840134	0  	0.840134	0.840134
252	12    	0.843399	0  	0.843399	0.843399
253	6     	0.843399	0  	0.843399	0.843399
254	6     	0.846649	0  	0.846649	0.846649
255	2     	0.846649	0  	0.846649	0.846649
256	4     	0.846649	0  	0.846649	0.846649
257	4     	0.846649	0  	0.846649	0.846649
258	6     	0.846649	0  	0.846649	0.846649
259	6     	0.846649	0  	0.846649	0.846649
260	8     	0.846649	0  	0.846649	0.846649
261	10    	0.85318 	0  	0.85318 	0.85318 
262	4     	0.85318 	0  	0.85318 	0.85318 
263	6     	0.85318 	0  	0.85318 	0.85318 
264	6     	0.85318 	0  	0.85318 	0.85318 
265	8     	0.85318 	0  	0.85318 	0.85318 
266	10    	0.85318 	0  	0.85318 	0.85318 
267	12    	0.85318 	0  	0.85318 	0.85318 
268	16    	0.85318 	0  	0.85318 	0.85318 
269	20    	0.85318 	0  	0.85318 	0.85318 
270	24    	0.85318 	0  	0.85318 	0.85318 
271	32    	0.85318 	0  	0.85318 	0.85318 
272	40    	0.85318 	0  	0.85318 	0.85318 
273	50    	0.856445	0  	0.856445	0.856445
274	20    	0.859711	0  	0.859711	0.859711
275	8     	0.859711	0  	0.859711	0.859711
276	10    	0.859711	0  	0.859711	0.859711
277	12    	0.859711	0  	0.859711	0.859711
278	16    	0.859711	0  	0.859711	0.859711
279	20    	0.859711	0  	0.859711	0.859711
280	24    	0.859711	0  	0.859711	0.859711
281	32    	0.859711	0  	0.859711	0.859711
282	40    	0.859711	0  	0.859711	0.859711
283	50    	0.862976	0  	0.862976	0.862976
284	20    	0.866226	0  	0.866226	0.866226
285	8     	0.866226	0  	0.866226	0.866226
286	10    	0.866226	0  	0.866226	0.866226
287	12    	0.866226	0  	0.866226	0.866226
288	16    	0.869492	0  	0.869492	0.869492
289	6     	0.869492	0  	0.869492	0.869492
290	8     	0.869492	0  	0.869492	0.869492
291	10    	0.869492	0  	0.869492	0.869492
292	12    	0.869492	0  	0.869492	0.869492
293	16    	0.869492	0  	0.869492	0.869492
294	20    	0.872757	0  	0.872757	0.872757
295	8     	0.872757	0  	0.872757	0.872757
296	10    	0.872757	0  	0.872757	0.872757
297	12    	0.872757	0  	0.872757	0.872757
298	16    	0.876022	0  	0.876022	0.876022
299	6     	0.876022	0  	0.876022	0.876022
300	8     	0.876022	0  	0.876022	0.876022
301	10    	0.876022	0  	0.876022	0.876022
302	12    	0.876022	0  	0.876022	0.876022
303	16    	0.876022	0  	0.876022	0.876022
304	20    	0.876022	0  	0.876022	0.876022
305	24    	0.876022	0  	0.876022	0.876022
306	32    	0.876022	0  	0.876022	0.876022
307	40    	0.876022	0  	0.876022	0.876022
308	50    	0.879288	0  	0.879288	0.879288
309	20    	0.879288	0  	0.879288	0.879288
310	24    	0.882538	0  	0.882538	0.882538
311	10    	0.882538	0  	0.882538	0.882538
312	12    	0.882538	0  	0.882538	0.882538
313	16    	0.882538	0  	0.882538	0.882538
314	20    	0.882538	0  	0.882538	0.882538
315	24    	0.885803	0  	0.885803	0.885803
316	10    	0.885803	0  	0.885803	0.885803
317	12    	0.885803	0  	0.885803	0.885803
318	16    	0.885803	0  	0.885803	0.885803
319	20    	0.885803	0  	0.885803	0.885803
320	24    	0.885803	0  	0.885803	0.885803
321	32    	0.885803	0  	0.885803	0.885803
322	40    	0.885803	0  	0.885803	0.885803
323	50    	0.885803	0  	0.885803	0.885803
324	62    	0.885803	0  	0.885803	0.885803
325	78    	0.885803	0  	0.885803	0.885803
326	98    	0.885803	0  	0.885803	0.885803
327	124   	0.885803	0  	0.885803	0.885803
328	156   	0.889069	0  	0.889069	0.889069
329	62    	0.889069	0  	0.889069	0.889069
330	78    	0.889069	0  	0.889069	0.889069
331	98    	0.889069	0  	0.889069	0.889069
332	124   	0.889069	0  	0.889069	0.889069
333	156   	0.889069	0  	0.889069	0.889069
334	196   	0.889069	0  	0.889069	0.889069
335	246   	0.889069	0  	0.889069	0.889069
336	308   	0.889069	0  	0.889069	0.889069
337	388   	0.889069	0  	0.889069	0.889069
338	488   	0.889069	0  	0.889069	0.889069
339	614   	0.889069	0  	0.889069	0.889069
340	722   	0.892334	0  	0.892334	0.892334
341	288   	0.892334	0  	0.892334	0.892334
342	364   	0.892334	0  	0.892334	0.892334
343	456   	0.892334	0  	0.892334	0.892334
344	574   	0.892334	0  	0.892334	0.892334
345	722   	0.892334	0  	0.892334	0.892334
346	722   	0.892334	0  	0.892334	0.892334
347	722   	0.892334	0  	0.892334	0.892334
