gen	nevals	avg     	std	min     	max     
0  	1     	0.539398	0  	0.539398	0.539398
1  	2     	0.539398	0  	0.539398	0.539398
2  	2     	0.539398	0  	0.539398	0.539398
3  	4     	0.545456	0  	0.545456	0.545456
4  	2     	0.551514	0  	0.551514	0.551514
5  	2     	0.551514	0  	0.551514	0.551514
6  	2     	0.551514	0  	0.551514	0.551514
7  	4     	0.557571	0  	0.557571	0.557571
8  	2     	0.557571	0  	0.557571	0.557571
9  	2     	0.557571	0  	0.557571	0.557571
10 	4     	0.557571	0  	0.557571	0.557571
11 	4     	0.57576 	0  	0.57576 	0.57576 
12 	2     	0.57576 	0  	0.57576 	0.57576 
13 	2     	0.587875	0  	0.587875	0.587875
14 	2     	0.587875	0  	0.587875	0.587875
15 	2     	0.587875	0  	0.587875	0.587875
16 	4     	0.587875	0  	0.587875	0.587875
17 	4     	0.593933	0  	0.593933	0.593933
18 	2     	0.593933	0  	0.593933	0.593933
19 	2     	0.593933	0  	0.593933	0.593933
20 	4     	0.593933	0  	0.593933	0.593933
21 	4     	0.593933	0  	0.593933	0.593933
22 	6     	0.593933	0  	0.593933	0.593933
23 	6     	0.593933	0  	0.593933	0.593933
24 	8     	0.593933	0  	0.593933	0.593933
25 	10    	0.606064	0  	0.606064	0.606064
26 	4     	0.606064	0  	0.606064	0.606064
27 	6     	0.612122	0  	0.612122	0.612122
28 	2     	0.612122	0  	0.612122	0.612122
29 	2     	0.618179	0  	0.618179	0.618179
30 	2     	0.618179	0  	0.618179	0.618179
31 	2     	0.618179	0  	0.618179	0.618179
32 	4     	0.618179	0  	0.618179	0.618179
33 	4     	0.636368	0  	0.636368	0.636368
34 	2     	0.642426	0  	0.642426	0.642426
35 	2     	0.642426	0  	0.642426	0.642426
36 	2     	0.642426	0  	0.642426	0.642426
37 	4     	0.642426	0  	0.642426	0.642426
38 	4     	0.642426	0  	0.642426	0.642426
39 	6     	0.648483	0  	0.648483	0.648483
40 	2     	0.648483	0  	0.648483	0.648483
41 	2     	0.648483	0  	0.648483	0.648483
42 	4     	0.648483	0  	0.648483	0.648483
43 	4     	0.648483	0  	0.648483	0.648483
44 	6     	0.654541	0  	0.654541	0.654541
45 	2     	0.654541	0  	0.654541	0.654541
46 	2     	0.654541	0  	0.654541	0.654541
47 	4     	0.660599	0  	0.660599	0.660599
48 	2     	0.660599	0  	0.660599	0.660599
49 	2     	0.660599	0  	0.660599	0.660599
50 	4     	0.660599	0  	0.660599	0.660599
51 	4     	0.660599	0  	0.660599	0.660599
52 	6     	0.660599	0  	0.660599	0.660599
53 	6     	0.660599	0  	0.660599	0.660599
54 	8     	0.672729	0  	0.672729	0.672729
55 	4     	0.678787	0  	0.678787	0.678787
56 	2     	0.678787	0  	0.678787	0.678787
57 	2     	0.690903	0  	0.690903	0.690903
58 	2     	0.690903	0  	0.690903	0.690903
59 	2     	0.690903	0  	0.690903	0.690903
60 	4     	0.690903	0  	0.690903	0.690903
61 	4     	0.696976	0  	0.696976	0.696976
62 	2     	0.696976	0  	0.696976	0.696976
63 	2     	0.703033	0  	0.703033	0.703033
64 	2     	0.703033	0  	0.703033	0.703033
65 	2     	0.703033	0  	0.703033	0.703033
66 	4     	0.703033	0  	0.703033	0.703033
67 	4     	0.709091	0  	0.709091	0.709091
68 	2     	0.721207	0  	0.721207	0.721207
69 	2     	0.721207	0  	0.721207	0.721207
70 	2     	0.721207	0  	0.721207	0.721207
71 	4     	0.721207	0  	0.721207	0.721207
72 	4     	0.721207	0  	0.721207	0.721207
73 	6     	0.72728 	0  	0.72728 	0.72728 
74 	2     	0.72728 	0  	0.72728 	0.72728 
75 	2     	0.72728 	0  	0.72728 	0.72728 
76 	4     	0.72728 	0  	0.72728 	0.72728 
77 	4     	0.72728 	0  	0.72728 	0.72728 
78 	6     	0.733337	0  	0.733337	0.733337
79 	2     	0.733337	0  	0.733337	0.733337
80 	2     	0.733337	0  	0.733337	0.733337
81 	4     	0.733337	0  	0.733337	0.733337
82 	4     	0.733337	0  	0.733337	0.733337
83 	6     	0.733337	0  	0.733337	0.733337
84 	6     	0.733337	0  	0.733337	0.733337
85 	8     	0.733337	0  	0.733337	0.733337
86 	10    	0.733337	0  	0.733337	0.733337
87 	12    	0.733337	0  	0.733337	0.733337
88 	16    	0.739395	0  	0.739395	0.739395
89 	6     	0.745453	0  	0.745453	0.745453
90 	2     	0.745453	0  	0.745453	0.745453
91 	4     	0.745453	0  	0.745453	0.745453
92 	4     	0.751511	0  	0.751511	0.751511
93 	2     	0.751511	0  	0.751511	0.751511
94 	2     	0.751511	0  	0.751511	0.751511
95 	4     	0.751511	0  	0.751511	0.751511
96 	4     	0.751511	0  	0.751511	0.751511
97 	6     	0.751511	0  	0.751511	0.751511
98 	6     	0.751511	0  	0.751511	0.751511
99 	8     	0.757568	0  	0.757568	0.757568
100	4     	0.757568	0  	0.757568	0.757568
101	4     	0.757568	0  	0.757568	0.757568
102	6     	0.757568	0  	0.757568	0.757568
103	6     	0.763641	0  	0.763641	0.763641
104	2     	0.763641	0  	0.763641	0.763641
105	4     	0.763641	0  	0.763641	0.763641
106	4     	0.775757	0  	0.775757	0.775757
107	2     	0.775757	0  	0.775757	0.775757
108	2     	0.775757	0  	0.775757	0.775757
109	4     	0.775757	0  	0.775757	0.775757
110	4     	0.775757	0  	0.775757	0.775757
111	6     	0.775757	0  	0.775757	0.775757
112	6     	0.781815	0  	0.781815	0.781815
113	2     	0.781815	0  	0.781815	0.781815
114	4     	0.793945	0  	0.793945	0.793945
115	2     	0.793945	0  	0.793945	0.793945
116	2     	0.793945	0  	0.793945	0.793945
117	4     	0.793945	0  	0.793945	0.793945
118	4     	0.793945	0  	0.793945	0.793945
119	6     	0.793945	0  	0.793945	0.793945
120	6     	0.793945	0  	0.793945	0.793945
121	8     	0.800003	0  	0.800003	0.800003
122	4     	0.800003	0  	0.800003	0.800003
123	4     	0.800003	0  	0.800003	0.800003
124	6     	0.800003	0  	0.800003	0.800003
125	6     	0.800003	0  	0.800003	0.800003
126	8     	0.800003	0  	0.800003	0.800003
127	10    	0.800003	0  	0.800003	0.800003
128	12    	0.806061	0  	0.806061	0.806061
129	6     	0.806061	0  	0.806061	0.806061
130	6     	0.806061	0  	0.806061	0.806061
131	8     	0.806061	0  	0.806061	0.806061
132	10    	0.806061	0  	0.806061	0.806061
133	12    	0.806061	0  	0.806061	0.806061
134	16    	0.806061	0  	0.806061	0.806061
135	20    	0.806061	0  	0.806061	0.806061
136	24    	0.812119	0  	0.812119	0.812119
137	10    	0.812119	0  	0.812119	0.812119
138	12    	0.812119	0  	0.812119	0.812119
139	16    	0.818176	0  	0.818176	0.818176
140	6     	0.818176	0  	0.818176	0.818176
141	8     	0.818176	0  	0.818176	0.818176
142	10    	0.818176	0  	0.818176	0.818176
143	12    	0.824249	0  	0.824249	0.824249
144	6     	0.824249	0  	0.824249	0.824249
145	6     	0.824249	0  	0.824249	0.824249
146	8     	0.824249	0  	0.824249	0.824249
147	10    	0.824249	0  	0.824249	0.824249
148	12    	0.830307	0  	0.830307	0.830307
149	6     	0.830307	0  	0.830307	0.830307
150	6     	0.830307	0  	0.830307	0.830307
151	8     	0.830307	0  	0.830307	0.830307
152	10    	0.830307	0  	0.830307	0.830307
153	12    	0.830307	0  	0.830307	0.830307
154	16    	0.836365	0  	0.836365	0.836365
155	6     	0.836365	0  	0.836365	0.836365
156	8     	0.836365	0  	0.836365	0.836365
157	10    	0.836365	0  	0.836365	0.836365
158	12    	0.836365	0  	0.836365	0.836365
159	16    	0.836365	0  	0.836365	0.836365
160	20    	0.836365	0  	0.836365	0.836365
161	24    	0.836365	0  	0.836365	0.836365
162	32    	0.836365	0  	0.836365	0.836365
163	40    	0.836365	0  	0.836365	0.836365
164	50    	0.842422	0  	0.842422	0.842422
165	20    	0.842422	0  	0.842422	0.842422
166	24    	0.842422	0  	0.842422	0.842422
167	32    	0.842422	0  	0.842422	0.842422
168	40    	0.842422	0  	0.842422	0.842422
169	50    	0.84848 	0  	0.84848 	0.84848 
170	20    	0.84848 	0  	0.84848 	0.84848 
171	24    	0.84848 	0  	0.84848 	0.84848 
172	32    	0.854538	0  	0.854538	0.854538
173	12    	0.860611	0  	0.860611	0.860611
174	6     	0.860611	0  	0.860611	0.860611
175	6     	0.860611	0  	0.860611	0.860611
176	8     	0.860611	0  	0.860611	0.860611
177	10    	0.866669	0  	0.866669	0.866669
178	4     	0.866669	0  	0.866669	0.866669
179	6     	0.866669	0  	0.866669	0.866669
180	6     	0.866669	0  	0.866669	0.866669
181	8     	0.866669	0  	0.866669	0.866669
182	10    	0.866669	0  	0.866669	0.866669
183	12    	0.866669	0  	0.866669	0.866669
184	16    	0.866669	0  	0.866669	0.866669
185	20    	0.866669	0  	0.866669	0.866669
186	24    	0.866669	0  	0.866669	0.866669
187	32    	0.866669	0  	0.866669	0.866669
188	40    	0.866669	0  	0.866669	0.866669
189	50    	0.866669	0  	0.866669	0.866669
190	62    	0.866669	0  	0.866669	0.866669
191	78    	0.866669	0  	0.866669	0.866669
192	98    	0.866669	0  	0.866669	0.866669
193	124   	0.872726	0  	0.872726	0.872726
194	50    	0.872726	0  	0.872726	0.872726
195	62    	0.872726	0  	0.872726	0.872726
196	78    	0.872726	0  	0.872726	0.872726
197	98    	0.872726	0  	0.872726	0.872726
198	124   	0.872726	0  	0.872726	0.872726
199	156   	0.872726	0  	0.872726	0.872726
200	196   	0.872726	0  	0.872726	0.872726
201	246   	0.872726	0  	0.872726	0.872726
202	308   	0.872726	0  	0.872726	0.872726
203	388   	0.872726	0  	0.872726	0.872726
204	392   	0.872726	0  	0.872726	0.872726
205	392   	0.872726	0  	0.872726	0.872726
206	392   	0.872726	0  	0.872726	0.872726
207	392   	0.872726	0  	0.872726	0.872726
208	392   	0.872726	0  	0.872726	0.872726
209	392   	0.872726	0  	0.872726	0.872726
210	392   	0.872726	0  	0.872726	0.872726
211	392   	0.872726	0  	0.872726	0.872726
212	392   	0.872726	0  	0.872726	0.872726
213	392   	0.872726	0  	0.872726	0.872726
214	392   	0.872726	0  	0.872726	0.872726
215	392   	0.872726	0  	0.872726	0.872726
216	392   	0.872726	0  	0.872726	0.872726
217	392   	0.872726	0  	0.872726	0.872726
218	392   	0.872726	0  	0.872726	0.872726
219	392   	0.872726	0  	0.872726	0.872726
220	392   	0.872726	0  	0.872726	0.872726
