gen	nevals	avg     	std	min     	max     
0  	1     	0.666672	0  	0.666672	0.666672
1  	2     	0.666672	0  	0.666672	0.666672
2  	2     	0.666672	0  	0.666672	0.666672
3  	4     	0.666672	0  	0.666672	0.666672
4  	4     	0.666672	0  	0.666672	0.666672
5  	6     	0.699997	0  	0.699997	0.699997
6  	2     	0.699997	0  	0.699997	0.699997
7  	2     	0.699997	0  	0.699997	0.699997
8  	4     	0.699997	0  	0.699997	0.699997
9  	4     	0.766663	0  	0.766663	0.766663
10 	2     	0.766663	0  	0.766663	0.766663
11 	2     	0.766663	0  	0.766663	0.766663
12 	4     	0.766663	0  	0.766663	0.766663
13 	4     	0.766663	0  	0.766663	0.766663
14 	6     	0.766663	0  	0.766663	0.766663
15 	6     	0.766663	0  	0.766663	0.766663
16 	8     	0.766663	0  	0.766663	0.766663
17 	10    	0.800003	0  	0.800003	0.800003
18 	4     	0.833328	0  	0.833328	0.833328
19 	2     	0.866669	0  	0.866669	0.866669
20 	2     	0.866669	0  	0.866669	0.866669
21 	2     	0.866669	0  	0.866669	0.866669
22 	4     	0.866669	0  	0.866669	0.866669
23 	4     	0.866669	0  	0.866669	0.866669
24 	6     	0.866669	0  	0.866669	0.866669
25 	6     	0.866669	0  	0.866669	0.866669
26 	8     	0.866669	0  	0.866669	0.866669
27 	10    	0.866669	0  	0.866669	0.866669
28 	12    	0.866669	0  	0.866669	0.866669
29 	16    	0.866669	0  	0.866669	0.866669
30 	20    	0.866669	0  	0.866669	0.866669
31 	24    	0.899994	0  	0.899994	0.899994
32 	10    	0.899994	0  	0.899994	0.899994
33 	12    	0.899994	0  	0.899994	0.899994
34 	16    	0.899994	0  	0.899994	0.899994
35 	20    	0.899994	0  	0.899994	0.899994
36 	24    	0.899994	0  	0.899994	0.899994
37 	32    	0.899994	0  	0.899994	0.899994
38 	40    	0.899994	0  	0.899994	0.899994
39 	50    	0.899994	0  	0.899994	0.899994
40 	62    	0.899994	0  	0.899994	0.899994
41 	72    	0.899994	0  	0.899994	0.899994
42 	72    	0.899994	0  	0.899994	0.899994
43 	72    	0.899994	0  	0.899994	0.899994
44 	72    	0.899994	0  	0.899994	0.899994
45 	72    	0.899994	0  	0.899994	0.899994
46 	72    	0.899994	0  	0.899994	0.899994
47 	72    	0.899994	0  	0.899994	0.899994
48 	72    	0.899994	0  	0.899994	0.899994
49 	72    	0.899994	0  	0.899994	0.899994
50 	72    	0.899994	0  	0.899994	0.899994
51 	72    	0.899994	0  	0.899994	0.899994
52 	72    	0.899994	0  	0.899994	0.899994
53 	72    	0.899994	0  	0.899994	0.899994
54 	72    	0.899994	0  	0.899994	0.899994
55 	72    	0.899994	0  	0.899994	0.899994
56 	72    	0.899994	0  	0.899994	0.899994
57 	72    	0.899994	0  	0.899994	0.899994
58 	72    	0.899994	0  	0.899994	0.899994
59 	72    	0.899994	0  	0.899994	0.899994
60 	72    	0.899994	0  	0.899994	0.899994
61 	72    	0.899994	0  	0.899994	0.899994
62 	72    	0.899994	0  	0.899994	0.899994
63 	72    	0.899994	0  	0.899994	0.899994
64 	72    	0.899994	0  	0.899994	0.899994
65 	72    	0.899994	0  	0.899994	0.899994
66 	72    	0.899994	0  	0.899994	0.899994
67 	72    	0.899994	0  	0.899994	0.899994
68 	72    	0.899994	0  	0.899994	0.899994
69 	72    	0.899994	0  	0.899994	0.899994
70 	72    	0.899994	0  	0.899994	0.899994
71 	72    	0.899994	0  	0.899994	0.899994
72 	72    	0.933334	0  	0.933334	0.933334
73 	28    	0.933334	0  	0.933334	0.933334
74 	36    	0.933334	0  	0.933334	0.933334
75 	46    	0.933334	0  	0.933334	0.933334
76 	58    	0.933334	0  	0.933334	0.933334
77 	72    	0.933334	0  	0.933334	0.933334
78 	72    	0.933334	0  	0.933334	0.933334
79 	72    	0.933334	0  	0.933334	0.933334
80 	72    	0.933334	0  	0.933334	0.933334
81 	72    	0.933334	0  	0.933334	0.933334
82 	72    	0.933334	0  	0.933334	0.933334
83 	72    	0.933334	0  	0.933334	0.933334
84 	72    	0.933334	0  	0.933334	0.933334
85 	72    	0.933334	0  	0.933334	0.933334
86 	72    	0.933334	0  	0.933334	0.933334
87 	72    	0.933334	0  	0.933334	0.933334
88 	72    	0.933334	0  	0.933334	0.933334
89 	72    	0.933334	0  	0.933334	0.933334
90 	72    	0.933334	0  	0.933334	0.933334
91 	72    	0.933334	0  	0.933334	0.933334
92 	72    	0.933334	0  	0.933334	0.933334
93 	72    	0.933334	0  	0.933334	0.933334
94 	72    	0.933334	0  	0.933334	0.933334
95 	72    	0.933334	0  	0.933334	0.933334
96 	72    	0.933334	0  	0.933334	0.933334
97 	72    	0.933334	0  	0.933334	0.933334
98 	72    	0.933334	0  	0.933334	0.933334
99 	72    	0.933334	0  	0.933334	0.933334
100	72    	0.933334	0  	0.933334	0.933334
101	72    	0.933334	0  	0.933334	0.933334
102	72    	0.933334	0  	0.933334	0.933334
103	72    	0.933334	0  	0.933334	0.933334
104	72    	0.933334	0  	0.933334	0.933334
105	72    	0.933334	0  	0.933334	0.933334
106	72    	0.933334	0  	0.933334	0.933334
107	72    	0.933334	0  	0.933334	0.933334
108	72    	0.933334	0  	0.933334	0.933334
109	72    	0.933334	0  	0.933334	0.933334
110	72    	0.933334	0  	0.933334	0.933334
111	72    	0.933334	0  	0.933334	0.933334
112	72    	0.933334	0  	0.933334	0.933334
113	72    	0.933334	0  	0.933334	0.933334
114	72    	0.933334	0  	0.933334	0.933334
115	72    	0.933334	0  	0.933334	0.933334
116	72    	0.933334	0  	0.933334	0.933334
117	72    	0.933334	0  	0.933334	0.933334
118	72    	0.933334	0  	0.933334	0.933334
119	72    	0.933334	0  	0.933334	0.933334
120	72    	0.933334	0  	0.933334	0.933334
121	72    	0.933334	0  	0.933334	0.933334
122	72    	0.933334	0  	0.933334	0.933334
123	72    	0.933334	0  	0.933334	0.933334
124	72    	0.933334	0  	0.933334	0.933334
125	72    	0.933334	0  	0.933334	0.933334
126	72    	0.933334	0  	0.933334	0.933334
127	72    	0.933334	0  	0.933334	0.933334
128	72    	0.933334	0  	0.933334	0.933334
129	72    	0.933334	0  	0.933334	0.933334
130	72    	0.933334	0  	0.933334	0.933334
131	72    	0.933334	0  	0.933334	0.933334
132	72    	0.933334	0  	0.933334	0.933334
133	72    	0.933334	0  	0.933334	0.933334
134	72    	0.933334	0  	0.933334	0.933334
135	72    	0.933334	0  	0.933334	0.933334
136	72    	0.933334	0  	0.933334	0.933334
137	72    	0.933334	0  	0.933334	0.933334
138	72    	0.933334	0  	0.933334	0.933334
139	72    	0.933334	0  	0.933334	0.933334
140	72    	0.933334	0  	0.933334	0.933334
141	72    	0.933334	0  	0.933334	0.933334
142	72    	0.933334	0  	0.933334	0.933334
143	72    	0.933334	0  	0.933334	0.933334
144	72    	0.933334	0  	0.933334	0.933334
145	72    	0.933334	0  	0.933334	0.933334
146	72    	0.96666 	0  	0.96666 	0.96666 
147	28    	0.96666 	0  	0.96666 	0.96666 
148	36    	0.96666 	0  	0.96666 	0.96666 
149	46    	0.96666 	0  	0.96666 	0.96666 
150	58    	0.96666 	0  	0.96666 	0.96666 
151	72    	0.96666 	0  	0.96666 	0.96666 
152	72    	0.96666 	0  	0.96666 	0.96666 
153	72    	0.96666 	0  	0.96666 	0.96666 
154	72    	0.96666 	0  	0.96666 	0.96666 
155	72    	0.96666 	0  	0.96666 	0.96666 
156	72    	0.96666 	0  	0.96666 	0.96666 
157	72    	0.96666 	0  	0.96666 	0.96666 
158	72    	0.96666 	0  	0.96666 	0.96666 
159	72    	0.96666 	0  	0.96666 	0.96666 
160	72    	0.96666 	0  	0.96666 	0.96666 
161	72    	0.96666 	0  	0.96666 	0.96666 
162	72    	0.96666 	0  	0.96666 	0.96666 
163	72    	0.96666 	0  	0.96666 	0.96666 
164	72    	0.96666 	0  	0.96666 	0.96666 
165	72    	0.96666 	0  	0.96666 	0.96666 
166	72    	0.96666 	0  	0.96666 	0.96666 
167	72    	0.96666 	0  	0.96666 	0.96666 
168	72    	0.96666 	0  	0.96666 	0.96666 
169	72    	0.96666 	0  	0.96666 	0.96666 
170	72    	0.96666 	0  	0.96666 	0.96666 
171	72    	0.96666 	0  	0.96666 	0.96666 
172	72    	0.96666 	0  	0.96666 	0.96666 
173	72    	0.96666 	0  	0.96666 	0.96666 
174	72    	0.96666 	0  	0.96666 	0.96666 
175	72    	0.96666 	0  	0.96666 	0.96666 
176	72    	0.96666 	0  	0.96666 	0.96666 
