gen	nevals	avg     	std	min     	max     
0  	1     	0.571777	0  	0.571777	0.571777
1  	2     	0.571777	0  	0.571777	0.571777
2  	2     	0.571777	0  	0.571777	0.571777
3  	4     	0.576645	0  	0.576645	0.576645
4  	2     	0.576645	0  	0.576645	0.576645
5  	2     	0.581512	0  	0.581512	0.581512
6  	2     	0.581512	0  	0.581512	0.581512
7  	2     	0.581512	0  	0.581512	0.581512
8  	4     	0.581512	0  	0.581512	0.581512
9  	4     	0.581512	0  	0.581512	0.581512
10 	6     	0.58638 	0  	0.58638 	0.58638 
11 	2     	0.588806	0  	0.588806	0.588806
12 	2     	0.588806	0  	0.588806	0.588806
13 	2     	0.591248	0  	0.591248	0.591248
14 	2     	0.591248	0  	0.591248	0.591248
15 	2     	0.591248	0  	0.591248	0.591248
16 	4     	0.600967	0  	0.600967	0.600967
17 	2     	0.603409	0  	0.603409	0.603409
18 	2     	0.603409	0  	0.603409	0.603409
19 	2     	0.603409	0  	0.603409	0.603409
20 	4     	0.603409	0  	0.603409	0.603409
21 	4     	0.603409	0  	0.603409	0.603409
22 	6     	0.608276	0  	0.608276	0.608276
23 	2     	0.608276	0  	0.608276	0.608276
24 	2     	0.613144	0  	0.613144	0.613144
25 	2     	0.613144	0  	0.613144	0.613144
26 	2     	0.613144	0  	0.613144	0.613144
27 	4     	0.620438	0  	0.620438	0.620438
28 	2     	0.620438	0  	0.620438	0.620438
29 	2     	0.620438	0  	0.620438	0.620438
30 	4     	0.622864	0  	0.622864	0.622864
31 	2     	0.625305	0  	0.625305	0.625305
32 	2     	0.625305	0  	0.625305	0.625305
33 	2     	0.625305	0  	0.625305	0.625305
34 	4     	0.625305	0  	0.625305	0.625305
35 	4     	0.625305	0  	0.625305	0.625305
36 	6     	0.625305	0  	0.625305	0.625305
37 	6     	0.625305	0  	0.625305	0.625305
38 	8     	0.630173	0  	0.630173	0.630173
39 	4     	0.630173	0  	0.630173	0.630173
40 	4     	0.632599	0  	0.632599	0.632599
41 	2     	0.632599	0  	0.632599	0.632599
42 	2     	0.632599	0  	0.632599	0.632599
43 	4     	0.632599	0  	0.632599	0.632599
44 	4     	0.639908	0  	0.639908	0.639908
45 	2     	0.639908	0  	0.639908	0.639908
46 	2     	0.639908	0  	0.639908	0.639908
47 	4     	0.639908	0  	0.639908	0.639908
48 	4     	0.639908	0  	0.639908	0.639908
49 	6     	0.642334	0  	0.642334	0.642334
50 	2     	0.642334	0  	0.642334	0.642334
51 	2     	0.642334	0  	0.642334	0.642334
52 	4     	0.642334	0  	0.642334	0.642334
53 	4     	0.642334	0  	0.642334	0.642334
54 	6     	0.644775	0  	0.644775	0.644775
55 	2     	0.644775	0  	0.644775	0.644775
56 	2     	0.644775	0  	0.644775	0.644775
57 	4     	0.647202	0  	0.647202	0.647202
58 	2     	0.647202	0  	0.647202	0.647202
59 	2     	0.647202	0  	0.647202	0.647202
60 	4     	0.647202	0  	0.647202	0.647202
61 	4     	0.647202	0  	0.647202	0.647202
62 	6     	0.652069	0  	0.652069	0.652069
63 	2     	0.652069	0  	0.652069	0.652069
64 	2     	0.652069	0  	0.652069	0.652069
65 	4     	0.652069	0  	0.652069	0.652069
66 	4     	0.652069	0  	0.652069	0.652069
67 	6     	0.652069	0  	0.652069	0.652069
68 	6     	0.659363	0  	0.659363	0.659363
69 	2     	0.659363	0  	0.659363	0.659363
70 	4     	0.661804	0  	0.661804	0.661804
71 	2     	0.661804	0  	0.661804	0.661804
72 	2     	0.661804	0  	0.661804	0.661804
73 	4     	0.66423 	0  	0.66423 	0.66423 
74 	2     	0.66423 	0  	0.66423 	0.66423 
75 	2     	0.66423 	0  	0.66423 	0.66423 
76 	4     	0.66423 	0  	0.66423 	0.66423 
77 	4     	0.666672	0  	0.666672	0.666672
78 	2     	0.666672	0  	0.666672	0.666672
79 	2     	0.669098	0  	0.669098	0.669098
80 	2     	0.669098	0  	0.669098	0.669098
81 	2     	0.669098	0  	0.669098	0.669098
82 	4     	0.673965	0  	0.673965	0.673965
83 	2     	0.673965	0  	0.673965	0.673965
84 	2     	0.673965	0  	0.673965	0.673965
85 	4     	0.673965	0  	0.673965	0.673965
86 	4     	0.673965	0  	0.673965	0.673965
87 	6     	0.673965	0  	0.673965	0.673965
88 	6     	0.676392	0  	0.676392	0.676392
89 	2     	0.676392	0  	0.676392	0.676392
90 	4     	0.676392	0  	0.676392	0.676392
91 	4     	0.678833	0  	0.678833	0.678833
92 	2     	0.678833	0  	0.678833	0.678833
93 	2     	0.678833	0  	0.678833	0.678833
94 	4     	0.678833	0  	0.678833	0.678833
95 	4     	0.678833	0  	0.678833	0.678833
96 	6     	0.678833	0  	0.678833	0.678833
97 	6     	0.678833	0  	0.678833	0.678833
98 	8     	0.678833	0  	0.678833	0.678833
99 	10    	0.683701	0  	0.683701	0.683701
100	4     	0.683701	0  	0.683701	0.683701
101	6     	0.686127	0  	0.686127	0.686127
102	2     	0.686127	0  	0.686127	0.686127
103	2     	0.688568	0  	0.688568	0.688568
104	2     	0.688568	0  	0.688568	0.688568
105	2     	0.688568	0  	0.688568	0.688568
106	4     	0.688568	0  	0.688568	0.688568
107	4     	0.690994	0  	0.690994	0.690994
108	2     	0.690994	0  	0.690994	0.690994
109	2     	0.690994	0  	0.690994	0.690994
110	4     	0.690994	0  	0.690994	0.690994
111	4     	0.695862	0  	0.695862	0.695862
112	2     	0.700729	0  	0.700729	0.700729
113	2     	0.700729	0  	0.700729	0.700729
114	2     	0.700729	0  	0.700729	0.700729
115	4     	0.700729	0  	0.700729	0.700729
116	4     	0.700729	0  	0.700729	0.700729
117	6     	0.703156	0  	0.703156	0.703156
118	2     	0.703156	0  	0.703156	0.703156
119	2     	0.710464	0  	0.710464	0.710464
120	2     	0.710464	0  	0.710464	0.710464
121	2     	0.710464	0  	0.710464	0.710464
122	4     	0.717758	0  	0.717758	0.717758
123	2     	0.717758	0  	0.717758	0.717758
124	2     	0.717758	0  	0.717758	0.717758
125	4     	0.717758	0  	0.717758	0.717758
126	4     	0.717758	0  	0.717758	0.717758
127	6     	0.717758	0  	0.717758	0.717758
128	6     	0.7202  	0  	0.7202  	0.7202  
129	2     	0.7202  	0  	0.7202  	0.7202  
130	4     	0.725067	0  	0.725067	0.725067
131	2     	0.725067	0  	0.725067	0.725067
132	2     	0.725067	0  	0.725067	0.725067
133	4     	0.729919	0  	0.729919	0.729919
134	2     	0.729919	0  	0.729919	0.729919
135	2     	0.729919	0  	0.729919	0.729919
136	4     	0.729919	0  	0.729919	0.729919
137	4     	0.729919	0  	0.729919	0.729919
138	6     	0.732361	0  	0.732361	0.732361
139	2     	0.734787	0  	0.734787	0.734787
140	2     	0.734787	0  	0.734787	0.734787
141	2     	0.734787	0  	0.734787	0.734787
142	4     	0.734787	0  	0.734787	0.734787
143	4     	0.734787	0  	0.734787	0.734787
144	6     	0.734787	0  	0.734787	0.734787
145	6     	0.734787	0  	0.734787	0.734787
146	8     	0.734787	0  	0.734787	0.734787
147	10    	0.737228	0  	0.737228	0.737228
148	4     	0.737228	0  	0.737228	0.737228
149	6     	0.737228	0  	0.737228	0.737228
150	6     	0.737228	0  	0.737228	0.737228
151	8     	0.737228	0  	0.737228	0.737228
152	10    	0.742096	0  	0.742096	0.742096
153	4     	0.742096	0  	0.742096	0.742096
154	6     	0.742096	0  	0.742096	0.742096
155	6     	0.742096	0  	0.742096	0.742096
156	8     	0.744522	0  	0.744522	0.744522
157	4     	0.744522	0  	0.744522	0.744522
158	4     	0.744522	0  	0.744522	0.744522
159	6     	0.746964	0  	0.746964	0.746964
160	2     	0.746964	0  	0.746964	0.746964
161	2     	0.746964	0  	0.746964	0.746964
162	4     	0.746964	0  	0.746964	0.746964
163	4     	0.746964	0  	0.746964	0.746964
164	6     	0.74939 	0  	0.74939 	0.74939 
165	2     	0.74939 	0  	0.74939 	0.74939 
166	2     	0.74939 	0  	0.74939 	0.74939 
167	4     	0.751831	0  	0.751831	0.751831
168	2     	0.751831	0  	0.751831	0.751831
169	2     	0.751831	0  	0.751831	0.751831
170	4     	0.751831	0  	0.751831	0.751831
171	4     	0.754257	0  	0.754257	0.754257
172	2     	0.754257	0  	0.754257	0.754257
173	2     	0.754257	0  	0.754257	0.754257
174	4     	0.754257	0  	0.754257	0.754257
175	4     	0.761551	0  	0.761551	0.761551
176	2     	0.761551	0  	0.761551	0.761551
177	2     	0.761551	0  	0.761551	0.761551
178	4     	0.761551	0  	0.761551	0.761551
179	4     	0.761551	0  	0.761551	0.761551
180	6     	0.761551	0  	0.761551	0.761551
181	6     	0.761551	0  	0.761551	0.761551
182	8     	0.763992	0  	0.763992	0.763992
183	4     	0.763992	0  	0.763992	0.763992
184	4     	0.763992	0  	0.763992	0.763992
185	6     	0.763992	0  	0.763992	0.763992
186	6     	0.763992	0  	0.763992	0.763992
187	8     	0.763992	0  	0.763992	0.763992
188	10    	0.763992	0  	0.763992	0.763992
189	12    	0.766418	0  	0.766418	0.766418
190	6     	0.766418	0  	0.766418	0.766418
191	6     	0.766418	0  	0.766418	0.766418
192	8     	0.766418	0  	0.766418	0.766418
193	10    	0.76886 	0  	0.76886 	0.76886 
194	4     	0.76886 	0  	0.76886 	0.76886 
195	6     	0.76886 	0  	0.76886 	0.76886 
196	6     	0.76886 	0  	0.76886 	0.76886 
197	8     	0.771286	0  	0.771286	0.771286
198	4     	0.771286	0  	0.771286	0.771286
199	4     	0.771286	0  	0.771286	0.771286
200	6     	0.776154	0  	0.776154	0.776154
201	2     	0.776154	0  	0.776154	0.776154
202	2     	0.776154	0  	0.776154	0.776154
203	4     	0.776154	0  	0.776154	0.776154
204	4     	0.776154	0  	0.776154	0.776154
205	6     	0.778595	0  	0.778595	0.778595
206	2     	0.778595	0  	0.778595	0.778595
207	2     	0.778595	0  	0.778595	0.778595
208	4     	0.778595	0  	0.778595	0.778595
209	4     	0.783463	0  	0.783463	0.783463
210	2     	0.783463	0  	0.783463	0.783463
211	2     	0.783463	0  	0.783463	0.783463
212	4     	0.783463	0  	0.783463	0.783463
213	4     	0.783463	0  	0.783463	0.783463
214	6     	0.783463	0  	0.783463	0.783463
215	6     	0.783463	0  	0.783463	0.783463
216	8     	0.783463	0  	0.783463	0.783463
217	10    	0.783463	0  	0.783463	0.783463
218	12    	0.783463	0  	0.783463	0.783463
219	16    	0.785889	0  	0.785889	0.785889
220	6     	0.788315	0  	0.788315	0.788315
221	2     	0.788315	0  	0.788315	0.788315
222	4     	0.788315	0  	0.788315	0.788315
223	4     	0.790756	0  	0.790756	0.790756
224	2     	0.790756	0  	0.790756	0.790756
225	2     	0.790756	0  	0.790756	0.790756
226	4     	0.795624	0  	0.795624	0.795624
227	2     	0.795624	0  	0.795624	0.795624
228	2     	0.795624	0  	0.795624	0.795624
229	4     	0.795624	0  	0.795624	0.795624
230	4     	0.795624	0  	0.795624	0.795624
231	6     	0.795624	0  	0.795624	0.795624
232	6     	0.795624	0  	0.795624	0.795624
233	8     	0.795624	0  	0.795624	0.795624
234	10    	0.79805 	0  	0.79805 	0.79805 
235	4     	0.79805 	0  	0.79805 	0.79805 
236	6     	0.79805 	0  	0.79805 	0.79805 
237	6     	0.802917	0  	0.802917	0.802917
238	2     	0.802917	0  	0.802917	0.802917
239	4     	0.802917	0  	0.802917	0.802917
240	4     	0.802917	0  	0.802917	0.802917
241	6     	0.805359	0  	0.805359	0.805359
242	2     	0.805359	0  	0.805359	0.805359
243	2     	0.805359	0  	0.805359	0.805359
244	4     	0.805359	0  	0.805359	0.805359
245	4     	0.810226	0  	0.810226	0.810226
246	2     	0.810226	0  	0.810226	0.810226
247	2     	0.810226	0  	0.810226	0.810226
248	4     	0.810226	0  	0.810226	0.810226
249	4     	0.810226	0  	0.810226	0.810226
250	6     	0.810226	0  	0.810226	0.810226
251	6     	0.810226	0  	0.810226	0.810226
252	8     	0.810226	0  	0.810226	0.810226
253	10    	0.810226	0  	0.810226	0.810226
254	12    	0.812653	0  	0.812653	0.812653
255	6     	0.812653	0  	0.812653	0.812653
256	6     	0.81752 	0  	0.81752 	0.81752 
257	2     	0.81752 	0  	0.81752 	0.81752 
258	4     	0.81752 	0  	0.81752 	0.81752 
259	4     	0.81752 	0  	0.81752 	0.81752 
260	6     	0.81752 	0  	0.81752 	0.81752 
261	6     	0.81752 	0  	0.81752 	0.81752 
262	8     	0.822388	0  	0.822388	0.822388
263	4     	0.822388	0  	0.822388	0.822388
264	4     	0.822388	0  	0.822388	0.822388
265	6     	0.822388	0  	0.822388	0.822388
266	6     	0.822388	0  	0.822388	0.822388
267	8     	0.822388	0  	0.822388	0.822388
268	10    	0.822388	0  	0.822388	0.822388
269	12    	0.822388	0  	0.822388	0.822388
270	16    	0.824814	0  	0.824814	0.824814
271	6     	0.824814	0  	0.824814	0.824814
272	8     	0.827255	0  	0.827255	0.827255
273	4     	0.827255	0  	0.827255	0.827255
274	4     	0.827255	0  	0.827255	0.827255
275	6     	0.827255	0  	0.827255	0.827255
276	6     	0.827255	0  	0.827255	0.827255
277	8     	0.827255	0  	0.827255	0.827255
278	10    	0.827255	0  	0.827255	0.827255
279	12    	0.827255	0  	0.827255	0.827255
280	16    	0.827255	0  	0.827255	0.827255
281	20    	0.827255	0  	0.827255	0.827255
282	24    	0.829681	0  	0.829681	0.829681
283	10    	0.829681	0  	0.829681	0.829681
284	12    	0.832123	0  	0.832123	0.832123
285	6     	0.832123	0  	0.832123	0.832123
286	6     	0.832123	0  	0.832123	0.832123
287	8     	0.832123	0  	0.832123	0.832123
288	10    	0.832123	0  	0.832123	0.832123
289	12    	0.832123	0  	0.832123	0.832123
290	16    	0.832123	0  	0.832123	0.832123
291	20    	0.83699 	0  	0.83699 	0.83699 
292	8     	0.83699 	0  	0.83699 	0.83699 
293	10    	0.83699 	0  	0.83699 	0.83699 
294	12    	0.83699 	0  	0.83699 	0.83699 
295	16    	0.83699 	0  	0.83699 	0.83699 
296	20    	0.839417	0  	0.839417	0.839417
297	8     	0.839417	0  	0.839417	0.839417
298	10    	0.841843	0  	0.841843	0.841843
299	4     	0.841843	0  	0.841843	0.841843
300	6     	0.841843	0  	0.841843	0.841843
301	6     	0.841843	0  	0.841843	0.841843
302	8     	0.84671 	0  	0.84671 	0.84671 
303	4     	0.84671 	0  	0.84671 	0.84671 
304	4     	0.84671 	0  	0.84671 	0.84671 
305	6     	0.849152	0  	0.849152	0.849152
306	2     	0.849152	0  	0.849152	0.849152
307	2     	0.849152	0  	0.849152	0.849152
308	4     	0.849152	0  	0.849152	0.849152
309	4     	0.849152	0  	0.849152	0.849152
310	6     	0.849152	0  	0.849152	0.849152
311	6     	0.849152	0  	0.849152	0.849152
312	8     	0.849152	0  	0.849152	0.849152
313	10    	0.849152	0  	0.849152	0.849152
314	12    	0.849152	0  	0.849152	0.849152
315	16    	0.849152	0  	0.849152	0.849152
316	20    	0.849152	0  	0.849152	0.849152
317	24    	0.849152	0  	0.849152	0.849152
318	32    	0.849152	0  	0.849152	0.849152
319	40    	0.851578	0  	0.851578	0.851578
320	16    	0.851578	0  	0.851578	0.851578
321	20    	0.851578	0  	0.851578	0.851578
322	24    	0.851578	0  	0.851578	0.851578
323	32    	0.854019	0  	0.854019	0.854019
324	12    	0.854019	0  	0.854019	0.854019
325	16    	0.856445	0  	0.856445	0.856445
326	6     	0.856445	0  	0.856445	0.856445
327	8     	0.856445	0  	0.856445	0.856445
328	10    	0.856445	0  	0.856445	0.856445
329	12    	0.856445	0  	0.856445	0.856445
330	16    	0.856445	0  	0.856445	0.856445
331	20    	0.856445	0  	0.856445	0.856445
332	24    	0.856445	0  	0.856445	0.856445
333	32    	0.861313	0  	0.861313	0.861313
334	12    	0.861313	0  	0.861313	0.861313
335	16    	0.861313	0  	0.861313	0.861313
336	20    	0.861313	0  	0.861313	0.861313
337	24    	0.861313	0  	0.861313	0.861313
338	32    	0.861313	0  	0.861313	0.861313
339	40    	0.863754	0  	0.863754	0.863754
340	16    	0.863754	0  	0.863754	0.863754
341	20    	0.863754	0  	0.863754	0.863754
342	24    	0.863754	0  	0.863754	0.863754
343	32    	0.86618 	0  	0.86618 	0.86618 
344	12    	0.86618 	0  	0.86618 	0.86618 
345	16    	0.86618 	0  	0.86618 	0.86618 
346	20    	0.868607	0  	0.868607	0.868607
347	8     	0.868607	0  	0.868607	0.868607
348	10    	0.868607	0  	0.868607	0.868607
349	12    	0.868607	0  	0.868607	0.868607
350	16    	0.868607	0  	0.868607	0.868607
351	20    	0.868607	0  	0.868607	0.868607
352	24    	0.868607	0  	0.868607	0.868607
353	32    	0.868607	0  	0.868607	0.868607
354	40    	0.871048	0  	0.871048	0.871048
355	16    	0.871048	0  	0.871048	0.871048
356	20    	0.871048	0  	0.871048	0.871048
357	24    	0.871048	0  	0.871048	0.871048
358	32    	0.873474	0  	0.873474	0.873474
359	12    	0.875916	0  	0.875916	0.875916
360	6     	0.875916	0  	0.875916	0.875916
361	6     	0.875916	0  	0.875916	0.875916
362	8     	0.875916	0  	0.875916	0.875916
363	10    	0.875916	0  	0.875916	0.875916
364	12    	0.875916	0  	0.875916	0.875916
365	16    	0.875916	0  	0.875916	0.875916
366	20    	0.875916	0  	0.875916	0.875916
367	24    	0.875916	0  	0.875916	0.875916
368	32    	0.875916	0  	0.875916	0.875916
369	40    	0.875916	0  	0.875916	0.875916
370	50    	0.875916	0  	0.875916	0.875916
371	62    	0.878342	0  	0.878342	0.878342
372	24    	0.878342	0  	0.878342	0.878342
373	32    	0.878342	0  	0.878342	0.878342
374	40    	0.878342	0  	0.878342	0.878342
375	50    	0.878342	0  	0.878342	0.878342
376	62    	0.878342	0  	0.878342	0.878342
377	78    	0.878342	0  	0.878342	0.878342
378	98    	0.880783	0  	0.880783	0.880783
379	40    	0.880783	0  	0.880783	0.880783
380	50    	0.880783	0  	0.880783	0.880783
381	62    	0.883209	0  	0.883209	0.883209
382	24    	0.883209	0  	0.883209	0.883209
383	32    	0.885651	0  	0.885651	0.885651
384	12    	0.885651	0  	0.885651	0.885651
385	16    	0.885651	0  	0.885651	0.885651
386	20    	0.885651	0  	0.885651	0.885651
387	24    	0.885651	0  	0.885651	0.885651
388	32    	0.885651	0  	0.885651	0.885651
389	40    	0.888077	0  	0.888077	0.888077
390	16    	0.888077	0  	0.888077	0.888077
391	20    	0.890518	0  	0.890518	0.890518
392	8     	0.890518	0  	0.890518	0.890518
393	10    	0.890518	0  	0.890518	0.890518
394	12    	0.892944	0  	0.892944	0.892944
395	6     	0.892944	0  	0.892944	0.892944
396	6     	0.892944	0  	0.892944	0.892944
397	8     	0.892944	0  	0.892944	0.892944
398	10    	0.892944	0  	0.892944	0.892944
399	12    	0.892944	0  	0.892944	0.892944
400	16    	0.892944	0  	0.892944	0.892944
401	20    	0.892944	0  	0.892944	0.892944
402	24    	0.892944	0  	0.892944	0.892944
403	32    	0.892944	0  	0.892944	0.892944
404	40    	0.892944	0  	0.892944	0.892944
405	50    	0.892944	0  	0.892944	0.892944
406	62    	0.892944	0  	0.892944	0.892944
407	78    	0.892944	0  	0.892944	0.892944
408	98    	0.892944	0  	0.892944	0.892944
409	124   	0.892944	0  	0.892944	0.892944
410	156   	0.892944	0  	0.892944	0.892944
411	196   	0.89537 	0  	0.89537 	0.89537 
412	78    	0.89537 	0  	0.89537 	0.89537 
413	98    	0.89537 	0  	0.89537 	0.89537 
414	124   	0.897812	0  	0.897812	0.897812
415	50    	0.897812	0  	0.897812	0.897812
416	62    	0.897812	0  	0.897812	0.897812
417	78    	0.897812	0  	0.897812	0.897812
418	98    	0.897812	0  	0.897812	0.897812
419	124   	0.897812	0  	0.897812	0.897812
420	156   	0.897812	0  	0.897812	0.897812
421	196   	0.897812	0  	0.897812	0.897812
422	246   	0.897812	0  	0.897812	0.897812
423	308   	0.902679	0  	0.902679	0.902679
424	124   	0.902679	0  	0.902679	0.902679
425	156   	0.902679	0  	0.902679	0.902679
426	196   	0.902679	0  	0.902679	0.902679
427	246   	0.902679	0  	0.902679	0.902679
428	308   	0.905106	0  	0.905106	0.905106
429	124   	0.905106	0  	0.905106	0.905106
430	156   	0.907547	0  	0.907547	0.907547
431	62    	0.907547	0  	0.907547	0.907547
432	78    	0.907547	0  	0.907547	0.907547
433	98    	0.907547	0  	0.907547	0.907547
434	124   	0.909973	0  	0.909973	0.909973
435	50    	0.909973	0  	0.909973	0.909973
436	62    	0.909973	0  	0.909973	0.909973
437	78    	0.909973	0  	0.909973	0.909973
438	98    	0.909973	0  	0.909973	0.909973
439	124   	0.909973	0  	0.909973	0.909973
440	156   	0.909973	0  	0.909973	0.909973
441	196   	0.909973	0  	0.909973	0.909973
442	246   	0.909973	0  	0.909973	0.909973
443	308   	0.909973	0  	0.909973	0.909973
444	388   	0.909973	0  	0.909973	0.909973
445	488   	0.909973	0  	0.909973	0.909973
446	614   	0.909973	0  	0.909973	0.909973
