gen	nevals	avg     	std	min     	max     
0  	1     	0.600922	0  	0.600922	0.600922
1  	2     	0.600922	0  	0.600922	0.600922
2  	2     	0.600922	0  	0.600922	0.600922
3  	4     	0.600922	0  	0.600922	0.600922
4  	4     	0.610092	0  	0.610092	0.610092
5  	2     	0.610092	0  	0.610092	0.610092
6  	2     	0.610092	0  	0.610092	0.610092
7  	4     	0.614685	0  	0.614685	0.614685
8  	2     	0.614685	0  	0.614685	0.614685
9  	2     	0.614685	0  	0.614685	0.614685
10 	4     	0.614685	0  	0.614685	0.614685
11 	4     	0.619263	0  	0.619263	0.619263
12 	2     	0.619263	0  	0.619263	0.619263
13 	2     	0.619263	0  	0.619263	0.619263
14 	4     	0.619263	0  	0.619263	0.619263
15 	4     	0.619263	0  	0.619263	0.619263
16 	6     	0.628433	0  	0.628433	0.628433
17 	2     	0.628433	0  	0.628433	0.628433
18 	2     	0.628433	0  	0.628433	0.628433
19 	4     	0.628433	0  	0.628433	0.628433
20 	4     	0.628433	0  	0.628433	0.628433
21 	6     	0.642197	0  	0.642197	0.642197
22 	2     	0.642197	0  	0.642197	0.642197
23 	2     	0.642197	0  	0.642197	0.642197
24 	4     	0.642197	0  	0.642197	0.642197
25 	4     	0.642197	0  	0.642197	0.642197
26 	6     	0.64679 	0  	0.64679 	0.64679 
27 	2     	0.64679 	0  	0.64679 	0.64679 
28 	2     	0.64679 	0  	0.64679 	0.64679 
29 	4     	0.64679 	0  	0.64679 	0.64679 
30 	4     	0.64679 	0  	0.64679 	0.64679 
31 	6     	0.651382	0  	0.651382	0.651382
32 	2     	0.651382	0  	0.651382	0.651382
33 	2     	0.651382	0  	0.651382	0.651382
34 	4     	0.651382	0  	0.651382	0.651382
35 	4     	0.651382	0  	0.651382	0.651382
36 	6     	0.651382	0  	0.651382	0.651382
37 	6     	0.651382	0  	0.651382	0.651382
38 	8     	0.651382	0  	0.651382	0.651382
39 	10    	0.651382	0  	0.651382	0.651382
40 	12    	0.65596 	0  	0.65596 	0.65596 
41 	6     	0.65596 	0  	0.65596 	0.65596 
42 	6     	0.65596 	0  	0.65596 	0.65596 
43 	8     	0.665131	0  	0.665131	0.665131
44 	4     	0.669724	0  	0.669724	0.669724
45 	2     	0.669724	0  	0.669724	0.669724
46 	2     	0.669724	0  	0.669724	0.669724
47 	4     	0.678894	0  	0.678894	0.678894
48 	2     	0.678894	0  	0.678894	0.678894
49 	2     	0.678894	0  	0.678894	0.678894
50 	4     	0.678894	0  	0.678894	0.678894
51 	4     	0.678894	0  	0.678894	0.678894
52 	6     	0.678894	0  	0.678894	0.678894
53 	6     	0.678894	0  	0.678894	0.678894
54 	8     	0.683487	0  	0.683487	0.683487
55 	4     	0.683487	0  	0.683487	0.683487
56 	4     	0.683487	0  	0.683487	0.683487
57 	6     	0.68808 	0  	0.68808 	0.68808 
58 	2     	0.68808 	0  	0.68808 	0.68808 
59 	2     	0.68808 	0  	0.68808 	0.68808 
60 	4     	0.68808 	0  	0.68808 	0.68808 
61 	4     	0.692657	0  	0.692657	0.692657
62 	2     	0.692657	0  	0.692657	0.692657
63 	2     	0.692657	0  	0.692657	0.692657
64 	4     	0.692657	0  	0.692657	0.692657
65 	4     	0.692657	0  	0.692657	0.692657
66 	6     	0.69725 	0  	0.69725 	0.69725 
67 	2     	0.69725 	0  	0.69725 	0.69725 
68 	2     	0.701828	0  	0.701828	0.701828
69 	2     	0.706421	0  	0.706421	0.706421
70 	2     	0.706421	0  	0.706421	0.706421
71 	2     	0.706421	0  	0.706421	0.706421
72 	4     	0.706421	0  	0.706421	0.706421
73 	4     	0.711014	0  	0.711014	0.711014
74 	2     	0.720184	0  	0.720184	0.720184
75 	2     	0.720184	0  	0.720184	0.720184
76 	2     	0.720184	0  	0.720184	0.720184
77 	4     	0.720184	0  	0.720184	0.720184
78 	4     	0.720184	0  	0.720184	0.720184
79 	6     	0.720184	0  	0.720184	0.720184
80 	6     	0.720184	0  	0.720184	0.720184
81 	8     	0.720184	0  	0.720184	0.720184
82 	10    	0.724777	0  	0.724777	0.724777
83 	4     	0.724777	0  	0.724777	0.724777
84 	6     	0.729355	0  	0.729355	0.729355
85 	2     	0.729355	0  	0.729355	0.729355
86 	2     	0.729355	0  	0.729355	0.729355
87 	4     	0.729355	0  	0.729355	0.729355
88 	4     	0.729355	0  	0.729355	0.729355
89 	6     	0.733948	0  	0.733948	0.733948
90 	2     	0.733948	0  	0.733948	0.733948
91 	2     	0.733948	0  	0.733948	0.733948
92 	4     	0.733948	0  	0.733948	0.733948
93 	4     	0.733948	0  	0.733948	0.733948
94 	6     	0.738525	0  	0.738525	0.738525
95 	2     	0.738525	0  	0.738525	0.738525
96 	2     	0.738525	0  	0.738525	0.738525
97 	4     	0.743118	0  	0.743118	0.743118
98 	2     	0.743118	0  	0.743118	0.743118
99 	2     	0.743118	0  	0.743118	0.743118
100	4     	0.743118	0  	0.743118	0.743118
101	4     	0.743118	0  	0.743118	0.743118
102	6     	0.743118	0  	0.743118	0.743118
103	6     	0.743118	0  	0.743118	0.743118
104	8     	0.752289	0  	0.752289	0.752289
105	4     	0.752289	0  	0.752289	0.752289
106	4     	0.752289	0  	0.752289	0.752289
107	6     	0.752289	0  	0.752289	0.752289
108	6     	0.752289	0  	0.752289	0.752289
109	8     	0.756882	0  	0.756882	0.756882
110	4     	0.756882	0  	0.756882	0.756882
111	4     	0.756882	0  	0.756882	0.756882
112	6     	0.756882	0  	0.756882	0.756882
113	6     	0.761475	0  	0.761475	0.761475
114	2     	0.761475	0  	0.761475	0.761475
115	4     	0.761475	0  	0.761475	0.761475
116	4     	0.761475	0  	0.761475	0.761475
117	6     	0.766052	0  	0.766052	0.766052
118	2     	0.766052	0  	0.766052	0.766052
119	2     	0.766052	0  	0.766052	0.766052
120	4     	0.770645	0  	0.770645	0.770645
121	2     	0.770645	0  	0.770645	0.770645
122	2     	0.770645	0  	0.770645	0.770645
123	4     	0.770645	0  	0.770645	0.770645
124	4     	0.775223	0  	0.775223	0.775223
125	2     	0.775223	0  	0.775223	0.775223
126	2     	0.775223	0  	0.775223	0.775223
127	4     	0.775223	0  	0.775223	0.775223
128	4     	0.775223	0  	0.775223	0.775223
129	6     	0.779816	0  	0.779816	0.779816
130	2     	0.779816	0  	0.779816	0.779816
131	2     	0.779816	0  	0.779816	0.779816
132	4     	0.779816	0  	0.779816	0.779816
133	4     	0.779816	0  	0.779816	0.779816
134	6     	0.784409	0  	0.784409	0.784409
135	2     	0.784409	0  	0.784409	0.784409
136	2     	0.784409	0  	0.784409	0.784409
137	4     	0.788986	0  	0.788986	0.788986
138	2     	0.788986	0  	0.788986	0.788986
139	2     	0.788986	0  	0.788986	0.788986
140	4     	0.788986	0  	0.788986	0.788986
141	4     	0.788986	0  	0.788986	0.788986
142	6     	0.788986	0  	0.788986	0.788986
143	6     	0.788986	0  	0.788986	0.788986
144	8     	0.788986	0  	0.788986	0.788986
145	10    	0.788986	0  	0.788986	0.788986
146	12    	0.793579	0  	0.793579	0.793579
147	6     	0.793579	0  	0.793579	0.793579
148	6     	0.798172	0  	0.798172	0.798172
149	2     	0.798172	0  	0.798172	0.798172
150	4     	0.798172	0  	0.798172	0.798172
151	4     	0.798172	0  	0.798172	0.798172
152	6     	0.798172	0  	0.798172	0.798172
153	6     	0.807343	0  	0.807343	0.807343
154	2     	0.807343	0  	0.807343	0.807343
155	4     	0.807343	0  	0.807343	0.807343
156	4     	0.807343	0  	0.807343	0.807343
157	6     	0.807343	0  	0.807343	0.807343
158	6     	0.807343	0  	0.807343	0.807343
159	8     	0.81192 	0  	0.81192 	0.81192 
160	4     	0.81192 	0  	0.81192 	0.81192 
161	4     	0.816513	0  	0.816513	0.816513
162	2     	0.816513	0  	0.816513	0.816513
163	2     	0.816513	0  	0.816513	0.816513
164	4     	0.816513	0  	0.816513	0.816513
165	4     	0.821106	0  	0.821106	0.821106
166	2     	0.821106	0  	0.821106	0.821106
167	2     	0.821106	0  	0.821106	0.821106
168	4     	0.825684	0  	0.825684	0.825684
169	2     	0.825684	0  	0.825684	0.825684
170	2     	0.825684	0  	0.825684	0.825684
171	4     	0.825684	0  	0.825684	0.825684
172	4     	0.825684	0  	0.825684	0.825684
173	6     	0.825684	0  	0.825684	0.825684
174	6     	0.825684	0  	0.825684	0.825684
175	8     	0.830276	0  	0.830276	0.830276
176	4     	0.830276	0  	0.830276	0.830276
177	4     	0.830276	0  	0.830276	0.830276
178	6     	0.830276	0  	0.830276	0.830276
179	6     	0.830276	0  	0.830276	0.830276
180	8     	0.830276	0  	0.830276	0.830276
181	10    	0.830276	0  	0.830276	0.830276
182	12    	0.830276	0  	0.830276	0.830276
183	16    	0.834869	0  	0.834869	0.834869
184	6     	0.834869	0  	0.834869	0.834869
185	8     	0.839447	0  	0.839447	0.839447
186	4     	0.839447	0  	0.839447	0.839447
187	4     	0.839447	0  	0.839447	0.839447
188	6     	0.839447	0  	0.839447	0.839447
189	6     	0.84404 	0  	0.84404 	0.84404 
190	2     	0.84404 	0  	0.84404 	0.84404 
191	4     	0.848618	0  	0.848618	0.848618
192	2     	0.848618	0  	0.848618	0.848618
193	2     	0.848618	0  	0.848618	0.848618
194	4     	0.848618	0  	0.848618	0.848618
195	4     	0.848618	0  	0.848618	0.848618
196	6     	0.848618	0  	0.848618	0.848618
197	6     	0.848618	0  	0.848618	0.848618
198	8     	0.848618	0  	0.848618	0.848618
199	10    	0.848618	0  	0.848618	0.848618
200	12    	0.85321 	0  	0.85321 	0.85321 
201	6     	0.85321 	0  	0.85321 	0.85321 
202	6     	0.85321 	0  	0.85321 	0.85321 
203	8     	0.85321 	0  	0.85321 	0.85321 
204	10    	0.85321 	0  	0.85321 	0.85321 
205	12    	0.85321 	0  	0.85321 	0.85321 
206	16    	0.85321 	0  	0.85321 	0.85321 
207	20    	0.857803	0  	0.857803	0.857803
208	8     	0.857803	0  	0.857803	0.857803
209	10    	0.857803	0  	0.857803	0.857803
210	12    	0.857803	0  	0.857803	0.857803
211	16    	0.862381	0  	0.862381	0.862381
212	6     	0.862381	0  	0.862381	0.862381
213	8     	0.862381	0  	0.862381	0.862381
214	10    	0.871567	0  	0.871567	0.871567
215	4     	0.871567	0  	0.871567	0.871567
216	6     	0.871567	0  	0.871567	0.871567
217	6     	0.871567	0  	0.871567	0.871567
218	8     	0.871567	0  	0.871567	0.871567
219	10    	0.871567	0  	0.871567	0.871567
220	12    	0.871567	0  	0.871567	0.871567
221	16    	0.871567	0  	0.871567	0.871567
222	20    	0.871567	0  	0.871567	0.871567
223	24    	0.876144	0  	0.876144	0.876144
224	10    	0.876144	0  	0.876144	0.876144
225	12    	0.876144	0  	0.876144	0.876144
226	16    	0.876144	0  	0.876144	0.876144
227	20    	0.876144	0  	0.876144	0.876144
228	24    	0.880737	0  	0.880737	0.880737
229	10    	0.880737	0  	0.880737	0.880737
230	12    	0.880737	0  	0.880737	0.880737
231	16    	0.880737	0  	0.880737	0.880737
232	20    	0.880737	0  	0.880737	0.880737
233	24    	0.880737	0  	0.880737	0.880737
234	32    	0.880737	0  	0.880737	0.880737
235	40    	0.885315	0  	0.885315	0.885315
236	16    	0.885315	0  	0.885315	0.885315
237	20    	0.885315	0  	0.885315	0.885315
238	24    	0.889908	0  	0.889908	0.889908
239	10    	0.889908	0  	0.889908	0.889908
240	12    	0.889908	0  	0.889908	0.889908
241	16    	0.889908	0  	0.889908	0.889908
242	20    	0.889908	0  	0.889908	0.889908
243	24    	0.889908	0  	0.889908	0.889908
244	32    	0.889908	0  	0.889908	0.889908
245	40    	0.889908	0  	0.889908	0.889908
246	50    	0.889908	0  	0.889908	0.889908
247	62    	0.894501	0  	0.894501	0.894501
248	24    	0.894501	0  	0.894501	0.894501
249	32    	0.894501	0  	0.894501	0.894501
250	40    	0.894501	0  	0.894501	0.894501
251	50    	0.894501	0  	0.894501	0.894501
252	62    	0.894501	0  	0.894501	0.894501
253	78    	0.899078	0  	0.899078	0.899078
254	32    	0.899078	0  	0.899078	0.899078
255	40    	0.899078	0  	0.899078	0.899078
256	50    	0.899078	0  	0.899078	0.899078
257	62    	0.903671	0  	0.903671	0.903671
258	24    	0.903671	0  	0.903671	0.903671
259	32    	0.903671	0  	0.903671	0.903671
260	40    	0.903671	0  	0.903671	0.903671
261	50    	0.903671	0  	0.903671	0.903671
262	62    	0.903671	0  	0.903671	0.903671
263	78    	0.903671	0  	0.903671	0.903671
264	98    	0.908264	0  	0.908264	0.908264
265	40    	0.908264	0  	0.908264	0.908264
266	50    	0.908264	0  	0.908264	0.908264
267	62    	0.908264	0  	0.908264	0.908264
268	78    	0.908264	0  	0.908264	0.908264
269	98    	0.912842	0  	0.912842	0.912842
270	40    	0.912842	0  	0.912842	0.912842
271	50    	0.912842	0  	0.912842	0.912842
272	62    	0.912842	0  	0.912842	0.912842
273	78    	0.912842	0  	0.912842	0.912842
274	98    	0.912842	0  	0.912842	0.912842
275	124   	0.912842	0  	0.912842	0.912842
276	156   	0.912842	0  	0.912842	0.912842
277	196   	0.912842	0  	0.912842	0.912842
278	246   	0.912842	0  	0.912842	0.912842
279	308   	0.912842	0  	0.912842	0.912842
280	388   	0.912842	0  	0.912842	0.912842
281	488   	0.912842	0  	0.912842	0.912842
282	512   	0.912842	0  	0.912842	0.912842
283	512   	0.912842	0  	0.912842	0.912842
284	512   	0.912842	0  	0.912842	0.912842
285	512   	0.912842	0  	0.912842	0.912842
286	512   	0.912842	0  	0.912842	0.912842
287	512   	0.912842	0  	0.912842	0.912842
288	512   	0.912842	0  	0.912842	0.912842
289	512   	0.912842	0  	0.912842	0.912842
290	512   	0.912842	0  	0.912842	0.912842
291	512   	0.912842	0  	0.912842	0.912842
