gen	nevals	avg     	std	min     	max     
0  	1     	0.584747	0  	0.584747	0.584747
1  	2     	0.584747	0  	0.584747	0.584747
2  	2     	0.584747	0  	0.584747	0.584747
3  	4     	0.584747	0  	0.584747	0.584747
4  	4     	0.584747	0  	0.584747	0.584747
5  	6     	0.58638 	0  	0.58638 	0.58638 
6  	2     	0.58638 	0  	0.58638 	0.58638 
7  	2     	0.58638 	0  	0.58638 	0.58638 
8  	4     	0.58638 	0  	0.58638 	0.58638 
9  	4     	0.58638 	0  	0.58638 	0.58638 
10 	6     	0.589615	0  	0.589615	0.589615
11 	2     	0.589615	0  	0.589615	0.589615
12 	2     	0.591248	0  	0.591248	0.591248
13 	2     	0.591248	0  	0.591248	0.591248
14 	2     	0.5961  	0  	0.5961  	0.5961  
15 	2     	0.597733	0  	0.597733	0.597733
16 	2     	0.597733	0  	0.597733	0.597733
17 	2     	0.597733	0  	0.597733	0.597733
18 	4     	0.597733	0  	0.597733	0.597733
19 	4     	0.59935 	0  	0.59935 	0.59935 
20 	2     	0.59935 	0  	0.59935 	0.59935 
21 	2     	0.59935 	0  	0.59935 	0.59935 
22 	4     	0.600967	0  	0.600967	0.600967
23 	2     	0.600967	0  	0.600967	0.600967
24 	2     	0.600967	0  	0.600967	0.600967
25 	4     	0.600967	0  	0.600967	0.600967
26 	4     	0.600967	0  	0.600967	0.600967
27 	6     	0.600967	0  	0.600967	0.600967
28 	6     	0.604218	0  	0.604218	0.604218
29 	2     	0.604218	0  	0.604218	0.604218
30 	4     	0.609085	0  	0.609085	0.609085
31 	2     	0.609085	0  	0.609085	0.609085
32 	2     	0.609085	0  	0.609085	0.609085
33 	4     	0.609085	0  	0.609085	0.609085
34 	4     	0.609085	0  	0.609085	0.609085
35 	6     	0.609085	0  	0.609085	0.609085
36 	6     	0.609085	0  	0.609085	0.609085
37 	8     	0.610703	0  	0.610703	0.610703
38 	4     	0.610703	0  	0.610703	0.610703
39 	4     	0.612335	0  	0.612335	0.612335
40 	2     	0.612335	0  	0.612335	0.612335
41 	2     	0.612335	0  	0.612335	0.612335
42 	4     	0.613953	0  	0.613953	0.613953
43 	2     	0.617188	0  	0.617188	0.617188
44 	2     	0.61882 	0  	0.61882 	0.61882 
45 	2     	0.620438	0  	0.620438	0.620438
46 	2     	0.620438	0  	0.620438	0.620438
47 	2     	0.620438	0  	0.620438	0.620438
48 	4     	0.620438	0  	0.620438	0.620438
49 	4     	0.620438	0  	0.620438	0.620438
50 	6     	0.620438	0  	0.620438	0.620438
51 	6     	0.622055	0  	0.622055	0.622055
52 	2     	0.622055	0  	0.622055	0.622055
53 	4     	0.625305	0  	0.625305	0.625305
54 	2     	0.625305	0  	0.625305	0.625305
55 	2     	0.625305	0  	0.625305	0.625305
56 	4     	0.625305	0  	0.625305	0.625305
57 	4     	0.625305	0  	0.625305	0.625305
58 	6     	0.625305	0  	0.625305	0.625305
59 	6     	0.626923	0  	0.626923	0.626923
60 	2     	0.626923	0  	0.626923	0.626923
61 	4     	0.626923	0  	0.626923	0.626923
62 	4     	0.626923	0  	0.626923	0.626923
63 	6     	0.626923	0  	0.626923	0.626923
64 	6     	0.628555	0  	0.628555	0.628555
65 	2     	0.628555	0  	0.628555	0.628555
66 	4     	0.628555	0  	0.628555	0.628555
67 	4     	0.628555	0  	0.628555	0.628555
68 	6     	0.630173	0  	0.630173	0.630173
69 	2     	0.630173	0  	0.630173	0.630173
70 	2     	0.630173	0  	0.630173	0.630173
71 	4     	0.630173	0  	0.630173	0.630173
72 	4     	0.630173	0  	0.630173	0.630173
73 	6     	0.630173	0  	0.630173	0.630173
74 	6     	0.63179 	0  	0.63179 	0.63179 
75 	2     	0.63179 	0  	0.63179 	0.63179 
76 	4     	0.63179 	0  	0.63179 	0.63179 
77 	4     	0.63179 	0  	0.63179 	0.63179 
78 	6     	0.63179 	0  	0.63179 	0.63179 
79 	6     	0.63179 	0  	0.63179 	0.63179 
80 	8     	0.63179 	0  	0.63179 	0.63179 
81 	10    	0.63504 	0  	0.63504 	0.63504 
82 	4     	0.63504 	0  	0.63504 	0.63504 
83 	6     	0.63504 	0  	0.63504 	0.63504 
84 	6     	0.638275	0  	0.638275	0.638275
85 	2     	0.638275	0  	0.638275	0.638275
86 	4     	0.638275	0  	0.638275	0.638275
87 	4     	0.638275	0  	0.638275	0.638275
88 	6     	0.639908	0  	0.639908	0.639908
89 	2     	0.639908	0  	0.639908	0.639908
90 	2     	0.639908	0  	0.639908	0.639908
91 	4     	0.643143	0  	0.643143	0.643143
92 	2     	0.644775	0  	0.644775	0.644775
93 	2     	0.644775	0  	0.644775	0.644775
94 	2     	0.646393	0  	0.646393	0.646393
95 	2     	0.649628	0  	0.649628	0.649628
96 	2     	0.649628	0  	0.649628	0.649628
97 	2     	0.649628	0  	0.649628	0.649628
98 	4     	0.65126 	0  	0.65126 	0.65126 
99 	2     	0.65126 	0  	0.65126 	0.65126 
100	2     	0.65126 	0  	0.65126 	0.65126 
101	4     	0.65126 	0  	0.65126 	0.65126 
102	4     	0.652878	0  	0.652878	0.652878
103	2     	0.652878	0  	0.652878	0.652878
104	2     	0.652878	0  	0.652878	0.652878
105	4     	0.652878	0  	0.652878	0.652878
106	4     	0.656128	0  	0.656128	0.656128
107	2     	0.656128	0  	0.656128	0.656128
108	2     	0.656128	0  	0.656128	0.656128
109	4     	0.656128	0  	0.656128	0.656128
110	4     	0.656128	0  	0.656128	0.656128
111	6     	0.659363	0  	0.659363	0.659363
112	2     	0.659363	0  	0.659363	0.659363
113	2     	0.659363	0  	0.659363	0.659363
114	4     	0.659363	0  	0.659363	0.659363
115	4     	0.659363	0  	0.659363	0.659363
116	6     	0.660995	0  	0.660995	0.660995
117	2     	0.660995	0  	0.660995	0.660995
118	2     	0.662613	0  	0.662613	0.662613
119	2     	0.669098	0  	0.669098	0.669098
120	2     	0.669098	0  	0.669098	0.669098
121	2     	0.670715	0  	0.670715	0.670715
122	2     	0.672348	0  	0.672348	0.672348
123	2     	0.672348	0  	0.672348	0.672348
124	2     	0.672348	0  	0.672348	0.672348
125	4     	0.675583	0  	0.675583	0.675583
126	2     	0.675583	0  	0.675583	0.675583
127	2     	0.675583	0  	0.675583	0.675583
128	4     	0.675583	0  	0.675583	0.675583
129	4     	0.677216	0  	0.677216	0.677216
130	2     	0.677216	0  	0.677216	0.677216
131	2     	0.677216	0  	0.677216	0.677216
132	4     	0.677216	0  	0.677216	0.677216
133	4     	0.677216	0  	0.677216	0.677216
134	6     	0.682083	0  	0.682083	0.682083
135	2     	0.682083	0  	0.682083	0.682083
136	2     	0.682083	0  	0.682083	0.682083
137	4     	0.682083	0  	0.682083	0.682083
138	4     	0.682083	0  	0.682083	0.682083
139	6     	0.685318	0  	0.685318	0.685318
140	2     	0.685318	0  	0.685318	0.685318
141	2     	0.685318	0  	0.685318	0.685318
142	4     	0.685318	0  	0.685318	0.685318
143	4     	0.685318	0  	0.685318	0.685318
144	6     	0.686935	0  	0.686935	0.686935
145	2     	0.686935	0  	0.686935	0.686935
146	2     	0.686935	0  	0.686935	0.686935
147	4     	0.686935	0  	0.686935	0.686935
148	4     	0.686935	0  	0.686935	0.686935
149	6     	0.686935	0  	0.686935	0.686935
150	6     	0.688568	0  	0.688568	0.688568
151	2     	0.688568	0  	0.688568	0.688568
152	4     	0.688568	0  	0.688568	0.688568
153	4     	0.693436	0  	0.693436	0.693436
154	2     	0.693436	0  	0.693436	0.693436
155	2     	0.693436	0  	0.693436	0.693436
156	4     	0.695053	0  	0.695053	0.695053
157	2     	0.695053	0  	0.695053	0.695053
158	2     	0.695053	0  	0.695053	0.695053
159	4     	0.696671	0  	0.696671	0.696671
160	2     	0.696671	0  	0.696671	0.696671
161	2     	0.696671	0  	0.696671	0.696671
162	4     	0.696671	0  	0.696671	0.696671
163	4     	0.701538	0  	0.701538	0.701538
164	2     	0.701538	0  	0.701538	0.701538
165	2     	0.701538	0  	0.701538	0.701538
166	4     	0.703156	0  	0.703156	0.703156
167	2     	0.703156	0  	0.703156	0.703156
168	2     	0.703156	0  	0.703156	0.703156
169	4     	0.703156	0  	0.703156	0.703156
170	4     	0.703156	0  	0.703156	0.703156
171	6     	0.704788	0  	0.704788	0.704788
172	2     	0.704788	0  	0.704788	0.704788
173	2     	0.704788	0  	0.704788	0.704788
174	4     	0.706406	0  	0.706406	0.706406
175	2     	0.708023	0  	0.708023	0.708023
176	2     	0.708023	0  	0.708023	0.708023
177	2     	0.708023	0  	0.708023	0.708023
178	4     	0.709656	0  	0.709656	0.709656
179	2     	0.709656	0  	0.709656	0.709656
180	2     	0.709656	0  	0.709656	0.709656
181	4     	0.712891	0  	0.712891	0.712891
182	2     	0.712891	0  	0.712891	0.712891
183	2     	0.712891	0  	0.712891	0.712891
184	4     	0.712891	0  	0.712891	0.712891
185	4     	0.714523	0  	0.714523	0.714523
186	2     	0.714523	0  	0.714523	0.714523
187	2     	0.714523	0  	0.714523	0.714523
188	4     	0.716141	0  	0.716141	0.716141
189	2     	0.716141	0  	0.716141	0.716141
190	2     	0.716141	0  	0.716141	0.716141
191	4     	0.716141	0  	0.716141	0.716141
192	4     	0.716141	0  	0.716141	0.716141
193	6     	0.716141	0  	0.716141	0.716141
194	6     	0.716141	0  	0.716141	0.716141
195	8     	0.717758	0  	0.717758	0.717758
196	4     	0.717758	0  	0.717758	0.717758
197	4     	0.719391	0  	0.719391	0.719391
198	2     	0.719391	0  	0.719391	0.719391
199	2     	0.719391	0  	0.719391	0.719391
200	4     	0.719391	0  	0.719391	0.719391
201	4     	0.719391	0  	0.719391	0.719391
202	6     	0.719391	0  	0.719391	0.719391
203	6     	0.724243	0  	0.724243	0.724243
204	2     	0.724243	0  	0.724243	0.724243
205	4     	0.724243	0  	0.724243	0.724243
206	4     	0.724243	0  	0.724243	0.724243
207	6     	0.724243	0  	0.724243	0.724243
208	6     	0.727493	0  	0.727493	0.727493
209	2     	0.727493	0  	0.727493	0.727493
210	4     	0.727493	0  	0.727493	0.727493
211	4     	0.727493	0  	0.727493	0.727493
212	6     	0.727493	0  	0.727493	0.727493
213	6     	0.727493	0  	0.727493	0.727493
214	8     	0.727493	0  	0.727493	0.727493
215	10    	0.729111	0  	0.729111	0.729111
216	4     	0.729111	0  	0.729111	0.729111
217	6     	0.730743	0  	0.730743	0.730743
218	2     	0.730743	0  	0.730743	0.730743
219	2     	0.730743	0  	0.730743	0.730743
220	4     	0.730743	0  	0.730743	0.730743
221	4     	0.730743	0  	0.730743	0.730743
222	6     	0.730743	0  	0.730743	0.730743
223	6     	0.732361	0  	0.732361	0.732361
224	2     	0.732361	0  	0.732361	0.732361
225	4     	0.735611	0  	0.735611	0.735611
226	2     	0.735611	0  	0.735611	0.735611
227	2     	0.735611	0  	0.735611	0.735611
228	4     	0.735611	0  	0.735611	0.735611
229	4     	0.737228	0  	0.737228	0.737228
230	2     	0.737228	0  	0.737228	0.737228
231	2     	0.737228	0  	0.737228	0.737228
232	4     	0.737228	0  	0.737228	0.737228
233	4     	0.737228	0  	0.737228	0.737228
234	6     	0.737228	0  	0.737228	0.737228
235	6     	0.740463	0  	0.740463	0.740463
236	2     	0.740463	0  	0.740463	0.740463
237	4     	0.740463	0  	0.740463	0.740463
238	4     	0.740463	0  	0.740463	0.740463
239	6     	0.740463	0  	0.740463	0.740463
240	6     	0.742096	0  	0.742096	0.742096
241	2     	0.742096	0  	0.742096	0.742096
242	4     	0.742096	0  	0.742096	0.742096
243	4     	0.743713	0  	0.743713	0.743713
244	2     	0.743713	0  	0.743713	0.743713
245	2     	0.743713	0  	0.743713	0.743713
246	4     	0.745331	0  	0.745331	0.745331
247	2     	0.745331	0  	0.745331	0.745331
248	2     	0.745331	0  	0.745331	0.745331
249	4     	0.745331	0  	0.745331	0.745331
250	4     	0.745331	0  	0.745331	0.745331
251	6     	0.745331	0  	0.745331	0.745331
252	6     	0.746964	0  	0.746964	0.746964
253	2     	0.746964	0  	0.746964	0.746964
254	4     	0.746964	0  	0.746964	0.746964
255	4     	0.746964	0  	0.746964	0.746964
256	6     	0.746964	0  	0.746964	0.746964
257	6     	0.746964	0  	0.746964	0.746964
258	8     	0.746964	0  	0.746964	0.746964
259	10    	0.746964	0  	0.746964	0.746964
260	12    	0.748581	0  	0.748581	0.748581
261	6     	0.748581	0  	0.748581	0.748581
262	6     	0.748581	0  	0.748581	0.748581
263	8     	0.748581	0  	0.748581	0.748581
264	10    	0.751831	0  	0.751831	0.751831
265	4     	0.751831	0  	0.751831	0.751831
266	6     	0.753448	0  	0.753448	0.753448
267	2     	0.753448	0  	0.753448	0.753448
268	2     	0.753448	0  	0.753448	0.753448
269	4     	0.753448	0  	0.753448	0.753448
270	4     	0.755066	0  	0.755066	0.755066
271	2     	0.755066	0  	0.755066	0.755066
272	2     	0.755066	0  	0.755066	0.755066
273	4     	0.756699	0  	0.756699	0.756699
274	2     	0.756699	0  	0.756699	0.756699
275	2     	0.756699	0  	0.756699	0.756699
276	4     	0.756699	0  	0.756699	0.756699
277	4     	0.758316	0  	0.758316	0.758316
278	2     	0.758316	0  	0.758316	0.758316
279	2     	0.758316	0  	0.758316	0.758316
280	4     	0.758316	0  	0.758316	0.758316
281	4     	0.758316	0  	0.758316	0.758316
282	6     	0.758316	0  	0.758316	0.758316
283	6     	0.758316	0  	0.758316	0.758316
284	8     	0.758316	0  	0.758316	0.758316
285	10    	0.758316	0  	0.758316	0.758316
286	12    	0.758316	0  	0.758316	0.758316
287	16    	0.759933	0  	0.759933	0.759933
288	6     	0.759933	0  	0.759933	0.759933
289	8     	0.759933	0  	0.759933	0.759933
290	10    	0.761551	0  	0.761551	0.761551
291	4     	0.761551	0  	0.761551	0.761551
292	6     	0.761551	0  	0.761551	0.761551
293	6     	0.764801	0  	0.764801	0.764801
294	2     	0.764801	0  	0.764801	0.764801
295	4     	0.764801	0  	0.764801	0.764801
296	4     	0.764801	0  	0.764801	0.764801
297	6     	0.764801	0  	0.764801	0.764801
298	6     	0.764801	0  	0.764801	0.764801
299	8     	0.764801	0  	0.764801	0.764801
300	10    	0.766418	0  	0.766418	0.766418
301	4     	0.766418	0  	0.766418	0.766418
302	6     	0.766418	0  	0.766418	0.766418
303	6     	0.766418	0  	0.766418	0.766418
304	8     	0.766418	0  	0.766418	0.766418
305	10    	0.768051	0  	0.768051	0.768051
306	4     	0.768051	0  	0.768051	0.768051
307	6     	0.768051	0  	0.768051	0.768051
308	6     	0.768051	0  	0.768051	0.768051
309	8     	0.768051	0  	0.768051	0.768051
310	10    	0.769669	0  	0.769669	0.769669
311	4     	0.769669	0  	0.769669	0.769669
312	6     	0.769669	0  	0.769669	0.769669
313	6     	0.769669	0  	0.769669	0.769669
314	8     	0.769669	0  	0.769669	0.769669
315	10    	0.771286	0  	0.771286	0.771286
316	4     	0.772919	0  	0.772919	0.772919
317	2     	0.772919	0  	0.772919	0.772919
318	2     	0.772919	0  	0.772919	0.772919
319	4     	0.772919	0  	0.772919	0.772919
320	4     	0.772919	0  	0.772919	0.772919
321	6     	0.772919	0  	0.772919	0.772919
322	6     	0.772919	0  	0.772919	0.772919
323	8     	0.774536	0  	0.774536	0.774536
324	4     	0.774536	0  	0.774536	0.774536
325	4     	0.774536	0  	0.774536	0.774536
326	6     	0.774536	0  	0.774536	0.774536
327	6     	0.774536	0  	0.774536	0.774536
328	8     	0.774536	0  	0.774536	0.774536
329	10    	0.776154	0  	0.776154	0.776154
330	4     	0.776154	0  	0.776154	0.776154
331	6     	0.776154	0  	0.776154	0.776154
332	6     	0.777771	0  	0.777771	0.777771
333	2     	0.777771	0  	0.777771	0.777771
334	4     	0.777771	0  	0.777771	0.777771
335	4     	0.777771	0  	0.777771	0.777771
336	6     	0.777771	0  	0.777771	0.777771
337	6     	0.777771	0  	0.777771	0.777771
338	8     	0.777771	0  	0.777771	0.777771
339	10    	0.781021	0  	0.781021	0.781021
340	4     	0.781021	0  	0.781021	0.781021
341	6     	0.781021	0  	0.781021	0.781021
342	6     	0.781021	0  	0.781021	0.781021
343	8     	0.781021	0  	0.781021	0.781021
344	10    	0.782639	0  	0.782639	0.782639
345	4     	0.782639	0  	0.782639	0.782639
346	6     	0.782639	0  	0.782639	0.782639
347	6     	0.785889	0  	0.785889	0.785889
348	2     	0.785889	0  	0.785889	0.785889
349	4     	0.785889	0  	0.785889	0.785889
350	4     	0.785889	0  	0.785889	0.785889
351	6     	0.787506	0  	0.787506	0.787506
352	2     	0.789139	0  	0.789139	0.789139
353	2     	0.790756	0  	0.790756	0.790756
354	2     	0.790756	0  	0.790756	0.790756
355	2     	0.790756	0  	0.790756	0.790756
356	4     	0.790756	0  	0.790756	0.790756
357	4     	0.792374	0  	0.792374	0.792374
358	2     	0.792374	0  	0.792374	0.792374
359	2     	0.792374	0  	0.792374	0.792374
360	4     	0.792374	0  	0.792374	0.792374
361	4     	0.792374	0  	0.792374	0.792374
362	6     	0.792374	0  	0.792374	0.792374
363	6     	0.795624	0  	0.795624	0.795624
364	2     	0.795624	0  	0.795624	0.795624
365	4     	0.795624	0  	0.795624	0.795624
366	4     	0.795624	0  	0.795624	0.795624
367	6     	0.795624	0  	0.795624	0.795624
368	6     	0.795624	0  	0.795624	0.795624
369	8     	0.795624	0  	0.795624	0.795624
370	10    	0.797241	0  	0.797241	0.797241
371	4     	0.797241	0  	0.797241	0.797241
372	6     	0.797241	0  	0.797241	0.797241
373	6     	0.798859	0  	0.798859	0.798859
374	2     	0.798859	0  	0.798859	0.798859
375	4     	0.798859	0  	0.798859	0.798859
376	4     	0.800491	0  	0.800491	0.800491
377	2     	0.800491	0  	0.800491	0.800491
378	2     	0.800491	0  	0.800491	0.800491
379	4     	0.802109	0  	0.802109	0.802109
380	2     	0.802109	0  	0.802109	0.802109
381	2     	0.802109	0  	0.802109	0.802109
382	4     	0.802109	0  	0.802109	0.802109
383	4     	0.802109	0  	0.802109	0.802109
384	6     	0.806976	0  	0.806976	0.806976
385	2     	0.806976	0  	0.806976	0.806976
386	2     	0.806976	0  	0.806976	0.806976
387	4     	0.806976	0  	0.806976	0.806976
388	4     	0.806976	0  	0.806976	0.806976
389	6     	0.806976	0  	0.806976	0.806976
390	6     	0.806976	0  	0.806976	0.806976
391	8     	0.808594	0  	0.808594	0.808594
392	4     	0.808594	0  	0.808594	0.808594
393	4     	0.810226	0  	0.810226	0.810226
394	2     	0.810226	0  	0.810226	0.810226
395	2     	0.810226	0  	0.810226	0.810226
396	4     	0.810226	0  	0.810226	0.810226
397	4     	0.810226	0  	0.810226	0.810226
398	6     	0.810226	0  	0.810226	0.810226
399	6     	0.810226	0  	0.810226	0.810226
400	8     	0.810226	0  	0.810226	0.810226
401	10    	0.811844	0  	0.811844	0.811844
402	4     	0.813461	0  	0.813461	0.813461
403	2     	0.813461	0  	0.813461	0.813461
404	2     	0.813461	0  	0.813461	0.813461
405	4     	0.813461	0  	0.813461	0.813461
406	4     	0.813461	0  	0.813461	0.813461
407	6     	0.813461	0  	0.813461	0.813461
408	6     	0.813461	0  	0.813461	0.813461
409	8     	0.813461	0  	0.813461	0.813461
410	10    	0.813461	0  	0.813461	0.813461
411	12    	0.813461	0  	0.813461	0.813461
412	16    	0.815079	0  	0.815079	0.815079
413	6     	0.816711	0  	0.816711	0.816711
414	2     	0.816711	0  	0.816711	0.816711
415	4     	0.816711	0  	0.816711	0.816711
416	4     	0.816711	0  	0.816711	0.816711
417	6     	0.816711	0  	0.816711	0.816711
418	6     	0.816711	0  	0.816711	0.816711
419	8     	0.816711	0  	0.816711	0.816711
420	10    	0.816711	0  	0.816711	0.816711
421	12    	0.816711	0  	0.816711	0.816711
422	16    	0.816711	0  	0.816711	0.816711
423	20    	0.818329	0  	0.818329	0.818329
424	8     	0.818329	0  	0.818329	0.818329
425	10    	0.818329	0  	0.818329	0.818329
426	12    	0.818329	0  	0.818329	0.818329
427	16    	0.819946	0  	0.819946	0.819946
428	6     	0.819946	0  	0.819946	0.819946
429	8     	0.821579	0  	0.821579	0.821579
430	4     	0.821579	0  	0.821579	0.821579
431	4     	0.821579	0  	0.821579	0.821579
432	6     	0.821579	0  	0.821579	0.821579
433	6     	0.821579	0  	0.821579	0.821579
434	8     	0.821579	0  	0.821579	0.821579
435	10    	0.821579	0  	0.821579	0.821579
436	12    	0.823196	0  	0.823196	0.823196
437	6     	0.823196	0  	0.823196	0.823196
438	6     	0.824814	0  	0.824814	0.824814
439	2     	0.824814	0  	0.824814	0.824814
440	4     	0.824814	0  	0.824814	0.824814
441	4     	0.824814	0  	0.824814	0.824814
442	6     	0.824814	0  	0.824814	0.824814
443	6     	0.824814	0  	0.824814	0.824814
444	8     	0.824814	0  	0.824814	0.824814
445	10    	0.824814	0  	0.824814	0.824814
446	12    	0.824814	0  	0.824814	0.824814
447	16    	0.824814	0  	0.824814	0.824814
448	20    	0.824814	0  	0.824814	0.824814
449	24    	0.826447	0  	0.826447	0.826447
450	10    	0.828064	0  	0.828064	0.828064
451	4     	0.828064	0  	0.828064	0.828064
452	6     	0.828064	0  	0.828064	0.828064
453	6     	0.828064	0  	0.828064	0.828064
454	8     	0.828064	0  	0.828064	0.828064
455	10    	0.828064	0  	0.828064	0.828064
456	12    	0.829681	0  	0.829681	0.829681
457	6     	0.829681	0  	0.829681	0.829681
458	6     	0.829681	0  	0.829681	0.829681
459	8     	0.831299	0  	0.831299	0.831299
460	4     	0.832932	0  	0.832932	0.832932
461	2     	0.832932	0  	0.832932	0.832932
462	2     	0.832932	0  	0.832932	0.832932
463	4     	0.832932	0  	0.832932	0.832932
464	4     	0.832932	0  	0.832932	0.832932
465	6     	0.832932	0  	0.832932	0.832932
466	6     	0.832932	0  	0.832932	0.832932
467	8     	0.832932	0  	0.832932	0.832932
468	10    	0.832932	0  	0.832932	0.832932
469	12    	0.832932	0  	0.832932	0.832932
470	16    	0.832932	0  	0.832932	0.832932
471	20    	0.832932	0  	0.832932	0.832932
472	24    	0.836166	0  	0.836166	0.836166
473	10    	0.836166	0  	0.836166	0.836166
474	12    	0.839417	0  	0.839417	0.839417
475	6     	0.839417	0  	0.839417	0.839417
476	6     	0.839417	0  	0.839417	0.839417
477	8     	0.839417	0  	0.839417	0.839417
478	10    	0.841034	0  	0.841034	0.841034
479	4     	0.841034	0  	0.841034	0.841034
480	6     	0.841034	0  	0.841034	0.841034
481	6     	0.841034	0  	0.841034	0.841034
482	8     	0.841034	0  	0.841034	0.841034
483	10    	0.842667	0  	0.842667	0.842667
484	4     	0.842667	0  	0.842667	0.842667
485	6     	0.842667	0  	0.842667	0.842667
486	6     	0.842667	0  	0.842667	0.842667
487	8     	0.842667	0  	0.842667	0.842667
488	10    	0.844284	0  	0.844284	0.844284
489	4     	0.844284	0  	0.844284	0.844284
490	6     	0.844284	0  	0.844284	0.844284
491	6     	0.844284	0  	0.844284	0.844284
492	8     	0.844284	0  	0.844284	0.844284
493	10    	0.844284	0  	0.844284	0.844284
494	12    	0.844284	0  	0.844284	0.844284
495	16    	0.844284	0  	0.844284	0.844284
496	20    	0.845901	0  	0.845901	0.845901
497	8     	0.845901	0  	0.845901	0.845901
498	10    	0.847519	0  	0.847519	0.847519
499	4     	0.847519	0  	0.847519	0.847519
500	6     	0.847519	0  	0.847519	0.847519
501	6     	0.847519	0  	0.847519	0.847519
502	8     	0.849152	0  	0.849152	0.849152
503	4     	0.849152	0  	0.849152	0.849152
504	4     	0.849152	0  	0.849152	0.849152
505	6     	0.849152	0  	0.849152	0.849152
506	6     	0.849152	0  	0.849152	0.849152
507	8     	0.849152	0  	0.849152	0.849152
508	10    	0.849152	0  	0.849152	0.849152
509	12    	0.849152	0  	0.849152	0.849152
510	16    	0.850769	0  	0.850769	0.850769
511	6     	0.850769	0  	0.850769	0.850769
512	8     	0.850769	0  	0.850769	0.850769
513	10    	0.850769	0  	0.850769	0.850769
514	12    	0.852386	0  	0.852386	0.852386
515	6     	0.852386	0  	0.852386	0.852386
516	6     	0.854019	0  	0.854019	0.854019
517	2     	0.854019	0  	0.854019	0.854019
518	4     	0.854019	0  	0.854019	0.854019
519	4     	0.854019	0  	0.854019	0.854019
520	6     	0.854019	0  	0.854019	0.854019
521	6     	0.854019	0  	0.854019	0.854019
522	8     	0.854019	0  	0.854019	0.854019
523	10    	0.855637	0  	0.855637	0.855637
524	4     	0.855637	0  	0.855637	0.855637
525	6     	0.855637	0  	0.855637	0.855637
526	6     	0.855637	0  	0.855637	0.855637
527	8     	0.855637	0  	0.855637	0.855637
528	10    	0.857254	0  	0.857254	0.857254
529	4     	0.857254	0  	0.857254	0.857254
530	6     	0.857254	0  	0.857254	0.857254
531	6     	0.857254	0  	0.857254	0.857254
532	8     	0.857254	0  	0.857254	0.857254
533	10    	0.857254	0  	0.857254	0.857254
534	12    	0.857254	0  	0.857254	0.857254
535	16    	0.857254	0  	0.857254	0.857254
536	20    	0.857254	0  	0.857254	0.857254
537	24    	0.857254	0  	0.857254	0.857254
538	32    	0.860504	0  	0.860504	0.860504
539	12    	0.860504	0  	0.860504	0.860504
540	16    	0.860504	0  	0.860504	0.860504
541	20    	0.862122	0  	0.862122	0.862122
542	8     	0.862122	0  	0.862122	0.862122
543	10    	0.862122	0  	0.862122	0.862122
544	12    	0.862122	0  	0.862122	0.862122
545	16    	0.862122	0  	0.862122	0.862122
546	20    	0.862122	0  	0.862122	0.862122
547	24    	0.862122	0  	0.862122	0.862122
548	32    	0.862122	0  	0.862122	0.862122
549	40    	0.862122	0  	0.862122	0.862122
550	50    	0.863754	0  	0.863754	0.863754
551	20    	0.865372	0  	0.865372	0.865372
552	8     	0.865372	0  	0.865372	0.865372
553	10    	0.865372	0  	0.865372	0.865372
554	12    	0.866989	0  	0.866989	0.866989
555	6     	0.866989	0  	0.866989	0.866989
556	6     	0.866989	0  	0.866989	0.866989
557	8     	0.866989	0  	0.866989	0.866989
558	10    	0.866989	0  	0.866989	0.866989
559	12    	0.866989	0  	0.866989	0.866989
560	16    	0.866989	0  	0.866989	0.866989
561	20    	0.866989	0  	0.866989	0.866989
562	24    	0.868607	0  	0.868607	0.868607
563	10    	0.868607	0  	0.868607	0.868607
564	12    	0.868607	0  	0.868607	0.868607
565	16    	0.868607	0  	0.868607	0.868607
566	20    	0.868607	0  	0.868607	0.868607
567	24    	0.868607	0  	0.868607	0.868607
568	32    	0.870239	0  	0.870239	0.870239
569	12    	0.870239	0  	0.870239	0.870239
570	16    	0.870239	0  	0.870239	0.870239
571	20    	0.871857	0  	0.871857	0.871857
572	8     	0.871857	0  	0.871857	0.871857
573	10    	0.871857	0  	0.871857	0.871857
574	12    	0.873474	0  	0.873474	0.873474
575	6     	0.873474	0  	0.873474	0.873474
576	6     	0.873474	0  	0.873474	0.873474
577	8     	0.873474	0  	0.873474	0.873474
578	10    	0.873474	0  	0.873474	0.873474
579	12    	0.875107	0  	0.875107	0.875107
580	6     	0.875107	0  	0.875107	0.875107
581	6     	0.875107	0  	0.875107	0.875107
582	8     	0.875107	0  	0.875107	0.875107
583	10    	0.875107	0  	0.875107	0.875107
584	12    	0.875107	0  	0.875107	0.875107
585	16    	0.876724	0  	0.876724	0.876724
586	6     	0.876724	0  	0.876724	0.876724
587	8     	0.876724	0  	0.876724	0.876724
588	10    	0.876724	0  	0.876724	0.876724
589	12    	0.876724	0  	0.876724	0.876724
590	16    	0.876724	0  	0.876724	0.876724
591	20    	0.876724	0  	0.876724	0.876724
592	24    	0.876724	0  	0.876724	0.876724
593	32    	0.876724	0  	0.876724	0.876724
594	40    	0.876724	0  	0.876724	0.876724
595	50    	0.876724	0  	0.876724	0.876724
596	62    	0.876724	0  	0.876724	0.876724
597	78    	0.878342	0  	0.878342	0.878342
598	32    	0.878342	0  	0.878342	0.878342
599	40    	0.878342	0  	0.878342	0.878342
600	50    	0.878342	0  	0.878342	0.878342
601	62    	0.879974	0  	0.879974	0.879974
602	24    	0.881592	0  	0.881592	0.881592
603	10    	0.881592	0  	0.881592	0.881592
604	12    	0.881592	0  	0.881592	0.881592
605	16    	0.881592	0  	0.881592	0.881592
606	20    	0.883209	0  	0.883209	0.883209
607	8     	0.884827	0  	0.884827	0.884827
608	4     	0.884827	0  	0.884827	0.884827
609	4     	0.884827	0  	0.884827	0.884827
610	6     	0.884827	0  	0.884827	0.884827
611	6     	0.884827	0  	0.884827	0.884827
612	8     	0.884827	0  	0.884827	0.884827
613	10    	0.884827	0  	0.884827	0.884827
614	12    	0.884827	0  	0.884827	0.884827
615	16    	0.884827	0  	0.884827	0.884827
616	20    	0.884827	0  	0.884827	0.884827
617	24    	0.884827	0  	0.884827	0.884827
618	32    	0.884827	0  	0.884827	0.884827
619	40    	0.884827	0  	0.884827	0.884827
620	50    	0.886459	0  	0.886459	0.886459
621	20    	0.886459	0  	0.886459	0.886459
622	24    	0.886459	0  	0.886459	0.886459
623	32    	0.888077	0  	0.888077	0.888077
624	12    	0.888077	0  	0.888077	0.888077
625	16    	0.888077	0  	0.888077	0.888077
626	20    	0.888077	0  	0.888077	0.888077
627	24    	0.888077	0  	0.888077	0.888077
628	32    	0.888077	0  	0.888077	0.888077
629	40    	0.888077	0  	0.888077	0.888077
630	50    	0.889694	0  	0.889694	0.889694
631	20    	0.889694	0  	0.889694	0.889694
632	24    	0.889694	0  	0.889694	0.889694
633	32    	0.889694	0  	0.889694	0.889694
634	40    	0.889694	0  	0.889694	0.889694
635	50    	0.889694	0  	0.889694	0.889694
636	62    	0.889694	0  	0.889694	0.889694
637	78    	0.889694	0  	0.889694	0.889694
638	98    	0.889694	0  	0.889694	0.889694
639	124   	0.891327	0  	0.891327	0.891327
640	50    	0.891327	0  	0.891327	0.891327
641	62    	0.892944	0  	0.892944	0.892944
642	24    	0.892944	0  	0.892944	0.892944
643	32    	0.892944	0  	0.892944	0.892944
644	40    	0.892944	0  	0.892944	0.892944
645	50    	0.894562	0  	0.894562	0.894562
646	20    	0.894562	0  	0.894562	0.894562
647	24    	0.894562	0  	0.894562	0.894562
648	32    	0.894562	0  	0.894562	0.894562
649	40    	0.894562	0  	0.894562	0.894562
650	50    	0.894562	0  	0.894562	0.894562
651	62    	0.894562	0  	0.894562	0.894562
652	78    	0.896194	0  	0.896194	0.896194
653	32    	0.896194	0  	0.896194	0.896194
654	40    	0.896194	0  	0.896194	0.896194
655	50    	0.896194	0  	0.896194	0.896194
656	62    	0.896194	0  	0.896194	0.896194
657	78    	0.897812	0  	0.897812	0.897812
658	32    	0.897812	0  	0.897812	0.897812
659	40    	0.901047	0  	0.901047	0.901047
660	16    	0.901047	0  	0.901047	0.901047
661	20    	0.901047	0  	0.901047	0.901047
662	24    	0.901047	0  	0.901047	0.901047
663	32    	0.901047	0  	0.901047	0.901047
664	40    	0.902679	0  	0.902679	0.902679
665	16    	0.904297	0  	0.904297	0.904297
666	6     	0.904297	0  	0.904297	0.904297
667	8     	0.904297	0  	0.904297	0.904297
668	10    	0.904297	0  	0.904297	0.904297
669	12    	0.904297	0  	0.904297	0.904297
670	16    	0.904297	0  	0.904297	0.904297
671	20    	0.904297	0  	0.904297	0.904297
672	24    	0.904297	0  	0.904297	0.904297
673	32    	0.904297	0  	0.904297	0.904297
674	40    	0.904297	0  	0.904297	0.904297
675	50    	0.904297	0  	0.904297	0.904297
676	62    	0.904297	0  	0.904297	0.904297
677	78    	0.904297	0  	0.904297	0.904297
678	98    	0.904297	0  	0.904297	0.904297
679	124   	0.904297	0  	0.904297	0.904297
680	156   	0.904297	0  	0.904297	0.904297
681	196   	0.904297	0  	0.904297	0.904297
682	246   	0.904297	0  	0.904297	0.904297
683	308   	0.904297	0  	0.904297	0.904297
684	388   	0.904297	0  	0.904297	0.904297
685	488   	0.904297	0  	0.904297	0.904297
686	614   	0.905914	0  	0.905914	0.905914
687	246   	0.905914	0  	0.905914	0.905914
688	308   	0.905914	0  	0.905914	0.905914
689	388   	0.905914	0  	0.905914	0.905914
