gen	nevals	avg     	std	min     	max     
0  	1     	0.6129  	0  	0.6129  	0.6129  
1  	2     	0.6129  	0  	0.6129  	0.6129  
2  	2     	0.677414	0  	0.677414	0.677414
3  	2     	0.677414	0  	0.677414	0.677414
4  	2     	0.677414	0  	0.677414	0.677414
5  	4     	0.677414	0  	0.677414	0.677414
6  	4     	0.709671	0  	0.709671	0.709671
7  	2     	0.709671	0  	0.709671	0.709671
8  	2     	0.709671	0  	0.709671	0.709671
9  	4     	0.709671	0  	0.709671	0.709671
10 	4     	0.741928	0  	0.741928	0.741928
11 	2     	0.741928	0  	0.741928	0.741928
12 	2     	0.741928	0  	0.741928	0.741928
13 	4     	0.7742  	0  	0.7742  	0.7742  
14 	2     	0.7742  	0  	0.7742  	0.7742  
15 	2     	0.7742  	0  	0.7742  	0.7742  
16 	4     	0.7742  	0  	0.7742  	0.7742  
17 	4     	0.7742  	0  	0.7742  	0.7742  
18 	6     	0.7742  	0  	0.7742  	0.7742  
19 	6     	0.806458	0  	0.806458	0.806458
20 	2     	0.806458	0  	0.806458	0.806458
21 	4     	0.806458	0  	0.806458	0.806458
22 	4     	0.806458	0  	0.806458	0.806458
23 	6     	0.806458	0  	0.806458	0.806458
24 	6     	0.838715	0  	0.838715	0.838715
25 	2     	0.838715	0  	0.838715	0.838715
26 	4     	0.838715	0  	0.838715	0.838715
27 	4     	0.838715	0  	0.838715	0.838715
28 	6     	0.870972	0  	0.870972	0.870972
29 	2     	0.870972	0  	0.870972	0.870972
30 	2     	0.870972	0  	0.870972	0.870972
31 	4     	0.870972	0  	0.870972	0.870972
32 	4     	0.870972	0  	0.870972	0.870972
33 	6     	0.870972	0  	0.870972	0.870972
34 	6     	0.870972	0  	0.870972	0.870972
35 	8     	0.870972	0  	0.870972	0.870972
36 	10    	0.935486	0  	0.935486	0.935486
37 	4     	0.935486	0  	0.935486	0.935486
38 	6     	0.935486	0  	0.935486	0.935486
39 	6     	0.935486	0  	0.935486	0.935486
40 	8     	0.935486	0  	0.935486	0.935486
41 	10    	0.935486	0  	0.935486	0.935486
42 	12    	0.935486	0  	0.935486	0.935486
43 	16    	0.935486	0  	0.935486	0.935486
44 	20    	0.935486	0  	0.935486	0.935486
45 	24    	0.935486	0  	0.935486	0.935486
46 	32    	0.967743	0  	0.967743	0.967743
47 	12    	0.967743	0  	0.967743	0.967743
48 	16    	0.967743	0  	0.967743	0.967743
49 	20    	0.967743	0  	0.967743	0.967743
50 	24    	0.967743	0  	0.967743	0.967743
51 	32    	0.967743	0  	0.967743	0.967743
52 	40    	0.967743	0  	0.967743	0.967743
53 	50    	0.967743	0  	0.967743	0.967743
54 	62    	0.967743	0  	0.967743	0.967743
55 	72    	0.967743	0  	0.967743	0.967743
56 	72    	0.967743	0  	0.967743	0.967743
57 	72    	0.967743	0  	0.967743	0.967743
58 	72    	0.967743	0  	0.967743	0.967743
59 	72    	0.967743	0  	0.967743	0.967743
60 	72    	0.967743	0  	0.967743	0.967743
61 	72    	0.967743	0  	0.967743	0.967743
62 	72    	0.967743	0  	0.967743	0.967743
63 	72    	0.967743	0  	0.967743	0.967743
64 	72    	0.967743	0  	0.967743	0.967743
65 	72    	0.967743	0  	0.967743	0.967743
66 	72    	0.967743	0  	0.967743	0.967743
67 	72    	0.967743	0  	0.967743	0.967743
68 	72    	0.967743	0  	0.967743	0.967743
69 	72    	0.967743	0  	0.967743	0.967743
70 	72    	0.967743	0  	0.967743	0.967743
71 	72    	0.967743	0  	0.967743	0.967743
72 	72    	0.967743	0  	0.967743	0.967743
73 	72    	0.967743	0  	0.967743	0.967743
74 	72    	0.967743	0  	0.967743	0.967743
75 	72    	0.967743	0  	0.967743	0.967743
76 	72    	0.967743	0  	0.967743	0.967743
77 	72    	0.967743	0  	0.967743	0.967743
78 	72    	0.967743	0  	0.967743	0.967743
79 	72    	0.967743	0  	0.967743	0.967743
80 	72    	0.967743	0  	0.967743	0.967743
81 	72    	0.967743	0  	0.967743	0.967743
82 	72    	0.967743	0  	0.967743	0.967743
83 	72    	0.967743	0  	0.967743	0.967743
84 	72    	0.967743	0  	0.967743	0.967743
85 	72    	0.967743	0  	0.967743	0.967743
86 	72    	0.967743	0  	0.967743	0.967743
87 	72    	0.967743	0  	0.967743	0.967743
88 	72    	0.967743	0  	0.967743	0.967743
89 	72    	0.967743	0  	0.967743	0.967743
90 	72    	0.967743	0  	0.967743	0.967743
91 	72    	0.967743	0  	0.967743	0.967743
92 	72    	0.967743	0  	0.967743	0.967743
93 	72    	0.967743	0  	0.967743	0.967743
94 	72    	0.967743	0  	0.967743	0.967743
95 	72    	0.967743	0  	0.967743	0.967743
96 	72    	0.967743	0  	0.967743	0.967743
97 	72    	0.967743	0  	0.967743	0.967743
98 	72    	0.967743	0  	0.967743	0.967743
99 	72    	0.967743	0  	0.967743	0.967743
100	72    	0.967743	0  	0.967743	0.967743
101	72    	0.967743	0  	0.967743	0.967743
102	72    	0.967743	0  	0.967743	0.967743
103	72    	0.967743	0  	0.967743	0.967743
104	72    	0.967743	0  	0.967743	0.967743
105	72    	0.967743	0  	0.967743	0.967743
106	72    	0.967743	0  	0.967743	0.967743
107	72    	0.967743	0  	0.967743	0.967743
108	72    	0.967743	0  	0.967743	0.967743
109	72    	0.967743	0  	0.967743	0.967743
110	72    	0.967743	0  	0.967743	0.967743
111	72    	0.967743	0  	0.967743	0.967743
112	72    	0.967743	0  	0.967743	0.967743
113	72    	0.967743	0  	0.967743	0.967743
114	72    	0.967743	0  	0.967743	0.967743
115	72    	0.967743	0  	0.967743	0.967743
116	72    	0.967743	0  	0.967743	0.967743
117	72    	0.967743	0  	0.967743	0.967743
118	72    	0.967743	0  	0.967743	0.967743
119	72    	0.967743	0  	0.967743	0.967743
120	72    	0.967743	0  	0.967743	0.967743
121	72    	0.967743	0  	0.967743	0.967743
122	72    	0.967743	0  	0.967743	0.967743
123	72    	0.967743	0  	0.967743	0.967743
124	72    	0.967743	0  	0.967743	0.967743
125	72    	0.967743	0  	0.967743	0.967743
126	72    	0.967743	0  	0.967743	0.967743
127	72    	0.967743	0  	0.967743	0.967743
128	72    	0.967743	0  	0.967743	0.967743
129	72    	0.967743	0  	0.967743	0.967743
130	72    	0.967743	0  	0.967743	0.967743
131	72    	0.967743	0  	0.967743	0.967743
132	72    	0.967743	0  	0.967743	0.967743
133	72    	0.967743	0  	0.967743	0.967743
134	72    	0.967743	0  	0.967743	0.967743
135	72    	0.967743	0  	0.967743	0.967743
136	72    	0.967743	0  	0.967743	0.967743
137	72    	0.967743	0  	0.967743	0.967743
138	72    	0.967743	0  	0.967743	0.967743
139	72    	0.967743	0  	0.967743	0.967743
140	72    	0.967743	0  	0.967743	0.967743
141	72    	0.967743	0  	0.967743	0.967743
142	72    	0.967743	0  	0.967743	0.967743
143	72    	0.967743	0  	0.967743	0.967743
144	72    	0.967743	0  	0.967743	0.967743
145	72    	0.967743	0  	0.967743	0.967743
146	72    	0.967743	0  	0.967743	0.967743
147	72    	0.967743	0  	0.967743	0.967743
148	72    	0.967743	0  	0.967743	0.967743
149	72    	0.967743	0  	0.967743	0.967743
150	72    	0.967743	0  	0.967743	0.967743
151	72    	0.967743	0  	0.967743	0.967743
152	72    	0.967743	0  	0.967743	0.967743
153	72    	0.967743	0  	0.967743	0.967743
154	72    	0.967743	0  	0.967743	0.967743
155	72    	0.967743	0  	0.967743	0.967743
156	72    	0.967743	0  	0.967743	0.967743
157	72    	0.967743	0  	0.967743	0.967743
158	72    	0.967743	0  	0.967743	0.967743
159	72    	0.967743	0  	0.967743	0.967743
160	72    	0.967743	0  	0.967743	0.967743
161	72    	0.967743	0  	0.967743	0.967743
162	72    	0.967743	0  	0.967743	0.967743
163	72    	0.967743	0  	0.967743	0.967743
164	72    	0.967743	0  	0.967743	0.967743
165	72    	0.967743	0  	0.967743	0.967743
166	72    	0.967743	0  	0.967743	0.967743
167	72    	0.967743	0  	0.967743	0.967743
168	72    	0.967743	0  	0.967743	0.967743
169	72    	0.967743	0  	0.967743	0.967743
170	72    	0.967743	0  	0.967743	0.967743
171	72    	0.967743	0  	0.967743	0.967743
172	72    	0.967743	0  	0.967743	0.967743
173	72    	0.967743	0  	0.967743	0.967743
174	72    	0.967743	0  	0.967743	0.967743
175	72    	0.967743	0  	0.967743	0.967743
176	72    	0.967743	0  	0.967743	0.967743
177	72    	0.967743	0  	0.967743	0.967743
178	72    	0.967743	0  	0.967743	0.967743
179	72    	0.967743	0  	0.967743	0.967743
180	72    	0.967743	0  	0.967743	0.967743
181	72    	0.967743	0  	0.967743	0.967743
182	72    	0.967743	0  	0.967743	0.967743
183	72    	0.967743	0  	0.967743	0.967743
184	72    	0.967743	0  	0.967743	0.967743
185	72    	0.967743	0  	0.967743	0.967743
186	72    	0.967743	0  	0.967743	0.967743
