gen	nevals	avg     	std	min     	max     
0  	1     	0.5849  	0  	0.5849  	0.5849  
1  	2     	0.5849  	0  	0.5849  	0.5849  
2  	2     	0.5849  	0  	0.5849  	0.5849  
3  	4     	0.5849  	0  	0.5849  	0.5849  
4  	4     	0.5849  	0  	0.5849  	0.5849  
5  	6     	0.622635	0  	0.622635	0.622635
6  	2     	0.622635	0  	0.622635	0.622635
7  	2     	0.64151 	0  	0.64151 	0.64151 
8  	2     	0.64151 	0  	0.64151 	0.64151 
9  	2     	0.64151 	0  	0.64151 	0.64151 
10 	4     	0.64151 	0  	0.64151 	0.64151 
11 	4     	0.64151 	0  	0.64151 	0.64151 
12 	6     	0.64151 	0  	0.64151 	0.64151 
13 	6     	0.66037 	0  	0.66037 	0.66037 
14 	2     	0.66037 	0  	0.66037 	0.66037 
15 	4     	0.679245	0  	0.679245	0.679245
16 	2     	0.679245	0  	0.679245	0.679245
17 	2     	0.679245	0  	0.679245	0.679245
18 	4     	0.679245	0  	0.679245	0.679245
19 	4     	0.69812 	0  	0.69812 	0.69812 
20 	2     	0.69812 	0  	0.69812 	0.69812 
21 	2     	0.69812 	0  	0.69812 	0.69812 
22 	4     	0.69812 	0  	0.69812 	0.69812 
23 	4     	0.69812 	0  	0.69812 	0.69812 
24 	6     	0.69812 	0  	0.69812 	0.69812 
25 	6     	0.69812 	0  	0.69812 	0.69812 
26 	8     	0.69812 	0  	0.69812 	0.69812 
27 	10    	0.69812 	0  	0.69812 	0.69812 
28 	12    	0.735855	0  	0.735855	0.735855
29 	6     	0.754715	0  	0.754715	0.754715
30 	2     	0.754715	0  	0.754715	0.754715
31 	2     	0.77359 	0  	0.77359 	0.77359 
32 	2     	0.77359 	0  	0.77359 	0.77359 
33 	2     	0.77359 	0  	0.77359 	0.77359 
34 	4     	0.79245 	0  	0.79245 	0.79245 
35 	2     	0.79245 	0  	0.79245 	0.79245 
36 	2     	0.79245 	0  	0.79245 	0.79245 
37 	4     	0.79245 	0  	0.79245 	0.79245 
38 	4     	0.79245 	0  	0.79245 	0.79245 
39 	6     	0.79245 	0  	0.79245 	0.79245 
40 	6     	0.79245 	0  	0.79245 	0.79245 
41 	8     	0.79245 	0  	0.79245 	0.79245 
42 	10    	0.811325	0  	0.811325	0.811325
43 	4     	0.811325	0  	0.811325	0.811325
44 	6     	0.811325	0  	0.811325	0.811325
45 	6     	0.811325	0  	0.811325	0.811325
46 	8     	0.811325	0  	0.811325	0.811325
47 	10    	0.811325	0  	0.811325	0.811325
48 	12    	0.811325	0  	0.811325	0.811325
49 	16    	0.830185	0  	0.830185	0.830185
50 	6     	0.830185	0  	0.830185	0.830185
51 	8     	0.830185	0  	0.830185	0.830185
52 	10    	0.830185	0  	0.830185	0.830185
53 	12    	0.830185	0  	0.830185	0.830185
54 	16    	0.830185	0  	0.830185	0.830185
55 	20    	0.86792 	0  	0.86792 	0.86792 
56 	8     	0.86792 	0  	0.86792 	0.86792 
57 	10    	0.86792 	0  	0.86792 	0.86792 
58 	12    	0.86792 	0  	0.86792 	0.86792 
59 	16    	0.886795	0  	0.886795	0.886795
60 	6     	0.886795	0  	0.886795	0.886795
61 	8     	0.886795	0  	0.886795	0.886795
62 	10    	0.886795	0  	0.886795	0.886795
63 	12    	0.886795	0  	0.886795	0.886795
64 	16    	0.886795	0  	0.886795	0.886795
65 	20    	0.886795	0  	0.886795	0.886795
66 	24    	0.905655	0  	0.905655	0.905655
67 	10    	0.905655	0  	0.905655	0.905655
68 	12    	0.905655	0  	0.905655	0.905655
69 	16    	0.905655	0  	0.905655	0.905655
70 	20    	0.905655	0  	0.905655	0.905655
71 	24    	0.905655	0  	0.905655	0.905655
72 	32    	0.905655	0  	0.905655	0.905655
73 	40    	0.905655	0  	0.905655	0.905655
74 	50    	0.905655	0  	0.905655	0.905655
75 	62    	0.905655	0  	0.905655	0.905655
76 	78    	0.905655	0  	0.905655	0.905655
77 	98    	0.905655	0  	0.905655	0.905655
78 	124   	0.905655	0  	0.905655	0.905655
79 	128   	0.905655	0  	0.905655	0.905655
80 	128   	0.905655	0  	0.905655	0.905655
81 	128   	0.905655	0  	0.905655	0.905655
82 	128   	0.905655	0  	0.905655	0.905655
83 	128   	0.905655	0  	0.905655	0.905655
84 	128   	0.905655	0  	0.905655	0.905655
85 	128   	0.905655	0  	0.905655	0.905655
86 	128   	0.905655	0  	0.905655	0.905655
87 	128   	0.905655	0  	0.905655	0.905655
88 	128   	0.905655	0  	0.905655	0.905655
89 	128   	0.905655	0  	0.905655	0.905655
90 	128   	0.905655	0  	0.905655	0.905655
91 	128   	0.905655	0  	0.905655	0.905655
92 	128   	0.905655	0  	0.905655	0.905655
93 	128   	0.905655	0  	0.905655	0.905655
94 	128   	0.905655	0  	0.905655	0.905655
95 	128   	0.905655	0  	0.905655	0.905655
96 	128   	0.905655	0  	0.905655	0.905655
97 	128   	0.905655	0  	0.905655	0.905655
98 	128   	0.905655	0  	0.905655	0.905655
99 	128   	0.905655	0  	0.905655	0.905655
100	128   	0.905655	0  	0.905655	0.905655
101	128   	0.905655	0  	0.905655	0.905655
102	128   	0.905655	0  	0.905655	0.905655
103	128   	0.905655	0  	0.905655	0.905655
104	128   	0.905655	0  	0.905655	0.905655
105	128   	0.905655	0  	0.905655	0.905655
106	128   	0.905655	0  	0.905655	0.905655
107	128   	0.905655	0  	0.905655	0.905655
108	128   	0.905655	0  	0.905655	0.905655
109	128   	0.905655	0  	0.905655	0.905655
110	128   	0.905655	0  	0.905655	0.905655
111	128   	0.905655	0  	0.905655	0.905655
112	128   	0.905655	0  	0.905655	0.905655
113	128   	0.905655	0  	0.905655	0.905655
114	128   	0.905655	0  	0.905655	0.905655
115	128   	0.905655	0  	0.905655	0.905655
116	128   	0.92453 	0  	0.92453 	0.92453 
117	52    	0.92453 	0  	0.92453 	0.92453 
118	64    	0.92453 	0  	0.92453 	0.92453 
119	80    	0.92453 	0  	0.92453 	0.92453 
120	102   	0.92453 	0  	0.92453 	0.92453 
121	128   	0.92453 	0  	0.92453 	0.92453 
122	128   	0.92453 	0  	0.92453 	0.92453 
123	128   	0.92453 	0  	0.92453 	0.92453 
124	128   	0.92453 	0  	0.92453 	0.92453 
125	128   	0.92453 	0  	0.92453 	0.92453 
126	128   	0.92453 	0  	0.92453 	0.92453 
127	128   	0.92453 	0  	0.92453 	0.92453 
128	128   	0.92453 	0  	0.92453 	0.92453 
129	128   	0.92453 	0  	0.92453 	0.92453 
130	128   	0.92453 	0  	0.92453 	0.92453 
131	128   	0.92453 	0  	0.92453 	0.92453 
132	128   	0.92453 	0  	0.92453 	0.92453 
133	128   	0.92453 	0  	0.92453 	0.92453 
134	128   	0.92453 	0  	0.92453 	0.92453 
135	128   	0.92453 	0  	0.92453 	0.92453 
136	128   	0.92453 	0  	0.92453 	0.92453 
137	128   	0.92453 	0  	0.92453 	0.92453 
138	128   	0.92453 	0  	0.92453 	0.92453 
139	128   	0.92453 	0  	0.92453 	0.92453 
140	128   	0.92453 	0  	0.92453 	0.92453 
141	128   	0.92453 	0  	0.92453 	0.92453 
142	128   	0.92453 	0  	0.92453 	0.92453 
143	128   	0.92453 	0  	0.92453 	0.92453 
144	128   	0.92453 	0  	0.92453 	0.92453 
145	128   	0.92453 	0  	0.92453 	0.92453 
146	128   	0.92453 	0  	0.92453 	0.92453 
147	128   	0.92453 	0  	0.92453 	0.92453 
148	128   	0.92453 	0  	0.92453 	0.92453 
149	128   	0.92453 	0  	0.92453 	0.92453 
150	128   	0.92453 	0  	0.92453 	0.92453 
