gen	nevals	avg     	std	min     	max     
0  	1     	0.566498	0  	0.566498	0.566498
1  	2     	0.566498	0  	0.566498	0.566498
2  	2     	0.566498	0  	0.566498	0.566498
3  	4     	0.576355	0  	0.576355	0.576355
4  	2     	0.576355	0  	0.576355	0.576355
5  	2     	0.576355	0  	0.576355	0.576355
6  	4     	0.615768	0  	0.615768	0.615768
7  	2     	0.62561 	0  	0.62561 	0.62561 
8  	2     	0.62561 	0  	0.62561 	0.62561 
9  	2     	0.62561 	0  	0.62561 	0.62561 
10 	4     	0.635468	0  	0.635468	0.635468
11 	2     	0.635468	0  	0.635468	0.635468
12 	2     	0.635468	0  	0.635468	0.635468
13 	4     	0.655167	0  	0.655167	0.655167
14 	2     	0.665024	0  	0.665024	0.665024
15 	2     	0.665024	0  	0.665024	0.665024
16 	2     	0.665024	0  	0.665024	0.665024
17 	4     	0.674881	0  	0.674881	0.674881
18 	2     	0.674881	0  	0.674881	0.674881
19 	2     	0.674881	0  	0.674881	0.674881
20 	4     	0.684723	0  	0.684723	0.684723
21 	2     	0.684723	0  	0.684723	0.684723
22 	2     	0.69458 	0  	0.69458 	0.69458 
23 	2     	0.69458 	0  	0.69458 	0.69458 
24 	2     	0.69458 	0  	0.69458 	0.69458 
25 	4     	0.69458 	0  	0.69458 	0.69458 
26 	4     	0.714279	0  	0.714279	0.714279
27 	2     	0.714279	0  	0.714279	0.714279
28 	2     	0.714279	0  	0.714279	0.714279
29 	4     	0.714279	0  	0.714279	0.714279
30 	4     	0.714279	0  	0.714279	0.714279
31 	6     	0.724136	0  	0.724136	0.724136
32 	2     	0.724136	0  	0.724136	0.724136
33 	2     	0.724136	0  	0.724136	0.724136
34 	4     	0.724136	0  	0.724136	0.724136
35 	4     	0.724136	0  	0.724136	0.724136
36 	6     	0.743835	0  	0.743835	0.743835
37 	2     	0.743835	0  	0.743835	0.743835
38 	2     	0.76355 	0  	0.76355 	0.76355 
39 	2     	0.76355 	0  	0.76355 	0.76355 
40 	2     	0.76355 	0  	0.76355 	0.76355 
41 	4     	0.76355 	0  	0.76355 	0.76355 
42 	4     	0.773392	0  	0.773392	0.773392
43 	2     	0.773392	0  	0.773392	0.773392
44 	2     	0.773392	0  	0.773392	0.773392
45 	4     	0.783249	0  	0.783249	0.783249
46 	2     	0.783249	0  	0.783249	0.783249
47 	2     	0.783249	0  	0.783249	0.783249
48 	4     	0.793106	0  	0.793106	0.793106
49 	2     	0.793106	0  	0.793106	0.793106
50 	2     	0.793106	0  	0.793106	0.793106
51 	4     	0.793106	0  	0.793106	0.793106
52 	4     	0.793106	0  	0.793106	0.793106
53 	6     	0.802963	0  	0.802963	0.802963
54 	2     	0.802963	0  	0.802963	0.802963
55 	2     	0.802963	0  	0.802963	0.802963
56 	4     	0.802963	0  	0.802963	0.802963
57 	4     	0.802963	0  	0.802963	0.802963
58 	6     	0.802963	0  	0.802963	0.802963
59 	6     	0.802963	0  	0.802963	0.802963
60 	8     	0.812805	0  	0.812805	0.812805
61 	4     	0.812805	0  	0.812805	0.812805
62 	4     	0.812805	0  	0.812805	0.812805
63 	6     	0.812805	0  	0.812805	0.812805
64 	6     	0.812805	0  	0.812805	0.812805
65 	8     	0.812805	0  	0.812805	0.812805
66 	10    	0.812805	0  	0.812805	0.812805
67 	12    	0.812805	0  	0.812805	0.812805
68 	16    	0.812805	0  	0.812805	0.812805
69 	20    	0.812805	0  	0.812805	0.812805
70 	24    	0.822662	0  	0.822662	0.822662
71 	10    	0.83252 	0  	0.83252 	0.83252 
72 	4     	0.83252 	0  	0.83252 	0.83252 
73 	6     	0.83252 	0  	0.83252 	0.83252 
74 	6     	0.83252 	0  	0.83252 	0.83252 
75 	8     	0.83252 	0  	0.83252 	0.83252 
76 	10    	0.83252 	0  	0.83252 	0.83252 
77 	12    	0.842361	0  	0.842361	0.842361
78 	6     	0.842361	0  	0.842361	0.842361
79 	6     	0.842361	0  	0.842361	0.842361
80 	8     	0.842361	0  	0.842361	0.842361
81 	10    	0.842361	0  	0.842361	0.842361
82 	12    	0.842361	0  	0.842361	0.842361
83 	16    	0.852219	0  	0.852219	0.852219
84 	6     	0.852219	0  	0.852219	0.852219
85 	8     	0.852219	0  	0.852219	0.852219
86 	10    	0.852219	0  	0.852219	0.852219
87 	12    	0.852219	0  	0.852219	0.852219
88 	16    	0.852219	0  	0.852219	0.852219
89 	20    	0.852219	0  	0.852219	0.852219
90 	24    	0.852219	0  	0.852219	0.852219
91 	32    	0.852219	0  	0.852219	0.852219
92 	40    	0.862076	0  	0.862076	0.862076
93 	16    	0.862076	0  	0.862076	0.862076
94 	20    	0.871918	0  	0.871918	0.871918
95 	8     	0.881775	0  	0.881775	0.881775
96 	4     	0.881775	0  	0.881775	0.881775
97 	4     	0.881775	0  	0.881775	0.881775
98 	6     	0.881775	0  	0.881775	0.881775
99 	6     	0.881775	0  	0.881775	0.881775
100	8     	0.881775	0  	0.881775	0.881775
101	10    	0.881775	0  	0.881775	0.881775
102	12    	0.881775	0  	0.881775	0.881775
103	16    	0.891632	0  	0.891632	0.891632
104	6     	0.891632	0  	0.891632	0.891632
105	8     	0.891632	0  	0.891632	0.891632
106	10    	0.891632	0  	0.891632	0.891632
107	12    	0.891632	0  	0.891632	0.891632
108	16    	0.891632	0  	0.891632	0.891632
109	20    	0.891632	0  	0.891632	0.891632
110	24    	0.891632	0  	0.891632	0.891632
111	32    	0.891632	0  	0.891632	0.891632
112	40    	0.891632	0  	0.891632	0.891632
113	50    	0.891632	0  	0.891632	0.891632
114	62    	0.891632	0  	0.891632	0.891632
115	78    	0.891632	0  	0.891632	0.891632
116	98    	0.891632	0  	0.891632	0.891632
117	124   	0.891632	0  	0.891632	0.891632
118	156   	0.891632	0  	0.891632	0.891632
119	196   	0.891632	0  	0.891632	0.891632
120	242   	0.891632	0  	0.891632	0.891632
121	242   	0.891632	0  	0.891632	0.891632
122	242   	0.891632	0  	0.891632	0.891632
123	242   	0.891632	0  	0.891632	0.891632
124	242   	0.891632	0  	0.891632	0.891632
125	242   	0.891632	0  	0.891632	0.891632
126	242   	0.891632	0  	0.891632	0.891632
127	242   	0.891632	0  	0.891632	0.891632
128	242   	0.891632	0  	0.891632	0.891632
129	242   	0.891632	0  	0.891632	0.891632
130	242   	0.891632	0  	0.891632	0.891632
131	242   	0.891632	0  	0.891632	0.891632
132	242   	0.891632	0  	0.891632	0.891632
133	242   	0.891632	0  	0.891632	0.891632
134	242   	0.891632	0  	0.891632	0.891632
135	242   	0.891632	0  	0.891632	0.891632
136	242   	0.891632	0  	0.891632	0.891632
137	242   	0.891632	0  	0.891632	0.891632
138	242   	0.891632	0  	0.891632	0.891632
139	242   	0.891632	0  	0.891632	0.891632
140	242   	0.891632	0  	0.891632	0.891632
141	242   	0.891632	0  	0.891632	0.891632
142	242   	0.891632	0  	0.891632	0.891632
143	242   	0.891632	0  	0.891632	0.891632
144	242   	0.891632	0  	0.891632	0.891632
145	242   	0.891632	0  	0.891632	0.891632
146	242   	0.891632	0  	0.891632	0.891632
147	242   	0.891632	0  	0.891632	0.891632
148	242   	0.891632	0  	0.891632	0.891632
149	242   	0.891632	0  	0.891632	0.891632
150	242   	0.891632	0  	0.891632	0.891632
151	242   	0.891632	0  	0.891632	0.891632
152	242   	0.891632	0  	0.891632	0.891632
153	242   	0.891632	0  	0.891632	0.891632
154	242   	0.891632	0  	0.891632	0.891632
