gen	nevals	avg     	std	min     	max     
0  	1     	0.569977	0  	0.569977	0.569977
1  	2     	0.569977	0  	0.569977	0.569977
2  	2     	0.574036	0  	0.574036	0.574036
3  	2     	0.582153	0  	0.582153	0.582153
4  	2     	0.586212	0  	0.586212	0.586212
5  	2     	0.586212	0  	0.586212	0.586212
6  	2     	0.586212	0  	0.586212	0.586212
7  	4     	0.594315	0  	0.594315	0.594315
8  	2     	0.594315	0  	0.594315	0.594315
9  	2     	0.594315	0  	0.594315	0.594315
10 	4     	0.594315	0  	0.594315	0.594315
11 	4     	0.594315	0  	0.594315	0.594315
12 	6     	0.598373	0  	0.598373	0.598373
13 	2     	0.598373	0  	0.598373	0.598373
14 	2     	0.602432	0  	0.602432	0.602432
15 	2     	0.61055 	0  	0.61055 	0.61055 
16 	2     	0.61055 	0  	0.61055 	0.61055 
17 	2     	0.61055 	0  	0.61055 	0.61055 
18 	4     	0.61055 	0  	0.61055 	0.61055 
19 	4     	0.614609	0  	0.614609	0.614609
20 	2     	0.614609	0  	0.614609	0.614609
21 	2     	0.614609	0  	0.614609	0.614609
22 	4     	0.618668	0  	0.618668	0.618668
23 	2     	0.622711	0  	0.622711	0.622711
24 	2     	0.622711	0  	0.622711	0.622711
25 	2     	0.622711	0  	0.622711	0.622711
26 	4     	0.622711	0  	0.622711	0.622711
27 	4     	0.622711	0  	0.622711	0.622711
28 	6     	0.622711	0  	0.622711	0.622711
29 	6     	0.62677 	0  	0.62677 	0.62677 
30 	2     	0.62677 	0  	0.62677 	0.62677 
31 	4     	0.62677 	0  	0.62677 	0.62677 
32 	4     	0.634888	0  	0.634888	0.634888
33 	2     	0.643005	0  	0.643005	0.643005
34 	2     	0.643005	0  	0.643005	0.643005
35 	2     	0.643005	0  	0.643005	0.643005
36 	4     	0.651123	0  	0.651123	0.651123
37 	2     	0.663284	0  	0.663284	0.663284
38 	2     	0.663284	0  	0.663284	0.663284
39 	2     	0.663284	0  	0.663284	0.663284
40 	4     	0.663284	0  	0.663284	0.663284
41 	4     	0.663284	0  	0.663284	0.663284
42 	6     	0.663284	0  	0.663284	0.663284
43 	6     	0.663284	0  	0.663284	0.663284
44 	8     	0.667343	0  	0.667343	0.667343
45 	4     	0.667343	0  	0.667343	0.667343
46 	4     	0.667343	0  	0.667343	0.667343
47 	6     	0.671402	0  	0.671402	0.671402
48 	2     	0.671402	0  	0.671402	0.671402
49 	2     	0.671402	0  	0.671402	0.671402
50 	4     	0.67952 	0  	0.67952 	0.67952 
51 	2     	0.67952 	0  	0.67952 	0.67952 
52 	2     	0.67952 	0  	0.67952 	0.67952 
53 	4     	0.67952 	0  	0.67952 	0.67952 
54 	4     	0.683563	0  	0.683563	0.683563
55 	2     	0.683563	0  	0.683563	0.683563
56 	2     	0.683563	0  	0.683563	0.683563
57 	4     	0.683563	0  	0.683563	0.683563
58 	4     	0.683563	0  	0.683563	0.683563
59 	6     	0.687622	0  	0.687622	0.687622
60 	2     	0.687622	0  	0.687622	0.687622
61 	2     	0.687622	0  	0.687622	0.687622
62 	4     	0.687622	0  	0.687622	0.687622
63 	4     	0.687622	0  	0.687622	0.687622
64 	6     	0.687622	0  	0.687622	0.687622
65 	6     	0.687622	0  	0.687622	0.687622
66 	8     	0.691681	0  	0.691681	0.691681
67 	4     	0.691681	0  	0.691681	0.691681
68 	4     	0.691681	0  	0.691681	0.691681
69 	6     	0.691681	0  	0.691681	0.691681
70 	6     	0.691681	0  	0.691681	0.691681
71 	8     	0.69574 	0  	0.69574 	0.69574 
72 	4     	0.69574 	0  	0.69574 	0.69574 
73 	4     	0.69574 	0  	0.69574 	0.69574 
74 	6     	0.69574 	0  	0.69574 	0.69574 
75 	6     	0.69574 	0  	0.69574 	0.69574 
76 	8     	0.69574 	0  	0.69574 	0.69574 
77 	10    	0.699799	0  	0.699799	0.699799
78 	4     	0.703857	0  	0.703857	0.703857
79 	2     	0.707916	0  	0.707916	0.707916
80 	2     	0.707916	0  	0.707916	0.707916
81 	2     	0.707916	0  	0.707916	0.707916
82 	4     	0.707916	0  	0.707916	0.707916
83 	4     	0.711975	0  	0.711975	0.711975
84 	2     	0.711975	0  	0.711975	0.711975
85 	2     	0.711975	0  	0.711975	0.711975
86 	4     	0.716019	0  	0.716019	0.716019
87 	2     	0.716019	0  	0.716019	0.716019
88 	2     	0.716019	0  	0.716019	0.716019
89 	4     	0.716019	0  	0.716019	0.716019
90 	4     	0.716019	0  	0.716019	0.716019
91 	6     	0.716019	0  	0.716019	0.716019
92 	6     	0.716019	0  	0.716019	0.716019
93 	8     	0.720078	0  	0.720078	0.720078
94 	4     	0.720078	0  	0.720078	0.720078
95 	4     	0.720078	0  	0.720078	0.720078
96 	6     	0.720078	0  	0.720078	0.720078
97 	6     	0.720078	0  	0.720078	0.720078
98 	8     	0.720078	0  	0.720078	0.720078
99 	10    	0.724136	0  	0.724136	0.724136
100	4     	0.724136	0  	0.724136	0.724136
101	6     	0.724136	0  	0.724136	0.724136
102	6     	0.724136	0  	0.724136	0.724136
103	8     	0.724136	0  	0.724136	0.724136
104	10    	0.724136	0  	0.724136	0.724136
105	12    	0.724136	0  	0.724136	0.724136
106	16    	0.728195	0  	0.728195	0.728195
107	6     	0.728195	0  	0.728195	0.728195
108	8     	0.728195	0  	0.728195	0.728195
109	10    	0.728195	0  	0.728195	0.728195
110	12    	0.736313	0  	0.736313	0.736313
111	6     	0.736313	0  	0.736313	0.736313
112	6     	0.736313	0  	0.736313	0.736313
113	8     	0.740372	0  	0.740372	0.740372
114	4     	0.740372	0  	0.740372	0.740372
115	4     	0.740372	0  	0.740372	0.740372
116	6     	0.744415	0  	0.744415	0.744415
117	2     	0.744415	0  	0.744415	0.744415
118	2     	0.744415	0  	0.744415	0.744415
119	4     	0.744415	0  	0.744415	0.744415
120	4     	0.744415	0  	0.744415	0.744415
121	6     	0.752533	0  	0.752533	0.752533
122	2     	0.752533	0  	0.752533	0.752533
123	2     	0.752533	0  	0.752533	0.752533
124	4     	0.756592	0  	0.756592	0.756592
125	2     	0.764709	0  	0.764709	0.764709
126	2     	0.764709	0  	0.764709	0.764709
127	2     	0.764709	0  	0.764709	0.764709
128	4     	0.764709	0  	0.764709	0.764709
129	4     	0.764709	0  	0.764709	0.764709
130	6     	0.764709	0  	0.764709	0.764709
131	6     	0.764709	0  	0.764709	0.764709
132	8     	0.768768	0  	0.768768	0.768768
133	4     	0.768768	0  	0.768768	0.768768
134	4     	0.768768	0  	0.768768	0.768768
135	6     	0.772812	0  	0.772812	0.772812
136	2     	0.772812	0  	0.772812	0.772812
137	2     	0.772812	0  	0.772812	0.772812
138	4     	0.772812	0  	0.772812	0.772812
139	4     	0.772812	0  	0.772812	0.772812
140	6     	0.78093 	0  	0.78093 	0.78093 
141	2     	0.78093 	0  	0.78093 	0.78093 
142	2     	0.78093 	0  	0.78093 	0.78093 
143	4     	0.78093 	0  	0.78093 	0.78093 
144	4     	0.793106	0  	0.793106	0.793106
145	2     	0.793106	0  	0.793106	0.793106
146	2     	0.793106	0  	0.793106	0.793106
147	4     	0.793106	0  	0.793106	0.793106
148	4     	0.793106	0  	0.793106	0.793106
149	6     	0.797165	0  	0.797165	0.797165
150	2     	0.797165	0  	0.797165	0.797165
151	2     	0.797165	0  	0.797165	0.797165
152	4     	0.805267	0  	0.805267	0.805267
153	2     	0.805267	0  	0.805267	0.805267
154	2     	0.805267	0  	0.805267	0.805267
155	4     	0.805267	0  	0.805267	0.805267
156	4     	0.805267	0  	0.805267	0.805267
157	6     	0.805267	0  	0.805267	0.805267
158	6     	0.805267	0  	0.805267	0.805267
159	8     	0.805267	0  	0.805267	0.805267
160	10    	0.809326	0  	0.809326	0.809326
161	4     	0.809326	0  	0.809326	0.809326
162	6     	0.813385	0  	0.813385	0.813385
163	2     	0.813385	0  	0.813385	0.813385
164	2     	0.813385	0  	0.813385	0.813385
165	4     	0.813385	0  	0.813385	0.813385
166	4     	0.813385	0  	0.813385	0.813385
167	6     	0.813385	0  	0.813385	0.813385
168	6     	0.813385	0  	0.813385	0.813385
169	8     	0.821503	0  	0.821503	0.821503
170	4     	0.821503	0  	0.821503	0.821503
171	4     	0.821503	0  	0.821503	0.821503
172	6     	0.821503	0  	0.821503	0.821503
173	6     	0.821503	0  	0.821503	0.821503
174	8     	0.821503	0  	0.821503	0.821503
175	10    	0.825562	0  	0.825562	0.825562
176	4     	0.825562	0  	0.825562	0.825562
177	6     	0.825562	0  	0.825562	0.825562
178	6     	0.825562	0  	0.825562	0.825562
179	8     	0.825562	0  	0.825562	0.825562
180	10    	0.825562	0  	0.825562	0.825562
181	12    	0.82962 	0  	0.82962 	0.82962 
182	6     	0.82962 	0  	0.82962 	0.82962 
183	6     	0.82962 	0  	0.82962 	0.82962 
184	8     	0.82962 	0  	0.82962 	0.82962 
185	10    	0.82962 	0  	0.82962 	0.82962 
186	12    	0.82962 	0  	0.82962 	0.82962 
187	16    	0.82962 	0  	0.82962 	0.82962 
188	20    	0.82962 	0  	0.82962 	0.82962 
189	24    	0.82962 	0  	0.82962 	0.82962 
190	32    	0.837723	0  	0.837723	0.837723
191	12    	0.837723	0  	0.837723	0.837723
192	16    	0.837723	0  	0.837723	0.837723
193	20    	0.837723	0  	0.837723	0.837723
194	24    	0.837723	0  	0.837723	0.837723
195	32    	0.841782	0  	0.841782	0.841782
196	12    	0.841782	0  	0.841782	0.841782
197	16    	0.841782	0  	0.841782	0.841782
198	20    	0.841782	0  	0.841782	0.841782
199	24    	0.84584 	0  	0.84584 	0.84584 
200	10    	0.84584 	0  	0.84584 	0.84584 
201	12    	0.84584 	0  	0.84584 	0.84584 
202	16    	0.849899	0  	0.849899	0.849899
203	6     	0.849899	0  	0.849899	0.849899
204	8     	0.849899	0  	0.849899	0.849899
205	10    	0.849899	0  	0.849899	0.849899
206	12    	0.853958	0  	0.853958	0.853958
207	6     	0.858017	0  	0.858017	0.858017
208	2     	0.858017	0  	0.858017	0.858017
209	2     	0.858017	0  	0.858017	0.858017
210	4     	0.858017	0  	0.858017	0.858017
211	4     	0.858017	0  	0.858017	0.858017
212	6     	0.858017	0  	0.858017	0.858017
213	6     	0.858017	0  	0.858017	0.858017
214	8     	0.858017	0  	0.858017	0.858017
215	10    	0.858017	0  	0.858017	0.858017
216	12    	0.858017	0  	0.858017	0.858017
217	16    	0.858017	0  	0.858017	0.858017
218	20    	0.862076	0  	0.862076	0.862076
219	8     	0.862076	0  	0.862076	0.862076
220	10    	0.866119	0  	0.866119	0.866119
221	4     	0.866119	0  	0.866119	0.866119
222	6     	0.866119	0  	0.866119	0.866119
223	6     	0.866119	0  	0.866119	0.866119
224	8     	0.866119	0  	0.866119	0.866119
225	10    	0.870178	0  	0.870178	0.870178
226	4     	0.870178	0  	0.870178	0.870178
227	6     	0.870178	0  	0.870178	0.870178
228	6     	0.870178	0  	0.870178	0.870178
229	8     	0.870178	0  	0.870178	0.870178
230	10    	0.870178	0  	0.870178	0.870178
231	12    	0.870178	0  	0.870178	0.870178
232	16    	0.874237	0  	0.874237	0.874237
233	6     	0.874237	0  	0.874237	0.874237
234	8     	0.874237	0  	0.874237	0.874237
235	10    	0.874237	0  	0.874237	0.874237
236	12    	0.878296	0  	0.878296	0.878296
237	6     	0.878296	0  	0.878296	0.878296
238	6     	0.878296	0  	0.878296	0.878296
239	8     	0.878296	0  	0.878296	0.878296
240	10    	0.878296	0  	0.878296	0.878296
241	12    	0.878296	0  	0.878296	0.878296
242	16    	0.878296	0  	0.878296	0.878296
243	20    	0.882355	0  	0.882355	0.882355
244	8     	0.882355	0  	0.882355	0.882355
245	10    	0.882355	0  	0.882355	0.882355
246	12    	0.882355	0  	0.882355	0.882355
247	16    	0.882355	0  	0.882355	0.882355
248	20    	0.882355	0  	0.882355	0.882355
249	24    	0.882355	0  	0.882355	0.882355
250	32    	0.882355	0  	0.882355	0.882355
251	40    	0.882355	0  	0.882355	0.882355
252	50    	0.882355	0  	0.882355	0.882355
253	62    	0.882355	0  	0.882355	0.882355
254	78    	0.886414	0  	0.886414	0.886414
255	32    	0.886414	0  	0.886414	0.886414
256	40    	0.886414	0  	0.886414	0.886414
257	50    	0.886414	0  	0.886414	0.886414
258	62    	0.886414	0  	0.886414	0.886414
259	78    	0.886414	0  	0.886414	0.886414
260	98    	0.886414	0  	0.886414	0.886414
261	124   	0.886414	0  	0.886414	0.886414
262	156   	0.886414	0  	0.886414	0.886414
263	196   	0.886414	0  	0.886414	0.886414
264	246   	0.886414	0  	0.886414	0.886414
265	308   	0.886414	0  	0.886414	0.886414
266	388   	0.886414	0  	0.886414	0.886414
267	488   	0.886414	0  	0.886414	0.886414
268	578   	0.886414	0  	0.886414	0.886414
269	578   	0.886414	0  	0.886414	0.886414
270	578   	0.886414	0  	0.886414	0.886414
271	578   	0.886414	0  	0.886414	0.886414
272	578   	0.886414	0  	0.886414	0.886414
273	578   	0.886414	0  	0.886414	0.886414
274	578   	0.886414	0  	0.886414	0.886414
275	578   	0.886414	0  	0.886414	0.886414
276	578   	0.886414	0  	0.886414	0.886414
277	578   	0.886414	0  	0.886414	0.886414
278	578   	0.886414	0  	0.886414	0.886414
