gen	nevals	avg     	std	min     	max     
0  	1     	0.590164	0  	0.590164	0.590164
1  	2     	0.590164	0  	0.590164	0.590164
2  	2     	0.598358	0  	0.598358	0.598358
3  	2     	0.598358	0  	0.598358	0.598358
4  	2     	0.598358	0  	0.598358	0.598358
5  	4     	0.622955	0  	0.622955	0.622955
6  	2     	0.622955	0  	0.622955	0.622955
7  	2     	0.622955	0  	0.622955	0.622955
8  	4     	0.622955	0  	0.622955	0.622955
9  	4     	0.622955	0  	0.622955	0.622955
10 	6     	0.622955	0  	0.622955	0.622955
11 	6     	0.631149	0  	0.631149	0.631149
12 	2     	0.639343	0  	0.639343	0.639343
13 	2     	0.647537	0  	0.647537	0.647537
14 	2     	0.647537	0  	0.647537	0.647537
15 	2     	0.647537	0  	0.647537	0.647537
16 	4     	0.647537	0  	0.647537	0.647537
17 	4     	0.647537	0  	0.647537	0.647537
18 	6     	0.655731	0  	0.655731	0.655731
19 	2     	0.655731	0  	0.655731	0.655731
20 	2     	0.655731	0  	0.655731	0.655731
21 	4     	0.66394 	0  	0.66394 	0.66394 
22 	2     	0.66394 	0  	0.66394 	0.66394 
23 	2     	0.672134	0  	0.672134	0.672134
24 	2     	0.672134	0  	0.672134	0.672134
25 	2     	0.672134	0  	0.672134	0.672134
26 	4     	0.672134	0  	0.672134	0.672134
27 	4     	0.680328	0  	0.680328	0.680328
28 	2     	0.680328	0  	0.680328	0.680328
29 	2     	0.680328	0  	0.680328	0.680328
30 	4     	0.680328	0  	0.680328	0.680328
31 	4     	0.696716	0  	0.696716	0.696716
32 	2     	0.696716	0  	0.696716	0.696716
33 	2     	0.704926	0  	0.704926	0.704926
34 	2     	0.704926	0  	0.704926	0.704926
35 	2     	0.704926	0  	0.704926	0.704926
36 	4     	0.704926	0  	0.704926	0.704926
37 	4     	0.71312 	0  	0.71312 	0.71312 
38 	2     	0.71312 	0  	0.71312 	0.71312 
39 	2     	0.71312 	0  	0.71312 	0.71312 
40 	4     	0.71312 	0  	0.71312 	0.71312 
41 	4     	0.71312 	0  	0.71312 	0.71312 
42 	6     	0.71312 	0  	0.71312 	0.71312 
43 	6     	0.71312 	0  	0.71312 	0.71312 
44 	8     	0.721313	0  	0.721313	0.721313
45 	4     	0.721313	0  	0.721313	0.721313
46 	4     	0.721313	0  	0.721313	0.721313
47 	6     	0.721313	0  	0.721313	0.721313
48 	6     	0.729507	0  	0.729507	0.729507
49 	2     	0.729507	0  	0.729507	0.729507
50 	4     	0.729507	0  	0.729507	0.729507
51 	4     	0.729507	0  	0.729507	0.729507
52 	6     	0.729507	0  	0.729507	0.729507
53 	6     	0.729507	0  	0.729507	0.729507
54 	8     	0.729507	0  	0.729507	0.729507
55 	10    	0.737701	0  	0.737701	0.737701
56 	4     	0.737701	0  	0.737701	0.737701
57 	6     	0.737701	0  	0.737701	0.737701
58 	6     	0.737701	0  	0.737701	0.737701
59 	8     	0.754105	0  	0.754105	0.754105
60 	4     	0.754105	0  	0.754105	0.754105
61 	4     	0.754105	0  	0.754105	0.754105
62 	6     	0.754105	0  	0.754105	0.754105
63 	6     	0.762299	0  	0.762299	0.762299
64 	2     	0.762299	0  	0.762299	0.762299
65 	4     	0.762299	0  	0.762299	0.762299
66 	4     	0.770493	0  	0.770493	0.770493
67 	2     	0.770493	0  	0.770493	0.770493
68 	2     	0.770493	0  	0.770493	0.770493
69 	4     	0.770493	0  	0.770493	0.770493
70 	4     	0.770493	0  	0.770493	0.770493
71 	6     	0.770493	0  	0.770493	0.770493
72 	6     	0.770493	0  	0.770493	0.770493
73 	8     	0.770493	0  	0.770493	0.770493
74 	10    	0.78688 	0  	0.78688 	0.78688 
75 	4     	0.78688 	0  	0.78688 	0.78688 
76 	6     	0.78688 	0  	0.78688 	0.78688 
77 	6     	0.795074	0  	0.795074	0.795074
78 	2     	0.795074	0  	0.795074	0.795074
79 	4     	0.795074	0  	0.795074	0.795074
80 	4     	0.795074	0  	0.795074	0.795074
81 	6     	0.795074	0  	0.795074	0.795074
82 	6     	0.795074	0  	0.795074	0.795074
83 	8     	0.795074	0  	0.795074	0.795074
84 	10    	0.795074	0  	0.795074	0.795074
85 	12    	0.803284	0  	0.803284	0.803284
86 	6     	0.803284	0  	0.803284	0.803284
87 	6     	0.811478	0  	0.811478	0.811478
88 	2     	0.811478	0  	0.811478	0.811478
89 	4     	0.811478	0  	0.811478	0.811478
90 	4     	0.811478	0  	0.811478	0.811478
91 	6     	0.811478	0  	0.811478	0.811478
92 	6     	0.811478	0  	0.811478	0.811478
93 	8     	0.811478	0  	0.811478	0.811478
94 	10    	0.827866	0  	0.827866	0.827866
95 	4     	0.827866	0  	0.827866	0.827866
96 	6     	0.827866	0  	0.827866	0.827866
97 	6     	0.83606 	0  	0.83606 	0.83606 
98 	2     	0.83606 	0  	0.83606 	0.83606 
99 	4     	0.83606 	0  	0.83606 	0.83606 
100	4     	0.83606 	0  	0.83606 	0.83606 
101	6     	0.83606 	0  	0.83606 	0.83606 
102	6     	0.83606 	0  	0.83606 	0.83606 
103	8     	0.83606 	0  	0.83606 	0.83606 
104	10    	0.83606 	0  	0.83606 	0.83606 
105	12    	0.83606 	0  	0.83606 	0.83606 
106	16    	0.83606 	0  	0.83606 	0.83606 
107	20    	0.83606 	0  	0.83606 	0.83606 
108	24    	0.844269	0  	0.844269	0.844269
109	10    	0.844269	0  	0.844269	0.844269
110	12    	0.844269	0  	0.844269	0.844269
111	16    	0.844269	0  	0.844269	0.844269
112	20    	0.844269	0  	0.844269	0.844269
113	24    	0.852463	0  	0.852463	0.852463
114	10    	0.852463	0  	0.852463	0.852463
115	12    	0.860657	0  	0.860657	0.860657
116	6     	0.868851	0  	0.868851	0.868851
117	2     	0.868851	0  	0.868851	0.868851
118	2     	0.868851	0  	0.868851	0.868851
119	4     	0.868851	0  	0.868851	0.868851
120	4     	0.868851	0  	0.868851	0.868851
121	6     	0.868851	0  	0.868851	0.868851
122	6     	0.868851	0  	0.868851	0.868851
123	8     	0.868851	0  	0.868851	0.868851
124	10    	0.868851	0  	0.868851	0.868851
125	12    	0.877045	0  	0.877045	0.877045
126	6     	0.877045	0  	0.877045	0.877045
127	6     	0.877045	0  	0.877045	0.877045
128	8     	0.877045	0  	0.877045	0.877045
129	10    	0.877045	0  	0.877045	0.877045
130	12    	0.877045	0  	0.877045	0.877045
131	16    	0.877045	0  	0.877045	0.877045
132	20    	0.877045	0  	0.877045	0.877045
133	24    	0.877045	0  	0.877045	0.877045
134	32    	0.877045	0  	0.877045	0.877045
135	40    	0.877045	0  	0.877045	0.877045
136	50    	0.877045	0  	0.877045	0.877045
137	62    	0.877045	0  	0.877045	0.877045
138	78    	0.885239	0  	0.885239	0.885239
139	32    	0.893448	0  	0.893448	0.893448
140	12    	0.893448	0  	0.893448	0.893448
141	16    	0.893448	0  	0.893448	0.893448
142	20    	0.893448	0  	0.893448	0.893448
143	24    	0.893448	0  	0.893448	0.893448
144	32    	0.893448	0  	0.893448	0.893448
145	40    	0.893448	0  	0.893448	0.893448
146	50    	0.893448	0  	0.893448	0.893448
147	62    	0.893448	0  	0.893448	0.893448
148	78    	0.893448	0  	0.893448	0.893448
149	98    	0.893448	0  	0.893448	0.893448
150	124   	0.893448	0  	0.893448	0.893448
151	156   	0.893448	0  	0.893448	0.893448
152	196   	0.893448	0  	0.893448	0.893448
153	246   	0.893448	0  	0.893448	0.893448
154	288   	0.893448	0  	0.893448	0.893448
155	288   	0.893448	0  	0.893448	0.893448
156	288   	0.893448	0  	0.893448	0.893448
157	288   	0.901642	0  	0.901642	0.901642
158	116   	0.901642	0  	0.901642	0.901642
159	144   	0.901642	0  	0.901642	0.901642
160	182   	0.901642	0  	0.901642	0.901642
161	230   	0.901642	0  	0.901642	0.901642
162	288   	0.901642	0  	0.901642	0.901642
163	288   	0.901642	0  	0.901642	0.901642
164	288   	0.901642	0  	0.901642	0.901642
165	288   	0.901642	0  	0.901642	0.901642
166	288   	0.901642	0  	0.901642	0.901642
167	288   	0.901642	0  	0.901642	0.901642
168	288   	0.901642	0  	0.901642	0.901642
169	288   	0.901642	0  	0.901642	0.901642
170	288   	0.901642	0  	0.901642	0.901642
171	288   	0.901642	0  	0.901642	0.901642
172	288   	0.901642	0  	0.901642	0.901642
173	288   	0.901642	0  	0.901642	0.901642
174	288   	0.901642	0  	0.901642	0.901642
175	288   	0.901642	0  	0.901642	0.901642
176	288   	0.901642	0  	0.901642	0.901642
177	288   	0.901642	0  	0.901642	0.901642
178	288   	0.901642	0  	0.901642	0.901642
179	288   	0.901642	0  	0.901642	0.901642
180	288   	0.901642	0  	0.901642	0.901642
181	288   	0.901642	0  	0.901642	0.901642
182	288   	0.901642	0  	0.901642	0.901642
