gen	nevals	avg     	std	min     	max     
0  	1     	0.607147	0  	0.607147	0.607147
1  	2     	0.607147	0  	0.607147	0.607147
2  	2     	0.607147	0  	0.607147	0.607147
3  	4     	0.619049	0  	0.619049	0.619049
4  	2     	0.630951	0  	0.630951	0.630951
5  	2     	0.630951	0  	0.630951	0.630951
6  	2     	0.630951	0  	0.630951	0.630951
7  	4     	0.630951	0  	0.630951	0.630951
8  	4     	0.630951	0  	0.630951	0.630951
9  	6     	0.654755	0  	0.654755	0.654755
10 	2     	0.654755	0  	0.654755	0.654755
11 	2     	0.666672	0  	0.666672	0.666672
12 	2     	0.666672	0  	0.666672	0.666672
13 	2     	0.666672	0  	0.666672	0.666672
14 	4     	0.666672	0  	0.666672	0.666672
15 	4     	0.666672	0  	0.666672	0.666672
16 	6     	0.666672	0  	0.666672	0.666672
17 	6     	0.666672	0  	0.666672	0.666672
18 	8     	0.666672	0  	0.666672	0.666672
19 	10    	0.690475	0  	0.690475	0.690475
20 	4     	0.690475	0  	0.690475	0.690475
21 	6     	0.714279	0  	0.714279	0.714279
22 	2     	0.714279	0  	0.714279	0.714279
23 	2     	0.714279	0  	0.714279	0.714279
24 	4     	0.726196	0  	0.726196	0.726196
25 	2     	0.726196	0  	0.726196	0.726196
26 	2     	0.726196	0  	0.726196	0.726196
27 	4     	0.726196	0  	0.726196	0.726196
28 	4     	0.726196	0  	0.726196	0.726196
29 	6     	0.738098	0  	0.738098	0.738098
30 	2     	0.738098	0  	0.738098	0.738098
31 	2     	0.738098	0  	0.738098	0.738098
32 	4     	0.738098	0  	0.738098	0.738098
33 	4     	0.738098	0  	0.738098	0.738098
34 	6     	0.738098	0  	0.738098	0.738098
35 	6     	0.738098	0  	0.738098	0.738098
36 	8     	0.738098	0  	0.738098	0.738098
37 	10    	0.75    	0  	0.75    	0.75    
38 	4     	0.75    	0  	0.75    	0.75    
39 	6     	0.75    	0  	0.75    	0.75    
40 	6     	0.75    	0  	0.75    	0.75    
41 	8     	0.761902	0  	0.761902	0.761902
42 	4     	0.761902	0  	0.761902	0.761902
43 	4     	0.761902	0  	0.761902	0.761902
44 	6     	0.773804	0  	0.773804	0.773804
45 	2     	0.773804	0  	0.773804	0.773804
46 	2     	0.773804	0  	0.773804	0.773804
47 	4     	0.773804	0  	0.773804	0.773804
48 	4     	0.785721	0  	0.785721	0.785721
49 	2     	0.785721	0  	0.785721	0.785721
50 	2     	0.785721	0  	0.785721	0.785721
51 	4     	0.785721	0  	0.785721	0.785721
52 	4     	0.785721	0  	0.785721	0.785721
53 	6     	0.785721	0  	0.785721	0.785721
54 	6     	0.797623	0  	0.797623	0.797623
55 	2     	0.797623	0  	0.797623	0.797623
56 	4     	0.797623	0  	0.797623	0.797623
57 	4     	0.797623	0  	0.797623	0.797623
58 	6     	0.797623	0  	0.797623	0.797623
59 	6     	0.797623	0  	0.797623	0.797623
60 	8     	0.809525	0  	0.809525	0.809525
61 	4     	0.809525	0  	0.809525	0.809525
62 	4     	0.809525	0  	0.809525	0.809525
63 	6     	0.833328	0  	0.833328	0.833328
64 	2     	0.833328	0  	0.833328	0.833328
65 	2     	0.833328	0  	0.833328	0.833328
66 	4     	0.833328	0  	0.833328	0.833328
67 	4     	0.833328	0  	0.833328	0.833328
68 	6     	0.833328	0  	0.833328	0.833328
69 	6     	0.833328	0  	0.833328	0.833328
70 	8     	0.845245	0  	0.845245	0.845245
71 	4     	0.845245	0  	0.845245	0.845245
72 	4     	0.845245	0  	0.845245	0.845245
73 	6     	0.845245	0  	0.845245	0.845245
74 	6     	0.857147	0  	0.857147	0.857147
75 	2     	0.857147	0  	0.857147	0.857147
76 	4     	0.857147	0  	0.857147	0.857147
77 	4     	0.857147	0  	0.857147	0.857147
78 	6     	0.857147	0  	0.857147	0.857147
79 	6     	0.869049	0  	0.869049	0.869049
80 	2     	0.869049	0  	0.869049	0.869049
81 	4     	0.869049	0  	0.869049	0.869049
82 	4     	0.869049	0  	0.869049	0.869049
83 	6     	0.869049	0  	0.869049	0.869049
84 	6     	0.869049	0  	0.869049	0.869049
85 	8     	0.869049	0  	0.869049	0.869049
86 	10    	0.869049	0  	0.869049	0.869049
87 	12    	0.869049	0  	0.869049	0.869049
88 	16    	0.869049	0  	0.869049	0.869049
89 	20    	0.869049	0  	0.869049	0.869049
90 	24    	0.869049	0  	0.869049	0.869049
91 	32    	0.869049	0  	0.869049	0.869049
92 	40    	0.869049	0  	0.869049	0.869049
93 	50    	0.880951	0  	0.880951	0.880951
94 	20    	0.880951	0  	0.880951	0.880951
95 	24    	0.880951	0  	0.880951	0.880951
96 	32    	0.880951	0  	0.880951	0.880951
97 	40    	0.880951	0  	0.880951	0.880951
98 	50    	0.880951	0  	0.880951	0.880951
99 	62    	0.880951	0  	0.880951	0.880951
100	78    	0.880951	0  	0.880951	0.880951
101	98    	0.880951	0  	0.880951	0.880951
102	124   	0.880951	0  	0.880951	0.880951
103	156   	0.880951	0  	0.880951	0.880951
104	196   	0.880951	0  	0.880951	0.880951
105	200   	0.880951	0  	0.880951	0.880951
106	200   	0.880951	0  	0.880951	0.880951
107	200   	0.880951	0  	0.880951	0.880951
108	200   	0.880951	0  	0.880951	0.880951
109	200   	0.892853	0  	0.892853	0.892853
110	80    	0.892853	0  	0.892853	0.892853
111	100   	0.892853	0  	0.892853	0.892853
112	126   	0.892853	0  	0.892853	0.892853
113	160   	0.892853	0  	0.892853	0.892853
114	200   	0.892853	0  	0.892853	0.892853
115	200   	0.892853	0  	0.892853	0.892853
116	200   	0.892853	0  	0.892853	0.892853
117	200   	0.892853	0  	0.892853	0.892853
118	200   	0.892853	0  	0.892853	0.892853
119	200   	0.892853	0  	0.892853	0.892853
120	200   	0.892853	0  	0.892853	0.892853
121	200   	0.892853	0  	0.892853	0.892853
122	200   	0.892853	0  	0.892853	0.892853
123	200   	0.892853	0  	0.892853	0.892853
124	200   	0.892853	0  	0.892853	0.892853
125	200   	0.892853	0  	0.892853	0.892853
126	200   	0.892853	0  	0.892853	0.892853
127	200   	0.892853	0  	0.892853	0.892853
128	200   	0.892853	0  	0.892853	0.892853
129	200   	0.892853	0  	0.892853	0.892853
130	200   	0.892853	0  	0.892853	0.892853
131	200   	0.892853	0  	0.892853	0.892853
132	200   	0.892853	0  	0.892853	0.892853
133	200   	0.892853	0  	0.892853	0.892853
134	200   	0.892853	0  	0.892853	0.892853
135	200   	0.892853	0  	0.892853	0.892853
136	200   	0.892853	0  	0.892853	0.892853
137	200   	0.892853	0  	0.892853	0.892853
138	200   	0.892853	0  	0.892853	0.892853
139	200   	0.892853	0  	0.892853	0.892853
140	200   	0.892853	0  	0.892853	0.892853
141	200   	0.892853	0  	0.892853	0.892853
142	200   	0.892853	0  	0.892853	0.892853
143	200   	0.892853	0  	0.892853	0.892853
144	200   	0.892853	0  	0.892853	0.892853
145	200   	0.892853	0  	0.892853	0.892853
146	200   	0.892853	0  	0.892853	0.892853
147	200   	0.892853	0  	0.892853	0.892853
148	200   	0.892853	0  	0.892853	0.892853
149	200   	0.892853	0  	0.892853	0.892853
