gen	nevals	avg     	std	min     	max     
0  	1     	0.608185	0  	0.608185	0.608185
1  	2     	0.608185	0  	0.608185	0.608185
2  	2     	0.608185	0  	0.608185	0.608185
3  	4     	0.611115	0  	0.611115	0.611115
4  	2     	0.611115	0  	0.611115	0.611115
5  	2     	0.611115	0  	0.611115	0.611115
6  	4     	0.614029	0  	0.614029	0.614029
7  	2     	0.614029	0  	0.614029	0.614029
8  	2     	0.614029	0  	0.614029	0.614029
9  	4     	0.614029	0  	0.614029	0.614029
10 	4     	0.614029	0  	0.614029	0.614029
11 	6     	0.622803	0  	0.622803	0.622803
12 	2     	0.622803	0  	0.622803	0.622803
13 	2     	0.622803	0  	0.622803	0.622803
14 	4     	0.622803	0  	0.622803	0.622803
15 	4     	0.625732	0  	0.625732	0.625732
16 	2     	0.625732	0  	0.625732	0.625732
17 	2     	0.625732	0  	0.625732	0.625732
18 	4     	0.625732	0  	0.625732	0.625732
19 	4     	0.625732	0  	0.625732	0.625732
20 	6     	0.628662	0  	0.628662	0.628662
21 	2     	0.634506	0  	0.634506	0.634506
22 	2     	0.634506	0  	0.634506	0.634506
23 	2     	0.634506	0  	0.634506	0.634506
24 	4     	0.64035 	0  	0.64035 	0.64035 
25 	2     	0.64035 	0  	0.64035 	0.64035 
26 	2     	0.646194	0  	0.646194	0.646194
27 	2     	0.646194	0  	0.646194	0.646194
28 	2     	0.646194	0  	0.646194	0.646194
29 	4     	0.646194	0  	0.646194	0.646194
30 	4     	0.646194	0  	0.646194	0.646194
31 	6     	0.652054	0  	0.652054	0.652054
32 	2     	0.652054	0  	0.652054	0.652054
33 	2     	0.660812	0  	0.660812	0.660812
34 	2     	0.660812	0  	0.660812	0.660812
35 	2     	0.660812	0  	0.660812	0.660812
36 	4     	0.660812	0  	0.660812	0.660812
37 	4     	0.660812	0  	0.660812	0.660812
38 	6     	0.660812	0  	0.660812	0.660812
39 	6     	0.663742	0  	0.663742	0.663742
40 	2     	0.663742	0  	0.663742	0.663742
41 	4     	0.663742	0  	0.663742	0.663742
42 	4     	0.666672	0  	0.666672	0.666672
43 	2     	0.666672	0  	0.666672	0.666672
44 	2     	0.666672	0  	0.666672	0.666672
45 	4     	0.669586	0  	0.669586	0.669586
46 	2     	0.672516	0  	0.672516	0.672516
47 	2     	0.672516	0  	0.672516	0.672516
48 	2     	0.675446	0  	0.675446	0.675446
49 	2     	0.675446	0  	0.675446	0.675446
50 	2     	0.675446	0  	0.675446	0.675446
51 	4     	0.68129 	0  	0.68129 	0.68129 
52 	2     	0.68129 	0  	0.68129 	0.68129 
53 	2     	0.684204	0  	0.684204	0.684204
54 	2     	0.684204	0  	0.684204	0.684204
55 	2     	0.684204	0  	0.684204	0.684204
56 	4     	0.684204	0  	0.684204	0.684204
57 	4     	0.684204	0  	0.684204	0.684204
58 	6     	0.687134	0  	0.687134	0.687134
59 	2     	0.687134	0  	0.687134	0.687134
60 	2     	0.687134	0  	0.687134	0.687134
61 	4     	0.687134	0  	0.687134	0.687134
62 	4     	0.687134	0  	0.687134	0.687134
63 	6     	0.690063	0  	0.690063	0.690063
64 	2     	0.690063	0  	0.690063	0.690063
65 	2     	0.690063	0  	0.690063	0.690063
66 	4     	0.690063	0  	0.690063	0.690063
67 	4     	0.690063	0  	0.690063	0.690063
68 	6     	0.690063	0  	0.690063	0.690063
69 	6     	0.692978	0  	0.692978	0.692978
70 	2     	0.692978	0  	0.692978	0.692978
71 	4     	0.692978	0  	0.692978	0.692978
72 	4     	0.698837	0  	0.698837	0.698837
73 	2     	0.698837	0  	0.698837	0.698837
74 	2     	0.698837	0  	0.698837	0.698837
75 	4     	0.704681	0  	0.704681	0.704681
76 	2     	0.704681	0  	0.704681	0.704681
77 	2     	0.704681	0  	0.704681	0.704681
78 	4     	0.704681	0  	0.704681	0.704681
79 	4     	0.704681	0  	0.704681	0.704681
80 	6     	0.704681	0  	0.704681	0.704681
81 	6     	0.707596	0  	0.707596	0.707596
82 	2     	0.707596	0  	0.707596	0.707596
83 	4     	0.713455	0  	0.713455	0.713455
84 	2     	0.713455	0  	0.713455	0.713455
85 	2     	0.713455	0  	0.713455	0.713455
86 	4     	0.713455	0  	0.713455	0.713455
87 	4     	0.713455	0  	0.713455	0.713455
88 	6     	0.713455	0  	0.713455	0.713455
89 	6     	0.713455	0  	0.713455	0.713455
90 	8     	0.713455	0  	0.713455	0.713455
91 	10    	0.71637 	0  	0.71637 	0.71637 
92 	4     	0.719299	0  	0.719299	0.719299
93 	2     	0.719299	0  	0.719299	0.719299
94 	2     	0.719299	0  	0.719299	0.719299
95 	4     	0.719299	0  	0.719299	0.719299
96 	4     	0.722229	0  	0.722229	0.722229
97 	2     	0.722229	0  	0.722229	0.722229
98 	2     	0.722229	0  	0.722229	0.722229
99 	4     	0.725143	0  	0.725143	0.725143
100	2     	0.725143	0  	0.725143	0.725143
101	2     	0.725143	0  	0.725143	0.725143
102	4     	0.725143	0  	0.725143	0.725143
103	4     	0.725143	0  	0.725143	0.725143
104	6     	0.725143	0  	0.725143	0.725143
105	6     	0.725143	0  	0.725143	0.725143
106	8     	0.728073	0  	0.728073	0.728073
107	4     	0.728073	0  	0.728073	0.728073
108	4     	0.730988	0  	0.730988	0.730988
109	2     	0.730988	0  	0.730988	0.730988
110	2     	0.730988	0  	0.730988	0.730988
111	4     	0.730988	0  	0.730988	0.730988
112	4     	0.730988	0  	0.730988	0.730988
113	6     	0.730988	0  	0.730988	0.730988
114	6     	0.730988	0  	0.730988	0.730988
115	8     	0.733917	0  	0.733917	0.733917
116	4     	0.733917	0  	0.733917	0.733917
117	4     	0.736847	0  	0.736847	0.736847
118	2     	0.736847	0  	0.736847	0.736847
119	2     	0.736847	0  	0.736847	0.736847
120	4     	0.736847	0  	0.736847	0.736847
121	4     	0.739761	0  	0.739761	0.739761
122	2     	0.739761	0  	0.739761	0.739761
123	2     	0.739761	0  	0.739761	0.739761
124	4     	0.739761	0  	0.739761	0.739761
125	4     	0.739761	0  	0.739761	0.739761
126	6     	0.739761	0  	0.739761	0.739761
127	6     	0.739761	0  	0.739761	0.739761
128	8     	0.745621	0  	0.745621	0.745621
129	4     	0.745621	0  	0.745621	0.745621
130	4     	0.745621	0  	0.745621	0.745621
131	6     	0.748535	0  	0.748535	0.748535
132	2     	0.748535	0  	0.748535	0.748535
133	2     	0.751465	0  	0.751465	0.751465
134	2     	0.751465	0  	0.751465	0.751465
135	2     	0.751465	0  	0.751465	0.751465
136	4     	0.751465	0  	0.751465	0.751465
137	4     	0.751465	0  	0.751465	0.751465
138	6     	0.751465	0  	0.751465	0.751465
139	6     	0.754379	0  	0.754379	0.754379
140	2     	0.757309	0  	0.757309	0.757309
141	2     	0.757309	0  	0.757309	0.757309
142	2     	0.757309	0  	0.757309	0.757309
143	4     	0.760239	0  	0.760239	0.760239
144	2     	0.760239	0  	0.760239	0.760239
145	2     	0.760239	0  	0.760239	0.760239
146	4     	0.760239	0  	0.760239	0.760239
147	4     	0.760239	0  	0.760239	0.760239
148	6     	0.760239	0  	0.760239	0.760239
149	6     	0.760239	0  	0.760239	0.760239
150	8     	0.766083	0  	0.766083	0.766083
151	4     	0.769012	0  	0.769012	0.769012
152	2     	0.769012	0  	0.769012	0.769012
153	2     	0.769012	0  	0.769012	0.769012
154	4     	0.769012	0  	0.769012	0.769012
155	4     	0.769012	0  	0.769012	0.769012
156	6     	0.769012	0  	0.769012	0.769012
157	6     	0.771927	0  	0.771927	0.771927
158	2     	0.771927	0  	0.771927	0.771927
159	4     	0.771927	0  	0.771927	0.771927
160	4     	0.771927	0  	0.771927	0.771927
161	6     	0.771927	0  	0.771927	0.771927
162	6     	0.771927	0  	0.771927	0.771927
163	8     	0.774857	0  	0.774857	0.774857
164	4     	0.774857	0  	0.774857	0.774857
165	4     	0.777771	0  	0.777771	0.777771
166	2     	0.780701	0  	0.780701	0.780701
167	2     	0.780701	0  	0.780701	0.780701
168	2     	0.780701	0  	0.780701	0.780701
169	4     	0.78363 	0  	0.78363 	0.78363 
170	2     	0.78363 	0  	0.78363 	0.78363 
171	2     	0.78363 	0  	0.78363 	0.78363 
172	4     	0.78363 	0  	0.78363 	0.78363 
173	4     	0.78363 	0  	0.78363 	0.78363 
174	6     	0.78363 	0  	0.78363 	0.78363 
175	6     	0.78363 	0  	0.78363 	0.78363 
176	8     	0.78363 	0  	0.78363 	0.78363 
177	10    	0.78363 	0  	0.78363 	0.78363 
178	12    	0.78363 	0  	0.78363 	0.78363 
179	16    	0.786545	0  	0.786545	0.786545
180	6     	0.786545	0  	0.786545	0.786545
181	8     	0.789474	0  	0.789474	0.789474
182	4     	0.792404	0  	0.792404	0.792404
183	2     	0.792404	0  	0.792404	0.792404
184	2     	0.792404	0  	0.792404	0.792404
185	4     	0.792404	0  	0.792404	0.792404
186	4     	0.792404	0  	0.792404	0.792404
187	6     	0.792404	0  	0.792404	0.792404
188	6     	0.795319	0  	0.795319	0.795319
189	2     	0.795319	0  	0.795319	0.795319
190	4     	0.795319	0  	0.795319	0.795319
191	4     	0.795319	0  	0.795319	0.795319
192	6     	0.795319	0  	0.795319	0.795319
193	6     	0.795319	0  	0.795319	0.795319
194	8     	0.795319	0  	0.795319	0.795319
195	10    	0.798248	0  	0.798248	0.798248
196	4     	0.798248	0  	0.798248	0.798248
197	6     	0.804092	0  	0.804092	0.804092
198	2     	0.804092	0  	0.804092	0.804092
199	2     	0.804092	0  	0.804092	0.804092
200	4     	0.804092	0  	0.804092	0.804092
201	4     	0.804092	0  	0.804092	0.804092
202	6     	0.804092	0  	0.804092	0.804092
203	6     	0.804092	0  	0.804092	0.804092
204	8     	0.804092	0  	0.804092	0.804092
205	10    	0.807022	0  	0.807022	0.807022
206	4     	0.807022	0  	0.807022	0.807022
207	6     	0.807022	0  	0.807022	0.807022
208	6     	0.807022	0  	0.807022	0.807022
209	8     	0.807022	0  	0.807022	0.807022
210	10    	0.809937	0  	0.809937	0.809937
211	4     	0.809937	0  	0.809937	0.809937
212	6     	0.809937	0  	0.809937	0.809937
213	6     	0.812866	0  	0.812866	0.812866
214	2     	0.812866	0  	0.812866	0.812866
215	4     	0.812866	0  	0.812866	0.812866
216	4     	0.815796	0  	0.815796	0.815796
217	2     	0.815796	0  	0.815796	0.815796
218	2     	0.815796	0  	0.815796	0.815796
219	4     	0.815796	0  	0.815796	0.815796
220	4     	0.81871 	0  	0.81871 	0.81871 
221	2     	0.81871 	0  	0.81871 	0.81871 
222	2     	0.81871 	0  	0.81871 	0.81871 
223	4     	0.81871 	0  	0.81871 	0.81871 
224	4     	0.81871 	0  	0.81871 	0.81871 
225	6     	0.81871 	0  	0.81871 	0.81871 
226	6     	0.81871 	0  	0.81871 	0.81871 
227	8     	0.81871 	0  	0.81871 	0.81871 
228	10    	0.81871 	0  	0.81871 	0.81871 
229	12    	0.824554	0  	0.824554	0.824554
230	6     	0.827484	0  	0.827484	0.827484
231	2     	0.827484	0  	0.827484	0.827484
232	2     	0.827484	0  	0.827484	0.827484
233	4     	0.827484	0  	0.827484	0.827484
234	4     	0.827484	0  	0.827484	0.827484
235	6     	0.827484	0  	0.827484	0.827484
236	6     	0.827484	0  	0.827484	0.827484
237	8     	0.827484	0  	0.827484	0.827484
238	10    	0.827484	0  	0.827484	0.827484
239	12    	0.830414	0  	0.830414	0.830414
240	6     	0.830414	0  	0.830414	0.830414
241	6     	0.833328	0  	0.833328	0.833328
242	2     	0.833328	0  	0.833328	0.833328
243	4     	0.833328	0  	0.833328	0.833328
244	4     	0.833328	0  	0.833328	0.833328
245	6     	0.833328	0  	0.833328	0.833328
246	6     	0.833328	0  	0.833328	0.833328
247	8     	0.833328	0  	0.833328	0.833328
248	10    	0.836258	0  	0.836258	0.836258
249	4     	0.836258	0  	0.836258	0.836258
250	6     	0.836258	0  	0.836258	0.836258
251	6     	0.836258	0  	0.836258	0.836258
252	8     	0.839188	0  	0.839188	0.839188
253	4     	0.839188	0  	0.839188	0.839188
254	4     	0.842102	0  	0.842102	0.842102
255	2     	0.842102	0  	0.842102	0.842102
256	2     	0.842102	0  	0.842102	0.842102
257	4     	0.842102	0  	0.842102	0.842102
258	4     	0.842102	0  	0.842102	0.842102
259	6     	0.842102	0  	0.842102	0.842102
260	6     	0.842102	0  	0.842102	0.842102
261	8     	0.845032	0  	0.845032	0.845032
262	4     	0.845032	0  	0.845032	0.845032
263	4     	0.845032	0  	0.845032	0.845032
264	6     	0.845032	0  	0.845032	0.845032
265	6     	0.845032	0  	0.845032	0.845032
266	8     	0.845032	0  	0.845032	0.845032
267	10    	0.847946	0  	0.847946	0.847946
268	4     	0.847946	0  	0.847946	0.847946
269	6     	0.847946	0  	0.847946	0.847946
270	6     	0.847946	0  	0.847946	0.847946
271	8     	0.847946	0  	0.847946	0.847946
272	10    	0.847946	0  	0.847946	0.847946
273	12    	0.847946	0  	0.847946	0.847946
274	16    	0.847946	0  	0.847946	0.847946
275	20    	0.847946	0  	0.847946	0.847946
276	24    	0.850876	0  	0.850876	0.850876
277	10    	0.850876	0  	0.850876	0.850876
278	12    	0.850876	0  	0.850876	0.850876
279	16    	0.850876	0  	0.850876	0.850876
280	20    	0.850876	0  	0.850876	0.850876
281	24    	0.853806	0  	0.853806	0.853806
282	10    	0.853806	0  	0.853806	0.853806
283	12    	0.853806	0  	0.853806	0.853806
284	16    	0.853806	0  	0.853806	0.853806
285	20    	0.853806	0  	0.853806	0.853806
286	24    	0.853806	0  	0.853806	0.853806
287	32    	0.853806	0  	0.853806	0.853806
288	40    	0.85672 	0  	0.85672 	0.85672 
289	16    	0.85672 	0  	0.85672 	0.85672 
290	20    	0.862579	0  	0.862579	0.862579
291	8     	0.862579	0  	0.862579	0.862579
292	10    	0.862579	0  	0.862579	0.862579
293	12    	0.865494	0  	0.865494	0.865494
294	6     	0.865494	0  	0.865494	0.865494
295	6     	0.868423	0  	0.868423	0.868423
296	2     	0.868423	0  	0.868423	0.868423
297	4     	0.868423	0  	0.868423	0.868423
298	4     	0.868423	0  	0.868423	0.868423
299	6     	0.868423	0  	0.868423	0.868423
300	6     	0.868423	0  	0.868423	0.868423
301	8     	0.868423	0  	0.868423	0.868423
302	10    	0.868423	0  	0.868423	0.868423
303	12    	0.868423	0  	0.868423	0.868423
304	16    	0.868423	0  	0.868423	0.868423
305	20    	0.868423	0  	0.868423	0.868423
306	24    	0.868423	0  	0.868423	0.868423
307	32    	0.868423	0  	0.868423	0.868423
308	40    	0.868423	0  	0.868423	0.868423
309	50    	0.871338	0  	0.871338	0.871338
310	20    	0.871338	0  	0.871338	0.871338
311	24    	0.874268	0  	0.874268	0.874268
312	10    	0.874268	0  	0.874268	0.874268
313	12    	0.874268	0  	0.874268	0.874268
314	16    	0.874268	0  	0.874268	0.874268
315	20    	0.877197	0  	0.877197	0.877197
316	8     	0.877197	0  	0.877197	0.877197
317	10    	0.877197	0  	0.877197	0.877197
318	12    	0.880112	0  	0.880112	0.880112
319	6     	0.880112	0  	0.880112	0.880112
320	6     	0.880112	0  	0.880112	0.880112
321	8     	0.880112	0  	0.880112	0.880112
322	10    	0.880112	0  	0.880112	0.880112
323	12    	0.883041	0  	0.883041	0.883041
324	6     	0.883041	0  	0.883041	0.883041
325	6     	0.883041	0  	0.883041	0.883041
326	8     	0.883041	0  	0.883041	0.883041
327	10    	0.883041	0  	0.883041	0.883041
328	12    	0.885971	0  	0.885971	0.885971
329	6     	0.885971	0  	0.885971	0.885971
330	6     	0.885971	0  	0.885971	0.885971
331	8     	0.885971	0  	0.885971	0.885971
332	10    	0.885971	0  	0.885971	0.885971
333	12    	0.885971	0  	0.885971	0.885971
334	16    	0.888885	0  	0.888885	0.888885
335	6     	0.888885	0  	0.888885	0.888885
336	8     	0.888885	0  	0.888885	0.888885
337	10    	0.888885	0  	0.888885	0.888885
338	12    	0.888885	0  	0.888885	0.888885
339	16    	0.888885	0  	0.888885	0.888885
340	20    	0.888885	0  	0.888885	0.888885
341	24    	0.888885	0  	0.888885	0.888885
342	32    	0.888885	0  	0.888885	0.888885
343	40    	0.888885	0  	0.888885	0.888885
344	50    	0.888885	0  	0.888885	0.888885
345	62    	0.891815	0  	0.891815	0.891815
346	24    	0.89473 	0  	0.89473 	0.89473 
347	10    	0.89473 	0  	0.89473 	0.89473 
348	12    	0.89473 	0  	0.89473 	0.89473 
349	16    	0.89473 	0  	0.89473 	0.89473 
350	20    	0.89473 	0  	0.89473 	0.89473 
351	24    	0.89473 	0  	0.89473 	0.89473 
352	32    	0.89473 	0  	0.89473 	0.89473 
353	40    	0.89473 	0  	0.89473 	0.89473 
354	50    	0.897659	0  	0.897659	0.897659
355	20    	0.900589	0  	0.900589	0.900589
356	8     	0.900589	0  	0.900589	0.900589
357	10    	0.900589	0  	0.900589	0.900589
358	12    	0.900589	0  	0.900589	0.900589
359	16    	0.903503	0  	0.903503	0.903503
360	6     	0.903503	0  	0.903503	0.903503
361	8     	0.903503	0  	0.903503	0.903503
362	10    	0.903503	0  	0.903503	0.903503
363	12    	0.903503	0  	0.903503	0.903503
364	16    	0.906433	0  	0.906433	0.906433
365	6     	0.906433	0  	0.906433	0.906433
366	8     	0.906433	0  	0.906433	0.906433
367	10    	0.906433	0  	0.906433	0.906433
368	12    	0.906433	0  	0.906433	0.906433
369	16    	0.906433	0  	0.906433	0.906433
370	20    	0.906433	0  	0.906433	0.906433
371	24    	0.906433	0  	0.906433	0.906433
372	32    	0.906433	0  	0.906433	0.906433
373	40    	0.906433	0  	0.906433	0.906433
374	50    	0.906433	0  	0.906433	0.906433
375	62    	0.909363	0  	0.909363	0.909363
376	24    	0.909363	0  	0.909363	0.909363
377	32    	0.909363	0  	0.909363	0.909363
378	40    	0.909363	0  	0.909363	0.909363
379	50    	0.909363	0  	0.909363	0.909363
380	62    	0.909363	0  	0.909363	0.909363
381	78    	0.909363	0  	0.909363	0.909363
382	98    	0.909363	0  	0.909363	0.909363
383	124   	0.909363	0  	0.909363	0.909363
384	156   	0.909363	0  	0.909363	0.909363
385	196   	0.909363	0  	0.909363	0.909363
386	246   	0.912277	0  	0.912277	0.912277
387	98    	0.912277	0  	0.912277	0.912277
388	124   	0.912277	0  	0.912277	0.912277
389	156   	0.915207	0  	0.915207	0.915207
390	62    	0.915207	0  	0.915207	0.915207
391	78    	0.915207	0  	0.915207	0.915207
392	98    	0.915207	0  	0.915207	0.915207
393	124   	0.915207	0  	0.915207	0.915207
394	156   	0.915207	0  	0.915207	0.915207
395	196   	0.915207	0  	0.915207	0.915207
396	246   	0.918121	0  	0.918121	0.918121
397	98    	0.921051	0  	0.921051	0.921051
398	40    	0.921051	0  	0.921051	0.921051
399	50    	0.921051	0  	0.921051	0.921051
400	62    	0.921051	0  	0.921051	0.921051
401	78    	0.921051	0  	0.921051	0.921051
402	98    	0.923981	0  	0.923981	0.923981
403	40    	0.923981	0  	0.923981	0.923981
404	50    	0.926895	0  	0.926895	0.926895
405	20    	0.926895	0  	0.926895	0.926895
406	24    	0.926895	0  	0.926895	0.926895
407	32    	0.926895	0  	0.926895	0.926895
408	40    	0.926895	0  	0.926895	0.926895
409	50    	0.926895	0  	0.926895	0.926895
410	62    	0.926895	0  	0.926895	0.926895
411	78    	0.926895	0  	0.926895	0.926895
412	98    	0.929825	0  	0.929825	0.929825
413	40    	0.929825	0  	0.929825	0.929825
414	50    	0.929825	0  	0.929825	0.929825
415	62    	0.929825	0  	0.929825	0.929825
416	78    	0.929825	0  	0.929825	0.929825
417	98    	0.929825	0  	0.929825	0.929825
418	124   	0.929825	0  	0.929825	0.929825
419	156   	0.929825	0  	0.929825	0.929825
420	196   	0.929825	0  	0.929825	0.929825
421	246   	0.929825	0  	0.929825	0.929825
422	308   	0.929825	0  	0.929825	0.929825
423	388   	0.929825	0  	0.929825	0.929825
424	488   	0.929825	0  	0.929825	0.929825
425	614   	0.929825	0  	0.929825	0.929825
426	772   	0.932755	0  	0.932755	0.932755
427	308   	0.935669	0  	0.935669	0.935669
