gen	nevals	avg     	std	min     	max     
0  	1     	0.566666	0  	0.566666	0.566666
1  	2     	0.566666	0  	0.566666	0.566666
2  	2     	0.600006	0  	0.600006	0.600006
3  	2     	0.633331	0  	0.633331	0.633331
4  	2     	0.633331	0  	0.633331	0.633331
5  	2     	0.633331	0  	0.633331	0.633331
6  	4     	0.633331	0  	0.633331	0.633331
7  	4     	0.666672	0  	0.666672	0.666672
8  	2     	0.666672	0  	0.666672	0.666672
9  	2     	0.666672	0  	0.666672	0.666672
10 	4     	0.733337	0  	0.733337	0.733337
11 	2     	0.733337	0  	0.733337	0.733337
12 	2     	0.733337	0  	0.733337	0.733337
13 	4     	0.733337	0  	0.733337	0.733337
14 	4     	0.766663	0  	0.766663	0.766663
15 	2     	0.766663	0  	0.766663	0.766663
16 	2     	0.766663	0  	0.766663	0.766663
17 	4     	0.766663	0  	0.766663	0.766663
18 	4     	0.800003	0  	0.800003	0.800003
19 	2     	0.800003	0  	0.800003	0.800003
20 	2     	0.800003	0  	0.800003	0.800003
21 	4     	0.800003	0  	0.800003	0.800003
22 	4     	0.833328	0  	0.833328	0.833328
23 	2     	0.833328	0  	0.833328	0.833328
24 	2     	0.833328	0  	0.833328	0.833328
25 	4     	0.833328	0  	0.833328	0.833328
26 	4     	0.866669	0  	0.866669	0.866669
27 	2     	0.866669	0  	0.866669	0.866669
28 	2     	0.866669	0  	0.866669	0.866669
29 	4     	0.866669	0  	0.866669	0.866669
30 	4     	0.866669	0  	0.866669	0.866669
31 	6     	0.866669	0  	0.866669	0.866669
32 	6     	0.866669	0  	0.866669	0.866669
33 	8     	0.866669	0  	0.866669	0.866669
34 	10    	0.866669	0  	0.866669	0.866669
35 	12    	0.866669	0  	0.866669	0.866669
36 	16    	0.866669	0  	0.866669	0.866669
37 	20    	0.899994	0  	0.899994	0.899994
38 	8     	0.899994	0  	0.899994	0.899994
39 	10    	0.899994	0  	0.899994	0.899994
40 	12    	0.899994	0  	0.899994	0.899994
41 	16    	0.899994	0  	0.899994	0.899994
42 	20    	0.899994	0  	0.899994	0.899994
43 	24    	0.933334	0  	0.933334	0.933334
44 	10    	0.933334	0  	0.933334	0.933334
45 	12    	0.933334	0  	0.933334	0.933334
46 	16    	0.933334	0  	0.933334	0.933334
47 	20    	0.933334	0  	0.933334	0.933334
48 	24    	0.933334	0  	0.933334	0.933334
49 	32    	0.933334	0  	0.933334	0.933334
50 	40    	0.933334	0  	0.933334	0.933334
51 	50    	0.933334	0  	0.933334	0.933334
52 	62    	0.933334	0  	0.933334	0.933334
53 	72    	0.933334	0  	0.933334	0.933334
54 	72    	0.933334	0  	0.933334	0.933334
55 	72    	0.933334	0  	0.933334	0.933334
56 	72    	0.933334	0  	0.933334	0.933334
57 	72    	0.933334	0  	0.933334	0.933334
58 	72    	0.933334	0  	0.933334	0.933334
59 	72    	0.933334	0  	0.933334	0.933334
60 	72    	0.933334	0  	0.933334	0.933334
61 	72    	0.933334	0  	0.933334	0.933334
62 	72    	0.933334	0  	0.933334	0.933334
63 	72    	0.933334	0  	0.933334	0.933334
64 	72    	0.933334	0  	0.933334	0.933334
65 	72    	0.933334	0  	0.933334	0.933334
66 	72    	0.933334	0  	0.933334	0.933334
67 	72    	0.933334	0  	0.933334	0.933334
68 	72    	0.933334	0  	0.933334	0.933334
69 	72    	0.933334	0  	0.933334	0.933334
70 	72    	0.933334	0  	0.933334	0.933334
71 	72    	0.933334	0  	0.933334	0.933334
72 	72    	0.933334	0  	0.933334	0.933334
73 	72    	0.933334	0  	0.933334	0.933334
74 	72    	0.933334	0  	0.933334	0.933334
75 	72    	0.933334	0  	0.933334	0.933334
76 	72    	0.933334	0  	0.933334	0.933334
77 	72    	0.933334	0  	0.933334	0.933334
78 	72    	0.933334	0  	0.933334	0.933334
79 	72    	0.933334	0  	0.933334	0.933334
80 	72    	0.933334	0  	0.933334	0.933334
81 	72    	0.933334	0  	0.933334	0.933334
82 	72    	0.933334	0  	0.933334	0.933334
83 	72    	0.933334	0  	0.933334	0.933334
84 	72    	0.933334	0  	0.933334	0.933334
85 	72    	0.933334	0  	0.933334	0.933334
86 	72    	0.933334	0  	0.933334	0.933334
87 	72    	0.933334	0  	0.933334	0.933334
88 	72    	0.933334	0  	0.933334	0.933334
89 	72    	0.933334	0  	0.933334	0.933334
90 	72    	0.933334	0  	0.933334	0.933334
91 	72    	0.933334	0  	0.933334	0.933334
92 	72    	0.933334	0  	0.933334	0.933334
93 	72    	0.933334	0  	0.933334	0.933334
94 	72    	0.933334	0  	0.933334	0.933334
95 	72    	0.933334	0  	0.933334	0.933334
96 	72    	0.933334	0  	0.933334	0.933334
97 	72    	0.933334	0  	0.933334	0.933334
98 	72    	0.933334	0  	0.933334	0.933334
99 	72    	0.933334	0  	0.933334	0.933334
100	72    	0.933334	0  	0.933334	0.933334
101	72    	0.933334	0  	0.933334	0.933334
102	72    	0.933334	0  	0.933334	0.933334
103	72    	0.933334	0  	0.933334	0.933334
104	72    	0.933334	0  	0.933334	0.933334
105	72    	0.933334	0  	0.933334	0.933334
106	72    	0.933334	0  	0.933334	0.933334
107	72    	0.933334	0  	0.933334	0.933334
108	72    	0.933334	0  	0.933334	0.933334
109	72    	0.933334	0  	0.933334	0.933334
110	72    	0.933334	0  	0.933334	0.933334
111	72    	0.933334	0  	0.933334	0.933334
112	72    	0.933334	0  	0.933334	0.933334
113	72    	0.933334	0  	0.933334	0.933334
114	72    	0.96666 	0  	0.96666 	0.96666 
115	28    	0.96666 	0  	0.96666 	0.96666 
116	36    	0.96666 	0  	0.96666 	0.96666 
117	46    	0.96666 	0  	0.96666 	0.96666 
118	58    	0.96666 	0  	0.96666 	0.96666 
119	72    	0.96666 	0  	0.96666 	0.96666 
120	72    	0.96666 	0  	0.96666 	0.96666 
121	72    	0.96666 	0  	0.96666 	0.96666 
122	72    	0.96666 	0  	0.96666 	0.96666 
123	72    	0.96666 	0  	0.96666 	0.96666 
124	72    	0.96666 	0  	0.96666 	0.96666 
125	72    	0.96666 	0  	0.96666 	0.96666 
126	72    	0.96666 	0  	0.96666 	0.96666 
127	72    	0.96666 	0  	0.96666 	0.96666 
128	72    	0.96666 	0  	0.96666 	0.96666 
129	72    	0.96666 	0  	0.96666 	0.96666 
130	72    	0.96666 	0  	0.96666 	0.96666 
131	72    	0.96666 	0  	0.96666 	0.96666 
132	72    	0.96666 	0  	0.96666 	0.96666 
133	72    	0.96666 	0  	0.96666 	0.96666 
134	72    	0.96666 	0  	0.96666 	0.96666 
135	72    	0.96666 	0  	0.96666 	0.96666 
136	72    	0.96666 	0  	0.96666 	0.96666 
137	72    	0.96666 	0  	0.96666 	0.96666 
138	72    	0.96666 	0  	0.96666 	0.96666 
139	72    	0.96666 	0  	0.96666 	0.96666 
140	72    	0.96666 	0  	0.96666 	0.96666 
141	72    	0.96666 	0  	0.96666 	0.96666 
142	72    	0.96666 	0  	0.96666 	0.96666 
143	72    	0.96666 	0  	0.96666 	0.96666 
144	72    	0.96666 	0  	0.96666 	0.96666 
145	72    	0.96666 	0  	0.96666 	0.96666 
146	72    	0.96666 	0  	0.96666 	0.96666 
147	72    	0.96666 	0  	0.96666 	0.96666 
148	72    	0.96666 	0  	0.96666 	0.96666 
149	72    	0.96666 	0  	0.96666 	0.96666 
150	72    	0.96666 	0  	0.96666 	0.96666 
151	72    	0.96666 	0  	0.96666 	0.96666 
152	72    	0.96666 	0  	0.96666 	0.96666 
153	72    	0.96666 	0  	0.96666 	0.96666 
154	72    	0.96666 	0  	0.96666 	0.96666 
155	72    	0.96666 	0  	0.96666 	0.96666 
156	72    	0.96666 	0  	0.96666 	0.96666 
157	72    	0.96666 	0  	0.96666 	0.96666 
158	72    	0.96666 	0  	0.96666 	0.96666 
159	72    	0.96666 	0  	0.96666 	0.96666 
160	72    	0.96666 	0  	0.96666 	0.96666 
161	72    	0.96666 	0  	0.96666 	0.96666 
162	72    	0.96666 	0  	0.96666 	0.96666 
163	72    	0.96666 	0  	0.96666 	0.96666 
164	72    	0.96666 	0  	0.96666 	0.96666 
165	72    	0.96666 	0  	0.96666 	0.96666 
166	72    	0.96666 	0  	0.96666 	0.96666 
167	72    	0.96666 	0  	0.96666 	0.96666 
168	72    	0.96666 	0  	0.96666 	0.96666 
169	72    	0.96666 	0  	0.96666 	0.96666 
170	72    	0.96666 	0  	0.96666 	0.96666 
171	72    	0.96666 	0  	0.96666 	0.96666 
172	72    	0.96666 	0  	0.96666 	0.96666 
173	72    	0.96666 	0  	0.96666 	0.96666 
174	72    	0.96666 	0  	0.96666 	0.96666 
175	72    	0.96666 	0  	0.96666 	0.96666 
176	72    	0.96666 	0  	0.96666 	0.96666 
177	72    	0.96666 	0  	0.96666 	0.96666 
178	72    	0.96666 	0  	0.96666 	0.96666 
179	72    	0.96666 	0  	0.96666 	0.96666 
180	72    	0.96666 	0  	0.96666 	0.96666 
181	72    	0.96666 	0  	0.96666 	0.96666 
182	72    	0.96666 	0  	0.96666 	0.96666 
183	72    	0.96666 	0  	0.96666 	0.96666 
184	72    	0.96666 	0  	0.96666 	0.96666 
185	72    	0.96666 	0  	0.96666 	0.96666 
186	72    	0.96666 	0  	0.96666 	0.96666 
