gen	nevals	avg     	std       	min     	max     
0  	20    	0.874029	0.0118414 	0.854645	0.903107
1  	20    	0.883726	0.00808641	0.872086	0.903107
2  	20    	0.891479	0.0081298 	0.88179 	0.912796
3  	20    	0.89894 	0.00707454	0.887604	0.912796
4  	20    	0.901653	0.0060935 	0.893417	0.912796
5  	20    	0.904269	0.00718319	0.897293	0.926361
6  	20    	0.906982	0.00645632	0.899231	0.926361
7  	20    	0.908242	0.00582247	0.903107	0.926361
8  	20    	0.909986	0.00582892	0.905045	0.926361
9  	20    	0.910277	0.00561981	0.905045	0.926361
10 	20    	0.910858	0.00527157	0.905045	0.926361
11 	20    	0.914056	0.00723203	0.906982	0.932175
12 	20    	0.916769	0.00710632	0.90892 	0.932175
13 	20    	0.917447	0.00669616	0.90892 	0.932175
14 	20    	0.918707	0.00632336	0.910858	0.932175
15 	20    	0.918997	0.00602299	0.912796	0.932175
16 	20    	0.919191	0.00584902	0.912796	0.932175
17 	20    	0.921323	0.00592239	0.912796	0.932175
18 	20    	0.922485	0.0055492 	0.914734	0.932175
19 	20    	0.924423	0.00420119	0.91861 	0.932175
20 	20    	0.925586	0.00379743	0.920547	0.932175
21 	20    	0.925586	0.00379743	0.920547	0.932175
22 	20    	0.925586	0.00379743	0.920547	0.932175
23 	20    	0.927136	0.00276783	0.922485	0.932175
24 	20    	0.928008	0.00337183	0.924423	0.937988
25 	20    	0.928008	0.00337183	0.924423	0.937988
26 	20    	0.928396	0.00338295	0.924423	0.937988
27 	20    	0.928687	0.00327723	0.924423	0.937988
28 	20    	0.92888 	0.00307016	0.926361	0.937988
29 	20    	0.928977	0.00301928	0.926361	0.937988
30 	20    	0.929268	0.00303324	0.926361	0.937988
31 	20    	0.929462	0.00296437	0.926361	0.937988
32 	20    	0.929752	0.00279986	0.926361	0.937988
33 	20    	0.929752	0.00279986	0.926361	0.937988
34 	20    	0.929752	0.00279986	0.926361	0.937988
35 	20    	0.929849	0.00271301	0.926361	0.937988
36 	20    	0.929946	0.00261971	0.926361	0.937988
37 	20    	0.930237	0.00252667	0.926361	0.937988
38 	20    	0.930431	0.00236547	0.928299	0.937988
39 	20    	0.930431	0.00236547	0.928299	0.937988
40 	20    	0.930624	0.00234153	0.928299	0.937988
41 	20    	0.931109	0.00248735	0.928299	0.937988
42 	20    	0.931109	0.00248735	0.928299	0.937988
43 	20    	0.931787	0.00333403	0.928299	0.941864
44 	20    	0.931981	0.00317834	0.928299	0.941864
45 	20    	0.933047	0.00488231	0.928299	0.949615
46 	20    	0.933241	0.00476554	0.930237	0.949615
47 	20    	0.933919	0.00486014	0.930237	0.949615
48 	20    	0.933919	0.00486014	0.930237	0.949615
49 	20    	0.934113	0.00478618	0.930237	0.949615
50 	20    	0.934597	0.00453953	0.930237	0.949615
51 	20    	0.934597	0.00453953	0.930237	0.949615
52 	20    	0.935275	0.00443598	0.932175	0.949615
53 	20    	0.935469	0.00438061	0.932175	0.949615
54 	20    	0.936147	0.00435373	0.932175	0.949615
55 	20    	0.936244	0.00428527	0.932175	0.949615
56 	20    	0.936244	0.00428527	0.932175	0.949615
57 	20    	0.936438	0.00413815	0.932175	0.949615
58 	20    	0.936632	0.00402311	0.932175	0.949615
59 	20    	0.936632	0.00402311	0.932175	0.949615
60 	20    	0.936632	0.00402311	0.932175	0.949615
61 	20    	0.936729	0.00393702	0.932175	0.949615
62 	20    	0.937213	0.00394297	0.934113	0.949615
63 	20    	0.93731 	0.00388903	0.934113	0.949615
64 	20    	0.937504	0.00382084	0.934113	0.949615
65 	20    	0.937601	0.00375766	0.934113	0.949615
66 	20    	0.937794	0.00367173	0.934113	0.949615
67 	20    	0.938763	0.00426331	0.934113	0.949615
68 	20    	0.939054	0.00413247	0.934113	0.949615
69 	20    	0.939248	0.00393702	0.93605 	0.949615
70 	20    	0.939442	0.00386967	0.93605 	0.949615
71 	20    	0.939635	0.00374139	0.93605 	0.949615
72 	20    	0.940023	0.00354555	0.93605 	0.949615
73 	20    	0.940314	0.00333403	0.937988	0.949615
74 	20    	0.941089	0.0043505 	0.937988	0.953491
75 	20    	0.941089	0.0043505 	0.937988	0.953491
76 	20    	0.941186	0.00430167	0.937988	0.953491
77 	20    	0.941283	0.00425007	0.937988	0.953491
78 	20    	0.941283	0.00425007	0.937988	0.953491
79 	20    	0.941283	0.00425007	0.937988	0.953491
80 	20    	0.94167 	0.00428527	0.937988	0.953491
81 	20    	0.942252	0.00431583	0.937988	0.953491
82 	20    	0.942445	0.00420566	0.937988	0.953491
83 	20    	0.942639	0.00408334	0.939926	0.953491
84 	20    	0.942639	0.00408334	0.939926	0.953491
85 	20    	0.942639	0.00408334	0.939926	0.953491
86 	20    	0.942639	0.00408334	0.939926	0.953491
87 	20    	0.942639	0.00408334	0.939926	0.953491
88 	20    	0.942736	0.00404058	0.939926	0.953491
89 	20    	0.942736	0.00404058	0.939926	0.953491
90 	20    	0.942736	0.00404058	0.939926	0.953491
91 	20    	0.943414	0.00461033	0.939926	0.953491
92 	20    	0.943608	0.00449902	0.939926	0.953491
93 	20    	0.943608	0.00449902	0.939926	0.953491
94 	20    	0.943705	0.00443915	0.939926	0.953491
95 	20    	0.943705	0.00443915	0.939926	0.953491
96 	20    	0.943802	0.00437632	0.939926	0.953491
97 	20    	0.943802	0.00437632	0.939926	0.953491
98 	20    	0.944093	0.00430167	0.939926	0.953491
99 	20    	0.944093	0.00430167	0.939926	0.953491
100	20    	0.944189	0.00422792	0.939926	0.953491
101	20    	0.94448 	0.00403127	0.939926	0.953491
102	20    	0.94448 	0.00403127	0.939926	0.953491
103	20    	0.944577	0.00394297	0.941864	0.953491
104	20    	0.945158	0.00392866	0.941864	0.953491
105	20    	0.945158	0.00392866	0.941864	0.953491
106	20    	0.945158	0.00392866	0.941864	0.953491
107	20    	0.945158	0.00392866	0.941864	0.953491
108	20    	0.945158	0.00392866	0.941864	0.953491
109	20    	0.945352	0.0038073 	0.941864	0.953491
110	20    	0.945449	0.00374139	0.941864	0.953491
111	20    	0.945449	0.00374139	0.941864	0.953491
112	20    	0.945449	0.00374139	0.941864	0.953491
113	20    	0.94603 	0.00403127	0.941864	0.953491
114	20    	0.94603 	0.00403127	0.941864	0.953491
115	20    	0.94603 	0.00403127	0.941864	0.953491
116	20    	0.94603 	0.00403127	0.941864	0.953491
117	20    	0.94603 	0.00403127	0.941864	0.953491
118	20    	0.94603 	0.00403127	0.941864	0.953491
119	20    	0.94603 	0.00403127	0.941864	0.953491
120	20    	0.94603 	0.00403127	0.941864	0.953491
121	20    	0.946127	0.00395249	0.941864	0.953491
122	20    	0.946224	0.00386967	0.941864	0.953491
123	20    	0.946224	0.00386967	0.941864	0.953491
124	20    	0.946224	0.00386967	0.941864	0.953491
125	20    	0.946224	0.00386967	0.941864	0.953491
126	20    	0.946515	0.00374765	0.941864	0.953491
127	20    	0.946515	0.00374765	0.941864	0.953491
128	20    	0.946709	0.00359943	0.941864	0.953491
129	20    	0.946709	0.00359943	0.941864	0.953491
130	20    	0.946709	0.00359943	0.941864	0.953491
131	20    	0.946709	0.00359943	0.941864	0.953491
132	20    	0.947096	0.00347197	0.941864	0.953491
133	20    	0.947096	0.00347197	0.941864	0.953491
134	20    	0.947096	0.00347197	0.941864	0.953491
135	20    	0.947096	0.00347197	0.941864	0.953491
136	20    	0.947096	0.00347197	0.941864	0.953491
137	20    	0.947193	0.00334948	0.943802	0.953491
138	20    	0.947193	0.00334948	0.943802	0.953491
139	20    	0.947193	0.00334948	0.943802	0.953491
140	20    	0.947193	0.00334948	0.943802	0.953491
141	20    	0.947193	0.00334948	0.943802	0.953491
142	20    	0.947193	0.00334948	0.943802	0.953491
143	20    	0.947387	0.00325856	0.943802	0.953491
144	20    	0.947387	0.00325856	0.943802	0.953491
145	20    	0.947871	0.0030579 	0.943802	0.953491
146	20    	0.947871	0.0030579 	0.943802	0.953491
147	20    	0.947968	0.00295644	0.943802	0.953491
148	20    	0.947968	0.00295644	0.943802	0.953491
149	20    	0.947968	0.00295644	0.943802	0.953491
150	20    	0.947968	0.00295644	0.943802	0.953491
151	20    	0.948065	0.00284807	0.943802	0.953491
152	20    	0.948259	0.00267818	0.943802	0.953491
153	20    	0.94855 	0.00248735	0.94574 	0.953491
154	20    	0.94855 	0.00248735	0.94574 	0.953491
155	20    	0.94855 	0.00248735	0.94574 	0.953491
156	20    	0.94855 	0.00248735	0.94574 	0.953491
157	20    	0.94855 	0.00248735	0.94574 	0.953491
158	20    	0.94855 	0.00248735	0.94574 	0.953491
159	20    	0.94855 	0.00248735	0.94574 	0.953491
160	20    	0.94855 	0.00248735	0.94574 	0.953491
161	20    	0.94855 	0.00248735	0.94574 	0.953491
162	20    	0.94855 	0.00248735	0.94574 	0.953491
163	20    	0.948647	0.00241262	0.94574 	0.953491
164	20    	0.948937	0.00223275	0.94574 	0.953491
165	20    	0.948937	0.00223275	0.94574 	0.953491
166	20    	0.948937	0.00223275	0.94574 	0.953491
167	20    	0.949131	0.00211174	0.94574 	0.953491
168	20    	0.949325	0.00196433	0.947678	0.953491
169	20    	0.949325	0.00196433	0.947678	0.953491
170	20    	0.949325	0.00196433	0.947678	0.953491
171	20    	0.949325	0.00196433	0.947678	0.953491
172	20    	0.949325	0.00196433	0.947678	0.953491
173	20    	0.949325	0.00196433	0.947678	0.953491
174	20    	0.949325	0.00196433	0.947678	0.953491
175	20    	0.949325	0.00196433	0.947678	0.953491
176	20    	0.949325	0.00196433	0.947678	0.953491
177	20    	0.949422	0.00192815	0.947678	0.953491
178	20    	0.949422	0.00192815	0.947678	0.953491
179	20    	0.949422	0.00192815	0.947678	0.953491
180	20    	0.949422	0.00192815	0.947678	0.953491
181	20    	0.949422	0.00192815	0.947678	0.953491
182	20    	0.949422	0.00192815	0.947678	0.953491
183	20    	0.949422	0.00192815	0.947678	0.953491
184	20    	0.949519	0.00188631	0.947678	0.953491
185	20    	0.949906	0.00223275	0.947678	0.955429
186	20    	0.949906	0.00223275	0.947678	0.955429
187	20    	0.949906	0.00223275	0.947678	0.955429
188	20    	0.949906	0.00223275	0.947678	0.955429
189	20    	0.949906	0.00223275	0.947678	0.955429
190	20    	0.949906	0.00223275	0.947678	0.955429
191	20    	0.949906	0.00223275	0.947678	0.955429
192	20    	0.950003	0.00217525	0.947678	0.955429
193	20    	0.950003	0.00217525	0.947678	0.955429
194	20    	0.9501  	0.00211174	0.947678	0.955429
195	20    	0.9501  	0.00211174	0.947678	0.955429
196	20    	0.950197	0.00204167	0.947678	0.955429
197	20    	0.950294	0.00196433	0.947678	0.955429
198	20    	0.950294	0.00196433	0.947678	0.955429
199	20    	0.950294	0.00196433	0.947678	0.955429
200	20    	0.950584	0.00178662	0.949615	0.955429
201	20    	0.950584	0.00178662	0.949615	0.955429
202	20    	0.950584	0.00178662	0.949615	0.955429
203	20    	0.950584	0.00178662	0.949615	0.955429
204	20    	0.950584	0.00178662	0.949615	0.955429
205	20    	0.950584	0.00178662	0.949615	0.955429
206	20    	0.950972	0.00230109	0.949615	0.957367
207	20    	0.950972	0.00230109	0.949615	0.957367
208	20    	0.950972	0.00230109	0.949615	0.957367
209	20    	0.950972	0.00230109	0.949615	0.957367
210	20    	0.951263	0.0024722 	0.949615	0.957367
211	20    	0.951456	0.00248735	0.949615	0.957367
212	20    	0.951456	0.00248735	0.949615	0.957367
213	20    	0.951456	0.00248735	0.949615	0.957367
214	20    	0.951553	0.00245123	0.949615	0.957367
215	20    	0.951553	0.00245123	0.949615	0.957367
216	20    	0.95165 	0.00241068	0.949615	0.957367
217	20    	0.95165 	0.00241068	0.949615	0.957367
218	20    	0.95165 	0.00241068	0.949615	0.957367
219	20    	0.95165 	0.00241068	0.949615	0.957367
220	20    	0.952038	0.00266236	0.949615	0.957367
221	20    	0.952038	0.00266236	0.949615	0.957367
222	20    	0.952425	0.00283982	0.949615	0.957367
223	20    	0.952619	0.00277291	0.949615	0.957367
224	20    	0.952619	0.00277291	0.949615	0.957367
225	20    	0.952813	0.00269043	0.949615	0.957367
226	20    	0.952813	0.00269043	0.949615	0.957367
227	20    	0.952813	0.00269043	0.949615	0.957367
228	20    	0.952813	0.00269043	0.949615	0.957367
229	20    	0.952813	0.00269043	0.949615	0.957367
230	20    	0.952813	0.00269043	0.949615	0.957367
231	20    	0.953007	0.00251736	0.949615	0.957367
232	20    	0.953007	0.00251736	0.949615	0.957367
233	20    	0.953007	0.00251736	0.949615	0.957367
234	20    	0.953007	0.00251736	0.949615	0.957367
235	20    	0.953007	0.00251736	0.949615	0.957367
236	20    	0.953394	0.00256172	0.949615	0.957367
237	20    	0.953394	0.00256172	0.949615	0.957367
238	20    	0.953394	0.00256172	0.949615	0.957367
239	20    	0.953879	0.00271301	0.949615	0.959305
240	20    	0.954363	0.00277291	0.949615	0.959305
241	20    	0.954363	0.00277291	0.949615	0.959305
242	20    	0.95446 	0.00263578	0.951553	0.959305
243	20    	0.954557	0.00256172	0.951553	0.959305
244	20    	0.954945	0.00244163	0.951553	0.959305
245	20    	0.954945	0.00244163	0.951553	0.959305
246	20    	0.954945	0.00244163	0.951553	0.959305
247	20    	0.955429	0.00237339	0.951553	0.959305
248	20    	0.955429	0.00237339	0.951553	0.959305
249	20    	0.955429	0.00237339	0.951553	0.959305
250	20    	0.955429	0.00237339	0.951553	0.959305
251	20    	0.955429	0.00237339	0.951553	0.959305
252	20    	0.955429	0.00237339	0.951553	0.959305
253	20    	0.955429	0.00237339	0.951553	0.959305
254	20    	0.955429	0.00237339	0.951553	0.959305
255	20    	0.955429	0.00237339	0.951553	0.959305
256	20    	0.955429	0.00237339	0.951553	0.959305
257	20    	0.955429	0.00237339	0.951553	0.959305
258	20    	0.955429	0.00237339	0.951553	0.959305
259	20    	0.955429	0.00237339	0.951553	0.959305
260	20    	0.955429	0.00237339	0.951553	0.959305
261	20    	0.955623	0.00220099	0.953491	0.959305
262	20    	0.955623	0.00220099	0.953491	0.959305
263	20    	0.955623	0.00220099	0.953491	0.959305
264	20    	0.955623	0.00220099	0.953491	0.959305
265	20    	0.955623	0.00220099	0.953491	0.959305
266	20    	0.955623	0.00220099	0.953491	0.959305
267	20    	0.955623	0.00220099	0.953491	0.959305
268	20    	0.955623	0.00220099	0.953491	0.959305
269	20    	0.955623	0.00220099	0.953491	0.959305
270	20    	0.955623	0.00220099	0.953491	0.959305
271	20    	0.955623	0.00220099	0.953491	0.959305
272	20    	0.955623	0.00220099	0.953491	0.959305
273	20    	0.955623	0.00220099	0.953491	0.959305
274	20    	0.955623	0.00220099	0.953491	0.959305
275	20    	0.95572 	0.00214701	0.953491	0.959305
276	20    	0.95572 	0.00214701	0.953491	0.959305
277	20    	0.955817	0.00208715	0.953491	0.959305
278	20    	0.955817	0.00208715	0.953491	0.959305
279	20    	0.955817	0.00208715	0.953491	0.959305
280	20    	0.955817	0.00208715	0.953491	0.959305
281	20    	0.955817	0.00208715	0.953491	0.959305
282	20    	0.955817	0.00208715	0.953491	0.959305
283	20    	0.955914	0.00202087	0.953491	0.959305
284	20    	0.955914	0.00202087	0.953491	0.959305
285	20    	0.955914	0.00202087	0.953491	0.959305
286	20    	0.955914	0.00202087	0.953491	0.959305
287	20    	0.955914	0.00202087	0.953491	0.959305
288	20    	0.955914	0.00202087	0.953491	0.959305
289	20    	0.955914	0.00202087	0.953491	0.959305
290	20    	0.955914	0.00202087	0.953491	0.959305
291	20    	0.955914	0.00202087	0.953491	0.959305
292	20    	0.955914	0.00202087	0.953491	0.959305
293	20    	0.955914	0.00202087	0.953491	0.959305
294	20    	0.955914	0.00202087	0.953491	0.959305
295	20    	0.955914	0.00202087	0.953491	0.959305
296	20    	0.955914	0.00202087	0.953491	0.959305
297	20    	0.955914	0.00202087	0.953491	0.959305
298	20    	0.955914	0.00202087	0.953491	0.959305
299	20    	0.955914	0.00202087	0.953491	0.959305
300	20    	0.955914	0.00202087	0.953491	0.959305
301	20    	0.955914	0.00202087	0.953491	0.959305
302	20    	0.955914	0.00202087	0.953491	0.959305
303	20    	0.955914	0.00202087	0.953491	0.959305
304	20    	0.955914	0.00202087	0.953491	0.959305
305	20    	0.955914	0.00202087	0.953491	0.959305
306	20    	0.955914	0.00202087	0.953491	0.959305
307	20    	0.955914	0.00202087	0.953491	0.959305
308	20    	0.955914	0.00202087	0.953491	0.959305
309	20    	0.955914	0.00202087	0.953491	0.959305
310	20    	0.955914	0.00202087	0.953491	0.959305
311	20    	0.955914	0.00202087	0.953491	0.959305
312	20    	0.955914	0.00202087	0.953491	0.959305
313	20    	0.956107	0.00196433	0.953491	0.959305
314	20    	0.956107	0.00196433	0.953491	0.959305
315	20    	0.956107	0.00196433	0.953491	0.959305
316	20    	0.956204	0.00187883	0.953491	0.959305
317	20    	0.956204	0.00187883	0.953491	0.959305
318	20    	0.956495	0.00188631	0.953491	0.959305
319	20    	0.956495	0.00188631	0.953491	0.959305
320	20    	0.956495	0.00188631	0.953491	0.959305
321	20    	0.956495	0.00188631	0.953491	0.959305
322	20    	0.956495	0.00188631	0.953491	0.959305
323	20    	0.956495	0.00188631	0.953491	0.959305
324	20    	0.956592	0.00177608	0.953491	0.959305
325	20    	0.956592	0.00177608	0.953491	0.959305
326	20    	0.956592	0.00177608	0.953491	0.959305
327	20    	0.956592	0.00177608	0.953491	0.959305
328	20    	0.956786	0.00163288	0.953491	0.959305
329	20    	0.956786	0.00163288	0.953491	0.959305
330	20    	0.956786	0.00163288	0.953491	0.959305
331	20    	0.956786	0.00163288	0.953491	0.959305
332	20    	0.956786	0.00163288	0.953491	0.959305
333	20    	0.956786	0.00163288	0.953491	0.959305
334	20    	0.956786	0.00163288	0.953491	0.959305
335	20    	0.956786	0.00163288	0.953491	0.959305
336	20    	0.956882	0.00148535	0.955429	0.959305
337	20    	0.956882	0.00148535	0.955429	0.959305
338	20    	0.956882	0.00148535	0.955429	0.959305
339	20    	0.956882	0.00148535	0.955429	0.959305
340	20    	0.956882	0.00148535	0.955429	0.959305
341	20    	0.957173	0.00172241	0.955429	0.961243
342	20    	0.957173	0.00172241	0.955429	0.961243
343	20    	0.957173	0.00172241	0.955429	0.961243
344	20    	0.957173	0.00172241	0.955429	0.961243
345	20    	0.957173	0.00172241	0.955429	0.961243
346	20    	0.957173	0.00172241	0.955429	0.961243
347	20    	0.957173	0.00172241	0.955429	0.961243
348	20    	0.957173	0.00172241	0.955429	0.961243
349	20    	0.957173	0.00172241	0.955429	0.961243
350	20    	0.957173	0.00172241	0.955429	0.961243
351	20    	0.957173	0.00172241	0.955429	0.961243
352	20    	0.957173	0.00172241	0.955429	0.961243
353	20    	0.957173	0.00172241	0.955429	0.961243
354	20    	0.957173	0.00172241	0.955429	0.961243
355	20    	0.957173	0.00172241	0.955429	0.961243
356	20    	0.957173	0.00172241	0.955429	0.961243
357	20    	0.957173	0.00172241	0.955429	0.961243
358	20    	0.957367	0.00173328	0.955429	0.961243
359	20    	0.957367	0.00173328	0.955429	0.961243
360	20    	0.957367	0.00173328	0.955429	0.961243
361	20    	0.957367	0.00173328	0.955429	0.961243
362	20    	0.957464	0.00167544	0.955429	0.961243
363	20    	0.957464	0.00167544	0.955429	0.961243
364	20    	0.957464	0.00167544	0.955429	0.961243
365	20    	0.957464	0.00167544	0.955429	0.961243
366	20    	0.957464	0.00167544	0.955429	0.961243
367	20    	0.957464	0.00167544	0.955429	0.961243
368	20    	0.957464	0.00167544	0.955429	0.961243
369	20    	0.957464	0.00167544	0.955429	0.961243
370	20    	0.957464	0.00167544	0.955429	0.961243
371	20    	0.957464	0.00167544	0.955429	0.961243
372	20    	0.957464	0.00167544	0.955429	0.961243
373	20    	0.957464	0.00167544	0.955429	0.961243
374	20    	0.957464	0.00167544	0.955429	0.961243
375	20    	0.957464	0.00167544	0.955429	0.961243
376	20    	0.957561	0.00160971	0.955429	0.961243
377	20    	0.957851	0.00171969	0.955429	0.961243
378	20    	0.957851	0.00171969	0.955429	0.961243
379	20    	0.957851	0.00171969	0.955429	0.961243
380	20    	0.957851	0.00171969	0.955429	0.961243
381	20    	0.957851	0.00171969	0.955429	0.961243
382	20    	0.957851	0.00171969	0.955429	0.961243
383	20    	0.957851	0.00171969	0.955429	0.961243
384	20    	0.958045	0.00165288	0.955429	0.961243
385	20    	0.958045	0.00165288	0.955429	0.961243
386	20    	0.958045	0.00165288	0.955429	0.961243
387	20    	0.958045	0.00165288	0.955429	0.961243
388	20    	0.958045	0.00165288	0.955429	0.961243
389	20    	0.958045	0.00165288	0.955429	0.961243
390	20    	0.958045	0.00165288	0.955429	0.961243
391	20    	0.958045	0.00165288	0.955429	0.961243
392	20    	0.958045	0.00165288	0.955429	0.961243
393	20    	0.958045	0.00165288	0.955429	0.961243
394	20    	0.958239	0.00155935	0.955429	0.961243
395	20    	0.95853 	0.00155029	0.955429	0.961243
396	20    	0.95853 	0.00155029	0.955429	0.961243
397	20    	0.95882 	0.00148535	0.957367	0.961243
398	20    	0.95882 	0.00148535	0.957367	0.961243
399	20    	0.95882 	0.00148535	0.957367	0.961243
400	20    	0.95882 	0.00148535	0.957367	0.961243
401	20    	0.95882 	0.00148535	0.957367	0.961243
402	20    	0.95882 	0.00148535	0.957367	0.961243
403	20    	0.95882 	0.00148535	0.957367	0.961243
404	20    	0.95882 	0.00148535	0.957367	0.961243
405	20    	0.95882 	0.00148535	0.957367	0.961243
406	20    	0.95882 	0.00148535	0.957367	0.961243
407	20    	0.95882 	0.00148535	0.957367	0.961243
408	20    	0.95882 	0.00148535	0.957367	0.961243
409	20    	0.95882 	0.00148535	0.957367	0.961243
410	20    	0.95882 	0.00148535	0.957367	0.961243
411	20    	0.95882 	0.00148535	0.957367	0.961243
412	20    	0.95882 	0.00148535	0.957367	0.961243
413	20    	0.95882 	0.00148535	0.957367	0.961243
414	20    	0.95882 	0.00148535	0.957367	0.961243
415	20    	0.95882 	0.00148535	0.957367	0.961243
416	20    	0.95882 	0.00148535	0.957367	0.961243
417	20    	0.95882 	0.00148535	0.957367	0.961243
418	20    	0.95882 	0.00148535	0.957367	0.961243
419	20    	0.959014	0.00153508	0.957367	0.961243
420	20    	0.959014	0.00153508	0.957367	0.961243
421	20    	0.959014	0.00153508	0.957367	0.961243
422	20    	0.959014	0.00153508	0.957367	0.961243
423	20    	0.959014	0.00153508	0.957367	0.961243
424	20    	0.959014	0.00153508	0.957367	0.961243
425	20    	0.959014	0.00153508	0.957367	0.961243
426	20    	0.959014	0.00153508	0.957367	0.961243
427	20    	0.959014	0.00153508	0.957367	0.961243
428	20    	0.959014	0.00153508	0.957367	0.961243
429	20    	0.959014	0.00153508	0.957367	0.961243
430	20    	0.959014	0.00153508	0.957367	0.961243
431	20    	0.959014	0.00153508	0.957367	0.961243
432	20    	0.959014	0.00153508	0.957367	0.961243
433	20    	0.959014	0.00153508	0.957367	0.961243
434	20    	0.959014	0.00153508	0.957367	0.961243
435	20    	0.959014	0.00153508	0.957367	0.961243
436	20    	0.959014	0.00153508	0.957367	0.961243
437	20    	0.959014	0.00153508	0.957367	0.961243
438	20    	0.959014	0.00153508	0.957367	0.961243
439	20    	0.959014	0.00153508	0.957367	0.961243
440	20    	0.959014	0.00153508	0.957367	0.961243
441	20    	0.959014	0.00153508	0.957367	0.961243
442	20    	0.959014	0.00153508	0.957367	0.961243
443	20    	0.959111	0.0014885 	0.957367	0.961243
444	20    	0.959111	0.0014885 	0.957367	0.961243
445	20    	0.959111	0.0014885 	0.957367	0.961243
446	20    	0.959111	0.0014885 	0.957367	0.961243
447	20    	0.959111	0.0014885 	0.957367	0.961243
448	20    	0.959111	0.0014885 	0.957367	0.961243
449	20    	0.959111	0.0014885 	0.957367	0.961243
450	20    	0.959111	0.0014885 	0.957367	0.961243
451	20    	0.959499	0.00192815	0.957367	0.965118
452	20    	0.959499	0.00192815	0.957367	0.965118
453	20    	0.959499	0.00192815	0.957367	0.965118
454	20    	0.959499	0.00192815	0.957367	0.965118
455	20    	0.959499	0.00192815	0.957367	0.965118
456	20    	0.959499	0.00192815	0.957367	0.965118
457	20    	0.959595	0.0018663 	0.957367	0.965118
458	20    	0.959595	0.0018663 	0.957367	0.965118
459	20    	0.959595	0.0018663 	0.957367	0.965118
460	20    	0.959595	0.0018663 	0.957367	0.965118
461	20    	0.959595	0.0018663 	0.957367	0.965118
462	20    	0.959595	0.0018663 	0.957367	0.965118
463	20    	0.959595	0.0018663 	0.957367	0.965118
464	20    	0.959595	0.0018663 	0.957367	0.965118
465	20    	0.959595	0.0018663 	0.957367	0.965118
466	20    	0.959595	0.0018663 	0.957367	0.965118
467	20    	0.959595	0.0018663 	0.957367	0.965118
468	20    	0.96008 	0.00240483	0.957367	0.967056
469	20    	0.960274	0.0023335 	0.957367	0.967056
470	20    	0.960274	0.0023335 	0.957367	0.967056
471	20    	0.960274	0.0023335 	0.957367	0.967056
472	20    	0.960371	0.00224951	0.957367	0.967056
473	20    	0.960371	0.00224951	0.957367	0.967056
474	20    	0.960371	0.00224951	0.957367	0.967056
475	20    	0.960371	0.00224951	0.957367	0.967056
476	20    	0.960371	0.00224951	0.957367	0.967056
477	20    	0.960371	0.00224951	0.957367	0.967056
478	20    	0.960371	0.00224951	0.957367	0.967056
479	20    	0.960371	0.00224951	0.957367	0.967056
480	20    	0.960564	0.00214701	0.957367	0.967056
481	20    	0.960564	0.00214701	0.957367	0.967056
482	20    	0.960564	0.00214701	0.957367	0.967056
483	20    	0.960564	0.00214701	0.957367	0.967056
484	20    	0.960564	0.00214701	0.957367	0.967056
485	20    	0.960564	0.00214701	0.957367	0.967056
486	20    	0.960564	0.00214701	0.957367	0.967056
487	20    	0.960564	0.00214701	0.957367	0.967056
488	20    	0.960855	0.00208715	0.959305	0.967056
489	20    	0.960855	0.00208715	0.959305	0.967056
490	20    	0.960855	0.00208715	0.959305	0.967056
491	20    	0.961049	0.00211396	0.959305	0.967056
492	20    	0.961049	0.00211396	0.959305	0.967056
493	20    	0.961049	0.00211396	0.959305	0.967056
494	20    	0.961049	0.00211396	0.959305	0.967056
495	20    	0.961049	0.00211396	0.959305	0.967056
496	20    	0.961049	0.00211396	0.959305	0.967056
497	20    	0.961049	0.00211396	0.959305	0.967056
498	20    	0.961049	0.00211396	0.959305	0.967056
499	20    	0.961049	0.00211396	0.959305	0.967056
