gen	nevals	avg     	std        	min     	max     
0  	20    	0.873006	0.00578276 	0.859161	0.881317
1  	20    	0.881467	0.00438405 	0.875549	0.89061 
2  	20    	0.88457 	0.00319486 	0.880875	0.89061 
3  	20    	0.885786	0.00253776 	0.882202	0.89061 
4  	20    	0.886362	0.00218312 	0.88353 	0.89061 
5  	20    	0.886826	0.00216545 	0.883972	0.89061 
6  	20    	0.888065	0.00288096 	0.8853  	0.896805
7  	20    	0.889437	0.00313297 	0.886185	0.896805
8  	20    	0.890743	0.00325688 	0.887512	0.89859 
9  	20    	0.890876	0.00316012 	0.887512	0.89859 
10 	20    	0.891938	0.00287294 	0.888397	0.89859 
11 	20    	0.893465	0.00245131 	0.890167	0.89859 
12 	20    	0.894261	0.00223108 	0.891052	0.89859 
13 	20    	0.894637	0.00201914 	0.891937	0.89859 
14 	20    	0.89539 	0.00217821 	0.89238 	0.901245
15 	20    	0.895435	0.00212493 	0.892822	0.901245
16 	20    	0.895589	0.00197175 	0.893265	0.901245
17 	20    	0.895877	0.00180034 	0.893707	0.901245
18 	20    	0.896831	0.00165806 	0.895035	0.901245
19 	20    	0.896897	0.00161073 	0.895035	0.901245
20 	20    	0.897296	0.00169032 	0.895035	0.901245
21 	20    	0.898605	0.00222975 	0.89592 	0.903458
22 	20    	0.899647	0.00225042 	0.896805	0.9039  
23 	20    	0.900291	0.0022913  	0.897247	0.905228
24 	20    	0.900823	0.0021539  	0.89769 	0.905228
25 	20    	0.901555	0.00210876 	0.89859 	0.905228
26 	20    	0.901975	0.00191495 	0.899033	0.905228
27 	20    	0.902905	0.00220754 	0.899918	0.90921 
28 	20    	0.902971	0.00213552 	0.899918	0.90921 
29 	20    	0.903281	0.00188468 	0.900803	0.90921 
30 	20    	0.903834	0.00184198 	0.901688	0.90921 
31 	20    	0.9039  	0.00178654 	0.901688	0.90921 
32 	20    	0.903944	0.00174158 	0.90213 	0.90921 
33 	20    	0.904077	0.00165215 	0.90213 	0.90921 
34 	20    	0.904077	0.00165215 	0.90213 	0.90921 
35 	20    	0.904077	0.00165215 	0.90213 	0.90921 
36 	20    	0.904144	0.00158609 	0.902573	0.90921 
37 	20    	0.904232	0.00154481 	0.902573	0.90921 
38 	20    	0.904232	0.00154481 	0.902573	0.90921 
39 	20    	0.904232	0.00154481 	0.902573	0.90921 
40 	20    	0.904475	0.00149472 	0.903015	0.90921 
41 	20    	0.904475	0.00149472 	0.903015	0.90921 
42 	20    	0.904807	0.00142343 	0.903015	0.90921 
43 	20    	0.905073	0.00155366 	0.903458	0.90921 
44 	20    	0.905161	0.0015089  	0.903458	0.90921 
45 	20    	0.905161	0.0015089  	0.903458	0.90921 
46 	20    	0.905316	0.00148487 	0.903458	0.90921 
47 	20    	0.905316	0.00148487 	0.903458	0.90921 
48 	20    	0.905316	0.00148487 	0.903458	0.90921 
49 	20    	0.90536 	0.00144137 	0.9039  	0.90921 
50 	20    	0.90618 	0.00332705 	0.9039  	0.919403
51 	20    	0.90618 	0.00332705 	0.9039  	0.919403
52 	20    	0.906467	0.00325957 	0.9039  	0.919403
53 	20    	0.906512	0.0032303  	0.904343	0.919403
54 	20    	0.906711	0.00321316 	0.904343	0.919403
55 	20    	0.906711	0.00321316 	0.904343	0.919403
56 	20    	0.906711	0.00321316 	0.904343	0.919403
57 	20    	0.906799	0.00317081 	0.904343	0.919403
58 	20    	0.906799	0.00317081 	0.904343	0.919403
59 	20    	0.906799	0.00317081 	0.904343	0.919403
60 	20    	0.906976	0.00312724 	0.904785	0.919403
61 	20    	0.907087	0.00308664 	0.904785	0.919403
62 	20    	0.907131	0.00305955 	0.904785	0.919403
63 	20    	0.907131	0.00305955 	0.904785	0.919403
64 	20    	0.90722 	0.00301569 	0.905228	0.919403
65 	20    	0.907375	0.00294926 	0.905228	0.919403
66 	20    	0.907375	0.00294926 	0.905228	0.919403
67 	20    	0.907375	0.00294926 	0.905228	0.919403
68 	20    	0.907507	0.00290912 	0.90567 	0.919403
69 	20    	0.907507	0.00290912 	0.90567 	0.919403
70 	20    	0.907507	0.00290912 	0.90567 	0.919403
71 	20    	0.907618	0.00287906 	0.90567 	0.919403
72 	20    	0.907795	0.00286265 	0.90567 	0.919403
73 	20    	0.907972	0.00283511 	0.906113	0.919403
74 	20    	0.907994	0.00282221 	0.906113	0.919403
75 	20    	0.908237	0.00285911 	0.906113	0.919403
76 	20    	0.90837 	0.00281872 	0.906113	0.919403
77 	20    	0.908614	0.00282343 	0.906113	0.919403
78 	20    	0.908835	0.00279198 	0.906555	0.919403
79 	20    	0.909145	0.0028646  	0.906555	0.919403
80 	20    	0.909189	0.00283089 	0.906555	0.919403
81 	20    	0.909476	0.00284091 	0.906555	0.919403
82 	20    	0.910075	0.00337251 	0.906998	0.919403
83 	20    	0.910075	0.00337251 	0.906998	0.919403
84 	20    	0.910119	0.00333747 	0.906998	0.919403
85 	20    	0.910119	0.00333747 	0.906998	0.919403
86 	20    	0.910141	0.00331812 	0.90744 	0.919403
87 	20    	0.910252	0.00326265 	0.90744 	0.919403
88 	20    	0.910517	0.00316566 	0.907883	0.919403
89 	20    	0.910694	0.00305797 	0.907883	0.919403
90 	20    	0.910694	0.00305797 	0.907883	0.919403
91 	20    	0.910694	0.00305797 	0.907883	0.919403
92 	20    	0.910805	0.00298049 	0.908325	0.919403
93 	20    	0.911115	0.00294963 	0.908768	0.919403
94 	20    	0.911247	0.00290035 	0.908768	0.919403
95 	20    	0.911557	0.00280652 	0.90921 	0.919403
96 	20    	0.911557	0.00280652 	0.90921 	0.919403
97 	20    	0.911601	0.00277598 	0.90921 	0.919403
98 	20    	0.911601	0.00277598 	0.90921 	0.919403
99 	20    	0.911601	0.00277598 	0.90921 	0.919403
100	20    	0.912133	0.00290121 	0.90921 	0.919403
101	20    	0.912332	0.00282956 	0.90921 	0.919403
102	20    	0.912354	0.0028067  	0.90921 	0.919403
103	20    	0.912443	0.00273311 	0.909653	0.919403
104	20    	0.912443	0.00273311 	0.909653	0.919403
105	20    	0.912708	0.00256203 	0.910095	0.919403
106	20    	0.912753	0.00252388 	0.910538	0.919403
107	20    	0.912885	0.00247321 	0.91098 	0.919403
108	20    	0.913062	0.00239255 	0.91098 	0.919403
109	20    	0.913062	0.00239255 	0.91098 	0.919403
110	20    	0.913129	0.00235194 	0.91098 	0.919403
111	20    	0.913306	0.00231654 	0.91098 	0.919403
112	20    	0.913328	0.00229624 	0.91098 	0.919403
113	20    	0.913394	0.00224606 	0.911423	0.919403
114	20    	0.913394	0.00224606 	0.911423	0.919403
115	20    	0.913394	0.00224606 	0.911423	0.919403
116	20    	0.913483	0.00220106 	0.911423	0.919403
117	20    	0.913483	0.00220106 	0.911423	0.919403
118	20    	0.913638	0.00211342 	0.911865	0.919403
119	20    	0.913638	0.00211342 	0.911865	0.919403
120	20    	0.913726	0.00207404 	0.911865	0.919403
121	20    	0.913726	0.00207404 	0.911865	0.919403
122	20    	0.913726	0.00207404 	0.911865	0.919403
123	20    	0.913726	0.00207404 	0.911865	0.919403
124	20    	0.913815	0.00203005 	0.912308	0.919403
125	20    	0.913837	0.00201587 	0.912308	0.919403
126	20    	0.914169	0.00226912 	0.912308	0.919403
127	20    	0.914258	0.00222895 	0.912308	0.919403
128	20    	0.914258	0.00222895 	0.912308	0.919403
129	20    	0.914258	0.00222895 	0.912308	0.919403
130	20    	0.914501	0.00211629 	0.91275 	0.919403
131	20    	0.914501	0.00211629 	0.91275 	0.919403
132	20    	0.91459 	0.00207788 	0.91275 	0.919403
133	20    	0.91459 	0.00207788 	0.91275 	0.919403
134	20    	0.914612	0.00206046 	0.91275 	0.919403
135	20    	0.914767	0.00203091 	0.91275 	0.919403
136	20    	0.914833	0.0019851  	0.913193	0.919403
137	20    	0.914833	0.0019851  	0.913193	0.919403
138	20    	0.914877	0.00195772 	0.913193	0.919403
139	20    	0.914877	0.00195772 	0.913193	0.919403
140	20    	0.914877	0.00195772 	0.913193	0.919403
141	20    	0.914877	0.00195772 	0.913193	0.919403
142	20    	0.914877	0.00195772 	0.913193	0.919403
143	20    	0.914877	0.00195772 	0.913193	0.919403
144	20    	0.914877	0.00195772 	0.913193	0.919403
145	20    	0.915121	0.00191589 	0.913193	0.919403
146	20    	0.915121	0.00191589 	0.913193	0.919403
147	20    	0.915188	0.00187037 	0.913193	0.919403
148	20    	0.915409	0.00174254 	0.913635	0.919403
149	20    	0.915409	0.00174254 	0.913635	0.919403
150	20    	0.915498	0.00169449 	0.913635	0.919403
151	20    	0.915764	0.00169493 	0.914078	0.919403
152	20    	0.915764	0.00169493 	0.914078	0.919403
153	20    	0.915764	0.00169493 	0.914078	0.919403
154	20    	0.915764	0.00169493 	0.914078	0.919403
155	20    	0.915764	0.00169493 	0.914078	0.919403
156	20    	0.915808	0.00166156 	0.914078	0.919403
157	20    	0.91583 	0.00164119 	0.91452 	0.919403
158	20    	0.91583 	0.00164119 	0.91452 	0.919403
159	20    	0.915964	0.0016378  	0.91452 	0.919403
160	20    	0.915964	0.0016378  	0.91452 	0.919403
161	20    	0.915986	0.00162106 	0.91452 	0.919403
162	20    	0.916142	0.0016223  	0.91452 	0.919403
163	20    	0.916253	0.00158317 	0.91452 	0.919403
164	20    	0.916431	0.00157824 	0.91452 	0.919403
165	20    	0.916431	0.00157824 	0.91452 	0.919403
166	20    	0.916431	0.00157824 	0.91452 	0.919403
167	20    	0.916431	0.00157824 	0.91452 	0.919403
168	20    	0.916431	0.00157824 	0.91452 	0.919403
169	20    	0.916431	0.00157824 	0.91452 	0.919403
170	20    	0.916497	0.00152346 	0.91452 	0.919403
171	20    	0.916497	0.00152346 	0.91452 	0.919403
172	20    	0.916563	0.00146363 	0.91452 	0.919403
173	20    	0.916563	0.00146363 	0.91452 	0.919403
174	20    	0.916741	0.00141994 	0.914963	0.919403
175	20    	0.916741	0.00141994 	0.914963	0.919403
176	20    	0.916741	0.00141994 	0.914963	0.919403
177	20    	0.916741	0.00141994 	0.914963	0.919403
178	20    	0.916741	0.00141994 	0.914963	0.919403
179	20    	0.916741	0.00141994 	0.914963	0.919403
180	20    	0.916763	0.00139529 	0.914963	0.919403
181	20    	0.916763	0.00139529 	0.914963	0.919403
182	20    	0.916763	0.00139529 	0.914963	0.919403
183	20    	0.91683 	0.00133848 	0.914963	0.919403
184	20    	0.91683 	0.00133848 	0.914963	0.919403
185	20    	0.917052	0.00137807 	0.914963	0.919403
186	20    	0.917052	0.00137807 	0.914963	0.919403
187	20    	0.917052	0.00137807 	0.914963	0.919403
188	20    	0.917052	0.00137807 	0.914963	0.919403
189	20    	0.917052	0.00137807 	0.914963	0.919403
190	20    	0.917052	0.00137807 	0.914963	0.919403
191	20    	0.917052	0.00137807 	0.914963	0.919403
192	20    	0.917052	0.00137807 	0.914963	0.919403
193	20    	0.917163	0.00129207 	0.915405	0.919403
194	20    	0.917163	0.00129207 	0.915405	0.919403
195	20    	0.917163	0.00129207 	0.915405	0.919403
196	20    	0.917207	0.00124543 	0.915405	0.919403
197	20    	0.917207	0.00124543 	0.915405	0.919403
198	20    	0.917207	0.00124543 	0.915405	0.919403
199	20    	0.917207	0.00124543 	0.915405	0.919403
200	20    	0.917207	0.00124543 	0.915405	0.919403
201	20    	0.917207	0.00124543 	0.915405	0.919403
202	20    	0.917207	0.00124543 	0.915405	0.919403
203	20    	0.917207	0.00124543 	0.915405	0.919403
204	20    	0.917207	0.00124543 	0.915405	0.919403
205	20    	0.917207	0.00124543 	0.915405	0.919403
206	20    	0.917207	0.00124543 	0.915405	0.919403
207	20    	0.917207	0.00124543 	0.915405	0.919403
208	20    	0.917229	0.00121682 	0.915405	0.919403
209	20    	0.917229	0.00121682 	0.915405	0.919403
210	20    	0.917496	0.00136245 	0.915848	0.920731
211	20    	0.917496	0.00136245 	0.915848	0.920731
212	20    	0.917496	0.00136245 	0.915848	0.920731
213	20    	0.917608	0.00126678 	0.915848	0.920731
214	20    	0.917608	0.00126678 	0.915848	0.920731
215	20    	0.917653	0.00121851 	0.915848	0.920731
216	20    	0.91772 	0.0011524  	0.91629 	0.920731
217	20    	0.917942	0.0012766  	0.91629 	0.920731
218	20    	0.917942	0.0012766  	0.91629 	0.920731
219	20    	0.917942	0.0012766  	0.91629 	0.920731
220	20    	0.917942	0.0012766  	0.91629 	0.920731
221	20    	0.917942	0.0012766  	0.91629 	0.920731
222	20    	0.918009	0.00122211 	0.916748	0.920731
223	20    	0.918009	0.00122211 	0.916748	0.920731
224	20    	0.918098	0.00119128 	0.916748	0.920731
225	20    	0.918098	0.00119128 	0.916748	0.920731
226	20    	0.918098	0.00119128 	0.916748	0.920731
227	20    	0.918098	0.00119128 	0.916748	0.920731
228	20    	0.918098	0.00119128 	0.916748	0.920731
229	20    	0.918098	0.00119128 	0.916748	0.920731
230	20    	0.91823 	0.00118137 	0.916748	0.920731
231	20    	0.91823 	0.00118137 	0.916748	0.920731
232	20    	0.91823 	0.00118137 	0.916748	0.920731
233	20    	0.91823 	0.00118137 	0.916748	0.920731
234	20    	0.91823 	0.00118137 	0.916748	0.920731
235	20    	0.91823 	0.00118137 	0.916748	0.920731
236	20    	0.918297	0.0011325  	0.916748	0.920731
237	20    	0.918297	0.0011325  	0.916748	0.920731
238	20    	0.918297	0.0011325  	0.916748	0.920731
239	20    	0.918297	0.0011325  	0.916748	0.920731
240	20    	0.918297	0.0011325  	0.916748	0.920731
241	20    	0.918385	0.00107575 	0.917191	0.920731
242	20    	0.918385	0.00107575 	0.917191	0.920731
243	20    	0.918385	0.00107575 	0.917191	0.920731
244	20    	0.918385	0.00107575 	0.917191	0.920731
245	20    	0.918385	0.00107575 	0.917191	0.920731
246	20    	0.918385	0.00107575 	0.917191	0.920731
247	20    	0.918385	0.00107575 	0.917191	0.920731
248	20    	0.918385	0.00107575 	0.917191	0.920731
249	20    	0.918385	0.00107575 	0.917191	0.920731
250	20    	0.918385	0.00107575 	0.917191	0.920731
251	20    	0.918385	0.00107575 	0.917191	0.920731
252	20    	0.91843 	0.00104341 	0.917191	0.920731
253	20    	0.91843 	0.00104341 	0.917191	0.920731
254	20    	0.91843 	0.00104341 	0.917191	0.920731
255	20    	0.91843 	0.00104341 	0.917191	0.920731
256	20    	0.91843 	0.00104341 	0.917191	0.920731
257	20    	0.918518	0.00100907 	0.917191	0.920731
258	20    	0.918518	0.00100907 	0.917191	0.920731
259	20    	0.918629	0.000978276	0.917191	0.920731
260	20    	0.918629	0.000978276	0.917191	0.920731
261	20    	0.918629	0.000978276	0.917191	0.920731
262	20    	0.918629	0.000978276	0.917191	0.920731
263	20    	0.918629	0.000978276	0.917191	0.920731
264	20    	0.918629	0.000978276	0.917191	0.920731
265	20    	0.918695	0.000921856	0.917191	0.920731
266	20    	0.918695	0.000921856	0.917191	0.920731
267	20    	0.918695	0.000921856	0.917191	0.920731
268	20    	0.918695	0.000921856	0.917191	0.920731
269	20    	0.918695	0.000921856	0.917191	0.920731
270	20    	0.918695	0.000921856	0.917191	0.920731
271	20    	0.918695	0.000921856	0.917191	0.920731
272	20    	0.918695	0.000921856	0.917191	0.920731
273	20    	0.918695	0.000921856	0.917191	0.920731
274	20    	0.918695	0.000921856	0.917191	0.920731
275	20    	0.918695	0.000921856	0.917191	0.920731
276	20    	0.918695	0.000921856	0.917191	0.920731
277	20    	0.918695	0.000921856	0.917191	0.920731
278	20    	0.918695	0.000921856	0.917191	0.920731
279	20    	0.918739	0.000868257	0.917633	0.920731
280	20    	0.918894	0.000931102	0.917633	0.920731
281	20    	0.918894	0.000931102	0.917633	0.920731
282	20    	0.918894	0.000931102	0.917633	0.920731
283	20    	0.918894	0.000931102	0.917633	0.920731
284	20    	0.918894	0.000931102	0.917633	0.920731
285	20    	0.918894	0.000931102	0.917633	0.920731
286	20    	0.918894	0.000931102	0.917633	0.920731
287	20    	0.918894	0.000931102	0.917633	0.920731
288	20    	0.918894	0.000931102	0.917633	0.920731
289	20    	0.918894	0.000931102	0.917633	0.920731
290	20    	0.918983	0.000890249	0.918076	0.920731
291	20    	0.918983	0.000890249	0.918076	0.920731
292	20    	0.918983	0.000890249	0.918076	0.920731
293	20    	0.918983	0.000890249	0.918076	0.920731
294	20    	0.919182	0.00108842 	0.918076	0.922058
295	20    	0.919182	0.00108842 	0.918076	0.922058
296	20    	0.919182	0.00108842 	0.918076	0.922058
297	20    	0.919182	0.00108842 	0.918076	0.922058
298	20    	0.919182	0.00108842 	0.918076	0.922058
299	20    	0.919182	0.00108842 	0.918076	0.922058
300	20    	0.919182	0.00108842 	0.918076	0.922058
301	20    	0.919182	0.00108842 	0.918076	0.922058
302	20    	0.919182	0.00108842 	0.918076	0.922058
303	20    	0.919182	0.00108842 	0.918076	0.922058
304	20    	0.919182	0.00108842 	0.918076	0.922058
305	20    	0.919182	0.00108842 	0.918076	0.922058
306	20    	0.919182	0.00108842 	0.918076	0.922058
307	20    	0.919182	0.00108842 	0.918076	0.922058
308	20    	0.919182	0.00108842 	0.918076	0.922058
309	20    	0.919182	0.00108842 	0.918076	0.922058
310	20    	0.919182	0.00108842 	0.918076	0.922058
311	20    	0.919182	0.00108842 	0.918076	0.922058
312	20    	0.919182	0.00108842 	0.918076	0.922058
313	20    	0.919182	0.00108842 	0.918076	0.922058
314	20    	0.919182	0.00108842 	0.918076	0.922058
315	20    	0.919182	0.00108842 	0.918076	0.922058
316	20    	0.919182	0.00108842 	0.918076	0.922058
317	20    	0.919182	0.00108842 	0.918076	0.922058
318	20    	0.919182	0.00108842 	0.918076	0.922058
319	20    	0.919182	0.00108842 	0.918076	0.922058
320	20    	0.919182	0.00108842 	0.918076	0.922058
321	20    	0.919182	0.00108842 	0.918076	0.922058
322	20    	0.919182	0.00108842 	0.918076	0.922058
323	20    	0.919182	0.00108842 	0.918076	0.922058
324	20    	0.919182	0.00108842 	0.918076	0.922058
325	20    	0.919182	0.00108842 	0.918076	0.922058
326	20    	0.919182	0.00108842 	0.918076	0.922058
327	20    	0.919182	0.00108842 	0.918076	0.922058
328	20    	0.919182	0.00108842 	0.918076	0.922058
329	20    	0.919248	0.00105901 	0.918076	0.922058
330	20    	0.919248	0.00105901 	0.918076	0.922058
331	20    	0.919248	0.00105901 	0.918076	0.922058
332	20    	0.919248	0.00105901 	0.918076	0.922058
333	20    	0.919248	0.00105901 	0.918076	0.922058
334	20    	0.919248	0.00105901 	0.918076	0.922058
335	20    	0.919248	0.00105901 	0.918076	0.922058
336	20    	0.919248	0.00105901 	0.918076	0.922058
337	20    	0.919248	0.00105901 	0.918076	0.922058
338	20    	0.919248	0.00105901 	0.918076	0.922058
339	20    	0.919248	0.00105901 	0.918076	0.922058
340	20    	0.919359	0.00104622 	0.918076	0.922058
341	20    	0.919359	0.00104622 	0.918076	0.922058
342	20    	0.919359	0.00104622 	0.918076	0.922058
343	20    	0.919359	0.00104622 	0.918076	0.922058
344	20    	0.919359	0.00104622 	0.918076	0.922058
345	20    	0.919359	0.00104622 	0.918076	0.922058
346	20    	0.919359	0.00104622 	0.918076	0.922058
347	20    	0.919359	0.00104622 	0.918076	0.922058
348	20    	0.919558	0.00115624 	0.918076	0.922058
349	20    	0.919558	0.00115624 	0.918076	0.922058
350	20    	0.919558	0.00115624 	0.918076	0.922058
351	20    	0.919558	0.00115624 	0.918076	0.922058
352	20    	0.919558	0.00115624 	0.918076	0.922058
353	20    	0.919558	0.00115624 	0.918076	0.922058
354	20    	0.919558	0.00115624 	0.918076	0.922058
355	20    	0.919558	0.00115624 	0.918076	0.922058
356	20    	0.919558	0.00115624 	0.918076	0.922058
357	20    	0.919558	0.00115624 	0.918076	0.922058
358	20    	0.919558	0.00115624 	0.918076	0.922058
359	20    	0.919558	0.00115624 	0.918076	0.922058
360	20    	0.919558	0.00115624 	0.918076	0.922058
361	20    	0.919558	0.00115624 	0.918076	0.922058
362	20    	0.919558	0.00115624 	0.918076	0.922058
363	20    	0.919558	0.00115624 	0.918076	0.922058
364	20    	0.919558	0.00115624 	0.918076	0.922058
365	20    	0.919558	0.00115624 	0.918076	0.922058
366	20    	0.919558	0.00115624 	0.918076	0.922058
367	20    	0.919558	0.00115624 	0.918076	0.922058
368	20    	0.919558	0.00115624 	0.918076	0.922058
369	20    	0.919624	0.00110626 	0.918076	0.922058
370	20    	0.919624	0.00110626 	0.918076	0.922058
371	20    	0.919624	0.00110626 	0.918076	0.922058
372	20    	0.919624	0.00110626 	0.918076	0.922058
373	20    	0.919624	0.00110626 	0.918076	0.922058
374	20    	0.919624	0.00110626 	0.918076	0.922058
375	20    	0.919624	0.00110626 	0.918076	0.922058
376	20    	0.919624	0.00110626 	0.918076	0.922058
377	20    	0.919624	0.00110626 	0.918076	0.922058
378	20    	0.919624	0.00110626 	0.918076	0.922058
379	20    	0.919624	0.00110626 	0.918076	0.922058
380	20    	0.919624	0.00110626 	0.918076	0.922058
381	20    	0.919624	0.00110626 	0.918076	0.922058
382	20    	0.919624	0.00110626 	0.918076	0.922058
383	20    	0.919624	0.00110626 	0.918076	0.922058
384	20    	0.919624	0.00110626 	0.918076	0.922058
385	20    	0.919669	0.00106017 	0.918518	0.922058
386	20    	0.919669	0.00106017 	0.918518	0.922058
387	20    	0.919669	0.00106017 	0.918518	0.922058
388	20    	0.919669	0.00106017 	0.918518	0.922058
389	20    	0.919669	0.00106017 	0.918518	0.922058
390	20    	0.919669	0.00106017 	0.918518	0.922058
391	20    	0.919669	0.00106017 	0.918518	0.922058
392	20    	0.919669	0.00106017 	0.918518	0.922058
393	20    	0.919669	0.00106017 	0.918518	0.922058
394	20    	0.919669	0.00106017 	0.918518	0.922058
395	20    	0.919669	0.00106017 	0.918518	0.922058
396	20    	0.919669	0.00106017 	0.918518	0.922058
397	20    	0.919669	0.00106017 	0.918518	0.922058
398	20    	0.919669	0.00106017 	0.918518	0.922058
399	20    	0.919669	0.00106017 	0.918518	0.922058
400	20    	0.919669	0.00106017 	0.918518	0.922058
401	20    	0.919669	0.00106017 	0.918518	0.922058
402	20    	0.919669	0.00106017 	0.918518	0.922058
403	20    	0.919669	0.00106017 	0.918518	0.922058
404	20    	0.919669	0.00106017 	0.918518	0.922058
405	20    	0.919669	0.00106017 	0.918518	0.922058
406	20    	0.919669	0.00106017 	0.918518	0.922058
407	20    	0.919669	0.00106017 	0.918518	0.922058
408	20    	0.919669	0.00106017 	0.918518	0.922058
409	20    	0.919669	0.00106017 	0.918518	0.922058
410	20    	0.919669	0.00106017 	0.918518	0.922058
411	20    	0.919669	0.00106017 	0.918518	0.922058
412	20    	0.919669	0.00106017 	0.918518	0.922058
413	20    	0.919669	0.00106017 	0.918518	0.922058
414	20    	0.919669	0.00106017 	0.918518	0.922058
415	20    	0.919669	0.00106017 	0.918518	0.922058
416	20    	0.919669	0.00106017 	0.918518	0.922058
417	20    	0.919669	0.00106017 	0.918518	0.922058
418	20    	0.919669	0.00106017 	0.918518	0.922058
419	20    	0.919669	0.00106017 	0.918518	0.922058
420	20    	0.919735	0.0010271  	0.918518	0.922058
421	20    	0.919735	0.0010271  	0.918518	0.922058
422	20    	0.919735	0.0010271  	0.918518	0.922058
423	20    	0.919735	0.0010271  	0.918518	0.922058
424	20    	0.919735	0.0010271  	0.918518	0.922058
425	20    	0.919735	0.0010271  	0.918518	0.922058
426	20    	0.919735	0.0010271  	0.918518	0.922058
427	20    	0.919735	0.0010271  	0.918518	0.922058
428	20    	0.919735	0.0010271  	0.918518	0.922058
429	20    	0.919735	0.0010271  	0.918518	0.922058
430	20    	0.919735	0.0010271  	0.918518	0.922058
431	20    	0.919735	0.0010271  	0.918518	0.922058
432	20    	0.919735	0.0010271  	0.918518	0.922058
433	20    	0.919735	0.0010271  	0.918518	0.922058
434	20    	0.919735	0.0010271  	0.918518	0.922058
435	20    	0.919735	0.0010271  	0.918518	0.922058
436	20    	0.919735	0.0010271  	0.918518	0.922058
437	20    	0.919735	0.0010271  	0.918518	0.922058
438	20    	0.919735	0.0010271  	0.918518	0.922058
439	20    	0.919757	0.00100518 	0.918518	0.922058
440	20    	0.919757	0.00100518 	0.918518	0.922058
441	20    	0.919757	0.00100518 	0.918518	0.922058
442	20    	0.919757	0.00100518 	0.918518	0.922058
443	20    	0.919757	0.00100518 	0.918518	0.922058
444	20    	0.919757	0.00100518 	0.918518	0.922058
445	20    	0.919757	0.00100518 	0.918518	0.922058
446	20    	0.919757	0.00100518 	0.918518	0.922058
447	20    	0.919912	0.00104036 	0.918518	0.922058
448	20    	0.919978	0.00099046 	0.918961	0.922058
449	20    	0.919978	0.00099046 	0.918961	0.922058
450	20    	0.919978	0.00099046 	0.918961	0.922058
451	20    	0.919978	0.00099046 	0.918961	0.922058
452	20    	0.919978	0.00099046 	0.918961	0.922058
453	20    	0.919978	0.00099046 	0.918961	0.922058
454	20    	0.919978	0.00099046 	0.918961	0.922058
455	20    	0.919978	0.00099046 	0.918961	0.922058
456	20    	0.920045	0.000964163	0.918961	0.922058
457	20    	0.920045	0.000964163	0.918961	0.922058
458	20    	0.920045	0.000964163	0.918961	0.922058
459	20    	0.920045	0.000964163	0.918961	0.922058
460	20    	0.920045	0.000964163	0.918961	0.922058
461	20    	0.920045	0.000964163	0.918961	0.922058
462	20    	0.920045	0.000964163	0.918961	0.922058
463	20    	0.920045	0.000964163	0.918961	0.922058
464	20    	0.920089	0.000933203	0.918961	0.922058
465	20    	0.920089	0.000933203	0.918961	0.922058
466	20    	0.920089	0.000933203	0.918961	0.922058
467	20    	0.920089	0.000933203	0.918961	0.922058
468	20    	0.920089	0.000933203	0.918961	0.922058
469	20    	0.920089	0.000933203	0.918961	0.922058
470	20    	0.920089	0.000933203	0.918961	0.922058
471	20    	0.920089	0.000933203	0.918961	0.922058
472	20    	0.920089	0.000933203	0.918961	0.922058
473	20    	0.920089	0.000933203	0.918961	0.922058
474	20    	0.920089	0.000933203	0.918961	0.922058
475	20    	0.920089	0.000933203	0.918961	0.922058
476	20    	0.920089	0.000933203	0.918961	0.922058
477	20    	0.920089	0.000933203	0.918961	0.922058
478	20    	0.920089	0.000933203	0.918961	0.922058
479	20    	0.920089	0.000933203	0.918961	0.922058
480	20    	0.920089	0.000933203	0.918961	0.922058
481	20    	0.920089	0.000933203	0.918961	0.922058
482	20    	0.920089	0.000933203	0.918961	0.922058
483	20    	0.920089	0.000933203	0.918961	0.922058
484	20    	0.920089	0.000933203	0.918961	0.922058
485	20    	0.920089	0.000933203	0.918961	0.922058
486	20    	0.920089	0.000933203	0.918961	0.922058
487	20    	0.920089	0.000933203	0.918961	0.922058
488	20    	0.920089	0.000933203	0.918961	0.922058
489	20    	0.920089	0.000933203	0.918961	0.922058
490	20    	0.920089	0.000933203	0.918961	0.922058
491	20    	0.920089	0.000933203	0.918961	0.922058
492	20    	0.920089	0.000933203	0.918961	0.922058
493	20    	0.920089	0.000933203	0.918961	0.922058
494	20    	0.920089	0.000933203	0.918961	0.922058
495	20    	0.920089	0.000933203	0.918961	0.922058
496	20    	0.920089	0.000933203	0.918961	0.922058
497	20    	0.920089	0.000933203	0.918961	0.922058
498	20    	0.920089	0.000933203	0.918961	0.922058
499	20    	0.920089	0.000933203	0.918961	0.922058
