gen	nevals	avg     	std       	min     	max     
0  	20    	0.876666	0.0256216 	0.820297	0.91304 
1  	20    	0.891595	0.011385  	0.875366	0.91304 
2  	20    	0.901157	0.0102825 	0.886963	0.933334
3  	20    	0.906807	0.0100545 	0.895645	0.933334
4  	20    	0.911156	0.0100126 	0.898544	0.933334
5  	20    	0.91391 	0.0087984 	0.904343	0.933334
6  	20    	0.915794	0.00747486	0.907242	0.933334
7  	20    	0.921013	0.00726964	0.910141	0.933334
8  	20    	0.922462	0.00614152	0.91304 	0.933334
9  	20    	0.923332	0.00522454	0.915939	0.933334
10 	20    	0.925362	0.0069746 	0.918839	0.94783 
11 	20    	0.927101	0.00630361	0.921738	0.94783 
12 	20    	0.929565	0.0071074 	0.921738	0.94783 
13 	20    	0.932175	0.00741417	0.924637	0.94783 
14 	20    	0.933479	0.00688972	0.927536	0.94783 
15 	20    	0.934059	0.00653922	0.927536	0.94783 
16 	20    	0.936523	0.00607444	0.930435	0.94783 
17 	20    	0.937248	0.00567194	0.930435	0.94783 
18 	20    	0.937973	0.00568119	0.930435	0.94783 
19 	20    	0.938843	0.00579109	0.933334	0.94783 
20 	20    	0.941017	0.00581824	0.933334	0.950729
21 	20    	0.941017	0.00581824	0.933334	0.950729
22 	20    	0.943771	0.00424112	0.936234	0.950729
23 	20    	0.944206	0.00387612	0.939133	0.950729
24 	20    	0.944351	0.00373532	0.939133	0.950729
25 	20    	0.945221	0.00302682	0.939133	0.950729
26 	20    	0.945366	0.0027921 	0.939133	0.950729
27 	20    	0.945366	0.0027921 	0.939133	0.950729
28 	20    	0.945511	0.00252744	0.942032	0.950729
29 	20    	0.945511	0.00252744	0.942032	0.950729
30 	20    	0.945511	0.00252744	0.942032	0.950729
31 	20    	0.945511	0.00252744	0.942032	0.950729
32 	20    	0.946091	0.00295658	0.942032	0.953629
33 	20    	0.946236	0.00282204	0.942032	0.953629
34 	20    	0.946381	0.0026729 	0.942032	0.953629
35 	20    	0.94725 	0.00373532	0.942032	0.959427
36 	20    	0.94725 	0.00373532	0.942032	0.959427
37 	20    	0.947975	0.00372123	0.944931	0.959427
38 	20    	0.94812 	0.00365571	0.944931	0.959427
39 	20    	0.94812 	0.00365571	0.944931	0.959427
40 	20    	0.94812 	0.00365571	0.944931	0.959427
41 	20    	0.94812 	0.00365571	0.944931	0.959427
42 	20    	0.94841 	0.00362106	0.944931	0.959427
43 	20    	0.9487  	0.00356256	0.944931	0.959427
44 	20    	0.9487  	0.00356256	0.944931	0.959427
45 	20    	0.949715	0.00334034	0.944931	0.959427
46 	20    	0.950005	0.0031593 	0.944931	0.959427
47 	20    	0.95015 	0.00298488	0.94783 	0.959427
48 	20    	0.95015 	0.00298488	0.94783 	0.959427
49 	20    	0.95015 	0.00298488	0.94783 	0.959427
50 	20    	0.95015 	0.00298488	0.94783 	0.959427
51 	20    	0.95015 	0.00298488	0.94783 	0.959427
52 	20    	0.95015 	0.00298488	0.94783 	0.959427
53 	20    	0.950439	0.00302682	0.94783 	0.959427
54 	20    	0.950729	0.00304068	0.94783 	0.959427
55 	20    	0.950729	0.00304068	0.94783 	0.959427
56 	20    	0.950729	0.00304068	0.94783 	0.959427
57 	20    	0.950729	0.00304068	0.94783 	0.959427
58 	20    	0.950729	0.00304068	0.94783 	0.959427
59 	20    	0.950729	0.00304068	0.94783 	0.959427
60 	20    	0.950729	0.00304068	0.94783 	0.959427
61 	20    	0.951019	0.00302682	0.94783 	0.959427
62 	20    	0.951019	0.00302682	0.94783 	0.959427
63 	20    	0.951019	0.00302682	0.94783 	0.959427
64 	20    	0.951164	0.00293876	0.94783 	0.959427
65 	20    	0.951309	0.00284059	0.94783 	0.959427
66 	20    	0.951309	0.00284059	0.94783 	0.959427
67 	20    	0.951309	0.00284059	0.94783 	0.959427
68 	20    	0.951309	0.00284059	0.94783 	0.959427
69 	20    	0.951309	0.00284059	0.94783 	0.959427
70 	20    	0.951309	0.00284059	0.94783 	0.959427
71 	20    	0.951309	0.00284059	0.94783 	0.959427
72 	20    	0.951454	0.00273123	0.94783 	0.959427
73 	20    	0.951744	0.00263729	0.94783 	0.959427
74 	20    	0.951744	0.00263729	0.94783 	0.959427
75 	20    	0.951744	0.00263729	0.94783 	0.959427
76 	20    	0.951744	0.00263729	0.94783 	0.959427
77 	20    	0.951744	0.00263729	0.94783 	0.959427
78 	20    	0.952759	0.00318909	0.94783 	0.962326
79 	20    	0.953049	0.00298488	0.950729	0.962326
80 	20    	0.953194	0.00293876	0.950729	0.962326
81 	20    	0.953194	0.00293876	0.950729	0.962326
82 	20    	0.953629	0.00317588	0.950729	0.962326
83 	20    	0.953629	0.00317588	0.950729	0.962326
84 	20    	0.954787	0.00433674	0.950729	0.968109
85 	20    	0.955077	0.00424868	0.950729	0.968109
86 	20    	0.955657	0.0044042 	0.950729	0.968109
87 	20    	0.955657	0.0044042 	0.950729	0.968109
88 	20    	0.955802	0.00428574	0.950729	0.968109
89 	20    	0.955802	0.00428574	0.950729	0.968109
90 	20    	0.955802	0.00428574	0.950729	0.968109
91 	20    	0.955802	0.00428574	0.950729	0.968109
92 	20    	0.956092	0.00412591	0.950729	0.968109
93 	20    	0.956092	0.00412591	0.950729	0.968109
94 	20    	0.956092	0.00412591	0.950729	0.968109
95 	20    	0.956092	0.00412591	0.950729	0.968109
96 	20    	0.956092	0.00412591	0.950729	0.968109
97 	20    	0.956962	0.00412607	0.953629	0.968109
98 	20    	0.957686	0.00433592	0.953629	0.968109
99 	20    	0.957831	0.00424537	0.953629	0.968109
100	20    	0.957831	0.00424537	0.953629	0.968109
101	20    	0.957831	0.00424537	0.953629	0.968109
102	20    	0.957831	0.00424537	0.953629	0.968109
103	20    	0.957976	0.00414778	0.953629	0.968109
104	20    	0.957976	0.00414778	0.953629	0.968109
105	20    	0.957976	0.00414778	0.953629	0.968109
106	20    	0.958411	0.00391603	0.953629	0.968109
107	20    	0.958556	0.00378789	0.953629	0.968109
108	20    	0.958556	0.00378789	0.953629	0.968109
109	20    	0.958556	0.00378789	0.953629	0.968109
110	20    	0.958846	0.00349967	0.953629	0.968109
111	20    	0.958846	0.00349967	0.953629	0.968109
112	20    	0.958846	0.00349967	0.953629	0.968109
113	20    	0.958846	0.00349967	0.953629	0.968109
114	20    	0.958846	0.00349967	0.953629	0.968109
115	20    	0.95899 	0.00333683	0.956528	0.968109
116	20    	0.95899 	0.00333683	0.956528	0.968109
117	20    	0.95899 	0.00333683	0.956528	0.968109
118	20    	0.95899 	0.00333683	0.956528	0.968109
119	20    	0.95899 	0.00333683	0.956528	0.968109
120	20    	0.95899 	0.00333683	0.956528	0.968109
121	20    	0.95957 	0.00382797	0.956528	0.968109
122	20    	0.95957 	0.00382797	0.956528	0.968109
123	20    	0.95957 	0.00382797	0.956528	0.968109
124	20    	0.95957 	0.00382797	0.956528	0.968109
125	20    	0.959715	0.0037644 	0.956528	0.968109
126	20    	0.960294	0.00367437	0.956528	0.968109
127	20    	0.960294	0.00367437	0.956528	0.968109
128	20    	0.960294	0.00367437	0.956528	0.968109
129	20    	0.960294	0.00367437	0.956528	0.968109
130	20    	0.960294	0.00367437	0.956528	0.968109
131	20    	0.960439	0.00357886	0.956528	0.968109
132	20    	0.960584	0.00347468	0.956528	0.968109
133	20    	0.961163	0.00370763	0.956528	0.968109
134	20    	0.961887	0.00333455	0.956528	0.968109
135	20    	0.962177	0.00309976	0.959427	0.968109
136	20    	0.962177	0.00309976	0.959427	0.968109
137	20    	0.962466	0.00309944	0.959427	0.968109
138	20    	0.962466	0.00309944	0.959427	0.968109
139	20    	0.962466	0.00309944	0.959427	0.968109
140	20    	0.962466	0.00309944	0.959427	0.968109
141	20    	0.962466	0.00309944	0.959427	0.968109
142	20    	0.962466	0.00309944	0.959427	0.968109
143	20    	0.962466	0.00309944	0.959427	0.968109
144	20    	0.962466	0.00309944	0.959427	0.968109
145	20    	0.962466	0.00309944	0.959427	0.968109
146	20    	0.962756	0.00307202	0.959427	0.968109
147	20    	0.96348 	0.00381802	0.959427	0.973907
148	20    	0.96348 	0.00381802	0.959427	0.973907
149	20    	0.96348 	0.00381802	0.959427	0.973907
150	20    	0.96348 	0.00381802	0.959427	0.973907
151	20    	0.96348 	0.00381802	0.959427	0.973907
152	20    	0.96348 	0.00381802	0.959427	0.973907
153	20    	0.963625	0.00371505	0.959427	0.973907
154	20    	0.964059	0.00370644	0.959427	0.973907
155	20    	0.964783	0.00412198	0.959427	0.973907
156	20    	0.965072	0.00393471	0.959427	0.973907
157	20    	0.965072	0.00393471	0.959427	0.973907
158	20    	0.965217	0.00377421	0.959427	0.973907
159	20    	0.965217	0.00377421	0.959427	0.973907
160	20    	0.965217	0.00377421	0.959427	0.973907
161	20    	0.965941	0.00397751	0.962326	0.973907
162	20    	0.965941	0.00397751	0.962326	0.973907
163	20    	0.966085	0.00389528	0.962326	0.973907
164	20    	0.966229	0.00380581	0.962326	0.973907
165	20    	0.966229	0.00380581	0.962326	0.973907
166	20    	0.966229	0.00380581	0.962326	0.973907
167	20    	0.966518	0.00360297	0.962326	0.973907
168	20    	0.966518	0.00360297	0.962326	0.973907
169	20    	0.966951	0.00335393	0.962326	0.973907
170	20    	0.967385	0.00328846	0.962326	0.973907
171	20    	0.967385	0.00328846	0.962326	0.973907
172	20    	0.967385	0.00328846	0.962326	0.973907
173	20    	0.967529	0.0031225 	0.96521 	0.973907
174	20    	0.967529	0.0031225 	0.96521 	0.973907
175	20    	0.967529	0.0031225 	0.96521 	0.973907
176	20    	0.967529	0.0031225 	0.96521 	0.973907
177	20    	0.967529	0.0031225 	0.96521 	0.973907
178	20    	0.967819	0.00316262	0.96521 	0.973907
179	20    	0.967819	0.00316262	0.96521 	0.973907
180	20    	0.967819	0.00316262	0.96521 	0.973907
181	20    	0.967819	0.00316262	0.96521 	0.973907
182	20    	0.967819	0.00316262	0.96521 	0.973907
183	20    	0.967819	0.00316262	0.96521 	0.973907
184	20    	0.968109	0.00304068	0.96521 	0.973907
185	20    	0.968399	0.00302682	0.96521 	0.973907
186	20    	0.968399	0.00302682	0.96521 	0.973907
187	20    	0.968399	0.00302682	0.96521 	0.973907
188	20    	0.968399	0.00302682	0.96521 	0.973907
189	20    	0.968834	0.0031593 	0.96521 	0.973907
190	20    	0.968834	0.0031593 	0.96521 	0.973907
191	20    	0.968834	0.0031593 	0.96521 	0.973907
192	20    	0.968834	0.0031593 	0.96521 	0.973907
193	20    	0.968979	0.00305447	0.96521 	0.973907
194	20    	0.968979	0.00305447	0.96521 	0.973907
195	20    	0.968979	0.00305447	0.96521 	0.973907
196	20    	0.969559	0.00282576	0.96521 	0.973907
197	20    	0.969559	0.00282576	0.96521 	0.973907
198	20    	0.969559	0.00282576	0.96521 	0.973907
199	20    	0.969994	0.00247281	0.96521 	0.973907
200	20    	0.970139	0.00226432	0.968109	0.973907
201	20    	0.970139	0.00226432	0.968109	0.973907
202	20    	0.970284	0.00222217	0.968109	0.973907
203	20    	0.970284	0.00222217	0.968109	0.973907
204	20    	0.970284	0.00222217	0.968109	0.973907
205	20    	0.970284	0.00222217	0.968109	0.973907
206	20    	0.970284	0.00222217	0.968109	0.973907
207	20    	0.970284	0.00222217	0.968109	0.973907
208	20    	0.970284	0.00222217	0.968109	0.973907
209	20    	0.970284	0.00222217	0.968109	0.973907
210	20    	0.970284	0.00222217	0.968109	0.973907
211	20    	0.970284	0.00222217	0.968109	0.973907
212	20    	0.970284	0.00222217	0.968109	0.973907
213	20    	0.970573	0.00229657	0.968109	0.973907
214	20    	0.970573	0.00229657	0.968109	0.973907
215	20    	0.970573	0.00229657	0.968109	0.973907
216	20    	0.970573	0.00229657	0.968109	0.973907
217	20    	0.970573	0.00229657	0.968109	0.973907
218	20    	0.970573	0.00229657	0.968109	0.973907
219	20    	0.970573	0.00229657	0.968109	0.973907
220	20    	0.970573	0.00229657	0.968109	0.973907
221	20    	0.970718	0.00222689	0.968109	0.973907
222	20    	0.970718	0.00222689	0.968109	0.973907
223	20    	0.971298	0.00288464	0.968109	0.979706
224	20    	0.971298	0.00288464	0.968109	0.979706
225	20    	0.971298	0.00288464	0.968109	0.979706
226	20    	0.971298	0.00288464	0.968109	0.979706
227	20    	0.971298	0.00288464	0.968109	0.979706
228	20    	0.971298	0.00288464	0.968109	0.979706
229	20    	0.971588	0.00284059	0.968109	0.979706
230	20    	0.971588	0.00284059	0.968109	0.979706
231	20    	0.971733	0.00273123	0.968109	0.979706
232	20    	0.971733	0.00273123	0.968109	0.979706
233	20    	0.971733	0.00273123	0.968109	0.979706
234	20    	0.971733	0.00273123	0.968109	0.979706
235	20    	0.971733	0.00273123	0.968109	0.979706
236	20    	0.971878	0.00260925	0.968109	0.979706
237	20    	0.971878	0.00260925	0.968109	0.979706
238	20    	0.971878	0.00260925	0.968109	0.979706
239	20    	0.971878	0.00260925	0.968109	0.979706
240	20    	0.971878	0.00260925	0.968109	0.979706
241	20    	0.972603	0.00250657	0.968109	0.979706
242	20    	0.972603	0.00250657	0.968109	0.979706
243	20    	0.972603	0.00250657	0.968109	0.979706
244	20    	0.972893	0.00229657	0.971008	0.979706
245	20    	0.972893	0.00229657	0.971008	0.979706
246	20    	0.972893	0.00229657	0.971008	0.979706
247	20    	0.972893	0.00229657	0.971008	0.979706
248	20    	0.972893	0.00229657	0.971008	0.979706
249	20    	0.973038	0.00226432	0.971008	0.979706
250	20    	0.973038	0.00226432	0.971008	0.979706
251	20    	0.973038	0.00226432	0.971008	0.979706
252	20    	0.973183	0.00222217	0.971008	0.979706
253	20    	0.973183	0.00222217	0.971008	0.979706
254	20    	0.973183	0.00222217	0.971008	0.979706
255	20    	0.973183	0.00222217	0.971008	0.979706
256	20    	0.973183	0.00222217	0.971008	0.979706
257	20    	0.973183	0.00222217	0.971008	0.979706
258	20    	0.973183	0.00222217	0.971008	0.979706
259	20    	0.973328	0.00216954	0.971008	0.979706
260	20    	0.973328	0.00216954	0.971008	0.979706
261	20    	0.973328	0.00216954	0.971008	0.979706
262	20    	0.973328	0.00216954	0.971008	0.979706
263	20    	0.973328	0.00216954	0.971008	0.979706
264	20    	0.973328	0.00216954	0.971008	0.979706
265	20    	0.973328	0.00216954	0.971008	0.979706
266	20    	0.973763	0.00250657	0.971008	0.979706
267	20    	0.974342	0.00247281	0.971008	0.979706
268	20    	0.974342	0.00247281	0.971008	0.979706
269	20    	0.974342	0.00247281	0.971008	0.979706
270	20    	0.974487	0.0023553 	0.971008	0.979706
271	20    	0.974487	0.0023553 	0.971008	0.979706
272	20    	0.974487	0.0023553 	0.971008	0.979706
273	20    	0.974487	0.0023553 	0.971008	0.979706
274	20    	0.974487	0.0023553 	0.971008	0.979706
275	20    	0.974487	0.0023553 	0.971008	0.979706
276	20    	0.974777	0.00226432	0.971008	0.979706
277	20    	0.974922	0.00210564	0.971008	0.979706
278	20    	0.975067	0.00192309	0.973907	0.979706
279	20    	0.975067	0.00192309	0.973907	0.979706
280	20    	0.975067	0.00192309	0.973907	0.979706
281	20    	0.975067	0.00192309	0.973907	0.979706
282	20    	0.975067	0.00192309	0.973907	0.979706
283	20    	0.975067	0.00192309	0.973907	0.979706
284	20    	0.975067	0.00192309	0.973907	0.979706
285	20    	0.975067	0.00192309	0.973907	0.979706
286	20    	0.975067	0.00192309	0.973907	0.979706
287	20    	0.975067	0.00192309	0.973907	0.979706
288	20    	0.975357	0.00215008	0.973907	0.979706
289	20    	0.975357	0.00215008	0.973907	0.979706
290	20    	0.975357	0.00215008	0.973907	0.979706
291	20    	0.975357	0.00215008	0.973907	0.979706
292	20    	0.975647	0.00213045	0.973907	0.979706
293	20    	0.975647	0.00213045	0.973907	0.979706
294	20    	0.975647	0.00213045	0.973907	0.979706
295	20    	0.975647	0.00213045	0.973907	0.979706
296	20    	0.975647	0.00213045	0.973907	0.979706
297	20    	0.975647	0.00213045	0.973907	0.979706
298	20    	0.975647	0.00213045	0.973907	0.979706
299	20    	0.975647	0.00213045	0.973907	0.979706
300	20    	0.975647	0.00213045	0.973907	0.979706
301	20    	0.975647	0.00213045	0.973907	0.979706
302	20    	0.975647	0.00213045	0.973907	0.979706
303	20    	0.975647	0.00213045	0.973907	0.979706
304	20    	0.975937	0.00226432	0.973907	0.979706
305	20    	0.976082	0.00222217	0.973907	0.979706
306	20    	0.976082	0.00222217	0.973907	0.979706
307	20    	0.976082	0.00222217	0.973907	0.979706
308	20    	0.976082	0.00222217	0.973907	0.979706
309	20    	0.976227	0.00216954	0.973907	0.979706
310	20    	0.976227	0.00216954	0.973907	0.979706
311	20    	0.976227	0.00216954	0.973907	0.979706
312	20    	0.976227	0.00216954	0.973907	0.979706
313	20    	0.976517	0.00222689	0.973907	0.979706
314	20    	0.976517	0.00222689	0.973907	0.979706
315	20    	0.976517	0.00222689	0.973907	0.979706
316	20    	0.976517	0.00222689	0.973907	0.979706
317	20    	0.976517	0.00222689	0.973907	0.979706
318	20    	0.976517	0.00222689	0.973907	0.979706
319	20    	0.976517	0.00222689	0.973907	0.979706
320	20    	0.976662	0.00214519	0.973907	0.979706
321	20    	0.976662	0.00214519	0.973907	0.979706
322	20    	0.976662	0.00214519	0.973907	0.979706
323	20    	0.976662	0.00214519	0.973907	0.979706
324	20    	0.976662	0.00214519	0.973907	0.979706
325	20    	0.976662	0.00214519	0.973907	0.979706
326	20    	0.976662	0.00214519	0.973907	0.979706
327	20    	0.976662	0.00214519	0.973907	0.979706
328	20    	0.976662	0.00214519	0.973907	0.979706
329	20    	0.977242	0.0027921 	0.973907	0.985504
330	20    	0.977242	0.0027921 	0.973907	0.985504
331	20    	0.977242	0.0027921 	0.973907	0.985504
332	20    	0.977242	0.0027921 	0.973907	0.985504
333	20    	0.977242	0.0027921 	0.973907	0.985504
334	20    	0.977242	0.0027921 	0.973907	0.985504
335	20    	0.977242	0.0027921 	0.973907	0.985504
336	20    	0.977242	0.0027921 	0.973907	0.985504
337	20    	0.977242	0.0027921 	0.973907	0.985504
338	20    	0.977242	0.0027921 	0.973907	0.985504
339	20    	0.977242	0.0027921 	0.973907	0.985504
340	20    	0.977242	0.0027921 	0.973907	0.985504
341	20    	0.977386	0.00268858	0.973907	0.985504
342	20    	0.977386	0.00268858	0.973907	0.985504
343	20    	0.977386	0.00268858	0.973907	0.985504
344	20    	0.977386	0.00268858	0.973907	0.985504
345	20    	0.977386	0.00268858	0.973907	0.985504
346	20    	0.977386	0.00268858	0.973907	0.985504
347	20    	0.977531	0.00257276	0.973907	0.985504
348	20    	0.977531	0.00257276	0.973907	0.985504
349	20    	0.977676	0.00244288	0.973907	0.985504
350	20    	0.977676	0.00244288	0.973907	0.985504
351	20    	0.977676	0.00244288	0.973907	0.985504
352	20    	0.977676	0.00244288	0.973907	0.985504
353	20    	0.977676	0.00244288	0.973907	0.985504
354	20    	0.977676	0.00244288	0.973907	0.985504
355	20    	0.977676	0.00244288	0.973907	0.985504
356	20    	0.977676	0.00244288	0.973907	0.985504
357	20    	0.977676	0.00244288	0.973907	0.985504
358	20    	0.977676	0.00244288	0.973907	0.985504
359	20    	0.977676	0.00244288	0.973907	0.985504
360	20    	0.977676	0.00244288	0.973907	0.985504
361	20    	0.977676	0.00244288	0.973907	0.985504
362	20    	0.977676	0.00244288	0.973907	0.985504
363	20    	0.977676	0.00244288	0.973907	0.985504
364	20    	0.977676	0.00244288	0.973907	0.985504
365	20    	0.977966	0.00231934	0.973907	0.985504
366	20    	0.977966	0.00231934	0.973907	0.985504
367	20    	0.977966	0.00231934	0.973907	0.985504
368	20    	0.977966	0.00231934	0.973907	0.985504
369	20    	0.977966	0.00231934	0.973907	0.985504
370	20    	0.977966	0.00231934	0.973907	0.985504
371	20    	0.978111	0.00214519	0.976807	0.985504
372	20    	0.978111	0.00214519	0.976807	0.985504
373	20    	0.978256	0.00215008	0.976807	0.985504
374	20    	0.978256	0.00215008	0.976807	0.985504
375	20    	0.978256	0.00215008	0.976807	0.985504
376	20    	0.978401	0.00214519	0.976807	0.985504
377	20    	0.978691	0.00229657	0.976807	0.985504
378	20    	0.978691	0.00229657	0.976807	0.985504
379	20    	0.978691	0.00229657	0.976807	0.985504
380	20    	0.978691	0.00229657	0.976807	0.985504
381	20    	0.978691	0.00229657	0.976807	0.985504
382	20    	0.979271	0.00307845	0.976807	0.988403
383	20    	0.979271	0.00307845	0.976807	0.988403
384	20    	0.979271	0.00307845	0.976807	0.988403
385	20    	0.979271	0.00307845	0.976807	0.988403
386	20    	0.979271	0.00307845	0.976807	0.988403
387	20    	0.979561	0.00310563	0.976807	0.988403
388	20    	0.979561	0.00310563	0.976807	0.988403
389	20    	0.979561	0.00310563	0.976807	0.988403
390	20    	0.979561	0.00310563	0.976807	0.988403
391	20    	0.979561	0.00310563	0.976807	0.988403
392	20    	0.979561	0.00310563	0.976807	0.988403
393	20    	0.979561	0.00310563	0.976807	0.988403
394	20    	0.979561	0.00310563	0.976807	0.988403
395	20    	0.979561	0.00310563	0.976807	0.988403
396	20    	0.979561	0.00310563	0.976807	0.988403
397	20    	0.979561	0.00310563	0.976807	0.988403
398	20    	0.979706	0.00304068	0.976807	0.988403
399	20    	0.979706	0.00304068	0.976807	0.988403
400	20    	0.979706	0.00304068	0.976807	0.988403
401	20    	0.979706	0.00304068	0.976807	0.988403
402	20    	0.979996	0.00302682	0.976807	0.988403
403	20    	0.979996	0.00302682	0.976807	0.988403
404	20    	0.979996	0.00302682	0.976807	0.988403
405	20    	0.980141	0.00293876	0.976807	0.988403
406	20    	0.980286	0.00284059	0.976807	0.988403
407	20    	0.980286	0.00284059	0.976807	0.988403
408	20    	0.980865	0.00322838	0.976807	0.988403
409	20    	0.980865	0.00322838	0.976807	0.988403
410	20    	0.980865	0.00322838	0.976807	0.988403
411	20    	0.980865	0.00322838	0.976807	0.988403
412	20    	0.98101 	0.00310563	0.976807	0.988403
413	20    	0.9813  	0.00282204	0.979706	0.988403
414	20    	0.9813  	0.00282204	0.979706	0.988403
415	20    	0.9813  	0.00282204	0.979706	0.988403
416	20    	0.9813  	0.00282204	0.979706	0.988403
417	20    	0.9813  	0.00282204	0.979706	0.988403
418	20    	0.9813  	0.00282204	0.979706	0.988403
419	20    	0.9813  	0.00282204	0.979706	0.988403
420	20    	0.9813  	0.00282204	0.979706	0.988403
421	20    	0.9813  	0.00282204	0.979706	0.988403
422	20    	0.9813  	0.00282204	0.979706	0.988403
423	20    	0.9813  	0.00282204	0.979706	0.988403
424	20    	0.9813  	0.00282204	0.979706	0.988403
425	20    	0.9813  	0.00282204	0.979706	0.988403
426	20    	0.98159 	0.00293876	0.979706	0.988403
427	20    	0.98188 	0.00302335	0.979706	0.988403
428	20    	0.98188 	0.00302335	0.979706	0.988403
429	20    	0.98188 	0.00302335	0.979706	0.988403
430	20    	0.98188 	0.00302335	0.979706	0.988403
431	20    	0.98188 	0.00302335	0.979706	0.988403
432	20    	0.98188 	0.00302335	0.979706	0.988403
433	20    	0.98188 	0.00302335	0.979706	0.988403
434	20    	0.98188 	0.00302335	0.979706	0.988403
435	20    	0.98188 	0.00302335	0.979706	0.988403
436	20    	0.98188 	0.00302335	0.979706	0.988403
437	20    	0.98188 	0.00302335	0.979706	0.988403
438	20    	0.98188 	0.00302335	0.979706	0.988403
439	20    	0.98188 	0.00302335	0.979706	0.988403
440	20    	0.98188 	0.00302335	0.979706	0.988403
441	20    	0.98188 	0.00302335	0.979706	0.988403
442	20    	0.98188 	0.00302335	0.979706	0.988403
443	20    	0.98188 	0.00302335	0.979706	0.988403
444	20    	0.98188 	0.00302335	0.979706	0.988403
445	20    	0.98188 	0.00302335	0.979706	0.988403
446	20    	0.98188 	0.00302335	0.979706	0.988403
447	20    	0.98188 	0.00302335	0.979706	0.988403
448	20    	0.98188 	0.00302335	0.979706	0.988403
449	20    	0.98217 	0.00307845	0.979706	0.988403
450	20    	0.98217 	0.00307845	0.979706	0.988403
451	20    	0.98217 	0.00307845	0.979706	0.988403
452	20    	0.98217 	0.00307845	0.979706	0.988403
453	20    	0.98217 	0.00307845	0.979706	0.988403
454	20    	0.98217 	0.00307845	0.979706	0.988403
455	20    	0.98217 	0.00307845	0.979706	0.988403
456	20    	0.98217 	0.00307845	0.979706	0.988403
457	20    	0.98217 	0.00307845	0.979706	0.988403
458	20    	0.98217 	0.00307845	0.979706	0.988403
459	20    	0.98217 	0.00307845	0.979706	0.988403
460	20    	0.98217 	0.00307845	0.979706	0.988403
461	20    	0.98217 	0.00307845	0.979706	0.988403
462	20    	0.98217 	0.00307845	0.979706	0.988403
463	20    	0.98217 	0.00307845	0.979706	0.988403
464	20    	0.98217 	0.00307845	0.979706	0.988403
465	20    	0.98217 	0.00307845	0.979706	0.988403
466	20    	0.982605	0.00330556	0.979706	0.988403
467	20    	0.983185	0.00338098	0.979706	0.988403
468	20    	0.983185	0.00338098	0.979706	0.988403
469	20    	0.983185	0.00338098	0.979706	0.988403
470	20    	0.983185	0.00338098	0.979706	0.988403
471	20    	0.983185	0.00338098	0.979706	0.988403
472	20    	0.983185	0.00338098	0.979706	0.988403
473	20    	0.983185	0.00338098	0.979706	0.988403
474	20    	0.983185	0.00338098	0.979706	0.988403
475	20    	0.983185	0.00338098	0.979706	0.988403
476	20    	0.983185	0.00338098	0.979706	0.988403
477	20    	0.983185	0.00338098	0.979706	0.988403
478	20    	0.983185	0.00338098	0.979706	0.988403
479	20    	0.983185	0.00338098	0.979706	0.988403
480	20    	0.983185	0.00338098	0.979706	0.988403
481	20    	0.983185	0.00338098	0.979706	0.988403
482	20    	0.983185	0.00338098	0.979706	0.988403
483	20    	0.983185	0.00338098	0.979706	0.988403
484	20    	0.983185	0.00338098	0.979706	0.988403
485	20    	0.983185	0.00338098	0.979706	0.988403
486	20    	0.983185	0.00338098	0.979706	0.988403
487	20    	0.983185	0.00338098	0.979706	0.988403
488	20    	0.983185	0.00338098	0.979706	0.988403
489	20    	0.983185	0.00338098	0.979706	0.988403
490	20    	0.983185	0.00338098	0.979706	0.988403
491	20    	0.983185	0.00338098	0.979706	0.988403
492	20    	0.983475	0.00331825	0.979706	0.988403
493	20    	0.983475	0.00331825	0.979706	0.988403
494	20    	0.983475	0.00331825	0.979706	0.988403
495	20    	0.983475	0.00331825	0.979706	0.988403
496	20    	0.983475	0.00331825	0.979706	0.988403
497	20    	0.983475	0.00331825	0.979706	0.988403
498	20    	0.983475	0.00331825	0.979706	0.988403
499	20    	0.98362 	0.00321207	0.979706	0.988403
