gen	nevals	avg     	std       	min     	max     
0  	20    	0.872953	0.0108181 	0.848816	0.889038
1  	20    	0.884466	0.0061565 	0.877945	0.900131
2  	20    	0.889251	0.0063266 	0.882111	0.902908
3  	20    	0.893826	0.00610085	0.886276	0.908463
4  	20    	0.898544	0.00515718	0.891815	0.91124 
5  	20    	0.899722	0.00470455	0.894592	0.91124 
6  	20    	0.902635	0.00467489	0.895981	0.91124 
7  	20    	0.904575	0.00457289	0.898758	0.916779
8  	20    	0.908321	0.00588511	0.902908	0.926498
9  	20    	0.911375	0.00634069	0.904297	0.926498
10 	20    	0.912832	0.00557019	0.907074	0.926498
11 	20    	0.914426	0.00515395	0.908463	0.926498
12 	20    	0.91706 	0.00467553	0.91124 	0.926498
13 	20    	0.918584	0.00372724	0.912628	0.926498
14 	20    	0.91907 	0.0035476 	0.914001	0.926498
15 	20    	0.920527	0.00359529	0.91539 	0.927872
16 	20    	0.921152	0.00332156	0.916779	0.927872
17 	20    	0.921429	0.0030807 	0.916779	0.927872
18 	20    	0.921915	0.00270866	0.918167	0.927872
19 	20    	0.92254 	0.00317151	0.918167	0.930649
20 	20    	0.922678	0.00303489	0.919556	0.930649
21 	20    	0.923303	0.00284587	0.919556	0.930649
22 	20    	0.923512	0.00271332	0.920944	0.930649
23 	20    	0.92365 	0.00264868	0.920944	0.930649
24 	20    	0.92365 	0.00264868	0.920944	0.930649
25 	20    	0.923789	0.00257494	0.920944	0.930649
26 	20    	0.923997	0.00242566	0.920944	0.930649
27 	20    	0.924483	0.0022561 	0.922333	0.930649
28 	20    	0.92476 	0.0023143 	0.922333	0.930649
29 	20    	0.92476 	0.0023143 	0.922333	0.930649
30 	20    	0.92476 	0.0023143 	0.922333	0.930649
31 	20    	0.92476 	0.0023143 	0.922333	0.930649
32 	20    	0.925037	0.00233851	0.922333	0.930649
33 	20    	0.925523	0.0023224 	0.922333	0.930649
34 	20    	0.925869	0.00233737	0.922333	0.930649
35 	20    	0.926147	0.00204776	0.923721	0.930649
36 	20    	0.926147	0.00204776	0.923721	0.930649
37 	20    	0.926147	0.00204776	0.923721	0.930649
38 	20    	0.926355	0.00190306	0.923721	0.930649
39 	20    	0.926355	0.00190306	0.923721	0.930649
40 	20    	0.926355	0.00190306	0.923721	0.930649
41 	20    	0.92691 	0.00255838	0.923721	0.934814
42 	20    	0.927534	0.00315688	0.923721	0.936203
43 	20    	0.92788 	0.0030991 	0.92511 	0.936203
44 	20    	0.928088	0.00304514	0.92511 	0.936203
45 	20    	0.928157	0.00299182	0.92511 	0.936203
46 	20    	0.928157	0.00299182	0.92511 	0.936203
47 	20    	0.928157	0.00299182	0.92511 	0.936203
48 	20    	0.928226	0.00293589	0.92511 	0.936203
49 	20    	0.928435	0.00275082	0.926498	0.936203
50 	20    	0.928435	0.00275082	0.926498	0.936203
51 	20    	0.928435	0.00275082	0.926498	0.936203
52 	20    	0.928712	0.00281989	0.926498	0.936203
53 	20    	0.928712	0.00281989	0.926498	0.936203
54 	20    	0.928989	0.00286062	0.926498	0.936203
55 	20    	0.928989	0.00286062	0.926498	0.936203
56 	20    	0.928989	0.00286062	0.926498	0.936203
57 	20    	0.930028	0.00430657	0.926498	0.944519
58 	20    	0.930305	0.00424841	0.926498	0.944519
59 	20    	0.931136	0.00425854	0.926498	0.944519
60 	20    	0.931621	0.00402338	0.926498	0.944519
61 	20    	0.932592	0.00405555	0.927872	0.944519
62 	20    	0.933563	0.00453626	0.92926 	0.944519
63 	20    	0.93398 	0.00450441	0.92926 	0.944519
64 	20    	0.93398 	0.00450441	0.92926 	0.944519
65 	20    	0.934119	0.00439833	0.92926 	0.944519
66 	20    	0.934327	0.00425978	0.92926 	0.944519
67 	20    	0.934466	0.00413582	0.92926 	0.944519
68 	20    	0.934466	0.00413582	0.92926 	0.944519
69 	20    	0.935229	0.0040223 	0.930649	0.944519
70 	20    	0.935229	0.0040223 	0.930649	0.944519
71 	20    	0.935368	0.00390811	0.930649	0.944519
72 	20    	0.935645	0.00375736	0.932037	0.944519
73 	20    	0.935645	0.00375736	0.932037	0.944519
74 	20    	0.935784	0.0036718 	0.932037	0.944519
75 	20    	0.936062	0.00350542	0.932037	0.944519
76 	20    	0.936062	0.00350542	0.932037	0.944519
77 	20    	0.936062	0.00350542	0.932037	0.944519
78 	20    	0.936131	0.00343813	0.932037	0.944519
79 	20    	0.936131	0.00343813	0.932037	0.944519
80 	20    	0.936547	0.00342069	0.933426	0.944519
81 	20    	0.936547	0.00342069	0.933426	0.944519
82 	20    	0.936547	0.00342069	0.933426	0.944519
83 	20    	0.936617	0.00337036	0.933426	0.944519
84 	20    	0.936617	0.00337036	0.933426	0.944519
85 	20    	0.936963	0.00338062	0.933426	0.944519
86 	20    	0.937379	0.00343105	0.933426	0.944519
87 	20    	0.937448	0.00336376	0.933426	0.944519
88 	20    	0.938072	0.0031985 	0.934814	0.944519
89 	20    	0.938072	0.0031985 	0.934814	0.944519
90 	20    	0.938072	0.0031985 	0.934814	0.944519
91 	20    	0.938072	0.0031985 	0.934814	0.944519
92 	20    	0.938072	0.0031985 	0.934814	0.944519
93 	20    	0.938072	0.0031985 	0.934814	0.944519
94 	20    	0.938072	0.0031985 	0.934814	0.944519
95 	20    	0.938072	0.0031985 	0.934814	0.944519
96 	20    	0.938072	0.0031985 	0.934814	0.944519
97 	20    	0.938142	0.0031416 	0.934814	0.944519
98 	20    	0.938142	0.0031416 	0.934814	0.944519
99 	20    	0.938627	0.00333381	0.934814	0.944519
100	20    	0.939182	0.00322814	0.934814	0.944519
101	20    	0.939251	0.0031474 	0.934814	0.944519
102	20    	0.939459	0.00294779	0.936203	0.944519
103	20    	0.939459	0.00294779	0.936203	0.944519
104	20    	0.939529	0.00288598	0.936203	0.944519
105	20    	0.939668	0.00278777	0.936203	0.944519
106	20    	0.939668	0.00278777	0.936203	0.944519
107	20    	0.939668	0.00278777	0.936203	0.944519
108	20    	0.939806	0.00267878	0.936203	0.944519
109	20    	0.940153	0.00263802	0.936203	0.944519
110	20    	0.940292	0.00249572	0.937592	0.944519
111	20    	0.940361	0.0024383 	0.937592	0.944519
112	20    	0.940361	0.0024383 	0.937592	0.944519
113	20    	0.940361	0.0024383 	0.937592	0.944519
114	20    	0.940846	0.00278049	0.937592	0.947296
115	20    	0.940846	0.00278049	0.937592	0.947296
116	20    	0.941193	0.00278496	0.937592	0.947296
117	20    	0.941193	0.00278496	0.937592	0.947296
118	20    	0.941193	0.00278496	0.937592	0.947296
119	20    	0.941193	0.00278496	0.937592	0.947296
120	20    	0.941193	0.00278496	0.937592	0.947296
121	20    	0.941193	0.00278496	0.937592	0.947296
122	20    	0.941193	0.00278496	0.937592	0.947296
123	20    	0.941193	0.00278496	0.937592	0.947296
124	20    	0.941193	0.00278496	0.937592	0.947296
125	20    	0.941539	0.00274607	0.937592	0.947296
126	20    	0.941539	0.00274607	0.937592	0.947296
127	20    	0.941539	0.00274607	0.937592	0.947296
128	20    	0.941539	0.00274607	0.937592	0.947296
129	20    	0.941539	0.00274607	0.937592	0.947296
130	20    	0.941539	0.00274607	0.937592	0.947296
131	20    	0.941539	0.00274607	0.937592	0.947296
132	20    	0.941677	0.00261017	0.937592	0.947296
133	20    	0.941815	0.00245905	0.93898 	0.947296
134	20    	0.941815	0.00245905	0.93898 	0.947296
135	20    	0.941815	0.00245905	0.93898 	0.947296
136	20    	0.941815	0.00245905	0.93898 	0.947296
137	20    	0.941884	0.00239733	0.93898 	0.947296
138	20    	0.942161	0.00236561	0.93898 	0.947296
139	20    	0.942161	0.00236561	0.93898 	0.947296
140	20    	0.942161	0.00236561	0.93898 	0.947296
141	20    	0.942161	0.00236561	0.93898 	0.947296
142	20    	0.942161	0.00236561	0.93898 	0.947296
143	20    	0.942161	0.00236561	0.93898 	0.947296
144	20    	0.942161	0.00236561	0.93898 	0.947296
145	20    	0.942161	0.00236561	0.93898 	0.947296
146	20    	0.942161	0.00236561	0.93898 	0.947296
147	20    	0.942161	0.00236561	0.93898 	0.947296
148	20    	0.942161	0.00236561	0.93898 	0.947296
149	20    	0.942161	0.00236561	0.93898 	0.947296
150	20    	0.942161	0.00236561	0.93898 	0.947296
151	20    	0.942161	0.00236561	0.93898 	0.947296
152	20    	0.942161	0.00236561	0.93898 	0.947296
153	20    	0.942161	0.00236561	0.93898 	0.947296
154	20    	0.942161	0.00236561	0.93898 	0.947296
155	20    	0.942161	0.00236561	0.93898 	0.947296
156	20    	0.942161	0.00236561	0.93898 	0.947296
157	20    	0.942161	0.00236561	0.93898 	0.947296
158	20    	0.942161	0.00236561	0.93898 	0.947296
159	20    	0.942229	0.00229104	0.93898 	0.947296
160	20    	0.942229	0.00229104	0.93898 	0.947296
161	20    	0.942229	0.00229104	0.93898 	0.947296
162	20    	0.942229	0.00229104	0.93898 	0.947296
163	20    	0.942229	0.00229104	0.93898 	0.947296
164	20    	0.942298	0.00221184	0.93898 	0.947296
165	20    	0.942298	0.00221184	0.93898 	0.947296
166	20    	0.942298	0.00221184	0.93898 	0.947296
167	20    	0.942298	0.00221184	0.93898 	0.947296
168	20    	0.942298	0.00221184	0.93898 	0.947296
169	20    	0.942298	0.00221184	0.93898 	0.947296
170	20    	0.942298	0.00221184	0.93898 	0.947296
171	20    	0.942367	0.00212747	0.940353	0.947296
172	20    	0.942783	0.00214552	0.940353	0.947296
173	20    	0.942783	0.00214552	0.940353	0.947296
174	20    	0.942783	0.00214552	0.940353	0.947296
175	20    	0.942783	0.00214552	0.940353	0.947296
176	20    	0.942783	0.00214552	0.940353	0.947296
177	20    	0.942783	0.00214552	0.940353	0.947296
178	20    	0.942783	0.00214552	0.940353	0.947296
179	20    	0.942783	0.00214552	0.940353	0.947296
180	20    	0.942783	0.00214552	0.940353	0.947296
181	20    	0.942783	0.00214552	0.940353	0.947296
182	20    	0.942783	0.00214552	0.940353	0.947296
183	20    	0.942783	0.00214552	0.940353	0.947296
184	20    	0.942783	0.00214552	0.940353	0.947296
185	20    	0.942783	0.00214552	0.940353	0.947296
186	20    	0.942783	0.00214552	0.940353	0.947296
187	20    	0.942783	0.00214552	0.940353	0.947296
188	20    	0.942783	0.00214552	0.940353	0.947296
189	20    	0.942783	0.00214552	0.940353	0.947296
190	20    	0.942783	0.00214552	0.940353	0.947296
191	20    	0.942783	0.00214552	0.940353	0.947296
192	20    	0.942992	0.00210126	0.940353	0.947296
193	20    	0.942992	0.00210126	0.940353	0.947296
194	20    	0.942992	0.00210126	0.940353	0.947296
195	20    	0.942992	0.00210126	0.940353	0.947296
196	20    	0.942992	0.00210126	0.940353	0.947296
197	20    	0.942992	0.00210126	0.940353	0.947296
198	20    	0.942992	0.00210126	0.940353	0.947296
199	20    	0.942992	0.00210126	0.940353	0.947296
200	20    	0.942992	0.00210126	0.940353	0.947296
201	20    	0.942992	0.00210126	0.940353	0.947296
202	20    	0.942992	0.00210126	0.940353	0.947296
203	20    	0.942992	0.00210126	0.940353	0.947296
204	20    	0.9432  	0.00203483	0.940353	0.947296
205	20    	0.9432  	0.00203483	0.940353	0.947296
206	20    	0.9432  	0.00203483	0.940353	0.947296
207	20    	0.9432  	0.00203483	0.940353	0.947296
208	20    	0.9432  	0.00203483	0.940353	0.947296
209	20    	0.9432  	0.00203483	0.940353	0.947296
210	20    	0.9432  	0.00203483	0.940353	0.947296
211	20    	0.9432  	0.00203483	0.940353	0.947296
212	20    	0.9432  	0.00203483	0.940353	0.947296
213	20    	0.9432  	0.00203483	0.940353	0.947296
214	20    	0.9432  	0.00203483	0.940353	0.947296
215	20    	0.9432  	0.00203483	0.940353	0.947296
216	20    	0.9432  	0.00203483	0.940353	0.947296
217	20    	0.9432  	0.00203483	0.940353	0.947296
218	20    	0.9432  	0.00203483	0.940353	0.947296
219	20    	0.9432  	0.00203483	0.940353	0.947296
220	20    	0.9432  	0.00203483	0.940353	0.947296
221	20    	0.9432  	0.00203483	0.940353	0.947296
222	20    	0.9432  	0.00203483	0.940353	0.947296
223	20    	0.9432  	0.00203483	0.940353	0.947296
224	20    	0.9432  	0.00203483	0.940353	0.947296
225	20    	0.943686	0.00242102	0.940353	0.950073
226	20    	0.943686	0.00242102	0.940353	0.950073
227	20    	0.943686	0.00242102	0.940353	0.950073
228	20    	0.943686	0.00242102	0.940353	0.950073
229	20    	0.943686	0.00242102	0.940353	0.950073
230	20    	0.943686	0.00242102	0.940353	0.950073
231	20    	0.943686	0.00242102	0.940353	0.950073
232	20    	0.943825	0.00230265	0.940353	0.950073
233	20    	0.943825	0.00230265	0.940353	0.950073
234	20    	0.943825	0.00230265	0.940353	0.950073
235	20    	0.943825	0.00230265	0.940353	0.950073
236	20    	0.944102	0.00219988	0.940353	0.950073
237	20    	0.944102	0.00219988	0.940353	0.950073
238	20    	0.944102	0.00219988	0.940353	0.950073
239	20    	0.944102	0.00219988	0.940353	0.950073
240	20    	0.944102	0.00219988	0.940353	0.950073
241	20    	0.94445 	0.00212747	0.940353	0.950073
242	20    	0.944588	0.00193776	0.941742	0.950073
243	20    	0.944588	0.00193776	0.941742	0.950073
244	20    	0.944588	0.00193776	0.941742	0.950073
245	20    	0.944588	0.00193776	0.941742	0.950073
246	20    	0.944936	0.00170628	0.94313 	0.950073
247	20    	0.944936	0.00170628	0.94313 	0.950073
248	20    	0.944936	0.00170628	0.94313 	0.950073
249	20    	0.944936	0.00170628	0.94313 	0.950073
250	20    	0.944936	0.00170628	0.94313 	0.950073
251	20    	0.944936	0.00170628	0.94313 	0.950073
252	20    	0.944936	0.00170628	0.94313 	0.950073
253	20    	0.944936	0.00170628	0.94313 	0.950073
254	20    	0.944936	0.00170628	0.94313 	0.950073
255	20    	0.944936	0.00170628	0.94313 	0.950073
256	20    	0.944936	0.00170628	0.94313 	0.950073
257	20    	0.944936	0.00170628	0.94313 	0.950073
258	20    	0.944936	0.00170628	0.94313 	0.950073
259	20    	0.944936	0.00170628	0.94313 	0.950073
260	20    	0.944936	0.00170628	0.94313 	0.950073
261	20    	0.944936	0.00170628	0.94313 	0.950073
262	20    	0.944936	0.00170628	0.94313 	0.950073
263	20    	0.944936	0.00170628	0.94313 	0.950073
264	20    	0.944936	0.00170628	0.94313 	0.950073
265	20    	0.944936	0.00170628	0.94313 	0.950073
266	20    	0.945005	0.00165901	0.94313 	0.950073
267	20    	0.945005	0.00165901	0.94313 	0.950073
268	20    	0.945005	0.00165901	0.94313 	0.950073
269	20    	0.945005	0.00165901	0.94313 	0.950073
270	20    	0.945005	0.00165901	0.94313 	0.950073
271	20    	0.945005	0.00165901	0.94313 	0.950073
272	20    	0.945005	0.00165901	0.94313 	0.950073
273	20    	0.945005	0.00165901	0.94313 	0.950073
274	20    	0.945005	0.00165901	0.94313 	0.950073
275	20    	0.945005	0.00165901	0.94313 	0.950073
276	20    	0.945005	0.00165901	0.94313 	0.950073
277	20    	0.945005	0.00165901	0.94313 	0.950073
278	20    	0.945005	0.00165901	0.94313 	0.950073
279	20    	0.945005	0.00165901	0.94313 	0.950073
280	20    	0.945144	0.00161185	0.94313 	0.950073
281	20    	0.945144	0.00161185	0.94313 	0.950073
282	20    	0.945144	0.00161185	0.94313 	0.950073
283	20    	0.945144	0.00161185	0.94313 	0.950073
284	20    	0.945144	0.00161185	0.94313 	0.950073
285	20    	0.945144	0.00161185	0.94313 	0.950073
286	20    	0.945144	0.00161185	0.94313 	0.950073
287	20    	0.945144	0.00161185	0.94313 	0.950073
288	20    	0.945144	0.00161185	0.94313 	0.950073
289	20    	0.945144	0.00161185	0.94313 	0.950073
290	20    	0.945144	0.00161185	0.94313 	0.950073
291	20    	0.945144	0.00161185	0.94313 	0.950073
292	20    	0.945283	0.00155089	0.94313 	0.950073
293	20    	0.945283	0.00155089	0.94313 	0.950073
294	20    	0.945283	0.00155089	0.94313 	0.950073
295	20    	0.945283	0.00155089	0.94313 	0.950073
296	20    	0.945283	0.00155089	0.94313 	0.950073
297	20    	0.945283	0.00155089	0.94313 	0.950073
298	20    	0.945283	0.00155089	0.94313 	0.950073
299	20    	0.945283	0.00155089	0.94313 	0.950073
300	20    	0.945283	0.00155089	0.94313 	0.950073
301	20    	0.945283	0.00155089	0.94313 	0.950073
302	20    	0.945283	0.00155089	0.94313 	0.950073
303	20    	0.945283	0.00155089	0.94313 	0.950073
304	20    	0.945283	0.00155089	0.94313 	0.950073
305	20    	0.945283	0.00155089	0.94313 	0.950073
306	20    	0.945283	0.00155089	0.94313 	0.950073
307	20    	0.945283	0.00155089	0.94313 	0.950073
308	20    	0.945283	0.00155089	0.94313 	0.950073
309	20    	0.945283	0.00155089	0.94313 	0.950073
310	20    	0.945283	0.00155089	0.94313 	0.950073
311	20    	0.945283	0.00155089	0.94313 	0.950073
312	20    	0.945283	0.00155089	0.94313 	0.950073
313	20    	0.945283	0.00155089	0.94313 	0.950073
314	20    	0.945352	0.00148257	0.94313 	0.950073
315	20    	0.945352	0.00148257	0.94313 	0.950073
316	20    	0.945352	0.00148257	0.94313 	0.950073
317	20    	0.945352	0.00148257	0.94313 	0.950073
318	20    	0.945352	0.00148257	0.94313 	0.950073
319	20    	0.945352	0.00148257	0.94313 	0.950073
320	20    	0.945352	0.00148257	0.94313 	0.950073
321	20    	0.945352	0.00148257	0.94313 	0.950073
322	20    	0.945352	0.00148257	0.94313 	0.950073
323	20    	0.945352	0.00148257	0.94313 	0.950073
324	20    	0.945352	0.00148257	0.94313 	0.950073
325	20    	0.945352	0.00148257	0.94313 	0.950073
326	20    	0.945352	0.00148257	0.94313 	0.950073
327	20    	0.945352	0.00148257	0.94313 	0.950073
328	20    	0.945352	0.00148257	0.94313 	0.950073
329	20    	0.945352	0.00148257	0.94313 	0.950073
330	20    	0.945352	0.00148257	0.94313 	0.950073
331	20    	0.945422	0.00140751	0.944519	0.950073
332	20    	0.945422	0.00140751	0.944519	0.950073
333	20    	0.94556 	0.00144803	0.944519	0.950073
334	20    	0.94556 	0.00144803	0.944519	0.950073
335	20    	0.94556 	0.00144803	0.944519	0.950073
336	20    	0.94556 	0.00144803	0.944519	0.950073
337	20    	0.94556 	0.00144803	0.944519	0.950073
338	20    	0.94556 	0.00144803	0.944519	0.950073
339	20    	0.94556 	0.00144803	0.944519	0.950073
340	20    	0.94556 	0.00144803	0.944519	0.950073
341	20    	0.94556 	0.00144803	0.944519	0.950073
342	20    	0.94556 	0.00144803	0.944519	0.950073
343	20    	0.94556 	0.00144803	0.944519	0.950073
344	20    	0.94556 	0.00144803	0.944519	0.950073
345	20    	0.94556 	0.00144803	0.944519	0.950073
346	20    	0.94556 	0.00144803	0.944519	0.950073
347	20    	0.94556 	0.00144803	0.944519	0.950073
348	20    	0.94556 	0.00144803	0.944519	0.950073
349	20    	0.94556 	0.00144803	0.944519	0.950073
350	20    	0.94556 	0.00144803	0.944519	0.950073
351	20    	0.94556 	0.00144803	0.944519	0.950073
352	20    	0.94556 	0.00144803	0.944519	0.950073
353	20    	0.94556 	0.00144803	0.944519	0.950073
354	20    	0.94556 	0.00144803	0.944519	0.950073
355	20    	0.94556 	0.00144803	0.944519	0.950073
356	20    	0.94556 	0.00144803	0.944519	0.950073
357	20    	0.94556 	0.00144803	0.944519	0.950073
358	20    	0.94556 	0.00144803	0.944519	0.950073
359	20    	0.94563 	0.0014296 	0.944519	0.950073
360	20    	0.94563 	0.0014296 	0.944519	0.950073
361	20    	0.94563 	0.0014296 	0.944519	0.950073
362	20    	0.94563 	0.0014296 	0.944519	0.950073
363	20    	0.94563 	0.0014296 	0.944519	0.950073
364	20    	0.94563 	0.0014296 	0.944519	0.950073
365	20    	0.94563 	0.0014296 	0.944519	0.950073
366	20    	0.94563 	0.0014296 	0.944519	0.950073
367	20    	0.94563 	0.0014296 	0.944519	0.950073
368	20    	0.94563 	0.0014296 	0.944519	0.950073
369	20    	0.94563 	0.0014296 	0.944519	0.950073
370	20    	0.94563 	0.0014296 	0.944519	0.950073
371	20    	0.945977	0.00188736	0.944519	0.951462
372	20    	0.946116	0.00187711	0.944519	0.951462
373	20    	0.946116	0.00187711	0.944519	0.951462
374	20    	0.946116	0.00187711	0.944519	0.951462
375	20    	0.946116	0.00187711	0.944519	0.951462
376	20    	0.946116	0.00187711	0.944519	0.951462
377	20    	0.946324	0.00191901	0.944519	0.951462
378	20    	0.946324	0.00191901	0.944519	0.951462
379	20    	0.946324	0.00191901	0.944519	0.951462
380	20    	0.946324	0.00191901	0.944519	0.951462
381	20    	0.946324	0.00191901	0.944519	0.951462
382	20    	0.946324	0.00191901	0.944519	0.951462
383	20    	0.946324	0.00191901	0.944519	0.951462
384	20    	0.946324	0.00191901	0.944519	0.951462
385	20    	0.946324	0.00191901	0.944519	0.951462
386	20    	0.946324	0.00191901	0.944519	0.951462
387	20    	0.946324	0.00191901	0.944519	0.951462
388	20    	0.946324	0.00191901	0.944519	0.951462
389	20    	0.946324	0.00191901	0.944519	0.951462
390	20    	0.946324	0.00191901	0.944519	0.951462
391	20    	0.946324	0.00191901	0.944519	0.951462
392	20    	0.946324	0.00191901	0.944519	0.951462
393	20    	0.946324	0.00191901	0.944519	0.951462
394	20    	0.946324	0.00191901	0.944519	0.951462
395	20    	0.946324	0.00191901	0.944519	0.951462
396	20    	0.946324	0.00191901	0.944519	0.951462
397	20    	0.946324	0.00191901	0.944519	0.951462
398	20    	0.946324	0.00191901	0.944519	0.951462
399	20    	0.946324	0.00191901	0.944519	0.951462
400	20    	0.946324	0.00191901	0.944519	0.951462
401	20    	0.946324	0.00191901	0.944519	0.951462
402	20    	0.946532	0.00193776	0.944519	0.951462
403	20    	0.946532	0.00193776	0.944519	0.951462
404	20    	0.946532	0.00193776	0.944519	0.951462
405	20    	0.946532	0.00193776	0.944519	0.951462
406	20    	0.946532	0.00193776	0.944519	0.951462
407	20    	0.946532	0.00193776	0.944519	0.951462
408	20    	0.946532	0.00193776	0.944519	0.951462
409	20    	0.946532	0.00193776	0.944519	0.951462
410	20    	0.946532	0.00193776	0.944519	0.951462
411	20    	0.946532	0.00193776	0.944519	0.951462
412	20    	0.946532	0.00193776	0.944519	0.951462
413	20    	0.946532	0.00193776	0.944519	0.951462
414	20    	0.946532	0.00193776	0.944519	0.951462
415	20    	0.946532	0.00193776	0.944519	0.951462
416	20    	0.946532	0.00193776	0.944519	0.951462
417	20    	0.946532	0.00193776	0.944519	0.951462
418	20    	0.946532	0.00193776	0.944519	0.951462
419	20    	0.946532	0.00193776	0.944519	0.951462
420	20    	0.946532	0.00193776	0.944519	0.951462
421	20    	0.946741	0.00183162	0.944519	0.951462
422	20    	0.94688 	0.00176187	0.944519	0.951462
423	20    	0.94688 	0.00176187	0.944519	0.951462
424	20    	0.946949	0.00169352	0.944519	0.951462
425	20    	0.946949	0.00169352	0.944519	0.951462
426	20    	0.946949	0.00169352	0.944519	0.951462
427	20    	0.946949	0.00169352	0.944519	0.951462
428	20    	0.946949	0.00169352	0.944519	0.951462
429	20    	0.947157	0.00163708	0.944519	0.951462
430	20    	0.947157	0.00163708	0.944519	0.951462
431	20    	0.947157	0.00163708	0.944519	0.951462
432	20    	0.947157	0.00163708	0.944519	0.951462
433	20    	0.947157	0.00163708	0.944519	0.951462
434	20    	0.947157	0.00163708	0.944519	0.951462
435	20    	0.947157	0.00163708	0.944519	0.951462
436	20    	0.947366	0.00155089	0.945908	0.951462
437	20    	0.947366	0.00155089	0.945908	0.951462
438	20    	0.947366	0.00155089	0.945908	0.951462
439	20    	0.947366	0.00155089	0.945908	0.951462
440	20    	0.947366	0.00155089	0.945908	0.951462
441	20    	0.947366	0.00155089	0.945908	0.951462
442	20    	0.947366	0.00155089	0.945908	0.951462
443	20    	0.947366	0.00155089	0.945908	0.951462
444	20    	0.947366	0.00155089	0.945908	0.951462
445	20    	0.947366	0.00155089	0.945908	0.951462
446	20    	0.947366	0.00155089	0.945908	0.951462
447	20    	0.947366	0.00155089	0.945908	0.951462
448	20    	0.947366	0.00155089	0.945908	0.951462
449	20    	0.947366	0.00155089	0.945908	0.951462
450	20    	0.947366	0.00155089	0.945908	0.951462
451	20    	0.947366	0.00155089	0.945908	0.951462
452	20    	0.947366	0.00155089	0.945908	0.951462
453	20    	0.947366	0.00155089	0.945908	0.951462
454	20    	0.947366	0.00155089	0.945908	0.951462
455	20    	0.947366	0.00155089	0.945908	0.951462
456	20    	0.947366	0.00155089	0.945908	0.951462
457	20    	0.947366	0.00155089	0.945908	0.951462
458	20    	0.947366	0.00155089	0.945908	0.951462
459	20    	0.947366	0.00155089	0.945908	0.951462
460	20    	0.947366	0.00155089	0.945908	0.951462
461	20    	0.947366	0.00155089	0.945908	0.951462
462	20    	0.947504	0.00153841	0.945908	0.951462
463	20    	0.947504	0.00153841	0.945908	0.951462
464	20    	0.947574	0.00149551	0.945908	0.951462
465	20    	0.947574	0.00149551	0.945908	0.951462
466	20    	0.947852	0.00166626	0.945908	0.951462
467	20    	0.947852	0.00166626	0.945908	0.951462
468	20    	0.947852	0.00166626	0.945908	0.951462
469	20    	0.947852	0.00166626	0.945908	0.951462
470	20    	0.947852	0.00166626	0.945908	0.951462
471	20    	0.947852	0.00166626	0.945908	0.951462
472	20    	0.947852	0.00166626	0.945908	0.951462
473	20    	0.947852	0.00166626	0.945908	0.951462
474	20    	0.947852	0.00166626	0.945908	0.951462
475	20    	0.947852	0.00166626	0.945908	0.951462
476	20    	0.947921	0.00161185	0.945908	0.951462
477	20    	0.947921	0.00161185	0.945908	0.951462
478	20    	0.947921	0.00161185	0.945908	0.951462
479	20    	0.947921	0.00161185	0.945908	0.951462
480	20    	0.947921	0.00161185	0.945908	0.951462
481	20    	0.947921	0.00161185	0.945908	0.951462
482	20    	0.947921	0.00161185	0.945908	0.951462
483	20    	0.947921	0.00161185	0.945908	0.951462
484	20    	0.947921	0.00161185	0.945908	0.951462
485	20    	0.947921	0.00161185	0.945908	0.951462
486	20    	0.947921	0.00161185	0.945908	0.951462
487	20    	0.947921	0.00161185	0.945908	0.951462
488	20    	0.947921	0.00161185	0.945908	0.951462
489	20    	0.947921	0.00161185	0.945908	0.951462
490	20    	0.947921	0.00161185	0.945908	0.951462
491	20    	0.947921	0.00161185	0.945908	0.951462
492	20    	0.947921	0.00161185	0.945908	0.951462
493	20    	0.947921	0.00161185	0.945908	0.951462
494	20    	0.947921	0.00161185	0.945908	0.951462
495	20    	0.947921	0.00161185	0.945908	0.951462
496	20    	0.947921	0.00161185	0.945908	0.951462
497	20    	0.947921	0.00161185	0.945908	0.951462
498	20    	0.947921	0.00161185	0.945908	0.951462
499	20    	0.94799 	0.00155245	0.945908	0.951462
