gen	nevals	avg     	std        	min     	max     
0  	20    	0.876352	0.00688753 	0.860474	0.890656
1  	20    	0.880162	0.00377533 	0.875412	0.890656
2  	20    	0.884151	0.00353487 	0.878998	0.890656
3  	20    	0.887035	0.00214427 	0.883484	0.890656
4  	20    	0.887781	0.00147564 	0.885269	0.890656
5  	20    	0.888139	0.00122139 	0.886459	0.890656
6  	20    	0.889304	0.00199042 	0.88736 	0.895721
7  	20    	0.889648	0.00192608 	0.88736 	0.895721
8  	20    	0.890261	0.0018856  	0.88826 	0.895721
9  	20    	0.890546	0.00172512 	0.88855 	0.895721
10 	20    	0.890785	0.00176358 	0.888855	0.895721
11 	20    	0.891621	0.00232382 	0.88916 	0.898712
12 	20    	0.891979	0.00211647 	0.890045	0.898712
13 	20    	0.892905	0.0020796  	0.890656	0.898712
14 	20    	0.893443	0.00212451 	0.890656	0.898712
15 	20    	0.894069	0.00178592 	0.891846	0.898712
16 	20    	0.894158	0.00171581 	0.891846	0.898712
17 	20    	0.894383	0.00152367 	0.892441	0.898712
18 	20    	0.894607	0.00136507 	0.893341	0.898712
19 	20    	0.894666	0.00133419 	0.893341	0.898712
20 	20    	0.894995	0.00172132 	0.893341	0.899918
21 	20    	0.895235	0.00164403 	0.893631	0.899918
22 	20    	0.89534 	0.00158771 	0.893936	0.899918
23 	20    	0.895624	0.0015254  	0.893936	0.899918
24 	20    	0.896162	0.00155972 	0.894531	0.899918
25 	20    	0.896191	0.0015338  	0.894531	0.899918
26 	20    	0.896191	0.0015338  	0.894531	0.899918
27 	20    	0.89658 	0.00150042 	0.894836	0.899918
28 	20    	0.896908	0.00134122 	0.895126	0.899918
29 	20    	0.897042	0.00128958 	0.895432	0.899918
30 	20    	0.897072	0.00125857 	0.895432	0.899918
31 	20    	0.897072	0.00125857 	0.895432	0.899918
32 	20    	0.897176	0.00120361 	0.895721	0.899918
33 	20    	0.897505	0.0015957  	0.895721	0.902298
34 	20    	0.897715	0.001623   	0.896027	0.902298
35 	20    	0.898088	0.00200472 	0.896027	0.903488
36 	20    	0.898298	0.00196761 	0.896027	0.903488
37 	20    	0.898746	0.00227342 	0.896332	0.904388
38 	20    	0.898775	0.00224411 	0.896622	0.904388
39 	20    	0.898985	0.00216154 	0.896622	0.904388
40 	20    	0.899014	0.00213271 	0.896927	0.904388
41 	20    	0.899044	0.00210738 	0.896927	0.904388
42 	20    	0.899283	0.00212447 	0.897217	0.904388
43 	20    	0.899283	0.00212447 	0.897217	0.904388
44 	20    	0.899582	0.00223093 	0.897217	0.904388
45 	20    	0.899971	0.00216134 	0.897522	0.904388
46 	20    	0.900091	0.00208742 	0.897522	0.904388
47 	20    	0.900105	0.00207047 	0.897522	0.904388
48 	20    	0.90021 	0.00198856 	0.897522	0.904388
49 	20    	0.900493	0.00180641 	0.897812	0.904388
50 	20    	0.900538	0.00174935 	0.897812	0.904388
51 	20    	0.900538	0.00174935 	0.897812	0.904388
52 	20    	0.900792	0.00170338 	0.898712	0.904388
53 	20    	0.900882	0.00163738 	0.898712	0.904388
54 	20    	0.900882	0.00163738 	0.898712	0.904388
55 	20    	0.901061	0.00152831 	0.899307	0.904388
56 	20    	0.901061	0.00152831 	0.899307	0.904388
57 	20    	0.901181	0.00147924 	0.899307	0.904388
58 	20    	0.901316	0.00142428 	0.899307	0.904388
59 	20    	0.901704	0.00117319 	0.899918	0.904388
60 	20    	0.901764	0.0011095  	0.899918	0.904388
61 	20    	0.901972	0.000997898	0.900513	0.904388
62 	20    	0.902181	0.00088255 	0.900803	0.904388
63 	20    	0.902181	0.00088255 	0.900803	0.904388
64 	20    	0.902316	0.000866738	0.901108	0.904388
65 	20    	0.90248 	0.000930722	0.901108	0.904388
66 	20    	0.902509	0.000895228	0.901398	0.904388
67 	20    	0.90257 	0.000858171	0.901703	0.904388
68 	20    	0.902674	0.000873414	0.901703	0.904388
69 	20    	0.902674	0.000873414	0.901703	0.904388
70 	20    	0.902838	0.000977473	0.901703	0.904984
71 	20    	0.903047	0.00114504 	0.901703	0.905884
72 	20    	0.903122	0.00110286 	0.901703	0.905884
73 	20    	0.903122	0.00110286 	0.901703	0.905884
74 	20    	0.903122	0.00110286 	0.901703	0.905884
75 	20    	0.903122	0.00110286 	0.901703	0.905884
76 	20    	0.903167	0.00106163 	0.901703	0.905884
77 	20    	0.903391	0.00119423 	0.902008	0.906189
78 	20    	0.903391	0.00119423 	0.902008	0.906189
79 	20    	0.903391	0.00119423 	0.902008	0.906189
80 	20    	0.90351 	0.00116879 	0.902008	0.906189
81 	20    	0.903689	0.00107329 	0.902298	0.906189
82 	20    	0.903748	0.0010265  	0.902603	0.906189
83 	20    	0.903957	0.00102434 	0.902603	0.906189
84 	20    	0.903957	0.00102434 	0.902603	0.906189
85 	20    	0.903957	0.00102434 	0.902603	0.906189
86 	20    	0.903957	0.00102434 	0.902603	0.906189
87 	20    	0.904121	0.00105652 	0.902603	0.906189
88 	20    	0.904181	0.0010014  	0.902893	0.906189
89 	20    	0.904241	0.000957387	0.903198	0.906189
90 	20    	0.904301	0.000927226	0.903198	0.906189
91 	20    	0.904435	0.00091477 	0.903198	0.906189
92 	20    	0.904435	0.00091477 	0.903198	0.906189
93 	20    	0.904435	0.00091477 	0.903198	0.906189
94 	20    	0.904435	0.00091477 	0.903198	0.906189
95 	20    	0.904435	0.00091477 	0.903198	0.906189
96 	20    	0.904645	0.000910307	0.903488	0.906189
97 	20    	0.904645	0.000910307	0.903488	0.906189
98 	20    	0.904645	0.000910307	0.903488	0.906189
99 	20    	0.904899	0.00121134 	0.903488	0.908569
100	20    	0.904899	0.00121134 	0.903488	0.908569
101	20    	0.905273	0.00136041 	0.903793	0.908569
102	20    	0.905318	0.00132515 	0.903793	0.908569
103	20    	0.905318	0.00132515 	0.903793	0.908569
104	20    	0.905377	0.00128136 	0.903793	0.908569
105	20    	0.905616	0.00140318 	0.904099	0.908569
106	20    	0.905616	0.00140318 	0.904099	0.908569
107	20    	0.90581 	0.00144717 	0.904388	0.908569
108	20    	0.90587 	0.00141138 	0.904388	0.908569
109	20    	0.90587 	0.00141138 	0.904388	0.908569
110	20    	0.90587 	0.00141138 	0.904388	0.908569
111	20    	0.90587 	0.00141138 	0.904388	0.908569
112	20    	0.90587 	0.00141138 	0.904388	0.908569
113	20    	0.90587 	0.00141138 	0.904388	0.908569
114	20    	0.90587 	0.00141138 	0.904388	0.908569
115	20    	0.9059  	0.00138587 	0.904388	0.908569
116	20    	0.9059  	0.00138587 	0.904388	0.908569
117	20    	0.9059  	0.00138587 	0.904388	0.908569
118	20    	0.9059  	0.00138587 	0.904388	0.908569
119	20    	0.905975	0.00132184 	0.904388	0.908569
120	20    	0.90602 	0.00128178 	0.904694	0.908569
121	20    	0.90602 	0.00128178 	0.904694	0.908569
122	20    	0.90602 	0.00128178 	0.904694	0.908569
123	20    	0.90602 	0.00128178 	0.904694	0.908569
124	20    	0.90602 	0.00128178 	0.904694	0.908569
125	20    	0.90602 	0.00128178 	0.904694	0.908569
126	20    	0.906094	0.00124535 	0.904694	0.908569
127	20    	0.906109	0.00123056 	0.904984	0.908569
128	20    	0.906109	0.00123056 	0.904984	0.908569
129	20    	0.906109	0.00123056 	0.904984	0.908569
130	20    	0.906229	0.00123179 	0.904984	0.908569
131	20    	0.906229	0.00123179 	0.904984	0.908569
132	20    	0.906348	0.00122132 	0.904984	0.908569
133	20    	0.906348	0.00122132 	0.904984	0.908569
134	20    	0.906348	0.00122132 	0.904984	0.908569
135	20    	0.906348	0.00122132 	0.904984	0.908569
136	20    	0.906364	0.00120598 	0.904984	0.908569
137	20    	0.906364	0.00120598 	0.904984	0.908569
138	20    	0.906364	0.00120598 	0.904984	0.908569
139	20    	0.906454	0.0011464  	0.905289	0.908569
140	20    	0.906454	0.0011464  	0.905289	0.908569
141	20    	0.906454	0.0011464  	0.905289	0.908569
142	20    	0.906454	0.0011464  	0.905289	0.908569
143	20    	0.906454	0.0011464  	0.905289	0.908569
144	20    	0.906618	0.00120136 	0.905289	0.908569
145	20    	0.906618	0.00120136 	0.905289	0.908569
146	20    	0.906618	0.00120136 	0.905289	0.908569
147	20    	0.906618	0.00120136 	0.905289	0.908569
148	20    	0.906618	0.00120136 	0.905289	0.908569
149	20    	0.906633	0.00118623 	0.905289	0.908569
150	20    	0.906633	0.00118623 	0.905289	0.908569
151	20    	0.906633	0.00118623 	0.905289	0.908569
152	20    	0.906633	0.00118623 	0.905289	0.908569
153	20    	0.906633	0.00118623 	0.905289	0.908569
154	20    	0.906633	0.00118623 	0.905289	0.908569
155	20    	0.906633	0.00118623 	0.905289	0.908569
156	20    	0.906633	0.00118623 	0.905289	0.908569
157	20    	0.906693	0.00114648 	0.905289	0.908569
158	20    	0.906693	0.00114648 	0.905289	0.908569
159	20    	0.906886	0.00111633 	0.905594	0.908569
160	20    	0.90714 	0.00134554 	0.905594	0.91066 
161	20    	0.90714 	0.00134554 	0.905594	0.91066 
162	20    	0.90714 	0.00134554 	0.905594	0.91066 
163	20    	0.90714 	0.00134554 	0.905594	0.91066 
164	20    	0.907274	0.00131831 	0.905594	0.91066 
165	20    	0.907318	0.00127533 	0.905884	0.91066 
166	20    	0.907318	0.00127533 	0.905884	0.91066 
167	20    	0.907318	0.00127533 	0.905884	0.91066 
168	20    	0.907378	0.00123411 	0.905884	0.91066 
169	20    	0.907378	0.00123411 	0.905884	0.91066 
170	20    	0.907378	0.00123411 	0.905884	0.91066 
171	20    	0.907378	0.00123411 	0.905884	0.91066 
172	20    	0.907407	0.00120456 	0.905884	0.91066 
173	20    	0.907632	0.00131278 	0.906189	0.91066 
174	20    	0.907706	0.00127038 	0.906189	0.91066 
175	20    	0.907706	0.00127038 	0.906189	0.91066 
176	20    	0.907706	0.00127038 	0.906189	0.91066 
177	20    	0.907706	0.00127038 	0.906189	0.91066 
178	20    	0.907706	0.00127038 	0.906189	0.91066 
179	20    	0.907721	0.00125454 	0.906189	0.91066 
180	20    	0.907721	0.00125454 	0.906189	0.91066 
181	20    	0.90781 	0.00118245 	0.906479	0.91066 
182	20    	0.907885	0.00114251 	0.906479	0.91066 
183	20    	0.907885	0.00114251 	0.906479	0.91066 
184	20    	0.908318	0.00191173 	0.906479	0.915146
185	20    	0.908393	0.00186705 	0.906479	0.915146
186	20    	0.908393	0.00186705 	0.906479	0.915146
187	20    	0.908393	0.00186705 	0.906479	0.915146
188	20    	0.908393	0.00186705 	0.906479	0.915146
189	20    	0.908393	0.00186705 	0.906479	0.915146
190	20    	0.908393	0.00186705 	0.906479	0.915146
191	20    	0.908393	0.00186705 	0.906479	0.915146
192	20    	0.908393	0.00186705 	0.906479	0.915146
193	20    	0.908543	0.00182708 	0.906479	0.915146
194	20    	0.908572	0.00179784 	0.907074	0.915146
195	20    	0.908588	0.00178632 	0.907074	0.915146
196	20    	0.908588	0.00178632 	0.907074	0.915146
197	20    	0.908588	0.00178632 	0.907074	0.915146
198	20    	0.908588	0.00178632 	0.907074	0.915146
199	20    	0.908588	0.00178632 	0.907074	0.915146
200	20    	0.908737	0.00177851 	0.907074	0.915146
201	20    	0.908768	0.00175479 	0.907379	0.915146
202	20    	0.908768	0.00175479 	0.907379	0.915146
203	20    	0.908992	0.00184724 	0.907379	0.915146
204	20    	0.908992	0.00184724 	0.907379	0.915146
205	20    	0.909022	0.00182569 	0.907379	0.915146
206	20    	0.909142	0.00176213 	0.907684	0.915146
207	20    	0.909142	0.00176213 	0.907684	0.915146
208	20    	0.909171	0.00174218 	0.907684	0.915146
209	20    	0.909171	0.00174218 	0.907684	0.915146
210	20    	0.909171	0.00174218 	0.907684	0.915146
211	20    	0.909171	0.00174218 	0.907684	0.915146
212	20    	0.909171	0.00174218 	0.907684	0.915146
213	20    	0.909171	0.00174218 	0.907684	0.915146
214	20    	0.909171	0.00174218 	0.907684	0.915146
215	20    	0.909171	0.00174218 	0.907684	0.915146
216	20    	0.909171	0.00174218 	0.907684	0.915146
217	20    	0.909171	0.00174218 	0.907684	0.915146
218	20    	0.909171	0.00174218 	0.907684	0.915146
219	20    	0.909216	0.00171488 	0.907974	0.915146
220	20    	0.909216	0.00171488 	0.907974	0.915146
221	20    	0.909216	0.00171488 	0.907974	0.915146
222	20    	0.909245	0.00169816 	0.907974	0.915146
223	20    	0.909245	0.00169816 	0.907974	0.915146
224	20    	0.909245	0.00169816 	0.907974	0.915146
225	20    	0.909245	0.00169816 	0.907974	0.915146
226	20    	0.909245	0.00169816 	0.907974	0.915146
227	20    	0.909245	0.00169816 	0.907974	0.915146
228	20    	0.909335	0.00167597 	0.907974	0.915146
229	20    	0.909515	0.00171219 	0.907974	0.915146
230	20    	0.909515	0.00171219 	0.907974	0.915146
231	20    	0.909664	0.00170169 	0.907974	0.915146
232	20    	0.909664	0.00170169 	0.907974	0.915146
233	20    	0.909724	0.00166165 	0.908279	0.915146
234	20    	0.909724	0.00166165 	0.908279	0.915146
235	20    	0.909859	0.0016479  	0.908279	0.915146
236	20    	0.909859	0.0016479  	0.908279	0.915146
237	20    	0.909873	0.00163517 	0.908279	0.915146
238	20    	0.909873	0.00163517 	0.908279	0.915146
239	20    	0.909933	0.00159731 	0.908569	0.915146
240	20    	0.909948	0.00158562 	0.908569	0.915146
241	20    	0.909948	0.00158562 	0.908569	0.915146
242	20    	0.909948	0.00158562 	0.908569	0.915146
243	20    	0.909948	0.00158562 	0.908569	0.915146
244	20    	0.909948	0.00158562 	0.908569	0.915146
245	20    	0.909948	0.00158562 	0.908569	0.915146
246	20    	0.909948	0.00158562 	0.908569	0.915146
247	20    	0.909948	0.00158562 	0.908569	0.915146
248	20    	0.909948	0.00158562 	0.908569	0.915146
249	20    	0.909948	0.00158562 	0.908569	0.915146
250	20    	0.909948	0.00158562 	0.908569	0.915146
251	20    	0.910008	0.00155468 	0.908569	0.915146
252	20    	0.910083	0.00151924 	0.908569	0.915146
253	20    	0.910098	0.00150543 	0.908569	0.915146
254	20    	0.910562	0.00172184 	0.908569	0.915146
255	20    	0.910562	0.00172184 	0.908569	0.915146
256	20    	0.910652	0.0016613  	0.908875	0.915146
257	20    	0.910652	0.0016613  	0.908875	0.915146
258	20    	0.910652	0.0016613  	0.908875	0.915146
259	20    	0.910727	0.00161255 	0.908875	0.915146
260	20    	0.910727	0.00161255 	0.908875	0.915146
261	20    	0.910727	0.00161255 	0.908875	0.915146
262	20    	0.910847	0.00155857 	0.90918 	0.915146
263	20    	0.910847	0.00155857 	0.90918 	0.915146
264	20    	0.910847	0.00155857 	0.90918 	0.915146
265	20    	0.910847	0.00155857 	0.90918 	0.915146
266	20    	0.910861	0.00154428 	0.90918 	0.915146
267	20    	0.910861	0.00154428 	0.90918 	0.915146
268	20    	0.910921	0.00150065 	0.90947 	0.915146
269	20    	0.910921	0.00150065 	0.90947 	0.915146
270	20    	0.910921	0.00150065 	0.90947 	0.915146
271	20    	0.911086	0.00142142 	0.90947 	0.915146
272	20    	0.911086	0.00142142 	0.90947 	0.915146
273	20    	0.911086	0.00142142 	0.90947 	0.915146
274	20    	0.911086	0.00142142 	0.90947 	0.915146
275	20    	0.911086	0.00142142 	0.90947 	0.915146
276	20    	0.911086	0.00142142 	0.90947 	0.915146
277	20    	0.911086	0.00142142 	0.90947 	0.915146
278	20    	0.911086	0.00142142 	0.90947 	0.915146
279	20    	0.911086	0.00142142 	0.90947 	0.915146
280	20    	0.911324	0.00144966 	0.909775	0.915146
281	20    	0.911324	0.00144966 	0.909775	0.915146
282	20    	0.911324	0.00144966 	0.909775	0.915146
283	20    	0.911548	0.00153564 	0.910065	0.915146
284	20    	0.911548	0.00153564 	0.910065	0.915146
285	20    	0.911548	0.00153564 	0.910065	0.915146
286	20    	0.911548	0.00153564 	0.910065	0.915146
287	20    	0.911548	0.00153564 	0.910065	0.915146
288	20    	0.911623	0.00149754 	0.910065	0.915146
289	20    	0.911623	0.00149754 	0.910065	0.915146
290	20    	0.911623	0.00149754 	0.910065	0.915146
291	20    	0.911727	0.00145757 	0.91037 	0.915146
292	20    	0.911727	0.00145757 	0.91037 	0.915146
293	20    	0.911727	0.00145757 	0.91037 	0.915146
294	20    	0.911727	0.00145757 	0.91037 	0.915146
295	20    	0.911772	0.00142858 	0.91037 	0.915146
296	20    	0.911802	0.00140506 	0.91037 	0.915146
297	20    	0.911802	0.00140506 	0.91037 	0.915146
298	20    	0.911802	0.00140506 	0.91037 	0.915146
299	20    	0.911802	0.00140506 	0.91037 	0.915146
300	20    	0.911802	0.00140506 	0.91037 	0.915146
301	20    	0.911802	0.00140506 	0.91037 	0.915146
302	20    	0.911802	0.00140506 	0.91037 	0.915146
303	20    	0.911802	0.00140506 	0.91037 	0.915146
304	20    	0.911802	0.00140506 	0.91037 	0.915146
305	20    	0.911802	0.00140506 	0.91037 	0.915146
306	20    	0.911861	0.00136786 	0.91037 	0.915146
307	20    	0.911891	0.00134131 	0.91037 	0.915146
308	20    	0.911921	0.00131354 	0.91066 	0.915146
309	20    	0.911921	0.00131354 	0.91066 	0.915146
310	20    	0.911921	0.00131354 	0.91066 	0.915146
311	20    	0.911921	0.00131354 	0.91066 	0.915146
312	20    	0.911921	0.00131354 	0.91066 	0.915146
313	20    	0.911921	0.00131354 	0.91066 	0.915146
314	20    	0.911921	0.00131354 	0.91066 	0.915146
315	20    	0.911921	0.00131354 	0.91066 	0.915146
316	20    	0.911921	0.00131354 	0.91066 	0.915146
317	20    	0.911921	0.00131354 	0.91066 	0.915146
318	20    	0.911921	0.00131354 	0.91066 	0.915146
319	20    	0.911921	0.00131354 	0.91066 	0.915146
320	20    	0.911921	0.00131354 	0.91066 	0.915146
321	20    	0.911921	0.00131354 	0.91066 	0.915146
322	20    	0.911921	0.00131354 	0.91066 	0.915146
323	20    	0.911921	0.00131354 	0.91066 	0.915146
324	20    	0.911921	0.00131354 	0.91066 	0.915146
325	20    	0.911921	0.00131354 	0.91066 	0.915146
326	20    	0.911921	0.00131354 	0.91066 	0.915146
327	20    	0.911921	0.00131354 	0.91066 	0.915146
328	20    	0.911921	0.00131354 	0.91066 	0.915146
329	20    	0.911921	0.00131354 	0.91066 	0.915146
330	20    	0.911921	0.00131354 	0.91066 	0.915146
331	20    	0.911921	0.00131354 	0.91066 	0.915146
332	20    	0.911921	0.00131354 	0.91066 	0.915146
333	20    	0.911951	0.00129078 	0.910965	0.915146
334	20    	0.911951	0.00129078 	0.910965	0.915146
335	20    	0.911951	0.00129078 	0.910965	0.915146
336	20    	0.911951	0.00129078 	0.910965	0.915146
337	20    	0.911951	0.00129078 	0.910965	0.915146
338	20    	0.911951	0.00129078 	0.910965	0.915146
339	20    	0.911951	0.00129078 	0.910965	0.915146
340	20    	0.911951	0.00129078 	0.910965	0.915146
341	20    	0.911951	0.00129078 	0.910965	0.915146
342	20    	0.911951	0.00129078 	0.910965	0.915146
343	20    	0.911951	0.00129078 	0.910965	0.915146
344	20    	0.911951	0.00129078 	0.910965	0.915146
345	20    	0.911951	0.00129078 	0.910965	0.915146
346	20    	0.911951	0.00129078 	0.910965	0.915146
347	20    	0.911951	0.00129078 	0.910965	0.915146
348	20    	0.911951	0.00129078 	0.910965	0.915146
349	20    	0.911951	0.00129078 	0.910965	0.915146
350	20    	0.911951	0.00129078 	0.910965	0.915146
351	20    	0.911951	0.00129078 	0.910965	0.915146
352	20    	0.911951	0.00129078 	0.910965	0.915146
353	20    	0.911951	0.00129078 	0.910965	0.915146
354	20    	0.911951	0.00129078 	0.910965	0.915146
355	20    	0.911951	0.00129078 	0.910965	0.915146
356	20    	0.911951	0.00129078 	0.910965	0.915146
357	20    	0.912071	0.00130476 	0.910965	0.915146
358	20    	0.912071	0.00130476 	0.910965	0.915146
359	20    	0.912071	0.00130476 	0.910965	0.915146
360	20    	0.912071	0.00130476 	0.910965	0.915146
361	20    	0.912071	0.00130476 	0.910965	0.915146
362	20    	0.912071	0.00130476 	0.910965	0.915146
363	20    	0.912071	0.00130476 	0.910965	0.915146
364	20    	0.912071	0.00130476 	0.910965	0.915146
365	20    	0.912086	0.00129347 	0.910965	0.915146
366	20    	0.912176	0.00127445 	0.910965	0.915146
367	20    	0.912176	0.00127445 	0.910965	0.915146
368	20    	0.912176	0.00127445 	0.910965	0.915146
369	20    	0.912176	0.00127445 	0.910965	0.915146
370	20    	0.912176	0.00127445 	0.910965	0.915146
371	20    	0.912206	0.0012526  	0.910965	0.915146
372	20    	0.912415	0.00137137 	0.910965	0.915146
373	20    	0.912415	0.00137137 	0.910965	0.915146
374	20    	0.912415	0.00137137 	0.910965	0.915146
375	20    	0.912519	0.00133611 	0.91127 	0.915146
376	20    	0.912519	0.00133611 	0.91127 	0.915146
377	20    	0.912519	0.00133611 	0.91127 	0.915146
378	20    	0.912519	0.00133611 	0.91127 	0.915146
379	20    	0.912519	0.00133611 	0.91127 	0.915146
380	20    	0.912519	0.00133611 	0.91127 	0.915146
381	20    	0.912593	0.00130552 	0.91127 	0.915146
382	20    	0.912772	0.00135675 	0.91127 	0.915146
383	20    	0.912877	0.00131693 	0.91127 	0.915146
384	20    	0.912877	0.00131693 	0.91127 	0.915146
385	20    	0.913161	0.00153386 	0.91127 	0.916946
386	20    	0.913161	0.00153386 	0.91127 	0.916946
387	20    	0.913161	0.00153386 	0.91127 	0.916946
388	20    	0.913161	0.00153386 	0.91127 	0.916946
389	20    	0.913161	0.00153386 	0.91127 	0.916946
390	20    	0.913161	0.00153386 	0.91127 	0.916946
391	20    	0.913161	0.00153386 	0.91127 	0.916946
392	20    	0.913161	0.00153386 	0.91127 	0.916946
393	20    	0.913161	0.00153386 	0.91127 	0.916946
394	20    	0.913175	0.0015172  	0.91156 	0.916946
395	20    	0.913325	0.00149791 	0.91156 	0.916946
396	20    	0.913325	0.00149791 	0.91156 	0.916946
397	20    	0.913325	0.00149791 	0.91156 	0.916946
398	20    	0.913325	0.00149791 	0.91156 	0.916946
399	20    	0.913325	0.00149791 	0.91156 	0.916946
400	20    	0.913325	0.00149791 	0.91156 	0.916946
401	20    	0.913325	0.00149791 	0.91156 	0.916946
402	20    	0.913325	0.00149791 	0.91156 	0.916946
403	20    	0.913325	0.00149791 	0.91156 	0.916946
404	20    	0.913325	0.00149791 	0.91156 	0.916946
405	20    	0.913325	0.00149791 	0.91156 	0.916946
406	20    	0.913325	0.00149791 	0.91156 	0.916946
407	20    	0.913325	0.00149791 	0.91156 	0.916946
408	20    	0.913325	0.00149791 	0.91156 	0.916946
409	20    	0.913384	0.00144948 	0.91156 	0.916946
410	20    	0.913384	0.00144948 	0.91156 	0.916946
411	20    	0.913624	0.00135075 	0.91156 	0.916946
412	20    	0.913624	0.00135075 	0.91156 	0.916946
413	20    	0.913624	0.00135075 	0.91156 	0.916946
414	20    	0.913714	0.00126765 	0.911865	0.916946
415	20    	0.913714	0.00126765 	0.911865	0.916946
416	20    	0.913714	0.00126765 	0.911865	0.916946
417	20    	0.913714	0.00126765 	0.911865	0.916946
418	20    	0.913714	0.00126765 	0.911865	0.916946
419	20    	0.913714	0.00126765 	0.911865	0.916946
420	20    	0.913714	0.00126765 	0.911865	0.916946
421	20    	0.913714	0.00126765 	0.911865	0.916946
422	20    	0.913714	0.00126765 	0.911865	0.916946
423	20    	0.913714	0.00126765 	0.911865	0.916946
424	20    	0.913803	0.00119511 	0.911865	0.916946
425	20    	0.913803	0.00119511 	0.911865	0.916946
426	20    	0.913803	0.00119511 	0.911865	0.916946
427	20    	0.913833	0.00115317 	0.912155	0.916946
428	20    	0.913982	0.00111933 	0.91246 	0.916946
429	20    	0.913982	0.00111933 	0.91246 	0.916946
430	20    	0.913982	0.00111933 	0.91246 	0.916946
431	20    	0.913982	0.00111933 	0.91246 	0.916946
432	20    	0.913982	0.00111933 	0.91246 	0.916946
433	20    	0.913982	0.00111933 	0.91246 	0.916946
434	20    	0.913982	0.00111933 	0.91246 	0.916946
435	20    	0.913982	0.00111933 	0.91246 	0.916946
436	20    	0.913982	0.00111933 	0.91246 	0.916946
437	20    	0.913982	0.00111933 	0.91246 	0.916946
438	20    	0.913982	0.00111933 	0.91246 	0.916946
439	20    	0.913982	0.00111933 	0.91246 	0.916946
440	20    	0.913982	0.00111933 	0.91246 	0.916946
441	20    	0.913982	0.00111933 	0.91246 	0.916946
442	20    	0.913982	0.00111933 	0.91246 	0.916946
443	20    	0.913982	0.00111933 	0.91246 	0.916946
444	20    	0.913982	0.00111933 	0.91246 	0.916946
445	20    	0.913982	0.00111933 	0.91246 	0.916946
446	20    	0.913982	0.00111933 	0.91246 	0.916946
447	20    	0.913982	0.00111933 	0.91246 	0.916946
448	20    	0.913982	0.00111933 	0.91246 	0.916946
449	20    	0.913982	0.00111933 	0.91246 	0.916946
450	20    	0.913982	0.00111933 	0.91246 	0.916946
451	20    	0.913982	0.00111933 	0.91246 	0.916946
452	20    	0.913982	0.00111933 	0.91246 	0.916946
453	20    	0.914042	0.00106726 	0.91275 	0.916946
454	20    	0.914042	0.00106726 	0.91275 	0.916946
455	20    	0.914042	0.00106726 	0.91275 	0.916946
456	20    	0.914042	0.00106726 	0.91275 	0.916946
457	20    	0.914042	0.00106726 	0.91275 	0.916946
458	20    	0.914042	0.00106726 	0.91275 	0.916946
459	20    	0.914042	0.00106726 	0.91275 	0.916946
460	20    	0.914042	0.00106726 	0.91275 	0.916946
461	20    	0.914042	0.00106726 	0.91275 	0.916946
462	20    	0.914042	0.00106726 	0.91275 	0.916946
463	20    	0.914042	0.00106726 	0.91275 	0.916946
464	20    	0.914042	0.00106726 	0.91275 	0.916946
465	20    	0.914042	0.00106726 	0.91275 	0.916946
466	20    	0.914042	0.00106726 	0.91275 	0.916946
467	20    	0.914042	0.00106726 	0.91275 	0.916946
468	20    	0.914042	0.00106726 	0.91275 	0.916946
469	20    	0.914042	0.00106726 	0.91275 	0.916946
470	20    	0.914042	0.00106726 	0.91275 	0.916946
471	20    	0.914042	0.00106726 	0.91275 	0.916946
472	20    	0.914162	0.00104986 	0.91275 	0.916946
473	20    	0.914162	0.00104986 	0.91275 	0.916946
474	20    	0.914162	0.00104986 	0.91275 	0.916946
475	20    	0.914222	0.00100054 	0.91275 	0.916946
476	20    	0.914222	0.00100054 	0.91275 	0.916946
477	20    	0.914222	0.00100054 	0.91275 	0.916946
478	20    	0.914222	0.00100054 	0.91275 	0.916946
479	20    	0.914222	0.00100054 	0.91275 	0.916946
480	20    	0.914222	0.00100054 	0.91275 	0.916946
481	20    	0.914222	0.00100054 	0.91275 	0.916946
482	20    	0.914222	0.00100054 	0.91275 	0.916946
483	20    	0.914222	0.00100054 	0.91275 	0.916946
484	20    	0.914222	0.00100054 	0.91275 	0.916946
485	20    	0.914222	0.00100054 	0.91275 	0.916946
486	20    	0.914222	0.00100054 	0.91275 	0.916946
487	20    	0.914342	0.000959754	0.913055	0.916946
488	20    	0.914342	0.000959754	0.913055	0.916946
489	20    	0.914357	0.000941433	0.913055	0.916946
490	20    	0.914357	0.000941433	0.913055	0.916946
491	20    	0.914417	0.000893683	0.913361	0.916946
492	20    	0.914417	0.000893683	0.913361	0.916946
493	20    	0.914417	0.000893683	0.913361	0.916946
494	20    	0.914417	0.000893683	0.913361	0.916946
495	20    	0.914417	0.000893683	0.913361	0.916946
496	20    	0.914417	0.000893683	0.913361	0.916946
497	20    	0.914417	0.000893683	0.913361	0.916946
498	20    	0.914417	0.000893683	0.913361	0.916946
499	20    	0.914417	0.000893683	0.913361	0.916946
