gen	nevals	avg     	std       	min     	max     
0  	20    	0.875529	0.00747387	0.857269	0.888382
1  	20    	0.881198	0.00534466	0.874664	0.895706
2  	20    	0.887328	0.00794764	0.879227	0.914001
3  	20    	0.891538	0.00744162	0.882889	0.914001
4  	20    	0.896572	0.0075466 	0.888382	0.915833
5  	20    	0.899683	0.00650175	0.89296 	0.915833
6  	20    	0.902473	0.00637256	0.895706	0.915833
7  	20    	0.90453 	0.0060566 	0.897537	0.915833
8  	20    	0.905853	0.00512123	0.899353	0.915833
9  	20    	0.907684	0.00445609	0.9021  	0.915833
10 	20    	0.908737	0.00416414	0.903931	0.915833
11 	20    	0.910294	0.00344359	0.905762	0.915833
12 	20    	0.911301	0.0027991 	0.907593	0.915833
13 	20    	0.912399	0.00279011	0.908508	0.919495
14 	20    	0.91272 	0.00246343	0.910339	0.919495
15 	20    	0.912857	0.00236757	0.910339	0.919495
16 	20    	0.913315	0.0023498 	0.910339	0.919495
17 	20    	0.914093	0.00255529	0.911255	0.919495
18 	20    	0.914093	0.00255529	0.911255	0.919495
19 	20    	0.914093	0.00255529	0.911255	0.919495
20 	20    	0.914688	0.00245448	0.911255	0.919495
21 	20    	0.915375	0.0022519 	0.91217 	0.919495
22 	20    	0.915649	0.00217811	0.913086	0.919495
23 	20    	0.916656	0.00264974	0.913086	0.924057
24 	20    	0.916656	0.00264974	0.913086	0.924057
25 	20    	0.916885	0.00245908	0.914001	0.924057
26 	20    	0.91693 	0.00241307	0.914001	0.924057
27 	20    	0.91693 	0.00241307	0.914001	0.924057
28 	20    	0.917388	0.00208729	0.914917	0.924057
29 	20    	0.917982	0.00237073	0.914917	0.924057
30 	20    	0.918166	0.002266  	0.915833	0.924057
31 	20    	0.918577	0.00239996	0.915833	0.924057
32 	20    	0.918623	0.0023555 	0.916748	0.924057
33 	20    	0.918668	0.00232735	0.916748	0.924057
34 	20    	0.919353	0.00274475	0.916748	0.925888
35 	20    	0.920039	0.00276145	0.916748	0.925888
36 	20    	0.920862	0.00298122	0.917664	0.927719
37 	20    	0.920862	0.00298122	0.917664	0.927719
38 	20    	0.920862	0.00298122	0.917664	0.927719
39 	20    	0.920862	0.00298122	0.917664	0.927719
40 	20    	0.921044	0.00289016	0.917664	0.927719
41 	20    	0.92141 	0.00272335	0.917664	0.927719
42 	20    	0.92141 	0.00272335	0.917664	0.927719
43 	20    	0.921684	0.00260575	0.918579	0.927719
44 	20    	0.922506	0.00291988	0.919495	0.92955 
45 	20    	0.92278 	0.00288123	0.919495	0.92955 
46 	20    	0.922826	0.00283558	0.919495	0.92955 
47 	20    	0.922826	0.00283558	0.919495	0.92955 
48 	20    	0.923557	0.00305292	0.919495	0.930466
49 	20    	0.924196	0.00285316	0.919495	0.930466
50 	20    	0.924287	0.00272828	0.92041 	0.930466
51 	20    	0.924377	0.00262606	0.92131 	0.930466
52 	20    	0.924377	0.00262606	0.92131 	0.930466
53 	20    	0.924377	0.00262606	0.92131 	0.930466
54 	20    	0.924606	0.00254708	0.92131 	0.930466
55 	20    	0.925385	0.00270778	0.92131 	0.931381
56 	20    	0.925522	0.00254708	0.923141	0.931381
57 	20    	0.925522	0.00254708	0.923141	0.931381
58 	20    	0.926254	0.00363223	0.923141	0.93779 
59 	20    	0.926529	0.00359396	0.923141	0.93779 
60 	20    	0.926529	0.00359396	0.923141	0.93779 
61 	20    	0.926529	0.00359396	0.923141	0.93779 
62 	20    	0.926529	0.00359396	0.923141	0.93779 
63 	20    	0.926666	0.00348953	0.923141	0.93779 
64 	20    	0.926666	0.00348953	0.923141	0.93779 
65 	20    	0.926758	0.00341916	0.923141	0.93779 
66 	20    	0.926758	0.00341916	0.923141	0.93779 
67 	20    	0.927353	0.00375701	0.924057	0.93779 
68 	20    	0.927399	0.00372199	0.924057	0.93779 
69 	20    	0.927399	0.00372199	0.924057	0.93779 
70 	20    	0.92749 	0.00366068	0.924057	0.93779 
71 	20    	0.927628	0.00355644	0.924057	0.93779 
72 	20    	0.927673	0.00351585	0.924973	0.93779 
73 	20    	0.927994	0.00347539	0.924973	0.93779 
74 	20    	0.928268	0.00333131	0.924973	0.93779 
75 	20    	0.928406	0.00324819	0.924973	0.93779 
76 	20    	0.928406	0.00324819	0.924973	0.93779 
77 	20    	0.928864	0.00306223	0.925888	0.93779 
78 	20    	0.928864	0.00306223	0.925888	0.93779 
79 	20    	0.928864	0.00306223	0.925888	0.93779 
80 	20    	0.928864	0.00306223	0.925888	0.93779 
81 	20    	0.928864	0.00306223	0.925888	0.93779 
82 	20    	0.928909	0.00302401	0.925888	0.93779 
83 	20    	0.928909	0.00302401	0.925888	0.93779 
84 	20    	0.928909	0.00302401	0.925888	0.93779 
85 	20    	0.929047	0.00294503	0.925888	0.93779 
86 	20    	0.929825	0.00306531	0.925888	0.93779 
87 	20    	0.929825	0.00306531	0.925888	0.93779 
88 	20    	0.930283	0.00293255	0.926804	0.93779 
89 	20    	0.930283	0.00293255	0.926804	0.93779 
90 	20    	0.930283	0.00293255	0.926804	0.93779 
91 	20    	0.930283	0.00293255	0.926804	0.93779 
92 	20    	0.930328	0.00288464	0.927719	0.93779 
93 	20    	0.930511	0.00282889	0.927719	0.93779 
94 	20    	0.930511	0.00282889	0.927719	0.93779 
95 	20    	0.930511	0.00282889	0.927719	0.93779 
96 	20    	0.930511	0.00282889	0.927719	0.93779 
97 	20    	0.930786	0.00281106	0.927719	0.93779 
98 	20    	0.931061	0.00259395	0.927719	0.93779 
99 	20    	0.931061	0.00259395	0.927719	0.93779 
100	20    	0.931061	0.00259395	0.927719	0.93779 
101	20    	0.931061	0.00259395	0.927719	0.93779 
102	20    	0.931061	0.00259395	0.927719	0.93779 
103	20    	0.931061	0.00259395	0.927719	0.93779 
104	20    	0.931198	0.00246683	0.928635	0.93779 
105	20    	0.931198	0.00246683	0.928635	0.93779 
106	20    	0.931198	0.00246683	0.928635	0.93779 
107	20    	0.931198	0.00246683	0.928635	0.93779 
108	20    	0.931564	0.00239791	0.928635	0.93779 
109	20    	0.931747	0.00230524	0.928635	0.93779 
110	20    	0.931747	0.00230524	0.928635	0.93779 
111	20    	0.932022	0.00224444	0.92955 	0.93779 
112	20    	0.932022	0.00224444	0.92955 	0.93779 
113	20    	0.932022	0.00224444	0.92955 	0.93779 
114	20    	0.932022	0.00224444	0.92955 	0.93779 
115	20    	0.932617	0.00297053	0.92955 	0.941452
116	20    	0.932709	0.00290202	0.92955 	0.941452
117	20    	0.932755	0.00285873	0.92955 	0.941452
118	20    	0.932755	0.00285873	0.92955 	0.941452
119	20    	0.933075	0.00284072	0.930466	0.941452
120	20    	0.933395	0.00288936	0.930466	0.941452
121	20    	0.933395	0.00288936	0.930466	0.941452
122	20    	0.933395	0.00288936	0.930466	0.941452
123	20    	0.933899	0.00272936	0.930466	0.941452
124	20    	0.933945	0.0026786 	0.931381	0.941452
125	20    	0.933945	0.0026786 	0.931381	0.941452
126	20    	0.933945	0.0026786 	0.931381	0.941452
127	20    	0.933945	0.0026786 	0.931381	0.941452
128	20    	0.933945	0.0026786 	0.931381	0.941452
129	20    	0.933945	0.0026786 	0.931381	0.941452
130	20    	0.93399 	0.00264197	0.931381	0.941452
131	20    	0.934082	0.00258099	0.931381	0.941452
132	20    	0.934082	0.00258099	0.931381	0.941452
133	20    	0.934082	0.00258099	0.931381	0.941452
134	20    	0.934082	0.00258099	0.931381	0.941452
135	20    	0.934082	0.00258099	0.931381	0.941452
136	20    	0.934082	0.00258099	0.931381	0.941452
137	20    	0.934082	0.00258099	0.931381	0.941452
138	20    	0.934448	0.00249513	0.931381	0.941452
139	20    	0.934448	0.00249513	0.931381	0.941452
140	20    	0.934448	0.00249513	0.931381	0.941452
141	20    	0.934448	0.00249513	0.931381	0.941452
142	20    	0.934448	0.00249513	0.931381	0.941452
143	20    	0.93486 	0.00263125	0.931381	0.941452
144	20    	0.93486 	0.00263125	0.931381	0.941452
145	20    	0.934998	0.0025152 	0.932297	0.941452
146	20    	0.934998	0.0025152 	0.932297	0.941452
147	20    	0.934998	0.0025152 	0.932297	0.941452
148	20    	0.934998	0.0025152 	0.932297	0.941452
149	20    	0.934998	0.0025152 	0.932297	0.941452
150	20    	0.935089	0.00244764	0.932297	0.941452
151	20    	0.935181	0.00237464	0.932297	0.941452
152	20    	0.935181	0.00237464	0.932297	0.941452
153	20    	0.935181	0.00237464	0.932297	0.941452
154	20    	0.935181	0.00237464	0.932297	0.941452
155	20    	0.935181	0.00237464	0.932297	0.941452
156	20    	0.935181	0.00237464	0.932297	0.941452
157	20    	0.935181	0.00237464	0.932297	0.941452
158	20    	0.935181	0.00237464	0.932297	0.941452
159	20    	0.935181	0.00237464	0.932297	0.941452
160	20    	0.935547	0.0021757 	0.933212	0.941452
161	20    	0.935547	0.0021757 	0.933212	0.941452
162	20    	0.935547	0.0021757 	0.933212	0.941452
163	20    	0.935547	0.0021757 	0.933212	0.941452
164	20    	0.935547	0.0021757 	0.933212	0.941452
165	20    	0.935547	0.0021757 	0.933212	0.941452
166	20    	0.935593	0.00213536	0.933212	0.941452
167	20    	0.935593	0.00213536	0.933212	0.941452
168	20    	0.935593	0.00213536	0.933212	0.941452
169	20    	0.935593	0.00213536	0.933212	0.941452
170	20    	0.935593	0.00213536	0.933212	0.941452
171	20    	0.935593	0.00213536	0.933212	0.941452
172	20    	0.935593	0.00213536	0.933212	0.941452
173	20    	0.935593	0.00213536	0.933212	0.941452
174	20    	0.935593	0.00213536	0.933212	0.941452
175	20    	0.935593	0.00213536	0.933212	0.941452
176	20    	0.935593	0.00213536	0.933212	0.941452
177	20    	0.935593	0.00213536	0.933212	0.941452
178	20    	0.935593	0.00213536	0.933212	0.941452
179	20    	0.935638	0.00209324	0.933212	0.941452
180	20    	0.935638	0.00209324	0.933212	0.941452
181	20    	0.935638	0.00209324	0.933212	0.941452
182	20    	0.935638	0.00209324	0.933212	0.941452
183	20    	0.935638	0.00209324	0.933212	0.941452
184	20    	0.935776	0.00201832	0.933212	0.941452
185	20    	0.935776	0.00201832	0.933212	0.941452
186	20    	0.935867	0.00193997	0.934128	0.941452
187	20    	0.935867	0.00193997	0.934128	0.941452
188	20    	0.935867	0.00193997	0.934128	0.941452
189	20    	0.935867	0.00193997	0.934128	0.941452
190	20    	0.935913	0.00190893	0.934128	0.941452
191	20    	0.935913	0.00190893	0.934128	0.941452
192	20    	0.935913	0.00190893	0.934128	0.941452
193	20    	0.935913	0.00190893	0.934128	0.941452
194	20    	0.93605 	0.00187404	0.934128	0.941452
195	20    	0.93605 	0.00187404	0.934128	0.941452
196	20    	0.93605 	0.00187404	0.934128	0.941452
197	20    	0.93605 	0.00187404	0.934128	0.941452
198	20    	0.93605 	0.00187404	0.934128	0.941452
199	20    	0.93605 	0.00187404	0.934128	0.941452
200	20    	0.93605 	0.00187404	0.934128	0.941452
201	20    	0.93605 	0.00187404	0.934128	0.941452
202	20    	0.93605 	0.00187404	0.934128	0.941452
203	20    	0.93605 	0.00187404	0.934128	0.941452
204	20    	0.936188	0.00182819	0.934128	0.941452
205	20    	0.936188	0.00182819	0.934128	0.941452
206	20    	0.936279	0.00176758	0.934128	0.941452
207	20    	0.936279	0.00176758	0.934128	0.941452
208	20    	0.936279	0.00176758	0.934128	0.941452
209	20    	0.936279	0.00176758	0.934128	0.941452
210	20    	0.936279	0.00176758	0.934128	0.941452
211	20    	0.936279	0.00176758	0.934128	0.941452
212	20    	0.936279	0.00176758	0.934128	0.941452
213	20    	0.936279	0.00176758	0.934128	0.941452
214	20    	0.936279	0.00176758	0.934128	0.941452
215	20    	0.936279	0.00176758	0.934128	0.941452
216	20    	0.936279	0.00176758	0.934128	0.941452
217	20    	0.936279	0.00176758	0.934128	0.941452
218	20    	0.936279	0.00176758	0.934128	0.941452
219	20    	0.936462	0.00172438	0.934128	0.941452
220	20    	0.936462	0.00172438	0.934128	0.941452
221	20    	0.936462	0.00172438	0.934128	0.941452
222	20    	0.936462	0.00172438	0.934128	0.941452
223	20    	0.936462	0.00172438	0.934128	0.941452
224	20    	0.936462	0.00172438	0.934128	0.941452
225	20    	0.936462	0.00172438	0.934128	0.941452
226	20    	0.936462	0.00172438	0.934128	0.941452
227	20    	0.936462	0.00172438	0.934128	0.941452
228	20    	0.936462	0.00172438	0.934128	0.941452
229	20    	0.936462	0.00172438	0.934128	0.941452
230	20    	0.936462	0.00172438	0.934128	0.941452
231	20    	0.936462	0.00172438	0.934128	0.941452
232	20    	0.936646	0.00165999	0.934128	0.941452
233	20    	0.936646	0.00165999	0.934128	0.941452
234	20    	0.936646	0.00165999	0.934128	0.941452
235	20    	0.936783	0.0015564 	0.935043	0.941452
236	20    	0.936783	0.0015564 	0.935043	0.941452
237	20    	0.936783	0.0015564 	0.935043	0.941452
238	20    	0.936783	0.0015564 	0.935043	0.941452
239	20    	0.936783	0.0015564 	0.935043	0.941452
240	20    	0.936966	0.0015564 	0.935043	0.941452
241	20    	0.936966	0.0015564 	0.935043	0.941452
242	20    	0.936966	0.0015564 	0.935043	0.941452
243	20    	0.936966	0.0015564 	0.935043	0.941452
244	20    	0.936966	0.0015564 	0.935043	0.941452
245	20    	0.936966	0.0015564 	0.935043	0.941452
246	20    	0.936966	0.0015564 	0.935043	0.941452
247	20    	0.936966	0.0015564 	0.935043	0.941452
248	20    	0.936966	0.0015564 	0.935043	0.941452
249	20    	0.936966	0.0015564 	0.935043	0.941452
250	20    	0.936966	0.0015564 	0.935043	0.941452
251	20    	0.936966	0.0015564 	0.935043	0.941452
252	20    	0.936966	0.0015564 	0.935043	0.941452
253	20    	0.936966	0.0015564 	0.935043	0.941452
254	20    	0.937149	0.0015347 	0.935043	0.941452
255	20    	0.937195	0.00148403	0.935043	0.941452
256	20    	0.937195	0.00148403	0.935043	0.941452
257	20    	0.937195	0.00148403	0.935043	0.941452
258	20    	0.937195	0.00148403	0.935043	0.941452
259	20    	0.937332	0.00140348	0.935959	0.941452
260	20    	0.937332	0.00140348	0.935959	0.941452
261	20    	0.937332	0.00140348	0.935959	0.941452
262	20    	0.937332	0.00140348	0.935959	0.941452
263	20    	0.937332	0.00140348	0.935959	0.941452
264	20    	0.937561	0.00152855	0.935959	0.941452
265	20    	0.937561	0.00152855	0.935959	0.941452
266	20    	0.937561	0.00152855	0.935959	0.941452
267	20    	0.937561	0.00152855	0.935959	0.941452
268	20    	0.937561	0.00152855	0.935959	0.941452
269	20    	0.937607	0.00149318	0.935959	0.941452
270	20    	0.937607	0.00149318	0.935959	0.941452
271	20    	0.937836	0.00140273	0.935959	0.941452
272	20    	0.937836	0.00140273	0.935959	0.941452
273	20    	0.937836	0.00140273	0.935959	0.941452
274	20    	0.937836	0.00140273	0.935959	0.941452
275	20    	0.938019	0.00138469	0.935959	0.941452
276	20    	0.938019	0.00138469	0.935959	0.941452
277	20    	0.938019	0.00138469	0.935959	0.941452
278	20    	0.938019	0.00138469	0.935959	0.941452
279	20    	0.938019	0.00138469	0.935959	0.941452
280	20    	0.938019	0.00138469	0.935959	0.941452
281	20    	0.938019	0.00138469	0.935959	0.941452
282	20    	0.938019	0.00138469	0.935959	0.941452
283	20    	0.938202	0.00134165	0.936874	0.941452
284	20    	0.938202	0.00134165	0.936874	0.941452
285	20    	0.938202	0.00134165	0.936874	0.941452
286	20    	0.938202	0.00134165	0.936874	0.941452
287	20    	0.938202	0.00134165	0.936874	0.941452
288	20    	0.938202	0.00134165	0.936874	0.941452
289	20    	0.938202	0.00134165	0.936874	0.941452
290	20    	0.938202	0.00134165	0.936874	0.941452
291	20    	0.938202	0.00134165	0.936874	0.941452
292	20    	0.938202	0.00134165	0.936874	0.941452
293	20    	0.938202	0.00134165	0.936874	0.941452
294	20    	0.938202	0.00134165	0.936874	0.941452
295	20    	0.938202	0.00134165	0.936874	0.941452
296	20    	0.938202	0.00134165	0.936874	0.941452
297	20    	0.938202	0.00134165	0.936874	0.941452
298	20    	0.938202	0.00134165	0.936874	0.941452
299	20    	0.938202	0.00134165	0.936874	0.941452
300	20    	0.938202	0.00134165	0.936874	0.941452
301	20    	0.938202	0.00134165	0.936874	0.941452
302	20    	0.938293	0.00131004	0.936874	0.941452
303	20    	0.938293	0.00131004	0.936874	0.941452
304	20    	0.938293	0.00131004	0.936874	0.941452
305	20    	0.938385	0.00127107	0.936874	0.941452
306	20    	0.938385	0.00127107	0.936874	0.941452
307	20    	0.93866 	0.00148967	0.936874	0.942368
308	20    	0.93866 	0.00148967	0.936874	0.942368
309	20    	0.93866 	0.00148967	0.936874	0.942368
310	20    	0.93866 	0.00148967	0.936874	0.942368
311	20    	0.93866 	0.00148967	0.936874	0.942368
312	20    	0.93866 	0.00148967	0.936874	0.942368
313	20    	0.93866 	0.00148967	0.936874	0.942368
314	20    	0.93866 	0.00148967	0.936874	0.942368
315	20    	0.938705	0.00144758	0.936874	0.942368
316	20    	0.938705	0.00144758	0.936874	0.942368
317	20    	0.938705	0.00144758	0.936874	0.942368
318	20    	0.938751	0.00140273	0.936874	0.942368
319	20    	0.938751	0.00140273	0.936874	0.942368
320	20    	0.938751	0.00140273	0.936874	0.942368
321	20    	0.938751	0.00140273	0.936874	0.942368
322	20    	0.938751	0.00140273	0.936874	0.942368
323	20    	0.938751	0.00140273	0.936874	0.942368
324	20    	0.938751	0.00140273	0.936874	0.942368
325	20    	0.938751	0.00140273	0.936874	0.942368
326	20    	0.938751	0.00140273	0.936874	0.942368
327	20    	0.938751	0.00140273	0.936874	0.942368
328	20    	0.938751	0.00140273	0.936874	0.942368
329	20    	0.938751	0.00140273	0.936874	0.942368
330	20    	0.938751	0.00140273	0.936874	0.942368
331	20    	0.938797	0.00135486	0.936874	0.942368
332	20    	0.938797	0.00135486	0.936874	0.942368
333	20    	0.938934	0.0012907 	0.93779 	0.942368
334	20    	0.938934	0.0012907 	0.93779 	0.942368
335	20    	0.938934	0.0012907 	0.93779 	0.942368
336	20    	0.938934	0.0012907 	0.93779 	0.942368
337	20    	0.938934	0.0012907 	0.93779 	0.942368
338	20    	0.938934	0.0012907 	0.93779 	0.942368
339	20    	0.938934	0.0012907 	0.93779 	0.942368
340	20    	0.938934	0.0012907 	0.93779 	0.942368
341	20    	0.938934	0.0012907 	0.93779 	0.942368
342	20    	0.938934	0.0012907 	0.93779 	0.942368
343	20    	0.938934	0.0012907 	0.93779 	0.942368
344	20    	0.938934	0.0012907 	0.93779 	0.942368
345	20    	0.938934	0.0012907 	0.93779 	0.942368
346	20    	0.939026	0.00127107	0.93779 	0.942368
347	20    	0.939026	0.00127107	0.93779 	0.942368
348	20    	0.939026	0.00127107	0.93779 	0.942368
349	20    	0.939026	0.00127107	0.93779 	0.942368
350	20    	0.939026	0.00127107	0.93779 	0.942368
351	20    	0.939026	0.00127107	0.93779 	0.942368
352	20    	0.939026	0.00127107	0.93779 	0.942368
353	20    	0.939026	0.00127107	0.93779 	0.942368
354	20    	0.939026	0.00127107	0.93779 	0.942368
355	20    	0.939026	0.00127107	0.93779 	0.942368
356	20    	0.939026	0.00127107	0.93779 	0.942368
357	20    	0.939026	0.00127107	0.93779 	0.942368
358	20    	0.939026	0.00127107	0.93779 	0.942368
359	20    	0.939026	0.00127107	0.93779 	0.942368
360	20    	0.939026	0.00127107	0.93779 	0.942368
361	20    	0.939026	0.00127107	0.93779 	0.942368
362	20    	0.939026	0.00127107	0.93779 	0.942368
363	20    	0.939026	0.00127107	0.93779 	0.942368
364	20    	0.939026	0.00127107	0.93779 	0.942368
365	20    	0.939026	0.00127107	0.93779 	0.942368
366	20    	0.939026	0.00127107	0.93779 	0.942368
367	20    	0.939026	0.00127107	0.93779 	0.942368
368	20    	0.939026	0.00127107	0.93779 	0.942368
369	20    	0.939026	0.00127107	0.93779 	0.942368
370	20    	0.939026	0.00127107	0.93779 	0.942368
371	20    	0.939026	0.00127107	0.93779 	0.942368
372	20    	0.939026	0.00127107	0.93779 	0.942368
373	20    	0.939026	0.00127107	0.93779 	0.942368
374	20    	0.939026	0.00127107	0.93779 	0.942368
375	20    	0.939026	0.00127107	0.93779 	0.942368
376	20    	0.939026	0.00127107	0.93779 	0.942368
377	20    	0.939026	0.00127107	0.93779 	0.942368
378	20    	0.939026	0.00127107	0.93779 	0.942368
379	20    	0.939026	0.00127107	0.93779 	0.942368
380	20    	0.939026	0.00127107	0.93779 	0.942368
381	20    	0.9393  	0.0015375 	0.93779 	0.943268
382	20    	0.9393  	0.0015375 	0.93779 	0.943268
383	20    	0.9393  	0.0015375 	0.93779 	0.943268
384	20    	0.9393  	0.0015375 	0.93779 	0.943268
385	20    	0.9393  	0.0015375 	0.93779 	0.943268
386	20    	0.9393  	0.0015375 	0.93779 	0.943268
387	20    	0.9393  	0.0015375 	0.93779 	0.943268
388	20    	0.9393  	0.0015375 	0.93779 	0.943268
389	20    	0.9393  	0.0015375 	0.93779 	0.943268
390	20    	0.9393  	0.0015375 	0.93779 	0.943268
391	20    	0.939391	0.0014989 	0.93779 	0.943268
392	20    	0.939391	0.0014989 	0.93779 	0.943268
393	20    	0.939529	0.00147146	0.93779 	0.943268
394	20    	0.939529	0.00147146	0.93779 	0.943268
395	20    	0.939574	0.00143032	0.93779 	0.943268
396	20    	0.93962 	0.00138646	0.93779 	0.943268
397	20    	0.93962 	0.00138646	0.93779 	0.943268
398	20    	0.939758	0.00133337	0.93779 	0.943268
399	20    	0.939758	0.00133337	0.93779 	0.943268
400	20    	0.939803	0.00127967	0.938705	0.943268
401	20    	0.939803	0.00127967	0.938705	0.943268
402	20    	0.939803	0.00127967	0.938705	0.943268
403	20    	0.939849	0.00125573	0.938705	0.943268
404	20    	0.939849	0.00125573	0.938705	0.943268
405	20    	0.939849	0.00125573	0.938705	0.943268
406	20    	0.939849	0.00125573	0.938705	0.943268
407	20    	0.939849	0.00125573	0.938705	0.943268
408	20    	0.939849	0.00125573	0.938705	0.943268
409	20    	0.940077	0.00142962	0.938705	0.943268
410	20    	0.940077	0.00142962	0.938705	0.943268
411	20    	0.940077	0.00142962	0.938705	0.943268
412	20    	0.940351	0.00164855	0.938705	0.944183
413	20    	0.940351	0.00164855	0.938705	0.944183
414	20    	0.940351	0.00164855	0.938705	0.944183
415	20    	0.940351	0.00164855	0.938705	0.944183
416	20    	0.940351	0.00164855	0.938705	0.944183
417	20    	0.940351	0.00164855	0.938705	0.944183
418	20    	0.940351	0.00164855	0.938705	0.944183
419	20    	0.940351	0.00164855	0.938705	0.944183
420	20    	0.940351	0.00164855	0.938705	0.944183
421	20    	0.940351	0.00164855	0.938705	0.944183
422	20    	0.940443	0.00160488	0.938705	0.944183
423	20    	0.940443	0.00160488	0.938705	0.944183
424	20    	0.940443	0.00160488	0.938705	0.944183
425	20    	0.940443	0.00160488	0.938705	0.944183
426	20    	0.940443	0.00160488	0.938705	0.944183
427	20    	0.940443	0.00160488	0.938705	0.944183
428	20    	0.940443	0.00160488	0.938705	0.944183
429	20    	0.940443	0.00160488	0.938705	0.944183
430	20    	0.940443	0.00160488	0.938705	0.944183
431	20    	0.940443	0.00160488	0.938705	0.944183
432	20    	0.940443	0.00160488	0.938705	0.944183
433	20    	0.940443	0.00160488	0.938705	0.944183
434	20    	0.94058 	0.00156743	0.938705	0.944183
435	20    	0.94058 	0.00156743	0.938705	0.944183
436	20    	0.940854	0.00156129	0.938705	0.944183
437	20    	0.940854	0.00156129	0.938705	0.944183
438	20    	0.940854	0.00156129	0.938705	0.944183
439	20    	0.940854	0.00156129	0.938705	0.944183
440	20    	0.940854	0.00156129	0.938705	0.944183
441	20    	0.940854	0.00156129	0.938705	0.944183
442	20    	0.940854	0.00156129	0.938705	0.944183
443	20    	0.940854	0.00156129	0.938705	0.944183
444	20    	0.940854	0.00156129	0.938705	0.944183
445	20    	0.940854	0.00156129	0.938705	0.944183
446	20    	0.940854	0.00156129	0.938705	0.944183
447	20    	0.940854	0.00156129	0.938705	0.944183
448	20    	0.940854	0.00156129	0.938705	0.944183
449	20    	0.940854	0.00156129	0.938705	0.944183
450	20    	0.940854	0.00156129	0.938705	0.944183
451	20    	0.940854	0.00156129	0.938705	0.944183
452	20    	0.940854	0.00156129	0.938705	0.944183
453	20    	0.940854	0.00156129	0.938705	0.944183
454	20    	0.940854	0.00156129	0.938705	0.944183
455	20    	0.940854	0.00156129	0.938705	0.944183
456	20    	0.940854	0.00156129	0.938705	0.944183
457	20    	0.940991	0.00148522	0.939621	0.944183
458	20    	0.940991	0.00148522	0.939621	0.944183
459	20    	0.940991	0.00148522	0.939621	0.944183
460	20    	0.941219	0.00160295	0.939621	0.944183
461	20    	0.941219	0.00160295	0.939621	0.944183
462	20    	0.941219	0.00160295	0.939621	0.944183
463	20    	0.941219	0.00160295	0.939621	0.944183
464	20    	0.941219	0.00160295	0.939621	0.944183
465	20    	0.941219	0.00160295	0.939621	0.944183
466	20    	0.941219	0.00160295	0.939621	0.944183
467	20    	0.941585	0.00198462	0.939621	0.94693 
468	20    	0.941585	0.00198462	0.939621	0.94693 
469	20    	0.941585	0.00198462	0.939621	0.94693 
470	20    	0.941585	0.00198462	0.939621	0.94693 
471	20    	0.941585	0.00198462	0.939621	0.94693 
472	20    	0.941585	0.00198462	0.939621	0.94693 
473	20    	0.941585	0.00198462	0.939621	0.94693 
474	20    	0.941585	0.00198462	0.939621	0.94693 
475	20    	0.941768	0.00189871	0.939621	0.94693 
476	20    	0.941768	0.00189871	0.939621	0.94693 
477	20    	0.941768	0.00189871	0.939621	0.94693 
478	20    	0.941768	0.00189871	0.939621	0.94693 
479	20    	0.941768	0.00189871	0.939621	0.94693 
480	20    	0.941768	0.00189871	0.939621	0.94693 
481	20    	0.941768	0.00189871	0.939621	0.94693 
482	20    	0.941768	0.00189871	0.939621	0.94693 
483	20    	0.941768	0.00189871	0.939621	0.94693 
484	20    	0.941768	0.00189871	0.939621	0.94693 
485	20    	0.941768	0.00189871	0.939621	0.94693 
486	20    	0.941768	0.00189871	0.939621	0.94693 
487	20    	0.941768	0.00189871	0.939621	0.94693 
488	20    	0.941768	0.00189871	0.939621	0.94693 
489	20    	0.941768	0.00189871	0.939621	0.94693 
490	20    	0.941768	0.00189871	0.939621	0.94693 
491	20    	0.941768	0.00189871	0.939621	0.94693 
492	20    	0.941768	0.00189871	0.939621	0.94693 
493	20    	0.941768	0.00189871	0.939621	0.94693 
494	20    	0.941768	0.00189871	0.939621	0.94693 
495	20    	0.941768	0.00189871	0.939621	0.94693 
496	20    	0.941768	0.00189871	0.939621	0.94693 
497	20    	0.941768	0.00189871	0.939621	0.94693 
498	20    	0.941768	0.00189871	0.939621	0.94693 
499	20    	0.941768	0.00189871	0.939621	0.94693 
