gen	nevals	avg     	std        	min     	max     
0  	20    	0.876022	0.00620213 	0.862564	0.887955
1  	20    	0.880369	0.0029887  	0.876312	0.887955
2  	20    	0.882446	0.00215407 	0.879898	0.887955
3  	20    	0.88382 	0.00201504 	0.881393	0.88826 
4  	20    	0.885896	0.00262641 	0.882874	0.894531
5  	20    	0.886778	0.00263081 	0.884369	0.894531
6  	20    	0.887392	0.00268119 	0.884674	0.894531
7  	20    	0.888228	0.00243026 	0.885864	0.894531
8  	20    	0.888766	0.00209467 	0.886169	0.894531
9  	20    	0.889574	0.00210609 	0.88736 	0.894836
10 	20    	0.890485	0.00226812 	0.887955	0.894836
11 	20    	0.891038	0.00227094 	0.888855	0.895432
12 	20    	0.89183 	0.00291173 	0.88916 	0.899918
13 	20    	0.893143	0.00293426 	0.88945 	0.899918
14 	20    	0.89404 	0.00257474 	0.890045	0.899918
15 	20    	0.894398	0.00218347 	0.891251	0.899918
16 	20    	0.895339	0.00210051 	0.892746	0.900208
17 	20    	0.895369	0.00206752 	0.892746	0.900208
18 	20    	0.895861	0.00191261 	0.893631	0.900208
19 	20    	0.89613 	0.00183557 	0.893936	0.900208
20 	20    	0.896354	0.00182791 	0.894226	0.900208
21 	20    	0.896445	0.00174296 	0.894531	0.900208
22 	20    	0.896729	0.00164205 	0.894531	0.900208
23 	20    	0.896967	0.00150064 	0.894836	0.900208
24 	20    	0.8974  	0.00171602 	0.895126	0.902008
25 	20    	0.897684	0.00153834 	0.895721	0.902008
26 	20    	0.898357	0.00160705 	0.896027	0.902008
27 	20    	0.898715	0.0015107  	0.896622	0.902008
28 	20    	0.898745	0.0014746  	0.896927	0.902008
29 	20    	0.899149	0.00136012 	0.897217	0.902008
30 	20    	0.899418	0.00124172 	0.897812	0.902008
31 	20    	0.899702	0.00105247 	0.897812	0.902008
32 	20    	0.899748	0.000982397	0.898422	0.902008
33 	20    	0.899748	0.000982397	0.898422	0.902008
34 	20    	0.899912	0.00102045 	0.898422	0.902008
35 	20    	0.900121	0.000920363	0.898422	0.902008
36 	20    	0.900539	0.00101733 	0.899017	0.903198
37 	20    	0.900659	0.000913457	0.899612	0.903198
38 	20    	0.900659	0.000913457	0.899612	0.903198
39 	20    	0.900883	0.000934632	0.899918	0.903198
40 	20    	0.901301	0.00136016 	0.899918	0.905884
41 	20    	0.901301	0.00136016 	0.899918	0.905884
42 	20    	0.901301	0.00136016 	0.899918	0.905884
43 	20    	0.901883	0.00200867 	0.900208	0.908569
44 	20    	0.901883	0.00200867 	0.900208	0.908569
45 	20    	0.902182	0.0019035  	0.900513	0.908569
46 	20    	0.902555	0.00191068 	0.900803	0.908569
47 	20    	0.90257 	0.0018978  	0.900803	0.908569
48 	20    	0.90281 	0.00186944 	0.900803	0.908569
49 	20    	0.90281 	0.00186944 	0.900803	0.908569
50 	20    	0.903094	0.00180353 	0.901108	0.908569
51 	20    	0.903512	0.00185515 	0.901703	0.908569
52 	20    	0.903512	0.00185515 	0.901703	0.908569
53 	20    	0.903512	0.00185515 	0.901703	0.908569
54 	20    	0.903512	0.00185515 	0.901703	0.908569
55 	20    	0.903571	0.00181482 	0.901703	0.908569
56 	20    	0.903571	0.00181482 	0.901703	0.908569
57 	20    	0.903571	0.00181482 	0.901703	0.908569
58 	20    	0.903571	0.00181482 	0.901703	0.908569
59 	20    	0.90393 	0.00209682 	0.901703	0.908875
60 	20    	0.904034	0.00201689 	0.902008	0.908875
61 	20    	0.904034	0.00201689 	0.902008	0.908875
62 	20    	0.904213	0.001908   	0.902008	0.908875
63 	20    	0.904317	0.00184042 	0.902008	0.908875
64 	20    	0.904362	0.00179442 	0.902603	0.908875
65 	20    	0.904362	0.00179442 	0.902603	0.908875
66 	20    	0.904571	0.00182072 	0.902603	0.908875
67 	20    	0.904646	0.00176833 	0.902603	0.908875
68 	20    	0.905138	0.00186469 	0.902893	0.908875
69 	20    	0.905288	0.00179734 	0.902893	0.908875
70 	20    	0.905363	0.00171555 	0.903198	0.908875
71 	20    	0.905437	0.00165095 	0.903488	0.908875
72 	20    	0.905662	0.00156562 	0.903793	0.908875
73 	20    	0.905827	0.00146139 	0.904099	0.908875
74 	20    	0.905827	0.00146139 	0.904099	0.908875
75 	20    	0.905827	0.00146139 	0.904099	0.908875
76 	20    	0.905827	0.00146139 	0.904099	0.908875
77 	20    	0.905856	0.00143166 	0.904099	0.908875
78 	20    	0.905856	0.00143166 	0.904099	0.908875
79 	20    	0.905856	0.00143166 	0.904099	0.908875
80 	20    	0.90602 	0.00133096 	0.904694	0.908875
81 	20    	0.906079	0.00129651 	0.904694	0.908875
82 	20    	0.906706	0.00213521 	0.904694	0.914246
83 	20    	0.90687 	0.00210001 	0.904694	0.914246
84 	20    	0.906975	0.00202029 	0.904984	0.914246
85 	20    	0.907275	0.00191963 	0.905594	0.914246
86 	20    	0.907334	0.00188473 	0.905884	0.914246
87 	20    	0.907513	0.00190864 	0.905884	0.914246
88 	20    	0.907588	0.00187228 	0.905884	0.914246
89 	20    	0.907603	0.00185953 	0.905884	0.914246
90 	20    	0.907603	0.00185953 	0.905884	0.914246
91 	20    	0.907723	0.00182167 	0.905884	0.914246
92 	20    	0.907768	0.00178644 	0.906189	0.914246
93 	20    	0.907977	0.00183341 	0.906189	0.914246
94 	20    	0.907977	0.00183341 	0.906189	0.914246
95 	20    	0.907992	0.00182031 	0.906189	0.914246
96 	20    	0.908096	0.0017732  	0.906479	0.914246
97 	20    	0.908276	0.00178186 	0.906479	0.914246
98 	20    	0.908366	0.00173364 	0.906479	0.914246
99 	20    	0.908366	0.00173364 	0.906479	0.914246
100	20    	0.908366	0.00173364 	0.906479	0.914246
101	20    	0.908366	0.00173364 	0.906479	0.914246
102	20    	0.908366	0.00173364 	0.906479	0.914246
103	20    	0.908366	0.00173364 	0.906479	0.914246
104	20    	0.908366	0.00173364 	0.906479	0.914246
105	20    	0.908426	0.00168733 	0.906784	0.914246
106	20    	0.908426	0.00168733 	0.906784	0.914246
107	20    	0.908426	0.00168733 	0.906784	0.914246
108	20    	0.908456	0.00166319 	0.906784	0.914246
109	20    	0.908456	0.00166319 	0.906784	0.914246
110	20    	0.908575	0.0016243  	0.906784	0.914246
111	20    	0.908575	0.0016243  	0.906784	0.914246
112	20    	0.908665	0.0015716  	0.906784	0.914246
113	20    	0.908754	0.00151181 	0.907074	0.914246
114	20    	0.908919	0.00149929 	0.907379	0.914246
115	20    	0.909113	0.00144869 	0.907684	0.914246
116	20    	0.909113	0.00144869 	0.907684	0.914246
117	20    	0.909113	0.00144869 	0.907684	0.914246
118	20    	0.909113	0.00144869 	0.907684	0.914246
119	20    	0.909113	0.00144869 	0.907684	0.914246
120	20    	0.909113	0.00144869 	0.907684	0.914246
121	20    	0.909113	0.00144869 	0.907684	0.914246
122	20    	0.909113	0.00144869 	0.907684	0.914246
123	20    	0.909113	0.00144869 	0.907684	0.914246
124	20    	0.909203	0.00141244 	0.907684	0.914246
125	20    	0.909396	0.00139358 	0.908279	0.914246
126	20    	0.909396	0.00139358 	0.908279	0.914246
127	20    	0.909396	0.00139358 	0.908279	0.914246
128	20    	0.909396	0.00139358 	0.908279	0.914246
129	20    	0.909396	0.00139358 	0.908279	0.914246
130	20    	0.909396	0.00139358 	0.908279	0.914246
131	20    	0.909396	0.00139358 	0.908279	0.914246
132	20    	0.909426	0.00137566 	0.908279	0.914246
133	20    	0.909426	0.00137566 	0.908279	0.914246
134	20    	0.909426	0.00137566 	0.908279	0.914246
135	20    	0.909665	0.00144199 	0.908279	0.914246
136	20    	0.909724	0.00140773 	0.908279	0.914246
137	20    	0.909829	0.00137376 	0.908569	0.914246
138	20    	0.909829	0.00137376 	0.908569	0.914246
139	20    	0.909829	0.00137376 	0.908569	0.914246
140	20    	0.909829	0.00137376 	0.908569	0.914246
141	20    	0.909829	0.00137376 	0.908569	0.914246
142	20    	0.909889	0.00134328 	0.908569	0.914246
143	20    	0.910069	0.00139351 	0.908569	0.914246
144	20    	0.910069	0.00139351 	0.908569	0.914246
145	20    	0.910069	0.00139351 	0.908569	0.914246
146	20    	0.910069	0.00139351 	0.908569	0.914246
147	20    	0.910069	0.00139351 	0.908569	0.914246
148	20    	0.910069	0.00139351 	0.908569	0.914246
149	20    	0.910069	0.00139351 	0.908569	0.914246
150	20    	0.910069	0.00139351 	0.908569	0.914246
151	20    	0.910069	0.00139351 	0.908569	0.914246
152	20    	0.910069	0.00139351 	0.908569	0.914246
153	20    	0.910173	0.00135501 	0.908569	0.914246
154	20    	0.910173	0.00135501 	0.908569	0.914246
155	20    	0.910248	0.00130478 	0.908875	0.914246
156	20    	0.910427	0.00134936 	0.908875	0.914246
157	20    	0.910427	0.00134936 	0.908875	0.914246
158	20    	0.910427	0.00134936 	0.908875	0.914246
159	20    	0.910487	0.0013051  	0.908875	0.914246
160	20    	0.910487	0.0013051  	0.908875	0.914246
161	20    	0.910487	0.0013051  	0.908875	0.914246
162	20    	0.910487	0.0013051  	0.908875	0.914246
163	20    	0.910487	0.0013051  	0.908875	0.914246
164	20    	0.910487	0.0013051  	0.908875	0.914246
165	20    	0.910696	0.00136366 	0.90918 	0.914246
166	20    	0.910696	0.00136366 	0.90918 	0.914246
167	20    	0.910696	0.00136366 	0.90918 	0.914246
168	20    	0.910784	0.00128909 	0.90947 	0.914246
169	20    	0.910799	0.00127517 	0.90947 	0.914246
170	20    	0.910799	0.00127517 	0.90947 	0.914246
171	20    	0.910799	0.00127517 	0.90947 	0.914246
172	20    	0.910799	0.00127517 	0.90947 	0.914246
173	20    	0.910799	0.00127517 	0.90947 	0.914246
174	20    	0.910799	0.00127517 	0.90947 	0.914246
175	20    	0.910799	0.00127517 	0.90947 	0.914246
176	20    	0.910799	0.00127517 	0.90947 	0.914246
177	20    	0.910799	0.00127517 	0.90947 	0.914246
178	20    	0.910799	0.00127517 	0.90947 	0.914246
179	20    	0.910799	0.00127517 	0.90947 	0.914246
180	20    	0.910799	0.00127517 	0.90947 	0.914246
181	20    	0.910799	0.00127517 	0.90947 	0.914246
182	20    	0.910799	0.00127517 	0.90947 	0.914246
183	20    	0.910829	0.00125049 	0.90947 	0.914246
184	20    	0.910889	0.00121211 	0.909775	0.914246
185	20    	0.910948	0.00118487 	0.909775	0.914246
186	20    	0.910948	0.00118487 	0.909775	0.914246
187	20    	0.910948	0.00118487 	0.909775	0.914246
188	20    	0.910948	0.00118487 	0.909775	0.914246
189	20    	0.910948	0.00118487 	0.909775	0.914246
190	20    	0.910978	0.00116229 	0.910065	0.914246
191	20    	0.910978	0.00116229 	0.910065	0.914246
192	20    	0.910978	0.00116229 	0.910065	0.914246
193	20    	0.910978	0.00116229 	0.910065	0.914246
194	20    	0.910978	0.00116229 	0.910065	0.914246
195	20    	0.910978	0.00116229 	0.910065	0.914246
196	20    	0.910978	0.00116229 	0.910065	0.914246
197	20    	0.910978	0.00116229 	0.910065	0.914246
198	20    	0.910978	0.00116229 	0.910065	0.914246
199	20    	0.910978	0.00116229 	0.910065	0.914246
200	20    	0.910978	0.00116229 	0.910065	0.914246
201	20    	0.910978	0.00116229 	0.910065	0.914246
202	20    	0.910978	0.00116229 	0.910065	0.914246
203	20    	0.910978	0.00116229 	0.910065	0.914246
204	20    	0.910978	0.00116229 	0.910065	0.914246
205	20    	0.910978	0.00116229 	0.910065	0.914246
206	20    	0.910978	0.00116229 	0.910065	0.914246
207	20    	0.911143	0.00125136 	0.910065	0.914246
208	20    	0.911143	0.00125136 	0.910065	0.914246
209	20    	0.911143	0.00125136 	0.910065	0.914246
210	20    	0.911158	0.00123993 	0.910065	0.914246
211	20    	0.911158	0.00123993 	0.910065	0.914246
212	20    	0.911158	0.00123993 	0.910065	0.914246
213	20    	0.911158	0.00123993 	0.910065	0.914246
214	20    	0.911158	0.00123993 	0.910065	0.914246
215	20    	0.911158	0.00123993 	0.910065	0.914246
216	20    	0.911158	0.00123993 	0.910065	0.914246
217	20    	0.911158	0.00123993 	0.910065	0.914246
218	20    	0.911158	0.00123993 	0.910065	0.914246
219	20    	0.911158	0.00123993 	0.910065	0.914246
220	20    	0.911158	0.00123993 	0.910065	0.914246
221	20    	0.911218	0.00121436 	0.910065	0.914246
222	20    	0.911218	0.00121436 	0.910065	0.914246
223	20    	0.911218	0.00121436 	0.910065	0.914246
224	20    	0.911218	0.00121436 	0.910065	0.914246
225	20    	0.911338	0.00121281 	0.910065	0.914246
226	20    	0.911338	0.00121281 	0.910065	0.914246
227	20    	0.911517	0.00127479 	0.910065	0.914246
228	20    	0.911517	0.00127479 	0.910065	0.914246
229	20    	0.911517	0.00127479 	0.910065	0.914246
230	20    	0.911533	0.00125904 	0.91037 	0.914246
231	20    	0.911533	0.00125904 	0.91037 	0.914246
232	20    	0.911533	0.00125904 	0.91037 	0.914246
233	20    	0.911533	0.00125904 	0.91037 	0.914246
234	20    	0.911533	0.00125904 	0.91037 	0.914246
235	20    	0.911533	0.00125904 	0.91037 	0.914246
236	20    	0.911533	0.00125904 	0.91037 	0.914246
237	20    	0.911533	0.00125904 	0.91037 	0.914246
238	20    	0.911533	0.00125904 	0.91037 	0.914246
239	20    	0.911533	0.00125904 	0.91037 	0.914246
240	20    	0.911533	0.00125904 	0.91037 	0.914246
241	20    	0.911533	0.00125904 	0.91037 	0.914246
242	20    	0.911533	0.00125904 	0.91037 	0.914246
243	20    	0.911533	0.00125904 	0.91037 	0.914246
244	20    	0.911533	0.00125904 	0.91037 	0.914246
245	20    	0.911533	0.00125904 	0.91037 	0.914246
246	20    	0.911533	0.00125904 	0.91037 	0.914246
247	20    	0.911533	0.00125904 	0.91037 	0.914246
248	20    	0.911533	0.00125904 	0.91037 	0.914246
249	20    	0.911533	0.00125904 	0.91037 	0.914246
250	20    	0.911533	0.00125904 	0.91037 	0.914246
251	20    	0.911533	0.00125904 	0.91037 	0.914246
252	20    	0.911533	0.00125904 	0.91037 	0.914246
253	20    	0.911533	0.00125904 	0.91037 	0.914246
254	20    	0.911533	0.00125904 	0.91037 	0.914246
255	20    	0.911533	0.00125904 	0.91037 	0.914246
256	20    	0.911533	0.00125904 	0.91037 	0.914246
257	20    	0.911533	0.00125904 	0.91037 	0.914246
258	20    	0.911682	0.0012893  	0.91037 	0.914246
259	20    	0.911682	0.0012893  	0.91037 	0.914246
260	20    	0.911682	0.0012893  	0.91037 	0.914246
261	20    	0.911682	0.0012893  	0.91037 	0.914246
262	20    	0.911682	0.0012893  	0.91037 	0.914246
263	20    	0.911682	0.0012893  	0.91037 	0.914246
264	20    	0.911682	0.0012893  	0.91037 	0.914246
265	20    	0.911682	0.0012893  	0.91037 	0.914246
266	20    	0.911682	0.0012893  	0.91037 	0.914246
267	20    	0.911682	0.0012893  	0.91037 	0.914246
268	20    	0.911682	0.0012893  	0.91037 	0.914246
269	20    	0.911682	0.0012893  	0.91037 	0.914246
270	20    	0.911682	0.0012893  	0.91037 	0.914246
271	20    	0.911682	0.0012893  	0.91037 	0.914246
272	20    	0.911771	0.00125675 	0.91037 	0.914246
273	20    	0.911771	0.00125675 	0.91037 	0.914246
274	20    	0.911771	0.00125675 	0.91037 	0.914246
275	20    	0.911771	0.00125675 	0.91037 	0.914246
276	20    	0.911771	0.00125675 	0.91037 	0.914246
277	20    	0.911771	0.00125675 	0.91037 	0.914246
278	20    	0.911771	0.00125675 	0.91037 	0.914246
279	20    	0.911771	0.00125675 	0.91037 	0.914246
280	20    	0.911771	0.00125675 	0.91037 	0.914246
281	20    	0.911771	0.00125675 	0.91037 	0.914246
282	20    	0.911771	0.00125675 	0.91037 	0.914246
283	20    	0.911786	0.00124208 	0.91037 	0.914246
284	20    	0.911786	0.00124208 	0.91037 	0.914246
285	20    	0.911786	0.00124208 	0.91037 	0.914246
286	20    	0.911786	0.00124208 	0.91037 	0.914246
287	20    	0.911786	0.00124208 	0.91037 	0.914246
288	20    	0.911786	0.00124208 	0.91037 	0.914246
289	20    	0.911875	0.00120057 	0.91037 	0.914246
290	20    	0.911875	0.00120057 	0.91037 	0.914246
291	20    	0.911875	0.00120057 	0.91037 	0.914246
292	20    	0.911875	0.00120057 	0.91037 	0.914246
293	20    	0.911875	0.00120057 	0.91037 	0.914246
294	20    	0.911875	0.00120057 	0.91037 	0.914246
295	20    	0.911875	0.00120057 	0.91037 	0.914246
296	20    	0.911875	0.00120057 	0.91037 	0.914246
297	20    	0.911875	0.00120057 	0.91037 	0.914246
298	20    	0.911875	0.00120057 	0.91037 	0.914246
299	20    	0.911875	0.00120057 	0.91037 	0.914246
300	20    	0.911875	0.00120057 	0.91037 	0.914246
301	20    	0.911875	0.00120057 	0.91037 	0.914246
302	20    	0.911875	0.00120057 	0.91037 	0.914246
303	20    	0.911875	0.00120057 	0.91037 	0.914246
304	20    	0.911875	0.00120057 	0.91037 	0.914246
305	20    	0.911875	0.00120057 	0.91037 	0.914246
306	20    	0.911875	0.00120057 	0.91037 	0.914246
307	20    	0.911875	0.00120057 	0.91037 	0.914246
308	20    	0.911875	0.00120057 	0.91037 	0.914246
309	20    	0.911875	0.00120057 	0.91037 	0.914246
310	20    	0.911875	0.00120057 	0.91037 	0.914246
311	20    	0.911875	0.00120057 	0.91037 	0.914246
312	20    	0.911875	0.00120057 	0.91037 	0.914246
313	20    	0.911875	0.00120057 	0.91037 	0.914246
314	20    	0.911875	0.00120057 	0.91037 	0.914246
315	20    	0.911875	0.00120057 	0.91037 	0.914246
316	20    	0.911875	0.00120057 	0.91037 	0.914246
317	20    	0.911875	0.00120057 	0.91037 	0.914246
318	20    	0.911875	0.00120057 	0.91037 	0.914246
319	20    	0.911875	0.00120057 	0.91037 	0.914246
320	20    	0.911875	0.00120057 	0.91037 	0.914246
321	20    	0.911875	0.00120057 	0.91037 	0.914246
322	20    	0.911875	0.00120057 	0.91037 	0.914246
323	20    	0.911875	0.00120057 	0.91037 	0.914246
324	20    	0.911875	0.00120057 	0.91037 	0.914246
325	20    	0.911875	0.00120057 	0.91037 	0.914246
326	20    	0.911875	0.00120057 	0.91037 	0.914246
327	20    	0.911875	0.00120057 	0.91037 	0.914246
328	20    	0.911875	0.00120057 	0.91037 	0.914246
329	20    	0.911875	0.00120057 	0.91037 	0.914246
330	20    	0.911935	0.00115304 	0.91037 	0.914246
331	20    	0.911935	0.00115304 	0.91037 	0.914246
332	20    	0.911935	0.00115304 	0.91037 	0.914246
333	20    	0.911935	0.00115304 	0.91037 	0.914246
334	20    	0.911935	0.00115304 	0.91037 	0.914246
335	20    	0.911935	0.00115304 	0.91037 	0.914246
336	20    	0.911935	0.00115304 	0.91037 	0.914246
337	20    	0.911935	0.00115304 	0.91037 	0.914246
338	20    	0.911935	0.00115304 	0.91037 	0.914246
339	20    	0.911935	0.00115304 	0.91037 	0.914246
340	20    	0.911935	0.00115304 	0.91037 	0.914246
341	20    	0.911935	0.00115304 	0.91037 	0.914246
342	20    	0.911935	0.00115304 	0.91037 	0.914246
343	20    	0.911964	0.00111946 	0.91037 	0.914246
344	20    	0.911964	0.00111946 	0.91037 	0.914246
345	20    	0.911964	0.00111946 	0.91037 	0.914246
346	20    	0.912024	0.00106335 	0.91066 	0.914246
347	20    	0.912024	0.00106335 	0.91066 	0.914246
348	20    	0.912024	0.00106335 	0.91066 	0.914246
349	20    	0.912024	0.00106335 	0.91066 	0.914246
350	20    	0.912054	0.00103206 	0.91066 	0.914246
351	20    	0.912054	0.00103206 	0.91066 	0.914246
352	20    	0.912054	0.00103206 	0.91066 	0.914246
353	20    	0.912054	0.00103206 	0.91066 	0.914246
354	20    	0.912054	0.00103206 	0.91066 	0.914246
355	20    	0.912054	0.00103206 	0.91066 	0.914246
356	20    	0.912054	0.00103206 	0.91066 	0.914246
357	20    	0.912054	0.00103206 	0.91066 	0.914246
358	20    	0.912054	0.00103206 	0.91066 	0.914246
359	20    	0.912054	0.00103206 	0.91066 	0.914246
360	20    	0.912054	0.00103206 	0.91066 	0.914246
361	20    	0.912054	0.00103206 	0.91066 	0.914246
362	20    	0.912054	0.00103206 	0.91066 	0.914246
363	20    	0.912054	0.00103206 	0.91066 	0.914246
364	20    	0.912054	0.00103206 	0.91066 	0.914246
365	20    	0.912054	0.00103206 	0.91066 	0.914246
366	20    	0.912054	0.00103206 	0.91066 	0.914246
367	20    	0.912054	0.00103206 	0.91066 	0.914246
368	20    	0.912054	0.00103206 	0.91066 	0.914246
369	20    	0.912054	0.00103206 	0.91066 	0.914246
370	20    	0.912054	0.00103206 	0.91066 	0.914246
371	20    	0.912054	0.00103206 	0.91066 	0.914246
372	20    	0.912054	0.00103206 	0.91066 	0.914246
373	20    	0.912054	0.00103206 	0.91066 	0.914246
374	20    	0.912054	0.00103206 	0.91066 	0.914246
375	20    	0.912054	0.00103206 	0.91066 	0.914246
376	20    	0.912054	0.00103206 	0.91066 	0.914246
377	20    	0.912054	0.00103206 	0.91066 	0.914246
378	20    	0.912054	0.00103206 	0.91066 	0.914246
379	20    	0.912054	0.00103206 	0.91066 	0.914246
380	20    	0.912054	0.00103206 	0.91066 	0.914246
381	20    	0.912054	0.00103206 	0.91066 	0.914246
382	20    	0.912054	0.00103206 	0.91066 	0.914246
383	20    	0.912054	0.00103206 	0.91066 	0.914246
384	20    	0.912054	0.00103206 	0.91066 	0.914246
385	20    	0.912054	0.00103206 	0.91066 	0.914246
386	20    	0.912054	0.00103206 	0.91066 	0.914246
387	20    	0.912294	0.00121957 	0.91066 	0.915451
388	20    	0.912294	0.00121957 	0.91066 	0.915451
389	20    	0.912294	0.00121957 	0.91066 	0.915451
390	20    	0.912294	0.00121957 	0.91066 	0.915451
391	20    	0.912294	0.00121957 	0.91066 	0.915451
392	20    	0.912294	0.00121957 	0.91066 	0.915451
393	20    	0.912354	0.00116592 	0.910965	0.915451
394	20    	0.912354	0.00116592 	0.910965	0.915451
395	20    	0.912354	0.00116592 	0.910965	0.915451
396	20    	0.912354	0.00116592 	0.910965	0.915451
397	20    	0.912354	0.00116592 	0.910965	0.915451
398	20    	0.912354	0.00116592 	0.910965	0.915451
399	20    	0.912354	0.00116592 	0.910965	0.915451
400	20    	0.912354	0.00116592 	0.910965	0.915451
401	20    	0.912354	0.00116592 	0.910965	0.915451
402	20    	0.912354	0.00116592 	0.910965	0.915451
403	20    	0.912354	0.00116592 	0.910965	0.915451
404	20    	0.912354	0.00116592 	0.910965	0.915451
405	20    	0.912354	0.00116592 	0.910965	0.915451
406	20    	0.912354	0.00116592 	0.910965	0.915451
407	20    	0.912354	0.00116592 	0.910965	0.915451
408	20    	0.912354	0.00116592 	0.910965	0.915451
409	20    	0.912354	0.00116592 	0.910965	0.915451
410	20    	0.912354	0.00116592 	0.910965	0.915451
411	20    	0.912354	0.00116592 	0.910965	0.915451
412	20    	0.912354	0.00116592 	0.910965	0.915451
413	20    	0.912354	0.00116592 	0.910965	0.915451
414	20    	0.912354	0.00116592 	0.910965	0.915451
415	20    	0.912354	0.00116592 	0.910965	0.915451
416	20    	0.912354	0.00116592 	0.910965	0.915451
417	20    	0.912354	0.00116592 	0.910965	0.915451
418	20    	0.912354	0.00116592 	0.910965	0.915451
419	20    	0.912579	0.00130079 	0.910965	0.915451
420	20    	0.912579	0.00130079 	0.910965	0.915451
421	20    	0.912579	0.00130079 	0.910965	0.915451
422	20    	0.912579	0.00130079 	0.910965	0.915451
423	20    	0.912579	0.00130079 	0.910965	0.915451
424	20    	0.912579	0.00130079 	0.910965	0.915451
425	20    	0.912579	0.00130079 	0.910965	0.915451
426	20    	0.912579	0.00130079 	0.910965	0.915451
427	20    	0.912579	0.00130079 	0.910965	0.915451
428	20    	0.912579	0.00130079 	0.910965	0.915451
429	20    	0.912579	0.00130079 	0.910965	0.915451
430	20    	0.912579	0.00130079 	0.910965	0.915451
431	20    	0.912579	0.00130079 	0.910965	0.915451
432	20    	0.912579	0.00130079 	0.910965	0.915451
433	20    	0.912579	0.00130079 	0.910965	0.915451
434	20    	0.912579	0.00130079 	0.910965	0.915451
435	20    	0.912579	0.00130079 	0.910965	0.915451
436	20    	0.912579	0.00130079 	0.910965	0.915451
437	20    	0.912594	0.00128344 	0.910965	0.915451
438	20    	0.912594	0.00128344 	0.910965	0.915451
439	20    	0.912594	0.00128344 	0.910965	0.915451
440	20    	0.912594	0.00128344 	0.910965	0.915451
441	20    	0.912594	0.00128344 	0.910965	0.915451
442	20    	0.912594	0.00128344 	0.910965	0.915451
443	20    	0.912594	0.00128344 	0.910965	0.915451
444	20    	0.912594	0.00128344 	0.910965	0.915451
445	20    	0.912594	0.00128344 	0.910965	0.915451
446	20    	0.912594	0.00128344 	0.910965	0.915451
447	20    	0.912594	0.00128344 	0.910965	0.915451
448	20    	0.912713	0.00119302 	0.91127 	0.915451
449	20    	0.912713	0.00119302 	0.91127 	0.915451
450	20    	0.912713	0.00119302 	0.91127 	0.915451
451	20    	0.912713	0.00119302 	0.91127 	0.915451
452	20    	0.912713	0.00119302 	0.91127 	0.915451
453	20    	0.912713	0.00119302 	0.91127 	0.915451
454	20    	0.912727	0.00117706 	0.91127 	0.915451
455	20    	0.912727	0.00117706 	0.91127 	0.915451
456	20    	0.912727	0.00117706 	0.91127 	0.915451
457	20    	0.912727	0.00117706 	0.91127 	0.915451
458	20    	0.912727	0.00117706 	0.91127 	0.915451
459	20    	0.912832	0.00113509 	0.91156 	0.915451
460	20    	0.912832	0.00113509 	0.91156 	0.915451
461	20    	0.912877	0.0011011  	0.91156 	0.915451
462	20    	0.912877	0.0011011  	0.91156 	0.915451
463	20    	0.912877	0.0011011  	0.91156 	0.915451
464	20    	0.912877	0.0011011  	0.91156 	0.915451
465	20    	0.912877	0.0011011  	0.91156 	0.915451
466	20    	0.912877	0.0011011  	0.91156 	0.915451
467	20    	0.912877	0.0011011  	0.91156 	0.915451
468	20    	0.912967	0.00106269 	0.91156 	0.915451
469	20    	0.912967	0.00106269 	0.91156 	0.915451
470	20    	0.912982	0.00104441 	0.911865	0.915451
471	20    	0.912982	0.00104441 	0.911865	0.915451
472	20    	0.912982	0.00104441 	0.911865	0.915451
473	20    	0.912982	0.00104441 	0.911865	0.915451
474	20    	0.912982	0.00104441 	0.911865	0.915451
475	20    	0.912982	0.00104441 	0.911865	0.915451
476	20    	0.912982	0.00104441 	0.911865	0.915451
477	20    	0.912982	0.00104441 	0.911865	0.915451
478	20    	0.912982	0.00104441 	0.911865	0.915451
479	20    	0.912982	0.00104441 	0.911865	0.915451
480	20    	0.912982	0.00104441 	0.911865	0.915451
481	20    	0.912982	0.00104441 	0.911865	0.915451
482	20    	0.912997	0.00103073 	0.911865	0.915451
483	20    	0.912997	0.00103073 	0.911865	0.915451
484	20    	0.912997	0.00103073 	0.911865	0.915451
485	20    	0.912997	0.00103073 	0.911865	0.915451
486	20    	0.912997	0.00103073 	0.911865	0.915451
487	20    	0.912997	0.00103073 	0.911865	0.915451
488	20    	0.912997	0.00103073 	0.911865	0.915451
489	20    	0.912997	0.00103073 	0.911865	0.915451
490	20    	0.912997	0.00103073 	0.911865	0.915451
491	20    	0.912997	0.00103073 	0.911865	0.915451
492	20    	0.912997	0.00103073 	0.911865	0.915451
493	20    	0.912997	0.00103073 	0.911865	0.915451
494	20    	0.912997	0.00103073 	0.911865	0.915451
495	20    	0.912997	0.00103073 	0.911865	0.915451
496	20    	0.912997	0.00103073 	0.911865	0.915451
497	20    	0.912997	0.00103073 	0.911865	0.915451
498	20    	0.912997	0.00103073 	0.911865	0.915451
499	20    	0.912997	0.00103073 	0.911865	0.915451
