gen	nevals	avg     	std       	min     	max     
0  	20    	0.871173	0.010905  	0.849289	0.889954
1  	20    	0.879008	0.00583849	0.870819	0.893539
2  	20    	0.884092	0.0058716 	0.876801	0.895935
3  	20    	0.888519	0.00579358	0.880386	0.898331
4  	20    	0.894019	0.00435293	0.887558	0.903107
5  	20    	0.89689 	0.00410124	0.892349	0.906693
6  	20    	0.900537	0.00407854	0.89473 	0.911484
7  	20    	0.901974	0.00486592	0.895935	0.916275
8  	20    	0.902512	0.00448401	0.898331	0.916275
9  	20    	0.904305	0.00533706	0.899521	0.917465
10 	20    	0.90586 	0.00472741	0.900711	0.917465
11 	20    	0.907774	0.0050326 	0.901917	0.919861
12 	20    	0.909689	0.00495475	0.904312	0.921051
13 	20    	0.911542	0.00506865	0.906693	0.922241
14 	20    	0.913637	0.00495513	0.907898	0.923447
15 	20    	0.91609 	0.00391675	0.910294	0.923447
16 	20    	0.917943	0.00310436	0.912674	0.924637
17 	20    	0.9186  	0.0027385 	0.91507 	0.924637
18 	20    	0.919258	0.00240468	0.916275	0.924637
19 	20    	0.920094	0.00237895	0.917465	0.924637
20 	20    	0.920452	0.0023464 	0.917465	0.924637
21 	20    	0.920512	0.00228416	0.917465	0.924637
22 	20    	0.92087 	0.0021826 	0.918655	0.924637
23 	20    	0.921349	0.00199717	0.918655	0.924637
24 	20    	0.921468	0.0019016 	0.918655	0.924637
25 	20    	0.921529	0.00182922	0.918655	0.924637
26 	20    	0.921828	0.0016594 	0.918655	0.924637
27 	20    	0.922665	0.00218048	0.919861	0.928223
28 	20    	0.923621	0.00245928	0.921051	0.930618
29 	20    	0.924757	0.00327423	0.921051	0.933014
30 	20    	0.925116	0.00324123	0.922241	0.933014
31 	20    	0.925116	0.00324123	0.922241	0.933014
32 	20    	0.925894	0.00418779	0.922241	0.937805
33 	20    	0.926015	0.00409728	0.922241	0.937805
34 	20    	0.926434	0.00411824	0.922241	0.937805
35 	20    	0.926973	0.00410002	0.923447	0.937805
36 	20    	0.927152	0.00398388	0.923447	0.937805
37 	20    	0.927152	0.00398388	0.923447	0.937805
38 	20    	0.927391	0.0038968 	0.923447	0.937805
39 	20    	0.927989	0.00415501	0.923447	0.937805
40 	20    	0.928468	0.00385175	0.923447	0.937805
41 	20    	0.929005	0.00386415	0.924637	0.937805
42 	20    	0.929604	0.00361532	0.924637	0.937805
43 	20    	0.930143	0.00321959	0.924637	0.937805
44 	20    	0.930203	0.00312587	0.925842	0.937805
45 	20    	0.930502	0.00297691	0.925842	0.937805
46 	20    	0.93098 	0.00278379	0.927032	0.937805
47 	20    	0.931279	0.00266229	0.927032	0.937805
48 	20    	0.931638	0.00254663	0.928223	0.937805
49 	20    	0.931638	0.00254663	0.928223	0.937805
50 	20    	0.931638	0.00254663	0.928223	0.937805
51 	20    	0.931698	0.00247845	0.928223	0.937805
52 	20    	0.931698	0.00247845	0.928223	0.937805
53 	20    	0.931938	0.0022662 	0.929428	0.937805
54 	20    	0.931938	0.0022662 	0.929428	0.937805
55 	20    	0.932476	0.00231531	0.929428	0.937805
56 	20    	0.932954	0.00215582	0.929428	0.937805
57 	20    	0.933074	0.00201876	0.930618	0.937805
58 	20    	0.933074	0.00201876	0.930618	0.937805
59 	20    	0.933314	0.00199728	0.930618	0.937805
60 	20    	0.933494	0.00182912	0.930618	0.937805
61 	20    	0.933494	0.00182912	0.930618	0.937805
62 	20    	0.933494	0.00182912	0.930618	0.937805
63 	20    	0.933614	0.00171155	0.931824	0.937805
64 	20    	0.933614	0.00171155	0.931824	0.937805
65 	20    	0.933614	0.00171155	0.931824	0.937805
66 	20    	0.933852	0.00177709	0.931824	0.937805
67 	20    	0.934211	0.00203623	0.931824	0.938995
68 	20    	0.93451 	0.00210184	0.931824	0.938995
69 	20    	0.934749	0.00205384	0.931824	0.938995
70 	20    	0.934808	0.00198428	0.931824	0.938995
71 	20    	0.934808	0.00198428	0.931824	0.938995
72 	20    	0.934988	0.00186492	0.933014	0.938995
73 	20    	0.934988	0.00186492	0.933014	0.938995
74 	20    	0.935047	0.00181942	0.933014	0.938995
75 	20    	0.935047	0.00181942	0.933014	0.938995
76 	20    	0.935107	0.00177076	0.933014	0.938995
77 	20    	0.935107	0.00177076	0.933014	0.938995
78 	20    	0.935107	0.00177076	0.933014	0.938995
79 	20    	0.935107	0.00177076	0.933014	0.938995
80 	20    	0.935944	0.00360037	0.933014	0.949768
81 	20    	0.935944	0.00360037	0.933014	0.949768
82 	20    	0.935944	0.00360037	0.933014	0.949768
83 	20    	0.935944	0.00360037	0.933014	0.949768
84 	20    	0.935944	0.00360037	0.933014	0.949768
85 	20    	0.936064	0.00354024	0.933014	0.949768
86 	20    	0.936064	0.00354024	0.933014	0.949768
87 	20    	0.936483	0.00344652	0.933014	0.949768
88 	20    	0.936483	0.00344652	0.933014	0.949768
89 	20    	0.936603	0.00336452	0.934204	0.949768
90 	20    	0.936842	0.00335576	0.934204	0.949768
91 	20    	0.936903	0.00331846	0.934204	0.949768
92 	20    	0.936903	0.00331846	0.934204	0.949768
93 	20    	0.936903	0.00331846	0.934204	0.949768
94 	20    	0.936903	0.00331846	0.934204	0.949768
95 	20    	0.937022	0.00326164	0.934204	0.949768
96 	20    	0.937022	0.00326164	0.934204	0.949768
97 	20    	0.937022	0.00326164	0.934204	0.949768
98 	20    	0.937322	0.00317471	0.93541 	0.949768
99 	20    	0.937621	0.00326101	0.93541 	0.949768
100	20    	0.937621	0.00326101	0.93541 	0.949768
101	20    	0.937741	0.00322132	0.93541 	0.949768
102	20    	0.937801	0.00318853	0.93541 	0.949768
103	20    	0.937801	0.00318853	0.93541 	0.949768
104	20    	0.937801	0.00318853	0.93541 	0.949768
105	20    	0.93786 	0.00315427	0.93541 	0.949768
106	20    	0.938338	0.00330994	0.93541 	0.949768
107	20    	0.938518	0.0031986 	0.93541 	0.949768
108	20    	0.938638	0.00312395	0.9366  	0.949768
109	20    	0.938698	0.00309555	0.9366  	0.949768
110	20    	0.938698	0.00309555	0.9366  	0.949768
111	20    	0.938698	0.00309555	0.9366  	0.949768
112	20    	0.938698	0.00309555	0.9366  	0.949768
113	20    	0.938698	0.00309555	0.9366  	0.949768
114	20    	0.938698	0.00309555	0.9366  	0.949768
115	20    	0.938698	0.00309555	0.9366  	0.949768
116	20    	0.938877	0.00307259	0.9366  	0.949768
117	20    	0.938877	0.00307259	0.9366  	0.949768
118	20    	0.938877	0.00307259	0.9366  	0.949768
119	20    	0.939236	0.00308813	0.9366  	0.949768
120	20    	0.939236	0.00308813	0.9366  	0.949768
121	20    	0.939416	0.00303345	0.9366  	0.949768
122	20    	0.939416	0.00303345	0.9366  	0.949768
123	20    	0.939416	0.00303345	0.9366  	0.949768
124	20    	0.939416	0.00303345	0.9366  	0.949768
125	20    	0.939416	0.00303345	0.9366  	0.949768
126	20    	0.939416	0.00303345	0.9366  	0.949768
127	20    	0.939655	0.00299048	0.9366  	0.949768
128	20    	0.939775	0.00291266	0.9366  	0.949768
129	20    	0.939775	0.00291266	0.9366  	0.949768
130	20    	0.939775	0.00291266	0.9366  	0.949768
131	20    	0.939775	0.00291266	0.9366  	0.949768
132	20    	0.940073	0.00277728	0.937805	0.949768
133	20    	0.940133	0.00274055	0.937805	0.949768
134	20    	0.940312	0.00269939	0.937805	0.949768
135	20    	0.94079 	0.00286892	0.937805	0.949768
136	20    	0.94079 	0.00286892	0.937805	0.949768
137	20    	0.941447	0.00279333	0.938995	0.949768
138	20    	0.941447	0.00279333	0.938995	0.949768
139	20    	0.941866	0.00301372	0.938995	0.949768
140	20    	0.942165	0.00301084	0.938995	0.949768
141	20    	0.942464	0.00297808	0.938995	0.949768
142	20    	0.942464	0.00297808	0.938995	0.949768
143	20    	0.942464	0.00297808	0.938995	0.949768
144	20    	0.942464	0.00297808	0.938995	0.949768
145	20    	0.942464	0.00297808	0.938995	0.949768
146	20    	0.942523	0.00291949	0.938995	0.949768
147	20    	0.942523	0.00291949	0.938995	0.949768
148	20    	0.942523	0.00291949	0.938995	0.949768
149	20    	0.942523	0.00291949	0.938995	0.949768
150	20    	0.942523	0.00291949	0.938995	0.949768
151	20    	0.942583	0.00285847	0.938995	0.949768
152	20    	0.942702	0.00275392	0.940186	0.949768
153	20    	0.942702	0.00275392	0.940186	0.949768
154	20    	0.942702	0.00275392	0.940186	0.949768
155	20    	0.942702	0.00275392	0.940186	0.949768
156	20    	0.942763	0.00271103	0.940186	0.949768
157	20    	0.942763	0.00271103	0.940186	0.949768
158	20    	0.942763	0.00271103	0.940186	0.949768
159	20    	0.942763	0.00271103	0.940186	0.949768
160	20    	0.942763	0.00271103	0.940186	0.949768
161	20    	0.942763	0.00271103	0.940186	0.949768
162	20    	0.942763	0.00271103	0.940186	0.949768
163	20    	0.942763	0.00271103	0.940186	0.949768
164	20    	0.942763	0.00271103	0.940186	0.949768
165	20    	0.942763	0.00271103	0.940186	0.949768
166	20    	0.942763	0.00271103	0.940186	0.949768
167	20    	0.943062	0.00273999	0.940186	0.949768
168	20    	0.943122	0.00268884	0.940186	0.949768
169	20    	0.943122	0.00268884	0.940186	0.949768
170	20    	0.943122	0.00268884	0.940186	0.949768
171	20    	0.943122	0.00268884	0.940186	0.949768
172	20    	0.943122	0.00268884	0.940186	0.949768
173	20    	0.943122	0.00268884	0.940186	0.949768
174	20    	0.943601	0.0029627 	0.940186	0.949768
175	20    	0.943601	0.0029627 	0.940186	0.949768
176	20    	0.943601	0.0029627 	0.940186	0.949768
177	20    	0.943601	0.0029627 	0.940186	0.949768
178	20    	0.94402 	0.00304131	0.940186	0.949768
179	20    	0.94402 	0.00304131	0.940186	0.949768
180	20    	0.94402 	0.00304131	0.940186	0.949768
181	20    	0.9442  	0.00291285	0.940186	0.949768
182	20    	0.94444 	0.00271413	0.941391	0.949768
183	20    	0.94444 	0.00271413	0.941391	0.949768
184	20    	0.944739	0.00269117	0.941391	0.949768
185	20    	0.945456	0.00303701	0.941391	0.953354
186	20    	0.946054	0.00287967	0.942581	0.953354
187	20    	0.946054	0.00287967	0.942581	0.953354
188	20    	0.946413	0.00287228	0.942581	0.953354
189	20    	0.946413	0.00287228	0.942581	0.953354
190	20    	0.946413	0.00287228	0.942581	0.953354
191	20    	0.946413	0.00287228	0.942581	0.953354
192	20    	0.946413	0.00287228	0.942581	0.953354
193	20    	0.946413	0.00287228	0.942581	0.953354
194	20    	0.946593	0.00273616	0.942581	0.953354
195	20    	0.946593	0.00273616	0.942581	0.953354
196	20    	0.946712	0.00260733	0.942581	0.953354
197	20    	0.946712	0.00260733	0.942581	0.953354
198	20    	0.946712	0.00260733	0.942581	0.953354
199	20    	0.946712	0.00260733	0.942581	0.953354
200	20    	0.946712	0.00260733	0.942581	0.953354
201	20    	0.946712	0.00260733	0.942581	0.953354
202	20    	0.946773	0.00252372	0.943787	0.953354
203	20    	0.947072	0.00250649	0.943787	0.953354
204	20    	0.947072	0.00250649	0.943787	0.953354
205	20    	0.94755 	0.00273628	0.943787	0.953354
206	20    	0.94755 	0.00273628	0.943787	0.953354
207	20    	0.94761 	0.00266581	0.943787	0.953354
208	20    	0.94761 	0.00266581	0.943787	0.953354
209	20    	0.94761 	0.00266581	0.943787	0.953354
210	20    	0.94761 	0.00266581	0.943787	0.953354
211	20    	0.94761 	0.00266581	0.943787	0.953354
212	20    	0.94761 	0.00266581	0.943787	0.953354
213	20    	0.94761 	0.00266581	0.943787	0.953354
214	20    	0.94761 	0.00266581	0.943787	0.953354
215	20    	0.94761 	0.00266581	0.943787	0.953354
216	20    	0.94761 	0.00266581	0.943787	0.953354
217	20    	0.94761 	0.00266581	0.943787	0.953354
218	20    	0.947789	0.00251921	0.944977	0.953354
219	20    	0.947789	0.00251921	0.944977	0.953354
220	20    	0.947789	0.00251921	0.944977	0.953354
221	20    	0.947789	0.00251921	0.944977	0.953354
222	20    	0.947909	0.00243831	0.944977	0.953354
223	20    	0.947909	0.00243831	0.944977	0.953354
224	20    	0.947968	0.00237985	0.944977	0.953354
225	20    	0.947968	0.00237985	0.944977	0.953354
226	20    	0.947968	0.00237985	0.944977	0.953354
227	20    	0.947968	0.00237985	0.944977	0.953354
228	20    	0.947968	0.00237985	0.944977	0.953354
229	20    	0.947968	0.00237985	0.944977	0.953354
230	20    	0.947968	0.00237985	0.944977	0.953354
231	20    	0.947968	0.00237985	0.944977	0.953354
232	20    	0.947968	0.00237985	0.944977	0.953354
233	20    	0.947968	0.00237985	0.944977	0.953354
234	20    	0.947968	0.00237985	0.944977	0.953354
235	20    	0.948208	0.00230668	0.944977	0.953354
236	20    	0.948208	0.00230668	0.944977	0.953354
237	20    	0.948507	0.00225557	0.944977	0.953354
238	20    	0.948507	0.00225557	0.944977	0.953354
239	20    	0.948507	0.00225557	0.944977	0.953354
240	20    	0.948507	0.00225557	0.944977	0.953354
241	20    	0.948507	0.00225557	0.944977	0.953354
242	20    	0.948507	0.00225557	0.944977	0.953354
243	20    	0.948507	0.00225557	0.944977	0.953354
244	20    	0.948566	0.00217594	0.946167	0.953354
245	20    	0.948566	0.00217594	0.946167	0.953354
246	20    	0.948566	0.00217594	0.946167	0.953354
247	20    	0.948566	0.00217594	0.946167	0.953354
248	20    	0.948566	0.00217594	0.946167	0.953354
249	20    	0.948566	0.00217594	0.946167	0.953354
250	20    	0.948566	0.00217594	0.946167	0.953354
251	20    	0.948566	0.00217594	0.946167	0.953354
252	20    	0.948566	0.00217594	0.946167	0.953354
253	20    	0.948566	0.00217594	0.946167	0.953354
254	20    	0.948566	0.00217594	0.946167	0.953354
255	20    	0.948566	0.00217594	0.946167	0.953354
256	20    	0.948566	0.00217594	0.946167	0.953354
257	20    	0.948566	0.00217594	0.946167	0.953354
258	20    	0.948566	0.00217594	0.946167	0.953354
259	20    	0.948566	0.00217594	0.946167	0.953354
260	20    	0.948566	0.00217594	0.946167	0.953354
261	20    	0.948566	0.00217594	0.946167	0.953354
262	20    	0.948566	0.00217594	0.946167	0.953354
263	20    	0.948566	0.00217594	0.946167	0.953354
264	20    	0.948566	0.00217594	0.946167	0.953354
265	20    	0.948566	0.00217594	0.946167	0.953354
266	20    	0.948566	0.00217594	0.946167	0.953354
267	20    	0.948566	0.00217594	0.946167	0.953354
268	20    	0.948566	0.00217594	0.946167	0.953354
269	20    	0.948746	0.00211817	0.946167	0.953354
270	20    	0.948746	0.00211817	0.946167	0.953354
271	20    	0.948746	0.00211817	0.946167	0.953354
272	20    	0.948746	0.00211817	0.946167	0.953354
273	20    	0.948746	0.00211817	0.946167	0.953354
274	20    	0.948746	0.00211817	0.946167	0.953354
275	20    	0.948746	0.00211817	0.946167	0.953354
276	20    	0.948746	0.00211817	0.946167	0.953354
277	20    	0.948746	0.00211817	0.946167	0.953354
278	20    	0.948746	0.00211817	0.946167	0.953354
279	20    	0.948807	0.00206027	0.946167	0.953354
280	20    	0.948807	0.00206027	0.946167	0.953354
281	20    	0.949166	0.00219111	0.946167	0.953354
282	20    	0.949166	0.00219111	0.946167	0.953354
283	20    	0.949166	0.00219111	0.946167	0.953354
284	20    	0.949166	0.00219111	0.946167	0.953354
285	20    	0.949166	0.00219111	0.946167	0.953354
286	20    	0.949166	0.00219111	0.946167	0.953354
287	20    	0.949166	0.00219111	0.946167	0.953354
288	20    	0.949166	0.00219111	0.946167	0.953354
289	20    	0.949166	0.00219111	0.946167	0.953354
290	20    	0.949166	0.00219111	0.946167	0.953354
291	20    	0.949166	0.00219111	0.946167	0.953354
292	20    	0.949166	0.00219111	0.946167	0.953354
293	20    	0.949166	0.00219111	0.946167	0.953354
294	20    	0.949166	0.00219111	0.946167	0.953354
295	20    	0.949166	0.00219111	0.946167	0.953354
296	20    	0.949166	0.00219111	0.946167	0.953354
297	20    	0.949166	0.00219111	0.946167	0.953354
298	20    	0.949166	0.00219111	0.946167	0.953354
299	20    	0.949166	0.00219111	0.946167	0.953354
300	20    	0.949764	0.00283036	0.946167	0.95813 
301	20    	0.949825	0.0027652 	0.947372	0.95813 
302	20    	0.949825	0.0027652 	0.947372	0.95813 
303	20    	0.949825	0.0027652 	0.947372	0.95813 
304	20    	0.949825	0.0027652 	0.947372	0.95813 
305	20    	0.949825	0.0027652 	0.947372	0.95813 
306	20    	0.949884	0.00272429	0.947372	0.95813 
307	20    	0.949884	0.00272429	0.947372	0.95813 
308	20    	0.949944	0.00268144	0.947372	0.95813 
309	20    	0.949944	0.00268144	0.947372	0.95813 
310	20    	0.949944	0.00268144	0.947372	0.95813 
311	20    	0.949944	0.00268144	0.947372	0.95813 
312	20    	0.949944	0.00268144	0.947372	0.95813 
313	20    	0.949944	0.00268144	0.947372	0.95813 
314	20    	0.949944	0.00268144	0.947372	0.95813 
315	20    	0.949944	0.00268144	0.947372	0.95813 
316	20    	0.950003	0.00263655	0.947372	0.95813 
317	20    	0.950003	0.00263655	0.947372	0.95813 
318	20    	0.950003	0.00263655	0.947372	0.95813 
319	20    	0.950123	0.00256784	0.947372	0.95813 
320	20    	0.950123	0.00256784	0.947372	0.95813 
321	20    	0.950123	0.00256784	0.947372	0.95813 
322	20    	0.950123	0.00256784	0.947372	0.95813 
323	20    	0.950123	0.00256784	0.947372	0.95813 
324	20    	0.950123	0.00256784	0.947372	0.95813 
325	20    	0.950123	0.00256784	0.947372	0.95813 
326	20    	0.950123	0.00256784	0.947372	0.95813 
327	20    	0.950182	0.00251669	0.947372	0.95813 
328	20    	0.950182	0.00251669	0.947372	0.95813 
329	20    	0.950182	0.00251669	0.947372	0.95813 
330	20    	0.950182	0.00251669	0.947372	0.95813 
331	20    	0.950362	0.00243658	0.947372	0.95813 
332	20    	0.950362	0.00243658	0.947372	0.95813 
333	20    	0.950362	0.00243658	0.947372	0.95813 
334	20    	0.950362	0.00243658	0.947372	0.95813 
335	20    	0.950362	0.00243658	0.947372	0.95813 
336	20    	0.950362	0.00243658	0.947372	0.95813 
337	20    	0.950362	0.00243658	0.947372	0.95813 
338	20    	0.950362	0.00243658	0.947372	0.95813 
339	20    	0.950362	0.00243658	0.947372	0.95813 
340	20    	0.950362	0.00243658	0.947372	0.95813 
341	20    	0.950362	0.00243658	0.947372	0.95813 
342	20    	0.950362	0.00243658	0.947372	0.95813 
343	20    	0.950421	0.00237664	0.948563	0.95813 
344	20    	0.950421	0.00237664	0.948563	0.95813 
345	20    	0.950421	0.00237664	0.948563	0.95813 
346	20    	0.950421	0.00237664	0.948563	0.95813 
347	20    	0.950421	0.00237664	0.948563	0.95813 
348	20    	0.950421	0.00237664	0.948563	0.95813 
349	20    	0.950481	0.00234381	0.948563	0.95813 
350	20    	0.950481	0.00234381	0.948563	0.95813 
351	20    	0.950481	0.00234381	0.948563	0.95813 
352	20    	0.950481	0.00234381	0.948563	0.95813 
353	20    	0.950542	0.00230893	0.948563	0.95813 
354	20    	0.950542	0.00230893	0.948563	0.95813 
355	20    	0.950542	0.00230893	0.948563	0.95813 
356	20    	0.950542	0.00230893	0.948563	0.95813 
357	20    	0.950542	0.00230893	0.948563	0.95813 
358	20    	0.950542	0.00230893	0.948563	0.95813 
359	20    	0.950542	0.00230893	0.948563	0.95813 
360	20    	0.950542	0.00230893	0.948563	0.95813 
361	20    	0.950542	0.00230893	0.948563	0.95813 
362	20    	0.950542	0.00230893	0.948563	0.95813 
363	20    	0.950542	0.00230893	0.948563	0.95813 
364	20    	0.950542	0.00230893	0.948563	0.95813 
365	20    	0.950542	0.00230893	0.948563	0.95813 
366	20    	0.950542	0.00230893	0.948563	0.95813 
367	20    	0.950542	0.00230893	0.948563	0.95813 
368	20    	0.950542	0.00230893	0.948563	0.95813 
369	20    	0.950542	0.00230893	0.948563	0.95813 
370	20    	0.950542	0.00230893	0.948563	0.95813 
371	20    	0.950781	0.00233952	0.948563	0.95813 
372	20    	0.950781	0.00233952	0.948563	0.95813 
373	20    	0.950781	0.00233952	0.948563	0.95813 
374	20    	0.951021	0.00234537	0.948563	0.95813 
375	20    	0.951021	0.00234537	0.948563	0.95813 
376	20    	0.951021	0.00234537	0.948563	0.95813 
377	20    	0.951021	0.00234537	0.948563	0.95813 
378	20    	0.951021	0.00234537	0.948563	0.95813 
379	20    	0.951021	0.00234537	0.948563	0.95813 
380	20    	0.9512  	0.00228693	0.948563	0.95813 
381	20    	0.951499	0.00231342	0.948563	0.95813 
382	20    	0.951499	0.00231342	0.948563	0.95813 
383	20    	0.951619	0.00221834	0.949768	0.95813 
384	20    	0.951619	0.00221834	0.949768	0.95813 
385	20    	0.951619	0.00221834	0.949768	0.95813 
386	20    	0.951619	0.00221834	0.949768	0.95813 
387	20    	0.951619	0.00221834	0.949768	0.95813 
388	20    	0.951619	0.00221834	0.949768	0.95813 
389	20    	0.951619	0.00221834	0.949768	0.95813 
390	20    	0.951619	0.00221834	0.949768	0.95813 
391	20    	0.951619	0.00221834	0.949768	0.95813 
392	20    	0.951619	0.00221834	0.949768	0.95813 
393	20    	0.951619	0.00221834	0.949768	0.95813 
394	20    	0.951619	0.00221834	0.949768	0.95813 
395	20    	0.951619	0.00221834	0.949768	0.95813 
396	20    	0.951678	0.00218358	0.949768	0.95813 
397	20    	0.951678	0.00218358	0.949768	0.95813 
398	20    	0.951678	0.00218358	0.949768	0.95813 
399	20    	0.951678	0.00218358	0.949768	0.95813 
400	20    	0.951678	0.00218358	0.949768	0.95813 
401	20    	0.951678	0.00218358	0.949768	0.95813 
402	20    	0.951678	0.00218358	0.949768	0.95813 
403	20    	0.951678	0.00218358	0.949768	0.95813 
404	20    	0.951678	0.00218358	0.949768	0.95813 
405	20    	0.951678	0.00218358	0.949768	0.95813 
406	20    	0.951678	0.00218358	0.949768	0.95813 
407	20    	0.951678	0.00218358	0.949768	0.95813 
408	20    	0.951738	0.00214661	0.949768	0.95813 
409	20    	0.951738	0.00214661	0.949768	0.95813 
410	20    	0.951738	0.00214661	0.949768	0.95813 
411	20    	0.951738	0.00214661	0.949768	0.95813 
412	20    	0.951738	0.00214661	0.949768	0.95813 
413	20    	0.951738	0.00214661	0.949768	0.95813 
414	20    	0.951738	0.00214661	0.949768	0.95813 
415	20    	0.951738	0.00214661	0.949768	0.95813 
416	20    	0.951738	0.00214661	0.949768	0.95813 
417	20    	0.951738	0.00214661	0.949768	0.95813 
418	20    	0.951738	0.00214661	0.949768	0.95813 
419	20    	0.951738	0.00214661	0.949768	0.95813 
420	20    	0.951738	0.00214661	0.949768	0.95813 
421	20    	0.951738	0.00214661	0.949768	0.95813 
422	20    	0.951738	0.00214661	0.949768	0.95813 
423	20    	0.951738	0.00214661	0.949768	0.95813 
424	20    	0.951738	0.00214661	0.949768	0.95813 
425	20    	0.951738	0.00214661	0.949768	0.95813 
426	20    	0.951738	0.00214661	0.949768	0.95813 
427	20    	0.951738	0.00214661	0.949768	0.95813 
428	20    	0.951738	0.00214661	0.949768	0.95813 
429	20    	0.951738	0.00214661	0.949768	0.95813 
430	20    	0.951738	0.00214661	0.949768	0.95813 
431	20    	0.951738	0.00214661	0.949768	0.95813 
432	20    	0.951738	0.00214661	0.949768	0.95813 
433	20    	0.951738	0.00214661	0.949768	0.95813 
434	20    	0.951738	0.00214661	0.949768	0.95813 
435	20    	0.951738	0.00214661	0.949768	0.95813 
436	20    	0.951738	0.00214661	0.949768	0.95813 
437	20    	0.951738	0.00214661	0.949768	0.95813 
438	20    	0.951738	0.00214661	0.949768	0.95813 
439	20    	0.951738	0.00214661	0.949768	0.95813 
440	20    	0.951738	0.00214661	0.949768	0.95813 
441	20    	0.951738	0.00214661	0.949768	0.95813 
442	20    	0.951738	0.00214661	0.949768	0.95813 
443	20    	0.951738	0.00214661	0.949768	0.95813 
444	20    	0.951738	0.00214661	0.949768	0.95813 
445	20    	0.951738	0.00214661	0.949768	0.95813 
446	20    	0.951797	0.00210731	0.949768	0.95813 
447	20    	0.951797	0.00210731	0.949768	0.95813 
448	20    	0.951797	0.00210731	0.949768	0.95813 
449	20    	0.951797	0.00210731	0.949768	0.95813 
450	20    	0.951797	0.00210731	0.949768	0.95813 
451	20    	0.951797	0.00210731	0.949768	0.95813 
452	20    	0.951797	0.00210731	0.949768	0.95813 
453	20    	0.951797	0.00210731	0.949768	0.95813 
454	20    	0.951797	0.00210731	0.949768	0.95813 
455	20    	0.951797	0.00210731	0.949768	0.95813 
456	20    	0.951797	0.00210731	0.949768	0.95813 
457	20    	0.951797	0.00210731	0.949768	0.95813 
458	20    	0.951797	0.00210731	0.949768	0.95813 
459	20    	0.951797	0.00210731	0.949768	0.95813 
460	20    	0.951797	0.00210731	0.949768	0.95813 
461	20    	0.951797	0.00210731	0.949768	0.95813 
462	20    	0.951797	0.00210731	0.949768	0.95813 
463	20    	0.951797	0.00210731	0.949768	0.95813 
464	20    	0.951797	0.00210731	0.949768	0.95813 
465	20    	0.951797	0.00210731	0.949768	0.95813 
466	20    	0.951797	0.00210731	0.949768	0.95813 
467	20    	0.951797	0.00210731	0.949768	0.95813 
468	20    	0.951797	0.00210731	0.949768	0.95813 
469	20    	0.951797	0.00210731	0.949768	0.95813 
470	20    	0.952036	0.00213424	0.949768	0.95813 
471	20    	0.952036	0.00213424	0.949768	0.95813 
472	20    	0.952036	0.00213424	0.949768	0.95813 
473	20    	0.952036	0.00213424	0.949768	0.95813 
474	20    	0.952036	0.00213424	0.949768	0.95813 
475	20    	0.952036	0.00213424	0.949768	0.95813 
476	20    	0.952036	0.00213424	0.949768	0.95813 
477	20    	0.952036	0.00213424	0.949768	0.95813 
478	20    	0.952155	0.00206983	0.949768	0.95813 
479	20    	0.952215	0.00201677	0.949768	0.95813 
480	20    	0.952215	0.00201677	0.949768	0.95813 
481	20    	0.952215	0.00201677	0.949768	0.95813 
482	20    	0.952215	0.00201677	0.949768	0.95813 
483	20    	0.952215	0.00201677	0.949768	0.95813 
484	20    	0.952215	0.00201677	0.949768	0.95813 
485	20    	0.952215	0.00201677	0.949768	0.95813 
486	20    	0.952215	0.00201677	0.949768	0.95813 
487	20    	0.952215	0.00201677	0.949768	0.95813 
488	20    	0.952215	0.00201677	0.949768	0.95813 
489	20    	0.952215	0.00201677	0.949768	0.95813 
490	20    	0.952215	0.00201677	0.949768	0.95813 
491	20    	0.952215	0.00201677	0.949768	0.95813 
492	20    	0.952215	0.00201677	0.949768	0.95813 
493	20    	0.952215	0.00201677	0.949768	0.95813 
494	20    	0.952215	0.00201677	0.949768	0.95813 
495	20    	0.952215	0.00201677	0.949768	0.95813 
496	20    	0.952215	0.00201677	0.949768	0.95813 
497	20    	0.952215	0.00201677	0.949768	0.95813 
498	20    	0.952215	0.00201677	0.949768	0.95813 
499	20    	0.952215	0.00201677	0.949768	0.95813 
