gen	nevals	avg     	std        	min     	max     
0  	20    	0.876414	0.0058378  	0.865677	0.886887
1  	20    	0.881284	0.00239998 	0.877899	0.886887
2  	20    	0.883611	0.00327982 	0.880142	0.893951
3  	20    	0.884189	0.00299881 	0.881424	0.893951
4  	20    	0.886328	0.00316803 	0.882706	0.893951
5  	20    	0.887563	0.0028477  	0.884003	0.893951
6  	20    	0.889329	0.00281842 	0.886246	0.894287
7  	20    	0.88994 	0.00240368 	0.886887	0.894287
8  	20    	0.890198	0.00222631 	0.887848	0.894287
9  	20    	0.891084	0.00224261 	0.888489	0.894287
10 	20    	0.891454	0.00197384 	0.889145	0.894287
11 	20    	0.892384	0.00221868 	0.889465	0.898773
12 	20    	0.893169	0.00177212 	0.890747	0.898773
13 	20    	0.893458	0.00160754 	0.891068	0.898773
14 	20    	0.89463 	0.00218488 	0.89299 	0.902634
15 	20    	0.895016	0.00218073 	0.893631	0.902634
16 	20    	0.895612	0.00259438 	0.893631	0.902634
17 	20    	0.89595 	0.0025337  	0.893951	0.902634
18 	20    	0.896112	0.0024845  	0.893951	0.902634
19 	20    	0.896771	0.00293231 	0.893951	0.904236
20 	20    	0.897077	0.00281485 	0.894287	0.904236
21 	20    	0.897446	0.00261636 	0.894287	0.904236
22 	20    	0.897638	0.00246713 	0.894608	0.904236
23 	20    	0.897878	0.00239322 	0.895248	0.904236
24 	20    	0.89791 	0.00236188 	0.895569	0.904236
25 	20    	0.898472	0.00238297 	0.895889	0.904236
26 	20    	0.900222	0.00279778 	0.896851	0.904556
27 	20    	0.900367	0.00269247 	0.896851	0.904556
28 	20    	0.900816	0.00236196 	0.897812	0.904556
29 	20    	0.901057	0.00228791 	0.898132	0.904556
30 	20    	0.901073	0.00226841 	0.898132	0.904556
31 	20    	0.901122	0.00221514 	0.898453	0.904556
32 	20    	0.901443	0.00204019 	0.898453	0.904556
33 	20    	0.901701	0.00187254 	0.898773	0.904556
34 	20    	0.902137	0.00141672 	0.89975 	0.904556
35 	20    	0.902169	0.0013688  	0.89975 	0.904556
36 	20    	0.902249	0.00126805 	0.90007 	0.904556
37 	20    	0.902345	0.00114148 	0.901031	0.904556
38 	20    	0.902345	0.00114148 	0.901031	0.904556
39 	20    	0.902699	0.00136763 	0.901031	0.906494
40 	20    	0.902699	0.00136763 	0.901031	0.906494
41 	20    	0.902795	0.00131358 	0.901352	0.906494
42 	20    	0.902811	0.00129775 	0.901352	0.906494
43 	20    	0.902811	0.00129775 	0.901352	0.906494
44 	20    	0.902859	0.00126008 	0.901352	0.906494
45 	20    	0.903131	0.00120738 	0.901672	0.906494
46 	20    	0.903227	0.00116314 	0.901672	0.906494
47 	20    	0.903227	0.00116314 	0.901672	0.906494
48 	20    	0.903404	0.00118225 	0.901993	0.906494
49 	20    	0.903404	0.00118225 	0.901993	0.906494
50 	20    	0.90342 	0.00116506 	0.901993	0.906494
51 	20    	0.90342 	0.00116506 	0.901993	0.906494
52 	20    	0.90342 	0.00116506 	0.901993	0.906494
53 	20    	0.903532	0.00112968 	0.902313	0.906494
54 	20    	0.903773	0.0013389  	0.902313	0.907135
55 	20    	0.903773	0.0013389  	0.902313	0.907135
56 	20    	0.903773	0.0013389  	0.902313	0.907135
57 	20    	0.904015	0.00131877 	0.902634	0.907135
58 	20    	0.904031	0.00130376 	0.902634	0.907135
59 	20    	0.904031	0.00130376 	0.902634	0.907135
60 	20    	0.904031	0.00130376 	0.902634	0.907135
61 	20    	0.904031	0.00130376 	0.902634	0.907135
62 	20    	0.904047	0.00128837 	0.902634	0.907135
63 	20    	0.904239	0.00120386 	0.902634	0.907135
64 	20    	0.904239	0.00120386 	0.902634	0.907135
65 	20    	0.904496	0.00137107 	0.902634	0.907776
66 	20    	0.904496	0.00137107 	0.902634	0.907776
67 	20    	0.904496	0.00137107 	0.902634	0.907776
68 	20    	0.904496	0.00137107 	0.902634	0.907776
69 	20    	0.904512	0.00135094 	0.902954	0.907776
70 	20    	0.904528	0.00133417 	0.902954	0.907776
71 	20    	0.904705	0.00134836 	0.902954	0.907776
72 	20    	0.904721	0.00132923 	0.902954	0.907776
73 	20    	0.905316	0.00196857 	0.903275	0.911957
74 	20    	0.905477	0.00192622 	0.903595	0.911957
75 	20    	0.905493	0.00191178 	0.903595	0.911957
76 	20    	0.905493	0.00191178 	0.903595	0.911957
77 	20    	0.905541	0.00187518 	0.903595	0.911957
78 	20    	0.905541	0.00187518 	0.903595	0.911957
79 	20    	0.905541	0.00187518 	0.903595	0.911957
80 	20    	0.905541	0.00187518 	0.903595	0.911957
81 	20    	0.905734	0.00186356 	0.903915	0.911957
82 	20    	0.905734	0.00186356 	0.903915	0.911957
83 	20    	0.905734	0.00186356 	0.903915	0.911957
84 	20    	0.905734	0.00186356 	0.903915	0.911957
85 	20    	0.905734	0.00186356 	0.903915	0.911957
86 	20    	0.905734	0.00186356 	0.903915	0.911957
87 	20    	0.905734	0.00186356 	0.903915	0.911957
88 	20    	0.905766	0.00183734 	0.903915	0.911957
89 	20    	0.906281	0.00200421 	0.904236	0.911957
90 	20    	0.906281	0.00200421 	0.904236	0.911957
91 	20    	0.906281	0.00200421 	0.904236	0.911957
92 	20    	0.906281	0.00200421 	0.904236	0.911957
93 	20    	0.906281	0.00200421 	0.904236	0.911957
94 	20    	0.906602	0.00216096 	0.904556	0.911957
95 	20    	0.906602	0.00216096 	0.904556	0.911957
96 	20    	0.906602	0.00216096 	0.904556	0.911957
97 	20    	0.906828	0.00209018 	0.904556	0.911957
98 	20    	0.906828	0.00209018 	0.904556	0.911957
99 	20    	0.906828	0.00209018 	0.904556	0.911957
100	20    	0.907007	0.00195545 	0.904556	0.911957
101	20    	0.907007	0.00195545 	0.904556	0.911957
102	20    	0.907007	0.00195545 	0.904556	0.911957
103	20    	0.907007	0.00195545 	0.904556	0.911957
104	20    	0.907007	0.00195545 	0.904556	0.911957
105	20    	0.907426	0.0019976  	0.905212	0.911957
106	20    	0.907426	0.0019976  	0.905212	0.911957
107	20    	0.907666	0.00186266 	0.905533	0.911957
108	20    	0.907714	0.00181888 	0.905533	0.911957
109	20    	0.907826	0.00174873 	0.905853	0.911957
110	20    	0.907826	0.00174873 	0.905853	0.911957
111	20    	0.90797 	0.00163669 	0.906174	0.911957
112	20    	0.908147	0.00162345 	0.906494	0.911957
113	20    	0.908147	0.00162345 	0.906494	0.911957
114	20    	0.908147	0.00162345 	0.906494	0.911957
115	20    	0.908243	0.00156273 	0.906494	0.911957
116	20    	0.9085  	0.00158444 	0.906815	0.911957
117	20    	0.908676	0.00152373 	0.907135	0.911957
118	20    	0.908676	0.00152373 	0.907135	0.911957
119	20    	0.90874 	0.00147009 	0.907135	0.911957
120	20    	0.908852	0.00139191 	0.907455	0.911957
121	20    	0.908932	0.00135482 	0.907455	0.911957
122	20    	0.908932	0.00135482 	0.907455	0.911957
123	20    	0.908932	0.00135482 	0.907455	0.911957
124	20    	0.909061	0.00133005 	0.907455	0.911957
125	20    	0.90927 	0.0013886  	0.907776	0.911957
126	20    	0.909447	0.00132165 	0.907776	0.911957
127	20    	0.909447	0.00132165 	0.907776	0.911957
128	20    	0.909736	0.00153918 	0.907776	0.913559
129	20    	0.909736	0.00153918 	0.907776	0.913559
130	20    	0.909881	0.00148327 	0.907776	0.913559
131	20    	0.909881	0.00148327 	0.907776	0.913559
132	20    	0.909881	0.00148327 	0.907776	0.913559
133	20    	0.909945	0.00140989 	0.908096	0.913559
134	20    	0.909945	0.00140989 	0.908096	0.913559
135	20    	0.909945	0.00140989 	0.908096	0.913559
136	20    	0.909945	0.00140989 	0.908096	0.913559
137	20    	0.909945	0.00140989 	0.908096	0.913559
138	20    	0.909945	0.00140989 	0.908096	0.913559
139	20    	0.909945	0.00140989 	0.908096	0.913559
140	20    	0.909945	0.00140989 	0.908096	0.913559
141	20    	0.909945	0.00140989 	0.908096	0.913559
142	20    	0.910186	0.00148351 	0.908096	0.913559
143	20    	0.910282	0.0013794  	0.908737	0.913559
144	20    	0.910282	0.0013794  	0.908737	0.913559
145	20    	0.910539	0.00136729 	0.909058	0.913559
146	20    	0.910555	0.00135162 	0.909058	0.913559
147	20    	0.9107  	0.00133863 	0.909058	0.913559
148	20    	0.9107  	0.00133863 	0.909058	0.913559
149	20    	0.9107  	0.00133863 	0.909058	0.913559
150	20    	0.9107  	0.00133863 	0.909058	0.913559
151	20    	0.9107  	0.00133863 	0.909058	0.913559
152	20    	0.9107  	0.00133863 	0.909058	0.913559
153	20    	0.9107  	0.00133863 	0.909058	0.913559
154	20    	0.9107  	0.00133863 	0.909058	0.913559
155	20    	0.9107  	0.00133863 	0.909058	0.913559
156	20    	0.9107  	0.00133863 	0.909058	0.913559
157	20    	0.9107  	0.00133863 	0.909058	0.913559
158	20    	0.911006	0.00128544 	0.909058	0.913559
159	20    	0.911006	0.00128544 	0.909058	0.913559
160	20    	0.911087	0.00120891 	0.909378	0.913559
161	20    	0.911087	0.00120891 	0.909378	0.913559
162	20    	0.911184	0.00112108 	0.909698	0.913559
163	20    	0.911265	0.0010681  	0.909698	0.913559
164	20    	0.911265	0.0010681  	0.909698	0.913559
165	20    	0.911265	0.0010681  	0.909698	0.913559
166	20    	0.911314	0.00101645 	0.909698	0.913559
167	20    	0.911523	0.00109004 	0.910019	0.913879
168	20    	0.911523	0.00109004 	0.910019	0.913879
169	20    	0.911523	0.00109004 	0.910019	0.913879
170	20    	0.91162 	0.0010369  	0.910019	0.913879
171	20    	0.91162 	0.0010369  	0.910019	0.913879
172	20    	0.911797	0.00105061 	0.910355	0.913879
173	20    	0.911797	0.00105061 	0.910355	0.913879
174	20    	0.911797	0.00105061 	0.910355	0.913879
175	20    	0.911797	0.00105061 	0.910355	0.913879
176	20    	0.911797	0.00105061 	0.910355	0.913879
177	20    	0.911797	0.00105061 	0.910355	0.913879
178	20    	0.911797	0.00105061 	0.910355	0.913879
179	20    	0.911797	0.00105061 	0.910355	0.913879
180	20    	0.911797	0.00105061 	0.910355	0.913879
181	20    	0.911797	0.00105061 	0.910355	0.913879
182	20    	0.911797	0.00105061 	0.910355	0.913879
183	20    	0.911989	0.00111877 	0.910675	0.9142  
184	20    	0.911989	0.00111877 	0.910675	0.9142  
185	20    	0.912005	0.00110201 	0.910675	0.9142  
186	20    	0.912005	0.00110201 	0.910675	0.9142  
187	20    	0.912117	0.00107477 	0.910675	0.9142  
188	20    	0.912117	0.00107477 	0.910675	0.9142  
189	20    	0.912117	0.00107477 	0.910675	0.9142  
190	20    	0.912133	0.00105537 	0.910675	0.9142  
191	20    	0.912133	0.00105537 	0.910675	0.9142  
192	20    	0.912181	0.00100873 	0.910995	0.9142  
193	20    	0.912213	0.000980341	0.910995	0.9142  
194	20    	0.912213	0.000980341	0.910995	0.9142  
195	20    	0.912213	0.000980341	0.910995	0.9142  
196	20    	0.912213	0.000980341	0.910995	0.9142  
197	20    	0.912213	0.000980341	0.910995	0.9142  
198	20    	0.912213	0.000980341	0.910995	0.9142  
199	20    	0.912213	0.000980341	0.910995	0.9142  
200	20    	0.912213	0.000980341	0.910995	0.9142  
201	20    	0.912213	0.000980341	0.910995	0.9142  
202	20    	0.912261	0.00094229 	0.910995	0.9142  
203	20    	0.912277	0.000923163	0.910995	0.9142  
204	20    	0.912277	0.000923163	0.910995	0.9142  
205	20    	0.912277	0.000923163	0.910995	0.9142  
206	20    	0.912277	0.000923163	0.910995	0.9142  
207	20    	0.912341	0.000875203	0.911316	0.9142  
208	20    	0.912341	0.000875203	0.911316	0.9142  
209	20    	0.912341	0.000875203	0.911316	0.9142  
210	20    	0.912341	0.000875203	0.911316	0.9142  
211	20    	0.912469	0.000902921	0.911316	0.9142  
212	20    	0.912469	0.000902921	0.911316	0.9142  
213	20    	0.912469	0.000902921	0.911316	0.9142  
214	20    	0.912469	0.000902921	0.911316	0.9142  
215	20    	0.912502	0.000872265	0.911316	0.9142  
216	20    	0.912502	0.000872265	0.911316	0.9142  
217	20    	0.912502	0.000872265	0.911316	0.9142  
218	20    	0.912502	0.000872265	0.911316	0.9142  
219	20    	0.912502	0.000872265	0.911316	0.9142  
220	20    	0.912582	0.000832359	0.911636	0.9142  
221	20    	0.912582	0.000832359	0.911636	0.9142  
222	20    	0.912582	0.000832359	0.911636	0.9142  
223	20    	0.912582	0.000832359	0.911636	0.9142  
224	20    	0.912678	0.00082865 	0.911636	0.9142  
225	20    	0.912678	0.00082865 	0.911636	0.9142  
226	20    	0.912678	0.00082865 	0.911636	0.9142  
227	20    	0.912758	0.000801086	0.911636	0.9142  
228	20    	0.912758	0.000801086	0.911636	0.9142  
229	20    	0.912758	0.000801086	0.911636	0.9142  
230	20    	0.912758	0.000801086	0.911636	0.9142  
231	20    	0.912758	0.000801086	0.911636	0.9142  
232	20    	0.912758	0.000801086	0.911636	0.9142  
233	20    	0.912774	0.00078146 	0.911636	0.9142  
234	20    	0.912806	0.000746516	0.911957	0.9142  
235	20    	0.912806	0.000746516	0.911957	0.9142  
236	20    	0.912806	0.000746516	0.911957	0.9142  
237	20    	0.912806	0.000746516	0.911957	0.9142  
238	20    	0.912806	0.000746516	0.911957	0.9142  
239	20    	0.912806	0.000746516	0.911957	0.9142  
240	20    	0.912838	0.000722756	0.911957	0.9142  
241	20    	0.912838	0.000722756	0.911957	0.9142  
242	20    	0.912838	0.000722756	0.911957	0.9142  
243	20    	0.912838	0.000722756	0.911957	0.9142  
244	20    	0.912838	0.000722756	0.911957	0.9142  
245	20    	0.912838	0.000722756	0.911957	0.9142  
246	20    	0.912838	0.000722756	0.911957	0.9142  
247	20    	0.912838	0.000722756	0.911957	0.9142  
248	20    	0.912838	0.000722756	0.911957	0.9142  
249	20    	0.912838	0.000722756	0.911957	0.9142  
250	20    	0.912838	0.000722756	0.911957	0.9142  
251	20    	0.912838	0.000722756	0.911957	0.9142  
252	20    	0.912838	0.000722756	0.911957	0.9142  
253	20    	0.912838	0.000722756	0.911957	0.9142  
254	20    	0.912838	0.000722756	0.911957	0.9142  
255	20    	0.912838	0.000722756	0.911957	0.9142  
256	20    	0.912838	0.000722756	0.911957	0.9142  
257	20    	0.912838	0.000722756	0.911957	0.9142  
258	20    	0.912838	0.000722756	0.911957	0.9142  
259	20    	0.912838	0.000722756	0.911957	0.9142  
260	20    	0.912838	0.000722756	0.911957	0.9142  
261	20    	0.912918	0.000709312	0.911957	0.9142  
262	20    	0.912918	0.000709312	0.911957	0.9142  
263	20    	0.912918	0.000709312	0.911957	0.9142  
264	20    	0.912918	0.000709312	0.911957	0.9142  
265	20    	0.912918	0.000709312	0.911957	0.9142  
266	20    	0.912918	0.000709312	0.911957	0.9142  
267	20    	0.912918	0.000709312	0.911957	0.9142  
268	20    	0.912918	0.000709312	0.911957	0.9142  
269	20    	0.912918	0.000709312	0.911957	0.9142  
270	20    	0.912918	0.000709312	0.911957	0.9142  
271	20    	0.912918	0.000709312	0.911957	0.9142  
272	20    	0.912918	0.000709312	0.911957	0.9142  
273	20    	0.912918	0.000709312	0.911957	0.9142  
274	20    	0.912918	0.000709312	0.911957	0.9142  
275	20    	0.912918	0.000709312	0.911957	0.9142  
276	20    	0.912918	0.000709312	0.911957	0.9142  
277	20    	0.912918	0.000709312	0.911957	0.9142  
278	20    	0.912918	0.000709312	0.911957	0.9142  
279	20    	0.912918	0.000709312	0.911957	0.9142  
280	20    	0.912918	0.000709312	0.911957	0.9142  
281	20    	0.912918	0.000709312	0.911957	0.9142  
282	20    	0.912918	0.000709312	0.911957	0.9142  
283	20    	0.912918	0.000709312	0.911957	0.9142  
284	20    	0.912918	0.000709312	0.911957	0.9142  
285	20    	0.912918	0.000709312	0.911957	0.9142  
286	20    	0.912918	0.000709312	0.911957	0.9142  
287	20    	0.912918	0.000709312	0.911957	0.9142  
288	20    	0.912918	0.000709312	0.911957	0.9142  
289	20    	0.912918	0.000709312	0.911957	0.9142  
290	20    	0.912918	0.000709312	0.911957	0.9142  
291	20    	0.912918	0.000709312	0.911957	0.9142  
292	20    	0.912918	0.000709312	0.911957	0.9142  
293	20    	0.912918	0.000709312	0.911957	0.9142  
294	20    	0.912918	0.000709312	0.911957	0.9142  
295	20    	0.912918	0.000709312	0.911957	0.9142  
296	20    	0.912918	0.000709312	0.911957	0.9142  
297	20    	0.912918	0.000709312	0.911957	0.9142  
298	20    	0.912918	0.000709312	0.911957	0.9142  
299	20    	0.912918	0.000709312	0.911957	0.9142  
300	20    	0.912982	0.000676717	0.911957	0.9142  
301	20    	0.912982	0.000676717	0.911957	0.9142  
302	20    	0.912982	0.000676717	0.911957	0.9142  
303	20    	0.912982	0.000676717	0.911957	0.9142  
304	20    	0.912982	0.000676717	0.911957	0.9142  
305	20    	0.912982	0.000676717	0.911957	0.9142  
306	20    	0.912982	0.000676717	0.911957	0.9142  
307	20    	0.912982	0.000676717	0.911957	0.9142  
308	20    	0.912982	0.000676717	0.911957	0.9142  
309	20    	0.912982	0.000676717	0.911957	0.9142  
310	20    	0.912982	0.000676717	0.911957	0.9142  
311	20    	0.912982	0.000676717	0.911957	0.9142  
312	20    	0.912982	0.000676717	0.911957	0.9142  
313	20    	0.912982	0.000676717	0.911957	0.9142  
314	20    	0.913126	0.000746516	0.911957	0.914841
315	20    	0.913126	0.000746516	0.911957	0.914841
316	20    	0.913142	0.000724352	0.911957	0.914841
317	20    	0.913158	0.000701122	0.912277	0.914841
318	20    	0.913158	0.000701122	0.912277	0.914841
319	20    	0.913158	0.000701122	0.912277	0.914841
320	20    	0.913158	0.000701122	0.912277	0.914841
321	20    	0.913158	0.000701122	0.912277	0.914841
322	20    	0.913158	0.000701122	0.912277	0.914841
323	20    	0.913158	0.000701122	0.912277	0.914841
324	20    	0.913158	0.000701122	0.912277	0.914841
325	20    	0.913158	0.000701122	0.912277	0.914841
326	20    	0.913158	0.000701122	0.912277	0.914841
327	20    	0.913158	0.000701122	0.912277	0.914841
328	20    	0.913158	0.000701122	0.912277	0.914841
329	20    	0.913158	0.000701122	0.912277	0.914841
330	20    	0.913158	0.000701122	0.912277	0.914841
331	20    	0.913158	0.000701122	0.912277	0.914841
332	20    	0.913158	0.000701122	0.912277	0.914841
333	20    	0.913158	0.000701122	0.912277	0.914841
334	20    	0.913158	0.000701122	0.912277	0.914841
335	20    	0.913158	0.000701122	0.912277	0.914841
336	20    	0.913271	0.00073    	0.912277	0.914841
337	20    	0.913271	0.00073    	0.912277	0.914841
338	20    	0.913271	0.00073    	0.912277	0.914841
339	20    	0.913271	0.00073    	0.912277	0.914841
340	20    	0.913271	0.00073    	0.912277	0.914841
341	20    	0.913271	0.00073    	0.912277	0.914841
342	20    	0.913271	0.00073    	0.912277	0.914841
343	20    	0.913271	0.00073    	0.912277	0.914841
344	20    	0.913271	0.00073    	0.912277	0.914841
345	20    	0.913271	0.00073    	0.912277	0.914841
346	20    	0.913271	0.00073    	0.912277	0.914841
347	20    	0.913271	0.00073    	0.912277	0.914841
348	20    	0.913271	0.00073    	0.912277	0.914841
349	20    	0.913271	0.00073    	0.912277	0.914841
350	20    	0.913271	0.00073    	0.912277	0.914841
351	20    	0.913271	0.00073    	0.912277	0.914841
352	20    	0.913271	0.00073    	0.912277	0.914841
353	20    	0.913271	0.00073    	0.912277	0.914841
354	20    	0.913287	0.0007113  	0.912277	0.914841
355	20    	0.913287	0.0007113  	0.912277	0.914841
356	20    	0.913319	0.0006788  	0.912277	0.914841
357	20    	0.913319	0.0006788  	0.912277	0.914841
358	20    	0.913319	0.0006788  	0.912277	0.914841
359	20    	0.913319	0.0006788  	0.912277	0.914841
360	20    	0.913431	0.000682759	0.912598	0.914841
361	20    	0.913431	0.000682759	0.912598	0.914841
362	20    	0.913431	0.000682759	0.912598	0.914841
363	20    	0.913431	0.000682759	0.912598	0.914841
364	20    	0.913431	0.000682759	0.912598	0.914841
365	20    	0.913431	0.000682759	0.912598	0.914841
366	20    	0.913527	0.000693946	0.912598	0.914841
367	20    	0.913527	0.000693946	0.912598	0.914841
368	20    	0.913527	0.000693946	0.912598	0.914841
369	20    	0.913527	0.000693946	0.912598	0.914841
370	20    	0.913527	0.000693946	0.912598	0.914841
371	20    	0.913527	0.000693946	0.912598	0.914841
372	20    	0.913527	0.000693946	0.912598	0.914841
373	20    	0.913527	0.000693946	0.912598	0.914841
374	20    	0.913527	0.000693946	0.912598	0.914841
375	20    	0.913527	0.000693946	0.912598	0.914841
376	20    	0.913527	0.000693946	0.912598	0.914841
377	20    	0.913527	0.000693946	0.912598	0.914841
378	20    	0.913527	0.000693946	0.912598	0.914841
379	20    	0.913527	0.000693946	0.912598	0.914841
380	20    	0.913527	0.000693946	0.912598	0.914841
381	20    	0.913527	0.000693946	0.912598	0.914841
382	20    	0.913527	0.000693946	0.912598	0.914841
383	20    	0.913527	0.000693946	0.912598	0.914841
384	20    	0.913527	0.000693946	0.912598	0.914841
385	20    	0.913527	0.000693946	0.912598	0.914841
386	20    	0.913527	0.000693946	0.912598	0.914841
387	20    	0.913527	0.000693946	0.912598	0.914841
388	20    	0.913527	0.000693946	0.912598	0.914841
389	20    	0.913527	0.000693946	0.912598	0.914841
390	20    	0.913607	0.000674246	0.912598	0.914841
391	20    	0.913607	0.000674246	0.912598	0.914841
392	20    	0.913607	0.000674246	0.912598	0.914841
393	20    	0.913703	0.000660398	0.912598	0.914841
394	20    	0.913703	0.000660398	0.912598	0.914841
395	20    	0.913703	0.000660398	0.912598	0.914841
396	20    	0.913767	0.0006103  	0.912918	0.914841
397	20    	0.913767	0.0006103  	0.912918	0.914841
398	20    	0.913783	0.00059172 	0.912918	0.914841
399	20    	0.913783	0.00059172 	0.912918	0.914841
400	20    	0.913783	0.00059172 	0.912918	0.914841
401	20    	0.913783	0.00059172 	0.912918	0.914841
402	20    	0.913783	0.00059172 	0.912918	0.914841
403	20    	0.913783	0.00059172 	0.912918	0.914841
404	20    	0.913783	0.00059172 	0.912918	0.914841
405	20    	0.913783	0.00059172 	0.912918	0.914841
406	20    	0.913783	0.00059172 	0.912918	0.914841
407	20    	0.913783	0.00059172 	0.912918	0.914841
408	20    	0.913783	0.00059172 	0.912918	0.914841
409	20    	0.913783	0.00059172 	0.912918	0.914841
410	20    	0.913783	0.00059172 	0.912918	0.914841
411	20    	0.913783	0.00059172 	0.912918	0.914841
412	20    	0.913831	0.000557547	0.912918	0.914841
413	20    	0.913831	0.000557547	0.912918	0.914841
414	20    	0.913831	0.000557547	0.912918	0.914841
415	20    	0.913831	0.000557547	0.912918	0.914841
416	20    	0.913831	0.000557547	0.912918	0.914841
417	20    	0.913831	0.000557547	0.912918	0.914841
418	20    	0.913831	0.000557547	0.912918	0.914841
419	20    	0.913831	0.000557547	0.912918	0.914841
420	20    	0.913831	0.000557547	0.912918	0.914841
421	20    	0.913831	0.000557547	0.912918	0.914841
422	20    	0.913831	0.000557547	0.912918	0.914841
423	20    	0.913863	0.000521384	0.912918	0.914841
424	20    	0.913863	0.000521384	0.912918	0.914841
425	20    	0.913863	0.000521384	0.912918	0.914841
426	20    	0.913863	0.000521384	0.912918	0.914841
427	20    	0.913863	0.000521384	0.912918	0.914841
428	20    	0.913863	0.000521384	0.912918	0.914841
429	20    	0.913863	0.000521384	0.912918	0.914841
430	20    	0.913863	0.000521384	0.912918	0.914841
431	20    	0.913863	0.000521384	0.912918	0.914841
432	20    	0.913863	0.000521384	0.912918	0.914841
433	20    	0.913863	0.000521384	0.912918	0.914841
434	20    	0.913863	0.000521384	0.912918	0.914841
435	20    	0.913863	0.000521384	0.912918	0.914841
436	20    	0.91396 	0.000515442	0.913239	0.914841
437	20    	0.91396 	0.000515442	0.913239	0.914841
438	20    	0.91396 	0.000515442	0.913239	0.914841
439	20    	0.91396 	0.000515442	0.913239	0.914841
440	20    	0.91396 	0.000515442	0.913239	0.914841
441	20    	0.91396 	0.000515442	0.913239	0.914841
442	20    	0.91396 	0.000515442	0.913239	0.914841
443	20    	0.91396 	0.000515442	0.913239	0.914841
444	20    	0.91396 	0.000515442	0.913239	0.914841
445	20    	0.91396 	0.000515442	0.913239	0.914841
446	20    	0.91396 	0.000515442	0.913239	0.914841
447	20    	0.91396 	0.000515442	0.913239	0.914841
448	20    	0.914201	0.00101113 	0.913239	0.91806 
449	20    	0.914201	0.00101113 	0.913239	0.91806 
450	20    	0.914201	0.00101113 	0.913239	0.91806 
451	20    	0.914201	0.00101113 	0.913239	0.91806 
452	20    	0.914201	0.00101113 	0.913239	0.91806 
453	20    	0.914201	0.00101113 	0.913239	0.91806 
454	20    	0.914201	0.00101113 	0.913239	0.91806 
455	20    	0.914201	0.00101113 	0.913239	0.91806 
456	20    	0.914201	0.00101113 	0.913239	0.91806 
457	20    	0.914201	0.00101113 	0.913239	0.91806 
458	20    	0.914201	0.00101113 	0.913239	0.91806 
459	20    	0.914201	0.00101113 	0.913239	0.91806 
460	20    	0.914201	0.00101113 	0.913239	0.91806 
461	20    	0.914201	0.00101113 	0.913239	0.91806 
462	20    	0.914201	0.00101113 	0.913239	0.91806 
463	20    	0.914201	0.00101113 	0.913239	0.91806 
464	20    	0.914201	0.00101113 	0.913239	0.91806 
465	20    	0.914217	0.00099822 	0.913239	0.91806 
466	20    	0.914217	0.00099822 	0.913239	0.91806 
467	20    	0.914217	0.00099822 	0.913239	0.91806 
468	20    	0.914217	0.00099822 	0.913239	0.91806 
469	20    	0.914217	0.00099822 	0.913239	0.91806 
470	20    	0.914217	0.00099822 	0.913239	0.91806 
471	20    	0.914217	0.00099822 	0.913239	0.91806 
472	20    	0.914217	0.00099822 	0.913239	0.91806 
473	20    	0.914281	0.000974224	0.913559	0.91806 
474	20    	0.914281	0.000974224	0.913559	0.91806 
475	20    	0.914281	0.000974224	0.913559	0.91806 
476	20    	0.914281	0.000974224	0.913559	0.91806 
477	20    	0.914281	0.000974224	0.913559	0.91806 
478	20    	0.914281	0.000974224	0.913559	0.91806 
479	20    	0.914281	0.000974224	0.913559	0.91806 
480	20    	0.914281	0.000974224	0.913559	0.91806 
481	20    	0.914281	0.000974224	0.913559	0.91806 
482	20    	0.914281	0.000974224	0.913559	0.91806 
483	20    	0.914281	0.000974224	0.913559	0.91806 
484	20    	0.914281	0.000974224	0.913559	0.91806 
485	20    	0.914281	0.000974224	0.913559	0.91806 
486	20    	0.914281	0.000974224	0.913559	0.91806 
487	20    	0.914281	0.000974224	0.913559	0.91806 
488	20    	0.914281	0.000974224	0.913559	0.91806 
489	20    	0.914281	0.000974224	0.913559	0.91806 
490	20    	0.914281	0.000974224	0.913559	0.91806 
491	20    	0.914281	0.000974224	0.913559	0.91806 
492	20    	0.914281	0.000974224	0.913559	0.91806 
493	20    	0.914281	0.000974224	0.913559	0.91806 
494	20    	0.914345	0.000966768	0.913559	0.91806 
495	20    	0.914345	0.000966768	0.913559	0.91806 
496	20    	0.914345	0.000966768	0.913559	0.91806 
497	20    	0.914345	0.000966768	0.913559	0.91806 
498	20    	0.914345	0.000966768	0.913559	0.91806 
499	20    	0.914345	0.000966768	0.913559	0.91806 
