gen	nevals	avg     	std       	min     	max     
0  	20    	0.875317	0.00722629	0.859451	0.892426
1  	20    	0.881279	0.00442793	0.876312	0.892426
2  	20    	0.883302	0.00358632	0.878189	0.892426
3  	20    	0.885233	0.00295743	0.88118 	0.892426
4  	20    	0.886583	0.00208323	0.883438	0.892426
5  	20    	0.887969	0.00151169	0.885681	0.892426
6  	20    	0.889243	0.00184692	0.88681 	0.893555
7  	20    	0.889561	0.00184232	0.887924	0.893555
8  	20    	0.890443	0.00174926	0.888306	0.893555
9  	20    	0.890537	0.00168108	0.888306	0.893555
10 	20    	0.891324	0.00176702	0.889053	0.895798
11 	20    	0.891531	0.0016298 	0.889435	0.895798
12 	20    	0.89183 	0.00138325	0.890182	0.895798
13 	20    	0.892017	0.0012478 	0.890182	0.895798
14 	20    	0.893124	0.00224712	0.891312	0.900681
15 	20    	0.893497	0.00237516	0.891678	0.900681
16 	20    	0.893872	0.00237806	0.892059	0.900681
17 	20    	0.894078	0.00230697	0.892059	0.900681
18 	20    	0.894209	0.00224424	0.892426	0.900681
19 	20    	0.894753	0.00240645	0.892426	0.900681
20 	20    	0.895072	0.00240848	0.892426	0.900681
21 	20    	0.89539 	0.00222179	0.892807	0.900681
22 	20    	0.895859	0.00202434	0.893173	0.900681
23 	20    	0.896234	0.00183028	0.893555	0.900681
24 	20    	0.896909	0.00235092	0.893921	0.904419
25 	20    	0.897152	0.00214107	0.894684	0.904419
26 	20    	0.897507	0.00203446	0.895798	0.904419
27 	20    	0.897677	0.00196212	0.895798	0.904419
28 	20    	0.897827	0.00187145	0.895798	0.904419
29 	20    	0.898221	0.00188678	0.896927	0.904419
30 	20    	0.898521	0.00191053	0.896927	0.904419
31 	20    	0.898783	0.00188706	0.896927	0.904419
32 	20    	0.899101	0.00181507	0.896927	0.904419
33 	20    	0.899288	0.00169324	0.897308	0.904419
34 	20    	0.900019	0.00216335	0.897675	0.905548
35 	20    	0.900076	0.00211564	0.897675	0.905548
36 	20    	0.900132	0.00206528	0.898056	0.905548
37 	20    	0.900319	0.00203793	0.898056	0.905548
38 	20    	0.900731	0.00234809	0.898422	0.906296
39 	20    	0.900768	0.00231678	0.898422	0.906296
40 	20    	0.901011	0.00215416	0.89917 	0.906296
41 	20    	0.901067	0.00211296	0.89917 	0.906296
42 	20    	0.90148 	0.00196758	0.899551	0.906296
43 	20    	0.901762	0.00184025	0.899918	0.906296
44 	20    	0.902512	0.00225314	0.900299	0.908539
45 	20    	0.9027  	0.00221701	0.900299	0.908539
46 	20    	0.902719	0.00219783	0.900681	0.908539
47 	20    	0.903018	0.00218365	0.900681	0.908539
48 	20    	0.903036	0.00216543	0.900681	0.908539
49 	20    	0.903786	0.00271398	0.901047	0.911926
50 	20    	0.903824	0.00268093	0.901047	0.911926
51 	20    	0.904049	0.00262674	0.901428	0.911926
52 	20    	0.905004	0.00273833	0.901794	0.911926
53 	20    	0.905117	0.00262734	0.901794	0.911926
54 	20    	0.905211	0.00253902	0.902176	0.911926
55 	20    	0.905379	0.00244199	0.902542	0.911926
56 	20    	0.905605	0.00237668	0.902542	0.911926
57 	20    	0.905774	0.00227074	0.903305	0.911926
58 	20    	0.905867	0.00218586	0.903305	0.911926
59 	20    	0.906148	0.00219934	0.903305	0.911926
60 	20    	0.906391	0.00213982	0.903671	0.911926
61 	20    	0.90656 	0.00204982	0.904053	0.911926
62 	20    	0.906841	0.00207165	0.904053	0.911926
63 	20    	0.906878	0.00202728	0.904419	0.911926
64 	20    	0.906878	0.00202728	0.904419	0.911926
65 	20    	0.906878	0.00202728	0.904419	0.911926
66 	20    	0.906878	0.00202728	0.904419	0.911926
67 	20    	0.906878	0.00202728	0.904419	0.911926
68 	20    	0.906897	0.00200574	0.904419	0.911926
69 	20    	0.906897	0.00200574	0.904419	0.911926
70 	20    	0.907365	0.00196605	0.9048  	0.911926
71 	20    	0.907852	0.00196288	0.905548	0.911926
72 	20    	0.907871	0.00194214	0.905548	0.911926
73 	20    	0.907983	0.0018681 	0.905548	0.911926
74 	20    	0.907983	0.0018681 	0.905548	0.911926
75 	20    	0.908152	0.00171116	0.905548	0.911926
76 	20    	0.908152	0.00171116	0.905548	0.911926
77 	20    	0.908264	0.00160717	0.90593 	0.911926
78 	20    	0.908264	0.00160717	0.90593 	0.911926
79 	20    	0.908264	0.00160717	0.90593 	0.911926
80 	20    	0.908302	0.00156045	0.90593 	0.911926
81 	20    	0.908302	0.00156045	0.90593 	0.911926
82 	20    	0.908414	0.00146354	0.906296	0.911926
83 	20    	0.908714	0.00160624	0.906677	0.912292
84 	20    	0.908714	0.00160624	0.906677	0.912292
85 	20    	0.908788	0.00154328	0.907043	0.912292
86 	20    	0.908788	0.00154328	0.907043	0.912292
87 	20    	0.90892 	0.00147173	0.907043	0.912292
88 	20    	0.909089	0.0014061 	0.907425	0.912292
89 	20    	0.909126	0.00137086	0.907791	0.912292
90 	20    	0.909126	0.00137086	0.907791	0.912292
91 	20    	0.909126	0.00137086	0.907791	0.912292
92 	20    	0.909126	0.00137086	0.907791	0.912292
93 	20    	0.909389	0.00151871	0.907791	0.912674
94 	20    	0.909427	0.0014878 	0.907791	0.912674
95 	20    	0.909671	0.00159603	0.908173	0.912674
96 	20    	0.909727	0.00156163	0.908173	0.912674
97 	20    	0.909727	0.00156163	0.908173	0.912674
98 	20    	0.909727	0.00156163	0.908173	0.912674
99 	20    	0.90984 	0.00152608	0.908173	0.912674
100	20    	0.90984 	0.00152608	0.908173	0.912674
101	20    	0.90984 	0.00152608	0.908173	0.912674
102	20    	0.90984 	0.00152608	0.908173	0.912674
103	20    	0.90984 	0.00152608	0.908173	0.912674
104	20    	0.910027	0.00154027	0.908173	0.912674
105	20    	0.910065	0.00150344	0.908173	0.912674
106	20    	0.910065	0.00150344	0.908173	0.912674
107	20    	0.910065	0.00150344	0.908173	0.912674
108	20    	0.910065	0.00150344	0.908173	0.912674
109	20    	0.910065	0.00150344	0.908173	0.912674
110	20    	0.910139	0.00144347	0.908173	0.912674
111	20    	0.910345	0.00144205	0.908539	0.912674
112	20    	0.910345	0.00144205	0.908539	0.912674
113	20    	0.910384	0.00140333	0.908539	0.912674
114	20    	0.910628	0.00125225	0.90892 	0.912674
115	20    	0.910703	0.00119123	0.909302	0.912674
116	20    	0.910703	0.00119123	0.909302	0.912674
117	20    	0.910852	0.00119372	0.909302	0.912674
118	20    	0.910908	0.00114508	0.909302	0.912674
119	20    	0.910908	0.00114508	0.909302	0.912674
120	20    	0.910908	0.00114508	0.909302	0.912674
121	20    	0.910908	0.00114508	0.909302	0.912674
122	20    	0.910908	0.00114508	0.909302	0.912674
123	20    	0.910908	0.00114508	0.909302	0.912674
124	20    	0.910908	0.00114508	0.909302	0.912674
125	20    	0.910908	0.00114508	0.909302	0.912674
126	20    	0.910908	0.00114508	0.909302	0.912674
127	20    	0.910908	0.00114508	0.909302	0.912674
128	20    	0.910908	0.00114508	0.909302	0.912674
129	20    	0.910908	0.00114508	0.909302	0.912674
130	20    	0.910908	0.00114508	0.909302	0.912674
131	20    	0.910908	0.00114508	0.909302	0.912674
132	20    	0.910908	0.00114508	0.909302	0.912674
133	20    	0.910908	0.00114508	0.909302	0.912674
134	20    	0.911208	0.00143397	0.909668	0.915298
135	20    	0.91162 	0.00200554	0.909668	0.917923
136	20    	0.911695	0.00195869	0.909668	0.917923
137	20    	0.911695	0.00195869	0.909668	0.917923
138	20    	0.911695	0.00195869	0.909668	0.917923
139	20    	0.911732	0.00192652	0.909668	0.917923
140	20    	0.911732	0.00192652	0.909668	0.917923
141	20    	0.911732	0.00192652	0.909668	0.917923
142	20    	0.91177 	0.00189305	0.909668	0.917923
143	20    	0.91177 	0.00189305	0.909668	0.917923
144	20    	0.91192 	0.00183876	0.910049	0.917923
145	20    	0.91207 	0.00180178	0.910416	0.917923
146	20    	0.91207 	0.00180178	0.910416	0.917923
147	20    	0.91207 	0.00180178	0.910416	0.917923
148	20    	0.91207 	0.00180178	0.910416	0.917923
149	20    	0.91207 	0.00180178	0.910416	0.917923
150	20    	0.912145	0.00176208	0.910416	0.917923
151	20    	0.912445	0.00194316	0.910416	0.917923
152	20    	0.912445	0.00194316	0.910416	0.917923
153	20    	0.912445	0.00194316	0.910416	0.917923
154	20    	0.912445	0.00194316	0.910416	0.917923
155	20    	0.912445	0.00194316	0.910416	0.917923
156	20    	0.912558	0.00188675	0.910416	0.917923
157	20    	0.912558	0.00188675	0.910416	0.917923
158	20    	0.912558	0.00188675	0.910416	0.917923
159	20    	0.912558	0.00188675	0.910416	0.917923
160	20    	0.912558	0.00188675	0.910416	0.917923
161	20    	0.912558	0.00188675	0.910416	0.917923
162	20    	0.912558	0.00188675	0.910416	0.917923
163	20    	0.912689	0.00182339	0.910416	0.917923
164	20    	0.912689	0.00182339	0.910416	0.917923
165	20    	0.912689	0.00182339	0.910416	0.917923
166	20    	0.912689	0.00182339	0.910416	0.917923
167	20    	0.912689	0.00182339	0.910416	0.917923
168	20    	0.912689	0.00182339	0.910416	0.917923
169	20    	0.912689	0.00182339	0.910416	0.917923
170	20    	0.912708	0.00180137	0.910797	0.917923
171	20    	0.912783	0.00173478	0.910797	0.917923
172	20    	0.912783	0.00173478	0.910797	0.917923
173	20    	0.912783	0.00173478	0.910797	0.917923
174	20    	0.912783	0.00173478	0.910797	0.917923
175	20    	0.912783	0.00173478	0.910797	0.917923
176	20    	0.912783	0.00173478	0.910797	0.917923
177	20    	0.912783	0.00173478	0.910797	0.917923
178	20    	0.912783	0.00173478	0.910797	0.917923
179	20    	0.912783	0.00173478	0.910797	0.917923
180	20    	0.912783	0.00173478	0.910797	0.917923
181	20    	0.912783	0.00173478	0.910797	0.917923
182	20    	0.912783	0.00173478	0.910797	0.917923
183	20    	0.912858	0.0016789 	0.911163	0.917923
184	20    	0.912858	0.0016789 	0.911163	0.917923
185	20    	0.912858	0.0016789 	0.911163	0.917923
186	20    	0.913008	0.00165486	0.911545	0.917923
187	20    	0.913008	0.00165486	0.911545	0.917923
188	20    	0.913158	0.00165099	0.911545	0.917923
189	20    	0.913158	0.00165099	0.911545	0.917923
190	20    	0.913158	0.00165099	0.911545	0.917923
191	20    	0.913158	0.00165099	0.911545	0.917923
192	20    	0.913158	0.00165099	0.911545	0.917923
193	20    	0.913177	0.00163437	0.911545	0.917923
194	20    	0.913271	0.00157362	0.911926	0.917923
195	20    	0.913271	0.00157362	0.911926	0.917923
196	20    	0.913271	0.00157362	0.911926	0.917923
197	20    	0.913345	0.00154321	0.911926	0.917923
198	20    	0.913345	0.00154321	0.911926	0.917923
199	20    	0.913345	0.00154321	0.911926	0.917923
200	20    	0.913345	0.00154321	0.911926	0.917923
201	20    	0.913626	0.00175567	0.911926	0.917923
202	20    	0.913626	0.00175567	0.911926	0.917923
203	20    	0.913626	0.00175567	0.911926	0.917923
204	20    	0.913626	0.00175567	0.911926	0.917923
205	20    	0.913626	0.00175567	0.911926	0.917923
206	20    	0.913626	0.00175567	0.911926	0.917923
207	20    	0.913626	0.00175567	0.911926	0.917923
208	20    	0.913626	0.00175567	0.911926	0.917923
209	20    	0.913626	0.00175567	0.911926	0.917923
210	20    	0.913626	0.00175567	0.911926	0.917923
211	20    	0.913626	0.00175567	0.911926	0.917923
212	20    	0.913626	0.00175567	0.911926	0.917923
213	20    	0.913626	0.00175567	0.911926	0.917923
214	20    	0.913626	0.00175567	0.911926	0.917923
215	20    	0.913626	0.00175567	0.911926	0.917923
216	20    	0.913626	0.00175567	0.911926	0.917923
217	20    	0.913626	0.00175567	0.911926	0.917923
218	20    	0.913626	0.00175567	0.911926	0.917923
219	20    	0.913626	0.00175567	0.911926	0.917923
220	20    	0.913626	0.00175567	0.911926	0.917923
221	20    	0.913626	0.00175567	0.911926	0.917923
222	20    	0.913626	0.00175567	0.911926	0.917923
223	20    	0.913626	0.00175567	0.911926	0.917923
224	20    	0.913626	0.00175567	0.911926	0.917923
225	20    	0.913626	0.00175567	0.911926	0.917923
226	20    	0.913626	0.00175567	0.911926	0.917923
227	20    	0.913626	0.00175567	0.911926	0.917923
228	20    	0.913626	0.00175567	0.911926	0.917923
229	20    	0.913626	0.00175567	0.911926	0.917923
230	20    	0.913626	0.00175567	0.911926	0.917923
231	20    	0.913626	0.00175567	0.911926	0.917923
232	20    	0.913626	0.00175567	0.911926	0.917923
233	20    	0.913626	0.00175567	0.911926	0.917923
234	20    	0.913644	0.00173968	0.912292	0.917923
235	20    	0.913644	0.00173968	0.912292	0.917923
236	20    	0.913644	0.00173968	0.912292	0.917923
237	20    	0.913644	0.00173968	0.912292	0.917923
238	20    	0.913644	0.00173968	0.912292	0.917923
239	20    	0.913644	0.00173968	0.912292	0.917923
240	20    	0.913907	0.00175051	0.912292	0.917923
241	20    	0.914113	0.00179036	0.912292	0.917923
242	20    	0.914113	0.00179036	0.912292	0.917923
243	20    	0.914113	0.00179036	0.912292	0.917923
244	20    	0.914113	0.00179036	0.912292	0.917923
245	20    	0.914113	0.00179036	0.912292	0.917923
246	20    	0.914113	0.00179036	0.912292	0.917923
247	20    	0.914244	0.00174781	0.912292	0.917923
248	20    	0.914244	0.00174781	0.912292	0.917923
249	20    	0.914244	0.00174781	0.912292	0.917923
250	20    	0.914244	0.00174781	0.912292	0.917923
251	20    	0.914244	0.00174781	0.912292	0.917923
252	20    	0.914244	0.00174781	0.912292	0.917923
253	20    	0.914244	0.00174781	0.912292	0.917923
254	20    	0.914507	0.00182734	0.912674	0.917923
255	20    	0.914507	0.00182734	0.912674	0.917923
256	20    	0.914562	0.00178717	0.912674	0.917923
257	20    	0.914562	0.00178717	0.912674	0.917923
258	20    	0.914693	0.00173942	0.912674	0.917923
259	20    	0.914693	0.00173942	0.912674	0.917923
260	20    	0.914693	0.00173942	0.912674	0.917923
261	20    	0.914693	0.00173942	0.912674	0.917923
262	20    	0.914825	0.0016801 	0.912674	0.917923
263	20    	0.914825	0.0016801 	0.912674	0.917923
264	20    	0.915125	0.00180031	0.912674	0.918671
265	20    	0.915125	0.00180031	0.912674	0.918671
266	20    	0.915199	0.00172653	0.912674	0.918671
267	20    	0.915218	0.00170141	0.91304 	0.918671
268	20    	0.915218	0.00170141	0.91304 	0.918671
269	20    	0.915218	0.00170141	0.91304 	0.918671
270	20    	0.915218	0.00170141	0.91304 	0.918671
271	20    	0.915218	0.00170141	0.91304 	0.918671
272	20    	0.915218	0.00170141	0.91304 	0.918671
273	20    	0.91548 	0.00174945	0.91304 	0.918671
274	20    	0.915574	0.00166432	0.91304 	0.918671
275	20    	0.91563 	0.00159513	0.913422	0.918671
276	20    	0.91563 	0.00159513	0.913422	0.918671
277	20    	0.91563 	0.00159513	0.913422	0.918671
278	20    	0.91563 	0.00159513	0.913422	0.918671
279	20    	0.91563 	0.00159513	0.913422	0.918671
280	20    	0.91563 	0.00159513	0.913422	0.918671
281	20    	0.91563 	0.00159513	0.913422	0.918671
282	20    	0.91563 	0.00159513	0.913422	0.918671
283	20    	0.91563 	0.00159513	0.913422	0.918671
284	20    	0.91563 	0.00159513	0.913422	0.918671
285	20    	0.91563 	0.00159513	0.913422	0.918671
286	20    	0.91563 	0.00159513	0.913422	0.918671
287	20    	0.915742	0.00151261	0.913788	0.918671
288	20    	0.915742	0.00151261	0.913788	0.918671
289	20    	0.915742	0.00151261	0.913788	0.918671
290	20    	0.915742	0.00151261	0.913788	0.918671
291	20    	0.915742	0.00151261	0.913788	0.918671
292	20    	0.915742	0.00151261	0.913788	0.918671
293	20    	0.915742	0.00151261	0.913788	0.918671
294	20    	0.915742	0.00151261	0.913788	0.918671
295	20    	0.915742	0.00151261	0.913788	0.918671
296	20    	0.915742	0.00151261	0.913788	0.918671
297	20    	0.915742	0.00151261	0.913788	0.918671
298	20    	0.915742	0.00151261	0.913788	0.918671
299	20    	0.915742	0.00151261	0.913788	0.918671
300	20    	0.915836	0.00144515	0.913788	0.918671
301	20    	0.915836	0.00144515	0.913788	0.918671
302	20    	0.915836	0.00144515	0.913788	0.918671
303	20    	0.915836	0.00144515	0.913788	0.918671
304	20    	0.915836	0.00144515	0.913788	0.918671
305	20    	0.915836	0.00144515	0.913788	0.918671
306	20    	0.915836	0.00144515	0.913788	0.918671
307	20    	0.915836	0.00144515	0.913788	0.918671
308	20    	0.915836	0.00144515	0.913788	0.918671
309	20    	0.915893	0.00138482	0.914169	0.918671
310	20    	0.915893	0.00138482	0.914169	0.918671
311	20    	0.915893	0.00138482	0.914169	0.918671
312	20    	0.915949	0.00133554	0.914169	0.918671
313	20    	0.916043	0.00127159	0.914169	0.918671
314	20    	0.916118	0.00120123	0.914536	0.918671
315	20    	0.916118	0.00120123	0.914536	0.918671
316	20    	0.916118	0.00120123	0.914536	0.918671
317	20    	0.916156	0.00116184	0.914917	0.918671
318	20    	0.916156	0.00116184	0.914917	0.918671
319	20    	0.916156	0.00116184	0.914917	0.918671
320	20    	0.916156	0.00116184	0.914917	0.918671
321	20    	0.916156	0.00116184	0.914917	0.918671
322	20    	0.916156	0.00116184	0.914917	0.918671
323	20    	0.916306	0.00118602	0.914917	0.918671
324	20    	0.916344	0.00115296	0.914917	0.918671
325	20    	0.916344	0.00115296	0.914917	0.918671
326	20    	0.916344	0.00115296	0.914917	0.918671
327	20    	0.916344	0.00115296	0.914917	0.918671
328	20    	0.916418	0.00110552	0.915298	0.918671
329	20    	0.916418	0.00110552	0.915298	0.918671
330	20    	0.916418	0.00110552	0.915298	0.918671
331	20    	0.916418	0.00110552	0.915298	0.918671
332	20    	0.916568	0.00114546	0.915298	0.918671
333	20    	0.916568	0.00114546	0.915298	0.918671
334	20    	0.916568	0.00114546	0.915298	0.918671
335	20    	0.916568	0.00114546	0.915298	0.918671
336	20    	0.916586	0.00112781	0.915298	0.918671
337	20    	0.916586	0.00112781	0.915298	0.918671
338	20    	0.91683 	0.00133061	0.915298	0.920166
339	20    	0.91683 	0.00133061	0.915298	0.920166
340	20    	0.91683 	0.00133061	0.915298	0.920166
341	20    	0.91683 	0.00133061	0.915298	0.920166
342	20    	0.91683 	0.00133061	0.915298	0.920166
343	20    	0.916867	0.00129715	0.915298	0.920166
344	20    	0.916867	0.00129715	0.915298	0.920166
345	20    	0.916998	0.00126416	0.915665	0.920166
346	20    	0.916998	0.00126416	0.915665	0.920166
347	20    	0.916998	0.00126416	0.915665	0.920166
348	20    	0.916998	0.00126416	0.915665	0.920166
349	20    	0.916998	0.00126416	0.915665	0.920166
350	20    	0.916998	0.00126416	0.915665	0.920166
351	20    	0.916998	0.00126416	0.915665	0.920166
352	20    	0.916998	0.00126416	0.915665	0.920166
353	20    	0.916998	0.00126416	0.915665	0.920166
354	20    	0.916998	0.00126416	0.915665	0.920166
355	20    	0.916998	0.00126416	0.915665	0.920166
356	20    	0.917036	0.00123488	0.915665	0.920166
357	20    	0.917036	0.00123488	0.915665	0.920166
358	20    	0.917036	0.00123488	0.915665	0.920166
359	20    	0.917036	0.00123488	0.915665	0.920166
360	20    	0.917055	0.00121636	0.915665	0.920166
361	20    	0.917055	0.00121636	0.915665	0.920166
362	20    	0.917055	0.00121636	0.915665	0.920166
363	20    	0.917055	0.00121636	0.915665	0.920166
364	20    	0.917055	0.00121636	0.915665	0.920166
365	20    	0.917055	0.00121636	0.915665	0.920166
366	20    	0.917055	0.00121636	0.915665	0.920166
367	20    	0.917055	0.00121636	0.915665	0.920166
368	20    	0.917055	0.00121636	0.915665	0.920166
369	20    	0.917055	0.00121636	0.915665	0.920166
370	20    	0.917055	0.00121636	0.915665	0.920166
371	20    	0.917055	0.00121636	0.915665	0.920166
372	20    	0.917055	0.00121636	0.915665	0.920166
373	20    	0.917055	0.00121636	0.915665	0.920166
374	20    	0.917055	0.00121636	0.915665	0.920166
375	20    	0.917055	0.00121636	0.915665	0.920166
376	20    	0.917055	0.00121636	0.915665	0.920166
377	20    	0.917055	0.00121636	0.915665	0.920166
378	20    	0.917055	0.00121636	0.915665	0.920166
379	20    	0.917055	0.00121636	0.915665	0.920166
380	20    	0.917055	0.00121636	0.915665	0.920166
381	20    	0.917055	0.00121636	0.915665	0.920166
382	20    	0.917074	0.00119726	0.915665	0.920166
383	20    	0.917074	0.00119726	0.915665	0.920166
384	20    	0.917074	0.00119726	0.915665	0.920166
385	20    	0.917111	0.00116388	0.915665	0.920166
386	20    	0.917111	0.00116388	0.915665	0.920166
387	20    	0.917111	0.00116388	0.915665	0.920166
388	20    	0.917111	0.00116388	0.915665	0.920166
389	20    	0.917111	0.00116388	0.915665	0.920166
390	20    	0.917111	0.00116388	0.915665	0.920166
391	20    	0.917111	0.00116388	0.915665	0.920166
392	20    	0.917111	0.00116388	0.915665	0.920166
393	20    	0.917111	0.00116388	0.915665	0.920166
394	20    	0.917111	0.00116388	0.915665	0.920166
395	20    	0.917111	0.00116388	0.915665	0.920166
396	20    	0.917111	0.00116388	0.915665	0.920166
397	20    	0.917111	0.00116388	0.915665	0.920166
398	20    	0.917111	0.00116388	0.915665	0.920166
399	20    	0.917111	0.00116388	0.915665	0.920166
400	20    	0.917111	0.00116388	0.915665	0.920166
401	20    	0.917111	0.00116388	0.915665	0.920166
402	20    	0.917111	0.00116388	0.915665	0.920166
403	20    	0.917111	0.00116388	0.915665	0.920166
404	20    	0.917111	0.00116388	0.915665	0.920166
405	20    	0.917149	0.00112828	0.916046	0.920166
406	20    	0.917149	0.00112828	0.916046	0.920166
407	20    	0.917149	0.00112828	0.916046	0.920166
408	20    	0.917149	0.00112828	0.916046	0.920166
409	20    	0.917149	0.00112828	0.916046	0.920166
410	20    	0.917186	0.00110324	0.916046	0.920166
411	20    	0.917186	0.00110324	0.916046	0.920166
412	20    	0.917186	0.00110324	0.916046	0.920166
413	20    	0.917204	0.0010871 	0.916046	0.920166
414	20    	0.917223	0.00107039	0.916046	0.920166
415	20    	0.917223	0.00107039	0.916046	0.920166
416	20    	0.917223	0.00107039	0.916046	0.920166
417	20    	0.917223	0.00107039	0.916046	0.920166
418	20    	0.917223	0.00107039	0.916046	0.920166
419	20    	0.917223	0.00107039	0.916046	0.920166
420	20    	0.917223	0.00107039	0.916046	0.920166
421	20    	0.917223	0.00107039	0.916046	0.920166
422	20    	0.917223	0.00107039	0.916046	0.920166
423	20    	0.917223	0.00107039	0.916046	0.920166
424	20    	0.917223	0.00107039	0.916046	0.920166
425	20    	0.917223	0.00107039	0.916046	0.920166
426	20    	0.917223	0.00107039	0.916046	0.920166
427	20    	0.917223	0.00107039	0.916046	0.920166
428	20    	0.917241	0.0010531 	0.916046	0.920166
429	20    	0.917241	0.0010531 	0.916046	0.920166
430	20    	0.917241	0.0010531 	0.916046	0.920166
431	20    	0.917372	0.00105955	0.916412	0.920166
432	20    	0.917372	0.00105955	0.916412	0.920166
433	20    	0.917485	0.00107151	0.916412	0.920166
434	20    	0.917485	0.00107151	0.916412	0.920166
435	20    	0.917485	0.00107151	0.916412	0.920166
436	20    	0.917485	0.00107151	0.916412	0.920166
437	20    	0.917485	0.00107151	0.916412	0.920166
438	20    	0.917522	0.00104618	0.916412	0.920166
439	20    	0.917522	0.00104618	0.916412	0.920166
440	20    	0.917522	0.00104618	0.916412	0.920166
441	20    	0.917522	0.00104618	0.916412	0.920166
442	20    	0.917522	0.00104618	0.916412	0.920166
443	20    	0.917522	0.00104618	0.916412	0.920166
444	20    	0.917522	0.00104618	0.916412	0.920166
445	20    	0.917522	0.00104618	0.916412	0.920166
446	20    	0.917522	0.00104618	0.916412	0.920166
447	20    	0.917522	0.00104618	0.916412	0.920166
448	20    	0.917522	0.00104618	0.916412	0.920166
449	20    	0.917522	0.00104618	0.916412	0.920166
450	20    	0.917522	0.00104618	0.916412	0.920166
451	20    	0.917522	0.00104618	0.916412	0.920166
452	20    	0.917522	0.00104618	0.916412	0.920166
453	20    	0.917522	0.00104618	0.916412	0.920166
454	20    	0.917522	0.00104618	0.916412	0.920166
455	20    	0.917522	0.00104618	0.916412	0.920166
456	20    	0.917522	0.00104618	0.916412	0.920166
457	20    	0.917522	0.00104618	0.916412	0.920166
458	20    	0.917522	0.00104618	0.916412	0.920166
459	20    	0.917522	0.00104618	0.916412	0.920166
460	20    	0.917522	0.00104618	0.916412	0.920166
461	20    	0.917522	0.00104618	0.916412	0.920166
462	20    	0.917522	0.00104618	0.916412	0.920166
463	20    	0.917522	0.00104618	0.916412	0.920166
464	20    	0.917522	0.00104618	0.916412	0.920166
465	20    	0.917522	0.00104618	0.916412	0.920166
466	20    	0.917522	0.00104618	0.916412	0.920166
467	20    	0.917522	0.00104618	0.916412	0.920166
468	20    	0.917522	0.00104618	0.916412	0.920166
469	20    	0.917522	0.00104618	0.916412	0.920166
470	20    	0.917654	0.00106317	0.916412	0.920166
471	20    	0.917654	0.00106317	0.916412	0.920166
472	20    	0.917654	0.00106317	0.916412	0.920166
473	20    	0.917654	0.00106317	0.916412	0.920166
474	20    	0.917654	0.00106317	0.916412	0.920166
475	20    	0.917654	0.00106317	0.916412	0.920166
476	20    	0.917673	0.00104398	0.916412	0.920166
477	20    	0.917673	0.00104398	0.916412	0.920166
478	20    	0.917673	0.00104398	0.916412	0.920166
479	20    	0.917673	0.00104398	0.916412	0.920166
480	20    	0.917673	0.00104398	0.916412	0.920166
481	20    	0.917673	0.00104398	0.916412	0.920166
482	20    	0.917673	0.00104398	0.916412	0.920166
483	20    	0.917673	0.00104398	0.916412	0.920166
484	20    	0.917673	0.00104398	0.916412	0.920166
485	20    	0.917673	0.00104398	0.916412	0.920166
486	20    	0.917673	0.00104398	0.916412	0.920166
487	20    	0.917673	0.00104398	0.916412	0.920166
488	20    	0.917673	0.00104398	0.916412	0.920166
489	20    	0.917673	0.00104398	0.916412	0.920166
490	20    	0.917673	0.00104398	0.916412	0.920166
491	20    	0.917673	0.00104398	0.916412	0.920166
492	20    	0.917673	0.00104398	0.916412	0.920166
493	20    	0.917673	0.00104398	0.916412	0.920166
494	20    	0.917673	0.00104398	0.916412	0.920166
495	20    	0.917673	0.00104398	0.916412	0.920166
496	20    	0.917673	0.00104398	0.916412	0.920166
497	20    	0.917673	0.00104398	0.916412	0.920166
498	20    	0.917673	0.00104398	0.916412	0.920166
499	20    	0.917673	0.00104398	0.916412	0.920166
