gen	nevals	avg     	std       	min     	max     
0  	20    	0.876374	0.00739892	0.861389	0.88884 
1  	20    	0.880979	0.00363299	0.875992	0.88884 
2  	20    	0.88406 	0.0037206 	0.879532	0.894592
3  	20    	0.887025	0.00278075	0.882645	0.894592
4  	20    	0.888353	0.00219876	0.884857	0.894592
5  	20    	0.88968 	0.00218536	0.886627	0.894592
6  	20    	0.890388	0.00172804	0.887955	0.894592
7  	20    	0.891495	0.00235818	0.889282	0.898132
8  	20    	0.892114	0.00240505	0.889725	0.898132
9  	20    	0.892203	0.00234736	0.889725	0.898132
10 	20    	0.893354	0.00276408	0.890167	0.900803
11 	20    	0.89373 	0.00249152	0.891052	0.900803
12 	20    	0.894062	0.00241206	0.891052	0.900803
13 	20    	0.894881	0.00220692	0.89238 	0.900803
14 	20    	0.895058	0.00210793	0.89238 	0.900803
15 	20    	0.895832	0.00158307	0.893707	0.900803
16 	20    	0.896053	0.00152949	0.894592	0.900803
17 	20    	0.896984	0.00202955	0.895035	0.90213 
18 	20    	0.897339	0.00201171	0.895035	0.90213 
19 	20    	0.897804	0.00187742	0.895477	0.90213 
20 	20    	0.898071	0.00190593	0.89592 	0.90213 
21 	20    	0.898292	0.0017332 	0.896362	0.90213 
22 	20    	0.899113	0.00218128	0.896805	0.90567 
23 	20    	0.899313	0.00214348	0.896805	0.90567 
24 	20    	0.899802	0.00197872	0.897247	0.90567 
25 	20    	0.900423	0.00239593	0.898132	0.90744 
26 	20    	0.900645	0.00237908	0.898132	0.90744 
27 	20    	0.901046	0.00216545	0.89859 	0.90744 
28 	20    	0.901201	0.00209385	0.899033	0.90744 
29 	20    	0.901511	0.00202007	0.899033	0.90744 
30 	20    	0.901643	0.00193845	0.899475	0.90744 
31 	20    	0.901975	0.00184729	0.899918	0.90744 
32 	20    	0.901975	0.00184729	0.899918	0.90744 
33 	20    	0.90213 	0.00179746	0.90036 	0.90744 
34 	20    	0.90213 	0.00179746	0.90036 	0.90744 
35 	20    	0.90213 	0.00179746	0.90036 	0.90744 
36 	20    	0.902794	0.00198635	0.900803	0.90744 
37 	20    	0.90286 	0.00194035	0.900803	0.90744 
38 	20    	0.902882	0.00191917	0.900803	0.90744 
39 	20    	0.903148	0.00192934	0.901245	0.90744 
40 	20    	0.903192	0.00189504	0.901245	0.90744 
41 	20    	0.903325	0.00181966	0.901688	0.90744 
42 	20    	0.90348 	0.00180548	0.901688	0.90744 
43 	20    	0.903679	0.00173933	0.901688	0.90744 
44 	20    	0.903679	0.00173933	0.901688	0.90744 
45 	20    	0.903679	0.00173933	0.901688	0.90744 
46 	20    	0.903989	0.00190123	0.90213 	0.907883
47 	20    	0.904055	0.00184729	0.90213 	0.907883
48 	20    	0.904055	0.00184729	0.90213 	0.907883
49 	20    	0.904055	0.00184729	0.90213 	0.907883
50 	20    	0.904144	0.0017946 	0.90213 	0.907883
51 	20    	0.904144	0.0017946 	0.90213 	0.907883
52 	20    	0.904144	0.0017946 	0.90213 	0.907883
53 	20    	0.904144	0.0017946 	0.90213 	0.907883
54 	20    	0.90452 	0.00172747	0.90213 	0.907883
55 	20    	0.90452 	0.00172747	0.90213 	0.907883
56 	20    	0.90463 	0.00163951	0.902573	0.907883
57 	20    	0.90463 	0.00163951	0.902573	0.907883
58 	20    	0.904675	0.00159471	0.902573	0.907883
59 	20    	0.904675	0.00159471	0.902573	0.907883
60 	20    	0.904719	0.00154734	0.902573	0.907883
61 	20    	0.904962	0.00141602	0.903015	0.907883
62 	20    	0.905073	0.00134419	0.903458	0.907883
63 	20    	0.905183	0.00125081	0.903458	0.907883
64 	20    	0.905316	0.00120049	0.903458	0.907883
65 	20    	0.905316	0.00120049	0.903458	0.907883
66 	20    	0.905604	0.00114774	0.9039  	0.907883
67 	20    	0.905914	0.0011409 	0.904343	0.907883
68 	20    	0.906356	0.00154227	0.904785	0.911423
69 	20    	0.906998	0.00234152	0.904785	0.914963
70 	20    	0.907175	0.00224939	0.905228	0.914963
71 	20    	0.90733 	0.00221639	0.90567 	0.914963
72 	20    	0.907639	0.00218346	0.90567 	0.914963
73 	20    	0.908082	0.0023435 	0.90567 	0.914963
74 	20    	0.90817 	0.00228341	0.90567 	0.914963
75 	20    	0.908768	0.00238707	0.906113	0.914963
76 	20    	0.909122	0.00223279	0.90744 	0.914963
77 	20    	0.909343	0.00227406	0.90744 	0.914963
78 	20    	0.909542	0.0021942 	0.90744 	0.914963
79 	20    	0.909542	0.0021942 	0.90744 	0.914963
80 	20    	0.909542	0.0021942 	0.90744 	0.914963
81 	20    	0.909719	0.00216002	0.90744 	0.914963
82 	20    	0.910206	0.00190778	0.907883	0.914963
83 	20    	0.910206	0.00190778	0.907883	0.914963
84 	20    	0.910737	0.00167612	0.908325	0.914963
85 	20    	0.91087 	0.00158238	0.908768	0.914963
86 	20    	0.911113	0.00161438	0.908768	0.914963
87 	20    	0.911135	0.00158485	0.908768	0.914963
88 	20    	0.912022	0.00226117	0.909653	0.918076
89 	20    	0.912309	0.00216689	0.910095	0.918076
90 	20    	0.91242 	0.00210668	0.910095	0.918076
91 	20    	0.912641	0.00208315	0.910095	0.918076
92 	20    	0.912752	0.00200218	0.910538	0.918076
93 	20    	0.913017	0.00198922	0.91098 	0.918076
94 	20    	0.913084	0.00194173	0.91098 	0.918076
95 	20    	0.913084	0.00194173	0.91098 	0.918076
96 	20    	0.913084	0.00194173	0.91098 	0.918076
97 	20    	0.913438	0.00216083	0.91098 	0.918076
98 	20    	0.913593	0.0020889 	0.91098 	0.918076
99 	20    	0.91377 	0.00200841	0.91098 	0.918076
100	20    	0.913815	0.00195551	0.911423	0.918076
101	20    	0.914391	0.00207707	0.911865	0.918076
102	20    	0.914413	0.00205225	0.911865	0.918076
103	20    	0.914413	0.00205225	0.911865	0.918076
104	20    	0.914413	0.00205225	0.911865	0.918076
105	20    	0.914413	0.00205225	0.911865	0.918076
106	20    	0.914413	0.00205225	0.911865	0.918076
107	20    	0.914413	0.00205225	0.911865	0.918076
108	20    	0.914413	0.00205225	0.911865	0.918076
109	20    	0.914413	0.00205225	0.911865	0.918076
110	20    	0.914413	0.00205225	0.911865	0.918076
111	20    	0.914657	0.00190443	0.912308	0.918076
112	20    	0.914657	0.00190443	0.912308	0.918076
113	20    	0.914657	0.00190443	0.912308	0.918076
114	20    	0.914945	0.00190171	0.912308	0.918076
115	20    	0.914945	0.00190171	0.912308	0.918076
116	20    	0.914945	0.00190171	0.912308	0.918076
117	20    	0.914945	0.00190171	0.912308	0.918076
118	20    	0.915056	0.00180707	0.91275 	0.918076
119	20    	0.915144	0.00173384	0.91275 	0.918076
120	20    	0.915189	0.00168272	0.91275 	0.918076
121	20    	0.915277	0.00159648	0.913193	0.918076
122	20    	0.915277	0.00159648	0.913193	0.918076
123	20    	0.915277	0.00159648	0.913193	0.918076
124	20    	0.91541 	0.0015265 	0.913635	0.918076
125	20    	0.91541 	0.0015265 	0.913635	0.918076
126	20    	0.91552 	0.00147312	0.913635	0.918076
127	20    	0.91552 	0.00147312	0.913635	0.918076
128	20    	0.91572 	0.00133456	0.914078	0.918076
129	20    	0.916473	0.00297113	0.91452 	0.928253
130	20    	0.916584	0.00293741	0.91452 	0.928253
131	20    	0.916695	0.00288548	0.91452 	0.928253
132	20    	0.916695	0.00288548	0.91452 	0.928253
133	20    	0.916695	0.00288548	0.91452 	0.928253
134	20    	0.916695	0.00288548	0.91452 	0.928253
135	20    	0.916695	0.00288548	0.91452 	0.928253
136	20    	0.91685 	0.0028477 	0.91452 	0.928253
137	20    	0.91685 	0.0028477 	0.91452 	0.928253
138	20    	0.91705 	0.00281728	0.914963	0.928253
139	20    	0.91705 	0.00281728	0.914963	0.928253
140	20    	0.91725 	0.00280388	0.914963	0.928253
141	20    	0.917361	0.00272967	0.915405	0.928253
142	20    	0.917361	0.00272967	0.915405	0.928253
143	20    	0.917361	0.00272967	0.915405	0.928253
144	20    	0.917361	0.00272967	0.915405	0.928253
145	20    	0.917428	0.00269707	0.915405	0.928253
146	20    	0.917428	0.00269707	0.915405	0.928253
147	20    	0.917428	0.00269707	0.915405	0.928253
148	20    	0.917606	0.00267498	0.915405	0.928253
149	20    	0.917739	0.00262806	0.915405	0.928253
150	20    	0.918027	0.00267222	0.915848	0.928253
151	20    	0.918027	0.00267222	0.915848	0.928253
152	20    	0.918027	0.00267222	0.915848	0.928253
153	20    	0.918027	0.00267222	0.915848	0.928253
154	20    	0.918117	0.00262736	0.915848	0.928253
155	20    	0.918117	0.00262736	0.915848	0.928253
156	20    	0.918162	0.00259562	0.915848	0.928253
157	20    	0.918162	0.00259562	0.915848	0.928253
158	20    	0.918162	0.00259562	0.915848	0.928253
159	20    	0.918295	0.00254127	0.91629 	0.928253
160	20    	0.918407	0.00249943	0.91629 	0.928253
161	20    	0.918407	0.00249943	0.91629 	0.928253
162	20    	0.918407	0.00249943	0.91629 	0.928253
163	20    	0.918407	0.00249943	0.91629 	0.928253
164	20    	0.918407	0.00249943	0.91629 	0.928253
165	20    	0.918407	0.00249943	0.91629 	0.928253
166	20    	0.918407	0.00249943	0.91629 	0.928253
167	20    	0.918496	0.00245371	0.916748	0.928253
168	20    	0.918651	0.00243619	0.916748	0.928253
169	20    	0.918651	0.00243619	0.916748	0.928253
170	20    	0.918673	0.00242077	0.916748	0.928253
171	20    	0.918806	0.00238409	0.916748	0.928253
172	20    	0.918806	0.00238409	0.916748	0.928253
173	20    	0.918806	0.00238409	0.916748	0.928253
174	20    	0.918828	0.00236688	0.917191	0.928253
175	20    	0.918828	0.00236688	0.917191	0.928253
176	20    	0.918828	0.00236688	0.917191	0.928253
177	20    	0.918828	0.00236688	0.917191	0.928253
178	20    	0.919049	0.00237308	0.917191	0.928253
179	20    	0.919049	0.00237308	0.917191	0.928253
180	20    	0.919049	0.00237308	0.917191	0.928253
181	20    	0.919049	0.00237308	0.917191	0.928253
182	20    	0.919049	0.00237308	0.917191	0.928253
183	20    	0.919049	0.00237308	0.917191	0.928253
184	20    	0.919049	0.00237308	0.917191	0.928253
185	20    	0.919049	0.00237308	0.917191	0.928253
186	20    	0.919226	0.00235984	0.917633	0.928253
187	20    	0.919226	0.00235984	0.917633	0.928253
188	20    	0.919226	0.00235984	0.917633	0.928253
189	20    	0.919226	0.00235984	0.917633	0.928253
190	20    	0.919226	0.00235984	0.917633	0.928253
191	20    	0.919248	0.00234684	0.917633	0.928253
192	20    	0.919337	0.00231745	0.917633	0.928253
193	20    	0.919337	0.00231745	0.917633	0.928253
194	20    	0.919337	0.00231745	0.917633	0.928253
195	20    	0.919337	0.00231745	0.917633	0.928253
196	20    	0.919403	0.00228651	0.917633	0.928253
197	20    	0.919403	0.00228651	0.917633	0.928253
198	20    	0.919403	0.00228651	0.917633	0.928253
199	20    	0.919403	0.00228651	0.917633	0.928253
200	20    	0.919469	0.00225319	0.917633	0.928253
201	20    	0.919469	0.00225319	0.917633	0.928253
202	20    	0.919469	0.00225319	0.917633	0.928253
203	20    	0.919469	0.00225319	0.917633	0.928253
204	20    	0.919492	0.00223717	0.918076	0.928253
205	20    	0.919536	0.00221739	0.918076	0.928253
206	20    	0.919536	0.00221739	0.918076	0.928253
207	20    	0.919536	0.00221739	0.918076	0.928253
208	20    	0.919536	0.00221739	0.918076	0.928253
209	20    	0.919536	0.00221739	0.918076	0.928253
210	20    	0.91958 	0.00219654	0.918076	0.928253
211	20    	0.91958 	0.00219654	0.918076	0.928253
212	20    	0.919669	0.00216963	0.918076	0.928253
213	20    	0.919669	0.00216963	0.918076	0.928253
214	20    	0.919669	0.00216963	0.918076	0.928253
215	20    	0.919713	0.00214558	0.918076	0.928253
216	20    	0.919713	0.00214558	0.918076	0.928253
217	20    	0.919713	0.00214558	0.918076	0.928253
218	20    	0.919713	0.00214558	0.918076	0.928253
219	20    	0.919823	0.00211513	0.918076	0.928253
220	20    	0.919823	0.00211513	0.918076	0.928253
221	20    	0.919823	0.00211513	0.918076	0.928253
222	20    	0.919823	0.00211513	0.918076	0.928253
223	20    	0.919823	0.00211513	0.918076	0.928253
224	20    	0.919823	0.00211513	0.918076	0.928253
225	20    	0.919823	0.00211513	0.918076	0.928253
226	20    	0.920067	0.00217908	0.918518	0.928253
227	20    	0.920067	0.00217908	0.918518	0.928253
228	20    	0.920067	0.00217908	0.918518	0.928253
229	20    	0.920067	0.00217908	0.918518	0.928253
230	20    	0.920067	0.00217908	0.918518	0.928253
231	20    	0.920067	0.00217908	0.918518	0.928253
232	20    	0.920067	0.00217908	0.918518	0.928253
233	20    	0.920067	0.00217908	0.918518	0.928253
234	20    	0.920133	0.00215093	0.918518	0.928253
235	20    	0.920133	0.00215093	0.918518	0.928253
236	20    	0.920133	0.00215093	0.918518	0.928253
237	20    	0.920244	0.00212172	0.918518	0.928253
238	20    	0.92031 	0.00208717	0.918961	0.928253
239	20    	0.92031 	0.00208717	0.918961	0.928253
240	20    	0.92031 	0.00208717	0.918961	0.928253
241	20    	0.920421	0.00204272	0.918961	0.928253
242	20    	0.920421	0.00204272	0.918961	0.928253
243	20    	0.920421	0.00204272	0.918961	0.928253
244	20    	0.920421	0.00204272	0.918961	0.928253
245	20    	0.920421	0.00204272	0.918961	0.928253
246	20    	0.920421	0.00204272	0.918961	0.928253
247	20    	0.920443	0.00202914	0.918961	0.928253
248	20    	0.920443	0.00202914	0.918961	0.928253
249	20    	0.920554	0.00200548	0.918961	0.928253
250	20    	0.920554	0.00200548	0.918961	0.928253
251	20    	0.920554	0.00200548	0.918961	0.928253
252	20    	0.920554	0.00200548	0.918961	0.928253
253	20    	0.920554	0.00200548	0.918961	0.928253
254	20    	0.920554	0.00200548	0.918961	0.928253
255	20    	0.92062 	0.00197337	0.918961	0.928253
256	20    	0.920731	0.00193896	0.918961	0.928253
257	20    	0.920819	0.00189607	0.919403	0.928253
258	20    	0.920819	0.00189607	0.919403	0.928253
259	20    	0.920819	0.00189607	0.919403	0.928253
260	20    	0.920885	0.00186837	0.919403	0.928253
261	20    	0.920885	0.00186837	0.919403	0.928253
262	20    	0.920908	0.00185325	0.919403	0.928253
263	20    	0.920908	0.00185325	0.919403	0.928253
264	20    	0.920908	0.00185325	0.919403	0.928253
265	20    	0.920908	0.00185325	0.919403	0.928253
266	20    	0.920908	0.00185325	0.919403	0.928253
267	20    	0.920908	0.00185325	0.919403	0.928253
268	20    	0.92093 	0.00183773	0.919846	0.928253
269	20    	0.92093 	0.00183773	0.919846	0.928253
270	20    	0.92093 	0.00183773	0.919846	0.928253
271	20    	0.92093 	0.00183773	0.919846	0.928253
272	20    	0.92093 	0.00183773	0.919846	0.928253
273	20    	0.92093 	0.00183773	0.919846	0.928253
274	20    	0.921062	0.00185047	0.919846	0.928253
275	20    	0.921062	0.00185047	0.919846	0.928253
276	20    	0.921062	0.00185047	0.919846	0.928253
277	20    	0.921062	0.00185047	0.919846	0.928253
278	20    	0.921062	0.00185047	0.919846	0.928253
279	20    	0.921062	0.00185047	0.919846	0.928253
280	20    	0.921062	0.00185047	0.919846	0.928253
281	20    	0.921062	0.00185047	0.919846	0.928253
282	20    	0.921129	0.00182932	0.919846	0.928253
283	20    	0.921129	0.00182932	0.919846	0.928253
284	20    	0.921129	0.00182932	0.919846	0.928253
285	20    	0.921129	0.00182932	0.919846	0.928253
286	20    	0.921129	0.00182932	0.919846	0.928253
287	20    	0.921129	0.00182932	0.919846	0.928253
288	20    	0.921129	0.00182932	0.919846	0.928253
289	20    	0.921151	0.00181629	0.919846	0.928253
290	20    	0.921151	0.00181629	0.919846	0.928253
291	20    	0.921151	0.00181629	0.919846	0.928253
292	20    	0.921151	0.00181629	0.919846	0.928253
293	20    	0.921151	0.00181629	0.919846	0.928253
294	20    	0.921151	0.00181629	0.919846	0.928253
295	20    	0.921151	0.00181629	0.919846	0.928253
296	20    	0.921151	0.00181629	0.919846	0.928253
297	20    	0.921151	0.00181629	0.919846	0.928253
298	20    	0.921151	0.00181629	0.919846	0.928253
299	20    	0.921151	0.00181629	0.919846	0.928253
300	20    	0.921151	0.00181629	0.919846	0.928253
301	20    	0.921151	0.00181629	0.919846	0.928253
302	20    	0.921195	0.0017946 	0.919846	0.928253
303	20    	0.921195	0.0017946 	0.919846	0.928253
304	20    	0.921195	0.0017946 	0.919846	0.928253
305	20    	0.921195	0.0017946 	0.919846	0.928253
306	20    	0.921195	0.0017946 	0.919846	0.928253
307	20    	0.921195	0.0017946 	0.919846	0.928253
308	20    	0.921195	0.0017946 	0.919846	0.928253
309	20    	0.921195	0.0017946 	0.919846	0.928253
310	20    	0.921195	0.0017946 	0.919846	0.928253
311	20    	0.921328	0.00178804	0.919846	0.928253
312	20    	0.921328	0.00178804	0.919846	0.928253
313	20    	0.921328	0.00178804	0.919846	0.928253
314	20    	0.921328	0.00178804	0.919846	0.928253
315	20    	0.921328	0.00178804	0.919846	0.928253
316	20    	0.921328	0.00178804	0.919846	0.928253
317	20    	0.921328	0.00178804	0.919846	0.928253
318	20    	0.921416	0.00173355	0.920288	0.928253
319	20    	0.921416	0.00173355	0.920288	0.928253
320	20    	0.921416	0.00173355	0.920288	0.928253
321	20    	0.921416	0.00173355	0.920288	0.928253
322	20    	0.921416	0.00173355	0.920288	0.928253
323	20    	0.921416	0.00173355	0.920288	0.928253
324	20    	0.921416	0.00173355	0.920288	0.928253
325	20    	0.921416	0.00173355	0.920288	0.928253
326	20    	0.921483	0.00171439	0.920288	0.928253
327	20    	0.921483	0.00171439	0.920288	0.928253
328	20    	0.921483	0.00171439	0.920288	0.928253
329	20    	0.921483	0.00171439	0.920288	0.928253
330	20    	0.921483	0.00171439	0.920288	0.928253
331	20    	0.921483	0.00171439	0.920288	0.928253
332	20    	0.921483	0.00171439	0.920288	0.928253
333	20    	0.921483	0.00171439	0.920288	0.928253
334	20    	0.921483	0.00171439	0.920288	0.928253
335	20    	0.921483	0.00171439	0.920288	0.928253
336	20    	0.921483	0.00171439	0.920288	0.928253
337	20    	0.921483	0.00171439	0.920288	0.928253
338	20    	0.921593	0.00170508	0.920288	0.928253
339	20    	0.921593	0.00170508	0.920288	0.928253
340	20    	0.921593	0.00170508	0.920288	0.928253
341	20    	0.921593	0.00170508	0.920288	0.928253
342	20    	0.921593	0.00170508	0.920288	0.928253
343	20    	0.921593	0.00170508	0.920288	0.928253
344	20    	0.921593	0.00170508	0.920288	0.928253
345	20    	0.921593	0.00170508	0.920288	0.928253
346	20    	0.921593	0.00170508	0.920288	0.928253
347	20    	0.921837	0.00168791	0.920731	0.928253
348	20    	0.921837	0.00168791	0.920731	0.928253
349	20    	0.921837	0.00168791	0.920731	0.928253
350	20    	0.921837	0.00168791	0.920731	0.928253
351	20    	0.921837	0.00168791	0.920731	0.928253
352	20    	0.921837	0.00168791	0.920731	0.928253
353	20    	0.921881	0.00166983	0.920731	0.928253
354	20    	0.921881	0.00166983	0.920731	0.928253
355	20    	0.921881	0.00166983	0.920731	0.928253
356	20    	0.921881	0.00166983	0.920731	0.928253
357	20    	0.921881	0.00166983	0.920731	0.928253
358	20    	0.921881	0.00166983	0.920731	0.928253
359	20    	0.921881	0.00166983	0.920731	0.928253
360	20    	0.921881	0.00166983	0.920731	0.928253
361	20    	0.921881	0.00166983	0.920731	0.928253
362	20    	0.921947	0.00164904	0.920731	0.928253
363	20    	0.921947	0.00164904	0.920731	0.928253
364	20    	0.921947	0.00164904	0.920731	0.928253
365	20    	0.921947	0.00164904	0.920731	0.928253
366	20    	0.921947	0.00164904	0.920731	0.928253
367	20    	0.921947	0.00164904	0.920731	0.928253
368	20    	0.921947	0.00164904	0.920731	0.928253
369	20    	0.921947	0.00164904	0.920731	0.928253
370	20    	0.921947	0.00164904	0.920731	0.928253
371	20    	0.921947	0.00164904	0.920731	0.928253
372	20    	0.921947	0.00164904	0.920731	0.928253
373	20    	0.921947	0.00164904	0.920731	0.928253
374	20    	0.921947	0.00164904	0.920731	0.928253
375	20    	0.92197 	0.00163547	0.920731	0.928253
376	20    	0.922058	0.00161378	0.920731	0.928253
377	20    	0.922058	0.00161378	0.920731	0.928253
378	20    	0.922478	0.00197634	0.920731	0.928253
379	20    	0.922478	0.00197634	0.920731	0.928253
380	20    	0.922478	0.00197634	0.920731	0.928253
381	20    	0.922567	0.00193529	0.921173	0.928253
382	20    	0.922567	0.00193529	0.921173	0.928253
383	20    	0.922567	0.00193529	0.921173	0.928253
384	20    	0.922567	0.00193529	0.921173	0.928253
385	20    	0.922567	0.00193529	0.921173	0.928253
386	20    	0.922567	0.00193529	0.921173	0.928253
387	20    	0.922567	0.00193529	0.921173	0.928253
388	20    	0.922567	0.00193529	0.921173	0.928253
389	20    	0.922567	0.00193529	0.921173	0.928253
390	20    	0.922567	0.00193529	0.921173	0.928253
391	20    	0.922567	0.00193529	0.921173	0.928253
392	20    	0.922567	0.00193529	0.921173	0.928253
393	20    	0.922567	0.00193529	0.921173	0.928253
394	20    	0.922567	0.00193529	0.921173	0.928253
395	20    	0.922567	0.00193529	0.921173	0.928253
396	20    	0.922567	0.00193529	0.921173	0.928253
397	20    	0.922722	0.00194148	0.921173	0.928253
398	20    	0.922722	0.00194148	0.921173	0.928253
399	20    	0.922722	0.00194148	0.921173	0.928253
400	20    	0.922722	0.00194148	0.921173	0.928253
401	20    	0.922722	0.00194148	0.921173	0.928253
402	20    	0.922722	0.00194148	0.921173	0.928253
403	20    	0.922722	0.00194148	0.921173	0.928253
404	20    	0.922722	0.00194148	0.921173	0.928253
405	20    	0.922722	0.00194148	0.921173	0.928253
406	20    	0.922722	0.00194148	0.921173	0.928253
407	20    	0.922722	0.00194148	0.921173	0.928253
408	20    	0.922855	0.00192171	0.921173	0.928253
409	20    	0.922855	0.00192171	0.921173	0.928253
410	20    	0.922877	0.0019047 	0.921173	0.928253
411	20    	0.922877	0.0019047 	0.921173	0.928253
412	20    	0.922877	0.0019047 	0.921173	0.928253
413	20    	0.922877	0.0019047 	0.921173	0.928253
414	20    	0.923098	0.00195041	0.921173	0.928253
415	20    	0.923098	0.00195041	0.921173	0.928253
416	20    	0.923098	0.00195041	0.921173	0.928253
417	20    	0.923098	0.00195041	0.921173	0.928253
418	20    	0.923098	0.00195041	0.921173	0.928253
419	20    	0.923098	0.00195041	0.921173	0.928253
420	20    	0.923098	0.00195041	0.921173	0.928253
421	20    	0.923098	0.00195041	0.921173	0.928253
422	20    	0.923098	0.00195041	0.921173	0.928253
423	20    	0.923098	0.00195041	0.921173	0.928253
424	20    	0.923098	0.00195041	0.921173	0.928253
425	20    	0.923098	0.00195041	0.921173	0.928253
426	20    	0.923098	0.00195041	0.921173	0.928253
427	20    	0.923098	0.00195041	0.921173	0.928253
428	20    	0.923098	0.00195041	0.921173	0.928253
429	20    	0.923098	0.00195041	0.921173	0.928253
430	20    	0.923098	0.00195041	0.921173	0.928253
431	20    	0.923164	0.00190586	0.921173	0.928253
432	20    	0.923164	0.00190586	0.921173	0.928253
433	20    	0.923164	0.00190586	0.921173	0.928253
434	20    	0.923164	0.00190586	0.921173	0.928253
435	20    	0.923164	0.00190586	0.921173	0.928253
436	20    	0.923186	0.00188507	0.921616	0.928253
437	20    	0.923386	0.00191866	0.921616	0.928253
438	20    	0.923496	0.00187674	0.921616	0.928253
439	20    	0.923496	0.00187674	0.921616	0.928253
440	20    	0.923496	0.00187674	0.921616	0.928253
441	20    	0.923496	0.00187674	0.921616	0.928253
442	20    	0.923496	0.00187674	0.921616	0.928253
443	20    	0.923496	0.00187674	0.921616	0.928253
444	20    	0.923496	0.00187674	0.921616	0.928253
445	20    	0.923496	0.00187674	0.921616	0.928253
446	20    	0.923496	0.00187674	0.921616	0.928253
447	20    	0.923496	0.00187674	0.921616	0.928253
448	20    	0.923496	0.00187674	0.921616	0.928253
449	20    	0.923518	0.00185694	0.921616	0.928253
450	20    	0.923518	0.00185694	0.921616	0.928253
451	20    	0.92354 	0.00183666	0.922058	0.928253
452	20    	0.92354 	0.00183666	0.922058	0.928253
453	20    	0.92354 	0.00183666	0.922058	0.928253
454	20    	0.92354 	0.00183666	0.922058	0.928253
455	20    	0.92354 	0.00183666	0.922058	0.928253
456	20    	0.92354 	0.00183666	0.922058	0.928253
457	20    	0.92354 	0.00183666	0.922058	0.928253
458	20    	0.923828	0.00202298	0.922058	0.928253
459	20    	0.923828	0.00202298	0.922058	0.928253
460	20    	0.923828	0.00202298	0.922058	0.928253
461	20    	0.923828	0.00202298	0.922058	0.928253
462	20    	0.923828	0.00202298	0.922058	0.928253
463	20    	0.923828	0.00202298	0.922058	0.928253
464	20    	0.923917	0.00198191	0.922058	0.928253
465	20    	0.923961	0.00194953	0.922058	0.928253
466	20    	0.923961	0.00194953	0.922058	0.928253
467	20    	0.923961	0.00194953	0.922058	0.928253
468	20    	0.923983	0.00193023	0.922058	0.928253
469	20    	0.923983	0.00193023	0.922058	0.928253
470	20    	0.923983	0.00193023	0.922058	0.928253
471	20    	0.924138	0.00189349	0.922501	0.928253
472	20    	0.924138	0.00189349	0.922501	0.928253
473	20    	0.924138	0.00189349	0.922501	0.928253
474	20    	0.924138	0.00189349	0.922501	0.928253
475	20    	0.924138	0.00189349	0.922501	0.928253
476	20    	0.924138	0.00189349	0.922501	0.928253
477	20    	0.924138	0.00189349	0.922501	0.928253
478	20    	0.924138	0.00189349	0.922501	0.928253
479	20    	0.924138	0.00189349	0.922501	0.928253
480	20    	0.924138	0.00189349	0.922501	0.928253
481	20    	0.924138	0.00189349	0.922501	0.928253
482	20    	0.924138	0.00189349	0.922501	0.928253
483	20    	0.924138	0.00189349	0.922501	0.928253
484	20    	0.924138	0.00189349	0.922501	0.928253
485	20    	0.924138	0.00189349	0.922501	0.928253
486	20    	0.924138	0.00189349	0.922501	0.928253
487	20    	0.924204	0.00185786	0.922501	0.928253
488	20    	0.924204	0.00185786	0.922501	0.928253
489	20    	0.924204	0.00185786	0.922501	0.928253
490	20    	0.924204	0.00185786	0.922501	0.928253
491	20    	0.924359	0.00183839	0.922501	0.928253
492	20    	0.924359	0.00183839	0.922501	0.928253
493	20    	0.924359	0.00183839	0.922501	0.928253
494	20    	0.924359	0.00183839	0.922501	0.928253
495	20    	0.924359	0.00183839	0.922501	0.928253
496	20    	0.924359	0.00183839	0.922501	0.928253
497	20    	0.924359	0.00183839	0.922501	0.928253
498	20    	0.924359	0.00183839	0.922501	0.928253
499	20    	0.924359	0.00183839	0.922501	0.928253
