gen	nevals	avg     	std       	min     	max     
0  	20    	0.876092	0.0112657 	0.853317	0.891403
1  	20    	0.885007	0.00518697	0.876007	0.896271
2  	20    	0.888815	0.00393247	0.884109	0.898697
3  	20    	0.890881	0.00305614	0.88736 	0.898697
4  	20    	0.892947	0.00398605	0.888977	0.905182
5  	20    	0.894041	0.0037926 	0.890594	0.905182
6  	20    	0.895259	0.00382693	0.890594	0.905182
7  	20    	0.89753 	0.00388869	0.892227	0.905182
8  	20    	0.899593	0.00254961	0.896271	0.905182
9  	20    	0.900242	0.00227789	0.897079	0.905182
10 	20    	0.901662	0.00211633	0.898697	0.905991
11 	20    	0.903526	0.0023268 	0.90033 	0.909241
12 	20    	0.904376	0.00243124	0.901947	0.910049
13 	20    	0.904943	0.00217706	0.902756	0.910049
14 	20    	0.906036	0.00407926	0.902756	0.921387
15 	20    	0.907049	0.00413243	0.903564	0.921387
16 	20    	0.907576	0.00403897	0.903564	0.921387
17 	20    	0.909198	0.00407869	0.904373	0.921387
18 	20    	0.911063	0.00381376	0.906815	0.921387
19 	20    	0.912035	0.00424399	0.906815	0.922211
20 	20    	0.913411	0.00368087	0.909241	0.922211
21 	20    	0.913897	0.00338026	0.910049	0.922211
22 	20    	0.914789	0.00370905	0.910858	0.923019
23 	20    	0.915681	0.0038075 	0.911667	0.923019
24 	20    	0.916249	0.00344269	0.911667	0.923019
25 	20    	0.916411	0.00325657	0.911667	0.923019
26 	20    	0.916978	0.00303871	0.913284	0.923019
27 	20    	0.917628	0.00325463	0.913284	0.924637
28 	20    	0.917912	0.00310767	0.914093	0.924637
29 	20    	0.918358	0.00316763	0.914917	0.924637
30 	20    	0.918358	0.00316763	0.914917	0.924637
31 	20    	0.91852 	0.00303672	0.914917	0.924637
32 	20    	0.919289	0.00343142	0.915726	0.927872
33 	20    	0.91945 	0.00333454	0.915726	0.927872
34 	20    	0.919572	0.00323961	0.915726	0.927872
35 	20    	0.919855	0.00304163	0.916534	0.927872
36 	20    	0.919855	0.00304163	0.916534	0.927872
37 	20    	0.919976	0.0029539 	0.916534	0.927872
38 	20    	0.920705	0.00273992	0.917343	0.927872
39 	20    	0.920705	0.00273992	0.917343	0.927872
40 	20    	0.920705	0.00273992	0.917343	0.927872
41 	20    	0.921474	0.00257538	0.918152	0.927872
42 	20    	0.921636	0.00246065	0.918961	0.927872
43 	20    	0.92192 	0.00246303	0.918961	0.927872
44 	20    	0.922244	0.00238451	0.918961	0.927872
45 	20    	0.922609	0.00215333	0.918961	0.927872
46 	20    	0.922609	0.00215333	0.918961	0.927872
47 	20    	0.922771	0.00198817	0.919769	0.927872
48 	20    	0.922771	0.00198817	0.919769	0.927872
49 	20    	0.922974	0.00187531	0.919769	0.927872
50 	20    	0.923988	0.00237116	0.921387	0.931931
51 	20    	0.923988	0.00237116	0.921387	0.931931
52 	20    	0.92407 	0.00230744	0.921387	0.931931
53 	20    	0.924152	0.00223893	0.921387	0.931931
54 	20    	0.924152	0.00223893	0.921387	0.931931
55 	20    	0.924152	0.00223893	0.921387	0.931931
56 	20    	0.924152	0.00223893	0.921387	0.931931
57 	20    	0.924355	0.00211586	0.922211	0.931931
58 	20    	0.924355	0.00211586	0.922211	0.931931
59 	20    	0.924355	0.00211586	0.922211	0.931931
60 	20    	0.924476	0.00205824	0.922211	0.931931
61 	20    	0.924476	0.00205824	0.922211	0.931931
62 	20    	0.924476	0.00205824	0.922211	0.931931
63 	20    	0.924476	0.00205824	0.922211	0.931931
64 	20    	0.924476	0.00205824	0.922211	0.931931
65 	20    	0.924476	0.00205824	0.922211	0.931931
66 	20    	0.924638	0.00200016	0.923019	0.931931
67 	20    	0.924638	0.00200016	0.923019	0.931931
68 	20    	0.924638	0.00200016	0.923019	0.931931
69 	20    	0.92488 	0.00208178	0.923019	0.931931
70 	20    	0.92488 	0.00208178	0.923019	0.931931
71 	20    	0.92488 	0.00208178	0.923019	0.931931
72 	20    	0.925042	0.00205644	0.923019	0.931931
73 	20    	0.925366	0.00221696	0.923019	0.931931
74 	20    	0.925609	0.00213718	0.923828	0.931931
75 	20    	0.925811	0.00215039	0.923828	0.931931
76 	20    	0.925811	0.00215039	0.923828	0.931931
77 	20    	0.926216	0.00247707	0.923828	0.931931
78 	20    	0.926216	0.00247707	0.923828	0.931931
79 	20    	0.926216	0.00247707	0.923828	0.931931
80 	20    	0.926459	0.00240178	0.923828	0.931931
81 	20    	0.926499	0.00236365	0.924637	0.931931
82 	20    	0.926499	0.00236365	0.924637	0.931931
83 	20    	0.926499	0.00236365	0.924637	0.931931
84 	20    	0.926499	0.00236365	0.924637	0.931931
85 	20    	0.926499	0.00236365	0.924637	0.931931
86 	20    	0.92658 	0.00232592	0.924637	0.931931
87 	20    	0.92658 	0.00232592	0.924637	0.931931
88 	20    	0.92658 	0.00232592	0.924637	0.931931
89 	20    	0.926701	0.0022843 	0.924637	0.931931
90 	20    	0.926985	0.00236149	0.924637	0.931931
91 	20    	0.926985	0.00236149	0.924637	0.931931
92 	20    	0.926985	0.00236149	0.924637	0.931931
93 	20    	0.927309	0.00245995	0.924637	0.931931
94 	20    	0.92739 	0.00239653	0.924637	0.931931
95 	20    	0.927512	0.00231407	0.924637	0.931931
96 	20    	0.927592	0.00223924	0.924637	0.931931
97 	20    	0.927592	0.00223924	0.924637	0.931931
98 	20    	0.927633	0.00219231	0.924637	0.931931
99 	20    	0.927633	0.00219231	0.924637	0.931931
100	20    	0.927633	0.00219231	0.924637	0.931931
101	20    	0.927633	0.00219231	0.924637	0.931931
102	20    	0.927633	0.00219231	0.924637	0.931931
103	20    	0.927714	0.00210853	0.924637	0.931931
104	20    	0.927916	0.00199459	0.925446	0.931931
105	20    	0.927916	0.00199459	0.925446	0.931931
106	20    	0.92824 	0.0020914 	0.925446	0.931931
107	20    	0.928362	0.00199387	0.926254	0.931931
108	20    	0.928362	0.00199387	0.926254	0.931931
109	20    	0.928362	0.00199387	0.926254	0.931931
110	20    	0.928362	0.00199387	0.926254	0.931931
111	20    	0.928362	0.00199387	0.926254	0.931931
112	20    	0.928362	0.00199387	0.926254	0.931931
113	20    	0.928362	0.00199387	0.926254	0.931931
114	20    	0.928362	0.00199387	0.926254	0.931931
115	20    	0.928362	0.00199387	0.926254	0.931931
116	20    	0.928848	0.00225929	0.926254	0.934357
117	20    	0.928848	0.00225929	0.926254	0.934357
118	20    	0.928848	0.00225929	0.926254	0.934357
119	20    	0.928848	0.00225929	0.926254	0.934357
120	20    	0.928928	0.00219299	0.926254	0.934357
121	20    	0.928928	0.00219299	0.926254	0.934357
122	20    	0.928928	0.00219299	0.926254	0.934357
123	20    	0.928928	0.00219299	0.926254	0.934357
124	20    	0.929172	0.00202665	0.927063	0.934357
125	20    	0.929456	0.00210731	0.927063	0.934357
126	20    	0.929456	0.00210731	0.927063	0.934357
127	20    	0.929456	0.00210731	0.927063	0.934357
128	20    	0.929456	0.00210731	0.927063	0.934357
129	20    	0.929456	0.00210731	0.927063	0.934357
130	20    	0.929578	0.00203464	0.927063	0.934357
131	20    	0.929578	0.00203464	0.927063	0.934357
132	20    	0.929578	0.00203464	0.927063	0.934357
133	20    	0.929578	0.00203464	0.927063	0.934357
134	20    	0.929578	0.00203464	0.927063	0.934357
135	20    	0.929578	0.00203464	0.927063	0.934357
136	20    	0.929578	0.00203464	0.927063	0.934357
137	20    	0.929781	0.00197526	0.927872	0.934357
138	20    	0.929903	0.0019284 	0.927872	0.934357
139	20    	0.929903	0.0019284 	0.927872	0.934357
140	20    	0.929903	0.0019284 	0.927872	0.934357
141	20    	0.929903	0.0019284 	0.927872	0.934357
142	20    	0.929903	0.0019284 	0.927872	0.934357
143	20    	0.929903	0.0019284 	0.927872	0.934357
144	20    	0.929903	0.0019284 	0.927872	0.934357
145	20    	0.929903	0.0019284 	0.927872	0.934357
146	20    	0.929943	0.00189355	0.927872	0.934357
147	20    	0.929943	0.00189355	0.927872	0.934357
148	20    	0.929943	0.00189355	0.927872	0.934357
149	20    	0.929943	0.00189355	0.927872	0.934357
150	20    	0.929943	0.00189355	0.927872	0.934357
151	20    	0.929943	0.00189355	0.927872	0.934357
152	20    	0.930511	0.00271216	0.927872	0.939224
153	20    	0.930511	0.00271216	0.927872	0.939224
154	20    	0.930511	0.00271216	0.927872	0.939224
155	20    	0.930592	0.00265548	0.927872	0.939224
156	20    	0.930592	0.00265548	0.927872	0.939224
157	20    	0.930674	0.00259499	0.927872	0.939224
158	20    	0.930756	0.00253043	0.927872	0.939224
159	20    	0.930796	0.00249016	0.927872	0.939224
160	20    	0.930796	0.00249016	0.927872	0.939224
161	20    	0.930796	0.00249016	0.927872	0.939224
162	20    	0.930796	0.00249016	0.927872	0.939224
163	20    	0.930796	0.00249016	0.927872	0.939224
164	20    	0.931039	0.00242959	0.92868 	0.939224
165	20    	0.931039	0.00242959	0.92868 	0.939224
166	20    	0.931039	0.00242959	0.92868 	0.939224
167	20    	0.931039	0.00242959	0.92868 	0.939224
168	20    	0.931039	0.00242959	0.92868 	0.939224
169	20    	0.931039	0.00242959	0.92868 	0.939224
170	20    	0.931039	0.00242959	0.92868 	0.939224
171	20    	0.931039	0.00242959	0.92868 	0.939224
172	20    	0.931039	0.00242959	0.92868 	0.939224
173	20    	0.931242	0.00239331	0.92868 	0.939224
174	20    	0.931486	0.00236777	0.92868 	0.939224
175	20    	0.931486	0.00236777	0.92868 	0.939224
176	20    	0.931486	0.00236777	0.92868 	0.939224
177	20    	0.931567	0.00229672	0.929504	0.939224
178	20    	0.931567	0.00229672	0.929504	0.939224
179	20    	0.931567	0.00229672	0.929504	0.939224
180	20    	0.931567	0.00229672	0.929504	0.939224
181	20    	0.931567	0.00229672	0.929504	0.939224
182	20    	0.931567	0.00229672	0.929504	0.939224
183	20    	0.931567	0.00229672	0.929504	0.939224
184	20    	0.931567	0.00229672	0.929504	0.939224
185	20    	0.931567	0.00229672	0.929504	0.939224
186	20    	0.931567	0.00229672	0.929504	0.939224
187	20    	0.931567	0.00229672	0.929504	0.939224
188	20    	0.931729	0.00225934	0.929504	0.939224
189	20    	0.931729	0.00225934	0.929504	0.939224
190	20    	0.931729	0.00225934	0.929504	0.939224
191	20    	0.931729	0.00225934	0.929504	0.939224
192	20    	0.931729	0.00225934	0.929504	0.939224
193	20    	0.931729	0.00225934	0.929504	0.939224
194	20    	0.931729	0.00225934	0.929504	0.939224
195	20    	0.931931	0.00223197	0.929504	0.939224
196	20    	0.931931	0.00223197	0.929504	0.939224
197	20    	0.931931	0.00223197	0.929504	0.939224
198	20    	0.931931	0.00223197	0.929504	0.939224
199	20    	0.931931	0.00223197	0.929504	0.939224
200	20    	0.932012	0.00217104	0.929504	0.939224
201	20    	0.932093	0.00210524	0.929504	0.939224
202	20    	0.932093	0.00210524	0.929504	0.939224
203	20    	0.932093	0.00210524	0.929504	0.939224
204	20    	0.932093	0.00210524	0.929504	0.939224
205	20    	0.932093	0.00210524	0.929504	0.939224
206	20    	0.932093	0.00210524	0.929504	0.939224
207	20    	0.932093	0.00210524	0.929504	0.939224
208	20    	0.932093	0.00210524	0.929504	0.939224
209	20    	0.932093	0.00210524	0.929504	0.939224
210	20    	0.932093	0.00210524	0.929504	0.939224
211	20    	0.932255	0.0020228 	0.929504	0.939224
212	20    	0.932255	0.0020228 	0.929504	0.939224
213	20    	0.932255	0.0020228 	0.929504	0.939224
214	20    	0.932255	0.0020228 	0.929504	0.939224
215	20    	0.932781	0.00254192	0.930313	0.940033
216	20    	0.932781	0.00254192	0.930313	0.940033
217	20    	0.932781	0.00254192	0.930313	0.940033
218	20    	0.932781	0.00254192	0.930313	0.940033
219	20    	0.932781	0.00254192	0.930313	0.940033
220	20    	0.932781	0.00254192	0.930313	0.940033
221	20    	0.932781	0.00254192	0.930313	0.940033
222	20    	0.932781	0.00254192	0.930313	0.940033
223	20    	0.932781	0.00254192	0.930313	0.940033
224	20    	0.932781	0.00254192	0.930313	0.940033
225	20    	0.932781	0.00254192	0.930313	0.940033
226	20    	0.932983	0.002498  	0.930313	0.940033
227	20    	0.932983	0.002498  	0.930313	0.940033
228	20    	0.932983	0.002498  	0.930313	0.940033
229	20    	0.932983	0.002498  	0.930313	0.940033
230	20    	0.932983	0.002498  	0.930313	0.940033
231	20    	0.932983	0.002498  	0.930313	0.940033
232	20    	0.932983	0.002498  	0.930313	0.940033
233	20    	0.932983	0.002498  	0.930313	0.940033
234	20    	0.932983	0.002498  	0.930313	0.940033
235	20    	0.932983	0.002498  	0.930313	0.940033
236	20    	0.932983	0.002498  	0.930313	0.940033
237	20    	0.932983	0.002498  	0.930313	0.940033
238	20    	0.933186	0.00243658	0.930313	0.940033
239	20    	0.933186	0.00243658	0.930313	0.940033
240	20    	0.933186	0.00243658	0.930313	0.940033
241	20    	0.933186	0.00243658	0.930313	0.940033
242	20    	0.933186	0.00243658	0.930313	0.940033
243	20    	0.933307	0.00234938	0.931122	0.940033
244	20    	0.933307	0.00234938	0.931122	0.940033
245	20    	0.933307	0.00234938	0.931122	0.940033
246	20    	0.933307	0.00234938	0.931122	0.940033
247	20    	0.933307	0.00234938	0.931122	0.940033
248	20    	0.933307	0.00234938	0.931122	0.940033
249	20    	0.933307	0.00234938	0.931122	0.940033
250	20    	0.933307	0.00234938	0.931122	0.940033
251	20    	0.933307	0.00234938	0.931122	0.940033
252	20    	0.933307	0.00234938	0.931122	0.940033
253	20    	0.933307	0.00234938	0.931122	0.940033
254	20    	0.933428	0.00229544	0.931122	0.940033
255	20    	0.933428	0.00229544	0.931122	0.940033
256	20    	0.933509	0.0022406 	0.931122	0.940033
257	20    	0.933509	0.0022406 	0.931122	0.940033
258	20    	0.933509	0.0022406 	0.931122	0.940033
259	20    	0.933509	0.0022406 	0.931122	0.940033
260	20    	0.933509	0.0022406 	0.931122	0.940033
261	20    	0.933509	0.0022406 	0.931122	0.940033
262	20    	0.933509	0.0022406 	0.931122	0.940033
263	20    	0.933509	0.0022406 	0.931122	0.940033
264	20    	0.933509	0.0022406 	0.931122	0.940033
265	20    	0.933509	0.0022406 	0.931122	0.940033
266	20    	0.933509	0.0022406 	0.931122	0.940033
267	20    	0.933509	0.0022406 	0.931122	0.940033
268	20    	0.93359 	0.00218138	0.931122	0.940033
269	20    	0.93359 	0.00218138	0.931122	0.940033
270	20    	0.933711	0.00210695	0.931931	0.940033
271	20    	0.933711	0.00210695	0.931931	0.940033
272	20    	0.933711	0.00210695	0.931931	0.940033
273	20    	0.933711	0.00210695	0.931931	0.940033
274	20    	0.933711	0.00210695	0.931931	0.940033
275	20    	0.933711	0.00210695	0.931931	0.940033
276	20    	0.933711	0.00210695	0.931931	0.940033
277	20    	0.933711	0.00210695	0.931931	0.940033
278	20    	0.933711	0.00210695	0.931931	0.940033
279	20    	0.933711	0.00210695	0.931931	0.940033
280	20    	0.933711	0.00210695	0.931931	0.940033
281	20    	0.933711	0.00210695	0.931931	0.940033
282	20    	0.933711	0.00210695	0.931931	0.940033
283	20    	0.933711	0.00210695	0.931931	0.940033
284	20    	0.933711	0.00210695	0.931931	0.940033
285	20    	0.933711	0.00210695	0.931931	0.940033
286	20    	0.933711	0.00210695	0.931931	0.940033
287	20    	0.933711	0.00210695	0.931931	0.940033
288	20    	0.933711	0.00210695	0.931931	0.940033
289	20    	0.933833	0.00207046	0.931931	0.940033
290	20    	0.934035	0.00207228	0.931931	0.940033
291	20    	0.934035	0.00207228	0.931931	0.940033
292	20    	0.934075	0.00203844	0.932739	0.940033
293	20    	0.934075	0.00203844	0.932739	0.940033
294	20    	0.934156	0.0020158 	0.932739	0.940033
295	20    	0.934156	0.0020158 	0.932739	0.940033
296	20    	0.934156	0.0020158 	0.932739	0.940033
297	20    	0.934156	0.0020158 	0.932739	0.940033
298	20    	0.934156	0.0020158 	0.932739	0.940033
299	20    	0.934156	0.0020158 	0.932739	0.940033
300	20    	0.934277	0.00199982	0.932739	0.940033
301	20    	0.934277	0.00199982	0.932739	0.940033
302	20    	0.934277	0.00199982	0.932739	0.940033
303	20    	0.934277	0.00199982	0.932739	0.940033
304	20    	0.934277	0.00199982	0.932739	0.940033
305	20    	0.934277	0.00199982	0.932739	0.940033
306	20    	0.934277	0.00199982	0.932739	0.940033
307	20    	0.934277	0.00199982	0.932739	0.940033
308	20    	0.934277	0.00199982	0.932739	0.940033
309	20    	0.934277	0.00199982	0.932739	0.940033
310	20    	0.934277	0.00199982	0.932739	0.940033
311	20    	0.934277	0.00199982	0.932739	0.940033
312	20    	0.934399	0.00197629	0.932739	0.940033
313	20    	0.934399	0.00197629	0.932739	0.940033
314	20    	0.934399	0.00197629	0.932739	0.940033
315	20    	0.934399	0.00197629	0.932739	0.940033
316	20    	0.934399	0.00197629	0.932739	0.940033
317	20    	0.934399	0.00197629	0.932739	0.940033
318	20    	0.934399	0.00197629	0.932739	0.940033
319	20    	0.934399	0.00197629	0.932739	0.940033
320	20    	0.934399	0.00197629	0.932739	0.940033
321	20    	0.93456 	0.00196621	0.932739	0.940033
322	20    	0.934601	0.00193644	0.932739	0.940033
323	20    	0.934601	0.00193644	0.932739	0.940033
324	20    	0.934601	0.00193644	0.932739	0.940033
325	20    	0.934601	0.00193644	0.932739	0.940033
326	20    	0.934601	0.00193644	0.932739	0.940033
327	20    	0.934601	0.00193644	0.932739	0.940033
328	20    	0.934763	0.0019091 	0.932739	0.940033
329	20    	0.934763	0.0019091 	0.932739	0.940033
330	20    	0.934763	0.0019091 	0.932739	0.940033
331	20    	0.934763	0.0019091 	0.932739	0.940033
332	20    	0.934763	0.0019091 	0.932739	0.940033
333	20    	0.934763	0.0019091 	0.932739	0.940033
334	20    	0.934763	0.0019091 	0.932739	0.940033
335	20    	0.934763	0.0019091 	0.932739	0.940033
336	20    	0.934763	0.0019091 	0.932739	0.940033
337	20    	0.934763	0.0019091 	0.932739	0.940033
338	20    	0.934763	0.0019091 	0.932739	0.940033
339	20    	0.934763	0.0019091 	0.932739	0.940033
340	20    	0.934763	0.0019091 	0.932739	0.940033
341	20    	0.934763	0.0019091 	0.932739	0.940033
342	20    	0.934763	0.0019091 	0.932739	0.940033
343	20    	0.934763	0.0019091 	0.932739	0.940033
344	20    	0.934803	0.00187406	0.932739	0.940033
345	20    	0.934803	0.00187406	0.932739	0.940033
346	20    	0.934803	0.00187406	0.932739	0.940033
347	20    	0.934803	0.00187406	0.932739	0.940033
348	20    	0.934884	0.00181729	0.932739	0.940033
349	20    	0.934884	0.00181729	0.932739	0.940033
350	20    	0.934884	0.00181729	0.932739	0.940033
351	20    	0.934884	0.00181729	0.932739	0.940033
352	20    	0.935046	0.00176234	0.933548	0.940033
353	20    	0.935046	0.00176234	0.933548	0.940033
354	20    	0.935046	0.00176234	0.933548	0.940033
355	20    	0.935046	0.00176234	0.933548	0.940033
356	20    	0.935046	0.00176234	0.933548	0.940033
357	20    	0.935046	0.00176234	0.933548	0.940033
358	20    	0.935046	0.00176234	0.933548	0.940033
359	20    	0.935046	0.00176234	0.933548	0.940033
360	20    	0.935046	0.00176234	0.933548	0.940033
361	20    	0.935046	0.00176234	0.933548	0.940033
362	20    	0.935046	0.00176234	0.933548	0.940033
363	20    	0.935046	0.00176234	0.933548	0.940033
364	20    	0.935046	0.00176234	0.933548	0.940033
365	20    	0.935208	0.00176659	0.933548	0.940033
366	20    	0.935208	0.00176659	0.933548	0.940033
367	20    	0.935208	0.00176659	0.933548	0.940033
368	20    	0.935208	0.00176659	0.933548	0.940033
369	20    	0.935208	0.00176659	0.933548	0.940033
370	20    	0.935208	0.00176659	0.933548	0.940033
371	20    	0.935208	0.00176659	0.933548	0.940033
372	20    	0.935208	0.00176659	0.933548	0.940033
373	20    	0.935208	0.00176659	0.933548	0.940033
374	20    	0.935208	0.00176659	0.933548	0.940033
375	20    	0.935208	0.00176659	0.933548	0.940033
376	20    	0.935208	0.00176659	0.933548	0.940033
377	20    	0.935208	0.00176659	0.933548	0.940033
378	20    	0.935208	0.00176659	0.933548	0.940033
379	20    	0.935208	0.00176659	0.933548	0.940033
380	20    	0.935208	0.00176659	0.933548	0.940033
381	20    	0.935208	0.00176659	0.933548	0.940033
382	20    	0.935208	0.00176659	0.933548	0.940033
383	20    	0.935208	0.00176659	0.933548	0.940033
384	20    	0.935208	0.00176659	0.933548	0.940033
385	20    	0.935735	0.00197184	0.933548	0.940033
386	20    	0.935735	0.00197184	0.933548	0.940033
387	20    	0.936181	0.00238974	0.933548	0.942459
388	20    	0.936181	0.00238974	0.933548	0.942459
389	20    	0.936181	0.00238974	0.933548	0.942459
390	20    	0.936181	0.00238974	0.933548	0.942459
391	20    	0.936181	0.00238974	0.933548	0.942459
392	20    	0.936181	0.00238974	0.933548	0.942459
393	20    	0.936181	0.00238974	0.933548	0.942459
394	20    	0.936221	0.00235138	0.933548	0.942459
395	20    	0.936221	0.00235138	0.933548	0.942459
396	20    	0.936221	0.00235138	0.933548	0.942459
397	20    	0.936221	0.00235138	0.933548	0.942459
398	20    	0.936221	0.00235138	0.933548	0.942459
399	20    	0.936221	0.00235138	0.933548	0.942459
400	20    	0.936221	0.00235138	0.933548	0.942459
401	20    	0.936221	0.00235138	0.933548	0.942459
402	20    	0.936221	0.00235138	0.933548	0.942459
403	20    	0.936221	0.00235138	0.933548	0.942459
404	20    	0.936221	0.00235138	0.933548	0.942459
405	20    	0.936221	0.00235138	0.933548	0.942459
406	20    	0.936262	0.00231168	0.934357	0.942459
407	20    	0.936262	0.00231168	0.934357	0.942459
408	20    	0.936262	0.00231168	0.934357	0.942459
409	20    	0.936262	0.00231168	0.934357	0.942459
410	20    	0.936262	0.00231168	0.934357	0.942459
411	20    	0.936262	0.00231168	0.934357	0.942459
412	20    	0.936262	0.00231168	0.934357	0.942459
413	20    	0.936262	0.00231168	0.934357	0.942459
414	20    	0.936424	0.00224255	0.934357	0.942459
415	20    	0.936424	0.00224255	0.934357	0.942459
416	20    	0.936587	0.00215901	0.934357	0.942459
417	20    	0.936587	0.00215901	0.934357	0.942459
418	20    	0.937114	0.00275512	0.934357	0.944901
419	20    	0.937114	0.00275512	0.934357	0.944901
420	20    	0.937398	0.00274882	0.934357	0.944901
421	20    	0.937438	0.00270946	0.934357	0.944901
422	20    	0.937438	0.00270946	0.934357	0.944901
423	20    	0.937438	0.00270946	0.934357	0.944901
424	20    	0.937438	0.00270946	0.934357	0.944901
425	20    	0.937438	0.00270946	0.934357	0.944901
426	20    	0.937438	0.00270946	0.934357	0.944901
427	20    	0.937438	0.00270946	0.934357	0.944901
428	20    	0.937438	0.00270946	0.934357	0.944901
429	20    	0.937438	0.00270946	0.934357	0.944901
430	20    	0.937438	0.00270946	0.934357	0.944901
431	20    	0.937682	0.00263944	0.935165	0.944901
432	20    	0.937682	0.00263944	0.935165	0.944901
433	20    	0.937682	0.00263944	0.935165	0.944901
434	20    	0.937682	0.00263944	0.935165	0.944901
435	20    	0.937682	0.00263944	0.935165	0.944901
436	20    	0.937682	0.00263944	0.935165	0.944901
437	20    	0.937682	0.00263944	0.935165	0.944901
438	20    	0.937682	0.00263944	0.935165	0.944901
439	20    	0.937682	0.00263944	0.935165	0.944901
440	20    	0.937682	0.00263944	0.935165	0.944901
441	20    	0.937682	0.00263944	0.935165	0.944901
442	20    	0.937804	0.00257594	0.935165	0.944901
443	20    	0.937804	0.00257594	0.935165	0.944901
444	20    	0.937804	0.00257594	0.935165	0.944901
445	20    	0.937804	0.00257594	0.935165	0.944901
446	20    	0.937804	0.00257594	0.935165	0.944901
447	20    	0.937926	0.00250489	0.935165	0.944901
448	20    	0.938088	0.00242469	0.935165	0.944901
449	20    	0.938088	0.00242469	0.935165	0.944901
450	20    	0.938088	0.00242469	0.935165	0.944901
451	20    	0.938088	0.00242469	0.935165	0.944901
452	20    	0.938088	0.00242469	0.935165	0.944901
453	20    	0.938088	0.00242469	0.935165	0.944901
454	20    	0.938088	0.00242469	0.935165	0.944901
455	20    	0.938088	0.00242469	0.935165	0.944901
456	20    	0.938088	0.00242469	0.935165	0.944901
457	20    	0.938088	0.00242469	0.935165	0.944901
458	20    	0.938088	0.00242469	0.935165	0.944901
459	20    	0.938088	0.00242469	0.935165	0.944901
460	20    	0.938088	0.00242469	0.935165	0.944901
461	20    	0.938088	0.00242469	0.935165	0.944901
462	20    	0.938088	0.00242469	0.935165	0.944901
463	20    	0.938088	0.00242469	0.935165	0.944901
464	20    	0.938088	0.00242469	0.935165	0.944901
465	20    	0.938088	0.00242469	0.935165	0.944901
466	20    	0.938088	0.00242469	0.935165	0.944901
467	20    	0.938088	0.00242469	0.935165	0.944901
468	20    	0.938088	0.00242469	0.935165	0.944901
469	20    	0.938088	0.00242469	0.935165	0.944901
470	20    	0.938088	0.00242469	0.935165	0.944901
471	20    	0.938088	0.00242469	0.935165	0.944901
472	20    	0.938088	0.00242469	0.935165	0.944901
473	20    	0.938088	0.00242469	0.935165	0.944901
474	20    	0.93817 	0.00235128	0.935165	0.944901
475	20    	0.938292	0.00225347	0.935974	0.944901
476	20    	0.938292	0.00225347	0.935974	0.944901
477	20    	0.938292	0.00225347	0.935974	0.944901
478	20    	0.938292	0.00225347	0.935974	0.944901
479	20    	0.938292	0.00225347	0.935974	0.944901
480	20    	0.938576	0.00230064	0.935974	0.944901
481	20    	0.938576	0.00230064	0.935974	0.944901
482	20    	0.938576	0.00230064	0.935974	0.944901
483	20    	0.938576	0.00230064	0.935974	0.944901
484	20    	0.938576	0.00230064	0.935974	0.944901
485	20    	0.938576	0.00230064	0.935974	0.944901
486	20    	0.938576	0.00230064	0.935974	0.944901
487	20    	0.938819	0.0022698 	0.935974	0.944901
488	20    	0.938982	0.00217465	0.935974	0.944901
489	20    	0.938982	0.00217465	0.935974	0.944901
490	20    	0.938982	0.00217465	0.935974	0.944901
491	20    	0.938982	0.00217465	0.935974	0.944901
492	20    	0.938982	0.00217465	0.935974	0.944901
493	20    	0.938982	0.00217465	0.935974	0.944901
494	20    	0.938982	0.00217465	0.935974	0.944901
495	20    	0.938982	0.00217465	0.935974	0.944901
496	20    	0.938982	0.00217465	0.935974	0.944901
497	20    	0.938982	0.00217465	0.935974	0.944901
498	20    	0.938982	0.00217465	0.935974	0.944901
499	20    	0.938982	0.00217465	0.935974	0.944901
