Run:149 Evals:10000 MES:10000.0 MAD:0.0 FAILURES:133 Best:0.9256439208984375 Solution:(
Run:150 Evals:10000 MES:10000.0 MAD:0.0 FAILURES:134 Best:0.927886962890625 Solution:(
Run:151 Evals:10000 MES:10000.0 MAD:0.0 FAILURES:135 Best:0.92352294921875 Solution:(
Run:152 Evals:10000 MES:10000.0 MAD:0.0 FAILURES:136 Best:0.9244842529296875 Solution:(
Run:153 Evals:10000 MES:10000.0 MAD:0.0 FAILURES:137 Best:0.9283599853515625 Solution:(
Run:154 Evals:10000 MES:10000.0 MAD:0.0 FAILURES:138 Best:0.9283599853515625 Solution:(
Run:155 Evals:10000 MES:10000.0 MAD:0.0 FAILURES:139 Best:0.9244842529296875 Solution:(
Run:156 Evals:10000 MES:10000.0 MAD:0.0 FAILURES:140 Best:0.926910400390625 Solution:(
Run:157 Evals:10000 MES:10000.0 MAD:0.0 FAILURES:141 Best:0.926910400390625 Solution:(
Run:158 Evals:10000 MES:10000.0 MAD:0.0 FAILURES:142 Best:0.927886962890625 Solution:(

