gen	nevals	avg     	std       	min     	max     
0  	20    	0.874707	0.0133813 	0.850113	0.901642
1  	20    	0.886417	0.00905419	0.873535	0.908661
2  	20    	0.890514	0.00814161	0.880569	0.908661
3  	20    	0.896838	0.00660204	0.887589	0.911011
4  	20    	0.901286	0.0051995 	0.892273	0.911011
5  	20    	0.904214	0.00424946	0.899292	0.911011
6  	20    	0.907143	0.00492868	0.901642	0.92038 
7  	20    	0.909016	0.00414289	0.903976	0.92038 
8  	20    	0.911243	0.00462009	0.906326	0.925064
9  	20    	0.911945	0.00459043	0.906326	0.925064
10 	20    	0.912413	0.00446964	0.906326	0.925064
11 	20    	0.913232	0.00428612	0.908661	0.925064
12 	20    	0.91581 	0.00531328	0.911011	0.932083
13 	20    	0.919673	0.0062885 	0.913345	0.936768
14 	20    	0.920728	0.00629604	0.913345	0.936768
15 	20    	0.922367	0.00598394	0.915695	0.936768
16 	20    	0.923772	0.00531407	0.91803 	0.936768
17 	20    	0.925999	0.00464695	0.92038 	0.936768
18 	20    	0.927754	0.00357217	0.922714	0.936768
19 	20    	0.928223	0.00316441	0.925064	0.936768
20 	20    	0.929158	0.00294982	0.925064	0.936768
21 	20    	0.929509	0.00285799	0.925064	0.936768
22 	20    	0.930328	0.00265793	0.927399	0.936768
23 	20    	0.930563	0.0024869 	0.927399	0.936768
24 	20    	0.931266	0.00333442	0.927399	0.941452
25 	20    	0.9315  	0.00321699	0.927399	0.941452
26 	20    	0.931618	0.00310605	0.927399	0.941452
27 	20    	0.931618	0.00310605	0.927399	0.941452
28 	20    	0.931618	0.00310605	0.927399	0.941452
29 	20    	0.931618	0.00310605	0.927399	0.941452
30 	20    	0.93232 	0.00295138	0.929749	0.941452
31 	20    	0.93232 	0.00295138	0.929749	0.941452
32 	20    	0.932671	0.00285517	0.929749	0.941452
33 	20    	0.933022	0.00271053	0.929749	0.941452
34 	20    	0.933022	0.00271053	0.929749	0.941452
35 	20    	0.933257	0.00261835	0.929749	0.941452
36 	20    	0.934193	0.00411561	0.929749	0.948471
37 	20    	0.934427	0.00398732	0.932083	0.948471
38 	20    	0.934779	0.00393696	0.932083	0.948471
39 	20    	0.935365	0.00394574	0.932083	0.948471
40 	20    	0.935365	0.00394574	0.932083	0.948471
41 	20    	0.935834	0.00387551	0.932083	0.948471
42 	20    	0.936303	0.00374565	0.932083	0.948471
43 	20    	0.936655	0.00350873	0.932083	0.948471
44 	20    	0.937357	0.00361533	0.934433	0.948471
45 	20    	0.937473	0.00355626	0.934433	0.948471
46 	20    	0.937473	0.00355626	0.934433	0.948471
47 	20    	0.93759 	0.00349229	0.934433	0.948471
48 	20    	0.93876 	0.00469687	0.934433	0.953156
49 	20    	0.939579	0.00494279	0.934433	0.953156
50 	20    	0.940633	0.0051964 	0.936768	0.953156
51 	20    	0.940868	0.00506785	0.936768	0.953156
52 	20    	0.941454	0.00501996	0.936768	0.953156
53 	20    	0.942156	0.00485869	0.936768	0.953156
54 	20    	0.942976	0.00433155	0.939117	0.953156
55 	20    	0.943092	0.00425682	0.939117	0.953156
56 	20    	0.943092	0.00425682	0.939117	0.953156
57 	20    	0.943326	0.00415934	0.939117	0.953156
58 	20    	0.943793	0.00418563	0.939117	0.953156
59 	20    	0.944495	0.00392305	0.939117	0.953156
60 	20    	0.944495	0.00392305	0.939117	0.953156
61 	20    	0.944962	0.00381005	0.939117	0.953156
62 	20    	0.945781	0.00386622	0.941452	0.953156
63 	20    	0.945898	0.00376775	0.941452	0.953156
64 	20    	0.946132	0.00362708	0.941452	0.953156
65 	20    	0.946249	0.00351028	0.941452	0.953156
66 	20    	0.946365	0.00338543	0.941452	0.953156
67 	20    	0.946716	0.00304286	0.943787	0.953156
68 	20    	0.946716	0.00304286	0.943787	0.953156
69 	20    	0.946834	0.00297201	0.943787	0.953156
70 	20    	0.946834	0.00297201	0.943787	0.953156
71 	20    	0.94742 	0.00291374	0.943787	0.953156
72 	20    	0.947888	0.00304227	0.943787	0.953156
73 	20    	0.948591	0.00291267	0.943787	0.953156
74 	20    	0.948591	0.00291267	0.943787	0.953156
75 	20    	0.948708	0.00275989	0.943787	0.953156
76 	20    	0.949294	0.00259314	0.946136	0.953156
77 	20    	0.94941 	0.00249924	0.946136	0.953156
78 	20    	0.94941 	0.00249924	0.946136	0.953156
79 	20    	0.94941 	0.00249924	0.946136	0.953156
80 	20    	0.949995	0.00298679	0.946136	0.95784 
81 	20    	0.949995	0.00298679	0.946136	0.95784 
82 	20    	0.950346	0.00273109	0.946136	0.95784 
83 	20    	0.950346	0.00273109	0.946136	0.95784 
84 	20    	0.950463	0.00259517	0.948471	0.95784 
85 	20    	0.950463	0.00259517	0.948471	0.95784 
86 	20    	0.951635	0.00316697	0.948471	0.95784 
87 	20    	0.951635	0.00316697	0.948471	0.95784 
88 	20    	0.951635	0.00316697	0.948471	0.95784 
89 	20    	0.951635	0.00316697	0.948471	0.95784 
90 	20    	0.951635	0.00316697	0.948471	0.95784 
91 	20    	0.951635	0.00316697	0.948471	0.95784 
92 	20    	0.951635	0.00316697	0.948471	0.95784 
93 	20    	0.95187 	0.00300662	0.948471	0.95784 
94 	20    	0.95187 	0.00300662	0.948471	0.95784 
95 	20    	0.952573	0.00304227	0.948471	0.95784 
96 	20    	0.952807	0.0028942 	0.948471	0.95784 
97 	20    	0.952807	0.0028942 	0.948471	0.95784 
98 	20    	0.952924	0.00276041	0.948471	0.95784 
99 	20    	0.952924	0.00276041	0.948471	0.95784 
100	20    	0.952924	0.00276041	0.948471	0.95784 
101	20    	0.953627	0.00327759	0.948471	0.962524
102	20    	0.954213	0.00335016	0.950821	0.962524
103	20    	0.954213	0.00335016	0.950821	0.962524
104	20    	0.954213	0.00335016	0.950821	0.962524
105	20    	0.954213	0.00335016	0.950821	0.962524
106	20    	0.954681	0.003495  	0.950821	0.962524
107	20    	0.954916	0.00338363	0.950821	0.962524
108	20    	0.955267	0.00330379	0.950821	0.962524
109	20    	0.955267	0.00330379	0.950821	0.962524
110	20    	0.955501	0.00314243	0.950821	0.962524
111	20    	0.955501	0.00314243	0.950821	0.962524
112	20    	0.955501	0.00314243	0.950821	0.962524
113	20    	0.955501	0.00314243	0.950821	0.962524
114	20    	0.955501	0.00314243	0.950821	0.962524
115	20    	0.955735	0.0029538 	0.950821	0.962524
116	20    	0.956203	0.00287929	0.953156	0.962524
117	20    	0.956203	0.00287929	0.953156	0.962524
118	20    	0.956203	0.00287929	0.953156	0.962524
119	20    	0.956203	0.00287929	0.953156	0.962524
120	20    	0.956203	0.00287929	0.953156	0.962524
121	20    	0.956203	0.00287929	0.953156	0.962524
122	20    	0.956321	0.00279936	0.953156	0.962524
123	20    	0.956789	0.00300668	0.953156	0.962524
124	20    	0.956789	0.00300668	0.953156	0.962524
125	20    	0.956789	0.00300668	0.953156	0.962524
126	20    	0.956789	0.00300668	0.953156	0.962524
127	20    	0.957141	0.00297225	0.953156	0.962524
128	20    	0.957141	0.00297225	0.953156	0.962524
129	20    	0.957259	0.00285657	0.953156	0.962524
130	20    	0.957259	0.00285657	0.953156	0.962524
131	20    	0.95761 	0.00276119	0.953156	0.962524
132	20    	0.95761 	0.00276119	0.953156	0.962524
133	20    	0.95761 	0.00276119	0.953156	0.962524
134	20    	0.957728	0.00261527	0.953156	0.962524
135	20    	0.957728	0.00261527	0.953156	0.962524
136	20    	0.957728	0.00261527	0.953156	0.962524
137	20    	0.957845	0.00245509	0.955505	0.962524
138	20    	0.957845	0.00245509	0.955505	0.962524
139	20    	0.957845	0.00245509	0.955505	0.962524
140	20    	0.957845	0.00245509	0.955505	0.962524
141	20    	0.958196	0.00259331	0.955505	0.962524
142	20    	0.958547	0.00267893	0.955505	0.962524
143	20    	0.958781	0.00260655	0.955505	0.962524
144	20    	0.958781	0.00260655	0.955505	0.962524
145	20    	0.958781	0.00260655	0.955505	0.962524
146	20    	0.958781	0.00260655	0.955505	0.962524
147	20    	0.958781	0.00260655	0.955505	0.962524
148	20    	0.958781	0.00260655	0.955505	0.962524
149	20    	0.958898	0.00250762	0.955505	0.962524
150	20    	0.959483	0.00297045	0.955505	0.967209
151	20    	0.959717	0.0027307 	0.955505	0.967209
152	20    	0.959717	0.0027307 	0.955505	0.967209
153	20    	0.959717	0.0027307 	0.955505	0.967209
154	20    	0.959717	0.0027307 	0.955505	0.967209
155	20    	0.959717	0.0027307 	0.955505	0.967209
156	20    	0.959717	0.0027307 	0.955505	0.967209
157	20    	0.959717	0.0027307 	0.955505	0.967209
158	20    	0.960302	0.00300566	0.955505	0.967209
159	20    	0.960302	0.00300566	0.955505	0.967209
160	20    	0.960302	0.00300566	0.955505	0.967209
161	20    	0.960302	0.00300566	0.955505	0.967209
162	20    	0.961005	0.00341676	0.95784 	0.969559
163	20    	0.961005	0.00341676	0.95784 	0.969559
164	20    	0.961005	0.00341676	0.95784 	0.969559
165	20    	0.961239	0.00335174	0.95784 	0.969559
166	20    	0.961239	0.00335174	0.95784 	0.969559
167	20    	0.961473	0.00326868	0.95784 	0.969559
168	20    	0.961473	0.00326868	0.95784 	0.969559
169	20    	0.961473	0.00326868	0.95784 	0.969559
170	20    	0.961473	0.00326868	0.95784 	0.969559
171	20    	0.961473	0.00326868	0.95784 	0.969559
172	20    	0.961473	0.00326868	0.95784 	0.969559
173	20    	0.961473	0.00326868	0.95784 	0.969559
174	20    	0.961473	0.00326868	0.95784 	0.969559
175	20    	0.961473	0.00326868	0.95784 	0.969559
176	20    	0.961942	0.00338376	0.95784 	0.969559
177	20    	0.961942	0.00338376	0.95784 	0.969559
178	20    	0.961942	0.00338376	0.95784 	0.969559
179	20    	0.962059	0.00327846	0.95784 	0.969559
180	20    	0.962059	0.00327846	0.95784 	0.969559
181	20    	0.962059	0.00327846	0.95784 	0.969559
182	20    	0.962059	0.00327846	0.95784 	0.969559
183	20    	0.962059	0.00327846	0.95784 	0.969559
184	20    	0.962059	0.00327846	0.95784 	0.969559
185	20    	0.962059	0.00327846	0.95784 	0.969559
186	20    	0.962294	0.00304343	0.95784 	0.969559
187	20    	0.962528	0.00286676	0.96019 	0.969559
188	20    	0.962762	0.00285749	0.96019 	0.969559
189	20    	0.962762	0.00285749	0.96019 	0.969559
190	20    	0.962762	0.00285749	0.96019 	0.969559
191	20    	0.962997	0.00282886	0.96019 	0.969559
192	20    	0.962997	0.00282886	0.96019 	0.969559
193	20    	0.962997	0.00282886	0.96019 	0.969559
194	20    	0.963113	0.00275791	0.96019 	0.969559
195	20    	0.963113	0.00275791	0.96019 	0.969559
196	20    	0.963113	0.00275791	0.96019 	0.969559
197	20    	0.96323 	0.00268   	0.96019 	0.969559
198	20    	0.96323 	0.00268   	0.96019 	0.969559
199	20    	0.963347	0.00259451	0.96019 	0.969559
200	20    	0.963347	0.00259451	0.96019 	0.969559
201	20    	0.963347	0.00259451	0.96019 	0.969559
202	20    	0.963347	0.00259451	0.96019 	0.969559
203	20    	0.963347	0.00259451	0.96019 	0.969559
204	20    	0.963347	0.00259451	0.96019 	0.969559
205	20    	0.963347	0.00259451	0.96019 	0.969559
206	20    	0.963347	0.00259451	0.96019 	0.969559
207	20    	0.963932	0.00250096	0.96019 	0.969559
208	20    	0.963932	0.00250096	0.96019 	0.969559
209	20    	0.963932	0.00250096	0.96019 	0.969559
210	20    	0.963932	0.00250096	0.96019 	0.969559
211	20    	0.963932	0.00250096	0.96019 	0.969559
212	20    	0.963932	0.00250096	0.96019 	0.969559
213	20    	0.963932	0.00250096	0.96019 	0.969559
214	20    	0.963932	0.00250096	0.96019 	0.969559
215	20    	0.963932	0.00250096	0.96019 	0.969559
216	20    	0.963932	0.00250096	0.96019 	0.969559
217	20    	0.963932	0.00250096	0.96019 	0.969559
218	20    	0.964049	0.00237487	0.96019 	0.969559
219	20    	0.964049	0.00237487	0.96019 	0.969559
220	20    	0.964049	0.00237487	0.96019 	0.969559
221	20    	0.964049	0.00237487	0.96019 	0.969559
222	20    	0.964751	0.00309806	0.962524	0.974243
223	20    	0.96522 	0.00341773	0.962524	0.974243
224	20    	0.965337	0.003363  	0.962524	0.974243
225	20    	0.965337	0.003363  	0.962524	0.974243
226	20    	0.965337	0.003363  	0.962524	0.974243
227	20    	0.965337	0.003363  	0.962524	0.974243
228	20    	0.965337	0.003363  	0.962524	0.974243
229	20    	0.965337	0.003363  	0.962524	0.974243
230	20    	0.965337	0.003363  	0.962524	0.974243
231	20    	0.965337	0.003363  	0.962524	0.974243
232	20    	0.965455	0.00330319	0.962524	0.974243
233	20    	0.965455	0.00330319	0.962524	0.974243
234	20    	0.965455	0.00330319	0.962524	0.974243
235	20    	0.965455	0.00330319	0.962524	0.974243
236	20    	0.965455	0.00330319	0.962524	0.974243
237	20    	0.965455	0.00330319	0.962524	0.974243
238	20    	0.965455	0.00330319	0.962524	0.974243
239	20    	0.965572	0.00323801	0.962524	0.974243
240	20    	0.965572	0.00323801	0.962524	0.974243
241	20    	0.965807	0.00309019	0.962524	0.974243
242	20    	0.966159	0.00291368	0.962524	0.974243
243	20    	0.966511	0.00287805	0.962524	0.974243
244	20    	0.966511	0.00287805	0.962524	0.974243
245	20    	0.966511	0.00287805	0.962524	0.974243
246	20    	0.966628	0.00275839	0.962524	0.974243
247	20    	0.966628	0.00275839	0.962524	0.974243
248	20    	0.967097	0.0028166 	0.964874	0.974243
249	20    	0.967097	0.0028166 	0.964874	0.974243
250	20    	0.967097	0.0028166 	0.964874	0.974243
251	20    	0.967097	0.0028166 	0.964874	0.974243
252	20    	0.967097	0.0028166 	0.964874	0.974243
253	20    	0.967213	0.00277007	0.964874	0.974243
254	20    	0.967213	0.00277007	0.964874	0.974243
255	20    	0.967213	0.00277007	0.964874	0.974243
256	20    	0.967213	0.00277007	0.964874	0.974243
257	20    	0.967213	0.00277007	0.964874	0.974243
258	20    	0.967213	0.00277007	0.964874	0.974243
259	20    	0.967213	0.00277007	0.964874	0.974243
260	20    	0.967213	0.00277007	0.964874	0.974243
261	20    	0.967213	0.00277007	0.964874	0.974243
262	20    	0.967213	0.00277007	0.964874	0.974243
263	20    	0.967213	0.00277007	0.964874	0.974243
264	20    	0.967213	0.00277007	0.964874	0.974243
265	20    	0.96733 	0.00271773	0.964874	0.974243
266	20    	0.96733 	0.00271773	0.964874	0.974243
267	20    	0.96733 	0.00271773	0.964874	0.974243
268	20    	0.96733 	0.00271773	0.964874	0.974243
269	20    	0.96733 	0.00271773	0.964874	0.974243
270	20    	0.96733 	0.00271773	0.964874	0.974243
271	20    	0.96733 	0.00271773	0.964874	0.974243
272	20    	0.96733 	0.00271773	0.964874	0.974243
273	20    	0.96733 	0.00271773	0.964874	0.974243
274	20    	0.96733 	0.00271773	0.964874	0.974243
275	20    	0.96733 	0.00271773	0.964874	0.974243
276	20    	0.96733 	0.00271773	0.964874	0.974243
277	20    	0.96733 	0.00271773	0.964874	0.974243
278	20    	0.96733 	0.00271773	0.964874	0.974243
279	20    	0.96733 	0.00271773	0.964874	0.974243
280	20    	0.96733 	0.00271773	0.964874	0.974243
281	20    	0.96733 	0.00271773	0.964874	0.974243
282	20    	0.96733 	0.00271773	0.964874	0.974243
283	20    	0.96733 	0.00271773	0.964874	0.974243
284	20    	0.96733 	0.00271773	0.964874	0.974243
285	20    	0.96733 	0.00271773	0.964874	0.974243
286	20    	0.96733 	0.00271773	0.964874	0.974243
287	20    	0.96733 	0.00271773	0.964874	0.974243
288	20    	0.96733 	0.00271773	0.964874	0.974243
289	20    	0.96733 	0.00271773	0.964874	0.974243
290	20    	0.96733 	0.00271773	0.964874	0.974243
291	20    	0.967447	0.00265925	0.964874	0.974243
292	20    	0.967447	0.00265925	0.964874	0.974243
293	20    	0.967447	0.00265925	0.964874	0.974243
294	20    	0.967447	0.00265925	0.964874	0.974243
295	20    	0.967447	0.00265925	0.964874	0.974243
296	20    	0.967447	0.00265925	0.964874	0.974243
297	20    	0.967447	0.00265925	0.964874	0.974243
298	20    	0.967447	0.00265925	0.964874	0.974243
299	20    	0.967681	0.00262846	0.964874	0.974243
300	20    	0.967681	0.00262846	0.964874	0.974243
301	20    	0.967681	0.00262846	0.964874	0.974243
302	20    	0.967681	0.00262846	0.964874	0.974243
303	20    	0.967681	0.00262846	0.964874	0.974243
304	20    	0.967681	0.00262846	0.964874	0.974243
305	20    	0.967681	0.00262846	0.964874	0.974243
306	20    	0.967681	0.00262846	0.964874	0.974243
307	20    	0.967681	0.00262846	0.964874	0.974243
308	20    	0.967681	0.00262846	0.964874	0.974243
309	20    	0.967681	0.00262846	0.964874	0.974243
310	20    	0.967681	0.00262846	0.964874	0.974243
311	20    	0.967681	0.00262846	0.964874	0.974243
312	20    	0.967681	0.00262846	0.964874	0.974243
313	20    	0.967681	0.00262846	0.964874	0.974243
314	20    	0.967681	0.00262846	0.964874	0.974243
315	20    	0.967798	0.00255194	0.964874	0.974243
316	20    	0.967798	0.00255194	0.964874	0.974243
317	20    	0.967798	0.00255194	0.964874	0.974243
318	20    	0.967798	0.00255194	0.964874	0.974243
319	20    	0.967798	0.00255194	0.964874	0.974243
320	20    	0.967798	0.00255194	0.964874	0.974243
321	20    	0.967798	0.00255194	0.964874	0.974243
322	20    	0.967798	0.00255194	0.964874	0.974243
323	20    	0.967798	0.00255194	0.964874	0.974243
324	20    	0.967798	0.00255194	0.964874	0.974243
325	20    	0.967798	0.00255194	0.964874	0.974243
326	20    	0.967798	0.00255194	0.964874	0.974243
327	20    	0.967798	0.00255194	0.964874	0.974243
328	20    	0.967915	0.00246754	0.964874	0.974243
329	20    	0.967915	0.00246754	0.964874	0.974243
330	20    	0.968266	0.00250897	0.964874	0.974243
331	20    	0.968266	0.00250897	0.964874	0.974243
332	20    	0.968266	0.00250897	0.964874	0.974243
333	20    	0.968266	0.00250897	0.964874	0.974243
334	20    	0.968266	0.00250897	0.964874	0.974243
335	20    	0.968266	0.00250897	0.964874	0.974243
336	20    	0.968266	0.00250897	0.964874	0.974243
337	20    	0.968266	0.00250897	0.964874	0.974243
338	20    	0.968266	0.00250897	0.964874	0.974243
339	20    	0.968266	0.00250897	0.964874	0.974243
340	20    	0.9685  	0.00239764	0.964874	0.974243
341	20    	0.9685  	0.00239764	0.964874	0.974243
342	20    	0.968616	0.00227182	0.964874	0.974243
343	20    	0.968616	0.00227182	0.964874	0.974243
344	20    	0.968616	0.00227182	0.964874	0.974243
345	20    	0.968616	0.00227182	0.964874	0.974243
346	20    	0.968616	0.00227182	0.964874	0.974243
347	20    	0.968616	0.00227182	0.964874	0.974243
348	20    	0.968616	0.00227182	0.964874	0.974243
349	20    	0.968616	0.00227182	0.964874	0.974243
350	20    	0.968733	0.00213223	0.967209	0.974243
351	20    	0.968733	0.00213223	0.967209	0.974243
352	20    	0.968733	0.00213223	0.967209	0.974243
353	20    	0.968733	0.00213223	0.967209	0.974243
354	20    	0.968733	0.00213223	0.967209	0.974243
355	20    	0.968733	0.00213223	0.967209	0.974243
356	20    	0.968733	0.00213223	0.967209	0.974243
357	20    	0.968733	0.00213223	0.967209	0.974243
358	20    	0.968851	0.00210961	0.967209	0.974243
359	20    	0.968851	0.00210961	0.967209	0.974243
360	20    	0.968851	0.00210961	0.967209	0.974243
361	20    	0.968851	0.00210961	0.967209	0.974243
362	20    	0.968851	0.00210961	0.967209	0.974243
363	20    	0.969319	0.00266113	0.967209	0.976578
364	20    	0.969319	0.00266113	0.967209	0.976578
365	20    	0.969319	0.00266113	0.967209	0.976578
366	20    	0.969319	0.00266113	0.967209	0.976578
367	20    	0.969319	0.00266113	0.967209	0.976578
368	20    	0.969319	0.00266113	0.967209	0.976578
369	20    	0.969319	0.00266113	0.967209	0.976578
370	20    	0.969319	0.00266113	0.967209	0.976578
371	20    	0.969319	0.00266113	0.967209	0.976578
372	20    	0.969319	0.00266113	0.967209	0.976578
373	20    	0.969319	0.00266113	0.967209	0.976578
374	20    	0.969319	0.00266113	0.967209	0.976578
375	20    	0.969319	0.00266113	0.967209	0.976578
376	20    	0.969319	0.00266113	0.967209	0.976578
377	20    	0.969319	0.00266113	0.967209	0.976578
378	20    	0.969319	0.00266113	0.967209	0.976578
379	20    	0.969319	0.00266113	0.967209	0.976578
380	20    	0.969319	0.00266113	0.967209	0.976578
381	20    	0.969319	0.00266113	0.967209	0.976578
382	20    	0.969319	0.00266113	0.967209	0.976578
383	20    	0.969319	0.00266113	0.967209	0.976578
384	20    	0.969319	0.00266113	0.967209	0.976578
385	20    	0.969437	0.00261687	0.967209	0.976578
386	20    	0.969437	0.00261687	0.967209	0.976578
387	20    	0.969437	0.00261687	0.967209	0.976578
388	20    	0.969437	0.00261687	0.967209	0.976578
389	20    	0.969437	0.00261687	0.967209	0.976578
390	20    	0.969437	0.00261687	0.967209	0.976578
391	20    	0.969437	0.00261687	0.967209	0.976578
392	20    	0.969788	0.00255549	0.967209	0.976578
393	20    	0.969788	0.00255549	0.967209	0.976578
394	20    	0.969788	0.00255549	0.967209	0.976578
395	20    	0.969788	0.00255549	0.967209	0.976578
396	20    	0.969788	0.00255549	0.967209	0.976578
397	20    	0.969788	0.00255549	0.967209	0.976578
398	20    	0.969788	0.00255549	0.967209	0.976578
399	20    	0.970023	0.0025228 	0.967209	0.976578
400	20    	0.970257	0.00246754	0.967209	0.976578
401	20    	0.970257	0.00246754	0.967209	0.976578
402	20    	0.970257	0.00246754	0.967209	0.976578
403	20    	0.970257	0.00246754	0.967209	0.976578
404	20    	0.970257	0.00246754	0.967209	0.976578
405	20    	0.970257	0.00246754	0.967209	0.976578
406	20    	0.970257	0.00246754	0.967209	0.976578
407	20    	0.970257	0.00246754	0.967209	0.976578
408	20    	0.970257	0.00246754	0.967209	0.976578
409	20    	0.970257	0.00246754	0.967209	0.976578
410	20    	0.970257	0.00246754	0.967209	0.976578
411	20    	0.970374	0.00237378	0.967209	0.976578
412	20    	0.970374	0.00237378	0.967209	0.976578
413	20    	0.970374	0.00237378	0.967209	0.976578
414	20    	0.970374	0.00237378	0.967209	0.976578
415	20    	0.970374	0.00237378	0.967209	0.976578
416	20    	0.970374	0.00237378	0.967209	0.976578
417	20    	0.970374	0.00237378	0.967209	0.976578
418	20    	0.970843	0.00261506	0.967209	0.976578
419	20    	0.970843	0.00261506	0.967209	0.976578
420	20    	0.970843	0.00261506	0.967209	0.976578
421	20    	0.970843	0.00261506	0.967209	0.976578
422	20    	0.970843	0.00261506	0.967209	0.976578
423	20    	0.970843	0.00261506	0.967209	0.976578
424	20    	0.970843	0.00261506	0.967209	0.976578
425	20    	0.971194	0.00257541	0.967209	0.976578
426	20    	0.971312	0.002441  	0.967209	0.976578
427	20    	0.971312	0.002441  	0.967209	0.976578
428	20    	0.971312	0.002441  	0.967209	0.976578
429	20    	0.971312	0.002441  	0.967209	0.976578
430	20    	0.971312	0.002441  	0.967209	0.976578
431	20    	0.971312	0.002441  	0.967209	0.976578
432	20    	0.971312	0.002441  	0.967209	0.976578
433	20    	0.971312	0.002441  	0.967209	0.976578
434	20    	0.971664	0.00232865	0.969559	0.976578
435	20    	0.971664	0.00232865	0.969559	0.976578
436	20    	0.97178 	0.00227817	0.969559	0.976578
437	20    	0.97178 	0.00227817	0.969559	0.976578
438	20    	0.97178 	0.00227817	0.969559	0.976578
439	20    	0.97178 	0.00227817	0.969559	0.976578
440	20    	0.97178 	0.00227817	0.969559	0.976578
441	20    	0.97178 	0.00227817	0.969559	0.976578
442	20    	0.97178 	0.00227817	0.969559	0.976578
443	20    	0.97178 	0.00227817	0.969559	0.976578
444	20    	0.97178 	0.00227817	0.969559	0.976578
445	20    	0.97178 	0.00227817	0.969559	0.976578
446	20    	0.97178 	0.00227817	0.969559	0.976578
447	20    	0.971897	0.00222042	0.969559	0.976578
448	20    	0.971897	0.00222042	0.969559	0.976578
449	20    	0.971897	0.00222042	0.969559	0.976578
450	20    	0.971897	0.00222042	0.969559	0.976578
451	20    	0.971897	0.00222042	0.969559	0.976578
452	20    	0.971897	0.00222042	0.969559	0.976578
453	20    	0.971897	0.00222042	0.969559	0.976578
454	20    	0.971897	0.00222042	0.969559	0.976578
455	20    	0.972131	0.00220844	0.969559	0.976578
456	20    	0.972131	0.00220844	0.969559	0.976578
457	20    	0.972131	0.00220844	0.969559	0.976578
458	20    	0.972131	0.00220844	0.969559	0.976578
459	20    	0.972131	0.00220844	0.969559	0.976578
460	20    	0.972131	0.00220844	0.969559	0.976578
461	20    	0.972131	0.00220844	0.969559	0.976578
462	20    	0.972131	0.00220844	0.969559	0.976578
463	20    	0.972131	0.00220844	0.969559	0.976578
464	20    	0.972131	0.00220844	0.969559	0.976578
465	20    	0.972131	0.00220844	0.969559	0.976578
466	20    	0.972131	0.00220844	0.969559	0.976578
467	20    	0.972131	0.00220844	0.969559	0.976578
468	20    	0.972131	0.00220844	0.969559	0.976578
469	20    	0.972131	0.00220844	0.969559	0.976578
470	20    	0.972131	0.00220844	0.969559	0.976578
471	20    	0.972131	0.00220844	0.969559	0.976578
472	20    	0.972131	0.00220844	0.969559	0.976578
473	20    	0.972131	0.00220844	0.969559	0.976578
474	20    	0.972131	0.00220844	0.969559	0.976578
475	20    	0.972131	0.00220844	0.969559	0.976578
476	20    	0.972131	0.00220844	0.969559	0.976578
477	20    	0.972131	0.00220844	0.969559	0.976578
478	20    	0.972131	0.00220844	0.969559	0.976578
479	20    	0.972131	0.00220844	0.969559	0.976578
480	20    	0.972248	0.00212967	0.969559	0.976578
481	20    	0.972248	0.00212967	0.969559	0.976578
482	20    	0.972248	0.00212967	0.969559	0.976578
483	20    	0.972248	0.00212967	0.969559	0.976578
484	20    	0.972248	0.00212967	0.969559	0.976578
485	20    	0.972248	0.00212967	0.969559	0.976578
486	20    	0.972248	0.00212967	0.969559	0.976578
487	20    	0.972482	0.00207798	0.969559	0.976578
488	20    	0.972482	0.00207798	0.969559	0.976578
489	20    	0.972482	0.00207798	0.969559	0.976578
490	20    	0.972482	0.00207798	0.969559	0.976578
491	20    	0.972482	0.00207798	0.969559	0.976578
492	20    	0.972482	0.00207798	0.969559	0.976578
493	20    	0.972482	0.00207798	0.969559	0.976578
494	20    	0.972482	0.00207798	0.969559	0.976578
495	20    	0.972482	0.00207798	0.969559	0.976578
496	20    	0.972482	0.00207798	0.969559	0.976578
497	20    	0.972482	0.00207798	0.969559	0.976578
498	20    	0.972482	0.00207798	0.969559	0.976578
499	20    	0.972482	0.00207798	0.969559	0.976578
