gen	nevals	avg     	std       	min     	max     
0  	20    	0.875381	0.00864403	0.860657	0.891693
1  	20    	0.880593	0.00469383	0.87471 	0.891693
2  	20    	0.883372	0.00384234	0.87822 	0.891693
3  	20    	0.886388	0.00287729	0.882324	0.894028
4  	20    	0.887939	0.00235199	0.885239	0.894028
5  	20    	0.888408	0.00217803	0.886414	0.894028
6  	20    	0.890985	0.00393143	0.887009	0.902817
7  	20    	0.892332	0.00355331	0.888168	0.902817
8  	20    	0.893357	0.00313408	0.889923	0.902817
9  	20    	0.89444 	0.00280982	0.891098	0.902817
10 	20    	0.895464	0.00259155	0.892853	0.902817
11 	20    	0.89687 	0.00402448	0.893448	0.911011
12 	20    	0.897484	0.0039761 	0.894028	0.911011
13 	20    	0.89807 	0.0039285 	0.894608	0.911011
14 	20    	0.898569	0.00363742	0.895203	0.911011
15 	20    	0.899329	0.00337059	0.896378	0.911011
16 	20    	0.89968 	0.00324553	0.896378	0.911011
17 	20    	0.90006 	0.0029978 	0.896957	0.911011
18 	20    	0.900762	0.0032212 	0.898132	0.911011
19 	20    	0.901521	0.00299667	0.898712	0.911011
20 	20    	0.902194	0.00304682	0.899292	0.911011
21 	20    	0.902546	0.00289018	0.899292	0.911011
22 	20    	0.902868	0.00286834	0.899887	0.911011
23 	20    	0.903394	0.00304433	0.900467	0.911011
24 	20    	0.903893	0.00272486	0.901047	0.911011
25 	20    	0.90489 	0.0030171 	0.901642	0.912766
26 	20    	0.905094	0.0029273 	0.901642	0.912766
27 	20    	0.905592	0.00281947	0.902222	0.912766
28 	20    	0.906586	0.00274327	0.902817	0.912766
29 	20    	0.906995	0.00276161	0.903976	0.912766
30 	20    	0.90723 	0.00269344	0.903976	0.912766
31 	20    	0.907552	0.0024706 	0.905151	0.912766
32 	20    	0.907698	0.00238162	0.905151	0.912766
33 	20    	0.907698	0.00238162	0.905151	0.912766
34 	20    	0.907698	0.00238162	0.905151	0.912766
35 	20    	0.908313	0.00290133	0.905151	0.916275
36 	20    	0.908488	0.00280948	0.905731	0.916275
37 	20    	0.908752	0.00278594	0.905731	0.916275
38 	20    	0.908782	0.00275654	0.905731	0.916275
39 	20    	0.909251	0.00246229	0.906326	0.916275
40 	20    	0.909339	0.0023866 	0.906326	0.916275
41 	20    	0.90972 	0.0023236 	0.906906	0.916275
42 	20    	0.909779	0.00226585	0.907501	0.916275
43 	20    	0.910538	0.00235353	0.908081	0.916275
44 	20    	0.910743	0.00221785	0.908081	0.916275
45 	20    	0.911065	0.0020362 	0.908661	0.916275
46 	20    	0.91124 	0.00197167	0.908661	0.916275
47 	20    	0.911504	0.00196204	0.908661	0.916275
48 	20    	0.911884	0.00168152	0.909836	0.916275
49 	20    	0.912235	0.00162364	0.909836	0.916275
50 	20    	0.912235	0.00162364	0.909836	0.916275
51 	20    	0.912235	0.00162364	0.909836	0.916275
52 	20    	0.912469	0.0015983 	0.909836	0.916275
53 	20    	0.912469	0.0015983 	0.909836	0.916275
54 	20    	0.912498	0.00155493	0.910416	0.916275
55 	20    	0.912821	0.00142115	0.911011	0.916275
56 	20    	0.913084	0.00137981	0.911011	0.916275
57 	20    	0.913142	0.00131429	0.911011	0.916275
58 	20    	0.913142	0.00131429	0.911011	0.916275
59 	20    	0.913142	0.00131429	0.911011	0.916275
60 	20    	0.913288	0.00122913	0.911591	0.916275
61 	20    	0.913493	0.00127054	0.91217 	0.916275
62 	20    	0.913493	0.00127054	0.91217 	0.916275
63 	20    	0.913728	0.00142719	0.91217 	0.916855
64 	20    	0.913728	0.00142719	0.91217 	0.916855
65 	20    	0.913728	0.00142719	0.91217 	0.916855
66 	20    	0.913728	0.00142719	0.91217 	0.916855
67 	20    	0.913845	0.00139042	0.91217 	0.916855
68 	20    	0.913875	0.0013603 	0.91217 	0.916855
69 	20    	0.914109	0.00144719	0.91217 	0.916855
70 	20    	0.914109	0.00144719	0.91217 	0.916855
71 	20    	0.914139	0.00141273	0.91217 	0.916855
72 	20    	0.914139	0.00141273	0.91217 	0.916855
73 	20    	0.914344	0.00141001	0.91217 	0.916855
74 	20    	0.914462	0.00129287	0.912766	0.916855
75 	20    	0.915047	0.00248852	0.912766	0.924469
76 	20    	0.915105	0.00244751	0.912766	0.924469
77 	20    	0.915105	0.00244751	0.912766	0.924469
78 	20    	0.915105	0.00244751	0.912766	0.924469
79 	20    	0.91531 	0.00241407	0.913345	0.924469
80 	20    	0.91534 	0.00239325	0.913345	0.924469
81 	20    	0.91534 	0.00239325	0.913345	0.924469
82 	20    	0.915427	0.00235031	0.913345	0.924469
83 	20    	0.915427	0.00235031	0.913345	0.924469
84 	20    	0.915427	0.00235031	0.913345	0.924469
85 	20    	0.915749	0.00248048	0.91394 	0.924469
86 	20    	0.915749	0.00248048	0.91394 	0.924469
87 	20    	0.915866	0.00244732	0.91394 	0.924469
88 	20    	0.916071	0.00244872	0.91394 	0.924469
89 	20    	0.916071	0.00244872	0.91394 	0.924469
90 	20    	0.916071	0.00244872	0.91394 	0.924469
91 	20    	0.916305	0.00245779	0.91394 	0.924469
92 	20    	0.91686 	0.00253087	0.91394 	0.924469
93 	20    	0.917036	0.00244247	0.91452 	0.924469
94 	20    	0.917036	0.00244247	0.91452 	0.924469
95 	20    	0.91727 	0.00241447	0.91452 	0.924469
96 	20    	0.917358	0.00232923	0.91452 	0.924469
97 	20    	0.917358	0.00232923	0.91452 	0.924469
98 	20    	0.917358	0.00232923	0.91452 	0.924469
99 	20    	0.917533	0.00223933	0.9151  	0.924469
100	20    	0.917533	0.00223933	0.9151  	0.924469
101	20    	0.917533	0.00223933	0.9151  	0.924469
102	20    	0.917563	0.00221057	0.9151  	0.924469
103	20    	0.917651	0.00214493	0.9151  	0.924469
104	20    	0.918061	0.00238915	0.915695	0.924469
105	20    	0.918061	0.00238915	0.915695	0.924469
106	20    	0.918061	0.00238915	0.915695	0.924469
107	20    	0.918061	0.00238915	0.915695	0.924469
108	20    	0.918061	0.00238915	0.915695	0.924469
109	20    	0.918148	0.00231071	0.916275	0.924469
110	20    	0.918148	0.00231071	0.916275	0.924469
111	20    	0.918148	0.00231071	0.916275	0.924469
112	20    	0.918295	0.0022499 	0.916275	0.924469
113	20    	0.918382	0.00220317	0.916275	0.924469
114	20    	0.9185  	0.00214967	0.916275	0.924469
115	20    	0.918909	0.00210833	0.916855	0.924469
116	20    	0.918909	0.00210833	0.916855	0.924469
117	20    	0.918968	0.00206621	0.916855	0.924469
118	20    	0.91932 	0.00226562	0.916855	0.924469
119	20    	0.919379	0.00221562	0.916855	0.924469
120	20    	0.919379	0.00221562	0.916855	0.924469
121	20    	0.919379	0.00221562	0.916855	0.924469
122	20    	0.919613	0.00218381	0.916855	0.924469
123	20    	0.919613	0.00218381	0.916855	0.924469
124	20    	0.919613	0.00218381	0.916855	0.924469
125	20    	0.919613	0.00218381	0.916855	0.924469
126	20    	0.919613	0.00218381	0.916855	0.924469
127	20    	0.919613	0.00218381	0.916855	0.924469
128	20    	0.919613	0.00218381	0.916855	0.924469
129	20    	0.919701	0.00210468	0.91745 	0.924469
130	20    	0.91973 	0.00207728	0.91803 	0.924469
131	20    	0.91973 	0.00207728	0.91803 	0.924469
132	20    	0.91973 	0.00207728	0.91803 	0.924469
133	20    	0.91973 	0.00207728	0.91803 	0.924469
134	20    	0.91973 	0.00207728	0.91803 	0.924469
135	20    	0.919906	0.00207445	0.91803 	0.924469
136	20    	0.919906	0.00207445	0.91803 	0.924469
137	20    	0.919906	0.00207445	0.91803 	0.924469
138	20    	0.919906	0.00207445	0.91803 	0.924469
139	20    	0.919906	0.00207445	0.91803 	0.924469
140	20    	0.92014 	0.00201358	0.91803 	0.924469
141	20    	0.92014 	0.00201358	0.91803 	0.924469
142	20    	0.92014 	0.00201358	0.91803 	0.924469
143	20    	0.92017 	0.00198639	0.91803 	0.924469
144	20    	0.9202  	0.00195837	0.91803 	0.924469
145	20    	0.9202  	0.00195837	0.91803 	0.924469
146	20    	0.9202  	0.00195837	0.91803 	0.924469
147	20    	0.9202  	0.00195837	0.91803 	0.924469
148	20    	0.9202  	0.00195837	0.91803 	0.924469
149	20    	0.9202  	0.00195837	0.91803 	0.924469
150	20    	0.920317	0.00186633	0.918625	0.924469
151	20    	0.920317	0.00186633	0.918625	0.924469
152	20    	0.920317	0.00186633	0.918625	0.924469
153	20    	0.920346	0.00184419	0.918625	0.924469
154	20    	0.920346	0.00184419	0.918625	0.924469
155	20    	0.920346	0.00184419	0.918625	0.924469
156	20    	0.920346	0.00184419	0.918625	0.924469
157	20    	0.920667	0.0019092 	0.918625	0.924469
158	20    	0.920667	0.0019092 	0.918625	0.924469
159	20    	0.920667	0.0019092 	0.918625	0.924469
160	20    	0.920696	0.00188218	0.918625	0.924469
161	20    	0.920696	0.00188218	0.918625	0.924469
162	20    	0.920696	0.00188218	0.918625	0.924469
163	20    	0.920696	0.00188218	0.918625	0.924469
164	20    	0.920696	0.00188218	0.918625	0.924469
165	20    	0.920696	0.00188218	0.918625	0.924469
166	20    	0.920872	0.0018441 	0.918625	0.924469
167	20    	0.920872	0.0018441 	0.918625	0.924469
168	20    	0.920872	0.0018441 	0.918625	0.924469
169	20    	0.920872	0.0018441 	0.918625	0.924469
170	20    	0.920872	0.0018441 	0.918625	0.924469
171	20    	0.920901	0.00181284	0.918625	0.924469
172	20    	0.921075	0.0017134 	0.919205	0.924469
173	20    	0.921075	0.0017134 	0.919205	0.924469
174	20    	0.921075	0.0017134 	0.919205	0.924469
175	20    	0.921075	0.0017134 	0.919205	0.924469
176	20    	0.921163	0.00165944	0.919205	0.924469
177	20    	0.921163	0.00165944	0.919205	0.924469
178	20    	0.921163	0.00165944	0.919205	0.924469
179	20    	0.921163	0.00165944	0.919205	0.924469
180	20    	0.921573	0.00208283	0.919205	0.927399
181	20    	0.921573	0.00208283	0.919205	0.927399
182	20    	0.921573	0.00208283	0.919205	0.927399
183	20    	0.921573	0.00208283	0.919205	0.927399
184	20    	0.921573	0.00208283	0.919205	0.927399
185	20    	0.921573	0.00208283	0.919205	0.927399
186	20    	0.921573	0.00208283	0.919205	0.927399
187	20    	0.921573	0.00208283	0.919205	0.927399
188	20    	0.921573	0.00208283	0.919205	0.927399
189	20    	0.921573	0.00208283	0.919205	0.927399
190	20    	0.921573	0.00208283	0.919205	0.927399
191	20    	0.921573	0.00208283	0.919205	0.927399
192	20    	0.92169 	0.00201102	0.919205	0.927399
193	20    	0.921836	0.00192974	0.919205	0.927399
194	20    	0.921895	0.00186556	0.919785	0.927399
195	20    	0.921895	0.00186556	0.919785	0.927399
196	20    	0.921895	0.00186556	0.919785	0.927399
197	20    	0.921895	0.00186556	0.919785	0.927399
198	20    	0.921954	0.00181602	0.919785	0.927399
199	20    	0.9221  	0.00175219	0.919785	0.927399
200	20    	0.922452	0.00194724	0.919785	0.927399
201	20    	0.922686	0.00189331	0.92038 	0.927399
202	20    	0.922774	0.00182378	0.920959	0.927399
203	20    	0.922774	0.00182378	0.920959	0.927399
204	20    	0.922891	0.00177824	0.920959	0.927399
205	20    	0.922891	0.00177824	0.920959	0.927399
206	20    	0.922891	0.00177824	0.920959	0.927399
207	20    	0.923154	0.00186052	0.920959	0.927399
208	20    	0.923154	0.00186052	0.920959	0.927399
209	20    	0.923154	0.00186052	0.920959	0.927399
210	20    	0.923154	0.00186052	0.920959	0.927399
211	20    	0.923301	0.00179616	0.921539	0.927399
212	20    	0.923301	0.00179616	0.921539	0.927399
213	20    	0.923301	0.00179616	0.921539	0.927399
214	20    	0.923301	0.00179616	0.921539	0.927399
215	20    	0.923301	0.00179616	0.921539	0.927399
216	20    	0.923301	0.00179616	0.921539	0.927399
217	20    	0.923301	0.00179616	0.921539	0.927399
218	20    	0.923331	0.00177149	0.921539	0.927399
219	20    	0.923331	0.00177149	0.921539	0.927399
220	20    	0.923331	0.00177149	0.921539	0.927399
221	20    	0.923331	0.00177149	0.921539	0.927399
222	20    	0.923331	0.00177149	0.921539	0.927399
223	20    	0.923331	0.00177149	0.921539	0.927399
224	20    	0.923331	0.00177149	0.921539	0.927399
225	20    	0.923331	0.00177149	0.921539	0.927399
226	20    	0.923331	0.00177149	0.921539	0.927399
227	20    	0.923331	0.00177149	0.921539	0.927399
228	20    	0.923331	0.00177149	0.921539	0.927399
229	20    	0.923389	0.00173011	0.921539	0.927399
230	20    	0.923389	0.00173011	0.921539	0.927399
231	20    	0.923389	0.00173011	0.921539	0.927399
232	20    	0.923389	0.00173011	0.921539	0.927399
233	20    	0.923507	0.00167952	0.921539	0.927399
234	20    	0.923507	0.00167952	0.921539	0.927399
235	20    	0.923507	0.00167952	0.921539	0.927399
236	20    	0.923507	0.00167952	0.921539	0.927399
237	20    	0.923507	0.00167952	0.921539	0.927399
238	20    	0.923507	0.00167952	0.921539	0.927399
239	20    	0.923507	0.00167952	0.921539	0.927399
240	20    	0.923859	0.00194604	0.921539	0.928574
241	20    	0.923859	0.00194604	0.921539	0.928574
242	20    	0.923859	0.00194604	0.921539	0.928574
243	20    	0.923947	0.0018776 	0.921539	0.928574
244	20    	0.923947	0.0018776 	0.921539	0.928574
245	20    	0.923947	0.0018776 	0.921539	0.928574
246	20    	0.923947	0.0018776 	0.921539	0.928574
247	20    	0.924328	0.00210851	0.922134	0.929153
248	20    	0.924328	0.00210851	0.922134	0.929153
249	20    	0.924328	0.00210851	0.922134	0.929153
250	20    	0.924328	0.00210851	0.922134	0.929153
251	20    	0.924328	0.00210851	0.922134	0.929153
252	20    	0.924328	0.00210851	0.922134	0.929153
253	20    	0.924416	0.00205114	0.922134	0.929153
254	20    	0.924416	0.00205114	0.922134	0.929153
255	20    	0.924416	0.00205114	0.922134	0.929153
256	20    	0.924416	0.00205114	0.922134	0.929153
257	20    	0.924503	0.00198826	0.922134	0.929153
258	20    	0.924503	0.00198826	0.922134	0.929153
259	20    	0.924503	0.00198826	0.922134	0.929153
260	20    	0.924503	0.00198826	0.922134	0.929153
261	20    	0.924503	0.00198826	0.922134	0.929153
262	20    	0.924503	0.00198826	0.922134	0.929153
263	20    	0.92462 	0.00191285	0.922134	0.929153
264	20    	0.92462 	0.00191285	0.922134	0.929153
265	20    	0.92462 	0.00191285	0.922134	0.929153
266	20    	0.92462 	0.00191285	0.922134	0.929153
267	20    	0.92462 	0.00191285	0.922134	0.929153
268	20    	0.92462 	0.00191285	0.922134	0.929153
269	20    	0.92462 	0.00191285	0.922134	0.929153
270	20    	0.92462 	0.00191285	0.922134	0.929153
271	20    	0.92462 	0.00191285	0.922134	0.929153
272	20    	0.92462 	0.00191285	0.922134	0.929153
273	20    	0.92462 	0.00191285	0.922134	0.929153
274	20    	0.924737	0.00182691	0.922714	0.929153
275	20    	0.924737	0.00182691	0.922714	0.929153
276	20    	0.924825	0.00176888	0.922714	0.929153
277	20    	0.924825	0.00176888	0.922714	0.929153
278	20    	0.924825	0.00176888	0.922714	0.929153
279	20    	0.924825	0.00176888	0.922714	0.929153
280	20    	0.924825	0.00176888	0.922714	0.929153
281	20    	0.924825	0.00176888	0.922714	0.929153
282	20    	0.924825	0.00176888	0.922714	0.929153
283	20    	0.924825	0.00176888	0.922714	0.929153
284	20    	0.924825	0.00176888	0.922714	0.929153
285	20    	0.924825	0.00176888	0.922714	0.929153
286	20    	0.924825	0.00176888	0.922714	0.929153
287	20    	0.924825	0.00176888	0.922714	0.929153
288	20    	0.924825	0.00176888	0.922714	0.929153
289	20    	0.924825	0.00176888	0.922714	0.929153
290	20    	0.925059	0.00178402	0.923309	0.929153
291	20    	0.925059	0.00178402	0.923309	0.929153
292	20    	0.925059	0.00178402	0.923309	0.929153
293	20    	0.925059	0.00178402	0.923309	0.929153
294	20    	0.925059	0.00178402	0.923309	0.929153
295	20    	0.925059	0.00178402	0.923309	0.929153
296	20    	0.925088	0.0017599 	0.923309	0.929153
297	20    	0.925088	0.0017599 	0.923309	0.929153
298	20    	0.925204	0.00171492	0.923309	0.929153
299	20    	0.925204	0.00171492	0.923309	0.929153
300	20    	0.925204	0.00171492	0.923309	0.929153
301	20    	0.925204	0.00171492	0.923309	0.929153
302	20    	0.925409	0.00172056	0.923889	0.929153
303	20    	0.925409	0.00172056	0.923889	0.929153
304	20    	0.925438	0.00169946	0.923889	0.929153
305	20    	0.925497	0.00166486	0.923889	0.929153
306	20    	0.925497	0.00166486	0.923889	0.929153
307	20    	0.925497	0.00166486	0.923889	0.929153
308	20    	0.925497	0.00166486	0.923889	0.929153
309	20    	0.925497	0.00166486	0.923889	0.929153
310	20    	0.925497	0.00166486	0.923889	0.929153
311	20    	0.925497	0.00166486	0.923889	0.929153
312	20    	0.925497	0.00166486	0.923889	0.929153
313	20    	0.925497	0.00166486	0.923889	0.929153
314	20    	0.925497	0.00166486	0.923889	0.929153
315	20    	0.925497	0.00166486	0.923889	0.929153
316	20    	0.925555	0.00162741	0.923889	0.929153
317	20    	0.925614	0.0015869 	0.923889	0.929153
318	20    	0.925614	0.0015869 	0.923889	0.929153
319	20    	0.925614	0.0015869 	0.923889	0.929153
320	20    	0.925614	0.0015869 	0.923889	0.929153
321	20    	0.925673	0.0015431 	0.923889	0.929153
322	20    	0.925673	0.0015431 	0.923889	0.929153
323	20    	0.925673	0.0015431 	0.923889	0.929153
324	20    	0.925673	0.0015431 	0.923889	0.929153
325	20    	0.925673	0.0015431 	0.923889	0.929153
326	20    	0.92579 	0.00149118	0.923889	0.929153
327	20    	0.92579 	0.00149118	0.923889	0.929153
328	20    	0.92579 	0.00149118	0.923889	0.929153
329	20    	0.925906	0.00142787	0.924469	0.929153
330	20    	0.925906	0.00142787	0.924469	0.929153
331	20    	0.925906	0.00142787	0.924469	0.929153
332	20    	0.925906	0.00142787	0.924469	0.929153
333	20    	0.925906	0.00142787	0.924469	0.929153
334	20    	0.925965	0.00139123	0.924469	0.929153
335	20    	0.925965	0.00139123	0.924469	0.929153
336	20    	0.925965	0.00139123	0.924469	0.929153
337	20    	0.925965	0.00139123	0.924469	0.929153
338	20    	0.925965	0.00139123	0.924469	0.929153
339	20    	0.925965	0.00139123	0.924469	0.929153
340	20    	0.925965	0.00139123	0.924469	0.929153
341	20    	0.925965	0.00139123	0.924469	0.929153
342	20    	0.926053	0.00134879	0.924469	0.929153
343	20    	0.926053	0.00134879	0.924469	0.929153
344	20    	0.926053	0.00134879	0.924469	0.929153
345	20    	0.926053	0.00134879	0.924469	0.929153
346	20    	0.926053	0.00134879	0.924469	0.929153
347	20    	0.926053	0.00134879	0.924469	0.929153
348	20    	0.926112	0.00130335	0.924469	0.929153
349	20    	0.926112	0.00130335	0.924469	0.929153
350	20    	0.926112	0.00130335	0.924469	0.929153
351	20    	0.926112	0.00130335	0.924469	0.929153
352	20    	0.926112	0.00130335	0.924469	0.929153
353	20    	0.926112	0.00130335	0.924469	0.929153
354	20    	0.926112	0.00130335	0.924469	0.929153
355	20    	0.926112	0.00130335	0.924469	0.929153
356	20    	0.926112	0.00130335	0.924469	0.929153
357	20    	0.926112	0.00130335	0.924469	0.929153
358	20    	0.926199	0.00124769	0.924469	0.929153
359	20    	0.926199	0.00124769	0.924469	0.929153
360	20    	0.926199	0.00124769	0.924469	0.929153
361	20    	0.926199	0.00124769	0.924469	0.929153
362	20    	0.926317	0.00118845	0.924469	0.929153
363	20    	0.926317	0.00118845	0.924469	0.929153
364	20    	0.926317	0.00118845	0.924469	0.929153
365	20    	0.926317	0.00118845	0.924469	0.929153
366	20    	0.926317	0.00118845	0.924469	0.929153
367	20    	0.926317	0.00118845	0.924469	0.929153
368	20    	0.926317	0.00118845	0.924469	0.929153
369	20    	0.926317	0.00118845	0.924469	0.929153
370	20    	0.926317	0.00118845	0.924469	0.929153
371	20    	0.926317	0.00118845	0.924469	0.929153
372	20    	0.926317	0.00118845	0.924469	0.929153
373	20    	0.926317	0.00118845	0.924469	0.929153
374	20    	0.926317	0.00118845	0.924469	0.929153
375	20    	0.926317	0.00118845	0.924469	0.929153
376	20    	0.926317	0.00118845	0.924469	0.929153
377	20    	0.926317	0.00118845	0.924469	0.929153
378	20    	0.926317	0.00118845	0.924469	0.929153
379	20    	0.926317	0.00118845	0.924469	0.929153
380	20    	0.926317	0.00118845	0.924469	0.929153
381	20    	0.926317	0.00118845	0.924469	0.929153
382	20    	0.926317	0.00118845	0.924469	0.929153
383	20    	0.926405	0.00111105	0.925064	0.929153
384	20    	0.926405	0.00111105	0.925064	0.929153
385	20    	0.926405	0.00111105	0.925064	0.929153
386	20    	0.926405	0.00111105	0.925064	0.929153
387	20    	0.926405	0.00111105	0.925064	0.929153
388	20    	0.926434	0.0010829 	0.925064	0.929153
389	20    	0.926434	0.0010829 	0.925064	0.929153
390	20    	0.926668	0.00125439	0.925064	0.929749
391	20    	0.926668	0.00125439	0.925064	0.929749
392	20    	0.926668	0.00125439	0.925064	0.929749
393	20    	0.926668	0.00125439	0.925064	0.929749
394	20    	0.926668	0.00125439	0.925064	0.929749
395	20    	0.926668	0.00125439	0.925064	0.929749
396	20    	0.926668	0.00125439	0.925064	0.929749
397	20    	0.926668	0.00125439	0.925064	0.929749
398	20    	0.926668	0.00125439	0.925064	0.929749
399	20    	0.926668	0.00125439	0.925064	0.929749
400	20    	0.926668	0.00125439	0.925064	0.929749
401	20    	0.926814	0.00122864	0.925064	0.929749
402	20    	0.926814	0.00122864	0.925064	0.929749
403	20    	0.926814	0.00122864	0.925064	0.929749
404	20    	0.926814	0.00122864	0.925064	0.929749
405	20    	0.926814	0.00122864	0.925064	0.929749
406	20    	0.926814	0.00122864	0.925064	0.929749
407	20    	0.926814	0.00122864	0.925064	0.929749
408	20    	0.926871	0.00117071	0.925644	0.929749
409	20    	0.926871	0.00117071	0.925644	0.929749
410	20    	0.926871	0.00117071	0.925644	0.929749
411	20    	0.9269  	0.00114689	0.925644	0.929749
412	20    	0.927106	0.00126486	0.925644	0.929749
413	20    	0.927106	0.00126486	0.925644	0.929749
414	20    	0.927164	0.00122216	0.925644	0.929749
415	20    	0.927164	0.00122216	0.925644	0.929749
416	20    	0.927164	0.00122216	0.925644	0.929749
417	20    	0.927164	0.00122216	0.925644	0.929749
418	20    	0.927164	0.00122216	0.925644	0.929749
419	20    	0.927164	0.00122216	0.925644	0.929749
420	20    	0.927164	0.00122216	0.925644	0.929749
421	20    	0.92734 	0.00124302	0.926224	0.929749
422	20    	0.92734 	0.00124302	0.926224	0.929749
423	20    	0.927457	0.00124302	0.926224	0.929749
424	20    	0.927457	0.00124302	0.926224	0.929749
425	20    	0.927457	0.00124302	0.926224	0.929749
426	20    	0.927457	0.00124302	0.926224	0.929749
427	20    	0.927457	0.00124302	0.926224	0.929749
428	20    	0.927457	0.00124302	0.926224	0.929749
429	20    	0.927663	0.00135609	0.926224	0.930328
430	20    	0.927663	0.00135609	0.926224	0.930328
431	20    	0.927663	0.00135609	0.926224	0.930328
432	20    	0.927663	0.00135609	0.926224	0.930328
433	20    	0.927663	0.00135609	0.926224	0.930328
434	20    	0.927663	0.00135609	0.926224	0.930328
435	20    	0.927663	0.00135609	0.926224	0.930328
436	20    	0.927663	0.00135609	0.926224	0.930328
437	20    	0.927663	0.00135609	0.926224	0.930328
438	20    	0.927663	0.00135609	0.926224	0.930328
439	20    	0.927663	0.00135609	0.926224	0.930328
440	20    	0.927839	0.00138635	0.926224	0.930328
441	20    	0.927839	0.00138635	0.926224	0.930328
442	20    	0.927839	0.00138635	0.926224	0.930328
443	20    	0.927839	0.00138635	0.926224	0.930328
444	20    	0.927839	0.00138635	0.926224	0.930328
445	20    	0.927927	0.00133596	0.926224	0.930328
446	20    	0.927927	0.00133596	0.926224	0.930328
447	20    	0.928191	0.00148652	0.926224	0.931503
448	20    	0.928191	0.00148652	0.926224	0.931503
449	20    	0.928249	0.00142976	0.926224	0.931503
450	20    	0.928249	0.00142976	0.926224	0.931503
451	20    	0.928249	0.00142976	0.926224	0.931503
452	20    	0.928308	0.00136814	0.926224	0.931503
453	20    	0.928308	0.00136814	0.926224	0.931503
454	20    	0.928308	0.00136814	0.926224	0.931503
455	20    	0.928308	0.00136814	0.926224	0.931503
456	20    	0.928308	0.00136814	0.926224	0.931503
457	20    	0.928455	0.00129184	0.926819	0.931503
458	20    	0.928455	0.00129184	0.926819	0.931503
459	20    	0.928542	0.00120864	0.926819	0.931503
460	20    	0.928542	0.00120864	0.926819	0.931503
461	20    	0.928542	0.00120864	0.926819	0.931503
462	20    	0.928542	0.00120864	0.926819	0.931503
463	20    	0.928542	0.00120864	0.926819	0.931503
464	20    	0.928542	0.00120864	0.926819	0.931503
465	20    	0.928571	0.00117341	0.927399	0.931503
466	20    	0.928629	0.00114226	0.927399	0.931503
467	20    	0.928747	0.00113043	0.927399	0.931503
468	20    	0.928747	0.00113043	0.927399	0.931503
469	20    	0.928747	0.00113043	0.927399	0.931503
470	20    	0.928747	0.00113043	0.927399	0.931503
471	20    	0.928747	0.00113043	0.927399	0.931503
472	20    	0.928747	0.00113043	0.927399	0.931503
473	20    	0.928747	0.00113043	0.927399	0.931503
474	20    	0.928747	0.00113043	0.927399	0.931503
475	20    	0.928747	0.00113043	0.927399	0.931503
476	20    	0.928747	0.00113043	0.927399	0.931503
477	20    	0.928747	0.00113043	0.927399	0.931503
478	20    	0.928747	0.00113043	0.927399	0.931503
479	20    	0.928747	0.00113043	0.927399	0.931503
480	20    	0.928747	0.00113043	0.927399	0.931503
481	20    	0.928747	0.00113043	0.927399	0.931503
482	20    	0.928747	0.00113043	0.927399	0.931503
483	20    	0.928747	0.00113043	0.927399	0.931503
484	20    	0.928747	0.00113043	0.927399	0.931503
485	20    	0.92904 	0.00145559	0.927399	0.933258
486	20    	0.92904 	0.00145559	0.927399	0.933258
487	20    	0.92904 	0.00145559	0.927399	0.933258
488	20    	0.92904 	0.00145559	0.927399	0.933258
489	20    	0.92904 	0.00145559	0.927399	0.933258
490	20    	0.929128	0.00140607	0.927399	0.933258
491	20    	0.929128	0.00140607	0.927399	0.933258
492	20    	0.929128	0.00140607	0.927399	0.933258
493	20    	0.929128	0.00140607	0.927399	0.933258
494	20    	0.929128	0.00140607	0.927399	0.933258
495	20    	0.929128	0.00140607	0.927399	0.933258
496	20    	0.929128	0.00140607	0.927399	0.933258
497	20    	0.929128	0.00140607	0.927399	0.933258
498	20    	0.929128	0.00140607	0.927399	0.933258
499	20    	0.929128	0.00140607	0.927399	0.933258
