gen	nevals	avg     	std       	min     	max     
0  	20    	0.875121	0.00805316	0.861572	0.892548
1  	20    	0.881461	0.00396363	0.876572	0.892548
2  	20    	0.884583	0.00320082	0.880447	0.892548
3  	20    	0.886034	0.00325692	0.882858	0.894485
4  	20    	0.887995	0.0034766 	0.884323	0.896423
5  	20    	0.89119 	0.0049668 	0.886261	0.904648
6  	20    	0.892448	0.00485897	0.887222	0.904648
7  	20    	0.893514	0.00433736	0.888184	0.904648
8  	20    	0.894362	0.003795  	0.889648	0.904648
9  	20    	0.895329	0.0036182 	0.891098	0.904648
10 	20    	0.89562 	0.00336757	0.892059	0.904648
11 	20    	0.896395	0.00326481	0.892548	0.904648
12 	20    	0.898428	0.00296809	0.893997	0.904648
13 	20    	0.899178	0.00339812	0.894485	0.908035
14 	20    	0.899904	0.00292948	0.896423	0.908035
15 	20    	0.900266	0.0026393 	0.897385	0.908035
16 	20    	0.900992	0.00254948	0.898361	0.908035
17 	20    	0.901257	0.00253817	0.898361	0.908035
18 	20    	0.90174 	0.00228201	0.898834	0.908035
19 	20    	0.901837	0.00219609	0.898834	0.908035
20 	20    	0.902418	0.00216907	0.900284	0.908035
21 	20    	0.902636	0.00205136	0.900284	0.908035
22 	20    	0.902903	0.00192127	0.900772	0.908035
23 	20    	0.903169	0.00191504	0.900772	0.908035
24 	20    	0.903218	0.0018651 	0.900772	0.908035
25 	20    	0.903508	0.00167833	0.90126 	0.908035
26 	20    	0.903702	0.00151117	0.901749	0.908035
27 	20    	0.903968	0.00160953	0.902222	0.908035
28 	20    	0.90438 	0.00152758	0.90271 	0.908035
29 	20    	0.90438 	0.00152758	0.90271 	0.908035
30 	20    	0.90438 	0.00152758	0.90271 	0.908035
31 	20    	0.904646	0.00139587	0.903198	0.908035
32 	20    	0.905033	0.00150622	0.903198	0.908035
33 	20    	0.905033	0.00150622	0.903198	0.908035
34 	20    	0.905589	0.00236671	0.903671	0.913849
35 	20    	0.905663	0.00232858	0.903671	0.913849
36 	20    	0.905953	0.00242281	0.903671	0.913849
37 	20    	0.905953	0.00242281	0.903671	0.913849
38 	20    	0.905953	0.00242281	0.903671	0.913849
39 	20    	0.906148	0.00235268	0.903671	0.913849
40 	20    	0.906221	0.00229658	0.90416 	0.913849
41 	20    	0.906221	0.00229658	0.90416 	0.913849
42 	20    	0.906221	0.00229658	0.90416 	0.913849
43 	20    	0.906536	0.00242106	0.90416 	0.913849
44 	20    	0.907045	0.0024137 	0.90416 	0.913849
45 	20    	0.907336	0.00239872	0.904648	0.913849
46 	20    	0.907433	0.00231098	0.904648	0.913849
47 	20    	0.907626	0.00216655	0.905136	0.913849
48 	20    	0.907626	0.00216655	0.905136	0.913849
49 	20    	0.907674	0.00212095	0.905136	0.913849
50 	20    	0.907747	0.00205677	0.905136	0.913849
51 	20    	0.907941	0.00190999	0.906097	0.913849
52 	20    	0.908304	0.00211761	0.906097	0.913849
53 	20    	0.908304	0.00211761	0.906097	0.913849
54 	20    	0.908304	0.00211761	0.906097	0.913849
55 	20    	0.908498	0.00201537	0.906586	0.913849
56 	20    	0.908546	0.00198036	0.906586	0.913849
57 	20    	0.908666	0.00193013	0.906586	0.913849
58 	20    	0.908666	0.00193013	0.906586	0.913849
59 	20    	0.908666	0.00193013	0.906586	0.913849
60 	20    	0.909005	0.00183642	0.907074	0.913849
61 	20    	0.909126	0.00178409	0.907074	0.913849
62 	20    	0.909149	0.0017597 	0.907074	0.913849
63 	20    	0.909439	0.00162781	0.907547	0.913849
64 	20    	0.909439	0.00162781	0.907547	0.913849
65 	20    	0.909439	0.00162781	0.907547	0.913849
66 	20    	0.90956 	0.00157172	0.907547	0.913849
67 	20    	0.90956 	0.00157172	0.907547	0.913849
68 	20    	0.90956 	0.00157172	0.907547	0.913849
69 	20    	0.90956 	0.00157172	0.907547	0.913849
70 	20    	0.90956 	0.00157172	0.907547	0.913849
71 	20    	0.90956 	0.00157172	0.907547	0.913849
72 	20    	0.90956 	0.00157172	0.907547	0.913849
73 	20    	0.90956 	0.00157172	0.907547	0.913849
74 	20    	0.909609	0.00152282	0.907547	0.913849
75 	20    	0.909609	0.00152282	0.907547	0.913849
76 	20    	0.909924	0.00156039	0.908035	0.913849
77 	20    	0.910335	0.00202357	0.908035	0.91626 
78 	20    	0.910335	0.00202357	0.908035	0.91626 
79 	20    	0.910504	0.00196492	0.908524	0.91626 
80 	20    	0.910504	0.00196492	0.908524	0.91626 
81 	20    	0.910528	0.00194367	0.908524	0.91626 
82 	20    	0.910938	0.00198386	0.908997	0.91626 
83 	20    	0.910938	0.00198386	0.908997	0.91626 
84 	20    	0.910938	0.00198386	0.908997	0.91626 
85 	20    	0.911035	0.00193335	0.908997	0.91626 
86 	20    	0.911108	0.00188179	0.908997	0.91626 
87 	20    	0.911133	0.00185724	0.909485	0.91626 
88 	20    	0.911133	0.00185724	0.909485	0.91626 
89 	20    	0.911133	0.00185724	0.909485	0.91626 
90 	20    	0.911133	0.00185724	0.909485	0.91626 
91 	20    	0.911133	0.00185724	0.909485	0.91626 
92 	20    	0.911133	0.00185724	0.909485	0.91626 
93 	20    	0.911133	0.00185724	0.909485	0.91626 
94 	20    	0.911182	0.00182584	0.909485	0.91626 
95 	20    	0.911448	0.00194349	0.909485	0.91626 
96 	20    	0.911448	0.00194349	0.909485	0.91626 
97 	20    	0.911448	0.00194349	0.909485	0.91626 
98 	20    	0.911448	0.00194349	0.909485	0.91626 
99 	20    	0.911448	0.00194349	0.909485	0.91626 
100	20    	0.911811	0.00195581	0.909973	0.91626 
101	20    	0.911859	0.00192157	0.909973	0.91626 
102	20    	0.911859	0.00192157	0.909973	0.91626 
103	20    	0.911932	0.00186331	0.909973	0.91626 
104	20    	0.911932	0.00186331	0.909973	0.91626 
105	20    	0.911956	0.00184054	0.909973	0.91626 
106	20    	0.91198 	0.00181717	0.910461	0.91626 
107	20    	0.91198 	0.00181717	0.910461	0.91626 
108	20    	0.91244 	0.00243203	0.910461	0.919647
109	20    	0.91244 	0.00243203	0.910461	0.919647
110	20    	0.91244 	0.00243203	0.910461	0.919647
111	20    	0.91244 	0.00243203	0.910461	0.919647
112	20    	0.91244 	0.00243203	0.910461	0.919647
113	20    	0.91244 	0.00243203	0.910461	0.919647
114	20    	0.91244 	0.00243203	0.910461	0.919647
115	20    	0.912463	0.00241492	0.910461	0.919647
116	20    	0.912536	0.00237517	0.910461	0.919647
117	20    	0.912536	0.00237517	0.910461	0.919647
118	20    	0.912608	0.00233249	0.910461	0.919647
119	20    	0.912971	0.00252582	0.910461	0.919647
120	20    	0.912971	0.00252582	0.910461	0.919647
121	20    	0.913019	0.00248645	0.910461	0.919647
122	20    	0.913091	0.00243136	0.910934	0.919647
123	20    	0.913091	0.00243136	0.910934	0.919647
124	20    	0.913091	0.00243136	0.910934	0.919647
125	20    	0.913091	0.00243136	0.910934	0.919647
126	20    	0.913091	0.00243136	0.910934	0.919647
127	20    	0.913091	0.00243136	0.910934	0.919647
128	20    	0.913091	0.00243136	0.910934	0.919647
129	20    	0.913358	0.00247184	0.910934	0.919647
130	20    	0.913358	0.00247184	0.910934	0.919647
131	20    	0.913358	0.00247184	0.910934	0.919647
132	20    	0.913358	0.00247184	0.910934	0.919647
133	20    	0.913358	0.00247184	0.910934	0.919647
134	20    	0.913358	0.00247184	0.910934	0.919647
135	20    	0.913358	0.00247184	0.910934	0.919647
136	20    	0.913406	0.00243283	0.910934	0.919647
137	20    	0.913406	0.00243283	0.910934	0.919647
138	20    	0.913406	0.00243283	0.910934	0.919647
139	20    	0.913406	0.00243283	0.910934	0.919647
140	20    	0.913406	0.00243283	0.910934	0.919647
141	20    	0.913576	0.002372  	0.910934	0.919647
142	20    	0.913576	0.002372  	0.910934	0.919647
143	20    	0.913625	0.00232674	0.910934	0.919647
144	20    	0.913625	0.00232674	0.910934	0.919647
145	20    	0.913625	0.00232674	0.910934	0.919647
146	20    	0.913625	0.00232674	0.910934	0.919647
147	20    	0.913625	0.00232674	0.910934	0.919647
148	20    	0.913673	0.00227955	0.911423	0.919647
149	20    	0.913673	0.00227955	0.911423	0.919647
150	20    	0.913673	0.00227955	0.911423	0.919647
151	20    	0.913673	0.00227955	0.911423	0.919647
152	20    	0.913721	0.0022414 	0.911423	0.919647
153	20    	0.913721	0.0022414 	0.911423	0.919647
154	20    	0.913818	0.002181  	0.911423	0.919647
155	20    	0.914011	0.0020756 	0.911911	0.919647
156	20    	0.914011	0.0020756 	0.911911	0.919647
157	20    	0.914084	0.00202569	0.911911	0.919647
158	20    	0.914204	0.00196359	0.911911	0.919647
159	20    	0.914204	0.00196359	0.911911	0.919647
160	20    	0.914204	0.00196359	0.911911	0.919647
161	20    	0.914204	0.00196359	0.911911	0.919647
162	20    	0.914204	0.00196359	0.911911	0.919647
163	20    	0.914204	0.00196359	0.911911	0.919647
164	20    	0.914204	0.00196359	0.911911	0.919647
165	20    	0.914204	0.00196359	0.911911	0.919647
166	20    	0.914204	0.00196359	0.911911	0.919647
167	20    	0.914204	0.00196359	0.911911	0.919647
168	20    	0.914301	0.00189463	0.911911	0.919647
169	20    	0.914301	0.00189463	0.911911	0.919647
170	20    	0.914446	0.00181546	0.911911	0.919647
171	20    	0.91447 	0.0017851 	0.912384	0.919647
172	20    	0.91447 	0.0017851 	0.912384	0.919647
173	20    	0.91447 	0.0017851 	0.912384	0.919647
174	20    	0.91447 	0.0017851 	0.912384	0.919647
175	20    	0.91447 	0.0017851 	0.912384	0.919647
176	20    	0.91447 	0.0017851 	0.912384	0.919647
177	20    	0.91447 	0.0017851 	0.912384	0.919647
178	20    	0.91447 	0.0017851 	0.912384	0.919647
179	20    	0.91447 	0.0017851 	0.912384	0.919647
180	20    	0.914688	0.00178352	0.912384	0.919647
181	20    	0.914688	0.00178352	0.912384	0.919647
182	20    	0.914688	0.00178352	0.912384	0.919647
183	20    	0.914688	0.00178352	0.912384	0.919647
184	20    	0.914688	0.00178352	0.912384	0.919647
185	20    	0.914688	0.00178352	0.912384	0.919647
186	20    	0.914688	0.00178352	0.912384	0.919647
187	20    	0.914688	0.00178352	0.912384	0.919647
188	20    	0.914688	0.00178352	0.912384	0.919647
189	20    	0.914688	0.00178352	0.912384	0.919647
190	20    	0.914688	0.00178352	0.912384	0.919647
191	20    	0.914688	0.00178352	0.912384	0.919647
192	20    	0.914688	0.00178352	0.912384	0.919647
193	20    	0.914688	0.00178352	0.912384	0.919647
194	20    	0.914761	0.0017162 	0.912872	0.919647
195	20    	0.914761	0.0017162 	0.912872	0.919647
196	20    	0.914931	0.00160299	0.912872	0.919647
197	20    	0.914931	0.00160299	0.912872	0.919647
198	20    	0.914931	0.00160299	0.912872	0.919647
199	20    	0.914931	0.00160299	0.912872	0.919647
200	20    	0.914931	0.00160299	0.912872	0.919647
201	20    	0.914955	0.00157493	0.913361	0.919647
202	20    	0.915125	0.00157649	0.913361	0.919647
203	20    	0.915125	0.00157649	0.913361	0.919647
204	20    	0.915125	0.00157649	0.913361	0.919647
205	20    	0.915125	0.00157649	0.913361	0.919647
206	20    	0.915125	0.00157649	0.913361	0.919647
207	20    	0.915125	0.00157649	0.913361	0.919647
208	20    	0.915125	0.00157649	0.913361	0.919647
209	20    	0.915125	0.00157649	0.913361	0.919647
210	20    	0.915585	0.0022099 	0.913361	0.922562
211	20    	0.915609	0.00218778	0.913849	0.922562
212	20    	0.915609	0.00218778	0.913849	0.922562
213	20    	0.915657	0.00215895	0.913849	0.922562
214	20    	0.915657	0.00215895	0.913849	0.922562
215	20    	0.915705	0.00212865	0.913849	0.922562
216	20    	0.915705	0.00212865	0.913849	0.922562
217	20    	0.915705	0.00212865	0.913849	0.922562
218	20    	0.915705	0.00212865	0.913849	0.922562
219	20    	0.915753	0.00209681	0.913849	0.922562
220	20    	0.915753	0.00209681	0.913849	0.922562
221	20    	0.915874	0.0020527 	0.914322	0.922562
222	20    	0.916238	0.00208053	0.914322	0.922562
223	20    	0.916238	0.00208053	0.914322	0.922562
224	20    	0.916407	0.00205541	0.914322	0.922562
225	20    	0.916431	0.00203328	0.914322	0.922562
226	20    	0.916431	0.00203328	0.914322	0.922562
227	20    	0.916431	0.00203328	0.914322	0.922562
228	20    	0.91665 	0.00202934	0.91481 	0.922562
229	20    	0.91665 	0.00202934	0.91481 	0.922562
230	20    	0.917207	0.00201124	0.91481 	0.922562
231	20    	0.917425	0.00189027	0.91481 	0.922562
232	20    	0.917425	0.00189027	0.91481 	0.922562
233	20    	0.917425	0.00189027	0.91481 	0.922562
234	20    	0.917449	0.00185924	0.91481 	0.922562
235	20    	0.917594	0.0017581 	0.91481 	0.922562
236	20    	0.917594	0.0017581 	0.91481 	0.922562
237	20    	0.917643	0.00169244	0.915298	0.922562
238	20    	0.917643	0.00169244	0.915298	0.922562
239	20    	0.917643	0.00169244	0.915298	0.922562
240	20    	0.917643	0.00169244	0.915298	0.922562
241	20    	0.917643	0.00169244	0.915298	0.922562
242	20    	0.917643	0.00169244	0.915298	0.922562
243	20    	0.917643	0.00169244	0.915298	0.922562
244	20    	0.91774 	0.00160885	0.915787	0.922562
245	20    	0.91774 	0.00160885	0.915787	0.922562
246	20    	0.91774 	0.00160885	0.915787	0.922562
247	20    	0.91774 	0.00160885	0.915787	0.922562
248	20    	0.91774 	0.00160885	0.915787	0.922562
249	20    	0.91774 	0.00160885	0.915787	0.922562
250	20    	0.91774 	0.00160885	0.915787	0.922562
251	20    	0.917764	0.00158324	0.915787	0.922562
252	20    	0.917933	0.0015434 	0.91626 	0.922562
253	20    	0.917933	0.0015434 	0.91626 	0.922562
254	20    	0.917933	0.0015434 	0.91626 	0.922562
255	20    	0.917933	0.0015434 	0.91626 	0.922562
256	20    	0.917933	0.0015434 	0.91626 	0.922562
257	20    	0.917933	0.0015434 	0.91626 	0.922562
258	20    	0.917933	0.0015434 	0.91626 	0.922562
259	20    	0.917933	0.0015434 	0.91626 	0.922562
260	20    	0.918054	0.00150191	0.91626 	0.922562
261	20    	0.918079	0.0014763 	0.91626 	0.922562
262	20    	0.918079	0.0014763 	0.91626 	0.922562
263	20    	0.918079	0.0014763 	0.91626 	0.922562
264	20    	0.918079	0.0014763 	0.91626 	0.922562
265	20    	0.918079	0.0014763 	0.91626 	0.922562
266	20    	0.918079	0.0014763 	0.91626 	0.922562
267	20    	0.918079	0.0014763 	0.91626 	0.922562
268	20    	0.918079	0.0014763 	0.91626 	0.922562
269	20    	0.918079	0.0014763 	0.91626 	0.922562
270	20    	0.918176	0.00139089	0.916748	0.922562
271	20    	0.918176	0.00139089	0.916748	0.922562
272	20    	0.918176	0.00139089	0.916748	0.922562
273	20    	0.918176	0.00139089	0.916748	0.922562
274	20    	0.918176	0.00139089	0.916748	0.922562
275	20    	0.918176	0.00139089	0.916748	0.922562
276	20    	0.918176	0.00139089	0.916748	0.922562
277	20    	0.918176	0.00139089	0.916748	0.922562
278	20    	0.918176	0.00139089	0.916748	0.922562
279	20    	0.918176	0.00139089	0.916748	0.922562
280	20    	0.918369	0.00144736	0.916748	0.922562
281	20    	0.918369	0.00144736	0.916748	0.922562
282	20    	0.918369	0.00144736	0.916748	0.922562
283	20    	0.918369	0.00144736	0.916748	0.922562
284	20    	0.918369	0.00144736	0.916748	0.922562
285	20    	0.918394	0.00142373	0.916748	0.922562
286	20    	0.918394	0.00142373	0.916748	0.922562
287	20    	0.918394	0.00142373	0.916748	0.922562
288	20    	0.918394	0.00142373	0.916748	0.922562
289	20    	0.918394	0.00142373	0.916748	0.922562
290	20    	0.918394	0.00142373	0.916748	0.922562
291	20    	0.918394	0.00142373	0.916748	0.922562
292	20    	0.918394	0.00142373	0.916748	0.922562
293	20    	0.918394	0.00142373	0.916748	0.922562
294	20    	0.918394	0.00142373	0.916748	0.922562
295	20    	0.918394	0.00142373	0.916748	0.922562
296	20    	0.918394	0.00142373	0.916748	0.922562
297	20    	0.918442	0.00138301	0.916748	0.922562
298	20    	0.918442	0.00138301	0.916748	0.922562
299	20    	0.91849 	0.00133932	0.917236	0.922562
300	20    	0.91849 	0.00133932	0.917236	0.922562
301	20    	0.91849 	0.00133932	0.917236	0.922562
302	20    	0.918513	0.00132103	0.917236	0.922562
303	20    	0.918513	0.00132103	0.917236	0.922562
304	20    	0.918513	0.00132103	0.917236	0.922562
305	20    	0.918513	0.00132103	0.917236	0.922562
306	20    	0.918513	0.00132103	0.917236	0.922562
307	20    	0.918513	0.00132103	0.917236	0.922562
308	20    	0.918513	0.00132103	0.917236	0.922562
309	20    	0.918513	0.00132103	0.917236	0.922562
310	20    	0.918513	0.00132103	0.917236	0.922562
311	20    	0.918513	0.00132103	0.917236	0.922562
312	20    	0.918513	0.00132103	0.917236	0.922562
313	20    	0.918513	0.00132103	0.917236	0.922562
314	20    	0.918513	0.00132103	0.917236	0.922562
315	20    	0.918513	0.00132103	0.917236	0.922562
316	20    	0.918513	0.00132103	0.917236	0.922562
317	20    	0.918513	0.00132103	0.917236	0.922562
318	20    	0.918513	0.00132103	0.917236	0.922562
319	20    	0.918513	0.00132103	0.917236	0.922562
320	20    	0.918513	0.00132103	0.917236	0.922562
321	20    	0.918513	0.00132103	0.917236	0.922562
322	20    	0.918513	0.00132103	0.917236	0.922562
323	20    	0.918513	0.00132103	0.917236	0.922562
324	20    	0.918513	0.00132103	0.917236	0.922562
325	20    	0.918513	0.00132103	0.917236	0.922562
326	20    	0.918513	0.00132103	0.917236	0.922562
327	20    	0.918513	0.00132103	0.917236	0.922562
328	20    	0.918513	0.00132103	0.917236	0.922562
329	20    	0.918513	0.00132103	0.917236	0.922562
330	20    	0.918731	0.001445  	0.917236	0.922562
331	20    	0.918731	0.001445  	0.917236	0.922562
332	20    	0.918731	0.001445  	0.917236	0.922562
333	20    	0.918731	0.001445  	0.917236	0.922562
334	20    	0.918731	0.001445  	0.917236	0.922562
335	20    	0.918731	0.001445  	0.917236	0.922562
336	20    	0.918755	0.00142406	0.917236	0.922562
337	20    	0.918755	0.00142406	0.917236	0.922562
338	20    	0.918755	0.00142406	0.917236	0.922562
339	20    	0.918755	0.00142406	0.917236	0.922562
340	20    	0.918755	0.00142406	0.917236	0.922562
341	20    	0.918778	0.00140241	0.917709	0.922562
342	20    	0.918778	0.00140241	0.917709	0.922562
343	20    	0.918778	0.00140241	0.917709	0.922562
344	20    	0.919044	0.00165668	0.917709	0.923035
345	20    	0.919044	0.00165668	0.917709	0.923035
346	20    	0.919044	0.00165668	0.917709	0.923035
347	20    	0.919044	0.00165668	0.917709	0.923035
348	20    	0.919044	0.00165668	0.917709	0.923035
349	20    	0.919044	0.00165668	0.917709	0.923035
350	20    	0.919044	0.00165668	0.917709	0.923035
351	20    	0.919044	0.00165668	0.917709	0.923035
352	20    	0.919044	0.00165668	0.917709	0.923035
353	20    	0.919044	0.00165668	0.917709	0.923035
354	20    	0.919044	0.00165668	0.917709	0.923035
355	20    	0.919044	0.00165668	0.917709	0.923035
356	20    	0.919044	0.00165668	0.917709	0.923035
357	20    	0.919044	0.00165668	0.917709	0.923035
358	20    	0.919141	0.00163225	0.917709	0.923035
359	20    	0.919141	0.00163225	0.917709	0.923035
360	20    	0.919141	0.00163225	0.917709	0.923035
361	20    	0.919141	0.00163225	0.917709	0.923035
362	20    	0.919166	0.0016142 	0.917709	0.923035
363	20    	0.919166	0.0016142 	0.917709	0.923035
364	20    	0.919166	0.0016142 	0.917709	0.923035
365	20    	0.919166	0.0016142 	0.917709	0.923035
366	20    	0.919166	0.0016142 	0.917709	0.923035
367	20    	0.919166	0.0016142 	0.917709	0.923035
368	20    	0.919166	0.0016142 	0.917709	0.923035
369	20    	0.919215	0.00158389	0.917709	0.923035
370	20    	0.919215	0.00158389	0.917709	0.923035
371	20    	0.919215	0.00158389	0.917709	0.923035
372	20    	0.919215	0.00158389	0.917709	0.923035
373	20    	0.919215	0.00158389	0.917709	0.923035
374	20    	0.919215	0.00158389	0.917709	0.923035
375	20    	0.919215	0.00158389	0.917709	0.923035
376	20    	0.919263	0.00155145	0.917709	0.923035
377	20    	0.919263	0.00155145	0.917709	0.923035
378	20    	0.919263	0.00155145	0.917709	0.923035
379	20    	0.919263	0.00155145	0.917709	0.923035
380	20    	0.919263	0.00155145	0.917709	0.923035
381	20    	0.919263	0.00155145	0.917709	0.923035
382	20    	0.919554	0.00176321	0.917709	0.923523
383	20    	0.919554	0.00176321	0.917709	0.923523
384	20    	0.919554	0.00176321	0.917709	0.923523
385	20    	0.919554	0.00176321	0.917709	0.923523
386	20    	0.919554	0.00176321	0.917709	0.923523
387	20    	0.919554	0.00176321	0.917709	0.923523
388	20    	0.919554	0.00176321	0.917709	0.923523
389	20    	0.919554	0.00176321	0.917709	0.923523
390	20    	0.919603	0.00172455	0.917709	0.923523
391	20    	0.919603	0.00172455	0.917709	0.923523
392	20    	0.919603	0.00172455	0.917709	0.923523
393	20    	0.919894	0.0018651 	0.917709	0.923523
394	20    	0.919894	0.0018651 	0.917709	0.923523
395	20    	0.920039	0.00180151	0.918198	0.923523
396	20    	0.920039	0.00180151	0.918198	0.923523
397	20    	0.920039	0.00180151	0.918198	0.923523
398	20    	0.920039	0.00180151	0.918198	0.923523
399	20    	0.920039	0.00180151	0.918198	0.923523
400	20    	0.920039	0.00180151	0.918198	0.923523
401	20    	0.920039	0.00180151	0.918198	0.923523
402	20    	0.920039	0.00180151	0.918198	0.923523
403	20    	0.920039	0.00180151	0.918198	0.923523
404	20    	0.920039	0.00180151	0.918198	0.923523
405	20    	0.920039	0.00180151	0.918198	0.923523
406	20    	0.920039	0.00180151	0.918198	0.923523
407	20    	0.920039	0.00180151	0.918198	0.923523
408	20    	0.920039	0.00180151	0.918198	0.923523
409	20    	0.920039	0.00180151	0.918198	0.923523
410	20    	0.920039	0.00180151	0.918198	0.923523
411	20    	0.920039	0.00180151	0.918198	0.923523
412	20    	0.920039	0.00180151	0.918198	0.923523
413	20    	0.920039	0.00180151	0.918198	0.923523
414	20    	0.920039	0.00180151	0.918198	0.923523
415	20    	0.920039	0.00180151	0.918198	0.923523
416	20    	0.920039	0.00180151	0.918198	0.923523
417	20    	0.920039	0.00180151	0.918198	0.923523
418	20    	0.920039	0.00180151	0.918198	0.923523
419	20    	0.920136	0.00175126	0.918198	0.923523
420	20    	0.920136	0.00175126	0.918198	0.923523
421	20    	0.920136	0.00175126	0.918198	0.923523
422	20    	0.920136	0.00175126	0.918198	0.923523
423	20    	0.920306	0.00171909	0.918198	0.923523
424	20    	0.920306	0.00171909	0.918198	0.923523
425	20    	0.920306	0.00171909	0.918198	0.923523
426	20    	0.920451	0.00165632	0.918686	0.923523
427	20    	0.920451	0.00165632	0.918686	0.923523
428	20    	0.920451	0.00165632	0.918686	0.923523
429	20    	0.920451	0.00165632	0.918686	0.923523
430	20    	0.920451	0.00165632	0.918686	0.923523
431	20    	0.920451	0.00165632	0.918686	0.923523
432	20    	0.920451	0.00165632	0.918686	0.923523
433	20    	0.920451	0.00165632	0.918686	0.923523
434	20    	0.920451	0.00165632	0.918686	0.923523
435	20    	0.920451	0.00165632	0.918686	0.923523
436	20    	0.920451	0.00165632	0.918686	0.923523
437	20    	0.920451	0.00165632	0.918686	0.923523
438	20    	0.920451	0.00165632	0.918686	0.923523
439	20    	0.920451	0.00165632	0.918686	0.923523
440	20    	0.920451	0.00165632	0.918686	0.923523
441	20    	0.920475	0.00163357	0.918686	0.923523
442	20    	0.920475	0.00163357	0.918686	0.923523
443	20    	0.920475	0.00163357	0.918686	0.923523
444	20    	0.920475	0.00163357	0.918686	0.923523
445	20    	0.920475	0.00163357	0.918686	0.923523
446	20    	0.920475	0.00163357	0.918686	0.923523
447	20    	0.920475	0.00163357	0.918686	0.923523
448	20    	0.920475	0.00163357	0.918686	0.923523
449	20    	0.920475	0.00163357	0.918686	0.923523
450	20    	0.920475	0.00163357	0.918686	0.923523
451	20    	0.920475	0.00163357	0.918686	0.923523
452	20    	0.920475	0.00163357	0.918686	0.923523
453	20    	0.920475	0.00163357	0.918686	0.923523
454	20    	0.920547	0.00158398	0.918686	0.923523
455	20    	0.920547	0.00158398	0.918686	0.923523
456	20    	0.920547	0.00158398	0.918686	0.923523
457	20    	0.920547	0.00158398	0.918686	0.923523
458	20    	0.920547	0.00158398	0.918686	0.923523
459	20    	0.920547	0.00158398	0.918686	0.923523
460	20    	0.920547	0.00158398	0.918686	0.923523
461	20    	0.920547	0.00158398	0.918686	0.923523
462	20    	0.920547	0.00158398	0.918686	0.923523
463	20    	0.920668	0.00152849	0.918686	0.923523
464	20    	0.920668	0.00152849	0.918686	0.923523
465	20    	0.920668	0.00152849	0.918686	0.923523
466	20    	0.920668	0.00152849	0.918686	0.923523
467	20    	0.920668	0.00152849	0.918686	0.923523
468	20    	0.920668	0.00152849	0.918686	0.923523
469	20    	0.920668	0.00152849	0.918686	0.923523
470	20    	0.920668	0.00152849	0.918686	0.923523
471	20    	0.920668	0.00152849	0.918686	0.923523
472	20    	0.920668	0.00152849	0.918686	0.923523
473	20    	0.920668	0.00152849	0.918686	0.923523
474	20    	0.920668	0.00152849	0.918686	0.923523
475	20    	0.920958	0.00166853	0.918686	0.924484
476	20    	0.920958	0.00166853	0.918686	0.924484
477	20    	0.920958	0.00166853	0.918686	0.924484
478	20    	0.920958	0.00166853	0.918686	0.924484
479	20    	0.920958	0.00166853	0.918686	0.924484
480	20    	0.920958	0.00166853	0.918686	0.924484
481	20    	0.920958	0.00166853	0.918686	0.924484
482	20    	0.920958	0.00166853	0.918686	0.924484
483	20    	0.920958	0.00166853	0.918686	0.924484
484	20    	0.920958	0.00166853	0.918686	0.924484
485	20    	0.920958	0.00166853	0.918686	0.924484
486	20    	0.920958	0.00166853	0.918686	0.924484
487	20    	0.920958	0.00166853	0.918686	0.924484
488	20    	0.920958	0.00166853	0.918686	0.924484
489	20    	0.920958	0.00166853	0.918686	0.924484
490	20    	0.920958	0.00166853	0.918686	0.924484
491	20    	0.920958	0.00166853	0.918686	0.924484
492	20    	0.920958	0.00166853	0.918686	0.924484
493	20    	0.920958	0.00166853	0.918686	0.924484
494	20    	0.920958	0.00166853	0.918686	0.924484
495	20    	0.920958	0.00166853	0.918686	0.924484
496	20    	0.920958	0.00166853	0.918686	0.924484
497	20    	0.920958	0.00166853	0.918686	0.924484
498	20    	0.920958	0.00166853	0.918686	0.924484
499	20    	0.920958	0.00166853	0.918686	0.924484
