Run:109 Evals:10000 MES:10000.0 MAD:0.0 FAILURES:96 Best:0.9356536865234375 Solution:(
Run:110 Evals:10000 MES:10000.0 MAD:0.0 FAILURES:97 Best:0.9396514892578125 Solution:(
Run:111 Evals:10000 MES:10000.0 MAD:0.0 FAILURES:98 Best:0.93316650390625 Solution:(
Run:112 Evals:10000 MES:10000.0 MAD:0.0 FAILURES:99 Best:0.93121337890625 Solution:(
Run:113 Evals:10000 MES:10000.0 MAD:0.0 FAILURES:100 Best:0.9325103759765625 Solution:(
Run:114 Evals:10000 MES:10000.0 MAD:0.0 FAILURES:101 Best:0.9370574951171875 Solution:(
Run:115 Evals:10000 MES:10000.0 MAD:0.0 FAILURES:102 Best:0.9299163818359375 Solution:(
Run:116 Evals:10000 MES:10000.0 MAD:0.0 FAILURES:103 Best:0.935760498046875 Solution:(
Run:117 Evals:10000 MES:10000.0 MAD:0.0 FAILURES:104 Best:0.933807373046875 Solution:(
Run:118 Evals:10000 MES:10000.0 MAD:0.0 FAILURES:105 Best:0.9376983642578125 Solution:(

