gen	nevals	avg     	std        	min     	max     
0  	20    	0.87476 	0.0055971  	0.862152	0.885605
1  	20    	0.880414	0.00377431 	0.875961	0.889465
2  	20    	0.882874	0.00304896 	0.87854 	0.889465
3  	20    	0.884768	0.00200191 	0.881424	0.889465
4  	20    	0.885653	0.00145164 	0.883026	0.889465
5  	20    	0.886664	0.00183351 	0.884964	0.89267 
6  	20    	0.887402	0.00180964 	0.885605	0.89267 
7  	20    	0.887866	0.00153943 	0.885925	0.89267 
8  	20    	0.888524	0.00180908 	0.886566	0.893951
9  	20    	0.889344	0.00187023 	0.887527	0.893951
10 	20    	0.890134	0.00163143 	0.888168	0.893951
11 	20    	0.890504	0.00195141 	0.888168	0.895569
12 	20    	0.891293	0.00196533 	0.888824	0.895569
13 	20    	0.891935	0.00179095 	0.889465	0.895569
14 	20    	0.89314 	0.00166031 	0.890427	0.89621 
15 	20    	0.893878	0.00153305 	0.892029	0.896851
16 	20    	0.895003	0.00206606 	0.89267 	0.901352
17 	20    	0.895549	0.00211096 	0.893311	0.901352
18 	20    	0.896065	0.0020085  	0.893951	0.901352
19 	20    	0.896387	0.00190978 	0.894287	0.901352
20 	20    	0.896547	0.00181601 	0.894608	0.901352
21 	20    	0.896675	0.00176434 	0.894928	0.901352
22 	20    	0.896675	0.00176434 	0.894928	0.901352
23 	20    	0.896867	0.00163748 	0.894928	0.901352
24 	20    	0.896964	0.00154981 	0.895248	0.901352
25 	20    	0.896964	0.00154981 	0.895248	0.901352
26 	20    	0.896964	0.00154981 	0.895248	0.901352
27 	20    	0.897269	0.0015503  	0.895569	0.901352
28 	20    	0.898103	0.0020467  	0.89621 	0.903275
29 	20    	0.898777	0.00194399 	0.89653 	0.903275
30 	20    	0.899066	0.00189863 	0.896851	0.903275
31 	20    	0.899725	0.00202389 	0.896851	0.904556
32 	20    	0.899933	0.00183407 	0.897491	0.904556
33 	20    	0.900046	0.00174777 	0.897812	0.904556
34 	20    	0.900704	0.00196799 	0.898453	0.904877
35 	20    	0.900704	0.00196799 	0.898453	0.904877
36 	20    	0.90072 	0.00195083 	0.898773	0.904877
37 	20    	0.900977	0.00201508 	0.898773	0.904877
38 	20    	0.901122	0.00195468 	0.898773	0.904877
39 	20    	0.901412	0.00179308 	0.899094	0.904877
40 	20    	0.901445	0.00175598 	0.899414	0.904877
41 	20    	0.901702	0.00181525 	0.899414	0.904877
42 	20    	0.901912	0.00165341 	0.899414	0.904877
43 	20    	0.902506	0.00163073 	0.89975 	0.906494
44 	20    	0.902859	0.00170216 	0.901031	0.906494
45 	20    	0.902859	0.00170216 	0.901031	0.906494
46 	20    	0.902924	0.00165562 	0.901352	0.906494
47 	20    	0.902956	0.00163091 	0.901352	0.906494
48 	20    	0.902956	0.00163091 	0.901352	0.906494
49 	20    	0.902956	0.00163091 	0.901352	0.906494
50 	20    	0.902956	0.00163091 	0.901352	0.906494
51 	20    	0.902956	0.00163091 	0.901352	0.906494
52 	20    	0.902956	0.00163091 	0.901352	0.906494
53 	20    	0.903052	0.00158969 	0.901352	0.906494
54 	20    	0.903116	0.00154509 	0.901352	0.906494
55 	20    	0.903228	0.00146226 	0.901672	0.906494
56 	20    	0.90326 	0.00143458 	0.901672	0.906494
57 	20    	0.90326 	0.00143458 	0.901672	0.906494
58 	20    	0.903404	0.00141252 	0.901672	0.906494
59 	20    	0.903452	0.00136844 	0.901993	0.906494
60 	20    	0.903468	0.00135304 	0.901993	0.906494
61 	20    	0.903468	0.00135304 	0.901993	0.906494
62 	20    	0.903548	0.00131006 	0.901993	0.906494
63 	20    	0.903548	0.00131006 	0.901993	0.906494
64 	20    	0.903548	0.00131006 	0.901993	0.906494
65 	20    	0.903548	0.00131006 	0.901993	0.906494
66 	20    	0.903548	0.00131006 	0.901993	0.906494
67 	20    	0.903548	0.00131006 	0.901993	0.906494
68 	20    	0.903548	0.00131006 	0.901993	0.906494
69 	20    	0.903548	0.00131006 	0.901993	0.906494
70 	20    	0.903548	0.00131006 	0.901993	0.906494
71 	20    	0.903548	0.00131006 	0.901993	0.906494
72 	20    	0.903548	0.00131006 	0.901993	0.906494
73 	20    	0.903548	0.00131006 	0.901993	0.906494
74 	20    	0.903548	0.00131006 	0.901993	0.906494
75 	20    	0.903548	0.00131006 	0.901993	0.906494
76 	20    	0.903548	0.00131006 	0.901993	0.906494
77 	20    	0.903548	0.00131006 	0.901993	0.906494
78 	20    	0.903548	0.00131006 	0.901993	0.906494
79 	20    	0.903548	0.00131006 	0.901993	0.906494
80 	20    	0.903548	0.00131006 	0.901993	0.906494
81 	20    	0.903548	0.00131006 	0.901993	0.906494
82 	20    	0.903613	0.00126289 	0.902313	0.906494
83 	20    	0.903613	0.00126289 	0.902313	0.906494
84 	20    	0.903613	0.00126289 	0.902313	0.906494
85 	20    	0.903613	0.00126289 	0.902313	0.906494
86 	20    	0.903613	0.00126289 	0.902313	0.906494
87 	20    	0.903613	0.00126289 	0.902313	0.906494
88 	20    	0.903822	0.00137185 	0.902313	0.906494
89 	20    	0.903822	0.00137185 	0.902313	0.906494
90 	20    	0.903822	0.00137185 	0.902313	0.906494
91 	20    	0.903822	0.00137185 	0.902313	0.906494
92 	20    	0.903822	0.00137185 	0.902313	0.906494
93 	20    	0.903822	0.00137185 	0.902313	0.906494
94 	20    	0.904047	0.00147155 	0.902313	0.906815
95 	20    	0.904047	0.00147155 	0.902313	0.906815
96 	20    	0.904047	0.00147155 	0.902313	0.906815
97 	20    	0.904079	0.0014401  	0.902313	0.906815
98 	20    	0.904095	0.00142204 	0.902634	0.906815
99 	20    	0.904593	0.00160498 	0.902634	0.908096
100	20    	0.904593	0.00160498 	0.902634	0.908096
101	20    	0.904593	0.00160498 	0.902634	0.908096
102	20    	0.904593	0.00160498 	0.902634	0.908096
103	20    	0.904754	0.00153122 	0.902954	0.908096
104	20    	0.90522 	0.0017126  	0.903275	0.909378
105	20    	0.90522 	0.0017126  	0.903275	0.909378
106	20    	0.905252	0.00168162 	0.903275	0.909378
107	20    	0.905252	0.00168162 	0.903275	0.909378
108	20    	0.905252	0.00168162 	0.903275	0.909378
109	20    	0.905542	0.0015613  	0.903275	0.909378
110	20    	0.905719	0.001437   	0.903595	0.909378
111	20    	0.905719	0.001437   	0.903595	0.909378
112	20    	0.905719	0.001437   	0.903595	0.909378
113	20    	0.905719	0.001437   	0.903595	0.909378
114	20    	0.905719	0.001437   	0.903595	0.909378
115	20    	0.905719	0.001437   	0.903595	0.909378
116	20    	0.905719	0.001437   	0.903595	0.909378
117	20    	0.905816	0.00135342 	0.903915	0.909378
118	20    	0.905816	0.00135342 	0.903915	0.909378
119	20    	0.905848	0.00131509 	0.903915	0.909378
120	20    	0.90588 	0.0012748  	0.904236	0.909378
121	20    	0.906073	0.00130319 	0.904556	0.909378
122	20    	0.906073	0.00130319 	0.904556	0.909378
123	20    	0.906106	0.00127249 	0.904556	0.909378
124	20    	0.906235	0.00123916 	0.904556	0.909378
125	20    	0.906235	0.00123916 	0.904556	0.909378
126	20    	0.906235	0.00123916 	0.904556	0.909378
127	20    	0.906235	0.00123916 	0.904556	0.909378
128	20    	0.906235	0.00123916 	0.904556	0.909378
129	20    	0.906235	0.00123916 	0.904556	0.909378
130	20    	0.906235	0.00123916 	0.904556	0.909378
131	20    	0.906332	0.0011784  	0.904556	0.909378
132	20    	0.906461	0.00111655 	0.904556	0.909378
133	20    	0.906525	0.00103904 	0.904877	0.909378
134	20    	0.906542	0.0010147  	0.905212	0.909378
135	20    	0.906638	0.000974432	0.905212	0.909378
136	20    	0.906718	0.000918144	0.905533	0.909378
137	20    	0.906718	0.000918144	0.905533	0.909378
138	20    	0.906718	0.000918144	0.905533	0.909378
139	20    	0.906799	0.000880321	0.905533	0.909378
140	20    	0.906799	0.000880321	0.905533	0.909378
141	20    	0.906799	0.000880321	0.905533	0.909378
142	20    	0.906799	0.000880321	0.905533	0.909378
143	20    	0.906799	0.000880321	0.905533	0.909378
144	20    	0.906799	0.000880321	0.905533	0.909378
145	20    	0.906799	0.000880321	0.905533	0.909378
146	20    	0.906799	0.000880321	0.905533	0.909378
147	20    	0.906943	0.000897217	0.905853	0.909378
148	20    	0.906943	0.000897217	0.905853	0.909378
149	20    	0.906943	0.000897217	0.905853	0.909378
150	20    	0.906943	0.000897217	0.905853	0.909378
151	20    	0.906943	0.000897217	0.905853	0.909378
152	20    	0.907007	0.000862201	0.905853	0.909378
153	20    	0.907007	0.000862201	0.905853	0.909378
154	20    	0.907007	0.000862201	0.905853	0.909378
155	20    	0.907007	0.000862201	0.905853	0.909378
156	20    	0.907167	0.000928155	0.906174	0.909378
157	20    	0.907167	0.000928155	0.906174	0.909378
158	20    	0.907488	0.00118786 	0.906174	0.910995
159	20    	0.907488	0.00118786 	0.906174	0.910995
160	20    	0.907488	0.00118786 	0.906174	0.910995
161	20    	0.907488	0.00118786 	0.906174	0.910995
162	20    	0.907488	0.00118786 	0.906174	0.910995
163	20    	0.907536	0.00115262 	0.906494	0.910995
164	20    	0.90797 	0.00146386 	0.906494	0.911316
165	20    	0.908179	0.00138597 	0.906494	0.911316
166	20    	0.908179	0.00138597 	0.906494	0.911316
167	20    	0.908179	0.00138597 	0.906494	0.911316
168	20    	0.908307	0.00131894 	0.906815	0.911316
169	20    	0.908307	0.00131894 	0.906815	0.911316
170	20    	0.908483	0.00130818 	0.907135	0.911316
171	20    	0.908483	0.00130818 	0.907135	0.911316
172	20    	0.908483	0.00130818 	0.907135	0.911316
173	20    	0.908531	0.001275   	0.907135	0.911316
174	20    	0.908531	0.001275   	0.907135	0.911316
175	20    	0.908531	0.001275   	0.907135	0.911316
176	20    	0.908531	0.001275   	0.907135	0.911316
177	20    	0.908692	0.0012917  	0.907135	0.911316
178	20    	0.908692	0.0012917  	0.907135	0.911316
179	20    	0.908692	0.0012917  	0.907135	0.911316
180	20    	0.908708	0.00127416 	0.907135	0.911316
181	20    	0.908708	0.00127416 	0.907135	0.911316
182	20    	0.908708	0.00127416 	0.907135	0.911316
183	20    	0.908708	0.00127416 	0.907135	0.911316
184	20    	0.908708	0.00127416 	0.907135	0.911316
185	20    	0.908708	0.00127416 	0.907135	0.911316
186	20    	0.908708	0.00127416 	0.907135	0.911316
187	20    	0.908724	0.00125616 	0.907135	0.911316
188	20    	0.908788	0.00120511 	0.907135	0.911316
189	20    	0.908788	0.00120511 	0.907135	0.911316
190	20    	0.908788	0.00120511 	0.907135	0.911316
191	20    	0.908868	0.00114426 	0.907455	0.911316
192	20    	0.908868	0.00114426 	0.907455	0.911316
193	20    	0.908868	0.00114426 	0.907455	0.911316
194	20    	0.908868	0.00114426 	0.907455	0.911316
195	20    	0.908868	0.00114426 	0.907455	0.911316
196	20    	0.908868	0.00114426 	0.907455	0.911316
197	20    	0.908868	0.00114426 	0.907455	0.911316
198	20    	0.908981	0.00110968 	0.907455	0.911316
199	20    	0.909013	0.00107385 	0.907455	0.911316
200	20    	0.909158	0.00104926 	0.907776	0.911316
201	20    	0.909158	0.00104926 	0.907776	0.911316
202	20    	0.909158	0.00104926 	0.907776	0.911316
203	20    	0.909158	0.00104926 	0.907776	0.911316
204	20    	0.909158	0.00104926 	0.907776	0.911316
205	20    	0.909158	0.00104926 	0.907776	0.911316
206	20    	0.909158	0.00104926 	0.907776	0.911316
207	20    	0.909158	0.00104926 	0.907776	0.911316
208	20    	0.90919 	0.00101583 	0.908096	0.911316
209	20    	0.90919 	0.00101583 	0.908096	0.911316
210	20    	0.90919 	0.00101583 	0.908096	0.911316
211	20    	0.90919 	0.00101583 	0.908096	0.911316
212	20    	0.909447	0.00131367 	0.908096	0.913239
213	20    	0.909447	0.00131367 	0.908096	0.913239
214	20    	0.909447	0.00131367 	0.908096	0.913239
215	20    	0.909447	0.00131367 	0.908096	0.913239
216	20    	0.909447	0.00131367 	0.908096	0.913239
217	20    	0.909447	0.00131367 	0.908096	0.913239
218	20    	0.909543	0.00128128 	0.908096	0.913239
219	20    	0.909543	0.00128128 	0.908096	0.913239
220	20    	0.909543	0.00128128 	0.908096	0.913239
221	20    	0.909977	0.00199158 	0.908096	0.916779
222	20    	0.909977	0.00199158 	0.908096	0.916779
223	20    	0.909977	0.00199158 	0.908096	0.916779
224	20    	0.910202	0.0019155  	0.908417	0.916779
225	20    	0.910202	0.0019155  	0.908417	0.916779
226	20    	0.910428	0.00182539 	0.908417	0.916779
227	20    	0.910573	0.00177433 	0.908737	0.916779
228	20    	0.910654	0.001725   	0.908737	0.916779
229	20    	0.910654	0.001725   	0.908737	0.916779
230	20    	0.910654	0.001725   	0.908737	0.916779
231	20    	0.910654	0.001725   	0.908737	0.916779
232	20    	0.910815	0.00168847 	0.908737	0.916779
233	20    	0.910928	0.00161989 	0.909058	0.916779
234	20    	0.910928	0.00161989 	0.909058	0.916779
235	20    	0.910944	0.00160281 	0.909378	0.916779
236	20    	0.910944	0.00160281 	0.909378	0.916779
237	20    	0.910944	0.00160281 	0.909378	0.916779
238	20    	0.910944	0.00160281 	0.909378	0.916779
239	20    	0.910944	0.00160281 	0.909378	0.916779
240	20    	0.910944	0.00160281 	0.909378	0.916779
241	20    	0.910944	0.00160281 	0.909378	0.916779
242	20    	0.910944	0.00160281 	0.909378	0.916779
243	20    	0.910944	0.00160281 	0.909378	0.916779
244	20    	0.910944	0.00160281 	0.909378	0.916779
245	20    	0.910944	0.00160281 	0.909378	0.916779
246	20    	0.910944	0.00160281 	0.909378	0.916779
247	20    	0.910944	0.00160281 	0.909378	0.916779
248	20    	0.910944	0.00160281 	0.909378	0.916779
249	20    	0.910944	0.00160281 	0.909378	0.916779
250	20    	0.910944	0.00160281 	0.909378	0.916779
251	20    	0.910944	0.00160281 	0.909378	0.916779
252	20    	0.910944	0.00160281 	0.909378	0.916779
253	20    	0.91096 	0.00158862 	0.909378	0.916779
254	20    	0.910992	0.00156264 	0.909698	0.916779
255	20    	0.910992	0.00156264 	0.909698	0.916779
256	20    	0.910992	0.00156264 	0.909698	0.916779
257	20    	0.910992	0.00156264 	0.909698	0.916779
258	20    	0.910992	0.00156264 	0.909698	0.916779
259	20    	0.911024	0.0015419  	0.909698	0.916779
260	20    	0.911024	0.0015419  	0.909698	0.916779
261	20    	0.911024	0.0015419  	0.909698	0.916779
262	20    	0.911024	0.0015419  	0.909698	0.916779
263	20    	0.911137	0.00152324 	0.910019	0.916779
264	20    	0.91117 	0.00150576 	0.910019	0.916779
265	20    	0.91117 	0.00150576 	0.910019	0.916779
266	20    	0.91117 	0.00150576 	0.910019	0.916779
267	20    	0.91117 	0.00150576 	0.910019	0.916779
268	20    	0.91117 	0.00150576 	0.910019	0.916779
269	20    	0.91117 	0.00150576 	0.910019	0.916779
270	20    	0.91117 	0.00150576 	0.910019	0.916779
271	20    	0.911235	0.00148253 	0.910019	0.916779
272	20    	0.911235	0.00148253 	0.910019	0.916779
273	20    	0.911235	0.00148253 	0.910019	0.916779
274	20    	0.911332	0.00146308 	0.910019	0.916779
275	20    	0.911332	0.00146308 	0.910019	0.916779
276	20    	0.911332	0.00146308 	0.910019	0.916779
277	20    	0.911332	0.00146308 	0.910019	0.916779
278	20    	0.911332	0.00146308 	0.910019	0.916779
279	20    	0.911461	0.0014553  	0.910355	0.916779
280	20    	0.911461	0.0014553  	0.910355	0.916779
281	20    	0.911461	0.0014553  	0.910355	0.916779
282	20    	0.911461	0.0014553  	0.910355	0.916779
283	20    	0.911573	0.00145215 	0.910355	0.916779
284	20    	0.911621	0.00142671 	0.910355	0.916779
285	20    	0.911653	0.00140494 	0.910355	0.916779
286	20    	0.911653	0.00140494 	0.910355	0.916779
287	20    	0.911653	0.00140494 	0.910355	0.916779
288	20    	0.911685	0.00138208 	0.910355	0.916779
289	20    	0.911685	0.00138208 	0.910355	0.916779
290	20    	0.911685	0.00138208 	0.910355	0.916779
291	20    	0.911701	0.00136835 	0.910355	0.916779
292	20    	0.911701	0.00136835 	0.910355	0.916779
293	20    	0.911701	0.00136835 	0.910355	0.916779
294	20    	0.911701	0.00136835 	0.910355	0.916779
295	20    	0.911701	0.00136835 	0.910355	0.916779
296	20    	0.911701	0.00136835 	0.910355	0.916779
297	20    	0.911701	0.00136835 	0.910355	0.916779
298	20    	0.911701	0.00136835 	0.910355	0.916779
299	20    	0.911877	0.00140992 	0.910675	0.916779
300	20    	0.911877	0.00140992 	0.910675	0.916779
301	20    	0.911877	0.00140992 	0.910675	0.916779
302	20    	0.911877	0.00140992 	0.910675	0.916779
303	20    	0.911877	0.00140992 	0.910675	0.916779
304	20    	0.911926	0.00138426 	0.910675	0.916779
305	20    	0.911926	0.00138426 	0.910675	0.916779
306	20    	0.911926	0.00138426 	0.910675	0.916779
307	20    	0.912038	0.00136919 	0.910995	0.916779
308	20    	0.912054	0.00135874 	0.910995	0.916779
309	20    	0.912054	0.00135874 	0.910995	0.916779
310	20    	0.912054	0.00135874 	0.910995	0.916779
311	20    	0.912054	0.00135874 	0.910995	0.916779
312	20    	0.912054	0.00135874 	0.910995	0.916779
313	20    	0.912054	0.00135874 	0.910995	0.916779
314	20    	0.912054	0.00135874 	0.910995	0.916779
315	20    	0.912054	0.00135874 	0.910995	0.916779
316	20    	0.912102	0.00133729 	0.910995	0.916779
317	20    	0.912102	0.00133729 	0.910995	0.916779
318	20    	0.912102	0.00133729 	0.910995	0.916779
319	20    	0.912102	0.00133729 	0.910995	0.916779
320	20    	0.912102	0.00133729 	0.910995	0.916779
321	20    	0.912102	0.00133729 	0.910995	0.916779
322	20    	0.912102	0.00133729 	0.910995	0.916779
323	20    	0.912102	0.00133729 	0.910995	0.916779
324	20    	0.912102	0.00133729 	0.910995	0.916779
325	20    	0.912102	0.00133729 	0.910995	0.916779
326	20    	0.912102	0.00133729 	0.910995	0.916779
327	20    	0.912102	0.00133729 	0.910995	0.916779
328	20    	0.912102	0.00133729 	0.910995	0.916779
329	20    	0.912102	0.00133729 	0.910995	0.916779
330	20    	0.912102	0.00133729 	0.910995	0.916779
331	20    	0.912102	0.00133729 	0.910995	0.916779
332	20    	0.912102	0.00133729 	0.910995	0.916779
333	20    	0.912102	0.00133729 	0.910995	0.916779
334	20    	0.912102	0.00133729 	0.910995	0.916779
335	20    	0.912102	0.00133729 	0.910995	0.916779
336	20    	0.912102	0.00133729 	0.910995	0.916779
337	20    	0.912102	0.00133729 	0.910995	0.916779
338	20    	0.912102	0.00133729 	0.910995	0.916779
339	20    	0.912102	0.00133729 	0.910995	0.916779
340	20    	0.912102	0.00133729 	0.910995	0.916779
341	20    	0.912102	0.00133729 	0.910995	0.916779
342	20    	0.912134	0.00131793 	0.910995	0.916779
343	20    	0.912134	0.00131793 	0.910995	0.916779
344	20    	0.912134	0.00131793 	0.910995	0.916779
345	20    	0.912134	0.00131793 	0.910995	0.916779
346	20    	0.912134	0.00131793 	0.910995	0.916779
347	20    	0.912134	0.00131793 	0.910995	0.916779
348	20    	0.912134	0.00131793 	0.910995	0.916779
349	20    	0.912134	0.00131793 	0.910995	0.916779
350	20    	0.912134	0.00131793 	0.910995	0.916779
351	20    	0.912134	0.00131793 	0.910995	0.916779
352	20    	0.912134	0.00131793 	0.910995	0.916779
353	20    	0.912134	0.00131793 	0.910995	0.916779
354	20    	0.912182	0.00129283 	0.910995	0.916779
355	20    	0.912182	0.00129283 	0.910995	0.916779
356	20    	0.91231 	0.00129593 	0.910995	0.916779
357	20    	0.91231 	0.00129593 	0.910995	0.916779
358	20    	0.912422	0.00127419 	0.911316	0.916779
359	20    	0.91247 	0.00124944 	0.911316	0.916779
360	20    	0.912486	0.00123653 	0.911316	0.916779
361	20    	0.912486	0.00123653 	0.911316	0.916779
362	20    	0.912534	0.00120847 	0.911316	0.916779
363	20    	0.912534	0.00120847 	0.911316	0.916779
364	20    	0.912534	0.00120847 	0.911316	0.916779
365	20    	0.912566	0.00118398 	0.911316	0.916779
366	20    	0.912646	0.00115039 	0.911636	0.916779
367	20    	0.912646	0.00115039 	0.911636	0.916779
368	20    	0.912646	0.00115039 	0.911636	0.916779
369	20    	0.912646	0.00115039 	0.911636	0.916779
370	20    	0.912646	0.00115039 	0.911636	0.916779
371	20    	0.912646	0.00115039 	0.911636	0.916779
372	20    	0.912646	0.00115039 	0.911636	0.916779
373	20    	0.912646	0.00115039 	0.911636	0.916779
374	20    	0.912646	0.00115039 	0.911636	0.916779
375	20    	0.912646	0.00115039 	0.911636	0.916779
376	20    	0.912807	0.00121961 	0.911636	0.916779
377	20    	0.912807	0.00121961 	0.911636	0.916779
378	20    	0.912807	0.00121961 	0.911636	0.916779
379	20    	0.912807	0.00121961 	0.911636	0.916779
380	20    	0.912855	0.00119115 	0.911636	0.916779
381	20    	0.912999	0.00120934 	0.911957	0.916779
382	20    	0.912999	0.00120934 	0.911957	0.916779
383	20    	0.912999	0.00120934 	0.911957	0.916779
384	20    	0.912999	0.00120934 	0.911957	0.916779
385	20    	0.912999	0.00120934 	0.911957	0.916779
386	20    	0.912999	0.00120934 	0.911957	0.916779
387	20    	0.913095	0.00119905 	0.911957	0.916779
388	20    	0.913095	0.00119905 	0.911957	0.916779
389	20    	0.913095	0.00119905 	0.911957	0.916779
390	20    	0.913095	0.00119905 	0.911957	0.916779
391	20    	0.913095	0.00119905 	0.911957	0.916779
392	20    	0.913255	0.00124927 	0.911957	0.916779
393	20    	0.913255	0.00124927 	0.911957	0.916779
394	20    	0.913255	0.00124927 	0.911957	0.916779
395	20    	0.913255	0.00124927 	0.911957	0.916779
396	20    	0.913271	0.00123448 	0.911957	0.916779
397	20    	0.913271	0.00123448 	0.911957	0.916779
398	20    	0.913271	0.00123448 	0.911957	0.916779
399	20    	0.913271	0.00123448 	0.911957	0.916779
400	20    	0.913271	0.00123448 	0.911957	0.916779
401	20    	0.913271	0.00123448 	0.911957	0.916779
402	20    	0.913271	0.00123448 	0.911957	0.916779
403	20    	0.913271	0.00123448 	0.911957	0.916779
404	20    	0.913271	0.00123448 	0.911957	0.916779
405	20    	0.913271	0.00123448 	0.911957	0.916779
406	20    	0.913432	0.00126113 	0.911957	0.916779
407	20    	0.913432	0.00126113 	0.911957	0.916779
408	20    	0.913432	0.00126113 	0.911957	0.916779
409	20    	0.913432	0.00126113 	0.911957	0.916779
410	20    	0.913432	0.00126113 	0.911957	0.916779
411	20    	0.913432	0.00126113 	0.911957	0.916779
412	20    	0.913432	0.00126113 	0.911957	0.916779
413	20    	0.913432	0.00126113 	0.911957	0.916779
414	20    	0.913432	0.00126113 	0.911957	0.916779
415	20    	0.913432	0.00126113 	0.911957	0.916779
416	20    	0.913432	0.00126113 	0.911957	0.916779
417	20    	0.913432	0.00126113 	0.911957	0.916779
418	20    	0.913432	0.00126113 	0.911957	0.916779
419	20    	0.913432	0.00126113 	0.911957	0.916779
420	20    	0.913432	0.00126113 	0.911957	0.916779
421	20    	0.913432	0.00126113 	0.911957	0.916779
422	20    	0.913432	0.00126113 	0.911957	0.916779
423	20    	0.913432	0.00126113 	0.911957	0.916779
424	20    	0.913432	0.00126113 	0.911957	0.916779
425	20    	0.913432	0.00126113 	0.911957	0.916779
426	20    	0.913432	0.00126113 	0.911957	0.916779
427	20    	0.913432	0.00126113 	0.911957	0.916779
428	20    	0.913432	0.00126113 	0.911957	0.916779
429	20    	0.91348 	0.00122171 	0.911957	0.916779
430	20    	0.91348 	0.00122171 	0.911957	0.916779
431	20    	0.91356 	0.00117069 	0.912277	0.916779
432	20    	0.91356 	0.00117069 	0.912277	0.916779
433	20    	0.91356 	0.00117069 	0.912277	0.916779
434	20    	0.91356 	0.00117069 	0.912277	0.916779
435	20    	0.91356 	0.00117069 	0.912277	0.916779
436	20    	0.91356 	0.00117069 	0.912277	0.916779
437	20    	0.91356 	0.00117069 	0.912277	0.916779
438	20    	0.91356 	0.00117069 	0.912277	0.916779
439	20    	0.91356 	0.00117069 	0.912277	0.916779
440	20    	0.913592	0.00114361 	0.912277	0.916779
441	20    	0.913592	0.00114361 	0.912277	0.916779
442	20    	0.913592	0.00114361 	0.912277	0.916779
443	20    	0.913592	0.00114361 	0.912277	0.916779
444	20    	0.913592	0.00114361 	0.912277	0.916779
445	20    	0.913592	0.00114361 	0.912277	0.916779
446	20    	0.913592	0.00114361 	0.912277	0.916779
447	20    	0.913592	0.00114361 	0.912277	0.916779
448	20    	0.913592	0.00114361 	0.912277	0.916779
449	20    	0.913592	0.00114361 	0.912277	0.916779
450	20    	0.913592	0.00114361 	0.912277	0.916779
451	20    	0.913688	0.00110936 	0.912277	0.916779
452	20    	0.913688	0.00110936 	0.912277	0.916779
453	20    	0.913688	0.00110936 	0.912277	0.916779
454	20    	0.913784	0.00106539 	0.912598	0.916779
455	20    	0.913784	0.00106539 	0.912598	0.916779
456	20    	0.913961	0.0011447  	0.912598	0.916779
457	20    	0.913961	0.0011447  	0.912598	0.916779
458	20    	0.913961	0.0011447  	0.912598	0.916779
459	20    	0.913961	0.0011447  	0.912598	0.916779
460	20    	0.913961	0.0011447  	0.912598	0.916779
461	20    	0.913961	0.0011447  	0.912598	0.916779
462	20    	0.913961	0.0011447  	0.912598	0.916779
463	20    	0.913961	0.0011447  	0.912598	0.916779
464	20    	0.913961	0.0011447  	0.912598	0.916779
465	20    	0.913961	0.0011447  	0.912598	0.916779
466	20    	0.913961	0.0011447  	0.912598	0.916779
467	20    	0.913961	0.0011447  	0.912598	0.916779
468	20    	0.913961	0.0011447  	0.912598	0.916779
469	20    	0.913961	0.0011447  	0.912598	0.916779
470	20    	0.913961	0.0011447  	0.912598	0.916779
471	20    	0.913961	0.0011447  	0.912598	0.916779
472	20    	0.913961	0.0011447  	0.912598	0.916779
473	20    	0.913961	0.0011447  	0.912598	0.916779
474	20    	0.913961	0.0011447  	0.912598	0.916779
475	20    	0.913961	0.0011447  	0.912598	0.916779
476	20    	0.913961	0.0011447  	0.912598	0.916779
477	20    	0.913961	0.0011447  	0.912598	0.916779
478	20    	0.913961	0.0011447  	0.912598	0.916779
479	20    	0.913961	0.0011447  	0.912598	0.916779
480	20    	0.913961	0.0011447  	0.912598	0.916779
481	20    	0.913961	0.0011447  	0.912598	0.916779
482	20    	0.913961	0.0011447  	0.912598	0.916779
483	20    	0.913961	0.0011447  	0.912598	0.916779
484	20    	0.913961	0.0011447  	0.912598	0.916779
485	20    	0.913961	0.0011447  	0.912598	0.916779
486	20    	0.914122	0.0011678  	0.912598	0.916779
487	20    	0.914138	0.00114882 	0.912918	0.916779
488	20    	0.914138	0.00114882 	0.912918	0.916779
489	20    	0.914266	0.00114856 	0.912918	0.916779
490	20    	0.914298	0.00111907 	0.912918	0.916779
491	20    	0.914298	0.00111907 	0.912918	0.916779
492	20    	0.914362	0.00107399 	0.912918	0.916779
493	20    	0.914362	0.00107399 	0.912918	0.916779
494	20    	0.914362	0.00107399 	0.912918	0.916779
495	20    	0.914362	0.00107399 	0.912918	0.916779
496	20    	0.914362	0.00107399 	0.912918	0.916779
497	20    	0.914362	0.00107399 	0.912918	0.916779
498	20    	0.914362	0.00107399 	0.912918	0.916779
499	20    	0.914362	0.00107399 	0.912918	0.916779
