gen	nevals	avg     	std       	min     	max     
0  	20    	0.877621	0.00877286	0.863342	0.89949 
1  	20    	0.885575	0.00817125	0.877808	0.906723
2  	20    	0.891287	0.00711273	0.882858	0.906723
3  	20    	0.895374	0.00559263	0.887924	0.906723
4  	20    	0.897507	0.00459421	0.890823	0.906723
5  	20    	0.899531	0.00339614	0.895157	0.906723
6  	20    	0.900507	0.00299408	0.896606	0.906723
7  	20    	0.900868	0.00293743	0.897324	0.906723
8  	20    	0.902315	0.00289134	0.898041	0.906723
9  	20    	0.902785	0.00262132	0.89949 	0.906723
10 	20    	0.903364	0.00245295	0.900223	0.906723
11 	20    	0.904447	0.00257921	0.900223	0.910339
12 	20    	0.904845	0.00227998	0.901657	0.910339
13 	20    	0.904845	0.00227998	0.901657	0.910339
14 	20    	0.905098	0.00219147	0.901657	0.910339
15 	20    	0.905568	0.00240102	0.90239 	0.911057
16 	20    	0.906075	0.00226134	0.903107	0.911057
17 	20    	0.907448	0.00356296	0.903839	0.919739
18 	20    	0.907954	0.00363748	0.904556	0.919739
19 	20    	0.908929	0.00446048	0.904556	0.921188
20 	20    	0.909834	0.00418636	0.906006	0.921188
21 	20    	0.910194	0.00395898	0.906723	0.921188
22 	20    	0.911533	0.0041003 	0.906723	0.921188
23 	20    	0.911858	0.00391462	0.908173	0.921188
24 	20    	0.912075	0.00378941	0.908173	0.921188
25 	20    	0.912437	0.00374459	0.90889 	0.921188
26 	20    	0.914317	0.00359152	0.910339	0.921188
27 	20    	0.914969	0.00320584	0.910339	0.921188
28 	20    	0.915295	0.00294059	0.911057	0.921188
29 	20    	0.915729	0.00250958	0.912506	0.921188
30 	20    	0.915874	0.00240062	0.912506	0.921188
31 	20    	0.916091	0.00227964	0.913239	0.921188
32 	20    	0.916525	0.00250847	0.913239	0.921906
33 	20    	0.917175	0.00207535	0.914673	0.921906
34 	20    	0.91732 	0.00196898	0.915405	0.921906
35 	20    	0.917393	0.0019233 	0.915405	0.921906
36 	20    	0.917393	0.0019233 	0.915405	0.921906
37 	20    	0.917393	0.0019233 	0.915405	0.921906
38 	20    	0.91797 	0.00228944	0.915405	0.924072
39 	20    	0.918114	0.00221288	0.915405	0.924072
40 	20    	0.918439	0.00210017	0.916122	0.924072
41 	20    	0.918874	0.00232322	0.916855	0.924072
42 	20    	0.918874	0.00232322	0.916855	0.924072
43 	20    	0.918874	0.00232322	0.916855	0.924072
44 	20    	0.918982	0.00227661	0.916855	0.924072
45 	20    	0.91909 	0.00222375	0.916855	0.924072
46 	20    	0.919343	0.00224226	0.916855	0.924072
47 	20    	0.919343	0.00224226	0.916855	0.924072
48 	20    	0.919343	0.00224226	0.916855	0.924072
49 	20    	0.919343	0.00224226	0.916855	0.924072
50 	20    	0.91974 	0.00211745	0.916855	0.924072
51 	20    	0.919956	0.00203114	0.916855	0.924072
52 	20    	0.919956	0.00203114	0.916855	0.924072
53 	20    	0.920461	0.00187048	0.917572	0.924072
54 	20    	0.920534	0.00178317	0.918289	0.924072
55 	20    	0.921149	0.0027575 	0.918289	0.930588
56 	20    	0.921149	0.0027575 	0.918289	0.930588
57 	20    	0.921149	0.0027575 	0.918289	0.930588
58 	20    	0.921149	0.0027575 	0.918289	0.930588
59 	20    	0.921149	0.0027575 	0.918289	0.930588
60 	20    	0.921149	0.0027575 	0.918289	0.930588
61 	20    	0.921149	0.0027575 	0.918289	0.930588
62 	20    	0.921438	0.00274568	0.918289	0.930588
63 	20    	0.921438	0.00274568	0.918289	0.930588
64 	20    	0.921583	0.0026505 	0.919022	0.930588
65 	20    	0.922052	0.00286061	0.919022	0.930588
66 	20    	0.922341	0.00283181	0.919022	0.930588
67 	20    	0.922485	0.00273073	0.919739	0.930588
68 	20    	0.922485	0.00273073	0.919739	0.930588
69 	20    	0.922485	0.00273073	0.919739	0.930588
70 	20    	0.922521	0.00269895	0.919739	0.930588
71 	20    	0.922666	0.00262239	0.919739	0.930588
72 	20    	0.922666	0.00262239	0.919739	0.930588
73 	20    	0.922739	0.00255976	0.920456	0.930588
74 	20    	0.922775	0.00253193	0.920456	0.930588
75 	20    	0.923247	0.00236752	0.921188	0.930588
76 	20    	0.923283	0.00234136	0.921188	0.930588
77 	20    	0.923283	0.00234136	0.921188	0.930588
78 	20    	0.923283	0.00234136	0.921188	0.930588
79 	20    	0.923283	0.00234136	0.921188	0.930588
80 	20    	0.923283	0.00234136	0.921188	0.930588
81 	20    	0.923283	0.00234136	0.921188	0.930588
82 	20    	0.923318	0.00231434	0.921188	0.930588
83 	20    	0.923716	0.00228118	0.921188	0.930588
84 	20    	0.923716	0.00228118	0.921188	0.930588
85 	20    	0.923752	0.00224654	0.921188	0.930588
86 	20    	0.923752	0.00224654	0.921188	0.930588
87 	20    	0.923752	0.00224654	0.921188	0.930588
88 	20    	0.923969	0.00219729	0.921906	0.930588
89 	20    	0.924077	0.00214571	0.921906	0.930588
90 	20    	0.924077	0.00214571	0.921906	0.930588
91 	20    	0.924077	0.00214571	0.921906	0.930588
92 	20    	0.924077	0.00214571	0.921906	0.930588
93 	20    	0.924149	0.00209503	0.921906	0.930588
94 	20    	0.924331	0.00194378	0.921906	0.930588
95 	20    	0.924368	0.00190423	0.922638	0.930588
96 	20    	0.924476	0.00186396	0.922638	0.930588
97 	20    	0.924476	0.00186396	0.922638	0.930588
98 	20    	0.924656	0.0017657 	0.922638	0.930588
99 	20    	0.9248  	0.00171195	0.923355	0.930588
100	20    	0.9248  	0.00171195	0.923355	0.930588
101	20    	0.924836	0.00168866	0.923355	0.930588
102	20    	0.924836	0.00168866	0.923355	0.930588
103	20    	0.924981	0.00167973	0.923355	0.930588
104	20    	0.925378	0.00212861	0.923355	0.931305
105	20    	0.925378	0.00212861	0.923355	0.931305
106	20    	0.92545 	0.00207052	0.924072	0.931305
107	20    	0.92545 	0.00207052	0.924072	0.931305
108	20    	0.92545 	0.00207052	0.924072	0.931305
109	20    	0.925776	0.00232503	0.924072	0.931305
110	20    	0.925993	0.00235865	0.924072	0.931305
111	20    	0.925993	0.00235865	0.924072	0.931305
112	20    	0.925993	0.00235865	0.924072	0.931305
113	20    	0.92603 	0.00233409	0.924072	0.931305
114	20    	0.926067	0.0023087 	0.924072	0.931305
115	20    	0.926139	0.00226733	0.924072	0.931305
116	20    	0.926139	0.00226733	0.924072	0.931305
117	20    	0.926139	0.00226733	0.924072	0.931305
118	20    	0.926139	0.00226733	0.924072	0.931305
119	20    	0.926428	0.00235247	0.924072	0.931305
120	20    	0.926682	0.00235789	0.924072	0.931305
121	20    	0.926682	0.00235789	0.924072	0.931305
122	20    	0.926682	0.00235789	0.924072	0.931305
123	20    	0.926682	0.00235789	0.924072	0.931305
124	20    	0.92708 	0.00254851	0.924072	0.932037
125	20    	0.927297	0.00246684	0.924805	0.932037
126	20    	0.927297	0.00246684	0.924805	0.932037
127	20    	0.927297	0.00246684	0.924805	0.932037
128	20    	0.927297	0.00246684	0.924805	0.932037
129	20    	0.927297	0.00246684	0.924805	0.932037
130	20    	0.927297	0.00246684	0.924805	0.932037
131	20    	0.927551	0.00234891	0.924805	0.932037
132	20    	0.927876	0.00239574	0.924805	0.932037
133	20    	0.928165	0.00218374	0.924805	0.932037
134	20    	0.928417	0.00206963	0.925522	0.932037
135	20    	0.928417	0.00206963	0.925522	0.932037
136	20    	0.928526	0.00196953	0.925522	0.932037
137	20    	0.928851	0.00179   	0.926254	0.932037
138	20    	0.92896 	0.00169245	0.926254	0.932037
139	20    	0.92896 	0.00169245	0.926254	0.932037
140	20    	0.92896 	0.00169245	0.926254	0.932037
141	20    	0.929211	0.00147986	0.926971	0.932037
142	20    	0.929211	0.00147986	0.926971	0.932037
143	20    	0.92932 	0.00138839	0.926971	0.932037
144	20    	0.92979 	0.00142681	0.927689	0.932037
145	20    	0.930008	0.00132483	0.928421	0.932037
146	20    	0.930405	0.00186965	0.928421	0.936371
147	20    	0.930405	0.00186965	0.928421	0.936371
148	20    	0.930405	0.00186965	0.928421	0.936371
149	20    	0.930405	0.00186965	0.928421	0.936371
150	20    	0.930405	0.00186965	0.928421	0.936371
151	20    	0.930405	0.00186965	0.928421	0.936371
152	20    	0.930405	0.00186965	0.928421	0.936371
153	20    	0.930405	0.00186965	0.928421	0.936371
154	20    	0.930405	0.00186965	0.928421	0.936371
155	20    	0.930441	0.00183785	0.928421	0.936371
156	20    	0.930441	0.00183785	0.928421	0.936371
157	20    	0.930441	0.00183785	0.928421	0.936371
158	20    	0.930441	0.00183785	0.928421	0.936371
159	20    	0.93073 	0.00194884	0.928421	0.936371
160	20    	0.93073 	0.00194884	0.928421	0.936371
161	20    	0.93073 	0.00194884	0.928421	0.936371
162	20    	0.93073 	0.00194884	0.928421	0.936371
163	20    	0.93073 	0.00194884	0.928421	0.936371
164	20    	0.930875	0.00183619	0.928421	0.936371
165	20    	0.930983	0.00175014	0.929138	0.936371
166	20    	0.930983	0.00175014	0.929138	0.936371
167	20    	0.931019	0.00171904	0.929138	0.936371
168	20    	0.931127	0.00166452	0.929138	0.936371
169	20    	0.931127	0.00166452	0.929138	0.936371
170	20    	0.931127	0.00166452	0.929138	0.936371
171	20    	0.931127	0.00166452	0.929138	0.936371
172	20    	0.931127	0.00166452	0.929138	0.936371
173	20    	0.931127	0.00166452	0.929138	0.936371
174	20    	0.931127	0.00166452	0.929138	0.936371
175	20    	0.931127	0.00166452	0.929138	0.936371
176	20    	0.931127	0.00166452	0.929138	0.936371
177	20    	0.931127	0.00166452	0.929138	0.936371
178	20    	0.931127	0.00166452	0.929138	0.936371
179	20    	0.931127	0.00166452	0.929138	0.936371
180	20    	0.931127	0.00166452	0.929138	0.936371
181	20    	0.931127	0.00166452	0.929138	0.936371
182	20    	0.931127	0.00166452	0.929138	0.936371
183	20    	0.931236	0.00160083	0.929138	0.936371
184	20    	0.931597	0.00187897	0.929855	0.936371
185	20    	0.93167 	0.0018379 	0.929855	0.936371
186	20    	0.93167 	0.0018379 	0.929855	0.936371
187	20    	0.93167 	0.0018379 	0.929855	0.936371
188	20    	0.93167 	0.0018379 	0.929855	0.936371
189	20    	0.931706	0.00180844	0.929855	0.936371
190	20    	0.931706	0.00180844	0.929855	0.936371
191	20    	0.931706	0.00180844	0.929855	0.936371
192	20    	0.931706	0.00180844	0.929855	0.936371
193	20    	0.931779	0.00176124	0.929855	0.936371
194	20    	0.931815	0.00172817	0.930588	0.936371
195	20    	0.931815	0.00172817	0.930588	0.936371
196	20    	0.931815	0.00172817	0.930588	0.936371
197	20    	0.931815	0.00172817	0.930588	0.936371
198	20    	0.931815	0.00172817	0.930588	0.936371
199	20    	0.931815	0.00172817	0.930588	0.936371
200	20    	0.931815	0.00172817	0.930588	0.936371
201	20    	0.931815	0.00172817	0.930588	0.936371
202	20    	0.931815	0.00172817	0.930588	0.936371
203	20    	0.931815	0.00172817	0.930588	0.936371
204	20    	0.931815	0.00172817	0.930588	0.936371
205	20    	0.931815	0.00172817	0.930588	0.936371
206	20    	0.931815	0.00172817	0.930588	0.936371
207	20    	0.931815	0.00172817	0.930588	0.936371
208	20    	0.931815	0.00172817	0.930588	0.936371
209	20    	0.931815	0.00172817	0.930588	0.936371
210	20    	0.931815	0.00172817	0.930588	0.936371
211	20    	0.93196 	0.00174   	0.930588	0.936371
212	20    	0.93196 	0.00174   	0.930588	0.936371
213	20    	0.93196 	0.00174   	0.930588	0.936371
214	20    	0.93196 	0.00174   	0.930588	0.936371
215	20    	0.932176	0.0018235 	0.930588	0.936371
216	20    	0.932176	0.0018235 	0.930588	0.936371
217	20    	0.932176	0.0018235 	0.930588	0.936371
218	20    	0.932176	0.0018235 	0.930588	0.936371
219	20    	0.932176	0.0018235 	0.930588	0.936371
220	20    	0.932176	0.0018235 	0.930588	0.936371
221	20    	0.932176	0.0018235 	0.930588	0.936371
222	20    	0.932176	0.0018235 	0.930588	0.936371
223	20    	0.932176	0.0018235 	0.930588	0.936371
224	20    	0.932212	0.0017988 	0.930588	0.936371
225	20    	0.932212	0.0017988 	0.930588	0.936371
226	20    	0.932212	0.0017988 	0.930588	0.936371
227	20    	0.932212	0.0017988 	0.930588	0.936371
228	20    	0.932212	0.0017988 	0.930588	0.936371
229	20    	0.932212	0.0017988 	0.930588	0.936371
230	20    	0.932212	0.0017988 	0.930588	0.936371
231	20    	0.932248	0.00177303	0.930588	0.936371
232	20    	0.932248	0.00177303	0.930588	0.936371
233	20    	0.932248	0.00177303	0.930588	0.936371
234	20    	0.932248	0.00177303	0.930588	0.936371
235	20    	0.932248	0.00177303	0.930588	0.936371
236	20    	0.932429	0.0016883 	0.930588	0.936371
237	20    	0.932429	0.0016883 	0.930588	0.936371
238	20    	0.932429	0.0016883 	0.930588	0.936371
239	20    	0.932501	0.00163808	0.931305	0.936371
240	20    	0.932501	0.00163808	0.931305	0.936371
241	20    	0.932719	0.00162515	0.931305	0.936371
242	20    	0.932719	0.00162515	0.931305	0.936371
243	20    	0.932719	0.00162515	0.931305	0.936371
244	20    	0.932936	0.00171015	0.931305	0.936371
245	20    	0.932936	0.00171015	0.931305	0.936371
246	20    	0.933044	0.00167159	0.931305	0.936371
247	20    	0.933044	0.00167159	0.931305	0.936371
248	20    	0.933044	0.00167159	0.931305	0.936371
249	20    	0.933044	0.00167159	0.931305	0.936371
250	20    	0.933044	0.00167159	0.931305	0.936371
251	20    	0.933044	0.00167159	0.931305	0.936371
252	20    	0.933044	0.00167159	0.931305	0.936371
253	20    	0.933044	0.00167159	0.931305	0.936371
254	20    	0.933044	0.00167159	0.931305	0.936371
255	20    	0.933044	0.00167159	0.931305	0.936371
256	20    	0.933044	0.00167159	0.931305	0.936371
257	20    	0.933044	0.00167159	0.931305	0.936371
258	20    	0.933044	0.00167159	0.931305	0.936371
259	20    	0.933153	0.0016249 	0.931305	0.936371
260	20    	0.933153	0.0016249 	0.931305	0.936371
261	20    	0.933442	0.00177771	0.931305	0.937088
262	20    	0.933442	0.00177771	0.931305	0.937088
263	20    	0.933442	0.00177771	0.931305	0.937088
264	20    	0.933442	0.00177771	0.931305	0.937088
265	20    	0.933442	0.00177771	0.931305	0.937088
266	20    	0.933442	0.00177771	0.931305	0.937088
267	20    	0.933514	0.00171764	0.931305	0.937088
268	20    	0.933514	0.00171764	0.931305	0.937088
269	20    	0.933514	0.00171764	0.931305	0.937088
270	20    	0.933514	0.00171764	0.931305	0.937088
271	20    	0.933514	0.00171764	0.931305	0.937088
272	20    	0.933514	0.00171764	0.931305	0.937088
273	20    	0.933514	0.00171764	0.931305	0.937088
274	20    	0.933514	0.00171764	0.931305	0.937088
275	20    	0.933514	0.00171764	0.931305	0.937088
276	20    	0.933514	0.00171764	0.931305	0.937088
277	20    	0.933514	0.00171764	0.931305	0.937088
278	20    	0.933514	0.00171764	0.931305	0.937088
279	20    	0.933551	0.00167749	0.931305	0.937088
280	20    	0.933551	0.00167749	0.931305	0.937088
281	20    	0.933551	0.00167749	0.931305	0.937088
282	20    	0.933551	0.00167749	0.931305	0.937088
283	20    	0.933551	0.00167749	0.931305	0.937088
284	20    	0.933551	0.00167749	0.931305	0.937088
285	20    	0.933551	0.00167749	0.931305	0.937088
286	20    	0.933551	0.00167749	0.931305	0.937088
287	20    	0.933551	0.00167749	0.931305	0.937088
288	20    	0.933551	0.00167749	0.931305	0.937088
289	20    	0.933551	0.00167749	0.931305	0.937088
290	20    	0.933551	0.00167749	0.931305	0.937088
291	20    	0.933551	0.00167749	0.931305	0.937088
292	20    	0.933551	0.00167749	0.931305	0.937088
293	20    	0.933551	0.00167749	0.931305	0.937088
294	20    	0.933768	0.00165393	0.932037	0.937088
295	20    	0.933768	0.00165393	0.932037	0.937088
296	20    	0.933768	0.00165393	0.932037	0.937088
297	20    	0.933949	0.00165247	0.932037	0.937088
298	20    	0.933949	0.00165247	0.932037	0.937088
299	20    	0.934058	0.00159355	0.932037	0.937088
300	20    	0.934058	0.00159355	0.932037	0.937088
301	20    	0.934093	0.0015553 	0.932037	0.937088
302	20    	0.934093	0.0015553 	0.932037	0.937088
303	20    	0.934093	0.0015553 	0.932037	0.937088
304	20    	0.934093	0.0015553 	0.932037	0.937088
305	20    	0.934093	0.0015553 	0.932037	0.937088
306	20    	0.934093	0.0015553 	0.932037	0.937088
307	20    	0.934129	0.00151523	0.932037	0.937088
308	20    	0.934129	0.00151523	0.932037	0.937088
309	20    	0.934129	0.00151523	0.932037	0.937088
310	20    	0.934165	0.0014732 	0.932037	0.937088
311	20    	0.934165	0.0014732 	0.932037	0.937088
312	20    	0.934165	0.0014732 	0.932037	0.937088
313	20    	0.934165	0.0014732 	0.932037	0.937088
314	20    	0.934165	0.0014732 	0.932037	0.937088
315	20    	0.934165	0.0014732 	0.932037	0.937088
316	20    	0.934165	0.0014732 	0.932037	0.937088
317	20    	0.934165	0.0014732 	0.932037	0.937088
318	20    	0.934165	0.0014732 	0.932037	0.937088
319	20    	0.934165	0.0014732 	0.932037	0.937088
320	20    	0.934165	0.0014732 	0.932037	0.937088
321	20    	0.934165	0.0014732 	0.932037	0.937088
322	20    	0.934165	0.0014732 	0.932037	0.937088
323	20    	0.934165	0.0014732 	0.932037	0.937088
324	20    	0.934165	0.0014732 	0.932037	0.937088
325	20    	0.934165	0.0014732 	0.932037	0.937088
326	20    	0.934165	0.0014732 	0.932037	0.937088
327	20    	0.934201	0.00142904	0.932755	0.937088
328	20    	0.934201	0.00142904	0.932755	0.937088
329	20    	0.934526	0.00164139	0.932755	0.938538
330	20    	0.934526	0.00164139	0.932755	0.938538
331	20    	0.934526	0.00164139	0.932755	0.938538
332	20    	0.934526	0.00164139	0.932755	0.938538
333	20    	0.934526	0.00164139	0.932755	0.938538
334	20    	0.934562	0.00160982	0.932755	0.938538
335	20    	0.934562	0.00160982	0.932755	0.938538
336	20    	0.934562	0.00160982	0.932755	0.938538
337	20    	0.934562	0.00160982	0.932755	0.938538
338	20    	0.934562	0.00160982	0.932755	0.938538
339	20    	0.934562	0.00160982	0.932755	0.938538
340	20    	0.934598	0.00157681	0.932755	0.938538
341	20    	0.934598	0.00157681	0.932755	0.938538
342	20    	0.934598	0.00157681	0.932755	0.938538
343	20    	0.934598	0.00157681	0.932755	0.938538
344	20    	0.934598	0.00157681	0.932755	0.938538
345	20    	0.934598	0.00157681	0.932755	0.938538
346	20    	0.934598	0.00157681	0.932755	0.938538
347	20    	0.934598	0.00157681	0.932755	0.938538
348	20    	0.934598	0.00157681	0.932755	0.938538
349	20    	0.934598	0.00157681	0.932755	0.938538
350	20    	0.934598	0.00157681	0.932755	0.938538
351	20    	0.934598	0.00157681	0.932755	0.938538
352	20    	0.934743	0.00153336	0.932755	0.938538
353	20    	0.935394	0.00263217	0.933472	0.945053
354	20    	0.935394	0.00263217	0.933472	0.945053
355	20    	0.935394	0.00263217	0.933472	0.945053
356	20    	0.935394	0.00263217	0.933472	0.945053
357	20    	0.935394	0.00263217	0.933472	0.945053
358	20    	0.935394	0.00263217	0.933472	0.945053
359	20    	0.935394	0.00263217	0.933472	0.945053
360	20    	0.935394	0.00263217	0.933472	0.945053
361	20    	0.935394	0.00263217	0.933472	0.945053
362	20    	0.935394	0.00263217	0.933472	0.945053
363	20    	0.935394	0.00263217	0.933472	0.945053
364	20    	0.935394	0.00263217	0.933472	0.945053
365	20    	0.935394	0.00263217	0.933472	0.945053
366	20    	0.935394	0.00263217	0.933472	0.945053
367	20    	0.935394	0.00263217	0.933472	0.945053
368	20    	0.935539	0.00257135	0.933472	0.945053
369	20    	0.935539	0.00257135	0.933472	0.945053
370	20    	0.935539	0.00257135	0.933472	0.945053
371	20    	0.935612	0.00253219	0.933472	0.945053
372	20    	0.935612	0.00253219	0.933472	0.945053
373	20    	0.935612	0.00253219	0.933472	0.945053
374	20    	0.935612	0.00253219	0.933472	0.945053
375	20    	0.935684	0.00249029	0.933472	0.945053
376	20    	0.935684	0.00249029	0.933472	0.945053
377	20    	0.935684	0.00249029	0.933472	0.945053
378	20    	0.935684	0.00249029	0.933472	0.945053
379	20    	0.935684	0.00249029	0.933472	0.945053
380	20    	0.935684	0.00249029	0.933472	0.945053
381	20    	0.935684	0.00249029	0.933472	0.945053
382	20    	0.935684	0.00249029	0.933472	0.945053
383	20    	0.935684	0.00249029	0.933472	0.945053
384	20    	0.935684	0.00249029	0.933472	0.945053
385	20    	0.935757	0.00244554	0.933472	0.945053
386	20    	0.935757	0.00244554	0.933472	0.945053
387	20    	0.935757	0.00244554	0.933472	0.945053
388	20    	0.935793	0.00241635	0.933472	0.945053
389	20    	0.935793	0.00241635	0.933472	0.945053
390	20    	0.935793	0.00241635	0.933472	0.945053
391	20    	0.935793	0.00241635	0.933472	0.945053
392	20    	0.935793	0.00241635	0.933472	0.945053
393	20    	0.935793	0.00241635	0.933472	0.945053
394	20    	0.935793	0.00241635	0.933472	0.945053
395	20    	0.935793	0.00241635	0.933472	0.945053
396	20    	0.935793	0.00241635	0.933472	0.945053
397	20    	0.935793	0.00241635	0.933472	0.945053
398	20    	0.935793	0.00241635	0.933472	0.945053
399	20    	0.935793	0.00241635	0.933472	0.945053
400	20    	0.935793	0.00241635	0.933472	0.945053
401	20    	0.935793	0.00241635	0.933472	0.945053
402	20    	0.935793	0.00241635	0.933472	0.945053
403	20    	0.935974	0.00237074	0.934204	0.945053
404	20    	0.935974	0.00237074	0.934204	0.945053
405	20    	0.935974	0.00237074	0.934204	0.945053
406	20    	0.935974	0.00237074	0.934204	0.945053
407	20    	0.935974	0.00237074	0.934204	0.945053
408	20    	0.935974	0.00237074	0.934204	0.945053
409	20    	0.935974	0.00237074	0.934204	0.945053
410	20    	0.935974	0.00237074	0.934204	0.945053
411	20    	0.935974	0.00237074	0.934204	0.945053
412	20    	0.935974	0.00237074	0.934204	0.945053
413	20    	0.935974	0.00237074	0.934204	0.945053
414	20    	0.93601 	0.00234902	0.934204	0.945053
415	20    	0.93601 	0.00234902	0.934204	0.945053
416	20    	0.936118	0.00231292	0.934204	0.945053
417	20    	0.936118	0.00231292	0.934204	0.945053
418	20    	0.936118	0.00231292	0.934204	0.945053
419	20    	0.936118	0.00231292	0.934204	0.945053
420	20    	0.936299	0.00229751	0.934204	0.945053
421	20    	0.936299	0.00229751	0.934204	0.945053
422	20    	0.936299	0.00229751	0.934204	0.945053
423	20    	0.936299	0.00229751	0.934204	0.945053
424	20    	0.936299	0.00229751	0.934204	0.945053
425	20    	0.936443	0.00225154	0.934204	0.945053
426	20    	0.936443	0.00225154	0.934204	0.945053
427	20    	0.936443	0.00225154	0.934204	0.945053
428	20    	0.936443	0.00225154	0.934204	0.945053
429	20    	0.936443	0.00225154	0.934204	0.945053
430	20    	0.936443	0.00225154	0.934204	0.945053
431	20    	0.936443	0.00225154	0.934204	0.945053
432	20    	0.936443	0.00225154	0.934204	0.945053
433	20    	0.936443	0.00225154	0.934204	0.945053
434	20    	0.936443	0.00225154	0.934204	0.945053
435	20    	0.936443	0.00225154	0.934204	0.945053
436	20    	0.936443	0.00225154	0.934204	0.945053
437	20    	0.936479	0.00222109	0.934921	0.945053
438	20    	0.936479	0.00222109	0.934921	0.945053
439	20    	0.936479	0.00222109	0.934921	0.945053
440	20    	0.936479	0.00222109	0.934921	0.945053
441	20    	0.936479	0.00222109	0.934921	0.945053
442	20    	0.936479	0.00222109	0.934921	0.945053
443	20    	0.936479	0.00222109	0.934921	0.945053
444	20    	0.936479	0.00222109	0.934921	0.945053
445	20    	0.936516	0.00220105	0.934921	0.945053
446	20    	0.936516	0.00220105	0.934921	0.945053
447	20    	0.936516	0.00220105	0.934921	0.945053
448	20    	0.936516	0.00220105	0.934921	0.945053
449	20    	0.936516	0.00220105	0.934921	0.945053
450	20    	0.936516	0.00220105	0.934921	0.945053
451	20    	0.936516	0.00220105	0.934921	0.945053
452	20    	0.936588	0.00217101	0.934921	0.945053
453	20    	0.936733	0.00215157	0.934921	0.945053
454	20    	0.936733	0.00215157	0.934921	0.945053
455	20    	0.936733	0.00215157	0.934921	0.945053
456	20    	0.936733	0.00215157	0.934921	0.945053
457	20    	0.936733	0.00215157	0.934921	0.945053
458	20    	0.936733	0.00215157	0.934921	0.945053
459	20    	0.936733	0.00215157	0.934921	0.945053
460	20    	0.936733	0.00215157	0.934921	0.945053
461	20    	0.936733	0.00215157	0.934921	0.945053
462	20    	0.936733	0.00215157	0.934921	0.945053
463	20    	0.936733	0.00215157	0.934921	0.945053
464	20    	0.936733	0.00215157	0.934921	0.945053
465	20    	0.936733	0.00215157	0.934921	0.945053
466	20    	0.936733	0.00215157	0.934921	0.945053
467	20    	0.936733	0.00215157	0.934921	0.945053
468	20    	0.936733	0.00215157	0.934921	0.945053
469	20    	0.936733	0.00215157	0.934921	0.945053
470	20    	0.936733	0.00215157	0.934921	0.945053
471	20    	0.936733	0.00215157	0.934921	0.945053
472	20    	0.936733	0.00215157	0.934921	0.945053
473	20    	0.936733	0.00215157	0.934921	0.945053
474	20    	0.936733	0.00215157	0.934921	0.945053
475	20    	0.936733	0.00215157	0.934921	0.945053
476	20    	0.936733	0.00215157	0.934921	0.945053
477	20    	0.936733	0.00215157	0.934921	0.945053
478	20    	0.936733	0.00215157	0.934921	0.945053
479	20    	0.936733	0.00215157	0.934921	0.945053
480	20    	0.936733	0.00215157	0.934921	0.945053
481	20    	0.936733	0.00215157	0.934921	0.945053
482	20    	0.93677 	0.0021265 	0.934921	0.945053
483	20    	0.93677 	0.0021265 	0.934921	0.945053
484	20    	0.93677 	0.0021265 	0.934921	0.945053
485	20    	0.93677 	0.0021265 	0.934921	0.945053
486	20    	0.93677 	0.0021265 	0.934921	0.945053
487	20    	0.93677 	0.0021265 	0.934921	0.945053
488	20    	0.93677 	0.0021265 	0.934921	0.945053
489	20    	0.93677 	0.0021265 	0.934921	0.945053
490	20    	0.93677 	0.0021265 	0.934921	0.945053
491	20    	0.93677 	0.0021265 	0.934921	0.945053
492	20    	0.93677 	0.0021265 	0.934921	0.945053
493	20    	0.93677 	0.0021265 	0.934921	0.945053
494	20    	0.93677 	0.0021265 	0.934921	0.945053
495	20    	0.93677 	0.0021265 	0.934921	0.945053
496	20    	0.93677 	0.0021265 	0.934921	0.945053
497	20    	0.93677 	0.0021265 	0.934921	0.945053
498	20    	0.93677 	0.0021265 	0.934921	0.945053
499	20    	0.93677 	0.0021265 	0.934921	0.945053
