gen	nevals	avg     	std        	min     	max     
0  	20    	0.873302	0.0057907  	0.861404	0.885315
1  	20    	0.878897	0.00435645 	0.872833	0.889114
2  	20    	0.882242	0.00305959 	0.878372	0.889114
3  	20    	0.885119	0.00325993 	0.8815  	0.894669
4  	20    	0.887198	0.00310751 	0.883926	0.894669
5  	20    	0.888306	0.0028989  	0.884964	0.894669
6  	20    	0.889188	0.00271018 	0.885651	0.894669
7  	20    	0.89047 	0.00288481 	0.886688	0.896393
8  	20    	0.891094	0.00250097 	0.887741	0.896393
9  	20    	0.892514	0.00333705 	0.888779	0.902283
10 	20    	0.893693	0.00320262 	0.889816	0.902283
11 	20    	0.89423 	0.00274947 	0.890854	0.902283
12 	20    	0.894698	0.00263856 	0.891541	0.902283
13 	20    	0.895513	0.00238642 	0.892578	0.902283
14 	20    	0.895826	0.00227379 	0.892929	0.902283
15 	20    	0.896017	0.00218088 	0.89328 	0.902283
16 	20    	0.89612 	0.00207886 	0.893631	0.902283
17 	20    	0.897055	0.0023385  	0.894318	0.902283
18 	20    	0.897541	0.00190904 	0.895706	0.902283
19 	20    	0.897748	0.00179564 	0.896057	0.902283
20 	20    	0.897972	0.00181176 	0.896393	0.902283
21 	20    	0.898562	0.00195009 	0.896393	0.902634
22 	20    	0.898994	0.0018547  	0.897095	0.902634
23 	20    	0.89948 	0.00178665 	0.89743 	0.902634
24 	20    	0.899706	0.00167736 	0.897781	0.902634
25 	20    	0.900069	0.00148269 	0.898132	0.902634
26 	20    	0.900294	0.0014237  	0.898132	0.902634
27 	20    	0.900328	0.00137547 	0.898468	0.902634
28 	20    	0.900762	0.00142223 	0.898819	0.904022
29 	20    	0.901057	0.00117193 	0.89917 	0.904022
30 	20    	0.901524	0.00194021 	0.899521	0.908524
31 	20    	0.902217	0.00204341 	0.900208	0.908524
32 	20    	0.902529	0.00218435 	0.900558	0.908524
33 	20    	0.90272 	0.00217045 	0.900558	0.908524
34 	20    	0.902945	0.00206595 	0.900894	0.908524
35 	20    	0.903014	0.00201866 	0.900894	0.908524
36 	20    	0.903223	0.002004   	0.900894	0.908524
37 	20    	0.903535	0.00194624 	0.901245	0.908524
38 	20    	0.904072	0.00194647 	0.901947	0.908524
39 	20    	0.904106	0.00191449 	0.901947	0.908524
40 	20    	0.904279	0.00182126 	0.902283	0.908524
41 	20    	0.904505	0.00169617 	0.902283	0.908524
42 	20    	0.904592	0.001623   	0.902283	0.908524
43 	20    	0.904627	0.0015797  	0.902634	0.908524
44 	20    	0.904991	0.001887   	0.902634	0.909912
45 	20    	0.905112	0.00180788 	0.902634	0.909912
46 	20    	0.905424	0.00166714 	0.903671	0.909912
47 	20    	0.905615	0.00155405 	0.904022	0.909912
48 	20    	0.90565 	0.0015258  	0.904022	0.909912
49 	20    	0.90565 	0.0015258  	0.904022	0.909912
50 	20    	0.905944	0.00147548 	0.904373	0.909912
51 	20    	0.905996	0.00143708 	0.904373	0.909912
52 	20    	0.905996	0.00143708 	0.904373	0.909912
53 	20    	0.905996	0.00143708 	0.904373	0.909912
54 	20    	0.905996	0.00143708 	0.904373	0.909912
55 	20    	0.906151	0.00133473 	0.904373	0.909912
56 	20    	0.906151	0.00133473 	0.904373	0.909912
57 	20    	0.906151	0.00133473 	0.904373	0.909912
58 	20    	0.906358	0.00136452 	0.904709	0.909912
59 	20    	0.906358	0.00136452 	0.904709	0.909912
60 	20    	0.906429	0.0012941  	0.904709	0.909912
61 	20    	0.906429	0.0012941  	0.904709	0.909912
62 	20    	0.906516	0.0012326  	0.90506 	0.909912
63 	20    	0.906516	0.0012326  	0.90506 	0.909912
64 	20    	0.906723	0.00131657 	0.90506 	0.909912
65 	20    	0.906723	0.00131657 	0.90506 	0.909912
66 	20    	0.906931	0.00136429 	0.905411	0.909912
67 	20    	0.906947	0.00134745 	0.905411	0.909912
68 	20    	0.907069	0.00131241 	0.905411	0.909912
69 	20    	0.907069	0.00131241 	0.905411	0.909912
70 	20    	0.907069	0.00131241 	0.905411	0.909912
71 	20    	0.907085	0.0012931  	0.905746	0.909912
72 	20    	0.907085	0.0012931  	0.905746	0.909912
73 	20    	0.907121	0.00126552 	0.905746	0.909912
74 	20    	0.907121	0.00126552 	0.905746	0.909912
75 	20    	0.907172	0.00122886 	0.905746	0.909912
76 	20    	0.907207	0.00119725 	0.905746	0.909912
77 	20    	0.907207	0.00119725 	0.905746	0.909912
78 	20    	0.90726 	0.00114888 	0.906097	0.909912
79 	20    	0.90726 	0.00114888 	0.906097	0.909912
80 	20    	0.90726 	0.00114888 	0.906097	0.909912
81 	20    	0.90726 	0.00114888 	0.906097	0.909912
82 	20    	0.90726 	0.00114888 	0.906097	0.909912
83 	20    	0.90726 	0.00114888 	0.906097	0.909912
84 	20    	0.907364	0.00113278 	0.906448	0.909912
85 	20    	0.907502	0.00118011 	0.906448	0.909912
86 	20    	0.907553	0.00114523 	0.906448	0.909912
87 	20    	0.907553	0.00114523 	0.906448	0.909912
88 	20    	0.907657	0.00113439 	0.906448	0.909912
89 	20    	0.907777	0.00107386 	0.906448	0.909912
90 	20    	0.907777	0.00107386 	0.906448	0.909912
91 	20    	0.907777	0.00107386 	0.906448	0.909912
92 	20    	0.907777	0.00107386 	0.906448	0.909912
93 	20    	0.907777	0.00107386 	0.906448	0.909912
94 	20    	0.907777	0.00107386 	0.906448	0.909912
95 	20    	0.907777	0.00107386 	0.906448	0.909912
96 	20    	0.907777	0.00107386 	0.906448	0.909912
97 	20    	0.907777	0.00107386 	0.906448	0.909912
98 	20    	0.907777	0.00107386 	0.906448	0.909912
99 	20    	0.907777	0.00107386 	0.906448	0.909912
100	20    	0.907777	0.00107386 	0.906448	0.909912
101	20    	0.907777	0.00107386 	0.906448	0.909912
102	20    	0.907915	0.00100297 	0.906448	0.909912
103	20    	0.907915	0.00100297 	0.906448	0.909912
104	20    	0.907915	0.00100297 	0.906448	0.909912
105	20    	0.907915	0.00100297 	0.906448	0.909912
106	20    	0.908019	0.000951866	0.906448	0.909912
107	20    	0.908054	0.000905858	0.906784	0.909912
108	20    	0.908054	0.000905858	0.906784	0.909912
109	20    	0.908054	0.000905858	0.906784	0.909912
110	20    	0.908054	0.000905858	0.906784	0.909912
111	20    	0.908054	0.000905858	0.906784	0.909912
112	20    	0.908089	0.000868834	0.906784	0.909912
113	20    	0.908089	0.000868834	0.906784	0.909912
114	20    	0.908089	0.000868834	0.906784	0.909912
115	20    	0.908089	0.000868834	0.906784	0.909912
116	20    	0.908089	0.000868834	0.906784	0.909912
117	20    	0.908158	0.00081566 	0.907135	0.909912
118	20    	0.908158	0.00081566 	0.907135	0.909912
119	20    	0.908158	0.00081566 	0.907135	0.909912
120	20    	0.908158	0.00081566 	0.907135	0.909912
121	20    	0.908158	0.00081566 	0.907135	0.909912
122	20    	0.908263	0.000773274	0.907135	0.909912
123	20    	0.908263	0.000773274	0.907135	0.909912
124	20    	0.908557	0.000860961	0.907135	0.910599
125	20    	0.908592	0.000815375	0.907486	0.910599
126	20    	0.908592	0.000815375	0.907486	0.910599
127	20    	0.908592	0.000815375	0.907486	0.910599
128	20    	0.908592	0.000815375	0.907486	0.910599
129	20    	0.908592	0.000815375	0.907486	0.910599
130	20    	0.908592	0.000815375	0.907486	0.910599
131	20    	0.908592	0.000815375	0.907486	0.910599
132	20    	0.908592	0.000815375	0.907486	0.910599
133	20    	0.908644	0.000775364	0.907486	0.910599
134	20    	0.908644	0.000775364	0.907486	0.910599
135	20    	0.908662	0.000752592	0.907486	0.910599
136	20    	0.908662	0.000752592	0.907486	0.910599
137	20    	0.908662	0.000752592	0.907486	0.910599
138	20    	0.908662	0.000752592	0.907486	0.910599
139	20    	0.908662	0.000752592	0.907486	0.910599
140	20    	0.908748	0.00071056 	0.907837	0.910599
141	20    	0.908748	0.00071056 	0.907837	0.910599
142	20    	0.908748	0.00071056 	0.907837	0.910599
143	20    	0.908748	0.00071056 	0.907837	0.910599
144	20    	0.908765	0.000692581	0.907837	0.910599
145	20    	0.908765	0.000692581	0.907837	0.910599
146	20    	0.908765	0.000692581	0.907837	0.910599
147	20    	0.908817	0.000659201	0.907837	0.910599
148	20    	0.908817	0.000659201	0.907837	0.910599
149	20    	0.908817	0.000659201	0.907837	0.910599
150	20    	0.908817	0.000659201	0.907837	0.910599
151	20    	0.90892 	0.000660161	0.908173	0.910599
152	20    	0.90892 	0.000660161	0.908173	0.910599
153	20    	0.908972	0.000639822	0.908173	0.910599
154	20    	0.908972	0.000639822	0.908173	0.910599
155	20    	0.908972	0.000639822	0.908173	0.910599
156	20    	0.909163	0.000891953	0.908173	0.911987
157	20    	0.90925 	0.000875812	0.908173	0.911987
158	20    	0.909544	0.0013343  	0.908524	0.914062
159	20    	0.909544	0.0013343  	0.908524	0.914062
160	20    	0.909666	0.00134621 	0.908524	0.914062
161	20    	0.909839	0.00140946 	0.908524	0.914062
162	20    	0.910012	0.00144944 	0.908524	0.914062
163	20    	0.910133	0.00137836 	0.908524	0.914062
164	20    	0.910133	0.00137836 	0.908524	0.914062
165	20    	0.91022 	0.001328   	0.908875	0.914062
166	20    	0.91022 	0.001328   	0.908875	0.914062
167	20    	0.91022 	0.001328   	0.908875	0.914062
168	20    	0.91022 	0.001328   	0.908875	0.914062
169	20    	0.91022 	0.001328   	0.908875	0.914062
170	20    	0.91029 	0.00129163 	0.908875	0.914062
171	20    	0.91029 	0.00129163 	0.908875	0.914062
172	20    	0.91029 	0.00129163 	0.908875	0.914062
173	20    	0.91029 	0.00129163 	0.908875	0.914062
174	20    	0.91029 	0.00129163 	0.908875	0.914062
175	20    	0.91029 	0.00129163 	0.908875	0.914062
176	20    	0.91029 	0.00129163 	0.908875	0.914062
177	20    	0.91029 	0.00129163 	0.908875	0.914062
178	20    	0.910411	0.0012667  	0.90921 	0.914062
179	20    	0.910411	0.0012667  	0.90921 	0.914062
180	20    	0.910446	0.00124243 	0.90921 	0.914062
181	20    	0.910481	0.00121667 	0.90921 	0.914062
182	20    	0.910481	0.00121667 	0.90921 	0.914062
183	20    	0.910481	0.00121667 	0.90921 	0.914062
184	20    	0.910481	0.00121667 	0.90921 	0.914062
185	20    	0.910481	0.00121667 	0.90921 	0.914062
186	20    	0.910481	0.00121667 	0.90921 	0.914062
187	20    	0.910481	0.00121667 	0.90921 	0.914062
188	20    	0.910516	0.00118932 	0.90921 	0.914062
189	20    	0.910516	0.00118932 	0.90921 	0.914062
190	20    	0.910516	0.00118932 	0.90921 	0.914062
191	20    	0.910516	0.00118932 	0.90921 	0.914062
192	20    	0.910516	0.00118932 	0.90921 	0.914062
193	20    	0.910516	0.00118932 	0.90921 	0.914062
194	20    	0.910516	0.00118932 	0.90921 	0.914062
195	20    	0.910707	0.00126785 	0.90921 	0.914062
196	20    	0.910707	0.00126785 	0.90921 	0.914062
197	20    	0.910707	0.00126785 	0.90921 	0.914062
198	20    	0.910915	0.00134467 	0.90921 	0.914062
199	20    	0.911227	0.00161059 	0.909561	0.915451
200	20    	0.911227	0.00161059 	0.909561	0.915451
201	20    	0.911227	0.00161059 	0.909561	0.915451
202	20    	0.911227	0.00161059 	0.909561	0.915451
203	20    	0.911227	0.00161059 	0.909561	0.915451
204	20    	0.911227	0.00161059 	0.909561	0.915451
205	20    	0.911349	0.00157141 	0.909912	0.915451
206	20    	0.911349	0.00157141 	0.909912	0.915451
207	20    	0.911349	0.00157141 	0.909912	0.915451
208	20    	0.911349	0.00157141 	0.909912	0.915451
209	20    	0.911556	0.00164052 	0.909912	0.915451
210	20    	0.911556	0.00164052 	0.909912	0.915451
211	20    	0.911556	0.00164052 	0.909912	0.915451
212	20    	0.911556	0.00164052 	0.909912	0.915451
213	20    	0.911556	0.00164052 	0.909912	0.915451
214	20    	0.911764	0.00168141 	0.909912	0.915451
215	20    	0.911868	0.00159367 	0.909912	0.915451
216	20    	0.911868	0.00159367 	0.909912	0.915451
217	20    	0.911902	0.00155818 	0.909912	0.915451
218	20    	0.911902	0.00155818 	0.909912	0.915451
219	20    	0.911902	0.00155818 	0.909912	0.915451
220	20    	0.911902	0.00155818 	0.909912	0.915451
221	20    	0.911902	0.00155818 	0.909912	0.915451
222	20    	0.912109	0.00155574 	0.910263	0.915451
223	20    	0.912213	0.00149724 	0.910263	0.915451
224	20    	0.912213	0.00149724 	0.910263	0.915451
225	20    	0.912213	0.00149724 	0.910263	0.915451
226	20    	0.912213	0.00149724 	0.910263	0.915451
227	20    	0.912213	0.00149724 	0.910263	0.915451
228	20    	0.912213	0.00149724 	0.910263	0.915451
229	20    	0.912213	0.00149724 	0.910263	0.915451
230	20    	0.912213	0.00149724 	0.910263	0.915451
231	20    	0.912369	0.0014474  	0.910263	0.915451
232	20    	0.912473	0.0013378  	0.910599	0.915451
233	20    	0.912473	0.0013378  	0.910599	0.915451
234	20    	0.912473	0.0013378  	0.910599	0.915451
235	20    	0.912473	0.0013378  	0.910599	0.915451
236	20    	0.912715	0.00122287 	0.91095 	0.915451
237	20    	0.912958	0.00132557 	0.91095 	0.915802
238	20    	0.912958	0.00132557 	0.91095 	0.915802
239	20    	0.913183	0.00134748 	0.911301	0.915802
240	20    	0.913183	0.00134748 	0.911301	0.915802
241	20    	0.913183	0.00134748 	0.911301	0.915802
242	20    	0.913183	0.00134748 	0.911301	0.915802
243	20    	0.913183	0.00134748 	0.911301	0.915802
244	20    	0.913183	0.00134748 	0.911301	0.915802
245	20    	0.913183	0.00134748 	0.911301	0.915802
246	20    	0.913183	0.00134748 	0.911301	0.915802
247	20    	0.913183	0.00134748 	0.911301	0.915802
248	20    	0.913183	0.00134748 	0.911301	0.915802
249	20    	0.913183	0.00134748 	0.911301	0.915802
250	20    	0.913183	0.00134748 	0.911301	0.915802
251	20    	0.913183	0.00134748 	0.911301	0.915802
252	20    	0.913183	0.00134748 	0.911301	0.915802
253	20    	0.913183	0.00134748 	0.911301	0.915802
254	20    	0.913183	0.00134748 	0.911301	0.915802
255	20    	0.913304	0.00128009 	0.911301	0.915802
256	20    	0.913304	0.00128009 	0.911301	0.915802
257	20    	0.913304	0.00128009 	0.911301	0.915802
258	20    	0.913425	0.00119673 	0.911636	0.915802
259	20    	0.913425	0.00119673 	0.911636	0.915802
260	20    	0.913425	0.00119673 	0.911636	0.915802
261	20    	0.913425	0.00119673 	0.911636	0.915802
262	20    	0.913461	0.00115325 	0.911987	0.915802
263	20    	0.913599	0.00113454 	0.911987	0.915802
264	20    	0.913634	0.00109427 	0.911987	0.915802
265	20    	0.913634	0.00109427 	0.911987	0.915802
266	20    	0.913634	0.00109427 	0.911987	0.915802
267	20    	0.913634	0.00109427 	0.911987	0.915802
268	20    	0.913686	0.00103811 	0.911987	0.915802
269	20    	0.913686	0.00103811 	0.911987	0.915802
270	20    	0.913686	0.00103811 	0.911987	0.915802
271	20    	0.913686	0.00103811 	0.911987	0.915802
272	20    	0.913686	0.00103811 	0.911987	0.915802
273	20    	0.913686	0.00103811 	0.911987	0.915802
274	20    	0.913686	0.00103811 	0.911987	0.915802
275	20    	0.913686	0.00103811 	0.911987	0.915802
276	20    	0.913686	0.00103811 	0.911987	0.915802
277	20    	0.913686	0.00103811 	0.911987	0.915802
278	20    	0.913686	0.00103811 	0.911987	0.915802
279	20    	0.913686	0.00103811 	0.911987	0.915802
280	20    	0.913947	0.00121639 	0.912338	0.917191
281	20    	0.913947	0.00121639 	0.912338	0.917191
282	20    	0.913947	0.00121639 	0.912338	0.917191
283	20    	0.913947	0.00121639 	0.912338	0.917191
284	20    	0.913947	0.00121639 	0.912338	0.917191
285	20    	0.913947	0.00121639 	0.912338	0.917191
286	20    	0.913947	0.00121639 	0.912338	0.917191
287	20    	0.913947	0.00121639 	0.912338	0.917191
288	20    	0.913947	0.00121639 	0.912338	0.917191
289	20    	0.913964	0.00119541 	0.912338	0.917191
290	20    	0.914223	0.00136529 	0.912689	0.917526
291	20    	0.914223	0.00136529 	0.912689	0.917526
292	20    	0.914223	0.00136529 	0.912689	0.917526
293	20    	0.914223	0.00136529 	0.912689	0.917526
294	20    	0.914223	0.00136529 	0.912689	0.917526
295	20    	0.914223	0.00136529 	0.912689	0.917526
296	20    	0.914223	0.00136529 	0.912689	0.917526
297	20    	0.914379	0.00135892 	0.912689	0.917526
298	20    	0.914725	0.00171916 	0.913025	0.919617
299	20    	0.914725	0.00171916 	0.913025	0.919617
300	20    	0.914725	0.00171916 	0.913025	0.919617
301	20    	0.914725	0.00171916 	0.913025	0.919617
302	20    	0.914725	0.00171916 	0.913025	0.919617
303	20    	0.914725	0.00171916 	0.913025	0.919617
304	20    	0.914864	0.00168807 	0.913025	0.919617
305	20    	0.914864	0.00168807 	0.913025	0.919617
306	20    	0.914864	0.00168807 	0.913025	0.919617
307	20    	0.914864	0.00168807 	0.913025	0.919617
308	20    	0.914864	0.00168807 	0.913025	0.919617
309	20    	0.914864	0.00168807 	0.913025	0.919617
310	20    	0.914864	0.00168807 	0.913025	0.919617
311	20    	0.914899	0.00165646 	0.913025	0.919617
312	20    	0.914899	0.00165646 	0.913025	0.919617
313	20    	0.914917	0.00163827 	0.913376	0.919617
314	20    	0.914917	0.00163827 	0.913376	0.919617
315	20    	0.914917	0.00163827 	0.913376	0.919617
316	20    	0.914917	0.00163827 	0.913376	0.919617
317	20    	0.914917	0.00163827 	0.913376	0.919617
318	20    	0.914917	0.00163827 	0.913376	0.919617
319	20    	0.915195	0.0015881  	0.913376	0.919617
320	20    	0.915195	0.0015881  	0.913376	0.919617
321	20    	0.915195	0.0015881  	0.913376	0.919617
322	20    	0.915195	0.0015881  	0.913376	0.919617
323	20    	0.915195	0.0015881  	0.913376	0.919617
324	20    	0.915195	0.0015881  	0.913376	0.919617
325	20    	0.915195	0.0015881  	0.913376	0.919617
326	20    	0.915195	0.0015881  	0.913376	0.919617
327	20    	0.915195	0.0015881  	0.913376	0.919617
328	20    	0.915195	0.0015881  	0.913376	0.919617
329	20    	0.915195	0.0015881  	0.913376	0.919617
330	20    	0.915437	0.00166069 	0.913376	0.919617
331	20    	0.915437	0.00166069 	0.913376	0.919617
332	20    	0.915437	0.00166069 	0.913376	0.919617
333	20    	0.915524	0.00159488 	0.913727	0.919617
334	20    	0.915524	0.00159488 	0.913727	0.919617
335	20    	0.915524	0.00159488 	0.913727	0.919617
336	20    	0.915524	0.00159488 	0.913727	0.919617
337	20    	0.915524	0.00159488 	0.913727	0.919617
338	20    	0.915524	0.00159488 	0.913727	0.919617
339	20    	0.915524	0.00159488 	0.913727	0.919617
340	20    	0.915662	0.00155233 	0.913727	0.919617
341	20    	0.915662	0.00155233 	0.913727	0.919617
342	20    	0.915662	0.00155233 	0.913727	0.919617
343	20    	0.915662	0.00155233 	0.913727	0.919617
344	20    	0.915662	0.00155233 	0.913727	0.919617
345	20    	0.915662	0.00155233 	0.913727	0.919617
346	20    	0.915662	0.00155233 	0.913727	0.919617
347	20    	0.915852	0.00153633 	0.913727	0.919617
348	20    	0.915852	0.00153633 	0.913727	0.919617
349	20    	0.915852	0.00153633 	0.913727	0.919617
350	20    	0.915852	0.00153633 	0.913727	0.919617
351	20    	0.916059	0.00151548 	0.914062	0.919617
352	20    	0.916059	0.00151548 	0.914062	0.919617
353	20    	0.916059	0.00151548 	0.914062	0.919617
354	20    	0.916059	0.00151548 	0.914062	0.919617
355	20    	0.916059	0.00151548 	0.914062	0.919617
356	20    	0.916059	0.00151548 	0.914062	0.919617
357	20    	0.916059	0.00151548 	0.914062	0.919617
358	20    	0.916094	0.00147646 	0.914062	0.919617
359	20    	0.916094	0.00147646 	0.914062	0.919617
360	20    	0.916094	0.00147646 	0.914062	0.919617
361	20    	0.916129	0.00143552 	0.914062	0.919617
362	20    	0.916129	0.00143552 	0.914062	0.919617
363	20    	0.916164	0.0013925  	0.914062	0.919617
364	20    	0.916164	0.0013925  	0.914062	0.919617
365	20    	0.916164	0.0013925  	0.914062	0.919617
366	20    	0.916164	0.0013925  	0.914062	0.919617
367	20    	0.916164	0.0013925  	0.914062	0.919617
368	20    	0.916164	0.0013925  	0.914062	0.919617
369	20    	0.916164	0.0013925  	0.914062	0.919617
370	20    	0.916338	0.00128    	0.914764	0.919617
371	20    	0.916338	0.00128    	0.914764	0.919617
372	20    	0.916338	0.00128    	0.914764	0.919617
373	20    	0.916338	0.00128    	0.914764	0.919617
374	20    	0.916338	0.00128    	0.914764	0.919617
375	20    	0.916338	0.00128    	0.914764	0.919617
376	20    	0.916338	0.00128    	0.914764	0.919617
377	20    	0.916338	0.00128    	0.914764	0.919617
378	20    	0.916338	0.00128    	0.914764	0.919617
379	20    	0.916338	0.00128    	0.914764	0.919617
380	20    	0.916338	0.00128    	0.914764	0.919617
381	20    	0.916338	0.00128    	0.914764	0.919617
382	20    	0.916338	0.00128    	0.914764	0.919617
383	20    	0.916338	0.00128    	0.914764	0.919617
384	20    	0.916338	0.00128    	0.914764	0.919617
385	20    	0.916338	0.00128    	0.914764	0.919617
386	20    	0.916338	0.00128    	0.914764	0.919617
387	20    	0.916338	0.00128    	0.914764	0.919617
388	20    	0.916338	0.00128    	0.914764	0.919617
389	20    	0.916338	0.00128    	0.914764	0.919617
390	20    	0.916338	0.00128    	0.914764	0.919617
391	20    	0.916338	0.00128    	0.914764	0.919617
392	20    	0.916338	0.00128    	0.914764	0.919617
393	20    	0.916338	0.00128    	0.914764	0.919617
394	20    	0.916338	0.00128    	0.914764	0.919617
395	20    	0.916338	0.00128    	0.914764	0.919617
396	20    	0.916338	0.00128    	0.914764	0.919617
397	20    	0.916338	0.00128    	0.914764	0.919617
398	20    	0.916338	0.00128    	0.914764	0.919617
399	20    	0.916338	0.00128    	0.914764	0.919617
400	20    	0.916407	0.00122945 	0.914764	0.919617
401	20    	0.916528	0.00118009 	0.914764	0.919617
402	20    	0.916528	0.00118009 	0.914764	0.919617
403	20    	0.916528	0.00118009 	0.914764	0.919617
404	20    	0.916528	0.00118009 	0.914764	0.919617
405	20    	0.916563	0.00113749 	0.9151  	0.919617
406	20    	0.916563	0.00113749 	0.9151  	0.919617
407	20    	0.916563	0.00113749 	0.9151  	0.919617
408	20    	0.916563	0.00113749 	0.9151  	0.919617
409	20    	0.916771	0.00122837 	0.915451	0.919617
410	20    	0.91684 	0.00119046 	0.915451	0.919617
411	20    	0.916944	0.00115475 	0.915451	0.919617
412	20    	0.916944	0.00115475 	0.915451	0.919617
413	20    	0.916962	0.00113442 	0.915451	0.919617
414	20    	0.916962	0.00113442 	0.915451	0.919617
415	20    	0.916962	0.00113442 	0.915451	0.919617
416	20    	0.916962	0.00113442 	0.915451	0.919617
417	20    	0.916962	0.00113442 	0.915451	0.919617
418	20    	0.916962	0.00113442 	0.915451	0.919617
419	20    	0.916962	0.00113442 	0.915451	0.919617
420	20    	0.916962	0.00113442 	0.915451	0.919617
421	20    	0.916962	0.00113442 	0.915451	0.919617
422	20    	0.916962	0.00113442 	0.915451	0.919617
423	20    	0.916962	0.00113442 	0.915451	0.919617
424	20    	0.916962	0.00113442 	0.915451	0.919617
425	20    	0.916962	0.00113442 	0.915451	0.919617
426	20    	0.916962	0.00113442 	0.915451	0.919617
427	20    	0.916962	0.00113442 	0.915451	0.919617
428	20    	0.917065	0.00108535 	0.915802	0.919617
429	20    	0.917065	0.00108535 	0.915802	0.919617
430	20    	0.917065	0.00108535 	0.915802	0.919617
431	20    	0.917065	0.00108535 	0.915802	0.919617
432	20    	0.917065	0.00108535 	0.915802	0.919617
433	20    	0.917152	0.00104945 	0.915802	0.919617
434	20    	0.917152	0.00104945 	0.915802	0.919617
435	20    	0.917152	0.00104945 	0.915802	0.919617
436	20    	0.917152	0.00104945 	0.915802	0.919617
437	20    	0.917152	0.00104945 	0.915802	0.919617
438	20    	0.917152	0.00104945 	0.915802	0.919617
439	20    	0.917152	0.00104945 	0.915802	0.919617
440	20    	0.917152	0.00104945 	0.915802	0.919617
441	20    	0.917152	0.00104945 	0.915802	0.919617
442	20    	0.917152	0.00104945 	0.915802	0.919617
443	20    	0.917152	0.00104945 	0.915802	0.919617
444	20    	0.917152	0.00104945 	0.915802	0.919617
445	20    	0.917152	0.00104945 	0.915802	0.919617
446	20    	0.917152	0.00104945 	0.915802	0.919617
447	20    	0.917152	0.00104945 	0.915802	0.919617
448	20    	0.917152	0.00104945 	0.915802	0.919617
449	20    	0.917152	0.00104945 	0.915802	0.919617
450	20    	0.917238	0.00100491 	0.915802	0.919617
451	20    	0.917238	0.00100491 	0.915802	0.919617
452	20    	0.917238	0.00100491 	0.915802	0.919617
453	20    	0.917238	0.00100491 	0.915802	0.919617
454	20    	0.917238	0.00100491 	0.915802	0.919617
455	20    	0.917238	0.00100491 	0.915802	0.919617
456	20    	0.917238	0.00100491 	0.915802	0.919617
457	20    	0.917238	0.00100491 	0.915802	0.919617
458	20    	0.917238	0.00100491 	0.915802	0.919617
459	20    	0.917238	0.00100491 	0.915802	0.919617
460	20    	0.917238	0.00100491 	0.915802	0.919617
461	20    	0.917238	0.00100491 	0.915802	0.919617
462	20    	0.917238	0.00100491 	0.915802	0.919617
463	20    	0.917238	0.00100491 	0.915802	0.919617
464	20    	0.917238	0.00100491 	0.915802	0.919617
465	20    	0.917498	0.00124449 	0.915802	0.921005
466	20    	0.917498	0.00124449 	0.915802	0.921005
467	20    	0.917498	0.00124449 	0.915802	0.921005
468	20    	0.917498	0.00124449 	0.915802	0.921005
469	20    	0.917516	0.00122273 	0.916153	0.921005
470	20    	0.917532	0.0012061  	0.916153	0.921005
471	20    	0.917532	0.0012061  	0.916153	0.921005
472	20    	0.917532	0.0012061  	0.916153	0.921005
473	20    	0.917532	0.0012061  	0.916153	0.921005
474	20    	0.917532	0.0012061  	0.916153	0.921005
475	20    	0.917532	0.0012061  	0.916153	0.921005
476	20    	0.917532	0.0012061  	0.916153	0.921005
477	20    	0.917532	0.0012061  	0.916153	0.921005
478	20    	0.917532	0.0012061  	0.916153	0.921005
479	20    	0.917532	0.0012061  	0.916153	0.921005
480	20    	0.917532	0.0012061  	0.916153	0.921005
481	20    	0.917532	0.0012061  	0.916153	0.921005
482	20    	0.917549	0.00118901 	0.916153	0.921005
483	20    	0.917618	0.00114524 	0.916153	0.921005
484	20    	0.917618	0.00114524 	0.916153	0.921005
485	20    	0.917618	0.00114524 	0.916153	0.921005
486	20    	0.917618	0.00114524 	0.916153	0.921005
487	20    	0.917618	0.00114524 	0.916153	0.921005
488	20    	0.917618	0.00114524 	0.916153	0.921005
489	20    	0.917618	0.00114524 	0.916153	0.921005
490	20    	0.917618	0.00114524 	0.916153	0.921005
491	20    	0.917618	0.00114524 	0.916153	0.921005
492	20    	0.917618	0.00114524 	0.916153	0.921005
493	20    	0.917618	0.00114524 	0.916153	0.921005
494	20    	0.917618	0.00114524 	0.916153	0.921005
495	20    	0.917618	0.00114524 	0.916153	0.921005
496	20    	0.917635	0.00112595 	0.916489	0.921005
497	20    	0.917635	0.00112595 	0.916489	0.921005
498	20    	0.917635	0.00112595 	0.916489	0.921005
499	20    	0.917635	0.00112595 	0.916489	0.921005
