gen	nevals	avg     	std       	min     	max     
0  	20    	0.871429	0.00766286	0.860657	0.887589
1  	20    	0.879216	0.00475445	0.87178 	0.887589
2  	20    	0.882788	0.00366299	0.87764 	0.888763
3  	20    	0.884836	0.00311465	0.879974	0.889923
4  	20    	0.88709 	0.00220116	0.882904	0.889923
5  	20    	0.888496	0.00148492	0.885834	0.892273
6  	20    	0.889256	0.00157359	0.887589	0.893448
7  	20    	0.890427	0.00201458	0.888763	0.896378
8  	20    	0.892269	0.00422902	0.889343	0.907501
9  	20    	0.89359 	0.00394173	0.889923	0.907501
10 	20    	0.894792	0.00411538	0.891098	0.907501
11 	20    	0.895582	0.00384539	0.891693	0.907501
12 	20    	0.895962	0.00362487	0.892273	0.907501
13 	20    	0.896722	0.00335695	0.894028	0.907501
14 	20    	0.897103	0.00324509	0.894028	0.907501
15 	20    	0.897777	0.00298283	0.894608	0.907501
16 	20    	0.89886 	0.00334845	0.895782	0.907501
17 	20    	0.90009 	0.00401558	0.896378	0.909836
18 	20    	0.901201	0.00451195	0.896957	0.91217 
19 	20    	0.902167	0.00483379	0.897537	0.91217 
20 	20    	0.902956	0.00439238	0.898712	0.91217 
21 	20    	0.903542	0.00416341	0.899292	0.91217 
22 	20    	0.904479	0.00367908	0.899887	0.91217 
23 	20    	0.9048  	0.00335932	0.901047	0.91217 
24 	20    	0.906001	0.00304381	0.902817	0.91217 
25 	20    	0.906703	0.00355832	0.903397	0.915695
26 	20    	0.907055	0.00338873	0.903397	0.915695
27 	20    	0.907523	0.003356  	0.903976	0.915695
28 	20    	0.908109	0.00315451	0.903976	0.915695
29 	20    	0.908929	0.00285858	0.905151	0.915695
30 	20    	0.909251	0.00258467	0.905731	0.915695
31 	20    	0.909251	0.00258467	0.905731	0.915695
32 	20    	0.909339	0.00249126	0.905731	0.915695
33 	20    	0.909661	0.00241923	0.906326	0.915695
34 	20    	0.909779	0.00227888	0.907501	0.915695
35 	20    	0.910509	0.00258467	0.907501	0.915695
36 	20    	0.910626	0.00249742	0.907501	0.915695
37 	20    	0.910976	0.00227742	0.907501	0.915695
38 	20    	0.911591	0.00223731	0.908081	0.916275
39 	20    	0.911942	0.00220961	0.908661	0.916275
40 	20    	0.911942	0.00220961	0.908661	0.916275
41 	20    	0.912   	0.002136  	0.908661	0.916275
42 	20    	0.912059	0.00205809	0.909836	0.916275
43 	20    	0.912205	0.00196364	0.909836	0.916275
44 	20    	0.912205	0.00196364	0.909836	0.916275
45 	20    	0.912205	0.00196364	0.909836	0.916275
46 	20    	0.912205	0.00196364	0.909836	0.916275
47 	20    	0.912205	0.00196364	0.909836	0.916275
48 	20    	0.912205	0.00196364	0.909836	0.916275
49 	20    	0.91241 	0.00191932	0.909836	0.916275
50 	20    	0.91241 	0.00191932	0.909836	0.916275
51 	20    	0.91241 	0.00191932	0.909836	0.916275
52 	20    	0.912469	0.00185659	0.910416	0.916275
53 	20    	0.912469	0.00185659	0.910416	0.916275
54 	20    	0.912527	0.00180867	0.910416	0.916275
55 	20    	0.912527	0.00180867	0.910416	0.916275
56 	20    	0.912527	0.00180867	0.910416	0.916275
57 	20    	0.912967	0.00225487	0.910416	0.919205
58 	20    	0.913552	0.00227841	0.911011	0.919205
59 	20    	0.913552	0.00227841	0.911011	0.919205
60 	20    	0.913552	0.00227841	0.911011	0.919205
61 	20    	0.913728	0.00221005	0.911011	0.919205
62 	20    	0.913757	0.00217779	0.911591	0.919205
63 	20    	0.913757	0.00217779	0.911591	0.919205
64 	20    	0.913757	0.00217779	0.911591	0.919205
65 	20    	0.914079	0.0022311 	0.911591	0.919205
66 	20    	0.914079	0.0022311 	0.911591	0.919205
67 	20    	0.914635	0.00238478	0.911591	0.919785
68 	20    	0.914722	0.00230201	0.91217 	0.919785
69 	20    	0.91484 	0.00222752	0.91217 	0.919785
70 	20    	0.914899	0.00217112	0.91217 	0.919785
71 	20    	0.915045	0.00207898	0.91217 	0.919785
72 	20    	0.915221	0.00197459	0.91217 	0.919785
73 	20    	0.915368	0.00184739	0.91217 	0.919785
74 	20    	0.915398	0.00179984	0.912766	0.919785
75 	20    	0.915398	0.00179984	0.912766	0.919785
76 	20    	0.915632	0.0016852 	0.913345	0.919785
77 	20    	0.915632	0.0016852 	0.913345	0.919785
78 	20    	0.915953	0.00157538	0.91394 	0.919785
79 	20    	0.916275	0.00161399	0.91452 	0.919785
80 	20    	0.916304	0.0015872 	0.91452 	0.919785
81 	20    	0.916304	0.0015872 	0.91452 	0.919785
82 	20    	0.916304	0.0015872 	0.91452 	0.919785
83 	20    	0.916479	0.00157424	0.91452 	0.919785
84 	20    	0.916714	0.00161332	0.91452 	0.919785
85 	20    	0.916714	0.00161332	0.91452 	0.919785
86 	20    	0.916714	0.00161332	0.91452 	0.919785
87 	20    	0.916714	0.00161332	0.91452 	0.919785
88 	20    	0.916714	0.00161332	0.91452 	0.919785
89 	20    	0.916714	0.00161332	0.91452 	0.919785
90 	20    	0.916714	0.00161332	0.91452 	0.919785
91 	20    	0.916714	0.00161332	0.91452 	0.919785
92 	20    	0.916714	0.00161332	0.91452 	0.919785
93 	20    	0.916743	0.00157847	0.9151  	0.919785
94 	20    	0.916743	0.00157847	0.9151  	0.919785
95 	20    	0.916743	0.00157847	0.9151  	0.919785
96 	20    	0.916743	0.00157847	0.9151  	0.919785
97 	20    	0.916743	0.00157847	0.9151  	0.919785
98 	20    	0.916743	0.00157847	0.9151  	0.919785
99 	20    	0.916743	0.00157847	0.9151  	0.919785
100	20    	0.916743	0.00157847	0.9151  	0.919785
101	20    	0.916743	0.00157847	0.9151  	0.919785
102	20    	0.91683 	0.00153284	0.9151  	0.919785
103	20    	0.916889	0.00148723	0.9151  	0.919785
104	20    	0.916889	0.00148723	0.9151  	0.919785
105	20    	0.916889	0.00148723	0.9151  	0.919785
106	20    	0.916977	0.00142975	0.9151  	0.919785
107	20    	0.916977	0.00142975	0.9151  	0.919785
108	20    	0.916977	0.00142975	0.9151  	0.919785
109	20    	0.917036	0.0013745 	0.9151  	0.919785
110	20    	0.917036	0.0013745 	0.9151  	0.919785
111	20    	0.917036	0.0013745 	0.9151  	0.919785
112	20    	0.91727 	0.00142298	0.9151  	0.919785
113	20    	0.9173  	0.00138296	0.915695	0.919785
114	20    	0.9173  	0.00138296	0.915695	0.919785
115	20    	0.9173  	0.00138296	0.915695	0.919785
116	20    	0.9173  	0.00138296	0.915695	0.919785
117	20    	0.9173  	0.00138296	0.915695	0.919785
118	20    	0.917767	0.00190194	0.915695	0.923889
119	20    	0.917884	0.00184188	0.915695	0.923889
120	20    	0.917884	0.00184188	0.915695	0.923889
121	20    	0.918294	0.00218819	0.916275	0.923889
122	20    	0.918294	0.00218819	0.916275	0.923889
123	20    	0.918294	0.00218819	0.916275	0.923889
124	20    	0.918294	0.00218819	0.916275	0.923889
125	20    	0.918294	0.00218819	0.916275	0.923889
126	20    	0.918557	0.00224539	0.916275	0.923889
127	20    	0.918586	0.00221934	0.916275	0.923889
128	20    	0.918761	0.00216782	0.916855	0.923889
129	20    	0.918879	0.00212455	0.916855	0.923889
130	20    	0.918996	0.00207374	0.916855	0.923889
131	20    	0.919143	0.00202007	0.916855	0.923889
132	20    	0.919173	0.00199031	0.916855	0.923889
133	20    	0.919173	0.00199031	0.916855	0.923889
134	20    	0.919173	0.00199031	0.916855	0.923889
135	20    	0.919261	0.00192351	0.916855	0.923889
136	20    	0.919525	0.00193739	0.916855	0.923889
137	20    	0.919525	0.00193739	0.916855	0.923889
138	20    	0.919525	0.00193739	0.916855	0.923889
139	20    	0.919555	0.00190036	0.91745 	0.923889
140	20    	0.919555	0.00190036	0.91745 	0.923889
141	20    	0.919555	0.00190036	0.91745 	0.923889
142	20    	0.919555	0.00190036	0.91745 	0.923889
143	20    	0.919555	0.00190036	0.91745 	0.923889
144	20    	0.919818	0.00195439	0.91745 	0.923889
145	20    	0.919847	0.00192309	0.91745 	0.923889
146	20    	0.920081	0.00190202	0.91745 	0.923889
147	20    	0.920081	0.00190202	0.91745 	0.923889
148	20    	0.920169	0.0018172 	0.91803 	0.923889
149	20    	0.920169	0.0018172 	0.91803 	0.923889
150	20    	0.920169	0.0018172 	0.91803 	0.923889
151	20    	0.920169	0.0018172 	0.91803 	0.923889
152	20    	0.920287	0.0017498 	0.91803 	0.923889
153	20    	0.920287	0.0017498 	0.91803 	0.923889
154	20    	0.920667	0.00175188	0.918625	0.923889
155	20    	0.920843	0.00171387	0.919205	0.923889
156	20    	0.920843	0.00171387	0.919205	0.923889
157	20    	0.920989	0.00163064	0.919205	0.923889
158	20    	0.921194	0.0016513 	0.919205	0.923889
159	20    	0.921194	0.0016513 	0.919205	0.923889
160	20    	0.921194	0.0016513 	0.919205	0.923889
161	20    	0.921194	0.0016513 	0.919205	0.923889
162	20    	0.921223	0.00162092	0.919205	0.923889
163	20    	0.921311	0.00155544	0.919205	0.923889
164	20    	0.921311	0.00155544	0.919205	0.923889
165	20    	0.921311	0.00155544	0.919205	0.923889
166	20    	0.921311	0.00155544	0.919205	0.923889
167	20    	0.921458	0.0014866 	0.919785	0.923889
168	20    	0.921926	0.00219358	0.919785	0.929153
169	20    	0.921926	0.00219358	0.919785	0.929153
170	20    	0.921926	0.00219358	0.919785	0.929153
171	20    	0.922073	0.00214291	0.919785	0.929153
172	20    	0.922073	0.00214291	0.919785	0.929153
173	20    	0.922131	0.00209495	0.919785	0.929153
174	20    	0.922131	0.00209495	0.919785	0.929153
175	20    	0.922131	0.00209495	0.919785	0.929153
176	20    	0.922308	0.00203759	0.919785	0.929153
177	20    	0.922308	0.00203759	0.919785	0.929153
178	20    	0.922395	0.00196349	0.919785	0.929153
179	20    	0.92263 	0.00191693	0.92038 	0.929153
180	20    	0.92263 	0.00191693	0.92038 	0.929153
181	20    	0.92263 	0.00191693	0.92038 	0.929153
182	20    	0.92263 	0.00191693	0.92038 	0.929153
183	20    	0.92263 	0.00191693	0.92038 	0.929153
184	20    	0.92263 	0.00191693	0.92038 	0.929153
185	20    	0.92263 	0.00191693	0.92038 	0.929153
186	20    	0.92263 	0.00191693	0.92038 	0.929153
187	20    	0.92263 	0.00191693	0.92038 	0.929153
188	20    	0.92263 	0.00191693	0.92038 	0.929153
189	20    	0.92263 	0.00191693	0.92038 	0.929153
190	20    	0.923127	0.00202023	0.920959	0.929153
191	20    	0.923127	0.00202023	0.920959	0.929153
192	20    	0.923127	0.00202023	0.920959	0.929153
193	20    	0.923127	0.00202023	0.920959	0.929153
194	20    	0.923127	0.00202023	0.920959	0.929153
195	20    	0.923127	0.00202023	0.920959	0.929153
196	20    	0.923127	0.00202023	0.920959	0.929153
197	20    	0.923127	0.00202023	0.920959	0.929153
198	20    	0.923127	0.00202023	0.920959	0.929153
199	20    	0.923127	0.00202023	0.920959	0.929153
200	20    	0.923127	0.00202023	0.920959	0.929153
201	20    	0.923156	0.00199289	0.920959	0.929153
202	20    	0.923156	0.00199289	0.920959	0.929153
203	20    	0.923156	0.00199289	0.920959	0.929153
204	20    	0.923156	0.00199289	0.920959	0.929153
205	20    	0.923156	0.00199289	0.920959	0.929153
206	20    	0.923244	0.00191424	0.921539	0.929153
207	20    	0.923244	0.00191424	0.921539	0.929153
208	20    	0.923244	0.00191424	0.921539	0.929153
209	20    	0.923244	0.00191424	0.921539	0.929153
210	20    	0.923244	0.00191424	0.921539	0.929153
211	20    	0.923244	0.00191424	0.921539	0.929153
212	20    	0.923244	0.00191424	0.921539	0.929153
213	20    	0.923537	0.00207278	0.921539	0.929153
214	20    	0.923537	0.00207278	0.921539	0.929153
215	20    	0.923888	0.00203494	0.921539	0.929153
216	20    	0.923888	0.00203494	0.921539	0.929153
217	20    	0.923888	0.00203494	0.921539	0.929153
218	20    	0.923888	0.00203494	0.921539	0.929153
219	20    	0.923888	0.00203494	0.921539	0.929153
220	20    	0.923888	0.00203494	0.921539	0.929153
221	20    	0.923888	0.00203494	0.921539	0.929153
222	20    	0.923888	0.00203494	0.921539	0.929153
223	20    	0.923888	0.00203494	0.921539	0.929153
224	20    	0.923888	0.00203494	0.921539	0.929153
225	20    	0.923888	0.00203494	0.921539	0.929153
226	20    	0.923888	0.00203494	0.921539	0.929153
227	20    	0.923888	0.00203494	0.921539	0.929153
228	20    	0.923888	0.00203494	0.921539	0.929153
229	20    	0.923888	0.00203494	0.921539	0.929153
230	20    	0.923977	0.00196825	0.922134	0.929153
231	20    	0.923977	0.00196825	0.922134	0.929153
232	20    	0.923977	0.00196825	0.922134	0.929153
233	20    	0.923977	0.00196825	0.922134	0.929153
234	20    	0.923977	0.00196825	0.922134	0.929153
235	20    	0.923977	0.00196825	0.922134	0.929153
236	20    	0.923977	0.00196825	0.922134	0.929153
237	20    	0.923977	0.00196825	0.922134	0.929153
238	20    	0.923977	0.00196825	0.922134	0.929153
239	20    	0.923977	0.00196825	0.922134	0.929153
240	20    	0.923977	0.00196825	0.922134	0.929153
241	20    	0.923977	0.00196825	0.922134	0.929153
242	20    	0.923977	0.00196825	0.922134	0.929153
243	20    	0.924036	0.00192954	0.922134	0.929153
244	20    	0.924036	0.00192954	0.922134	0.929153
245	20    	0.924036	0.00192954	0.922134	0.929153
246	20    	0.924036	0.00192954	0.922134	0.929153
247	20    	0.924182	0.00189045	0.922134	0.929153
248	20    	0.924182	0.00189045	0.922134	0.929153
249	20    	0.924182	0.00189045	0.922134	0.929153
250	20    	0.924182	0.00189045	0.922134	0.929153
251	20    	0.924241	0.00184358	0.922134	0.929153
252	20    	0.924241	0.00184358	0.922134	0.929153
253	20    	0.92427 	0.00181455	0.922134	0.929153
254	20    	0.92427 	0.00181455	0.922134	0.929153
255	20    	0.92427 	0.00181455	0.922134	0.929153
256	20    	0.92427 	0.00181455	0.922134	0.929153
257	20    	0.92427 	0.00181455	0.922134	0.929153
258	20    	0.924474	0.00179267	0.922714	0.929153
259	20    	0.924474	0.00179267	0.922714	0.929153
260	20    	0.924592	0.00174996	0.922714	0.929153
261	20    	0.924826	0.00179587	0.922714	0.929153
262	20    	0.924826	0.00179587	0.922714	0.929153
263	20    	0.924826	0.00179587	0.922714	0.929153
264	20    	0.924826	0.00179587	0.922714	0.929153
265	20    	0.924826	0.00179587	0.922714	0.929153
266	20    	0.924826	0.00179587	0.922714	0.929153
267	20    	0.924826	0.00179587	0.922714	0.929153
268	20    	0.924826	0.00179587	0.922714	0.929153
269	20    	0.924826	0.00179587	0.922714	0.929153
270	20    	0.924826	0.00179587	0.922714	0.929153
271	20    	0.924826	0.00179587	0.922714	0.929153
272	20    	0.924826	0.00179587	0.922714	0.929153
273	20    	0.924826	0.00179587	0.922714	0.929153
274	20    	0.924826	0.00179587	0.922714	0.929153
275	20    	0.924826	0.00179587	0.922714	0.929153
276	20    	0.924826	0.00179587	0.922714	0.929153
277	20    	0.924826	0.00179587	0.922714	0.929153
278	20    	0.924826	0.00179587	0.922714	0.929153
279	20    	0.924826	0.00179587	0.922714	0.929153
280	20    	0.924826	0.00179587	0.922714	0.929153
281	20    	0.924826	0.00179587	0.922714	0.929153
282	20    	0.924826	0.00179587	0.922714	0.929153
283	20    	0.924826	0.00179587	0.922714	0.929153
284	20    	0.924826	0.00179587	0.922714	0.929153
285	20    	0.924826	0.00179587	0.922714	0.929153
286	20    	0.924826	0.00179587	0.922714	0.929153
287	20    	0.924826	0.00179587	0.922714	0.929153
288	20    	0.924826	0.00179587	0.922714	0.929153
289	20    	0.924826	0.00179587	0.922714	0.929153
290	20    	0.924826	0.00179587	0.922714	0.929153
291	20    	0.924914	0.00173229	0.923309	0.929153
292	20    	0.924914	0.00173229	0.923309	0.929153
293	20    	0.924914	0.00173229	0.923309	0.929153
294	20    	0.924914	0.00173229	0.923309	0.929153
295	20    	0.925118	0.00177174	0.923309	0.929153
296	20    	0.925118	0.00177174	0.923309	0.929153
297	20    	0.925118	0.00177174	0.923309	0.929153
298	20    	0.925118	0.00177174	0.923309	0.929153
299	20    	0.925118	0.00177174	0.923309	0.929153
300	20    	0.925118	0.00177174	0.923309	0.929153
301	20    	0.925118	0.00177174	0.923309	0.929153
302	20    	0.925118	0.00177174	0.923309	0.929153
303	20    	0.925118	0.00177174	0.923309	0.929153
304	20    	0.925118	0.00177174	0.923309	0.929153
305	20    	0.925118	0.00177174	0.923309	0.929153
306	20    	0.925118	0.00177174	0.923309	0.929153
307	20    	0.925118	0.00177174	0.923309	0.929153
308	20    	0.925118	0.00177174	0.923309	0.929153
309	20    	0.925118	0.00177174	0.923309	0.929153
310	20    	0.925118	0.00177174	0.923309	0.929153
311	20    	0.925118	0.00177174	0.923309	0.929153
312	20    	0.925147	0.00174646	0.923309	0.929153
313	20    	0.925147	0.00174646	0.923309	0.929153
314	20    	0.925147	0.00174646	0.923309	0.929153
315	20    	0.925147	0.00174646	0.923309	0.929153
316	20    	0.925147	0.00174646	0.923309	0.929153
317	20    	0.925147	0.00174646	0.923309	0.929153
318	20    	0.925147	0.00174646	0.923309	0.929153
319	20    	0.925147	0.00174646	0.923309	0.929153
320	20    	0.925147	0.00174646	0.923309	0.929153
321	20    	0.925147	0.00174646	0.923309	0.929153
322	20    	0.925147	0.00174646	0.923309	0.929153
323	20    	0.925147	0.00174646	0.923309	0.929153
324	20    	0.925205	0.0017032 	0.923309	0.929153
325	20    	0.925205	0.0017032 	0.923309	0.929153
326	20    	0.925205	0.0017032 	0.923309	0.929153
327	20    	0.925205	0.0017032 	0.923309	0.929153
328	20    	0.925205	0.0017032 	0.923309	0.929153
329	20    	0.925205	0.0017032 	0.923309	0.929153
330	20    	0.925205	0.0017032 	0.923309	0.929153
331	20    	0.925205	0.0017032 	0.923309	0.929153
332	20    	0.925205	0.0017032 	0.923309	0.929153
333	20    	0.925205	0.0017032 	0.923309	0.929153
334	20    	0.925205	0.0017032 	0.923309	0.929153
335	20    	0.925205	0.0017032 	0.923309	0.929153
336	20    	0.925205	0.0017032 	0.923309	0.929153
337	20    	0.925205	0.0017032 	0.923309	0.929153
338	20    	0.925205	0.0017032 	0.923309	0.929153
339	20    	0.925205	0.0017032 	0.923309	0.929153
340	20    	0.925205	0.0017032 	0.923309	0.929153
341	20    	0.925205	0.0017032 	0.923309	0.929153
342	20    	0.925205	0.0017032 	0.923309	0.929153
343	20    	0.925205	0.0017032 	0.923309	0.929153
344	20    	0.925205	0.0017032 	0.923309	0.929153
345	20    	0.925205	0.0017032 	0.923309	0.929153
346	20    	0.925205	0.0017032 	0.923309	0.929153
347	20    	0.925205	0.0017032 	0.923309	0.929153
348	20    	0.925205	0.0017032 	0.923309	0.929153
349	20    	0.925205	0.0017032 	0.923309	0.929153
350	20    	0.925205	0.0017032 	0.923309	0.929153
351	20    	0.925205	0.0017032 	0.923309	0.929153
352	20    	0.925205	0.0017032 	0.923309	0.929153
353	20    	0.925468	0.00179421	0.923309	0.929153
354	20    	0.925468	0.00179421	0.923309	0.929153
355	20    	0.925468	0.00179421	0.923309	0.929153
356	20    	0.925468	0.00179421	0.923309	0.929153
357	20    	0.925468	0.00179421	0.923309	0.929153
358	20    	0.925468	0.00179421	0.923309	0.929153
359	20    	0.925468	0.00179421	0.923309	0.929153
360	20    	0.925468	0.00179421	0.923309	0.929153
361	20    	0.925468	0.00179421	0.923309	0.929153
362	20    	0.925468	0.00179421	0.923309	0.929153
363	20    	0.925468	0.00179421	0.923309	0.929153
364	20    	0.925468	0.00179421	0.923309	0.929153
365	20    	0.925585	0.00172453	0.923309	0.929153
366	20    	0.925585	0.00172453	0.923309	0.929153
367	20    	0.925585	0.00172453	0.923309	0.929153
368	20    	0.925585	0.00172453	0.923309	0.929153
369	20    	0.925585	0.00172453	0.923309	0.929153
370	20    	0.925585	0.00172453	0.923309	0.929153
371	20    	0.925673	0.00164952	0.923889	0.929153
372	20    	0.925673	0.00164952	0.923889	0.929153
373	20    	0.925877	0.00166907	0.923889	0.929153
374	20    	0.925877	0.00166907	0.923889	0.929153
375	20    	0.925877	0.00166907	0.923889	0.929153
376	20    	0.925877	0.00166907	0.923889	0.929153
377	20    	0.925877	0.00166907	0.923889	0.929153
378	20    	0.925877	0.00166907	0.923889	0.929153
379	20    	0.925877	0.00166907	0.923889	0.929153
380	20    	0.925877	0.00166907	0.923889	0.929153
381	20    	0.925877	0.00166907	0.923889	0.929153
382	20    	0.925877	0.00166907	0.923889	0.929153
383	20    	0.92617 	0.00154703	0.923889	0.929153
384	20    	0.926375	0.00150159	0.923889	0.929153
385	20    	0.926375	0.00150159	0.923889	0.929153
386	20    	0.926375	0.00150159	0.923889	0.929153
387	20    	0.926375	0.00150159	0.923889	0.929153
388	20    	0.926375	0.00150159	0.923889	0.929153
389	20    	0.926375	0.00150159	0.923889	0.929153
390	20    	0.926375	0.00150159	0.923889	0.929153
391	20    	0.926375	0.00150159	0.923889	0.929153
392	20    	0.926375	0.00150159	0.923889	0.929153
393	20    	0.926521	0.00139077	0.924469	0.929153
394	20    	0.926521	0.00139077	0.924469	0.929153
395	20    	0.926785	0.00147469	0.924469	0.929749
396	20    	0.926785	0.00147469	0.924469	0.929749
397	20    	0.926785	0.00147469	0.924469	0.929749
398	20    	0.926785	0.00147469	0.924469	0.929749
399	20    	0.926785	0.00147469	0.924469	0.929749
400	20    	0.927078	0.00131455	0.925064	0.929749
401	20    	0.927078	0.00131455	0.925064	0.929749
402	20    	0.927078	0.00131455	0.925064	0.929749
403	20    	0.927078	0.00131455	0.925064	0.929749
404	20    	0.927078	0.00131455	0.925064	0.929749
405	20    	0.927078	0.00131455	0.925064	0.929749
406	20    	0.927078	0.00131455	0.925064	0.929749
407	20    	0.927078	0.00131455	0.925064	0.929749
408	20    	0.927078	0.00131455	0.925064	0.929749
409	20    	0.927078	0.00131455	0.925064	0.929749
410	20    	0.927078	0.00131455	0.925064	0.929749
411	20    	0.927078	0.00131455	0.925064	0.929749
412	20    	0.927078	0.00131455	0.925064	0.929749
413	20    	0.927078	0.00131455	0.925064	0.929749
414	20    	0.927078	0.00131455	0.925064	0.929749
415	20    	0.927078	0.00131455	0.925064	0.929749
416	20    	0.927078	0.00131455	0.925064	0.929749
417	20    	0.927195	0.00123155	0.925064	0.929749
418	20    	0.927195	0.00123155	0.925064	0.929749
419	20    	0.927195	0.00123155	0.925064	0.929749
420	20    	0.927195	0.00123155	0.925064	0.929749
421	20    	0.927195	0.00123155	0.925064	0.929749
422	20    	0.927195	0.00123155	0.925064	0.929749
423	20    	0.927195	0.00123155	0.925064	0.929749
424	20    	0.927195	0.00123155	0.925064	0.929749
425	20    	0.927195	0.00123155	0.925064	0.929749
426	20    	0.927283	0.00113536	0.925064	0.929749
427	20    	0.927283	0.00113536	0.925064	0.929749
428	20    	0.927283	0.00113536	0.925064	0.929749
429	20    	0.927283	0.00113536	0.925064	0.929749
430	20    	0.927283	0.00113536	0.925064	0.929749
431	20    	0.927283	0.00113536	0.925064	0.929749
432	20    	0.927283	0.00113536	0.925064	0.929749
433	20    	0.927283	0.00113536	0.925064	0.929749
434	20    	0.927283	0.00113536	0.925064	0.929749
435	20    	0.927312	0.00108461	0.925644	0.929749
436	20    	0.927312	0.00108461	0.925644	0.929749
437	20    	0.927312	0.00108461	0.925644	0.929749
438	20    	0.927312	0.00108461	0.925644	0.929749
439	20    	0.927312	0.00108461	0.925644	0.929749
440	20    	0.927312	0.00108461	0.925644	0.929749
441	20    	0.927312	0.00108461	0.925644	0.929749
442	20    	0.927312	0.00108461	0.925644	0.929749
443	20    	0.927312	0.00108461	0.925644	0.929749
444	20    	0.927312	0.00108461	0.925644	0.929749
445	20    	0.927312	0.00108461	0.925644	0.929749
446	20    	0.927312	0.00108461	0.925644	0.929749
447	20    	0.927312	0.00108461	0.925644	0.929749
448	20    	0.927312	0.00108461	0.925644	0.929749
449	20    	0.927312	0.00108461	0.925644	0.929749
450	20    	0.927312	0.00108461	0.925644	0.929749
451	20    	0.927312	0.00108461	0.925644	0.929749
452	20    	0.927312	0.00108461	0.925644	0.929749
453	20    	0.927312	0.00108461	0.925644	0.929749
454	20    	0.927312	0.00108461	0.925644	0.929749
455	20    	0.927312	0.00108461	0.925644	0.929749
456	20    	0.927312	0.00108461	0.925644	0.929749
457	20    	0.927312	0.00108461	0.925644	0.929749
458	20    	0.927312	0.00108461	0.925644	0.929749
459	20    	0.927312	0.00108461	0.925644	0.929749
460	20    	0.927312	0.00108461	0.925644	0.929749
461	20    	0.927312	0.00108461	0.925644	0.929749
462	20    	0.927312	0.00108461	0.925644	0.929749
463	20    	0.927312	0.00108461	0.925644	0.929749
464	20    	0.927312	0.00108461	0.925644	0.929749
465	20    	0.927312	0.00108461	0.925644	0.929749
466	20    	0.927312	0.00108461	0.925644	0.929749
467	20    	0.927312	0.00108461	0.925644	0.929749
468	20    	0.927312	0.00108461	0.925644	0.929749
469	20    	0.927312	0.00108461	0.925644	0.929749
470	20    	0.927312	0.00108461	0.925644	0.929749
471	20    	0.927312	0.00108461	0.925644	0.929749
472	20    	0.927312	0.00108461	0.925644	0.929749
473	20    	0.927312	0.00108461	0.925644	0.929749
474	20    	0.927312	0.00108461	0.925644	0.929749
475	20    	0.927312	0.00108461	0.925644	0.929749
476	20    	0.927312	0.00108461	0.925644	0.929749
477	20    	0.927312	0.00108461	0.925644	0.929749
478	20    	0.927312	0.00108461	0.925644	0.929749
479	20    	0.927312	0.00108461	0.925644	0.929749
480	20    	0.927312	0.00108461	0.925644	0.929749
481	20    	0.927312	0.00108461	0.925644	0.929749
482	20    	0.927312	0.00108461	0.925644	0.929749
483	20    	0.927487	0.00100311	0.926224	0.929749
484	20    	0.927487	0.00100311	0.926224	0.929749
485	20    	0.927487	0.00100311	0.926224	0.929749
486	20    	0.927487	0.00100311	0.926224	0.929749
487	20    	0.927487	0.00100311	0.926224	0.929749
488	20    	0.927487	0.00100311	0.926224	0.929749
489	20    	0.927487	0.00100311	0.926224	0.929749
490	20    	0.927487	0.00100311	0.926224	0.929749
491	20    	0.927487	0.00100311	0.926224	0.929749
492	20    	0.927487	0.00100311	0.926224	0.929749
493	20    	0.927487	0.00100311	0.926224	0.929749
494	20    	0.927487	0.00100311	0.926224	0.929749
495	20    	0.927487	0.00100311	0.926224	0.929749
496	20    	0.927487	0.00100311	0.926224	0.929749
497	20    	0.927487	0.00100311	0.926224	0.929749
498	20    	0.927487	0.00100311	0.926224	0.929749
499	20    	0.927487	0.00100311	0.926224	0.929749
