gen	nevals	avg     	std       	min     	max     
0  	20    	0.875239	0.0130229 	0.858856	0.899521
1  	20    	0.882656	0.00812262	0.873199	0.899521
2  	20    	0.8881  	0.00492366	0.881577	0.899521
3  	20    	0.890073	0.00387386	0.885162	0.899521
4  	20    	0.893003	0.00379057	0.888763	0.901917
5  	20    	0.896591	0.00418526	0.891144	0.905502
6  	20    	0.898743	0.00365511	0.893539	0.905502
7  	20    	0.900119	0.00326674	0.89473 	0.905502
8  	20    	0.901256	0.00237722	0.897125	0.905502
9  	20    	0.901794	0.00238943	0.898331	0.906693
10 	20    	0.903469	0.00312371	0.899521	0.910294
11 	20    	0.904906	0.00284493	0.900711	0.910294
12 	20    	0.905624	0.00290378	0.901917	0.911484
13 	20    	0.906283	0.0024598 	0.903107	0.911484
14 	20    	0.90694 	0.00244008	0.904312	0.911484
15 	20    	0.907777	0.00242047	0.904312	0.911484
16 	20    	0.908255	0.00227461	0.905502	0.911484
17 	20    	0.909272	0.00254751	0.905502	0.916275
18 	20    	0.909272	0.00254751	0.905502	0.916275
19 	20    	0.910469	0.00303415	0.906693	0.919861
20 	20    	0.911067	0.00273523	0.907898	0.919861
21 	20    	0.913578	0.00442427	0.910294	0.928223
22 	20    	0.914414	0.00411691	0.910294	0.928223
23 	20    	0.914474	0.0040652 	0.911484	0.928223
24 	20    	0.915371	0.00387361	0.911484	0.928223
25 	20    	0.916148	0.00368477	0.912674	0.928223
26 	20    	0.916567	0.00342178	0.912674	0.928223
27 	20    	0.918301	0.00321009	0.91507 	0.928223
28 	20    	0.918301	0.00321009	0.91507 	0.928223
29 	20    	0.919019	0.00340504	0.91507 	0.928223
30 	20    	0.919439	0.00310014	0.916275	0.928223
31 	20    	0.920156	0.00320556	0.916275	0.928223
32 	20    	0.921112	0.00335016	0.916275	0.928223
33 	20    	0.92165 	0.00306139	0.917465	0.928223
34 	20    	0.922369	0.00287811	0.918655	0.928223
35 	20    	0.922848	0.00284204	0.919861	0.928223
36 	20    	0.923206	0.00266314	0.919861	0.928223
37 	20    	0.923206	0.00266314	0.919861	0.928223
38 	20    	0.923325	0.00253445	0.919861	0.928223
39 	20    	0.923385	0.00246544	0.919861	0.928223
40 	20    	0.923564	0.00232927	0.921051	0.928223
41 	20    	0.924043	0.00237716	0.921051	0.928223
42 	20    	0.924581	0.00205324	0.921051	0.928223
43 	20    	0.924581	0.00205324	0.921051	0.928223
44 	20    	0.92476 	0.00188698	0.921051	0.928223
45 	20    	0.92494 	0.00164182	0.923447	0.928223
46 	20    	0.925539	0.00277602	0.923447	0.93541 
47 	20    	0.925539	0.00277602	0.923447	0.93541 
48 	20    	0.925598	0.0027431 	0.923447	0.93541 
49 	20    	0.925598	0.0027431 	0.923447	0.93541 
50 	20    	0.925837	0.00275327	0.923447	0.93541 
51 	20    	0.926256	0.00298521	0.923447	0.93541 
52 	20    	0.926435	0.00291803	0.923447	0.93541 
53 	20    	0.927451	0.00268258	0.924637	0.93541 
54 	20    	0.927451	0.00268258	0.924637	0.93541 
55 	20    	0.928648	0.0039551 	0.924637	0.941391
56 	20    	0.929127	0.00401904	0.924637	0.941391
57 	20    	0.929127	0.00401904	0.924637	0.941391
58 	20    	0.929187	0.00395985	0.925842	0.941391
59 	20    	0.929845	0.00441574	0.925842	0.941391
60 	20    	0.930621	0.00432967	0.925842	0.941391
61 	20    	0.93092 	0.00419368	0.925842	0.941391
62 	20    	0.931577	0.0038885 	0.927032	0.941391
63 	20    	0.931995	0.00353581	0.928223	0.941391
64 	20    	0.931995	0.00353581	0.928223	0.941391
65 	20    	0.932594	0.00384531	0.928223	0.941391
66 	20    	0.932893	0.00360704	0.928223	0.941391
67 	20    	0.932893	0.00360704	0.928223	0.941391
68 	20    	0.933073	0.00345612	0.928223	0.941391
69 	20    	0.933073	0.00345612	0.928223	0.941391
70 	20    	0.933193	0.00332495	0.929428	0.941391
71 	20    	0.933432	0.00321568	0.930618	0.941391
72 	20    	0.933791	0.00310226	0.930618	0.941391
73 	20    	0.933852	0.00305132	0.930618	0.941391
74 	20    	0.933852	0.00305132	0.930618	0.941391
75 	20    	0.93463 	0.00325929	0.930618	0.941391
76 	20    	0.935108	0.00333659	0.931824	0.941391
77 	20    	0.935587	0.00351259	0.931824	0.941391
78 	20    	0.935587	0.00351259	0.931824	0.941391
79 	20    	0.935886	0.00343322	0.931824	0.941391
80 	20    	0.936185	0.00332519	0.931824	0.941391
81 	20    	0.936543	0.00310813	0.931824	0.941391
82 	20    	0.937022	0.00308106	0.933014	0.941391
83 	20    	0.93726 	0.00286977	0.933014	0.941391
84 	20    	0.93744 	0.00270622	0.934204	0.941391
85 	20    	0.93744 	0.00270622	0.934204	0.941391
86 	20    	0.93744 	0.00270622	0.934204	0.941391
87 	20    	0.93774 	0.00255223	0.934204	0.941391
88 	20    	0.93774 	0.00255223	0.934204	0.941391
89 	20    	0.93792 	0.00242006	0.934204	0.941391
90 	20    	0.93792 	0.00242006	0.934204	0.941391
91 	20    	0.93792 	0.00242006	0.934204	0.941391
92 	20    	0.93798 	0.00234047	0.934204	0.941391
93 	20    	0.93798 	0.00234047	0.934204	0.941391
94 	20    	0.93798 	0.00234047	0.934204	0.941391
95 	20    	0.93816 	0.0021758 	0.93541 	0.941391
96 	20    	0.938399	0.00212226	0.93541 	0.941391
97 	20    	0.938458	0.00205317	0.93541 	0.941391
98 	20    	0.938458	0.00205317	0.93541 	0.941391
99 	20    	0.938458	0.00205317	0.93541 	0.941391
100	20    	0.938458	0.00205317	0.93541 	0.941391
101	20    	0.938638	0.00193211	0.93541 	0.941391
102	20    	0.939116	0.00168751	0.9366  	0.941391
103	20    	0.939116	0.00168751	0.9366  	0.941391
104	20    	0.939116	0.00168751	0.9366  	0.941391
105	20    	0.939116	0.00168751	0.9366  	0.941391
106	20    	0.939116	0.00168751	0.9366  	0.941391
107	20    	0.939176	0.00161661	0.9366  	0.941391
108	20    	0.939176	0.00161661	0.9366  	0.941391
109	20    	0.939476	0.00148289	0.937805	0.941391
110	20    	0.939476	0.00148289	0.937805	0.941391
111	20    	0.939476	0.00148289	0.937805	0.941391
112	20    	0.939476	0.00148289	0.937805	0.941391
113	20    	0.939476	0.00148289	0.937805	0.941391
114	20    	0.939476	0.00148289	0.937805	0.941391
115	20    	0.939476	0.00148289	0.937805	0.941391
116	20    	0.939476	0.00148289	0.937805	0.941391
117	20    	0.939655	0.0014868 	0.937805	0.941391
118	20    	0.939655	0.0014868 	0.937805	0.941391
119	20    	0.939655	0.0014868 	0.937805	0.941391
120	20    	0.939655	0.0014868 	0.937805	0.941391
121	20    	0.939894	0.00140843	0.937805	0.941391
122	20    	0.939894	0.00140843	0.937805	0.941391
123	20    	0.939894	0.00140843	0.937805	0.941391
124	20    	0.939894	0.00140843	0.937805	0.941391
125	20    	0.939894	0.00140843	0.937805	0.941391
126	20    	0.939894	0.00140843	0.937805	0.941391
127	20    	0.940253	0.00171132	0.937805	0.944977
128	20    	0.940253	0.00171132	0.937805	0.944977
129	20    	0.940253	0.00171132	0.937805	0.944977
130	20    	0.940253	0.00171132	0.937805	0.944977
131	20    	0.940253	0.00171132	0.937805	0.944977
132	20    	0.940253	0.00171132	0.937805	0.944977
133	20    	0.940253	0.00171132	0.937805	0.944977
134	20    	0.940253	0.00171132	0.937805	0.944977
135	20    	0.940253	0.00171132	0.937805	0.944977
136	20    	0.940372	0.00161714	0.937805	0.944977
137	20    	0.940372	0.00161714	0.937805	0.944977
138	20    	0.940551	0.00151842	0.937805	0.944977
139	20    	0.940551	0.00151842	0.937805	0.944977
140	20    	0.940551	0.00151842	0.937805	0.944977
141	20    	0.940551	0.00151842	0.937805	0.944977
142	20    	0.94073 	0.00138987	0.938995	0.944977
143	20    	0.94073 	0.00138987	0.938995	0.944977
144	20    	0.94073 	0.00138987	0.938995	0.944977
145	20    	0.94073 	0.00138987	0.938995	0.944977
146	20    	0.94079 	0.00133886	0.938995	0.944977
147	20    	0.94079 	0.00133886	0.938995	0.944977
148	20    	0.94079 	0.00133886	0.938995	0.944977
149	20    	0.94079 	0.00133886	0.938995	0.944977
150	20    	0.94091 	0.00127878	0.938995	0.944977
151	20    	0.94091 	0.00127878	0.938995	0.944977
152	20    	0.94091 	0.00127878	0.938995	0.944977
153	20    	0.94091 	0.00127878	0.938995	0.944977
154	20    	0.94091 	0.00127878	0.938995	0.944977
155	20    	0.94091 	0.00127878	0.938995	0.944977
156	20    	0.94091 	0.00127878	0.938995	0.944977
157	20    	0.94091 	0.00127878	0.938995	0.944977
158	20    	0.94091 	0.00127878	0.938995	0.944977
159	20    	0.94091 	0.00127878	0.938995	0.944977
160	20    	0.94091 	0.00127878	0.938995	0.944977
161	20    	0.94091 	0.00127878	0.938995	0.944977
162	20    	0.94091 	0.00127878	0.938995	0.944977
163	20    	0.94091 	0.00127878	0.938995	0.944977
164	20    	0.94091 	0.00127878	0.938995	0.944977
165	20    	0.94091 	0.00127878	0.938995	0.944977
166	20    	0.94091 	0.00127878	0.938995	0.944977
167	20    	0.94091 	0.00127878	0.938995	0.944977
168	20    	0.94091 	0.00127878	0.938995	0.944977
169	20    	0.94091 	0.00127878	0.938995	0.944977
170	20    	0.941149	0.00134482	0.938995	0.944977
171	20    	0.941149	0.00134482	0.938995	0.944977
172	20    	0.941149	0.00134482	0.938995	0.944977
173	20    	0.941149	0.00134482	0.938995	0.944977
174	20    	0.941149	0.00134482	0.938995	0.944977
175	20    	0.941149	0.00134482	0.938995	0.944977
176	20    	0.941149	0.00134482	0.938995	0.944977
177	20    	0.941149	0.00134482	0.938995	0.944977
178	20    	0.941149	0.00134482	0.938995	0.944977
179	20    	0.941149	0.00134482	0.938995	0.944977
180	20    	0.941328	0.00128335	0.938995	0.944977
181	20    	0.941328	0.00128335	0.938995	0.944977
182	20    	0.941328	0.00128335	0.938995	0.944977
183	20    	0.941328	0.00128335	0.938995	0.944977
184	20    	0.941328	0.00128335	0.938995	0.944977
185	20    	0.941388	0.00119858	0.940186	0.944977
186	20    	0.941388	0.00119858	0.940186	0.944977
187	20    	0.941388	0.00119858	0.940186	0.944977
188	20    	0.941388	0.00119858	0.940186	0.944977
189	20    	0.941448	0.00116648	0.940186	0.944977
190	20    	0.941448	0.00116648	0.940186	0.944977
191	20    	0.941448	0.00116648	0.940186	0.944977
192	20    	0.941448	0.00116648	0.940186	0.944977
193	20    	0.941448	0.00116648	0.940186	0.944977
194	20    	0.941448	0.00116648	0.940186	0.944977
195	20    	0.941448	0.00116648	0.940186	0.944977
196	20    	0.941448	0.00116648	0.940186	0.944977
197	20    	0.941448	0.00116648	0.940186	0.944977
198	20    	0.941448	0.00116648	0.940186	0.944977
199	20    	0.941448	0.00116648	0.940186	0.944977
200	20    	0.941448	0.00116648	0.940186	0.944977
201	20    	0.941448	0.00116648	0.940186	0.944977
202	20    	0.941448	0.00116648	0.940186	0.944977
203	20    	0.941448	0.00116648	0.940186	0.944977
204	20    	0.941448	0.00116648	0.940186	0.944977
205	20    	0.941448	0.00116648	0.940186	0.944977
206	20    	0.941448	0.00116648	0.940186	0.944977
207	20    	0.941448	0.00116648	0.940186	0.944977
208	20    	0.941628	0.00123368	0.940186	0.944977
209	20    	0.941628	0.00123368	0.940186	0.944977
210	20    	0.941628	0.00123368	0.940186	0.944977
211	20    	0.941628	0.00123368	0.940186	0.944977
212	20    	0.941628	0.00123368	0.940186	0.944977
213	20    	0.941628	0.00123368	0.940186	0.944977
214	20    	0.941628	0.00123368	0.940186	0.944977
215	20    	0.941628	0.00123368	0.940186	0.944977
216	20    	0.941628	0.00123368	0.940186	0.944977
217	20    	0.941628	0.00123368	0.940186	0.944977
218	20    	0.941628	0.00123368	0.940186	0.944977
219	20    	0.941628	0.00123368	0.940186	0.944977
220	20    	0.941628	0.00123368	0.940186	0.944977
221	20    	0.941628	0.00123368	0.940186	0.944977
222	20    	0.941628	0.00123368	0.940186	0.944977
223	20    	0.941628	0.00123368	0.940186	0.944977
224	20    	0.941628	0.00123368	0.940186	0.944977
225	20    	0.941628	0.00123368	0.940186	0.944977
226	20    	0.941628	0.00123368	0.940186	0.944977
227	20    	0.941628	0.00123368	0.940186	0.944977
228	20    	0.941628	0.00123368	0.940186	0.944977
229	20    	0.941689	0.00119041	0.940186	0.944977
230	20    	0.941689	0.00119041	0.940186	0.944977
231	20    	0.941689	0.00119041	0.940186	0.944977
232	20    	0.941689	0.00119041	0.940186	0.944977
233	20    	0.941689	0.00119041	0.940186	0.944977
234	20    	0.941689	0.00119041	0.940186	0.944977
235	20    	0.941689	0.00119041	0.940186	0.944977
236	20    	0.941689	0.00119041	0.940186	0.944977
237	20    	0.941689	0.00119041	0.940186	0.944977
238	20    	0.941689	0.00119041	0.940186	0.944977
239	20    	0.941689	0.00119041	0.940186	0.944977
240	20    	0.941689	0.00119041	0.940186	0.944977
241	20    	0.941689	0.00119041	0.940186	0.944977
242	20    	0.941749	0.00114233	0.940186	0.944977
243	20    	0.941749	0.00114233	0.940186	0.944977
244	20    	0.941749	0.00114233	0.940186	0.944977
245	20    	0.941749	0.00114233	0.940186	0.944977
246	20    	0.941749	0.00114233	0.940186	0.944977
247	20    	0.941749	0.00114233	0.940186	0.944977
248	20    	0.941749	0.00114233	0.940186	0.944977
249	20    	0.941749	0.00114233	0.940186	0.944977
250	20    	0.941929	0.0011653 	0.940186	0.944977
251	20    	0.941929	0.0011653 	0.940186	0.944977
252	20    	0.941929	0.0011653 	0.940186	0.944977
253	20    	0.941929	0.0011653 	0.940186	0.944977
254	20    	0.941929	0.0011653 	0.940186	0.944977
255	20    	0.941929	0.0011653 	0.940186	0.944977
256	20    	0.941929	0.0011653 	0.940186	0.944977
257	20    	0.941929	0.0011653 	0.940186	0.944977
258	20    	0.941929	0.0011653 	0.940186	0.944977
259	20    	0.941929	0.0011653 	0.940186	0.944977
260	20    	0.941929	0.0011653 	0.940186	0.944977
261	20    	0.941929	0.0011653 	0.940186	0.944977
262	20    	0.941929	0.0011653 	0.940186	0.944977
263	20    	0.941929	0.0011653 	0.940186	0.944977
264	20    	0.941929	0.0011653 	0.940186	0.944977
265	20    	0.941929	0.0011653 	0.940186	0.944977
266	20    	0.942348	0.00158713	0.941391	0.947372
267	20    	0.942527	0.00166933	0.941391	0.947372
268	20    	0.942527	0.00166933	0.941391	0.947372
269	20    	0.942527	0.00166933	0.941391	0.947372
270	20    	0.942527	0.00166933	0.941391	0.947372
271	20    	0.943185	0.00308385	0.941391	0.954544
272	20    	0.943185	0.00308385	0.941391	0.954544
273	20    	0.943185	0.00308385	0.941391	0.954544
274	20    	0.943185	0.00308385	0.941391	0.954544
275	20    	0.943423	0.00312041	0.941391	0.954544
276	20    	0.943423	0.00312041	0.941391	0.954544
277	20    	0.943423	0.00312041	0.941391	0.954544
278	20    	0.943423	0.00312041	0.941391	0.954544
279	20    	0.943423	0.00312041	0.941391	0.954544
280	20    	0.943423	0.00312041	0.941391	0.954544
281	20    	0.943423	0.00312041	0.941391	0.954544
282	20    	0.943423	0.00312041	0.941391	0.954544
283	20    	0.943662	0.00313843	0.941391	0.954544
284	20    	0.943662	0.00313843	0.941391	0.954544
285	20    	0.943662	0.00313843	0.941391	0.954544
286	20    	0.944021	0.00326556	0.941391	0.954544
287	20    	0.944439	0.00319697	0.941391	0.954544
288	20    	0.944798	0.00305509	0.941391	0.954544
289	20    	0.944857	0.00299924	0.941391	0.954544
290	20    	0.944857	0.00299924	0.941391	0.954544
291	20    	0.944917	0.00294112	0.941391	0.954544
292	20    	0.944917	0.00294112	0.941391	0.954544
293	20    	0.944917	0.00294112	0.941391	0.954544
294	20    	0.944917	0.00294112	0.941391	0.954544
295	20    	0.944917	0.00294112	0.941391	0.954544
296	20    	0.944917	0.00294112	0.941391	0.954544
297	20    	0.944917	0.00294112	0.941391	0.954544
298	20    	0.944917	0.00294112	0.941391	0.954544
299	20    	0.944917	0.00294112	0.941391	0.954544
300	20    	0.944976	0.00288061	0.942581	0.954544
301	20    	0.944976	0.00288061	0.942581	0.954544
302	20    	0.944976	0.00288061	0.942581	0.954544
303	20    	0.944976	0.00288061	0.942581	0.954544
304	20    	0.944976	0.00288061	0.942581	0.954544
305	20    	0.944976	0.00288061	0.942581	0.954544
306	20    	0.944976	0.00288061	0.942581	0.954544
307	20    	0.944976	0.00288061	0.942581	0.954544
308	20    	0.944976	0.00288061	0.942581	0.954544
309	20    	0.944976	0.00288061	0.942581	0.954544
310	20    	0.944976	0.00288061	0.942581	0.954544
311	20    	0.945574	0.00349724	0.942581	0.954544
312	20    	0.945574	0.00349724	0.942581	0.954544
313	20    	0.945574	0.00349724	0.942581	0.954544
314	20    	0.945574	0.00349724	0.942581	0.954544
315	20    	0.946113	0.00381036	0.942581	0.954544
316	20    	0.946651	0.00402824	0.942581	0.954544
317	20    	0.946651	0.00402824	0.942581	0.954544
318	20    	0.946651	0.00402824	0.942581	0.954544
319	20    	0.94707 	0.00401875	0.942581	0.954544
320	20    	0.94707 	0.00401875	0.942581	0.954544
321	20    	0.94707 	0.00401875	0.942581	0.954544
322	20    	0.94707 	0.00401875	0.942581	0.954544
323	20    	0.94707 	0.00401875	0.942581	0.954544
324	20    	0.94707 	0.00401875	0.942581	0.954544
325	20    	0.94707 	0.00401875	0.942581	0.954544
326	20    	0.947369	0.00389418	0.942581	0.954544
327	20    	0.947369	0.00389418	0.942581	0.954544
328	20    	0.947549	0.00374946	0.942581	0.954544
329	20    	0.947609	0.00367813	0.943787	0.954544
330	20    	0.947609	0.00367813	0.943787	0.954544
331	20    	0.947609	0.00367813	0.943787	0.954544
332	20    	0.947609	0.00367813	0.943787	0.954544
333	20    	0.947609	0.00367813	0.943787	0.954544
334	20    	0.947609	0.00367813	0.943787	0.954544
335	20    	0.947609	0.00367813	0.943787	0.954544
336	20    	0.947609	0.00367813	0.943787	0.954544
337	20    	0.947609	0.00367813	0.943787	0.954544
338	20    	0.947609	0.00367813	0.943787	0.954544
339	20    	0.947609	0.00367813	0.943787	0.954544
340	20    	0.947848	0.00357584	0.943787	0.954544
341	20    	0.947848	0.00357584	0.943787	0.954544
342	20    	0.947848	0.00357584	0.943787	0.954544
343	20    	0.947848	0.00357584	0.943787	0.954544
344	20    	0.947848	0.00357584	0.943787	0.954544
345	20    	0.947848	0.00357584	0.943787	0.954544
346	20    	0.947848	0.00357584	0.943787	0.954544
347	20    	0.947848	0.00357584	0.943787	0.954544
348	20    	0.947848	0.00357584	0.943787	0.954544
349	20    	0.947848	0.00357584	0.943787	0.954544
350	20    	0.947848	0.00357584	0.943787	0.954544
351	20    	0.947848	0.00357584	0.943787	0.954544
352	20    	0.947848	0.00357584	0.943787	0.954544
353	20    	0.947907	0.00351718	0.943787	0.954544
354	20    	0.947907	0.00351718	0.943787	0.954544
355	20    	0.947907	0.00351718	0.943787	0.954544
356	20    	0.947907	0.00351718	0.943787	0.954544
357	20    	0.947907	0.00351718	0.943787	0.954544
358	20    	0.947907	0.00351718	0.943787	0.954544
359	20    	0.947907	0.00351718	0.943787	0.954544
360	20    	0.948026	0.0034145 	0.943787	0.954544
361	20    	0.948026	0.0034145 	0.943787	0.954544
362	20    	0.948086	0.00334985	0.943787	0.954544
363	20    	0.948086	0.00334985	0.943787	0.954544
364	20    	0.948086	0.00334985	0.943787	0.954544
365	20    	0.948086	0.00334985	0.943787	0.954544
366	20    	0.948086	0.00334985	0.943787	0.954544
367	20    	0.948086	0.00334985	0.943787	0.954544
368	20    	0.948086	0.00334985	0.943787	0.954544
369	20    	0.948086	0.00334985	0.943787	0.954544
370	20    	0.948145	0.00328285	0.944977	0.954544
371	20    	0.948145	0.00328285	0.944977	0.954544
372	20    	0.948145	0.00328285	0.944977	0.954544
373	20    	0.948145	0.00328285	0.944977	0.954544
374	20    	0.948145	0.00328285	0.944977	0.954544
375	20    	0.948145	0.00328285	0.944977	0.954544
376	20    	0.948145	0.00328285	0.944977	0.954544
377	20    	0.948205	0.00323532	0.944977	0.954544
378	20    	0.948205	0.00323532	0.944977	0.954544
379	20    	0.948205	0.00323532	0.944977	0.954544
380	20    	0.948264	0.00318597	0.944977	0.954544
381	20    	0.948264	0.00318597	0.944977	0.954544
382	20    	0.948384	0.0031041 	0.944977	0.954544
383	20    	0.948384	0.0031041 	0.944977	0.954544
384	20    	0.948384	0.0031041 	0.944977	0.954544
385	20    	0.948384	0.0031041 	0.944977	0.954544
386	20    	0.948384	0.0031041 	0.944977	0.954544
387	20    	0.948384	0.0031041 	0.944977	0.954544
388	20    	0.948384	0.0031041 	0.944977	0.954544
389	20    	0.948384	0.0031041 	0.944977	0.954544
390	20    	0.948384	0.0031041 	0.944977	0.954544
391	20    	0.948384	0.0031041 	0.944977	0.954544
392	20    	0.948384	0.0031041 	0.944977	0.954544
393	20    	0.948384	0.0031041 	0.944977	0.954544
394	20    	0.948384	0.0031041 	0.944977	0.954544
395	20    	0.948384	0.0031041 	0.944977	0.954544
396	20    	0.948384	0.0031041 	0.944977	0.954544
397	20    	0.948384	0.0031041 	0.944977	0.954544
398	20    	0.948384	0.0031041 	0.944977	0.954544
399	20    	0.948384	0.0031041 	0.944977	0.954544
400	20    	0.948384	0.0031041 	0.944977	0.954544
401	20    	0.948384	0.0031041 	0.944977	0.954544
402	20    	0.948384	0.0031041 	0.944977	0.954544
403	20    	0.948384	0.0031041 	0.944977	0.954544
404	20    	0.948563	0.00300406	0.944977	0.954544
405	20    	0.948563	0.00300406	0.944977	0.954544
406	20    	0.948563	0.00300406	0.944977	0.954544
407	20    	0.948563	0.00300406	0.944977	0.954544
408	20    	0.948563	0.00300406	0.944977	0.954544
409	20    	0.948563	0.00300406	0.944977	0.954544
410	20    	0.948563	0.00300406	0.944977	0.954544
411	20    	0.948563	0.00300406	0.944977	0.954544
412	20    	0.948563	0.00300406	0.944977	0.954544
413	20    	0.948563	0.00300406	0.944977	0.954544
414	20    	0.948563	0.00300406	0.944977	0.954544
415	20    	0.948563	0.00300406	0.944977	0.954544
416	20    	0.948563	0.00300406	0.944977	0.954544
417	20    	0.948563	0.00300406	0.944977	0.954544
418	20    	0.948563	0.00300406	0.944977	0.954544
419	20    	0.948563	0.00300406	0.944977	0.954544
420	20    	0.948563	0.00300406	0.944977	0.954544
421	20    	0.948563	0.00300406	0.944977	0.954544
422	20    	0.948563	0.00300406	0.944977	0.954544
423	20    	0.948563	0.00300406	0.944977	0.954544
424	20    	0.948563	0.00300406	0.944977	0.954544
425	20    	0.948563	0.00300406	0.944977	0.954544
426	20    	0.948563	0.00300406	0.944977	0.954544
427	20    	0.948623	0.0029436 	0.946167	0.954544
428	20    	0.948623	0.0029436 	0.946167	0.954544
429	20    	0.948623	0.0029436 	0.946167	0.954544
430	20    	0.948623	0.0029436 	0.946167	0.954544
431	20    	0.948623	0.0029436 	0.946167	0.954544
432	20    	0.948623	0.0029436 	0.946167	0.954544
433	20    	0.948623	0.0029436 	0.946167	0.954544
434	20    	0.948623	0.0029436 	0.946167	0.954544
435	20    	0.948623	0.0029436 	0.946167	0.954544
436	20    	0.948623	0.0029436 	0.946167	0.954544
437	20    	0.948803	0.00289765	0.946167	0.954544
438	20    	0.948803	0.00289765	0.946167	0.954544
439	20    	0.948803	0.00289765	0.946167	0.954544
440	20    	0.948803	0.00289765	0.946167	0.954544
441	20    	0.948803	0.00289765	0.946167	0.954544
442	20    	0.948923	0.00283505	0.946167	0.954544
443	20    	0.948923	0.00283505	0.946167	0.954544
444	20    	0.948923	0.00283505	0.946167	0.954544
445	20    	0.948923	0.00283505	0.946167	0.954544
446	20    	0.948923	0.00283505	0.946167	0.954544
447	20    	0.949103	0.00276787	0.946167	0.954544
448	20    	0.949103	0.00276787	0.946167	0.954544
449	20    	0.949103	0.00276787	0.946167	0.954544
450	20    	0.949103	0.00276787	0.946167	0.954544
451	20    	0.949103	0.00276787	0.946167	0.954544
452	20    	0.949223	0.00268894	0.946167	0.954544
453	20    	0.949223	0.00268894	0.946167	0.954544
454	20    	0.949223	0.00268894	0.946167	0.954544
455	20    	0.949223	0.00268894	0.946167	0.954544
456	20    	0.949223	0.00268894	0.946167	0.954544
457	20    	0.949223	0.00268894	0.946167	0.954544
458	20    	0.949223	0.00268894	0.946167	0.954544
459	20    	0.949223	0.00268894	0.946167	0.954544
460	20    	0.949223	0.00268894	0.946167	0.954544
461	20    	0.949223	0.00268894	0.946167	0.954544
462	20    	0.949223	0.00268894	0.946167	0.954544
463	20    	0.949223	0.00268894	0.946167	0.954544
464	20    	0.949223	0.00268894	0.946167	0.954544
465	20    	0.949223	0.00268894	0.946167	0.954544
466	20    	0.949223	0.00268894	0.946167	0.954544
467	20    	0.949223	0.00268894	0.946167	0.954544
468	20    	0.949223	0.00268894	0.946167	0.954544
469	20    	0.949223	0.00268894	0.946167	0.954544
470	20    	0.949223	0.00268894	0.946167	0.954544
471	20    	0.949223	0.00268894	0.946167	0.954544
472	20    	0.949283	0.0026327 	0.946167	0.954544
473	20    	0.949283	0.0026327 	0.946167	0.954544
474	20    	0.949283	0.0026327 	0.946167	0.954544
475	20    	0.949283	0.0026327 	0.946167	0.954544
476	20    	0.949283	0.0026327 	0.946167	0.954544
477	20    	0.949283	0.0026327 	0.946167	0.954544
478	20    	0.949343	0.00257382	0.946167	0.954544
479	20    	0.949343	0.00257382	0.946167	0.954544
480	20    	0.949343	0.00257382	0.946167	0.954544
481	20    	0.949343	0.00257382	0.946167	0.954544
482	20    	0.949343	0.00257382	0.946167	0.954544
483	20    	0.949343	0.00257382	0.946167	0.954544
484	20    	0.949343	0.00257382	0.946167	0.954544
485	20    	0.949343	0.00257382	0.946167	0.954544
486	20    	0.949343	0.00257382	0.946167	0.954544
487	20    	0.949343	0.00257382	0.946167	0.954544
488	20    	0.949343	0.00257382	0.946167	0.954544
489	20    	0.949343	0.00257382	0.946167	0.954544
490	20    	0.949343	0.00257382	0.946167	0.954544
491	20    	0.949343	0.00257382	0.946167	0.954544
492	20    	0.949343	0.00257382	0.946167	0.954544
493	20    	0.949343	0.00257382	0.946167	0.954544
494	20    	0.949343	0.00257382	0.946167	0.954544
495	20    	0.949343	0.00257382	0.946167	0.954544
496	20    	0.949343	0.00257382	0.946167	0.954544
497	20    	0.949343	0.00257382	0.946167	0.954544
498	20    	0.949343	0.00257382	0.946167	0.954544
499	20    	0.949343	0.00257382	0.946167	0.954544
