gen	nevals	avg     	std       	min     	max     
0  	20    	0.870845	0.0138859 	0.842026	0.892502
1  	20    	0.884444	0.00926396	0.871338	0.910431
2  	20    	0.893891	0.00752258	0.882736	0.910431
3  	20    	0.898695	0.00534265	0.890884	0.910431
4  	20    	0.901221	0.0041618 	0.894135	0.910431
5  	20    	0.903664	0.00372553	0.899017	0.912048
6  	20    	0.905621	0.00354854	0.90065 	0.913681
7  	20    	0.907412	0.00342591	0.903915	0.913681
8  	20    	0.90912 	0.00311762	0.905533	0.915314
9  	20    	0.909528	0.00279714	0.905533	0.915314
10 	20    	0.910587	0.00299777	0.907166	0.918564
11 	20    	0.911647	0.00320956	0.908798	0.920197
12 	20    	0.912135	0.00310886	0.908798	0.920197
13 	20    	0.913438	0.00406224	0.908798	0.923447
14 	20    	0.913682	0.00392032	0.908798	0.923447
15 	20    	0.91531 	0.00442934	0.910431	0.925079
16 	20    	0.916612	0.00407523	0.912048	0.925079
17 	20    	0.918078	0.00375218	0.913681	0.925079
18 	20    	0.918078	0.00375218	0.913681	0.925079
19 	20    	0.919054	0.0034191 	0.913681	0.925079
20 	20    	0.919379	0.00302458	0.913681	0.925079
21 	20    	0.919705	0.00272979	0.915314	0.925079
22 	20    	0.920763	0.00288138	0.916931	0.926712
23 	20    	0.921986	0.00290959	0.918564	0.928345
24 	20    	0.922068	0.00283435	0.918564	0.928345
25 	20    	0.922476	0.00249116	0.918564	0.928345
26 	20    	0.923128	0.00233698	0.920197	0.928345
27 	20    	0.923698	0.0025879 	0.920197	0.929962
28 	20    	0.924349	0.00319386	0.920197	0.933228
29 	20    	0.924512	0.00305824	0.921829	0.933228
30 	20    	0.924674	0.00299712	0.921829	0.933228
31 	20    	0.924674	0.00299712	0.921829	0.933228
32 	20    	0.924999	0.00284326	0.921829	0.933228
33 	20    	0.925325	0.00283463	0.921829	0.933228
34 	20    	0.925325	0.00283463	0.921829	0.933228
35 	20    	0.925894	0.00244548	0.923447	0.933228
36 	20    	0.927525	0.00293766	0.925079	0.93486 
37 	20    	0.927525	0.00293766	0.925079	0.93486 
38 	20    	0.928177	0.00267195	0.925079	0.93486 
39 	20    	0.928747	0.00256876	0.925079	0.93486 
40 	20    	0.929317	0.00232554	0.926712	0.93486 
41 	20    	0.930538	0.00263942	0.926712	0.93811 
42 	20    	0.930864	0.00254756	0.928345	0.93811 
43 	20    	0.931026	0.00248456	0.928345	0.93811 
44 	20    	0.931351	0.00237636	0.928345	0.93811 
45 	20    	0.931513	0.00221583	0.928345	0.93811 
46 	20    	0.932247	0.00208872	0.929962	0.93811 
47 	20    	0.932247	0.00208872	0.929962	0.93811 
48 	20    	0.93241 	0.00203054	0.929962	0.93811 
49 	20    	0.932492	0.00196214	0.929962	0.93811 
50 	20    	0.932737	0.00193659	0.929962	0.93811 
51 	20    	0.933308	0.00174547	0.931595	0.93811 
52 	20    	0.933308	0.00174547	0.931595	0.93811 
53 	20    	0.933308	0.00174547	0.931595	0.93811 
54 	20    	0.933715	0.00179173	0.931595	0.93811 
55 	20    	0.933878	0.0017391 	0.931595	0.93811 
56 	20    	0.933878	0.0017391 	0.931595	0.93811 
57 	20    	0.933878	0.0017391 	0.931595	0.93811 
58 	20    	0.934205	0.00149206	0.931595	0.93811 
59 	20    	0.934937	0.0021504 	0.933228	0.94136 
60 	20    	0.934937	0.0021504 	0.933228	0.94136 
61 	20    	0.934937	0.0021504 	0.933228	0.94136 
62 	20    	0.935507	0.00238018	0.933228	0.94136 
63 	20    	0.935589	0.00232802	0.933228	0.94136 
64 	20    	0.936485	0.00308857	0.933228	0.946259
65 	20    	0.936647	0.00299707	0.933228	0.946259
66 	20    	0.936647	0.00299707	0.933228	0.946259
67 	20    	0.936647	0.00299707	0.933228	0.946259
68 	20    	0.93681 	0.00289358	0.933228	0.946259
69 	20    	0.936891	0.00281329	0.93486 	0.946259
70 	20    	0.936891	0.00281329	0.93486 	0.946259
71 	20    	0.938029	0.00358396	0.93486 	0.947876
72 	20    	0.93811 	0.00352939	0.93486 	0.947876
73 	20    	0.93811 	0.00352939	0.93486 	0.947876
74 	20    	0.93811 	0.00352939	0.93486 	0.947876
75 	20    	0.93811 	0.00352939	0.93486 	0.947876
76 	20    	0.938435	0.00351446	0.93486 	0.947876
77 	20    	0.938435	0.00351446	0.93486 	0.947876
78 	20    	0.938435	0.00351446	0.93486 	0.947876
79 	20    	0.938515	0.00344928	0.93486 	0.947876
80 	20    	0.938515	0.00344928	0.93486 	0.947876
81 	20    	0.938596	0.00338092	0.93486 	0.947876
82 	20    	0.938596	0.00338092	0.93486 	0.947876
83 	20    	0.93884 	0.00327702	0.936478	0.947876
84 	20    	0.938922	0.00323723	0.936478	0.947876
85 	20    	0.93933 	0.00341197	0.936478	0.947876
86 	20    	0.939493	0.00334915	0.936478	0.947876
87 	20    	0.939493	0.00334915	0.936478	0.947876
88 	20    	0.939493	0.00334915	0.936478	0.947876
89 	20    	0.939493	0.00334915	0.936478	0.947876
90 	20    	0.939493	0.00334915	0.936478	0.947876
91 	20    	0.939656	0.003277  	0.936478	0.947876
92 	20    	0.939738	0.00321658	0.936478	0.947876
93 	20    	0.939738	0.00321658	0.936478	0.947876
94 	20    	0.939738	0.00321658	0.936478	0.947876
95 	20    	0.939738	0.00321658	0.936478	0.947876
96 	20    	0.939982	0.00314437	0.936478	0.947876
97 	20    	0.940063	0.00307271	0.936478	0.947876
98 	20    	0.940063	0.00307271	0.936478	0.947876
99 	20    	0.940063	0.00307271	0.936478	0.947876
100	20    	0.940063	0.00307271	0.936478	0.947876
101	20    	0.940063	0.00307271	0.936478	0.947876
102	20    	0.940063	0.00307271	0.936478	0.947876
103	20    	0.940063	0.00307271	0.936478	0.947876
104	20    	0.940145	0.00299712	0.936478	0.947876
105	20    	0.940308	0.00287952	0.936478	0.947876
106	20    	0.940553	0.00274839	0.93811 	0.947876
107	20    	0.940715	0.00269475	0.93811 	0.947876
108	20    	0.940715	0.00269475	0.93811 	0.947876
109	20    	0.940715	0.00269475	0.93811 	0.947876
110	20    	0.941285	0.00323482	0.93811 	0.949509
111	20    	0.941285	0.00323482	0.93811 	0.949509
112	20    	0.941855	0.00313615	0.93811 	0.949509
113	20    	0.941855	0.00313615	0.93811 	0.949509
114	20    	0.941855	0.00313615	0.93811 	0.949509
115	20    	0.942018	0.00297534	0.93811 	0.949509
116	20    	0.942018	0.00297534	0.93811 	0.949509
117	20    	0.942018	0.00297534	0.93811 	0.949509
118	20    	0.9421  	0.00288812	0.939743	0.949509
119	20    	0.9421  	0.00288812	0.939743	0.949509
120	20    	0.9421  	0.00288812	0.939743	0.949509
121	20    	0.942181	0.00284329	0.939743	0.949509
122	20    	0.942181	0.00284329	0.939743	0.949509
123	20    	0.942181	0.00284329	0.939743	0.949509
124	20    	0.943076	0.00354934	0.939743	0.952774
125	20    	0.943076	0.00354934	0.939743	0.952774
126	20    	0.943076	0.00354934	0.939743	0.952774
127	20    	0.943076	0.00354934	0.939743	0.952774
128	20    	0.943076	0.00354934	0.939743	0.952774
129	20    	0.943076	0.00354934	0.939743	0.952774
130	20    	0.943076	0.00354934	0.939743	0.952774
131	20    	0.943076	0.00354934	0.939743	0.952774
132	20    	0.943076	0.00354934	0.939743	0.952774
133	20    	0.94332 	0.0034789 	0.939743	0.952774
134	20    	0.94332 	0.0034789 	0.939743	0.952774
135	20    	0.943401	0.00341297	0.939743	0.952774
136	20    	0.943401	0.00341297	0.939743	0.952774
137	20    	0.943564	0.00331076	0.939743	0.952774
138	20    	0.943564	0.00331076	0.939743	0.952774
139	20    	0.943564	0.00331076	0.939743	0.952774
140	20    	0.943564	0.00331076	0.939743	0.952774
141	20    	0.943564	0.00331076	0.939743	0.952774
142	20    	0.943645	0.00323534	0.939743	0.952774
143	20    	0.943645	0.00323534	0.939743	0.952774
144	20    	0.943645	0.00323534	0.939743	0.952774
145	20    	0.943645	0.00323534	0.939743	0.952774
146	20    	0.943645	0.00323534	0.939743	0.952774
147	20    	0.943645	0.00323534	0.939743	0.952774
148	20    	0.943645	0.00323534	0.939743	0.952774
149	20    	0.94397 	0.00315306	0.94136 	0.952774
150	20    	0.94397 	0.00315306	0.94136 	0.952774
151	20    	0.944297	0.00307627	0.94136 	0.952774
152	20    	0.944297	0.00307627	0.94136 	0.952774
153	20    	0.944704	0.00319755	0.94136 	0.952774
154	20    	0.945275	0.00354901	0.94136 	0.952774
155	20    	0.945275	0.00354901	0.94136 	0.952774
156	20    	0.945275	0.00354901	0.94136 	0.952774
157	20    	0.945275	0.00354901	0.94136 	0.952774
158	20    	0.945275	0.00354901	0.94136 	0.952774
159	20    	0.945275	0.00354901	0.94136 	0.952774
160	20    	0.94552 	0.00343768	0.94136 	0.952774
161	20    	0.94552 	0.00343768	0.94136 	0.952774
162	20    	0.94552 	0.00343768	0.94136 	0.952774
163	20    	0.945602	0.00335636	0.94136 	0.952774
164	20    	0.945602	0.00335636	0.94136 	0.952774
165	20    	0.945765	0.00318122	0.94136 	0.952774
166	20    	0.945765	0.00318122	0.94136 	0.952774
167	20    	0.945847	0.00308669	0.942993	0.952774
168	20    	0.945847	0.00308669	0.942993	0.952774
169	20    	0.945847	0.00308669	0.942993	0.952774
170	20    	0.945847	0.00308669	0.942993	0.952774
171	20    	0.945847	0.00308669	0.942993	0.952774
172	20    	0.945847	0.00308669	0.942993	0.952774
173	20    	0.945928	0.00303124	0.942993	0.952774
174	20    	0.94601 	0.00297251	0.942993	0.952774
175	20    	0.94601 	0.00297251	0.942993	0.952774
176	20    	0.94601 	0.00297251	0.942993	0.952774
177	20    	0.94601 	0.00297251	0.942993	0.952774
178	20    	0.94601 	0.00297251	0.942993	0.952774
179	20    	0.94601 	0.00297251	0.942993	0.952774
180	20    	0.94601 	0.00297251	0.942993	0.952774
181	20    	0.94601 	0.00297251	0.942993	0.952774
182	20    	0.94601 	0.00297251	0.942993	0.952774
183	20    	0.94601 	0.00297251	0.942993	0.952774
184	20    	0.946254	0.00291468	0.942993	0.952774
185	20    	0.946336	0.00284422	0.942993	0.952774
186	20    	0.946336	0.00284422	0.942993	0.952774
187	20    	0.946336	0.00284422	0.942993	0.952774
188	20    	0.946336	0.00284422	0.942993	0.952774
189	20    	0.946336	0.00284422	0.942993	0.952774
190	20    	0.946988	0.00293596	0.942993	0.952774
191	20    	0.946988	0.00293596	0.942993	0.952774
192	20    	0.946988	0.00293596	0.942993	0.952774
193	20    	0.946988	0.00293596	0.942993	0.952774
194	20    	0.94707 	0.00284504	0.944626	0.952774
195	20    	0.947151	0.00279676	0.944626	0.952774
196	20    	0.947151	0.00279676	0.944626	0.952774
197	20    	0.947151	0.00279676	0.944626	0.952774
198	20    	0.947314	0.0026902 	0.944626	0.952774
199	20    	0.947314	0.0026902 	0.944626	0.952774
200	20    	0.947314	0.0026902 	0.944626	0.952774
201	20    	0.947314	0.0026902 	0.944626	0.952774
202	20    	0.947477	0.00262014	0.944626	0.952774
203	20    	0.947965	0.00293441	0.944626	0.954391
204	20    	0.948047	0.0028622 	0.944626	0.954391
205	20    	0.948291	0.00266901	0.946259	0.954391
206	20    	0.948291	0.00266901	0.946259	0.954391
207	20    	0.948291	0.00266901	0.946259	0.954391
208	20    	0.948617	0.00279568	0.946259	0.954391
209	20    	0.948617	0.00279568	0.946259	0.954391
210	20    	0.948617	0.00279568	0.946259	0.954391
211	20    	0.948617	0.00279568	0.946259	0.954391
212	20    	0.948861	0.00279228	0.946259	0.954391
213	20    	0.948861	0.00279228	0.946259	0.954391
214	20    	0.948861	0.00279228	0.946259	0.954391
215	20    	0.948861	0.00279228	0.946259	0.954391
216	20    	0.948861	0.00279228	0.946259	0.954391
217	20    	0.948861	0.00279228	0.946259	0.954391
218	20    	0.948861	0.00279228	0.946259	0.954391
219	20    	0.948861	0.00279228	0.946259	0.954391
220	20    	0.948861	0.00279228	0.946259	0.954391
221	20    	0.948861	0.00279228	0.946259	0.954391
222	20    	0.948861	0.00279228	0.946259	0.954391
223	20    	0.948861	0.00279228	0.946259	0.954391
224	20    	0.949023	0.00272997	0.946259	0.954391
225	20    	0.949023	0.00272997	0.946259	0.954391
226	20    	0.949023	0.00272997	0.946259	0.954391
227	20    	0.949023	0.00272997	0.946259	0.954391
228	20    	0.949023	0.00272997	0.946259	0.954391
229	20    	0.949023	0.00272997	0.946259	0.954391
230	20    	0.949023	0.00272997	0.946259	0.954391
231	20    	0.949023	0.00272997	0.946259	0.954391
232	20    	0.949186	0.00265629	0.946259	0.954391
233	20    	0.949186	0.00265629	0.946259	0.954391
234	20    	0.949593	0.00260059	0.946259	0.954391
235	20    	0.949837	0.00250352	0.946259	0.954391
236	20    	0.949837	0.00250352	0.946259	0.954391
237	20    	0.949837	0.00250352	0.946259	0.954391
238	20    	0.949837	0.00250352	0.946259	0.954391
239	20    	0.949837	0.00250352	0.946259	0.954391
240	20    	0.949837	0.00250352	0.946259	0.954391
241	20    	0.950163	0.00243982	0.946259	0.954391
242	20    	0.950243	0.00233357	0.946259	0.954391
243	20    	0.950243	0.00233357	0.946259	0.954391
244	20    	0.950243	0.00233357	0.946259	0.954391
245	20    	0.950243	0.00233357	0.946259	0.954391
246	20    	0.950243	0.00233357	0.946259	0.954391
247	20    	0.950243	0.00233357	0.946259	0.954391
248	20    	0.950243	0.00233357	0.946259	0.954391
249	20    	0.950243	0.00233357	0.946259	0.954391
250	20    	0.950243	0.00233357	0.946259	0.954391
251	20    	0.950324	0.0022193 	0.947876	0.954391
252	20    	0.950324	0.0022193 	0.947876	0.954391
253	20    	0.950324	0.0022193 	0.947876	0.954391
254	20    	0.950324	0.0022193 	0.947876	0.954391
255	20    	0.950324	0.0022193 	0.947876	0.954391
256	20    	0.950406	0.00215689	0.947876	0.954391
257	20    	0.950406	0.00215689	0.947876	0.954391
258	20    	0.950406	0.00215689	0.947876	0.954391
259	20    	0.950406	0.00215689	0.947876	0.954391
260	20    	0.950406	0.00215689	0.947876	0.954391
261	20    	0.950406	0.00215689	0.947876	0.954391
262	20    	0.950406	0.00215689	0.947876	0.954391
263	20    	0.950406	0.00215689	0.947876	0.954391
264	20    	0.950406	0.00215689	0.947876	0.954391
265	20    	0.950406	0.00215689	0.947876	0.954391
266	20    	0.950406	0.00215689	0.947876	0.954391
267	20    	0.950406	0.00215689	0.947876	0.954391
268	20    	0.950406	0.00215689	0.947876	0.954391
269	20    	0.950406	0.00215689	0.947876	0.954391
270	20    	0.950488	0.00208944	0.947876	0.954391
271	20    	0.950732	0.00205576	0.947876	0.954391
272	20    	0.950732	0.00205576	0.947876	0.954391
273	20    	0.950814	0.0019714 	0.947876	0.954391
274	20    	0.950814	0.0019714 	0.947876	0.954391
275	20    	0.950814	0.0019714 	0.947876	0.954391
276	20    	0.950896	0.00187972	0.947876	0.954391
277	20    	0.950896	0.00187972	0.947876	0.954391
278	20    	0.950896	0.00187972	0.947876	0.954391
279	20    	0.950896	0.00187972	0.947876	0.954391
280	20    	0.950896	0.00187972	0.947876	0.954391
281	20    	0.950896	0.00187972	0.947876	0.954391
282	20    	0.950896	0.00187972	0.947876	0.954391
283	20    	0.950896	0.00187972	0.947876	0.954391
284	20    	0.950896	0.00187972	0.947876	0.954391
285	20    	0.950896	0.00187972	0.947876	0.954391
286	20    	0.950896	0.00187972	0.947876	0.954391
287	20    	0.950896	0.00187972	0.947876	0.954391
288	20    	0.950896	0.00187972	0.947876	0.954391
289	20    	0.950896	0.00187972	0.947876	0.954391
290	20    	0.950896	0.00187972	0.947876	0.954391
291	20    	0.950896	0.00187972	0.947876	0.954391
292	20    	0.951141	0.00178713	0.947876	0.954391
293	20    	0.951141	0.00178713	0.947876	0.954391
294	20    	0.951141	0.00178713	0.947876	0.954391
295	20    	0.95163 	0.00213187	0.949509	0.957657
296	20    	0.95163 	0.00213187	0.949509	0.957657
297	20    	0.95163 	0.00213187	0.949509	0.957657
298	20    	0.95163 	0.00213187	0.949509	0.957657
299	20    	0.95163 	0.00213187	0.949509	0.957657
300	20    	0.95163 	0.00213187	0.949509	0.957657
301	20    	0.95163 	0.00213187	0.949509	0.957657
302	20    	0.95163 	0.00213187	0.949509	0.957657
303	20    	0.95163 	0.00213187	0.949509	0.957657
304	20    	0.95163 	0.00213187	0.949509	0.957657
305	20    	0.95163 	0.00213187	0.949509	0.957657
306	20    	0.95163 	0.00213187	0.949509	0.957657
307	20    	0.95163 	0.00213187	0.949509	0.957657
308	20    	0.951793	0.00208777	0.949509	0.957657
309	20    	0.952119	0.00202231	0.949509	0.957657
310	20    	0.952119	0.00202231	0.949509	0.957657
311	20    	0.952119	0.00202231	0.949509	0.957657
312	20    	0.952119	0.00202231	0.949509	0.957657
313	20    	0.952119	0.00202231	0.949509	0.957657
314	20    	0.952526	0.00226201	0.949509	0.957657
315	20    	0.952526	0.00226201	0.949509	0.957657
316	20    	0.952526	0.00226201	0.949509	0.957657
317	20    	0.952526	0.00226201	0.949509	0.957657
318	20    	0.952526	0.00226201	0.949509	0.957657
319	20    	0.952526	0.00226201	0.949509	0.957657
320	20    	0.952526	0.00226201	0.949509	0.957657
321	20    	0.953015	0.00259027	0.949509	0.95929 
322	20    	0.953015	0.00259027	0.949509	0.95929 
323	20    	0.953178	0.00246394	0.949509	0.95929 
324	20    	0.953178	0.00246394	0.949509	0.95929 
325	20    	0.953178	0.00246394	0.949509	0.95929 
326	20    	0.953178	0.00246394	0.949509	0.95929 
327	20    	0.953178	0.00246394	0.949509	0.95929 
328	20    	0.953178	0.00246394	0.949509	0.95929 
329	20    	0.953178	0.00246394	0.949509	0.95929 
330	20    	0.953178	0.00246394	0.949509	0.95929 
331	20    	0.953178	0.00246394	0.949509	0.95929 
332	20    	0.953178	0.00246394	0.949509	0.95929 
333	20    	0.953178	0.00246394	0.949509	0.95929 
334	20    	0.953178	0.00246394	0.949509	0.95929 
335	20    	0.953178	0.00246394	0.949509	0.95929 
336	20    	0.95326 	0.00236611	0.949509	0.95929 
337	20    	0.95326 	0.00236611	0.949509	0.95929 
338	20    	0.953504	0.00221342	0.951141	0.95929 
339	20    	0.953504	0.00221342	0.951141	0.95929 
340	20    	0.953504	0.00221342	0.951141	0.95929 
341	20    	0.953504	0.00221342	0.951141	0.95929 
342	20    	0.953504	0.00221342	0.951141	0.95929 
343	20    	0.953504	0.00221342	0.951141	0.95929 
344	20    	0.953504	0.00221342	0.951141	0.95929 
345	20    	0.953504	0.00221342	0.951141	0.95929 
346	20    	0.953504	0.00221342	0.951141	0.95929 
347	20    	0.953504	0.00221342	0.951141	0.95929 
348	20    	0.953504	0.00221342	0.951141	0.95929 
349	20    	0.953504	0.00221342	0.951141	0.95929 
350	20    	0.953504	0.00221342	0.951141	0.95929 
351	20    	0.953504	0.00221342	0.951141	0.95929 
352	20    	0.953504	0.00221342	0.951141	0.95929 
353	20    	0.953586	0.00215408	0.951141	0.95929 
354	20    	0.953586	0.00215408	0.951141	0.95929 
355	20    	0.953586	0.00215408	0.951141	0.95929 
356	20    	0.953586	0.00215408	0.951141	0.95929 
357	20    	0.953586	0.00215408	0.951141	0.95929 
358	20    	0.953586	0.00215408	0.951141	0.95929 
359	20    	0.953586	0.00215408	0.951141	0.95929 
360	20    	0.953586	0.00215408	0.951141	0.95929 
361	20    	0.953586	0.00215408	0.951141	0.95929 
362	20    	0.953586	0.00215408	0.951141	0.95929 
363	20    	0.953586	0.00215408	0.951141	0.95929 
364	20    	0.953586	0.00215408	0.951141	0.95929 
365	20    	0.953667	0.00208988	0.951141	0.95929 
366	20    	0.953667	0.00208988	0.951141	0.95929 
367	20    	0.953667	0.00208988	0.951141	0.95929 
368	20    	0.953667	0.00208988	0.951141	0.95929 
369	20    	0.953667	0.00208988	0.951141	0.95929 
370	20    	0.953667	0.00208988	0.951141	0.95929 
371	20    	0.953667	0.00208988	0.951141	0.95929 
372	20    	0.953667	0.00208988	0.951141	0.95929 
373	20    	0.953667	0.00208988	0.951141	0.95929 
374	20    	0.953667	0.00208988	0.951141	0.95929 
375	20    	0.953667	0.00208988	0.951141	0.95929 
376	20    	0.953667	0.00208988	0.951141	0.95929 
377	20    	0.953667	0.00208988	0.951141	0.95929 
378	20    	0.953667	0.00208988	0.951141	0.95929 
379	20    	0.953667	0.00208988	0.951141	0.95929 
380	20    	0.953667	0.00208988	0.951141	0.95929 
381	20    	0.953667	0.00208988	0.951141	0.95929 
382	20    	0.953667	0.00208988	0.951141	0.95929 
383	20    	0.953749	0.00202034	0.951141	0.95929 
384	20    	0.953749	0.00202034	0.951141	0.95929 
385	20    	0.953749	0.00202034	0.951141	0.95929 
386	20    	0.953749	0.00202034	0.951141	0.95929 
387	20    	0.953749	0.00202034	0.951141	0.95929 
388	20    	0.953749	0.00202034	0.951141	0.95929 
389	20    	0.953749	0.00202034	0.951141	0.95929 
390	20    	0.953749	0.00202034	0.951141	0.95929 
391	20    	0.953749	0.00202034	0.951141	0.95929 
392	20    	0.953749	0.00202034	0.951141	0.95929 
393	20    	0.953749	0.00202034	0.951141	0.95929 
394	20    	0.953749	0.00202034	0.951141	0.95929 
395	20    	0.953749	0.00202034	0.951141	0.95929 
396	20    	0.953749	0.00202034	0.951141	0.95929 
397	20    	0.953749	0.00202034	0.951141	0.95929 
398	20    	0.953749	0.00202034	0.951141	0.95929 
399	20    	0.953749	0.00202034	0.951141	0.95929 
400	20    	0.953749	0.00202034	0.951141	0.95929 
401	20    	0.953749	0.00202034	0.951141	0.95929 
402	20    	0.953749	0.00202034	0.951141	0.95929 
403	20    	0.953749	0.00202034	0.951141	0.95929 
404	20    	0.953749	0.00202034	0.951141	0.95929 
405	20    	0.953749	0.00202034	0.951141	0.95929 
406	20    	0.953749	0.00202034	0.951141	0.95929 
407	20    	0.953749	0.00202034	0.951141	0.95929 
408	20    	0.953749	0.00202034	0.951141	0.95929 
409	20    	0.953749	0.00202034	0.951141	0.95929 
410	20    	0.953749	0.00202034	0.951141	0.95929 
411	20    	0.953749	0.00202034	0.951141	0.95929 
412	20    	0.954237	0.00246275	0.952774	0.960907
413	20    	0.954237	0.00246275	0.952774	0.960907
414	20    	0.954237	0.00246275	0.952774	0.960907
415	20    	0.954237	0.00246275	0.952774	0.960907
416	20    	0.954237	0.00246275	0.952774	0.960907
417	20    	0.954237	0.00246275	0.952774	0.960907
418	20    	0.954237	0.00246275	0.952774	0.960907
419	20    	0.954237	0.00246275	0.952774	0.960907
420	20    	0.954237	0.00246275	0.952774	0.960907
421	20    	0.954237	0.00246275	0.952774	0.960907
422	20    	0.954237	0.00246275	0.952774	0.960907
423	20    	0.954237	0.00246275	0.952774	0.960907
424	20    	0.954237	0.00246275	0.952774	0.960907
425	20    	0.954482	0.00254619	0.952774	0.960907
426	20    	0.954482	0.00254619	0.952774	0.960907
427	20    	0.954482	0.00254619	0.952774	0.960907
428	20    	0.954482	0.00254619	0.952774	0.960907
429	20    	0.954482	0.00254619	0.952774	0.960907
430	20    	0.954482	0.00254619	0.952774	0.960907
431	20    	0.954482	0.00254619	0.952774	0.960907
432	20    	0.954482	0.00254619	0.952774	0.960907
433	20    	0.954482	0.00254619	0.952774	0.960907
434	20    	0.954482	0.00254619	0.952774	0.960907
435	20    	0.954482	0.00254619	0.952774	0.960907
436	20    	0.954482	0.00254619	0.952774	0.960907
437	20    	0.954482	0.00254619	0.952774	0.960907
438	20    	0.954482	0.00254619	0.952774	0.960907
439	20    	0.954482	0.00254619	0.952774	0.960907
440	20    	0.954482	0.00254619	0.952774	0.960907
441	20    	0.954482	0.00254619	0.952774	0.960907
442	20    	0.954482	0.00254619	0.952774	0.960907
443	20    	0.954482	0.00254619	0.952774	0.960907
444	20    	0.954482	0.00254619	0.952774	0.960907
445	20    	0.954482	0.00254619	0.952774	0.960907
446	20    	0.954482	0.00254619	0.952774	0.960907
447	20    	0.954482	0.00254619	0.952774	0.960907
448	20    	0.954482	0.00254619	0.952774	0.960907
449	20    	0.954726	0.0026042 	0.952774	0.960907
450	20    	0.954726	0.0026042 	0.952774	0.960907
451	20    	0.954888	0.00257863	0.952774	0.960907
452	20    	0.954888	0.00257863	0.952774	0.960907
453	20    	0.954888	0.00257863	0.952774	0.960907
454	20    	0.954888	0.00257863	0.952774	0.960907
455	20    	0.954888	0.00257863	0.952774	0.960907
456	20    	0.954888	0.00257863	0.952774	0.960907
457	20    	0.954888	0.00257863	0.952774	0.960907
458	20    	0.954888	0.00257863	0.952774	0.960907
459	20    	0.954888	0.00257863	0.952774	0.960907
460	20    	0.954969	0.00253607	0.952774	0.960907
461	20    	0.954969	0.00253607	0.952774	0.960907
462	20    	0.954969	0.00253607	0.952774	0.960907
463	20    	0.954969	0.00253607	0.952774	0.960907
464	20    	0.954969	0.00253607	0.952774	0.960907
465	20    	0.954969	0.00253607	0.952774	0.960907
466	20    	0.954969	0.00253607	0.952774	0.960907
467	20    	0.954969	0.00253607	0.952774	0.960907
468	20    	0.954969	0.00253607	0.952774	0.960907
469	20    	0.954969	0.00253607	0.952774	0.960907
470	20    	0.954969	0.00253607	0.952774	0.960907
471	20    	0.954969	0.00253607	0.952774	0.960907
472	20    	0.954969	0.00253607	0.952774	0.960907
473	20    	0.954969	0.00253607	0.952774	0.960907
474	20    	0.954969	0.00253607	0.952774	0.960907
475	20    	0.954969	0.00253607	0.952774	0.960907
476	20    	0.954969	0.00253607	0.952774	0.960907
477	20    	0.954969	0.00253607	0.952774	0.960907
478	20    	0.954969	0.00253607	0.952774	0.960907
479	20    	0.954969	0.00253607	0.952774	0.960907
480	20    	0.954969	0.00253607	0.952774	0.960907
481	20    	0.954969	0.00253607	0.952774	0.960907
482	20    	0.954969	0.00253607	0.952774	0.960907
483	20    	0.954969	0.00253607	0.952774	0.960907
484	20    	0.954969	0.00253607	0.952774	0.960907
485	20    	0.954969	0.00253607	0.952774	0.960907
486	20    	0.954969	0.00253607	0.952774	0.960907
487	20    	0.954969	0.00253607	0.952774	0.960907
488	20    	0.954969	0.00253607	0.952774	0.960907
489	20    	0.954969	0.00253607	0.952774	0.960907
490	20    	0.954969	0.00253607	0.952774	0.960907
491	20    	0.954969	0.00253607	0.952774	0.960907
492	20    	0.954969	0.00253607	0.952774	0.960907
493	20    	0.954969	0.00253607	0.952774	0.960907
494	20    	0.954969	0.00253607	0.952774	0.960907
495	20    	0.954969	0.00253607	0.952774	0.960907
496	20    	0.954969	0.00253607	0.952774	0.960907
497	20    	0.954969	0.00253607	0.952774	0.960907
498	20    	0.954969	0.00253607	0.952774	0.960907
499	20    	0.954969	0.00253607	0.952774	0.960907
