gen	nevals	avg     	std       	min     	max     
0  	20    	0.868869	0.0299679 	0.80188 	0.93396 
1  	20    	0.896701	0.018503  	0.877365	0.93396 
2  	20    	0.91651 	0.0123993 	0.896225	0.94339 
3  	20    	0.929717	0.0147553 	0.9151  	0.981125
4  	20    	0.937733	0.0113188 	0.92453 	0.981125
5  	20    	0.941978	0.0116592 	0.93396 	0.981125
6  	20    	0.947167	0.0105063 	0.93396 	0.981125
7  	20    	0.951886	0.00938819	0.94339 	0.981125
8  	20    	0.953773	0.00984996	0.94339 	0.981125
9  	20    	0.957549	0.00869645	0.94339 	0.981125
10 	20    	0.958965	0.00746991	0.952835	0.981125
11 	20    	0.959908	0.00781889	0.952835	0.981125
12 	20    	0.960379	0.00766091	0.952835	0.981125
13 	20    	0.962265	0.00730439	0.952835	0.981125
14 	20    	0.965094	0.00525036	0.962265	0.981125
15 	20    	0.965565	0.00539653	0.962265	0.981125
16 	20    	0.966037	0.00549855	0.962265	0.981125
17 	20    	0.966508	0.00555886	0.962265	0.981125
18 	20    	0.96698 	0.00557882	0.962265	0.981125
19 	20    	0.968394	0.00616562	0.962265	0.981125
20 	20    	0.968866	0.0060381 	0.962265	0.981125
21 	20    	0.970752	0.00588899	0.962265	0.981125
22 	20    	0.971695	0.00516499	0.962265	0.981125
23 	20    	0.972638	0.00411041	0.962265	0.981125
24 	20    	0.973109	0.00336716	0.971695	0.981125
25 	20    	0.973581	0.00377197	0.971695	0.981125
26 	20    	0.975468	0.00550064	0.971695	0.99057 
27 	20    	0.975468	0.00550064	0.971695	0.99057 
28 	20    	0.975939	0.00556087	0.971695	0.99057 
29 	20    	0.976882	0.00556074	0.971695	0.99057 
30 	20    	0.977354	0.00550038	0.971695	0.99057 
31 	20    	0.978297	0.00525215	0.971695	0.99057 
32 	20    	0.978768	0.00505802	0.971695	0.99057 
33 	20    	0.979711	0.00449963	0.971695	0.99057 
34 	20    	0.981126	0.00298442	0.971695	0.99057 
35 	20    	0.981597	0.00205853	0.981125	0.99057 
36 	20    	0.982069	0.00283356	0.981125	0.99057 
37 	20    	0.982069	0.00283356	0.981125	0.99057 
38 	20    	0.982069	0.00283356	0.981125	0.99057 
39 	20    	0.982069	0.00283356	0.981125	0.99057 
40 	20    	0.982069	0.00283356	0.981125	0.99057 
41 	20    	0.982069	0.00283356	0.981125	0.99057 
42 	20    	0.982069	0.00283356	0.981125	0.99057 
43 	20    	0.982069	0.00283356	0.981125	0.99057 
44 	20    	0.982069	0.00283356	0.981125	0.99057 
45 	20    	0.982069	0.00283356	0.981125	0.99057 
46 	20    	0.982069	0.00283356	0.981125	0.99057 
47 	20    	0.982069	0.00283356	0.981125	0.99057 
48 	20    	0.982069	0.00283356	0.981125	0.99057 
49 	20    	0.982069	0.00283356	0.981125	0.99057 
50 	20    	0.982069	0.00283356	0.981125	0.99057 
51 	20    	0.982069	0.00283356	0.981125	0.99057 
52 	20    	0.982069	0.00283356	0.981125	0.99057 
53 	20    	0.982069	0.00283356	0.981125	0.99057 
54 	20    	0.982069	0.00283356	0.981125	0.99057 
55 	20    	0.982069	0.00283356	0.981125	0.99057 
56 	20    	0.982069	0.00283356	0.981125	0.99057 
57 	20    	0.982069	0.00283356	0.981125	0.99057 
58 	20    	0.982069	0.00283356	0.981125	0.99057 
59 	20    	0.982069	0.00283356	0.981125	0.99057 
60 	20    	0.982069	0.00283356	0.981125	0.99057 
61 	20    	0.982069	0.00283356	0.981125	0.99057 
62 	20    	0.982069	0.00283356	0.981125	0.99057 
63 	20    	0.982069	0.00283356	0.981125	0.99057 
64 	20    	0.982069	0.00283356	0.981125	0.99057 
65 	20    	0.982069	0.00283356	0.981125	0.99057 
66 	20    	0.982542	0.00337261	0.981125	0.99057 
67 	20    	0.983014	0.00377808	0.981125	0.99057 
68 	20    	0.983014	0.00377808	0.981125	0.99057 
69 	20    	0.983014	0.00377808	0.981125	0.99057 
70 	20    	0.983014	0.00377808	0.981125	0.99057 
71 	20    	0.983014	0.00377808	0.981125	0.99057 
72 	20    	0.983014	0.00377808	0.981125	0.99057 
73 	20    	0.983014	0.00377808	0.981125	0.99057 
74 	20    	0.983014	0.00377808	0.981125	0.99057 
75 	20    	0.983014	0.00377808	0.981125	0.99057 
76 	20    	0.983958	0.00432833	0.981125	0.99057 
77 	20    	0.983958	0.00432833	0.981125	0.99057 
78 	20    	0.983958	0.00432833	0.981125	0.99057 
79 	20    	0.983958	0.00432833	0.981125	0.99057 
80 	20    	0.983958	0.00432833	0.981125	0.99057 
81 	20    	0.984431	0.00450507	0.981125	0.99057 
82 	20    	0.984431	0.00450507	0.981125	0.99057 
83 	20    	0.984431	0.00450507	0.981125	0.99057 
84 	20    	0.984903	0.00462718	0.981125	0.99057 
85 	20    	0.984903	0.00462718	0.981125	0.99057 
86 	20    	0.984903	0.00462718	0.981125	0.99057 
87 	20    	0.984903	0.00462718	0.981125	0.99057 
88 	20    	0.984903	0.00462718	0.981125	0.99057 
89 	20    	0.984903	0.00462718	0.981125	0.99057 
90 	20    	0.984903	0.00462718	0.981125	0.99057 
91 	20    	0.984903	0.00462718	0.981125	0.99057 
92 	20    	0.984903	0.00462718	0.981125	0.99057 
93 	20    	0.984903	0.00462718	0.981125	0.99057 
94 	20    	0.984903	0.00462718	0.981125	0.99057 
95 	20    	0.984903	0.00462718	0.981125	0.99057 
96 	20    	0.984903	0.00462718	0.981125	0.99057 
97 	20    	0.984903	0.00462718	0.981125	0.99057 
98 	20    	0.984903	0.00462718	0.981125	0.99057 
99 	20    	0.985375	0.00469892	0.981125	0.99057 
100	20    	0.985375	0.00469892	0.981125	0.99057 
101	20    	0.985375	0.00469892	0.981125	0.99057 
102	20    	0.985375	0.00469892	0.981125	0.99057 
103	20    	0.985375	0.00469892	0.981125	0.99057 
104	20    	0.985847	0.0047226 	0.981125	0.99057 
105	20    	0.985847	0.0047226 	0.981125	0.99057 
106	20    	0.98632 	0.00469892	0.981125	0.99057 
107	20    	0.986792	0.00462718	0.981125	0.99057 
108	20    	0.987737	0.00432833	0.981125	0.99057 
109	20    	0.988209	0.00408989	0.981125	0.99057 
110	20    	0.988681	0.00377808	0.981125	0.99057 
111	20    	0.989153	0.00337261	0.981125	0.99057 
112	20    	0.989626	0.00283356	0.981125	0.99057 
113	20    	0.990098	0.00205853	0.981125	0.99057 
114	20    	0.99057 	0         	0.99057 	0.99057 
115	20    	0.99057 	0         	0.99057 	0.99057 
116	20    	0.99057 	0         	0.99057 	0.99057 
117	20    	0.99057 	0         	0.99057 	0.99057 
118	20    	0.99057 	0         	0.99057 	0.99057 
119	20    	0.99057 	0         	0.99057 	0.99057 
120	20    	0.99057 	0         	0.99057 	0.99057 
121	20    	0.99057 	0         	0.99057 	0.99057 
122	20    	0.99057 	0         	0.99057 	0.99057 
123	20    	0.99057 	0         	0.99057 	0.99057 
124	20    	0.99057 	0         	0.99057 	0.99057 
125	20    	0.99057 	0         	0.99057 	0.99057 
126	20    	0.99057 	0         	0.99057 	0.99057 
127	20    	0.99057 	0         	0.99057 	0.99057 
128	20    	0.99057 	0         	0.99057 	0.99057 
129	20    	0.99057 	0         	0.99057 	0.99057 
130	20    	0.99057 	0         	0.99057 	0.99057 
131	20    	0.99057 	0         	0.99057 	0.99057 
132	20    	0.99057 	0         	0.99057 	0.99057 
133	20    	0.99057 	0         	0.99057 	0.99057 
134	20    	0.99057 	0         	0.99057 	0.99057 
135	20    	0.99057 	0         	0.99057 	0.99057 
136	20    	0.99057 	0         	0.99057 	0.99057 
137	20    	0.99057 	0         	0.99057 	0.99057 
138	20    	0.99057 	0         	0.99057 	0.99057 
139	20    	0.99057 	0         	0.99057 	0.99057 
140	20    	0.99057 	0         	0.99057 	0.99057 
141	20    	0.99057 	0         	0.99057 	0.99057 
142	20    	0.99057 	0         	0.99057 	0.99057 
143	20    	0.99057 	0         	0.99057 	0.99057 
144	20    	0.99057 	0         	0.99057 	0.99057 
145	20    	0.99057 	0         	0.99057 	0.99057 
146	20    	0.99057 	0         	0.99057 	0.99057 
147	20    	0.99057 	0         	0.99057 	0.99057 
148	20    	0.99057 	0         	0.99057 	0.99057 
149	20    	0.99057 	0         	0.99057 	0.99057 
150	20    	0.99057 	0         	0.99057 	0.99057 
151	20    	0.99057 	0         	0.99057 	0.99057 
152	20    	0.99057 	0         	0.99057 	0.99057 
153	20    	0.99057 	0         	0.99057 	0.99057 
154	20    	0.99057 	0         	0.99057 	0.99057 
155	20    	0.99057 	0         	0.99057 	0.99057 
156	20    	0.99057 	0         	0.99057 	0.99057 
157	20    	0.99057 	0         	0.99057 	0.99057 
158	20    	0.99057 	0         	0.99057 	0.99057 
159	20    	0.99057 	0         	0.99057 	0.99057 
160	20    	0.99057 	0         	0.99057 	0.99057 
161	20    	0.99057 	0         	0.99057 	0.99057 
162	20    	0.99057 	0         	0.99057 	0.99057 
163	20    	0.99057 	0         	0.99057 	0.99057 
164	20    	0.99057 	0         	0.99057 	0.99057 
165	20    	0.99057 	0         	0.99057 	0.99057 
166	20    	0.99057 	0         	0.99057 	0.99057 
167	20    	0.99057 	0         	0.99057 	0.99057 
168	20    	0.99057 	0         	0.99057 	0.99057 
169	20    	0.99057 	0         	0.99057 	0.99057 
170	20    	0.99057 	0         	0.99057 	0.99057 
171	20    	0.99057 	0         	0.99057 	0.99057 
172	20    	0.99057 	0         	0.99057 	0.99057 
173	20    	0.99057 	0         	0.99057 	0.99057 
174	20    	0.99057 	0         	0.99057 	0.99057 
175	20    	0.99057 	0         	0.99057 	0.99057 
176	20    	0.99057 	0         	0.99057 	0.99057 
177	20    	0.99057 	0         	0.99057 	0.99057 
178	20    	0.99057 	0         	0.99057 	0.99057 
179	20    	0.99057 	0         	0.99057 	0.99057 
180	20    	0.99057 	0         	0.99057 	0.99057 
181	20    	0.99057 	0         	0.99057 	0.99057 
182	20    	0.99057 	0         	0.99057 	0.99057 
183	20    	0.99057 	0         	0.99057 	0.99057 
184	20    	0.99057 	0         	0.99057 	0.99057 
185	20    	0.99057 	0         	0.99057 	0.99057 
186	20    	0.99057 	0         	0.99057 	0.99057 
187	20    	0.99057 	0         	0.99057 	0.99057 
188	20    	0.99057 	0         	0.99057 	0.99057 
189	20    	0.99057 	0         	0.99057 	0.99057 
190	20    	0.99057 	0         	0.99057 	0.99057 
191	20    	0.99057 	0         	0.99057 	0.99057 
192	20    	0.99057 	0         	0.99057 	0.99057 
193	20    	0.99057 	0         	0.99057 	0.99057 
194	20    	0.99057 	0         	0.99057 	0.99057 
195	20    	0.99057 	0         	0.99057 	0.99057 
196	20    	0.99057 	0         	0.99057 	0.99057 
197	20    	0.99057 	0         	0.99057 	0.99057 
198	20    	0.99057 	0         	0.99057 	0.99057 
199	20    	0.99057 	0         	0.99057 	0.99057 
200	20    	0.99057 	0         	0.99057 	0.99057 
201	20    	0.99057 	0         	0.99057 	0.99057 
202	20    	0.99057 	0         	0.99057 	0.99057 
203	20    	0.99057 	0         	0.99057 	0.99057 
204	20    	0.99057 	0         	0.99057 	0.99057 
205	20    	0.99057 	0         	0.99057 	0.99057 
206	20    	0.99057 	0         	0.99057 	0.99057 
207	20    	0.99057 	0         	0.99057 	0.99057 
208	20    	0.99057 	0         	0.99057 	0.99057 
209	20    	0.99057 	0         	0.99057 	0.99057 
210	20    	0.99057 	0         	0.99057 	0.99057 
211	20    	0.99057 	0         	0.99057 	0.99057 
212	20    	0.99057 	0         	0.99057 	0.99057 
213	20    	0.99057 	0         	0.99057 	0.99057 
214	20    	0.99057 	0         	0.99057 	0.99057 
215	20    	0.99057 	0         	0.99057 	0.99057 
216	20    	0.99057 	0         	0.99057 	0.99057 
217	20    	0.99057 	0         	0.99057 	0.99057 
218	20    	0.99057 	0         	0.99057 	0.99057 
219	20    	0.99057 	0         	0.99057 	0.99057 
220	20    	0.99057 	0         	0.99057 	0.99057 
221	20    	0.99057 	0         	0.99057 	0.99057 
222	20    	0.99057 	0         	0.99057 	0.99057 
223	20    	0.99057 	0         	0.99057 	0.99057 
224	20    	0.99057 	0         	0.99057 	0.99057 
225	20    	0.99057 	0         	0.99057 	0.99057 
226	20    	0.99057 	0         	0.99057 	0.99057 
227	20    	0.99057 	0         	0.99057 	0.99057 
228	20    	0.99057 	0         	0.99057 	0.99057 
229	20    	0.99057 	0         	0.99057 	0.99057 
230	20    	0.99057 	0         	0.99057 	0.99057 
231	20    	0.99057 	0         	0.99057 	0.99057 
232	20    	0.99057 	0         	0.99057 	0.99057 
233	20    	0.99057 	0         	0.99057 	0.99057 
234	20    	0.99057 	0         	0.99057 	0.99057 
235	20    	0.99057 	0         	0.99057 	0.99057 
236	20    	0.99057 	0         	0.99057 	0.99057 
237	20    	0.99057 	0         	0.99057 	0.99057 
238	20    	0.99057 	0         	0.99057 	0.99057 
239	20    	0.99057 	0         	0.99057 	0.99057 
240	20    	0.99057 	0         	0.99057 	0.99057 
241	20    	0.99057 	0         	0.99057 	0.99057 
242	20    	0.99057 	0         	0.99057 	0.99057 
243	20    	0.99057 	0         	0.99057 	0.99057 
244	20    	0.99057 	0         	0.99057 	0.99057 
245	20    	0.99057 	0         	0.99057 	0.99057 
246	20    	0.99057 	0         	0.99057 	0.99057 
247	20    	0.99057 	0         	0.99057 	0.99057 
248	20    	0.99057 	0         	0.99057 	0.99057 
249	20    	0.99057 	0         	0.99057 	0.99057 
250	20    	0.99057 	0         	0.99057 	0.99057 
251	20    	0.99057 	0         	0.99057 	0.99057 
252	20    	0.99057 	0         	0.99057 	0.99057 
253	20    	0.99057 	0         	0.99057 	0.99057 
254	20    	0.99057 	0         	0.99057 	0.99057 
255	20    	0.99057 	0         	0.99057 	0.99057 
256	20    	0.99057 	0         	0.99057 	0.99057 
257	20    	0.99057 	0         	0.99057 	0.99057 
258	20    	0.99057 	0         	0.99057 	0.99057 
259	20    	0.99057 	0         	0.99057 	0.99057 
260	20    	0.99057 	0         	0.99057 	0.99057 
261	20    	0.99057 	0         	0.99057 	0.99057 
262	20    	0.99057 	0         	0.99057 	0.99057 
263	20    	0.99057 	0         	0.99057 	0.99057 
264	20    	0.99057 	0         	0.99057 	0.99057 
265	20    	0.99057 	0         	0.99057 	0.99057 
266	20    	0.99057 	0         	0.99057 	0.99057 
267	20    	0.99057 	0         	0.99057 	0.99057 
268	20    	0.99057 	0         	0.99057 	0.99057 
269	20    	0.99057 	0         	0.99057 	0.99057 
270	20    	0.99057 	0         	0.99057 	0.99057 
271	20    	0.99057 	0         	0.99057 	0.99057 
272	20    	0.99057 	0         	0.99057 	0.99057 
273	20    	0.99057 	0         	0.99057 	0.99057 
274	20    	0.99057 	0         	0.99057 	0.99057 
275	20    	0.99057 	0         	0.99057 	0.99057 
276	20    	0.99057 	0         	0.99057 	0.99057 
277	20    	0.99057 	0         	0.99057 	0.99057 
278	20    	0.99057 	0         	0.99057 	0.99057 
279	20    	0.99057 	0         	0.99057 	0.99057 
280	20    	0.99057 	0         	0.99057 	0.99057 
281	20    	0.99057 	0         	0.99057 	0.99057 
282	20    	0.99057 	0         	0.99057 	0.99057 
283	20    	0.99057 	0         	0.99057 	0.99057 
284	20    	0.99057 	0         	0.99057 	0.99057 
285	20    	0.99057 	0         	0.99057 	0.99057 
286	20    	0.99057 	0         	0.99057 	0.99057 
287	20    	0.99057 	0         	0.99057 	0.99057 
288	20    	0.99057 	0         	0.99057 	0.99057 
289	20    	0.99057 	0         	0.99057 	0.99057 
290	20    	0.99057 	0         	0.99057 	0.99057 
291	20    	0.99057 	0         	0.99057 	0.99057 
292	20    	0.99057 	0         	0.99057 	0.99057 
293	20    	0.99057 	0         	0.99057 	0.99057 
294	20    	0.99057 	0         	0.99057 	0.99057 
295	20    	0.99057 	0         	0.99057 	0.99057 
296	20    	0.99057 	0         	0.99057 	0.99057 
297	20    	0.99057 	0         	0.99057 	0.99057 
298	20    	0.99057 	0         	0.99057 	0.99057 
299	20    	0.99057 	0         	0.99057 	0.99057 
300	20    	0.99057 	0         	0.99057 	0.99057 
301	20    	0.99057 	0         	0.99057 	0.99057 
302	20    	0.99057 	0         	0.99057 	0.99057 
303	20    	0.99057 	0         	0.99057 	0.99057 
304	20    	0.99057 	0         	0.99057 	0.99057 
305	20    	0.99057 	0         	0.99057 	0.99057 
306	20    	0.99057 	0         	0.99057 	0.99057 
307	20    	0.99057 	0         	0.99057 	0.99057 
308	20    	0.99057 	0         	0.99057 	0.99057 
309	20    	0.99057 	0         	0.99057 	0.99057 
310	20    	0.99057 	0         	0.99057 	0.99057 
311	20    	0.99057 	0         	0.99057 	0.99057 
312	20    	0.99057 	0         	0.99057 	0.99057 
313	20    	0.99057 	0         	0.99057 	0.99057 
314	20    	0.99057 	0         	0.99057 	0.99057 
315	20    	0.99057 	0         	0.99057 	0.99057 
316	20    	0.99057 	0         	0.99057 	0.99057 
317	20    	0.99057 	0         	0.99057 	0.99057 
318	20    	0.99057 	0         	0.99057 	0.99057 
319	20    	0.99057 	0         	0.99057 	0.99057 
320	20    	0.99057 	0         	0.99057 	0.99057 
321	20    	0.99057 	0         	0.99057 	0.99057 
322	20    	0.99057 	0         	0.99057 	0.99057 
323	20    	0.99057 	0         	0.99057 	0.99057 
324	20    	0.99057 	0         	0.99057 	0.99057 
325	20    	0.99057 	0         	0.99057 	0.99057 
326	20    	0.99057 	0         	0.99057 	0.99057 
327	20    	0.99057 	0         	0.99057 	0.99057 
328	20    	0.99057 	0         	0.99057 	0.99057 
329	20    	0.99057 	0         	0.99057 	0.99057 
330	20    	0.99057 	0         	0.99057 	0.99057 
331	20    	0.99057 	0         	0.99057 	0.99057 
332	20    	0.99057 	0         	0.99057 	0.99057 
333	20    	0.99057 	0         	0.99057 	0.99057 
334	20    	0.99057 	0         	0.99057 	0.99057 
335	20    	0.99057 	0         	0.99057 	0.99057 
336	20    	0.99057 	0         	0.99057 	0.99057 
337	20    	0.99057 	0         	0.99057 	0.99057 
338	20    	0.99057 	0         	0.99057 	0.99057 
339	20    	0.99057 	0         	0.99057 	0.99057 
340	20    	0.99057 	0         	0.99057 	0.99057 
341	20    	0.99057 	0         	0.99057 	0.99057 
342	20    	0.99057 	0         	0.99057 	0.99057 
343	20    	0.99057 	0         	0.99057 	0.99057 
344	20    	0.99057 	0         	0.99057 	0.99057 
345	20    	0.99057 	0         	0.99057 	0.99057 
346	20    	0.99057 	0         	0.99057 	0.99057 
347	20    	0.99057 	0         	0.99057 	0.99057 
348	20    	0.99057 	0         	0.99057 	0.99057 
349	20    	0.99057 	0         	0.99057 	0.99057 
350	20    	0.99057 	0         	0.99057 	0.99057 
351	20    	0.99057 	0         	0.99057 	0.99057 
352	20    	0.99057 	0         	0.99057 	0.99057 
353	20    	0.99057 	0         	0.99057 	0.99057 
354	20    	0.99057 	0         	0.99057 	0.99057 
355	20    	0.99057 	0         	0.99057 	0.99057 
356	20    	0.99057 	0         	0.99057 	0.99057 
357	20    	0.99057 	0         	0.99057 	0.99057 
358	20    	0.99057 	0         	0.99057 	0.99057 
359	20    	0.99057 	0         	0.99057 	0.99057 
360	20    	0.99057 	0         	0.99057 	0.99057 
361	20    	0.99057 	0         	0.99057 	0.99057 
362	20    	0.99057 	0         	0.99057 	0.99057 
363	20    	0.99057 	0         	0.99057 	0.99057 
364	20    	0.99057 	0         	0.99057 	0.99057 
365	20    	0.99057 	0         	0.99057 	0.99057 
366	20    	0.99057 	0         	0.99057 	0.99057 
367	20    	0.99057 	0         	0.99057 	0.99057 
368	20    	0.99057 	0         	0.99057 	0.99057 
369	20    	0.99057 	0         	0.99057 	0.99057 
370	20    	0.99057 	0         	0.99057 	0.99057 
371	20    	0.99057 	0         	0.99057 	0.99057 
372	20    	0.99057 	0         	0.99057 	0.99057 
373	20    	0.99057 	0         	0.99057 	0.99057 
374	20    	0.99057 	0         	0.99057 	0.99057 
375	20    	0.99057 	0         	0.99057 	0.99057 
376	20    	0.99057 	0         	0.99057 	0.99057 
377	20    	0.99057 	0         	0.99057 	0.99057 
378	20    	0.99057 	0         	0.99057 	0.99057 
379	20    	0.99057 	0         	0.99057 	0.99057 
380	20    	0.99057 	0         	0.99057 	0.99057 
381	20    	0.99057 	0         	0.99057 	0.99057 
382	20    	0.99057 	0         	0.99057 	0.99057 
383	20    	0.99057 	0         	0.99057 	0.99057 
384	20    	0.99057 	0         	0.99057 	0.99057 
385	20    	0.99057 	0         	0.99057 	0.99057 
386	20    	0.99057 	0         	0.99057 	0.99057 
387	20    	0.99057 	0         	0.99057 	0.99057 
388	20    	0.99057 	0         	0.99057 	0.99057 
389	20    	0.99057 	0         	0.99057 	0.99057 
390	20    	0.99057 	0         	0.99057 	0.99057 
391	20    	0.99057 	0         	0.99057 	0.99057 
392	20    	0.99057 	0         	0.99057 	0.99057 
393	20    	0.99057 	0         	0.99057 	0.99057 
394	20    	0.99057 	0         	0.99057 	0.99057 
395	20    	0.99057 	0         	0.99057 	0.99057 
396	20    	0.99057 	0         	0.99057 	0.99057 
397	20    	0.99057 	0         	0.99057 	0.99057 
398	20    	0.99057 	0         	0.99057 	0.99057 
399	20    	0.99057 	0         	0.99057 	0.99057 
400	20    	0.99057 	0         	0.99057 	0.99057 
401	20    	0.99057 	0         	0.99057 	0.99057 
402	20    	0.99057 	0         	0.99057 	0.99057 
403	20    	0.99057 	0         	0.99057 	0.99057 
404	20    	0.99057 	0         	0.99057 	0.99057 
405	20    	0.99057 	0         	0.99057 	0.99057 
406	20    	0.99057 	0         	0.99057 	0.99057 
407	20    	0.99057 	0         	0.99057 	0.99057 
408	20    	0.99057 	0         	0.99057 	0.99057 
409	20    	0.99057 	0         	0.99057 	0.99057 
410	20    	0.99057 	0         	0.99057 	0.99057 
411	20    	0.99057 	0         	0.99057 	0.99057 
412	20    	0.99057 	0         	0.99057 	0.99057 
413	20    	0.99057 	0         	0.99057 	0.99057 
414	20    	0.99057 	0         	0.99057 	0.99057 
415	20    	0.99057 	0         	0.99057 	0.99057 
416	20    	0.99057 	0         	0.99057 	0.99057 
417	20    	0.99057 	0         	0.99057 	0.99057 
418	20    	0.99057 	0         	0.99057 	0.99057 
419	20    	0.99057 	0         	0.99057 	0.99057 
420	20    	0.99057 	0         	0.99057 	0.99057 
421	20    	0.99057 	0         	0.99057 	0.99057 
422	20    	0.99057 	0         	0.99057 	0.99057 
423	20    	0.99057 	0         	0.99057 	0.99057 
424	20    	0.99057 	0         	0.99057 	0.99057 
425	20    	0.99057 	0         	0.99057 	0.99057 
426	20    	0.99057 	0         	0.99057 	0.99057 
427	20    	0.99057 	0         	0.99057 	0.99057 
428	20    	0.99057 	0         	0.99057 	0.99057 
429	20    	0.99057 	0         	0.99057 	0.99057 
430	20    	0.99057 	0         	0.99057 	0.99057 
431	20    	0.99057 	0         	0.99057 	0.99057 
432	20    	0.99057 	0         	0.99057 	0.99057 
433	20    	0.99057 	0         	0.99057 	0.99057 
434	20    	0.99057 	0         	0.99057 	0.99057 
435	20    	0.99057 	0         	0.99057 	0.99057 
436	20    	0.99057 	0         	0.99057 	0.99057 
437	20    	0.99057 	0         	0.99057 	0.99057 
438	20    	0.99057 	0         	0.99057 	0.99057 
439	20    	0.99057 	0         	0.99057 	0.99057 
440	20    	0.99057 	0         	0.99057 	0.99057 
441	20    	0.99057 	0         	0.99057 	0.99057 
442	20    	0.99057 	0         	0.99057 	0.99057 
443	20    	0.99057 	0         	0.99057 	0.99057 
444	20    	0.99057 	0         	0.99057 	0.99057 
445	20    	0.99057 	0         	0.99057 	0.99057 
446	20    	0.99057 	0         	0.99057 	0.99057 
447	20    	0.99057 	0         	0.99057 	0.99057 
448	20    	0.99057 	0         	0.99057 	0.99057 
449	20    	0.99057 	0         	0.99057 	0.99057 
450	20    	0.99057 	0         	0.99057 	0.99057 
451	20    	0.99057 	0         	0.99057 	0.99057 
452	20    	0.99057 	0         	0.99057 	0.99057 
453	20    	0.99057 	0         	0.99057 	0.99057 
454	20    	0.99057 	0         	0.99057 	0.99057 
455	20    	0.99057 	0         	0.99057 	0.99057 
456	20    	0.99057 	0         	0.99057 	0.99057 
457	20    	0.99057 	0         	0.99057 	0.99057 
458	20    	0.99057 	0         	0.99057 	0.99057 
459	20    	0.99057 	0         	0.99057 	0.99057 
460	20    	0.99057 	0         	0.99057 	0.99057 
461	20    	0.99057 	0         	0.99057 	0.99057 
462	20    	0.99057 	0         	0.99057 	0.99057 
463	20    	0.99057 	0         	0.99057 	0.99057 
464	20    	0.99057 	0         	0.99057 	0.99057 
465	20    	0.99057 	0         	0.99057 	0.99057 
466	20    	0.99057 	0         	0.99057 	0.99057 
467	20    	0.99057 	0         	0.99057 	0.99057 
468	20    	0.99057 	0         	0.99057 	0.99057 
469	20    	0.99057 	0         	0.99057 	0.99057 
470	20    	0.99057 	0         	0.99057 	0.99057 
471	20    	0.99057 	0         	0.99057 	0.99057 
472	20    	0.99057 	0         	0.99057 	0.99057 
473	20    	0.99057 	0         	0.99057 	0.99057 
474	20    	0.99057 	0         	0.99057 	0.99057 
475	20    	0.99057 	0         	0.99057 	0.99057 
476	20    	0.99057 	0         	0.99057 	0.99057 
477	20    	0.99057 	0         	0.99057 	0.99057 
478	20    	0.99057 	0         	0.99057 	0.99057 
479	20    	0.99057 	0         	0.99057 	0.99057 
480	20    	0.99057 	0         	0.99057 	0.99057 
481	20    	0.99057 	0         	0.99057 	0.99057 
482	20    	0.99057 	0         	0.99057 	0.99057 
483	20    	0.99057 	0         	0.99057 	0.99057 
484	20    	0.99057 	0         	0.99057 	0.99057 
485	20    	0.99057 	0         	0.99057 	0.99057 
486	20    	0.99057 	0         	0.99057 	0.99057 
487	20    	0.99057 	0         	0.99057 	0.99057 
488	20    	0.99057 	0         	0.99057 	0.99057 
489	20    	0.99057 	0         	0.99057 	0.99057 
490	20    	0.99057 	0         	0.99057 	0.99057 
491	20    	0.99057 	0         	0.99057 	0.99057 
492	20    	0.99057 	0         	0.99057 	0.99057 
493	20    	0.99057 	0         	0.99057 	0.99057 
494	20    	0.99057 	0         	0.99057 	0.99057 
495	20    	0.99057 	0         	0.99057 	0.99057 
496	20    	0.99057 	0         	0.99057 	0.99057 
497	20    	0.99057 	0         	0.99057 	0.99057 
498	20    	0.99057 	0         	0.99057 	0.99057 
499	20    	0.99057 	0         	0.99057 	0.99057 
