Run:0 Evals:10000 MES:10000.0 MAD:0.0 Failure:1 Best:0.953491 Solution:1
Run:1 Evals:740 MES:740.0 MAD:667.170998328 Failure:0 Best:1.0 Solution:1
Run:2 Evals:355 MES:677.5 MAD:548.562820847 Failure:0 Best:1.0 Solution:1
Run:3 Evals:405 MES:615.0 MAD:429.954643367 Failure:0 Best:1.0 Solution:1
Run:4 Evals:235 MES:510.0 MAD:333.585499164 Failure:0 Best:1.0 Solution:1
Run:5 Evals:615 MES:5307.5 MAD:6957.11091034 Failure:0 Best:1.0 Solution:1
Run:6 Evals:325 MES:615.0 MAD:429.954643367 Failure:0 Best:1.0 Solution:1
Run:7 Evals:10000 MES:5307.5 MAD:6957.11091034 Failure:1 Best:0.906982 Solution:1
Run:8 Evals:10000 MES:10000.0 MAD:0.0 Failure:1 Best:0.951218 Solution:1
Run:9 Evals:290 MES:5307.5 MAD:6957.11091034 Failure:0 Best:1.0 Solution:1
