Run:0 Evals:10000 MES:10000.0 MAD:0.0 FAILURES:25 Best:32.0 Solution:24
Run:1 Evals:10000 MES:10000.0 MAD:0.0 FAILURES:26 Best:36.0 Solution:24
Run:2 Evals:10000 MES:10000.0 MAD:0.0 FAILURES:27 Best:36.0 Solution:24
Run:3 Evals:10000 MES:10000.0 MAD:0.0 FAILURES:28 Best:35.0 Solution:24
Run:4 Evals:10000 MES:10000.0 MAD:0.0 FAILURES:29 Best:37.0 Solution:24
Run:5 Evals:10000 MES:10000.0 MAD:0.0 FAILURES:30 Best:35.0 Solution:24
Run:6 Evals:10000 MES:10000.0 MAD:0.0 FAILURES:31 Best:36.0 Solution:24
Run:7 Evals:10000 MES:10000.0 MAD:0.0 FAILURES:32 Best:36.0 Solution:24
Run:8 Evals:10000 MES:10000.0 MAD:0.0 FAILURES:33 Best:36.0 Solution:24
Run:9 Evals:10000 MES:10000.0 MAD:0.0 FAILURES:34 Best:37.0 Solution:24
Run:10 Evals:10000 MES:10000.0 MAD:0.0 FAILURES:35 Best:36.0 Solution:24
Run:11 Evals:10000 MES:10000.0 MAD:0.0 FAILURES:36 Best:34.0 Solution:24
Run:12 Evals:10000 MES:10000.0 MAD:0.0 FAILURES:37 Best:36.0 Solution:24
Run:13 Evals:10000 MES:10000.0 MAD:0.0 FAILURES:38 Best:36.0 Solution:24
Run:14 Evals:10000 MES:10000.0 MAD:0.0 FAILURES:39 Best:37.0 Solution:24
Run:15 Evals:10000 MES:10000.0 MAD:0.0 FAILURES:40 Best:37.0 Solution:24
Run:16 Evals:10000 MES:10000.0 MAD:0.0 FAILURES:41 Best:36.0 Solution:24
Run:17 Evals:10000 MES:10000.0 MAD:0.0 FAILURES:42 Best:36.0 Solution:24
Run:18 Evals:10000 MES:10000.0 MAD:0.0 FAILURES:43 Best:37.0 Solution:24
Run:19 Evals:10000 MES:10000.0 MAD:0.0 FAILURES:44 Best:36.0 Solution:24
Run:20 Evals:10000 MES:10000.0 MAD:0.0 FAILURES:45 Best:37.0 Solution:24
Run:21 Evals:10000 MES:10000.0 MAD:0.0 FAILURES:46 Best:35.0 Solution:24
Run:22 Evals:10000 MES:10000.0 MAD:0.0 FAILURES:47 Best:36.0 Solution:24
Run:23 Evals:10000 MES:10000.0 MAD:0.0 FAILURES:48 Best:36.0 Solution:24

