Run:0 Evals:10000 MES:10000.0 MAD:0.0 FAILURES:1 Best:21973.0 Solution:24381
Run:1 Evals:10000 MES:10000.0 MAD:0.0 FAILURES:2 Best:22934.0 Solution:24274
Run:2 Evals:10000 MES:10000.0 MAD:0.0 FAILURES:3 Best:21937.0 Solution:23551
Run:3 Evals:10000 MES:10000.0 MAD:0.0 FAILURES:4 Best:20258.0 Solution:23534
Run:4 Evals:10000 MES:10000.0 MAD:0.0 FAILURES:5 Best:22438.0 Solution:23991
Run:5 Evals:10000 MES:10000.0 MAD:0.0 FAILURES:6 Best:21891.0 Solution:24613
Run:6 Evals:10000 MES:10000.0 MAD:0.0 FAILURES:7 Best:21565.0 Solution:25591
Run:7 Evals:10000 MES:10000.0 MAD:0.0 FAILURES:8 Best:20298.0 Solution:23410
Run:8 Evals:10000 MES:10000.0 MAD:0.0 FAILURES:9 Best:21901.0 Solution:24216
Run:9 Evals:10000 MES:10000.0 MAD:0.0 FAILURES:10 Best:22342.0 Solution:24411
Run:10 Evals:10000 MES:10000.0 MAD:0.0 FAILURES:11 Best:40542.0 Solution:42757
Run:11 Evals:10000 MES:10000.0 MAD:0.0 FAILURES:12 Best:38791.0 Solution:42545
Run:12 Evals:10000 MES:10000.0 MAD:0.0 FAILURES:13 Best:39935.0 Solution:41968
Run:13 Evals:10000 MES:10000.0 MAD:0.0 FAILURES:14 Best:42042.0 Solution:45090
Run:14 Evals:10000 MES:10000.0 MAD:0.0 FAILURES:15 Best:40199.0 Solution:42218
Run:15 Evals:10000 MES:10000.0 MAD:0.0 FAILURES:16 Best:40560.0 Solution:42927
Run:16 Evals:10000 MES:10000.0 MAD:0.0 FAILURES:17 Best:39191.0 Solution:42009
Run:17 Evals:10000 MES:10000.0 MAD:0.0 FAILURES:18 Best:42344.0 Solution:45020
Run:18 Evals:10000 MES:10000.0 MAD:0.0 FAILURES:19 Best:41562.0 Solution:43441
Run:19 Evals:10000 MES:10000.0 MAD:0.0 FAILURES:20 Best:42448.0 Solution:44554
Run:20 Evals:10000 MES:10000.0 MAD:0.0 FAILURES:21 Best:58269.0 Solution:59822
Run:21 Evals:10000 MES:10000.0 MAD:0.0 FAILURES:22 Best:60657.0 Solution:62081
Run:22 Evals:10000 MES:10000.0 MAD:0.0 FAILURES:23 Best:57937.0 Solution:59802
Run:23 Evals:10000 MES:10000.0 MAD:0.0 FAILURES:24 Best:58777.0 Solution:60479
Run:24 Evals:10000 MES:10000.0 MAD:0.0 FAILURES:25 Best:58998.0 Solution:61091
Run:25 Evals:10000 MES:10000.0 MAD:0.0 FAILURES:26 Best:57149.0 Solution:58959
Run:26 Evals:10000 MES:10000.0 MAD:0.0 FAILURES:27 Best:59871.0 Solution:61538
Run:27 Evals:10000 MES:10000.0 MAD:0.0 FAILURES:28 Best:58917.0 Solution:61520
Run:28 Evals:10000 MES:10000.0 MAD:0.0 FAILURES:29 Best:57502.0 Solution:59453
Run:29 Evals:10000 MES:10000.0 MAD:0.0 FAILURES:30 Best:58424.0 Solution:59965

