Run:0 Evals:10001 MES:10001.0 MAD:0.0 FAILURES:1 Best:21242.0 Solution:24381
Run:1 Evals:10001 MES:10001.0 MAD:0.0 FAILURES:2 Best:21649.0 Solution:24274
Run:2 Evals:10001 MES:10001.0 MAD:0.0 FAILURES:3 Best:21455.0 Solution:23551
Run:3 Evals:10001 MES:10001.0 MAD:0.0 FAILURES:4 Best:20144.0 Solution:23534
Run:4 Evals:10001 MES:10001.0 MAD:0.0 FAILURES:5 Best:21634.0 Solution:23991
Run:5 Evals:10001 MES:10001.0 MAD:0.0 FAILURES:6 Best:21445.0 Solution:24613
Run:6 Evals:10001 MES:10001.0 MAD:0.0 FAILURES:7 Best:22674.0 Solution:25591
Run:7 Evals:10001 MES:10001.0 MAD:0.0 FAILURES:8 Best:20860.0 Solution:23410
Run:8 Evals:10001 MES:10001.0 MAD:0.0 FAILURES:9 Best:20408.0 Solution:24216
Run:9 Evals:10001 MES:10001.0 MAD:0.0 FAILURES:10 Best:21649.0 Solution:24411
Run:10 Evals:10001 MES:10001.0 MAD:0.0 FAILURES:11 Best:39537.0 Solution:42757
Run:11 Evals:10001 MES:10001.0 MAD:0.0 FAILURES:12 Best:39377.0 Solution:42545
Run:12 Evals:10001 MES:10001.0 MAD:0.0 FAILURES:13 Best:39851.0 Solution:41968
Run:13 Evals:10001 MES:10001.0 MAD:0.0 FAILURES:14 Best:42450.0 Solution:45090
Run:14 Evals:10001 MES:10001.0 MAD:0.0 FAILURES:15 Best:37633.0 Solution:42218
Run:15 Evals:10001 MES:10001.0 MAD:0.0 FAILURES:16 Best:40077.0 Solution:42927
Run:16 Evals:10001 MES:10001.0 MAD:0.0 FAILURES:17 Best:39225.0 Solution:42009
Run:17 Evals:10001 MES:10001.0 MAD:0.0 FAILURES:18 Best:42248.0 Solution:45020
Run:18 Evals:10001 MES:10001.0 MAD:0.0 FAILURES:19 Best:40359.0 Solution:43441
Run:19 Evals:10001 MES:10001.0 MAD:0.0 FAILURES:20 Best:42267.0 Solution:44554
Run:20 Evals:10001 MES:10001.0 MAD:0.0 FAILURES:21 Best:57033.0 Solution:59822
Run:21 Evals:10001 MES:10001.0 MAD:0.0 FAILURES:22 Best:60151.0 Solution:62081
Run:22 Evals:10001 MES:10001.0 MAD:0.0 FAILURES:23 Best:57825.0 Solution:59802
Run:23 Evals:10001 MES:10001.0 MAD:0.0 FAILURES:24 Best:58855.0 Solution:60479
Run:24 Evals:10001 MES:10001.0 MAD:0.0 FAILURES:25 Best:58640.0 Solution:61091
Run:25 Evals:10001 MES:10001.0 MAD:0.0 FAILURES:26 Best:57229.0 Solution:58959
Run:26 Evals:10001 MES:10001.0 MAD:0.0 FAILURES:27 Best:58853.0 Solution:61538
Run:27 Evals:10001 MES:10001.0 MAD:0.0 FAILURES:28 Best:60020.0 Solution:61520
Run:28 Evals:10001 MES:10001.0 MAD:0.0 FAILURES:29 Best:57444.0 Solution:59453
Run:29 Evals:10001 MES:10001.0 MAD:0.0 FAILURES:30 Best:57538.0 Solution:59965

