Run:0 Evals:10065 MES:10065.0 MAD:0.0 FAILURES:1 Best:21795.0 Solution:24381
Run:1 Evals:10095 MES:10080.0 MAD:22.2390332776 FAILURES:2 Best:21287.0 Solution:24274
Run:2 Evals:10039 MES:10065.0 MAD:38.5476576811 FAILURES:3 Best:20565.0 Solution:23551
Run:3 Evals:10011 MES:10052.0 MAD:40.0302598997 FAILURES:4 Best:20806.0 Solution:23534
Run:4 Evals:10091 MES:10065.0 MAD:38.5476576811 FAILURES:5 Best:21226.0 Solution:23991
Run:5 Evals:10019 MES:10052.0 MAD:53.3736798662 FAILURES:6 Best:21399.0 Solution:24613
Run:6 Evals:10185 MES:10065.0 MAD:44.4780665552 FAILURES:7 Best:21842.0 Solution:25591
Run:7 Evals:10051 MES:10058.0 MAD:51.8910776477 FAILURES:8 Best:19659.0 Solution:23410
Run:8 Evals:10071 MES:10065.0 MAD:38.5476576811 FAILURES:9 Best:21646.0 Solution:24216
Run:9 Evals:10135 MES:10068.0 MAD:41.5128621182 FAILURES:10 Best:21389.0 Solution:24411
Run:10 Evals:10019 MES:10065.0 MAD:44.4780665552 FAILURES:11 Best:39402.0 Solution:42757
Run:11 Evals:10085 MES:10068.0 MAD:41.5128621182 FAILURES:12 Best:39637.0 Solution:42545
Run:12 Evals:10121 MES:10071.0 MAD:47.4432709922 FAILURES:13 Best:40069.0 Solution:41968
Run:13 Evals:10009 MES:10068.0 MAD:57.8214865217 FAILURES:14 Best:42502.0 Solution:45090
Run:14 Evals:10071 MES:10071.0 MAD:47.4432709922 FAILURES:15 Best:39704.0 Solution:42218
Run:15 Evals:10155 MES:10071.0 MAD:60.7866909587 FAILURES:16 Best:40157.0 Solution:42927
Run:16 Evals:10011 MES:10071.0 MAD:74.1301109253 FAILURES:17 Best:37808.0 Solution:42009
Run:17 Evals:10041 MES:10068.0 MAD:57.8214865217 FAILURES:18 Best:41932.0 Solution:45020
Run:18 Evals:10079 MES:10071.0 MAD:47.4432709922 FAILURES:19 Best:40205.0 Solution:43441
Run:19 Evals:10023 MES:10068.0 MAD:54.8562820847 FAILURES:20 Best:42185.0 Solution:44554
Run:20 Evals:10055 MES:10065.0 MAD:44.4780665552 FAILURES:21 Best:57711.0 Solution:59822
Run:21 Evals:10107 MES:10068.0 MAD:50.4084754292 FAILURES:22 Best:60072.0 Solution:62081
Run:22 Evals:10027 MES:10065.0 MAD:56.3388843032 FAILURES:23 Best:57422.0 Solution:59802
Run:23 Evals:10061 MES:10063.0 MAD:50.4084754292 FAILURES:24 Best:59044.0 Solution:60479
Run:24 Evals:10029 MES:10061.0 MAD:50.4084754292 FAILURES:25 Best:59360.0 Solution:61091
Run:25 Evals:10091 MES:10063.0 MAD:48.9258732107 FAILURES:26 Best:57077.0 Solution:58959
Run:26 Evals:10005 MES:10061.0 MAD:50.4084754292 FAILURES:27 Best:59267.0 Solution:61538
Run:27 Evals:10029 MES:10058.0 MAD:48.9258732107 FAILURES:28 Best:58820.0 Solution:61520
Run:28 Evals:10137 MES:10061.0 MAD:50.4084754292 FAILURES:29 Best:56429.0 Solution:59453
Run:29 Evals:10141 MES:10063.0 MAD:51.8910776477 FAILURES:30 Best:57813.0 Solution:59965

