Run:139 Evals:10000 MES:10000.0 MAD:0.0 FAILURES:110 Best:0.7175 Solution:1
Run:140 Evals:10000 MES:10000.0 MAD:0.0 FAILURES:111 Best:0.6984126984126984 Solution:1
Run:141 Evals:10000 MES:10000.0 MAD:0.0 FAILURES:112 Best:0.7029478458049887 Solution:1
Run:142 Evals:10000 MES:10000.0 MAD:0.0 FAILURES:113 Best:0.7029478458049887 Solution:1
Run:143 Evals:10000 MES:10000.0 MAD:0.0 FAILURES:114 Best:0.6870748299319728 Solution:1
Run:144 Evals:10000 MES:10000.0 MAD:0.0 FAILURES:115 Best:0.7029478458049887 Solution:1
Run:145 Evals:10000 MES:10000.0 MAD:0.0 FAILURES:116 Best:0.6961451247165533 Solution:1
Run:146 Evals:10000 MES:10000.0 MAD:0.0 FAILURES:117 Best:0.6984126984126984 Solution:1
Run:147 Evals:10000 MES:10000.0 MAD:0.0 FAILURES:118 Best:0.7006802721088435 Solution:1
Run:148 Evals:10000 MES:10000.0 MAD:0.0 FAILURES:119 Best:0.7029478458049887 Solution:1

