gen	nevals	avg     	std	min     	max     
0  	1     	0.798537	0  	0.798537	0.798537
1  	16    	0.798537	0  	0.798537	0.798537
2  	16    	0.798537	0  	0.798537	0.798537
3  	16    	0.802164	0  	0.802164	0.802164
4  	16    	0.802164	0  	0.802164	0.802164
5  	16    	0.802404	0  	0.802404	0.802404
6  	16    	0.802404	0  	0.802404	0.802404
7  	16    	0.802404	0  	0.802404	0.802404
8  	16    	0.802404	0  	0.802404	0.802404
9  	16    	0.802404	0  	0.802404	0.802404
10 	16    	0.802404	0  	0.802404	0.802404
11 	16    	0.802404	0  	0.802404	0.802404
12 	16    	0.814798	0  	0.814798	0.814798
13 	16    	0.820082	0  	0.820082	0.820082
14 	16    	0.820082	0  	0.820082	0.820082
15 	16    	0.820082	0  	0.820082	0.820082
16 	16    	0.820082	0  	0.820082	0.820082
17 	16    	0.820082	0  	0.820082	0.820082
18 	16    	0.820082	0  	0.820082	0.820082
19 	16    	0.820082	0  	0.820082	0.820082
20 	16    	0.820082	0  	0.820082	0.820082
21 	16    	0.825366	0  	0.825366	0.825366
22 	16    	0.825366	0  	0.825366	0.825366
23 	16    	0.825366	0  	0.825366	0.825366
24 	16    	0.833244	0  	0.833244	0.833244
25 	16    	0.833244	0  	0.833244	0.833244
26 	16    	0.833244	0  	0.833244	0.833244
27 	16    	0.833244	0  	0.833244	0.833244
28 	16    	0.833244	0  	0.833244	0.833244
29 	16    	0.833244	0  	0.833244	0.833244
30 	16    	0.833244	0  	0.833244	0.833244
31 	16    	0.833244	0  	0.833244	0.833244
32 	16    	0.833244	0  	0.833244	0.833244
33 	16    	0.833244	0  	0.833244	0.833244
34 	16    	0.833244	0  	0.833244	0.833244
35 	16    	0.833244	0  	0.833244	0.833244
36 	16    	0.833244	0  	0.833244	0.833244
37 	16    	0.833244	0  	0.833244	0.833244
38 	16    	0.833244	0  	0.833244	0.833244
39 	16    	0.833244	0  	0.833244	0.833244
40 	16    	0.833244	0  	0.833244	0.833244
41 	16    	0.836654	0  	0.836654	0.836654
42 	16    	0.836654	0  	0.836654	0.836654
43 	16    	0.838936	0  	0.838936	0.838936
44 	16    	0.838936	0  	0.838936	0.838936
45 	16    	0.838936	0  	0.838936	0.838936
46 	16    	0.843596	0  	0.843596	0.843596
47 	16    	0.843596	0  	0.843596	0.843596
48 	16    	0.843596	0  	0.843596	0.843596
49 	16    	0.843596	0  	0.843596	0.843596
50 	16    	0.843596	0  	0.843596	0.843596
51 	16    	0.843596	0  	0.843596	0.843596
52 	16    	0.843596	0  	0.843596	0.843596
53 	16    	0.849   	0  	0.849   	0.849   
54 	16    	0.849   	0  	0.849   	0.849   
55 	16    	0.849   	0  	0.849   	0.849   
56 	16    	0.849   	0  	0.849   	0.849   
57 	16    	0.849   	0  	0.849   	0.849   
58 	16    	0.849   	0  	0.849   	0.849   
59 	16    	0.849   	0  	0.849   	0.849   
60 	16    	0.853011	0  	0.853011	0.853011
61 	16    	0.853011	0  	0.853011	0.853011
62 	16    	0.860312	0  	0.860312	0.860312
63 	16    	0.860312	0  	0.860312	0.860312
64 	16    	0.863123	0  	0.863123	0.863123
65 	16    	0.864516	0  	0.864516	0.864516
66 	16    	0.864516	0  	0.864516	0.864516
67 	16    	0.864516	0  	0.864516	0.864516
68 	16    	0.864516	0  	0.864516	0.864516
69 	16    	0.864516	0  	0.864516	0.864516
70 	16    	0.864516	0  	0.864516	0.864516
71 	16    	0.864516	0  	0.864516	0.864516
72 	16    	0.867998	0  	0.867998	0.867998
73 	16    	0.867998	0  	0.867998	0.867998
74 	16    	0.867998	0  	0.867998	0.867998
75 	16    	0.867998	0  	0.867998	0.867998
76 	16    	0.867998	0  	0.867998	0.867998
77 	16    	0.867998	0  	0.867998	0.867998
78 	16    	0.869608	0  	0.869608	0.869608
79 	16    	0.869608	0  	0.869608	0.869608
80 	16    	0.869608	0  	0.869608	0.869608
81 	16    	0.869608	0  	0.869608	0.869608
82 	16    	0.869608	0  	0.869608	0.869608
83 	16    	0.869608	0  	0.869608	0.869608
84 	16    	0.873354	0  	0.873354	0.873354
85 	16    	0.873354	0  	0.873354	0.873354
86 	16    	0.873354	0  	0.873354	0.873354
87 	16    	0.873354	0  	0.873354	0.873354
88 	16    	0.873354	0  	0.873354	0.873354
89 	16    	0.874411	0  	0.874411	0.874411
90 	16    	0.875036	0  	0.875036	0.875036
91 	16    	0.875036	0  	0.875036	0.875036
92 	16    	0.87614 	0  	0.87614 	0.87614 
93 	16    	0.87614 	0  	0.87614 	0.87614 
94 	16    	0.87614 	0  	0.87614 	0.87614 
95 	16    	0.87614 	0  	0.87614 	0.87614 
96 	16    	0.87614 	0  	0.87614 	0.87614 
97 	16    	0.882121	0  	0.882121	0.882121
98 	16    	0.882121	0  	0.882121	0.882121
99 	16    	0.882121	0  	0.882121	0.882121
100	16    	0.882121	0  	0.882121	0.882121
101	16    	0.882121	0  	0.882121	0.882121
102	16    	0.883178	0  	0.883178	0.883178
103	16    	0.883178	0  	0.883178	0.883178
104	16    	0.883178	0  	0.883178	0.883178
105	16    	0.883178	0  	0.883178	0.883178
106	16    	0.883178	0  	0.883178	0.883178
107	16    	0.883178	0  	0.883178	0.883178
108	16    	0.883178	0  	0.883178	0.883178
109	16    	0.883178	0  	0.883178	0.883178
110	16    	0.883178	0  	0.883178	0.883178
111	16    	0.883178	0  	0.883178	0.883178
112	16    	0.883178	0  	0.883178	0.883178
113	16    	0.883178	0  	0.883178	0.883178
114	16    	0.899702	0  	0.899702	0.899702
115	16    	0.899702	0  	0.899702	0.899702
116	16    	0.899702	0  	0.899702	0.899702
117	16    	0.899702	0  	0.899702	0.899702
118	16    	0.899702	0  	0.899702	0.899702
119	16    	0.899702	0  	0.899702	0.899702
120	16    	0.899702	0  	0.899702	0.899702
121	16    	0.899702	0  	0.899702	0.899702
122	16    	0.899702	0  	0.899702	0.899702
123	16    	0.899702	0  	0.899702	0.899702
124	16    	0.899702	0  	0.899702	0.899702
125	16    	0.899702	0  	0.899702	0.899702
126	16    	0.899702	0  	0.899702	0.899702
127	16    	0.900063	0  	0.900063	0.900063
128	16    	0.900063	0  	0.900063	0.900063
129	16    	0.900063	0  	0.900063	0.900063
130	16    	0.900063	0  	0.900063	0.900063
131	16    	0.912   	0  	0.912   	0.912   
132	16    	0.912   	0  	0.912   	0.912   
133	16    	0.912   	0  	0.912   	0.912   
134	16    	0.912   	0  	0.912   	0.912   
135	16    	0.912   	0  	0.912   	0.912   
136	16    	0.912   	0  	0.912   	0.912   
137	16    	0.912   	0  	0.912   	0.912   
138	16    	0.912   	0  	0.912   	0.912   
139	16    	0.912   	0  	0.912   	0.912   
140	16    	0.912   	0  	0.912   	0.912   
141	16    	0.912   	0  	0.912   	0.912   
142	16    	0.912   	0  	0.912   	0.912   
143	16    	0.912   	0  	0.912   	0.912   
144	16    	0.912   	0  	0.912   	0.912   
145	16    	0.912   	0  	0.912   	0.912   
146	16    	0.912   	0  	0.912   	0.912   
147	16    	0.912   	0  	0.912   	0.912   
148	16    	0.912   	0  	0.912   	0.912   
149	16    	0.912   	0  	0.912   	0.912   
150	16    	0.912   	0  	0.912   	0.912   
151	16    	0.912   	0  	0.912   	0.912   
152	16    	0.912   	0  	0.912   	0.912   
153	16    	0.912   	0  	0.912   	0.912   
154	16    	0.912   	0  	0.912   	0.912   
155	16    	0.912   	0  	0.912   	0.912   
156	16    	0.912   	0  	0.912   	0.912   
157	16    	0.912   	0  	0.912   	0.912   
158	16    	0.912   	0  	0.912   	0.912   
159	16    	0.912   	0  	0.912   	0.912   
160	16    	0.912   	0  	0.912   	0.912   
161	16    	0.912   	0  	0.912   	0.912   
162	16    	0.912   	0  	0.912   	0.912   
163	16    	0.912   	0  	0.912   	0.912   
164	16    	0.912   	0  	0.912   	0.912   
165	16    	0.912   	0  	0.912   	0.912   
166	16    	0.912   	0  	0.912   	0.912   
167	16    	0.912   	0  	0.912   	0.912   
168	16    	0.912   	0  	0.912   	0.912   
169	16    	0.912   	0  	0.912   	0.912   
170	16    	0.912   	0  	0.912   	0.912   
171	16    	0.912   	0  	0.912   	0.912   
172	16    	0.912   	0  	0.912   	0.912   
173	16    	0.912   	0  	0.912   	0.912   
174	16    	0.912   	0  	0.912   	0.912   
175	16    	0.912   	0  	0.912   	0.912   
176	16    	0.912   	0  	0.912   	0.912   
177	16    	0.912   	0  	0.912   	0.912   
178	16    	0.912   	0  	0.912   	0.912   
179	16    	0.912   	0  	0.912   	0.912   
180	16    	0.912   	0  	0.912   	0.912   
181	16    	0.912   	0  	0.912   	0.912   
182	16    	0.912   	0  	0.912   	0.912   
183	16    	0.912   	0  	0.912   	0.912   
184	16    	0.912   	0  	0.912   	0.912   
185	16    	0.912   	0  	0.912   	0.912   
186	16    	0.912   	0  	0.912   	0.912   
187	16    	0.912   	0  	0.912   	0.912   
188	16    	0.912   	0  	0.912   	0.912   
189	16    	0.912   	0  	0.912   	0.912   
190	16    	0.912   	0  	0.912   	0.912   
191	16    	0.912   	0  	0.912   	0.912   
192	16    	0.912   	0  	0.912   	0.912   
193	16    	0.912   	0  	0.912   	0.912   
194	16    	0.912   	0  	0.912   	0.912   
195	16    	0.912   	0  	0.912   	0.912   
196	16    	0.912   	0  	0.912   	0.912   
197	16    	0.912   	0  	0.912   	0.912   
198	16    	0.912   	0  	0.912   	0.912   
199	16    	0.912   	0  	0.912   	0.912   
200	16    	0.912624	0  	0.912624	0.912624
201	16    	0.912624	0  	0.912624	0.912624
202	16    	0.912624	0  	0.912624	0.912624
203	16    	0.912624	0  	0.912624	0.912624
204	16    	0.912624	0  	0.912624	0.912624
205	16    	0.912624	0  	0.912624	0.912624
206	16    	0.912624	0  	0.912624	0.912624
207	16    	0.912624	0  	0.912624	0.912624
208	16    	0.912624	0  	0.912624	0.912624
209	16    	0.912624	0  	0.912624	0.912624
210	16    	0.912624	0  	0.912624	0.912624
211	16    	0.912624	0  	0.912624	0.912624
212	16    	0.912624	0  	0.912624	0.912624
213	16    	0.912624	0  	0.912624	0.912624
214	16    	0.912624	0  	0.912624	0.912624
215	16    	0.912624	0  	0.912624	0.912624
216	16    	0.912624	0  	0.912624	0.912624
217	16    	0.912624	0  	0.912624	0.912624
218	16    	0.912624	0  	0.912624	0.912624
219	16    	0.912624	0  	0.912624	0.912624
220	16    	0.912624	0  	0.912624	0.912624
221	16    	0.912624	0  	0.912624	0.912624
222	16    	0.912624	0  	0.912624	0.912624
223	16    	0.912624	0  	0.912624	0.912624
224	16    	0.912624	0  	0.912624	0.912624
225	16    	0.912624	0  	0.912624	0.912624
226	16    	0.912624	0  	0.912624	0.912624
227	16    	0.912624	0  	0.912624	0.912624
228	16    	0.912624	0  	0.912624	0.912624
229	16    	0.912624	0  	0.912624	0.912624
230	16    	0.912624	0  	0.912624	0.912624
231	16    	0.912624	0  	0.912624	0.912624
232	16    	0.912624	0  	0.912624	0.912624
233	16    	0.912624	0  	0.912624	0.912624
234	16    	0.912624	0  	0.912624	0.912624
235	16    	0.912624	0  	0.912624	0.912624
236	16    	0.912624	0  	0.912624	0.912624
237	16    	0.912624	0  	0.912624	0.912624
238	16    	0.912624	0  	0.912624	0.912624
239	16    	0.912624	0  	0.912624	0.912624
240	16    	0.912624	0  	0.912624	0.912624
241	16    	0.912624	0  	0.912624	0.912624
242	16    	0.912624	0  	0.912624	0.912624
243	16    	0.912624	0  	0.912624	0.912624
244	16    	0.912624	0  	0.912624	0.912624
245	16    	0.912624	0  	0.912624	0.912624
246	16    	0.912624	0  	0.912624	0.912624
247	16    	0.912624	0  	0.912624	0.912624
248	16    	0.912624	0  	0.912624	0.912624
249	16    	0.912624	0  	0.912624	0.912624
250	16    	0.912624	0  	0.912624	0.912624
251	16    	0.912624	0  	0.912624	0.912624
252	16    	0.912624	0  	0.912624	0.912624
253	16    	0.912624	0  	0.912624	0.912624
254	16    	0.912624	0  	0.912624	0.912624
255	16    	0.912624	0  	0.912624	0.912624
256	16    	0.912624	0  	0.912624	0.912624
257	16    	0.912624	0  	0.912624	0.912624
258	16    	0.912624	0  	0.912624	0.912624
259	16    	0.912624	0  	0.912624	0.912624
260	16    	0.912624	0  	0.912624	0.912624
261	16    	0.912624	0  	0.912624	0.912624
262	16    	0.912624	0  	0.912624	0.912624
263	16    	0.912624	0  	0.912624	0.912624
264	16    	0.912624	0  	0.912624	0.912624
265	16    	0.912624	0  	0.912624	0.912624
266	16    	0.914354	0  	0.914354	0.914354
267	16    	0.914354	0  	0.914354	0.914354
268	16    	0.914354	0  	0.914354	0.914354
269	16    	0.914354	0  	0.914354	0.914354
270	16    	0.914354	0  	0.914354	0.914354
271	16    	0.914354	0  	0.914354	0.914354
272	16    	0.914354	0  	0.914354	0.914354
273	16    	0.914354	0  	0.914354	0.914354
274	16    	0.914354	0  	0.914354	0.914354
275	16    	0.914354	0  	0.914354	0.914354
276	16    	0.914354	0  	0.914354	0.914354
277	16    	0.914354	0  	0.914354	0.914354
278	16    	0.914354	0  	0.914354	0.914354
279	16    	0.914354	0  	0.914354	0.914354
280	16    	0.914354	0  	0.914354	0.914354
281	16    	0.915843	0  	0.915843	0.915843
282	16    	0.915843	0  	0.915843	0.915843
283	16    	0.915843	0  	0.915843	0.915843
284	16    	0.915843	0  	0.915843	0.915843
285	16    	0.915843	0  	0.915843	0.915843
286	16    	0.915843	0  	0.915843	0.915843
287	16    	0.915843	0  	0.915843	0.915843
288	16    	0.915843	0  	0.915843	0.915843
289	16    	0.915843	0  	0.915843	0.915843
290	16    	0.915843	0  	0.915843	0.915843
291	16    	0.915843	0  	0.915843	0.915843
292	16    	0.915843	0  	0.915843	0.915843
293	16    	0.915843	0  	0.915843	0.915843
294	16    	0.915843	0  	0.915843	0.915843
295	16    	0.916563	0  	0.916563	0.916563
296	16    	0.916563	0  	0.916563	0.916563
297	16    	0.916563	0  	0.916563	0.916563
298	16    	0.916563	0  	0.916563	0.916563
299	16    	0.916563	0  	0.916563	0.916563
300	16    	0.916563	0  	0.916563	0.916563
301	16    	0.916563	0  	0.916563	0.916563
302	16    	0.916563	0  	0.916563	0.916563
303	16    	0.916563	0  	0.916563	0.916563
304	16    	0.916563	0  	0.916563	0.916563
305	16    	0.916563	0  	0.916563	0.916563
306	16    	0.916563	0  	0.916563	0.916563
307	16    	0.916563	0  	0.916563	0.916563
308	16    	0.916563	0  	0.916563	0.916563
309	16    	0.916563	0  	0.916563	0.916563
310	16    	0.916563	0  	0.916563	0.916563
311	16    	0.916563	0  	0.916563	0.916563
312	16    	0.916563	0  	0.916563	0.916563
313	16    	0.916563	0  	0.916563	0.916563
314	16    	0.916563	0  	0.916563	0.916563
315	16    	0.916563	0  	0.916563	0.916563
316	16    	0.916563	0  	0.916563	0.916563
317	16    	0.916563	0  	0.916563	0.916563
318	16    	0.916563	0  	0.916563	0.916563
319	16    	0.916563	0  	0.916563	0.916563
320	16    	0.916563	0  	0.916563	0.916563
321	16    	0.916563	0  	0.916563	0.916563
322	16    	0.916563	0  	0.916563	0.916563
323	16    	0.916563	0  	0.916563	0.916563
324	16    	0.916563	0  	0.916563	0.916563
325	16    	0.916563	0  	0.916563	0.916563
326	16    	0.916563	0  	0.916563	0.916563
327	16    	0.916563	0  	0.916563	0.916563
328	16    	0.916563	0  	0.916563	0.916563
329	16    	0.916563	0  	0.916563	0.916563
330	16    	0.916563	0  	0.916563	0.916563
331	16    	0.916563	0  	0.916563	0.916563
332	16    	0.916563	0  	0.916563	0.916563
333	16    	0.916563	0  	0.916563	0.916563
334	16    	0.916563	0  	0.916563	0.916563
335	16    	0.916563	0  	0.916563	0.916563
336	16    	0.916563	0  	0.916563	0.916563
337	16    	0.916563	0  	0.916563	0.916563
338	16    	0.916563	0  	0.916563	0.916563
339	16    	0.916563	0  	0.916563	0.916563
340	16    	0.916563	0  	0.916563	0.916563
341	16    	0.916563	0  	0.916563	0.916563
342	16    	0.917236	0  	0.917236	0.917236
343	16    	0.917236	0  	0.917236	0.917236
344	16    	0.917236	0  	0.917236	0.917236
345	16    	0.917236	0  	0.917236	0.917236
346	16    	0.917236	0  	0.917236	0.917236
347	16    	0.917236	0  	0.917236	0.917236
348	16    	0.917236	0  	0.917236	0.917236
349	16    	0.917236	0  	0.917236	0.917236
350	16    	0.917236	0  	0.917236	0.917236
351	16    	0.917236	0  	0.917236	0.917236
352	16    	0.917236	0  	0.917236	0.917236
353	16    	0.917236	0  	0.917236	0.917236
354	16    	0.917236	0  	0.917236	0.917236
355	16    	0.917236	0  	0.917236	0.917236
356	16    	0.917236	0  	0.917236	0.917236
357	16    	0.917236	0  	0.917236	0.917236
358	16    	0.917236	0  	0.917236	0.917236
359	16    	0.917236	0  	0.917236	0.917236
360	16    	0.917236	0  	0.917236	0.917236
361	16    	0.917236	0  	0.917236	0.917236
362	16    	0.917236	0  	0.917236	0.917236
363	16    	0.917236	0  	0.917236	0.917236
364	16    	0.917236	0  	0.917236	0.917236
365	16    	0.917236	0  	0.917236	0.917236
366	16    	0.917236	0  	0.917236	0.917236
367	16    	0.917236	0  	0.917236	0.917236
368	16    	0.917236	0  	0.917236	0.917236
369	16    	0.917236	0  	0.917236	0.917236
370	16    	0.917236	0  	0.917236	0.917236
371	16    	0.917236	0  	0.917236	0.917236
372	16    	0.917236	0  	0.917236	0.917236
373	16    	0.917236	0  	0.917236	0.917236
374	16    	0.917236	0  	0.917236	0.917236
375	16    	0.917236	0  	0.917236	0.917236
376	16    	0.917236	0  	0.917236	0.917236
377	16    	0.917236	0  	0.917236	0.917236
378	16    	0.917236	0  	0.917236	0.917236
379	16    	0.917236	0  	0.917236	0.917236
380	16    	0.917236	0  	0.917236	0.917236
381	16    	0.917236	0  	0.917236	0.917236
382	16    	0.917236	0  	0.917236	0.917236
383	16    	0.917236	0  	0.917236	0.917236
384	16    	0.917236	0  	0.917236	0.917236
385	16    	0.917236	0  	0.917236	0.917236
386	16    	0.917236	0  	0.917236	0.917236
387	16    	0.917236	0  	0.917236	0.917236
388	16    	0.917236	0  	0.917236	0.917236
389	16    	0.917236	0  	0.917236	0.917236
390	16    	0.917236	0  	0.917236	0.917236
391	16    	0.917236	0  	0.917236	0.917236
392	16    	0.917236	0  	0.917236	0.917236
393	16    	0.917236	0  	0.917236	0.917236
394	16    	0.917236	0  	0.917236	0.917236
395	16    	0.917236	0  	0.917236	0.917236
396	16    	0.917236	0  	0.917236	0.917236
397	16    	0.917236	0  	0.917236	0.917236
398	16    	0.917236	0  	0.917236	0.917236
399	16    	0.917236	0  	0.917236	0.917236
400	16    	0.917236	0  	0.917236	0.917236
401	16    	0.917236	0  	0.917236	0.917236
402	16    	0.917236	0  	0.917236	0.917236
403	16    	0.917236	0  	0.917236	0.917236
404	16    	0.917236	0  	0.917236	0.917236
405	16    	0.917236	0  	0.917236	0.917236
406	16    	0.917236	0  	0.917236	0.917236
407	16    	0.917236	0  	0.917236	0.917236
408	16    	0.917236	0  	0.917236	0.917236
409	16    	0.917236	0  	0.917236	0.917236
410	16    	0.917236	0  	0.917236	0.917236
411	16    	0.917236	0  	0.917236	0.917236
412	16    	0.917236	0  	0.917236	0.917236
413	16    	0.917236	0  	0.917236	0.917236
414	16    	0.917236	0  	0.917236	0.917236
415	16    	0.917236	0  	0.917236	0.917236
416	16    	0.917236	0  	0.917236	0.917236
417	16    	0.917236	0  	0.917236	0.917236
418	16    	0.917236	0  	0.917236	0.917236
419	16    	0.917236	0  	0.917236	0.917236
420	16    	0.917236	0  	0.917236	0.917236
421	16    	0.917236	0  	0.917236	0.917236
422	16    	0.917236	0  	0.917236	0.917236
423	16    	0.917236	0  	0.917236	0.917236
424	16    	0.917236	0  	0.917236	0.917236
425	16    	0.917236	0  	0.917236	0.917236
426	16    	0.917236	0  	0.917236	0.917236
427	16    	0.917236	0  	0.917236	0.917236
428	16    	0.917236	0  	0.917236	0.917236
429	16    	0.917236	0  	0.917236	0.917236
430	16    	0.917236	0  	0.917236	0.917236
431	16    	0.917236	0  	0.917236	0.917236
432	16    	0.917236	0  	0.917236	0.917236
433	16    	0.917236	0  	0.917236	0.917236
434	16    	0.917236	0  	0.917236	0.917236
435	16    	0.917236	0  	0.917236	0.917236
436	16    	0.917236	0  	0.917236	0.917236
437	16    	0.917236	0  	0.917236	0.917236
438	16    	0.917236	0  	0.917236	0.917236
439	16    	0.917236	0  	0.917236	0.917236
440	16    	0.917236	0  	0.917236	0.917236
441	16    	0.917236	0  	0.917236	0.917236
442	16    	0.917236	0  	0.917236	0.917236
443	16    	0.917236	0  	0.917236	0.917236
444	16    	0.917236	0  	0.917236	0.917236
445	16    	0.917236	0  	0.917236	0.917236
446	16    	0.917236	0  	0.917236	0.917236
447	16    	0.917236	0  	0.917236	0.917236
448	16    	0.917236	0  	0.917236	0.917236
449	16    	0.917236	0  	0.917236	0.917236
450	16    	0.917236	0  	0.917236	0.917236
451	16    	0.917236	0  	0.917236	0.917236
452	16    	0.917236	0  	0.917236	0.917236
453	16    	0.917236	0  	0.917236	0.917236
454	16    	0.917236	0  	0.917236	0.917236
455	16    	0.917236	0  	0.917236	0.917236
456	16    	0.917236	0  	0.917236	0.917236
457	16    	0.917236	0  	0.917236	0.917236
458	16    	0.917236	0  	0.917236	0.917236
459	16    	0.917236	0  	0.917236	0.917236
460	16    	0.917236	0  	0.917236	0.917236
461	16    	0.917236	0  	0.917236	0.917236
462	16    	0.917236	0  	0.917236	0.917236
463	16    	0.917236	0  	0.917236	0.917236
464	16    	0.917236	0  	0.917236	0.917236
465	16    	0.917236	0  	0.917236	0.917236
466	16    	0.917236	0  	0.917236	0.917236
467	16    	0.917236	0  	0.917236	0.917236
468	16    	0.917236	0  	0.917236	0.917236
469	16    	0.917236	0  	0.917236	0.917236
470	16    	0.917236	0  	0.917236	0.917236
471	16    	0.917236	0  	0.917236	0.917236
472	16    	0.917236	0  	0.917236	0.917236
473	16    	0.917236	0  	0.917236	0.917236
474	16    	0.917236	0  	0.917236	0.917236
475	16    	0.917236	0  	0.917236	0.917236
476	16    	0.917236	0  	0.917236	0.917236
477	16    	0.917236	0  	0.917236	0.917236
478	16    	0.917236	0  	0.917236	0.917236
479	16    	0.917236	0  	0.917236	0.917236
480	16    	0.917236	0  	0.917236	0.917236
481	16    	0.917236	0  	0.917236	0.917236
482	16    	0.917236	0  	0.917236	0.917236
483	16    	0.917236	0  	0.917236	0.917236
484	16    	0.917236	0  	0.917236	0.917236
485	16    	0.917236	0  	0.917236	0.917236
486	16    	0.917236	0  	0.917236	0.917236
487	16    	0.917236	0  	0.917236	0.917236
488	16    	0.917236	0  	0.917236	0.917236
489	16    	0.917236	0  	0.917236	0.917236
490	16    	0.917236	0  	0.917236	0.917236
491	16    	0.917236	0  	0.917236	0.917236
492	16    	0.917236	0  	0.917236	0.917236
493	16    	0.917236	0  	0.917236	0.917236
494	16    	0.917236	0  	0.917236	0.917236
495	16    	0.917236	0  	0.917236	0.917236
496	16    	0.917236	0  	0.917236	0.917236
497	16    	0.917236	0  	0.917236	0.917236
498	16    	0.917236	0  	0.917236	0.917236
499	16    	0.917236	0  	0.917236	0.917236
500	16    	0.917236	0  	0.917236	0.917236
501	16    	0.917236	0  	0.917236	0.917236
502	16    	0.917236	0  	0.917236	0.917236
503	16    	0.917236	0  	0.917236	0.917236
504	16    	0.917236	0  	0.917236	0.917236
505	16    	0.917236	0  	0.917236	0.917236
506	16    	0.917236	0  	0.917236	0.917236
507	16    	0.917236	0  	0.917236	0.917236
508	16    	0.917236	0  	0.917236	0.917236
509	16    	0.917236	0  	0.917236	0.917236
510	16    	0.917236	0  	0.917236	0.917236
511	16    	0.917236	0  	0.917236	0.917236
512	16    	0.917236	0  	0.917236	0.917236
513	16    	0.917236	0  	0.917236	0.917236
514	16    	0.917236	0  	0.917236	0.917236
515	16    	0.917236	0  	0.917236	0.917236
516	16    	0.917236	0  	0.917236	0.917236
517	16    	0.917236	0  	0.917236	0.917236
518	16    	0.917236	0  	0.917236	0.917236
519	16    	0.917236	0  	0.917236	0.917236
520	16    	0.917236	0  	0.917236	0.917236
521	16    	0.917236	0  	0.917236	0.917236
522	16    	0.917236	0  	0.917236	0.917236
523	16    	0.917236	0  	0.917236	0.917236
524	16    	0.917236	0  	0.917236	0.917236
525	16    	0.917236	0  	0.917236	0.917236
526	16    	0.917236	0  	0.917236	0.917236
527	16    	0.917236	0  	0.917236	0.917236
528	16    	0.917236	0  	0.917236	0.917236
529	16    	0.917236	0  	0.917236	0.917236
530	16    	0.917236	0  	0.917236	0.917236
531	16    	0.917236	0  	0.917236	0.917236
532	16    	0.917236	0  	0.917236	0.917236
533	16    	0.917236	0  	0.917236	0.917236
534	16    	0.917236	0  	0.917236	0.917236
535	16    	0.917236	0  	0.917236	0.917236
536	16    	0.917236	0  	0.917236	0.917236
537	16    	0.917236	0  	0.917236	0.917236
538	16    	0.917236	0  	0.917236	0.917236
539	16    	0.917236	0  	0.917236	0.917236
540	16    	0.917236	0  	0.917236	0.917236
541	16    	0.917236	0  	0.917236	0.917236
542	16    	0.917236	0  	0.917236	0.917236
543	16    	0.917236	0  	0.917236	0.917236
544	16    	0.917236	0  	0.917236	0.917236
545	16    	0.917236	0  	0.917236	0.917236
546	16    	0.917236	0  	0.917236	0.917236
547	16    	0.917236	0  	0.917236	0.917236
548	16    	0.917236	0  	0.917236	0.917236
549	16    	0.917236	0  	0.917236	0.917236
550	16    	0.917236	0  	0.917236	0.917236
551	16    	0.917236	0  	0.917236	0.917236
552	16    	0.917236	0  	0.917236	0.917236
553	16    	0.917236	0  	0.917236	0.917236
554	16    	0.917236	0  	0.917236	0.917236
555	16    	0.917236	0  	0.917236	0.917236
556	16    	0.917236	0  	0.917236	0.917236
557	16    	0.917236	0  	0.917236	0.917236
558	16    	0.917236	0  	0.917236	0.917236
559	16    	0.917236	0  	0.917236	0.917236
560	16    	0.917236	0  	0.917236	0.917236
561	16    	0.917236	0  	0.917236	0.917236
562	16    	0.917236	0  	0.917236	0.917236
563	16    	0.917236	0  	0.917236	0.917236
564	16    	0.917236	0  	0.917236	0.917236
565	16    	0.917236	0  	0.917236	0.917236
566	16    	0.917236	0  	0.917236	0.917236
567	16    	0.917236	0  	0.917236	0.917236
568	16    	0.917236	0  	0.917236	0.917236
569	16    	0.917236	0  	0.917236	0.917236
570	16    	0.917236	0  	0.917236	0.917236
571	16    	0.917236	0  	0.917236	0.917236
572	16    	0.917236	0  	0.917236	0.917236
573	16    	0.917236	0  	0.917236	0.917236
574	16    	0.917236	0  	0.917236	0.917236
575	16    	0.917236	0  	0.917236	0.917236
576	16    	0.917236	0  	0.917236	0.917236
577	16    	0.917236	0  	0.917236	0.917236
578	16    	0.917236	0  	0.917236	0.917236
579	16    	0.917236	0  	0.917236	0.917236
580	16    	0.917236	0  	0.917236	0.917236
581	16    	0.917236	0  	0.917236	0.917236
582	16    	0.917236	0  	0.917236	0.917236
583	16    	0.917236	0  	0.917236	0.917236
584	16    	0.917236	0  	0.917236	0.917236
585	16    	0.917236	0  	0.917236	0.917236
586	16    	0.917236	0  	0.917236	0.917236
587	16    	0.917236	0  	0.917236	0.917236
588	16    	0.917236	0  	0.917236	0.917236
589	16    	0.917236	0  	0.917236	0.917236
590	16    	0.917236	0  	0.917236	0.917236
591	16    	0.917236	0  	0.917236	0.917236
592	16    	0.917236	0  	0.917236	0.917236
593	16    	0.917236	0  	0.917236	0.917236
594	16    	0.917236	0  	0.917236	0.917236
595	16    	0.917236	0  	0.917236	0.917236
596	16    	0.917236	0  	0.917236	0.917236
597	16    	0.917236	0  	0.917236	0.917236
598	16    	0.917236	0  	0.917236	0.917236
599	16    	0.917236	0  	0.917236	0.917236
600	16    	0.917236	0  	0.917236	0.917236
601	16    	0.917236	0  	0.917236	0.917236
602	16    	0.917236	0  	0.917236	0.917236
603	16    	0.917236	0  	0.917236	0.917236
604	16    	0.917236	0  	0.917236	0.917236
605	16    	0.917236	0  	0.917236	0.917236
606	16    	0.917236	0  	0.917236	0.917236
607	16    	0.917236	0  	0.917236	0.917236
608	16    	0.917236	0  	0.917236	0.917236
609	16    	0.917236	0  	0.917236	0.917236
610	16    	0.917236	0  	0.917236	0.917236
611	16    	0.917236	0  	0.917236	0.917236
612	16    	0.917236	0  	0.917236	0.917236
613	16    	0.917236	0  	0.917236	0.917236
614	16    	0.917236	0  	0.917236	0.917236
615	16    	0.917236	0  	0.917236	0.917236
616	16    	0.917236	0  	0.917236	0.917236
617	16    	0.917236	0  	0.917236	0.917236
618	16    	0.917236	0  	0.917236	0.917236
619	16    	0.917236	0  	0.917236	0.917236
620	16    	0.917236	0  	0.917236	0.917236
621	16    	0.917236	0  	0.917236	0.917236
622	16    	0.917236	0  	0.917236	0.917236
623	16    	0.917236	0  	0.917236	0.917236
624	16    	0.917236	0  	0.917236	0.917236
625	16    	0.917236	0  	0.917236	0.917236