gen	nevals	avg     	std	min     	max     
0  	1     	0.817532	0  	0.817532	0.817532
1  	16    	0.817532	0  	0.817532	0.817532
2  	16    	0.817532	0  	0.817532	0.817532
3  	16    	0.817532	0  	0.817532	0.817532
4  	16    	0.817532	0  	0.817532	0.817532
5  	16    	0.818509	0  	0.818509	0.818509
6  	16    	0.821463	0  	0.821463	0.821463
7  	16    	0.821463	0  	0.821463	0.821463
8  	16    	0.823854	0  	0.823854	0.823854
9  	16    	0.827375	0  	0.827375	0.827375
10 	16    	0.827375	0  	0.827375	0.827375
11 	16    	0.827375	0  	0.827375	0.827375
12 	16    	0.829066	0  	0.829066	0.829066
13 	16    	0.829066	0  	0.829066	0.829066
14 	16    	0.829066	0  	0.829066	0.829066
15 	16    	0.829066	0  	0.829066	0.829066
16 	16    	0.832941	0  	0.832941	0.832941
17 	16    	0.832941	0  	0.832941	0.832941
18 	16    	0.832941	0  	0.832941	0.832941
19 	16    	0.83466 	0  	0.83466 	0.83466 
20 	16    	0.83466 	0  	0.83466 	0.83466 
21 	16    	0.83466 	0  	0.83466 	0.83466 
22 	16    	0.83466 	0  	0.83466 	0.83466 
23 	16    	0.8359  	0  	0.8359  	0.8359  
24 	16    	0.835923	0  	0.835923	0.835923
25 	16    	0.839651	0  	0.839651	0.839651
26 	16    	0.839651	0  	0.839651	0.839651
27 	16    	0.839651	0  	0.839651	0.839651
28 	16    	0.839945	0  	0.839945	0.839945
29 	16    	0.84019 	0  	0.84019 	0.84019 
30 	16    	0.84019 	0  	0.84019 	0.84019 
31 	16    	0.843715	0  	0.843715	0.843715
32 	16    	0.843715	0  	0.843715	0.843715
33 	16    	0.843715	0  	0.843715	0.843715
34 	16    	0.843715	0  	0.843715	0.843715
35 	16    	0.843715	0  	0.843715	0.843715
36 	16    	0.843715	0  	0.843715	0.843715
37 	16    	0.843715	0  	0.843715	0.843715
38 	16    	0.843715	0  	0.843715	0.843715
39 	16    	0.843715	0  	0.843715	0.843715
40 	16    	0.843715	0  	0.843715	0.843715
41 	16    	0.843715	0  	0.843715	0.843715
42 	16    	0.843715	0  	0.843715	0.843715
43 	16    	0.844807	0  	0.844807	0.844807
44 	16    	0.845328	0  	0.845328	0.845328
45 	16    	0.850129	0  	0.850129	0.850129
46 	16    	0.850129	0  	0.850129	0.850129
47 	16    	0.850129	0  	0.850129	0.850129
48 	16    	0.850613	0  	0.850613	0.850613
49 	16    	0.850613	0  	0.850613	0.850613
50 	16    	0.850613	0  	0.850613	0.850613
51 	16    	0.850613	0  	0.850613	0.850613
52 	16    	0.851147	0  	0.851147	0.851147
53 	16    	0.851147	0  	0.851147	0.851147
54 	16    	0.852617	0  	0.852617	0.852617
55 	16    	0.852617	0  	0.852617	0.852617
56 	16    	0.852617	0  	0.852617	0.852617
57 	16    	0.852617	0  	0.852617	0.852617
58 	16    	0.852617	0  	0.852617	0.852617
59 	16    	0.853299	0  	0.853299	0.853299
60 	16    	0.853299	0  	0.853299	0.853299
61 	16    	0.853299	0  	0.853299	0.853299
62 	16    	0.853299	0  	0.853299	0.853299
63 	16    	0.85359 	0  	0.85359 	0.85359 
64 	16    	0.85359 	0  	0.85359 	0.85359 
65 	16    	0.85359 	0  	0.85359 	0.85359 
66 	16    	0.85359 	0  	0.85359 	0.85359 
67 	16    	0.85359 	0  	0.85359 	0.85359 
68 	16    	0.85359 	0  	0.85359 	0.85359 
69 	16    	0.85359 	0  	0.85359 	0.85359 
70 	16    	0.85359 	0  	0.85359 	0.85359 
71 	16    	0.85359 	0  	0.85359 	0.85359 
72 	16    	0.85359 	0  	0.85359 	0.85359 
73 	16    	0.857543	0  	0.857543	0.857543
74 	16    	0.857543	0  	0.857543	0.857543
75 	16    	0.857543	0  	0.857543	0.857543
76 	16    	0.857543	0  	0.857543	0.857543
77 	16    	0.857543	0  	0.857543	0.857543
78 	16    	0.857659	0  	0.857659	0.857659
79 	16    	0.857659	0  	0.857659	0.857659
80 	16    	0.857659	0  	0.857659	0.857659
81 	16    	0.857659	0  	0.857659	0.857659
82 	16    	0.857659	0  	0.857659	0.857659
83 	16    	0.857977	0  	0.857977	0.857977
84 	16    	0.859193	0  	0.859193	0.859193
85 	16    	0.863732	0  	0.863732	0.863732
86 	16    	0.863732	0  	0.863732	0.863732
87 	16    	0.863732	0  	0.863732	0.863732
88 	16    	0.863732	0  	0.863732	0.863732
89 	16    	0.863732	0  	0.863732	0.863732
90 	16    	0.863732	0  	0.863732	0.863732
91 	16    	0.863732	0  	0.863732	0.863732
92 	16    	0.863732	0  	0.863732	0.863732
93 	16    	0.863732	0  	0.863732	0.863732
94 	16    	0.863732	0  	0.863732	0.863732
95 	16    	0.863732	0  	0.863732	0.863732
96 	16    	0.863732	0  	0.863732	0.863732
97 	16    	0.864197	0  	0.864197	0.864197
98 	16    	0.864197	0  	0.864197	0.864197
99 	16    	0.864197	0  	0.864197	0.864197
100	16    	0.864197	0  	0.864197	0.864197
101	16    	0.864197	0  	0.864197	0.864197
102	16    	0.864197	0  	0.864197	0.864197
103	16    	0.864197	0  	0.864197	0.864197
104	16    	0.864912	0  	0.864912	0.864912
105	16    	0.864912	0  	0.864912	0.864912
106	16    	0.864912	0  	0.864912	0.864912
107	16    	0.864912	0  	0.864912	0.864912
108	16    	0.864912	0  	0.864912	0.864912
109	16    	0.864912	0  	0.864912	0.864912
110	16    	0.864912	0  	0.864912	0.864912
111	16    	0.864912	0  	0.864912	0.864912
112	16    	0.864912	0  	0.864912	0.864912
113	16    	0.864912	0  	0.864912	0.864912
114	16    	0.864912	0  	0.864912	0.864912
115	16    	0.864912	0  	0.864912	0.864912
116	16    	0.864912	0  	0.864912	0.864912
117	16    	0.864912	0  	0.864912	0.864912
118	16    	0.864912	0  	0.864912	0.864912
119	16    	0.864912	0  	0.864912	0.864912
120	16    	0.864912	0  	0.864912	0.864912
121	16    	0.864912	0  	0.864912	0.864912
122	16    	0.864912	0  	0.864912	0.864912
123	16    	0.864912	0  	0.864912	0.864912
124	16    	0.864912	0  	0.864912	0.864912
125	16    	0.864912	0  	0.864912	0.864912
126	16    	0.866497	0  	0.866497	0.866497
127	16    	0.866497	0  	0.866497	0.866497
128	16    	0.866497	0  	0.866497	0.866497
129	16    	0.866667	0  	0.866667	0.866667
130	16    	0.867414	0  	0.867414	0.867414
131	16    	0.867414	0  	0.867414	0.867414
132	16    	0.867759	0  	0.867759	0.867759
133	16    	0.867759	0  	0.867759	0.867759
134	16    	0.867759	0  	0.867759	0.867759
135	16    	0.867759	0  	0.867759	0.867759
136	16    	0.867759	0  	0.867759	0.867759
137	16    	0.867759	0  	0.867759	0.867759
138	16    	0.867759	0  	0.867759	0.867759
139	16    	0.867759	0  	0.867759	0.867759
140	16    	0.867759	0  	0.867759	0.867759
141	16    	0.867759	0  	0.867759	0.867759
142	16    	0.867796	0  	0.867796	0.867796
143	16    	0.867796	0  	0.867796	0.867796
144	16    	0.867796	0  	0.867796	0.867796
145	16    	0.867796	0  	0.867796	0.867796
146	16    	0.868248	0  	0.868248	0.868248
147	16    	0.868248	0  	0.868248	0.868248
148	16    	0.868248	0  	0.868248	0.868248
149	16    	0.868248	0  	0.868248	0.868248
150	16    	0.868317	0  	0.868317	0.868317
151	16    	0.868317	0  	0.868317	0.868317
152	16    	0.868317	0  	0.868317	0.868317
153	16    	0.871307	0  	0.871307	0.871307
154	16    	0.871307	0  	0.871307	0.871307
155	16    	0.871307	0  	0.871307	0.871307
156	16    	0.871307	0  	0.871307	0.871307
157	16    	0.871307	0  	0.871307	0.871307
158	16    	0.871307	0  	0.871307	0.871307
159	16    	0.871363	0  	0.871363	0.871363
160	16    	0.871363	0  	0.871363	0.871363
161	16    	0.872215	0  	0.872215	0.872215
162	16    	0.872215	0  	0.872215	0.872215
163	16    	0.872215	0  	0.872215	0.872215
164	16    	0.872215	0  	0.872215	0.872215
165	16    	0.872215	0  	0.872215	0.872215
166	16    	0.872215	0  	0.872215	0.872215
167	16    	0.872215	0  	0.872215	0.872215
168	16    	0.872215	0  	0.872215	0.872215
169	16    	0.872215	0  	0.872215	0.872215
170	16    	0.872215	0  	0.872215	0.872215
171	16    	0.872215	0  	0.872215	0.872215
172	16    	0.872215	0  	0.872215	0.872215
173	16    	0.872215	0  	0.872215	0.872215
174	16    	0.872215	0  	0.872215	0.872215
175	16    	0.872215	0  	0.872215	0.872215
176	16    	0.872215	0  	0.872215	0.872215
177	16    	0.872215	0  	0.872215	0.872215
178	16    	0.872215	0  	0.872215	0.872215
179	16    	0.872215	0  	0.872215	0.872215
180	16    	0.872344	0  	0.872344	0.872344
181	16    	0.872344	0  	0.872344	0.872344
182	16    	0.872344	0  	0.872344	0.872344
183	16    	0.872344	0  	0.872344	0.872344
184	16    	0.872718	0  	0.872718	0.872718
185	16    	0.872718	0  	0.872718	0.872718
186	16    	0.872718	0  	0.872718	0.872718
187	16    	0.872718	0  	0.872718	0.872718
188	16    	0.872718	0  	0.872718	0.872718
189	16    	0.873579	0  	0.873579	0.873579
190	16    	0.873579	0  	0.873579	0.873579
191	16    	0.873579	0  	0.873579	0.873579
192	16    	0.874183	0  	0.874183	0.874183
193	16    	0.874183	0  	0.874183	0.874183
194	16    	0.874183	0  	0.874183	0.874183
195	16    	0.877542	0  	0.877542	0.877542
196	16    	0.877542	0  	0.877542	0.877542
197	16    	0.877542	0  	0.877542	0.877542
198	16    	0.877542	0  	0.877542	0.877542
199	16    	0.877542	0  	0.877542	0.877542
200	16    	0.877542	0  	0.877542	0.877542
201	16    	0.877542	0  	0.877542	0.877542
202	16    	0.877542	0  	0.877542	0.877542
203	16    	0.877542	0  	0.877542	0.877542
204	16    	0.877542	0  	0.877542	0.877542
205	16    	0.877542	0  	0.877542	0.877542
206	16    	0.877542	0  	0.877542	0.877542
207	16    	0.877542	0  	0.877542	0.877542
208	16    	0.877542	0  	0.877542	0.877542
209	16    	0.877542	0  	0.877542	0.877542
210	16    	0.877542	0  	0.877542	0.877542
211	16    	0.877542	0  	0.877542	0.877542
212	16    	0.877542	0  	0.877542	0.877542
213	16    	0.877542	0  	0.877542	0.877542
214	16    	0.877542	0  	0.877542	0.877542
215	16    	0.877542	0  	0.877542	0.877542
216	16    	0.877542	0  	0.877542	0.877542
217	16    	0.877542	0  	0.877542	0.877542
218	16    	0.877542	0  	0.877542	0.877542
219	16    	0.877542	0  	0.877542	0.877542
220	16    	0.877542	0  	0.877542	0.877542
221	16    	0.877542	0  	0.877542	0.877542
222	16    	0.877542	0  	0.877542	0.877542
223	16    	0.877542	0  	0.877542	0.877542
224	16    	0.877542	0  	0.877542	0.877542
225	16    	0.877542	0  	0.877542	0.877542
226	16    	0.877542	0  	0.877542	0.877542
227	16    	0.877542	0  	0.877542	0.877542
228	16    	0.877542	0  	0.877542	0.877542
229	16    	0.877542	0  	0.877542	0.877542
230	16    	0.877542	0  	0.877542	0.877542
231	16    	0.877542	0  	0.877542	0.877542
232	16    	0.877542	0  	0.877542	0.877542
233	16    	0.877542	0  	0.877542	0.877542
234	16    	0.877542	0  	0.877542	0.877542
235	16    	0.877542	0  	0.877542	0.877542
236	16    	0.877542	0  	0.877542	0.877542
237	16    	0.877542	0  	0.877542	0.877542
238	16    	0.877542	0  	0.877542	0.877542
239	16    	0.877542	0  	0.877542	0.877542
240	16    	0.877542	0  	0.877542	0.877542
241	16    	0.877542	0  	0.877542	0.877542
242	16    	0.877542	0  	0.877542	0.877542
243	16    	0.877542	0  	0.877542	0.877542
244	16    	0.877542	0  	0.877542	0.877542
245	16    	0.877542	0  	0.877542	0.877542
246	16    	0.877542	0  	0.877542	0.877542
247	16    	0.877542	0  	0.877542	0.877542
248	16    	0.877542	0  	0.877542	0.877542
249	16    	0.877542	0  	0.877542	0.877542
250	16    	0.877749	0  	0.877749	0.877749
251	16    	0.877749	0  	0.877749	0.877749
252	16    	0.877749	0  	0.877749	0.877749
253	16    	0.877749	0  	0.877749	0.877749
254	16    	0.877749	0  	0.877749	0.877749
255	16    	0.877749	0  	0.877749	0.877749
256	16    	0.877749	0  	0.877749	0.877749
257	16    	0.877749	0  	0.877749	0.877749
258	16    	0.877749	0  	0.877749	0.877749
259	16    	0.877749	0  	0.877749	0.877749
260	16    	0.877749	0  	0.877749	0.877749
261	16    	0.879123	0  	0.879123	0.879123
262	16    	0.879123	0  	0.879123	0.879123
263	16    	0.879284	0  	0.879284	0.879284
264	16    	0.879284	0  	0.879284	0.879284
265	16    	0.879427	0  	0.879427	0.879427
266	16    	0.879551	0  	0.879551	0.879551
267	16    	0.879551	0  	0.879551	0.879551
268	16    	0.880293	0  	0.880293	0.880293
269	16    	0.880293	0  	0.880293	0.880293
270	16    	0.88298 	0  	0.88298 	0.88298 
271	16    	0.883546	0  	0.883546	0.883546
272	16    	0.883546	0  	0.883546	0.883546
273	16    	0.883546	0  	0.883546	0.883546
274	16    	0.883546	0  	0.883546	0.883546
275	16    	0.883546	0  	0.883546	0.883546
276	16    	0.883546	0  	0.883546	0.883546
277	16    	0.883546	0  	0.883546	0.883546
278	16    	0.883546	0  	0.883546	0.883546
279	16    	0.883546	0  	0.883546	0.883546
280	16    	0.883546	0  	0.883546	0.883546
281	16    	0.883546	0  	0.883546	0.883546
282	16    	0.883546	0  	0.883546	0.883546
283	16    	0.883546	0  	0.883546	0.883546
284	16    	0.883546	0  	0.883546	0.883546
285	16    	0.883546	0  	0.883546	0.883546
286	16    	0.883546	0  	0.883546	0.883546
287	16    	0.883546	0  	0.883546	0.883546
288	16    	0.883546	0  	0.883546	0.883546
289	16    	0.883546	0  	0.883546	0.883546
290	16    	0.883546	0  	0.883546	0.883546
291	16    	0.883546	0  	0.883546	0.883546
292	16    	0.884343	0  	0.884343	0.884343
293	16    	0.884343	0  	0.884343	0.884343
294	16    	0.884343	0  	0.884343	0.884343
295	16    	0.884343	0  	0.884343	0.884343
296	16    	0.884343	0  	0.884343	0.884343
297	16    	0.884343	0  	0.884343	0.884343
298	16    	0.884343	0  	0.884343	0.884343
299	16    	0.884343	0  	0.884343	0.884343
300	16    	0.884343	0  	0.884343	0.884343
301	16    	0.884343	0  	0.884343	0.884343
302	16    	0.884343	0  	0.884343	0.884343
303	16    	0.884343	0  	0.884343	0.884343
304	16    	0.884343	0  	0.884343	0.884343
305	16    	0.884343	0  	0.884343	0.884343
306	16    	0.884343	0  	0.884343	0.884343
307	16    	0.884343	0  	0.884343	0.884343
308	16    	0.885311	0  	0.885311	0.885311
309	16    	0.885311	0  	0.885311	0.885311
310	16    	0.885311	0  	0.885311	0.885311
311	16    	0.885311	0  	0.885311	0.885311
312	16    	0.885311	0  	0.885311	0.885311
313	16    	0.885311	0  	0.885311	0.885311
314	16    	0.885311	0  	0.885311	0.885311
315	16    	0.885311	0  	0.885311	0.885311
316	16    	0.885311	0  	0.885311	0.885311
317	16    	0.885311	0  	0.885311	0.885311
318	16    	0.885311	0  	0.885311	0.885311
319	16    	0.885311	0  	0.885311	0.885311
320	16    	0.885311	0  	0.885311	0.885311
321	16    	0.885311	0  	0.885311	0.885311
322	16    	0.885311	0  	0.885311	0.885311
323	16    	0.885311	0  	0.885311	0.885311
324	16    	0.885311	0  	0.885311	0.885311
325	16    	0.885311	0  	0.885311	0.885311
326	16    	0.885311	0  	0.885311	0.885311
327	16    	0.885311	0  	0.885311	0.885311
328	16    	0.885311	0  	0.885311	0.885311
329	16    	0.885311	0  	0.885311	0.885311
330	16    	0.885311	0  	0.885311	0.885311
331	16    	0.885311	0  	0.885311	0.885311
332	16    	0.885311	0  	0.885311	0.885311
333	16    	0.885311	0  	0.885311	0.885311
334	16    	0.885311	0  	0.885311	0.885311
335	16    	0.885311	0  	0.885311	0.885311
336	16    	0.885311	0  	0.885311	0.885311
337	16    	0.885311	0  	0.885311	0.885311
338	16    	0.885311	0  	0.885311	0.885311
339	16    	0.885311	0  	0.885311	0.885311
340	16    	0.885311	0  	0.885311	0.885311
341	16    	0.885311	0  	0.885311	0.885311
342	16    	0.885311	0  	0.885311	0.885311
343	16    	0.885311	0  	0.885311	0.885311
344	16    	0.885311	0  	0.885311	0.885311
345	16    	0.885311	0  	0.885311	0.885311
346	16    	0.885311	0  	0.885311	0.885311
347	16    	0.886537	0  	0.886537	0.886537
348	16    	0.886537	0  	0.886537	0.886537
349	16    	0.886537	0  	0.886537	0.886537
350	16    	0.886537	0  	0.886537	0.886537
351	16    	0.886537	0  	0.886537	0.886537
352	16    	0.886537	0  	0.886537	0.886537
353	16    	0.886537	0  	0.886537	0.886537
354	16    	0.886537	0  	0.886537	0.886537
355	16    	0.886537	0  	0.886537	0.886537
356	16    	0.886537	0  	0.886537	0.886537
357	16    	0.886537	0  	0.886537	0.886537
358	16    	0.886537	0  	0.886537	0.886537
359	16    	0.886537	0  	0.886537	0.886537
360	16    	0.886537	0  	0.886537	0.886537
361	16    	0.886537	0  	0.886537	0.886537
362	16    	0.886537	0  	0.886537	0.886537
363	16    	0.886537	0  	0.886537	0.886537
364	16    	0.886537	0  	0.886537	0.886537
365	16    	0.886537	0  	0.886537	0.886537
366	16    	0.886537	0  	0.886537	0.886537
367	16    	0.886537	0  	0.886537	0.886537
368	16    	0.886537	0  	0.886537	0.886537
369	16    	0.886537	0  	0.886537	0.886537
370	16    	0.886537	0  	0.886537	0.886537
371	16    	0.886537	0  	0.886537	0.886537
372	16    	0.886537	0  	0.886537	0.886537
373	16    	0.886537	0  	0.886537	0.886537
374	16    	0.886537	0  	0.886537	0.886537
375	16    	0.886537	0  	0.886537	0.886537
376	16    	0.886537	0  	0.886537	0.886537
377	16    	0.886537	0  	0.886537	0.886537
378	16    	0.886537	0  	0.886537	0.886537
379	16    	0.886537	0  	0.886537	0.886537
380	16    	0.887099	0  	0.887099	0.887099
381	16    	0.887099	0  	0.887099	0.887099
382	16    	0.887099	0  	0.887099	0.887099
383	16    	0.887099	0  	0.887099	0.887099
384	16    	0.887099	0  	0.887099	0.887099
385	16    	0.887099	0  	0.887099	0.887099
386	16    	0.887611	0  	0.887611	0.887611
387	16    	0.887611	0  	0.887611	0.887611
388	16    	0.887611	0  	0.887611	0.887611
389	16    	0.887611	0  	0.887611	0.887611
390	16    	0.887611	0  	0.887611	0.887611
391	16    	0.887611	0  	0.887611	0.887611
392	16    	0.887611	0  	0.887611	0.887611
393	16    	0.887611	0  	0.887611	0.887611
394	16    	0.887611	0  	0.887611	0.887611
395	16    	0.887611	0  	0.887611	0.887611
396	16    	0.887611	0  	0.887611	0.887611
397	16    	0.887611	0  	0.887611	0.887611
398	16    	0.887611	0  	0.887611	0.887611
399	16    	0.887611	0  	0.887611	0.887611
400	16    	0.887611	0  	0.887611	0.887611
401	16    	0.887611	0  	0.887611	0.887611
402	16    	0.887611	0  	0.887611	0.887611
403	16    	0.887611	0  	0.887611	0.887611
404	16    	0.887611	0  	0.887611	0.887611
405	16    	0.887611	0  	0.887611	0.887611
406	16    	0.887611	0  	0.887611	0.887611
407	16    	0.889343	0  	0.889343	0.889343
408	16    	0.889343	0  	0.889343	0.889343
409	16    	0.889343	0  	0.889343	0.889343
410	16    	0.889343	0  	0.889343	0.889343
411	16    	0.889343	0  	0.889343	0.889343
412	16    	0.889343	0  	0.889343	0.889343
413	16    	0.889343	0  	0.889343	0.889343
414	16    	0.889343	0  	0.889343	0.889343
415	16    	0.889343	0  	0.889343	0.889343
416	16    	0.889343	0  	0.889343	0.889343
417	16    	0.889343	0  	0.889343	0.889343
418	16    	0.889343	0  	0.889343	0.889343
419	16    	0.889343	0  	0.889343	0.889343
420	16    	0.889343	0  	0.889343	0.889343
421	16    	0.889343	0  	0.889343	0.889343
422	16    	0.889343	0  	0.889343	0.889343
423	16    	0.889343	0  	0.889343	0.889343
424	16    	0.889343	0  	0.889343	0.889343
425	16    	0.889343	0  	0.889343	0.889343
426	16    	0.889343	0  	0.889343	0.889343
427	16    	0.889343	0  	0.889343	0.889343
428	16    	0.889343	0  	0.889343	0.889343
429	16    	0.889343	0  	0.889343	0.889343
430	16    	0.889343	0  	0.889343	0.889343
431	16    	0.889343	0  	0.889343	0.889343
432	16    	0.889343	0  	0.889343	0.889343
433	16    	0.889343	0  	0.889343	0.889343
434	16    	0.889343	0  	0.889343	0.889343
435	16    	0.889343	0  	0.889343	0.889343
436	16    	0.889343	0  	0.889343	0.889343
437	16    	0.889343	0  	0.889343	0.889343
438	16    	0.889343	0  	0.889343	0.889343
439	16    	0.889343	0  	0.889343	0.889343
440	16    	0.889343	0  	0.889343	0.889343
441	16    	0.889343	0  	0.889343	0.889343
442	16    	0.889343	0  	0.889343	0.889343
443	16    	0.889343	0  	0.889343	0.889343
444	16    	0.889343	0  	0.889343	0.889343
445	16    	0.889343	0  	0.889343	0.889343
446	16    	0.889343	0  	0.889343	0.889343
447	16    	0.889343	0  	0.889343	0.889343
448	16    	0.889343	0  	0.889343	0.889343
449	16    	0.889343	0  	0.889343	0.889343
450	16    	0.889343	0  	0.889343	0.889343
451	16    	0.889343	0  	0.889343	0.889343
452	16    	0.889343	0  	0.889343	0.889343
453	16    	0.889343	0  	0.889343	0.889343
454	16    	0.889343	0  	0.889343	0.889343
455	16    	0.889555	0  	0.889555	0.889555
456	16    	0.889555	0  	0.889555	0.889555
457	16    	0.891113	0  	0.891113	0.891113
458	16    	0.891113	0  	0.891113	0.891113
459	16    	0.891113	0  	0.891113	0.891113
460	16    	0.891113	0  	0.891113	0.891113
461	16    	0.891113	0  	0.891113	0.891113
462	16    	0.891113	0  	0.891113	0.891113
463	16    	0.891113	0  	0.891113	0.891113
464	16    	0.891113	0  	0.891113	0.891113
465	16    	0.891113	0  	0.891113	0.891113
466	16    	0.891113	0  	0.891113	0.891113
467	16    	0.891113	0  	0.891113	0.891113
468	16    	0.891113	0  	0.891113	0.891113
469	16    	0.891113	0  	0.891113	0.891113
470	16    	0.891113	0  	0.891113	0.891113
471	16    	0.891113	0  	0.891113	0.891113
472	16    	0.891113	0  	0.891113	0.891113
473	16    	0.891113	0  	0.891113	0.891113
474	16    	0.891113	0  	0.891113	0.891113
475	16    	0.891113	0  	0.891113	0.891113
476	16    	0.891113	0  	0.891113	0.891113
477	16    	0.891113	0  	0.891113	0.891113
478	16    	0.891113	0  	0.891113	0.891113
479	16    	0.891113	0  	0.891113	0.891113
480	16    	0.891113	0  	0.891113	0.891113
481	16    	0.891113	0  	0.891113	0.891113
482	16    	0.891113	0  	0.891113	0.891113
483	16    	0.891113	0  	0.891113	0.891113
484	16    	0.891113	0  	0.891113	0.891113
485	16    	0.891113	0  	0.891113	0.891113
486	16    	0.891113	0  	0.891113	0.891113
487	16    	0.891113	0  	0.891113	0.891113
488	16    	0.891113	0  	0.891113	0.891113
489	16    	0.891113	0  	0.891113	0.891113
490	16    	0.891113	0  	0.891113	0.891113
491	16    	0.891113	0  	0.891113	0.891113
492	16    	0.891113	0  	0.891113	0.891113
493	16    	0.891113	0  	0.891113	0.891113
494	16    	0.891113	0  	0.891113	0.891113
495	16    	0.891113	0  	0.891113	0.891113
496	16    	0.891113	0  	0.891113	0.891113
497	16    	0.891113	0  	0.891113	0.891113
498	16    	0.891113	0  	0.891113	0.891113
499	16    	0.891113	0  	0.891113	0.891113
500	16    	0.891113	0  	0.891113	0.891113
501	16    	0.891113	0  	0.891113	0.891113
502	16    	0.891113	0  	0.891113	0.891113
503	16    	0.891113	0  	0.891113	0.891113
504	16    	0.891113	0  	0.891113	0.891113
505	16    	0.891113	0  	0.891113	0.891113
506	16    	0.891113	0  	0.891113	0.891113
507	16    	0.891113	0  	0.891113	0.891113
508	16    	0.891113	0  	0.891113	0.891113
509	16    	0.891113	0  	0.891113	0.891113
510	16    	0.891113	0  	0.891113	0.891113
511	16    	0.891113	0  	0.891113	0.891113
512	16    	0.891113	0  	0.891113	0.891113
513	16    	0.891113	0  	0.891113	0.891113
514	16    	0.891113	0  	0.891113	0.891113
515	16    	0.891113	0  	0.891113	0.891113
516	16    	0.891113	0  	0.891113	0.891113
517	16    	0.891113	0  	0.891113	0.891113
518	16    	0.891113	0  	0.891113	0.891113
519	16    	0.891113	0  	0.891113	0.891113
520	16    	0.891113	0  	0.891113	0.891113
521	16    	0.891113	0  	0.891113	0.891113
522	16    	0.891113	0  	0.891113	0.891113
523	16    	0.891633	0  	0.891633	0.891633
524	16    	0.891633	0  	0.891633	0.891633
525	16    	0.891633	0  	0.891633	0.891633
526	16    	0.891633	0  	0.891633	0.891633
527	16    	0.891633	0  	0.891633	0.891633
528	16    	0.891633	0  	0.891633	0.891633
529	16    	0.891633	0  	0.891633	0.891633
530	16    	0.892444	0  	0.892444	0.892444
531	16    	0.892444	0  	0.892444	0.892444
532	16    	0.892444	0  	0.892444	0.892444
533	16    	0.893375	0  	0.893375	0.893375
534	16    	0.893375	0  	0.893375	0.893375
535	16    	0.893375	0  	0.893375	0.893375
536	16    	0.893375	0  	0.893375	0.893375
537	16    	0.893375	0  	0.893375	0.893375
538	16    	0.893375	0  	0.893375	0.893375
539	16    	0.893942	0  	0.893942	0.893942
540	16    	0.893942	0  	0.893942	0.893942
541	16    	0.893942	0  	0.893942	0.893942
542	16    	0.893942	0  	0.893942	0.893942
543	16    	0.893942	0  	0.893942	0.893942
544	16    	0.893942	0  	0.893942	0.893942
545	16    	0.893942	0  	0.893942	0.893942
546	16    	0.893942	0  	0.893942	0.893942
547	16    	0.893942	0  	0.893942	0.893942
548	16    	0.893942	0  	0.893942	0.893942
549	16    	0.894403	0  	0.894403	0.894403
550	16    	0.894403	0  	0.894403	0.894403
551	16    	0.894403	0  	0.894403	0.894403
552	16    	0.894403	0  	0.894403	0.894403
553	16    	0.894403	0  	0.894403	0.894403
554	16    	0.894403	0  	0.894403	0.894403
555	16    	0.894403	0  	0.894403	0.894403
556	16    	0.894403	0  	0.894403	0.894403
557	16    	0.894403	0  	0.894403	0.894403
558	16    	0.894403	0  	0.894403	0.894403
559	16    	0.894403	0  	0.894403	0.894403
560	16    	0.894403	0  	0.894403	0.894403
561	16    	0.894403	0  	0.894403	0.894403
562	16    	0.894403	0  	0.894403	0.894403
563	16    	0.894403	0  	0.894403	0.894403
564	16    	0.894403	0  	0.894403	0.894403
565	16    	0.894403	0  	0.894403	0.894403
566	16    	0.894403	0  	0.894403	0.894403
567	16    	0.894403	0  	0.894403	0.894403
568	16    	0.894403	0  	0.894403	0.894403
569	16    	0.894403	0  	0.894403	0.894403
570	16    	0.894403	0  	0.894403	0.894403
571	16    	0.894403	0  	0.894403	0.894403
572	16    	0.894403	0  	0.894403	0.894403
573	16    	0.894403	0  	0.894403	0.894403
574	16    	0.894403	0  	0.894403	0.894403
575	16    	0.894403	0  	0.894403	0.894403
576	16    	0.894403	0  	0.894403	0.894403
577	16    	0.894403	0  	0.894403	0.894403
578	16    	0.894403	0  	0.894403	0.894403
579	16    	0.894403	0  	0.894403	0.894403
580	16    	0.894403	0  	0.894403	0.894403
581	16    	0.894403	0  	0.894403	0.894403
582	16    	0.894403	0  	0.894403	0.894403
583	16    	0.894403	0  	0.894403	0.894403
584	16    	0.894403	0  	0.894403	0.894403
585	16    	0.894403	0  	0.894403	0.894403
586	16    	0.894403	0  	0.894403	0.894403
587	16    	0.894403	0  	0.894403	0.894403
588	16    	0.894403	0  	0.894403	0.894403
589	16    	0.894403	0  	0.894403	0.894403
590	16    	0.894403	0  	0.894403	0.894403
591	16    	0.894403	0  	0.894403	0.894403
592	16    	0.894403	0  	0.894403	0.894403
593	16    	0.894403	0  	0.894403	0.894403
594	16    	0.894403	0  	0.894403	0.894403
595	16    	0.894403	0  	0.894403	0.894403
596	16    	0.894403	0  	0.894403	0.894403
597	16    	0.894403	0  	0.894403	0.894403
598	16    	0.894403	0  	0.894403	0.894403
599	16    	0.894403	0  	0.894403	0.894403
600	16    	0.894403	0  	0.894403	0.894403
601	16    	0.894403	0  	0.894403	0.894403
602	16    	0.894403	0  	0.894403	0.894403
603	16    	0.894403	0  	0.894403	0.894403
604	16    	0.894403	0  	0.894403	0.894403
605	16    	0.894403	0  	0.894403	0.894403
606	16    	0.894403	0  	0.894403	0.894403
607	16    	0.894403	0  	0.894403	0.894403
608	16    	0.894403	0  	0.894403	0.894403
609	16    	0.894403	0  	0.894403	0.894403
610	16    	0.894463	0  	0.894463	0.894463
611	16    	0.894463	0  	0.894463	0.894463
612	16    	0.894463	0  	0.894463	0.894463
613	16    	0.894463	0  	0.894463	0.894463
614	16    	0.894463	0  	0.894463	0.894463
615	16    	0.894463	0  	0.894463	0.894463
616	16    	0.894463	0  	0.894463	0.894463
617	16    	0.894463	0  	0.894463	0.894463
618	16    	0.894463	0  	0.894463	0.894463
619	16    	0.894463	0  	0.894463	0.894463
620	16    	0.894463	0  	0.894463	0.894463
621	16    	0.894463	0  	0.894463	0.894463
622	16    	0.894463	0  	0.894463	0.894463
623	16    	0.894463	0  	0.894463	0.894463
624	16    	0.894463	0  	0.894463	0.894463
625	16    	0.894463	0  	0.894463	0.894463