gen	nevals	avg     	std	min     	max     
0  	1     	0.68411 	0  	0.68411 	0.68411 
1  	16    	0.697189	0  	0.697189	0.697189
2  	16    	0.697189	0  	0.697189	0.697189
3  	16    	0.713333	0  	0.713333	0.713333
4  	16    	0.713333	0  	0.713333	0.713333
5  	16    	0.713333	0  	0.713333	0.713333
6  	16    	0.713333	0  	0.713333	0.713333
7  	16    	0.713333	0  	0.713333	0.713333
8  	16    	0.725402	0  	0.725402	0.725402
9  	16    	0.725402	0  	0.725402	0.725402
10 	16    	0.727285	0  	0.727285	0.727285
11 	16    	0.727987	0  	0.727987	0.727987
12 	16    	0.727987	0  	0.727987	0.727987
13 	16    	0.727987	0  	0.727987	0.727987
14 	16    	0.727987	0  	0.727987	0.727987
15 	16    	0.727987	0  	0.727987	0.727987
16 	16    	0.727987	0  	0.727987	0.727987
17 	16    	0.727987	0  	0.727987	0.727987
18 	16    	0.727987	0  	0.727987	0.727987
19 	16    	0.727987	0  	0.727987	0.727987
20 	16    	0.727987	0  	0.727987	0.727987
21 	16    	0.728398	0  	0.728398	0.728398
22 	16    	0.728398	0  	0.728398	0.728398
23 	16    	0.728398	0  	0.728398	0.728398
24 	16    	0.728398	0  	0.728398	0.728398
25 	16    	0.730657	0  	0.730657	0.730657
26 	16    	0.730657	0  	0.730657	0.730657
27 	16    	0.730657	0  	0.730657	0.730657
28 	16    	0.730657	0  	0.730657	0.730657
29 	16    	0.730657	0  	0.730657	0.730657
30 	16    	0.730657	0  	0.730657	0.730657
31 	16    	0.730657	0  	0.730657	0.730657
32 	16    	0.730657	0  	0.730657	0.730657
33 	16    	0.730657	0  	0.730657	0.730657
34 	16    	0.730657	0  	0.730657	0.730657
35 	16    	0.730657	0  	0.730657	0.730657
36 	16    	0.730657	0  	0.730657	0.730657
37 	16    	0.733465	0  	0.733465	0.733465
38 	16    	0.744969	0  	0.744969	0.744969
39 	16    	0.744969	0  	0.744969	0.744969
40 	16    	0.744969	0  	0.744969	0.744969
41 	16    	0.744969	0  	0.744969	0.744969
42 	16    	0.756388	0  	0.756388	0.756388
43 	16    	0.756388	0  	0.756388	0.756388
44 	16    	0.756388	0  	0.756388	0.756388
45 	16    	0.756388	0  	0.756388	0.756388
46 	16    	0.756388	0  	0.756388	0.756388
47 	16    	0.757381	0  	0.757381	0.757381
48 	16    	0.757381	0  	0.757381	0.757381
49 	16    	0.757381	0  	0.757381	0.757381
50 	16    	0.757381	0  	0.757381	0.757381
51 	16    	0.757381	0  	0.757381	0.757381
52 	16    	0.762003	0  	0.762003	0.762003
53 	16    	0.762003	0  	0.762003	0.762003
54 	16    	0.766848	0  	0.766848	0.766848
55 	16    	0.779653	0  	0.779653	0.779653
56 	16    	0.779653	0  	0.779653	0.779653
57 	16    	0.779653	0  	0.779653	0.779653
58 	16    	0.779653	0  	0.779653	0.779653
59 	16    	0.779653	0  	0.779653	0.779653
60 	16    	0.779653	0  	0.779653	0.779653
61 	16    	0.779653	0  	0.779653	0.779653
62 	16    	0.779653	0  	0.779653	0.779653
63 	16    	0.779653	0  	0.779653	0.779653
64 	16    	0.779653	0  	0.779653	0.779653
65 	16    	0.779653	0  	0.779653	0.779653
66 	16    	0.779653	0  	0.779653	0.779653
67 	16    	0.779653	0  	0.779653	0.779653
68 	16    	0.779653	0  	0.779653	0.779653
69 	16    	0.779653	0  	0.779653	0.779653
70 	16    	0.779653	0  	0.779653	0.779653
71 	16    	0.779653	0  	0.779653	0.779653
72 	16    	0.779653	0  	0.779653	0.779653
73 	16    	0.779653	0  	0.779653	0.779653
74 	16    	0.779653	0  	0.779653	0.779653
75 	16    	0.779653	0  	0.779653	0.779653
76 	16    	0.779653	0  	0.779653	0.779653
77 	16    	0.779653	0  	0.779653	0.779653
78 	16    	0.779653	0  	0.779653	0.779653
79 	16    	0.779653	0  	0.779653	0.779653
80 	16    	0.779653	0  	0.779653	0.779653
81 	16    	0.779653	0  	0.779653	0.779653
82 	16    	0.779653	0  	0.779653	0.779653
83 	16    	0.779653	0  	0.779653	0.779653
84 	16    	0.779653	0  	0.779653	0.779653
85 	16    	0.779653	0  	0.779653	0.779653
86 	16    	0.779653	0  	0.779653	0.779653
87 	16    	0.779653	0  	0.779653	0.779653
88 	16    	0.779653	0  	0.779653	0.779653
89 	16    	0.779653	0  	0.779653	0.779653
90 	16    	0.779653	0  	0.779653	0.779653
91 	16    	0.779653	0  	0.779653	0.779653
92 	16    	0.779653	0  	0.779653	0.779653
93 	16    	0.779653	0  	0.779653	0.779653
94 	16    	0.779653	0  	0.779653	0.779653
95 	16    	0.780954	0  	0.780954	0.780954
96 	16    	0.780954	0  	0.780954	0.780954
97 	16    	0.780954	0  	0.780954	0.780954
98 	16    	0.780954	0  	0.780954	0.780954
99 	16    	0.780954	0  	0.780954	0.780954
100	16    	0.780954	0  	0.780954	0.780954
101	16    	0.780954	0  	0.780954	0.780954
102	16    	0.780954	0  	0.780954	0.780954
103	16    	0.780954	0  	0.780954	0.780954
104	16    	0.780954	0  	0.780954	0.780954
105	16    	0.784344	0  	0.784344	0.784344
106	16    	0.784344	0  	0.784344	0.784344
107	16    	0.784344	0  	0.784344	0.784344
108	16    	0.784344	0  	0.784344	0.784344
109	16    	0.784344	0  	0.784344	0.784344
110	16    	0.784344	0  	0.784344	0.784344
111	16    	0.784344	0  	0.784344	0.784344
112	16    	0.784344	0  	0.784344	0.784344
113	16    	0.784344	0  	0.784344	0.784344
114	16    	0.784344	0  	0.784344	0.784344
115	16    	0.784344	0  	0.784344	0.784344
116	16    	0.784344	0  	0.784344	0.784344
117	16    	0.784344	0  	0.784344	0.784344
118	16    	0.784344	0  	0.784344	0.784344
119	16    	0.784344	0  	0.784344	0.784344
120	16    	0.784344	0  	0.784344	0.784344
121	16    	0.784344	0  	0.784344	0.784344
122	16    	0.784344	0  	0.784344	0.784344
123	16    	0.784344	0  	0.784344	0.784344
124	16    	0.784344	0  	0.784344	0.784344
125	16    	0.784344	0  	0.784344	0.784344
126	16    	0.784344	0  	0.784344	0.784344
127	16    	0.784344	0  	0.784344	0.784344
128	16    	0.784344	0  	0.784344	0.784344
129	16    	0.784344	0  	0.784344	0.784344
130	16    	0.784344	0  	0.784344	0.784344
131	16    	0.784344	0  	0.784344	0.784344
132	16    	0.784344	0  	0.784344	0.784344
133	16    	0.784344	0  	0.784344	0.784344
134	16    	0.784344	0  	0.784344	0.784344
135	16    	0.784344	0  	0.784344	0.784344
136	16    	0.784344	0  	0.784344	0.784344
137	16    	0.784344	0  	0.784344	0.784344
138	16    	0.784344	0  	0.784344	0.784344
139	16    	0.784344	0  	0.784344	0.784344
140	16    	0.784344	0  	0.784344	0.784344
141	16    	0.784344	0  	0.784344	0.784344
142	16    	0.784344	0  	0.784344	0.784344
143	16    	0.784344	0  	0.784344	0.784344
144	16    	0.784344	0  	0.784344	0.784344
145	16    	0.784344	0  	0.784344	0.784344
146	16    	0.784344	0  	0.784344	0.784344
147	16    	0.784344	0  	0.784344	0.784344
148	16    	0.784344	0  	0.784344	0.784344
149	16    	0.784344	0  	0.784344	0.784344
150	16    	0.784344	0  	0.784344	0.784344
151	16    	0.784344	0  	0.784344	0.784344
152	16    	0.784344	0  	0.784344	0.784344
153	16    	0.784344	0  	0.784344	0.784344
154	16    	0.784344	0  	0.784344	0.784344
155	16    	0.784344	0  	0.784344	0.784344
156	16    	0.784344	0  	0.784344	0.784344
157	16    	0.784344	0  	0.784344	0.784344
158	16    	0.784344	0  	0.784344	0.784344
159	16    	0.784344	0  	0.784344	0.784344
160	16    	0.784344	0  	0.784344	0.784344
161	16    	0.784344	0  	0.784344	0.784344
162	16    	0.784344	0  	0.784344	0.784344
163	16    	0.784344	0  	0.784344	0.784344
164	16    	0.784344	0  	0.784344	0.784344
165	16    	0.788299	0  	0.788299	0.788299
166	16    	0.788299	0  	0.788299	0.788299
167	16    	0.799152	0  	0.799152	0.799152
168	16    	0.799152	0  	0.799152	0.799152
169	16    	0.799152	0  	0.799152	0.799152
170	16    	0.799152	0  	0.799152	0.799152
171	16    	0.799152	0  	0.799152	0.799152
172	16    	0.799152	0  	0.799152	0.799152
173	16    	0.799152	0  	0.799152	0.799152
174	16    	0.799152	0  	0.799152	0.799152
175	16    	0.799152	0  	0.799152	0.799152
176	16    	0.799152	0  	0.799152	0.799152
177	16    	0.799152	0  	0.799152	0.799152
178	16    	0.799152	0  	0.799152	0.799152
179	16    	0.799152	0  	0.799152	0.799152
180	16    	0.799152	0  	0.799152	0.799152
181	16    	0.799152	0  	0.799152	0.799152
182	16    	0.799152	0  	0.799152	0.799152
183	16    	0.799152	0  	0.799152	0.799152
184	16    	0.799152	0  	0.799152	0.799152
185	16    	0.799152	0  	0.799152	0.799152
186	16    	0.799152	0  	0.799152	0.799152
187	16    	0.799152	0  	0.799152	0.799152
188	16    	0.799152	0  	0.799152	0.799152
189	16    	0.799152	0  	0.799152	0.799152
190	16    	0.799152	0  	0.799152	0.799152
191	16    	0.799152	0  	0.799152	0.799152
192	16    	0.799152	0  	0.799152	0.799152
193	16    	0.799152	0  	0.799152	0.799152
194	16    	0.799152	0  	0.799152	0.799152
195	16    	0.799152	0  	0.799152	0.799152
196	16    	0.799152	0  	0.799152	0.799152
197	16    	0.799152	0  	0.799152	0.799152
198	16    	0.799152	0  	0.799152	0.799152
199	16    	0.799152	0  	0.799152	0.799152
200	16    	0.799152	0  	0.799152	0.799152
201	16    	0.799152	0  	0.799152	0.799152
202	16    	0.799152	0  	0.799152	0.799152
203	16    	0.799152	0  	0.799152	0.799152
204	16    	0.799152	0  	0.799152	0.799152
205	16    	0.799152	0  	0.799152	0.799152
206	16    	0.799152	0  	0.799152	0.799152
207	16    	0.799152	0  	0.799152	0.799152
208	16    	0.799152	0  	0.799152	0.799152
209	16    	0.799152	0  	0.799152	0.799152
210	16    	0.799152	0  	0.799152	0.799152
211	16    	0.799152	0  	0.799152	0.799152
212	16    	0.799152	0  	0.799152	0.799152
213	16    	0.799152	0  	0.799152	0.799152
214	16    	0.799152	0  	0.799152	0.799152
215	16    	0.799152	0  	0.799152	0.799152
216	16    	0.799152	0  	0.799152	0.799152
217	16    	0.799152	0  	0.799152	0.799152
218	16    	0.799152	0  	0.799152	0.799152
219	16    	0.799152	0  	0.799152	0.799152
220	16    	0.799152	0  	0.799152	0.799152
221	16    	0.799152	0  	0.799152	0.799152
222	16    	0.799152	0  	0.799152	0.799152
223	16    	0.799152	0  	0.799152	0.799152
224	16    	0.799152	0  	0.799152	0.799152
225	16    	0.799152	0  	0.799152	0.799152
226	16    	0.799152	0  	0.799152	0.799152
227	16    	0.799152	0  	0.799152	0.799152
228	16    	0.799152	0  	0.799152	0.799152
229	16    	0.799152	0  	0.799152	0.799152
230	16    	0.799152	0  	0.799152	0.799152
231	16    	0.799152	0  	0.799152	0.799152
232	16    	0.799152	0  	0.799152	0.799152
233	16    	0.799152	0  	0.799152	0.799152
234	16    	0.799152	0  	0.799152	0.799152
235	16    	0.799152	0  	0.799152	0.799152
236	16    	0.799152	0  	0.799152	0.799152
237	16    	0.799152	0  	0.799152	0.799152
238	16    	0.799152	0  	0.799152	0.799152
239	16    	0.799152	0  	0.799152	0.799152
240	16    	0.799152	0  	0.799152	0.799152
241	16    	0.799152	0  	0.799152	0.799152
242	16    	0.799152	0  	0.799152	0.799152
243	16    	0.799152	0  	0.799152	0.799152
244	16    	0.799152	0  	0.799152	0.799152
245	16    	0.799152	0  	0.799152	0.799152
246	16    	0.799152	0  	0.799152	0.799152
247	16    	0.799152	0  	0.799152	0.799152
248	16    	0.799152	0  	0.799152	0.799152
249	16    	0.799152	0  	0.799152	0.799152
250	16    	0.799152	0  	0.799152	0.799152
251	16    	0.799906	0  	0.799906	0.799906
252	16    	0.799906	0  	0.799906	0.799906
253	16    	0.799906	0  	0.799906	0.799906
254	16    	0.799906	0  	0.799906	0.799906
255	16    	0.799906	0  	0.799906	0.799906
256	16    	0.799906	0  	0.799906	0.799906
257	16    	0.799906	0  	0.799906	0.799906
258	16    	0.799906	0  	0.799906	0.799906
259	16    	0.799906	0  	0.799906	0.799906
260	16    	0.799906	0  	0.799906	0.799906
261	16    	0.799906	0  	0.799906	0.799906
262	16    	0.799906	0  	0.799906	0.799906
263	16    	0.804168	0  	0.804168	0.804168
264	16    	0.804168	0  	0.804168	0.804168
265	16    	0.804168	0  	0.804168	0.804168
266	16    	0.804168	0  	0.804168	0.804168
267	16    	0.804168	0  	0.804168	0.804168
268	16    	0.804168	0  	0.804168	0.804168
269	16    	0.804168	0  	0.804168	0.804168
270	16    	0.804168	0  	0.804168	0.804168
271	16    	0.804168	0  	0.804168	0.804168
272	16    	0.804168	0  	0.804168	0.804168
273	16    	0.804168	0  	0.804168	0.804168
274	16    	0.804168	0  	0.804168	0.804168
275	16    	0.804168	0  	0.804168	0.804168
276	16    	0.804168	0  	0.804168	0.804168
277	16    	0.804168	0  	0.804168	0.804168
278	16    	0.804168	0  	0.804168	0.804168
279	16    	0.804168	0  	0.804168	0.804168
280	16    	0.804168	0  	0.804168	0.804168
281	16    	0.804168	0  	0.804168	0.804168
282	16    	0.804168	0  	0.804168	0.804168
283	16    	0.804168	0  	0.804168	0.804168
284	16    	0.804168	0  	0.804168	0.804168
285	16    	0.804168	0  	0.804168	0.804168
286	16    	0.804322	0  	0.804322	0.804322
287	16    	0.804322	0  	0.804322	0.804322
288	16    	0.804322	0  	0.804322	0.804322
289	16    	0.804322	0  	0.804322	0.804322
290	16    	0.804322	0  	0.804322	0.804322
291	16    	0.804322	0  	0.804322	0.804322
292	16    	0.804322	0  	0.804322	0.804322
293	16    	0.804322	0  	0.804322	0.804322
294	16    	0.804322	0  	0.804322	0.804322
295	16    	0.804322	0  	0.804322	0.804322
296	16    	0.804322	0  	0.804322	0.804322
297	16    	0.804322	0  	0.804322	0.804322
298	16    	0.804322	0  	0.804322	0.804322
299	16    	0.804322	0  	0.804322	0.804322
300	16    	0.804322	0  	0.804322	0.804322
301	16    	0.804322	0  	0.804322	0.804322
302	16    	0.804322	0  	0.804322	0.804322
303	16    	0.804322	0  	0.804322	0.804322
304	16    	0.804322	0  	0.804322	0.804322
305	16    	0.804322	0  	0.804322	0.804322
306	16    	0.804322	0  	0.804322	0.804322
307	16    	0.804322	0  	0.804322	0.804322
308	16    	0.804322	0  	0.804322	0.804322
309	16    	0.804322	0  	0.804322	0.804322
310	16    	0.804322	0  	0.804322	0.804322
311	16    	0.804322	0  	0.804322	0.804322
312	16    	0.804322	0  	0.804322	0.804322
313	16    	0.804322	0  	0.804322	0.804322
314	16    	0.804322	0  	0.804322	0.804322
315	16    	0.804322	0  	0.804322	0.804322
316	16    	0.804322	0  	0.804322	0.804322
317	16    	0.804322	0  	0.804322	0.804322
318	16    	0.804322	0  	0.804322	0.804322
319	16    	0.804322	0  	0.804322	0.804322
320	16    	0.804322	0  	0.804322	0.804322
321	16    	0.804322	0  	0.804322	0.804322
322	16    	0.804322	0  	0.804322	0.804322
323	16    	0.804322	0  	0.804322	0.804322
324	16    	0.804322	0  	0.804322	0.804322
325	16    	0.804322	0  	0.804322	0.804322
326	16    	0.804322	0  	0.804322	0.804322
327	16    	0.804322	0  	0.804322	0.804322
328	16    	0.804322	0  	0.804322	0.804322
329	16    	0.804322	0  	0.804322	0.804322
330	16    	0.804322	0  	0.804322	0.804322
331	16    	0.804322	0  	0.804322	0.804322
332	16    	0.804322	0  	0.804322	0.804322
333	16    	0.804322	0  	0.804322	0.804322
334	16    	0.804322	0  	0.804322	0.804322
335	16    	0.804322	0  	0.804322	0.804322
336	16    	0.804322	0  	0.804322	0.804322
337	16    	0.804322	0  	0.804322	0.804322
338	16    	0.804322	0  	0.804322	0.804322
339	16    	0.804322	0  	0.804322	0.804322
340	16    	0.804322	0  	0.804322	0.804322
341	16    	0.804322	0  	0.804322	0.804322
342	16    	0.80778 	0  	0.80778 	0.80778 
343	16    	0.80778 	0  	0.80778 	0.80778 
344	16    	0.80778 	0  	0.80778 	0.80778 
345	16    	0.80778 	0  	0.80778 	0.80778 
346	16    	0.80778 	0  	0.80778 	0.80778 
347	16    	0.80778 	0  	0.80778 	0.80778 
348	16    	0.80778 	0  	0.80778 	0.80778 
349	16    	0.80778 	0  	0.80778 	0.80778 
350	16    	0.80778 	0  	0.80778 	0.80778 
351	16    	0.80778 	0  	0.80778 	0.80778 
352	16    	0.80778 	0  	0.80778 	0.80778 
353	16    	0.80778 	0  	0.80778 	0.80778 
354	16    	0.80778 	0  	0.80778 	0.80778 
355	16    	0.80778 	0  	0.80778 	0.80778 
356	16    	0.80778 	0  	0.80778 	0.80778 
357	16    	0.80778 	0  	0.80778 	0.80778 
358	16    	0.80778 	0  	0.80778 	0.80778 
359	16    	0.80778 	0  	0.80778 	0.80778 
360	16    	0.80778 	0  	0.80778 	0.80778 
361	16    	0.80778 	0  	0.80778 	0.80778 
362	16    	0.80778 	0  	0.80778 	0.80778 
363	16    	0.80778 	0  	0.80778 	0.80778 
364	16    	0.811649	0  	0.811649	0.811649
365	16    	0.811649	0  	0.811649	0.811649
366	16    	0.811649	0  	0.811649	0.811649
367	16    	0.811649	0  	0.811649	0.811649
368	16    	0.811649	0  	0.811649	0.811649
369	16    	0.811649	0  	0.811649	0.811649
370	16    	0.811649	0  	0.811649	0.811649
371	16    	0.811649	0  	0.811649	0.811649
372	16    	0.811649	0  	0.811649	0.811649
373	16    	0.811649	0  	0.811649	0.811649
374	16    	0.811649	0  	0.811649	0.811649
375	16    	0.811649	0  	0.811649	0.811649
376	16    	0.811649	0  	0.811649	0.811649
377	16    	0.811649	0  	0.811649	0.811649
378	16    	0.811649	0  	0.811649	0.811649
379	16    	0.811649	0  	0.811649	0.811649
380	16    	0.811649	0  	0.811649	0.811649
381	16    	0.811649	0  	0.811649	0.811649
382	16    	0.811649	0  	0.811649	0.811649
383	16    	0.811649	0  	0.811649	0.811649
384	16    	0.811649	0  	0.811649	0.811649
385	16    	0.811649	0  	0.811649	0.811649
386	16    	0.811649	0  	0.811649	0.811649
387	16    	0.811649	0  	0.811649	0.811649
388	16    	0.811649	0  	0.811649	0.811649
389	16    	0.811649	0  	0.811649	0.811649
390	16    	0.811649	0  	0.811649	0.811649
391	16    	0.811649	0  	0.811649	0.811649
392	16    	0.811649	0  	0.811649	0.811649
393	16    	0.811649	0  	0.811649	0.811649
394	16    	0.811649	0  	0.811649	0.811649
395	16    	0.811649	0  	0.811649	0.811649
396	16    	0.811649	0  	0.811649	0.811649
397	16    	0.811649	0  	0.811649	0.811649
398	16    	0.811649	0  	0.811649	0.811649
399	16    	0.811649	0  	0.811649	0.811649
400	16    	0.811649	0  	0.811649	0.811649
401	16    	0.811649	0  	0.811649	0.811649
402	16    	0.811649	0  	0.811649	0.811649
403	16    	0.811649	0  	0.811649	0.811649
404	16    	0.811649	0  	0.811649	0.811649
405	16    	0.811649	0  	0.811649	0.811649
406	16    	0.811649	0  	0.811649	0.811649
407	16    	0.811649	0  	0.811649	0.811649
408	16    	0.811649	0  	0.811649	0.811649
409	16    	0.811649	0  	0.811649	0.811649
410	16    	0.811649	0  	0.811649	0.811649
411	16    	0.811649	0  	0.811649	0.811649
412	16    	0.811649	0  	0.811649	0.811649
413	16    	0.811649	0  	0.811649	0.811649
414	16    	0.811649	0  	0.811649	0.811649
415	16    	0.811649	0  	0.811649	0.811649
416	16    	0.811649	0  	0.811649	0.811649
417	16    	0.811649	0  	0.811649	0.811649
418	16    	0.811649	0  	0.811649	0.811649
419	16    	0.811649	0  	0.811649	0.811649
420	16    	0.811649	0  	0.811649	0.811649
421	16    	0.813738	0  	0.813738	0.813738
422	16    	0.813738	0  	0.813738	0.813738
423	16    	0.813738	0  	0.813738	0.813738
424	16    	0.813738	0  	0.813738	0.813738
425	16    	0.813738	0  	0.813738	0.813738
426	16    	0.814234	0  	0.814234	0.814234
427	16    	0.814234	0  	0.814234	0.814234
428	16    	0.814234	0  	0.814234	0.814234
429	16    	0.814234	0  	0.814234	0.814234
430	16    	0.814234	0  	0.814234	0.814234
431	16    	0.814234	0  	0.814234	0.814234
432	16    	0.814234	0  	0.814234	0.814234
433	16    	0.814234	0  	0.814234	0.814234
434	16    	0.814234	0  	0.814234	0.814234
435	16    	0.814234	0  	0.814234	0.814234
436	16    	0.814234	0  	0.814234	0.814234
437	16    	0.814234	0  	0.814234	0.814234
438	16    	0.820192	0  	0.820192	0.820192
439	16    	0.820192	0  	0.820192	0.820192
440	16    	0.820192	0  	0.820192	0.820192
441	16    	0.820192	0  	0.820192	0.820192
442	16    	0.820192	0  	0.820192	0.820192
443	16    	0.820192	0  	0.820192	0.820192
444	16    	0.820192	0  	0.820192	0.820192
445	16    	0.820192	0  	0.820192	0.820192
446	16    	0.820192	0  	0.820192	0.820192
447	16    	0.820192	0  	0.820192	0.820192
448	16    	0.820192	0  	0.820192	0.820192
449	16    	0.820192	0  	0.820192	0.820192
450	16    	0.820192	0  	0.820192	0.820192
451	16    	0.821579	0  	0.821579	0.821579
452	16    	0.829351	0  	0.829351	0.829351
453	16    	0.829351	0  	0.829351	0.829351
454	16    	0.829351	0  	0.829351	0.829351
455	16    	0.829693	0  	0.829693	0.829693
456	16    	0.829693	0  	0.829693	0.829693
457	16    	0.829693	0  	0.829693	0.829693
458	16    	0.829693	0  	0.829693	0.829693
459	16    	0.829693	0  	0.829693	0.829693
460	16    	0.829693	0  	0.829693	0.829693
461	16    	0.829693	0  	0.829693	0.829693
462	16    	0.829693	0  	0.829693	0.829693
463	16    	0.829693	0  	0.829693	0.829693
464	16    	0.829693	0  	0.829693	0.829693
465	16    	0.829693	0  	0.829693	0.829693
466	16    	0.829693	0  	0.829693	0.829693
467	16    	0.829693	0  	0.829693	0.829693
468	16    	0.829693	0  	0.829693	0.829693
469	16    	0.829693	0  	0.829693	0.829693
470	16    	0.829693	0  	0.829693	0.829693
471	16    	0.829693	0  	0.829693	0.829693
472	16    	0.829693	0  	0.829693	0.829693
473	16    	0.829693	0  	0.829693	0.829693
474	16    	0.829693	0  	0.829693	0.829693
475	16    	0.829693	0  	0.829693	0.829693
476	16    	0.829693	0  	0.829693	0.829693
477	16    	0.829693	0  	0.829693	0.829693
478	16    	0.829693	0  	0.829693	0.829693
479	16    	0.829693	0  	0.829693	0.829693
480	16    	0.829693	0  	0.829693	0.829693
481	16    	0.829693	0  	0.829693	0.829693
482	16    	0.829693	0  	0.829693	0.829693
483	16    	0.829693	0  	0.829693	0.829693
484	16    	0.829693	0  	0.829693	0.829693
485	16    	0.829693	0  	0.829693	0.829693
486	16    	0.829693	0  	0.829693	0.829693
487	16    	0.829693	0  	0.829693	0.829693
488	16    	0.829693	0  	0.829693	0.829693
489	16    	0.829693	0  	0.829693	0.829693
490	16    	0.829693	0  	0.829693	0.829693
491	16    	0.829693	0  	0.829693	0.829693
492	16    	0.829693	0  	0.829693	0.829693
493	16    	0.829693	0  	0.829693	0.829693
494	16    	0.829693	0  	0.829693	0.829693
495	16    	0.829693	0  	0.829693	0.829693
496	16    	0.829693	0  	0.829693	0.829693
497	16    	0.829693	0  	0.829693	0.829693
498	16    	0.829693	0  	0.829693	0.829693
499	16    	0.829693	0  	0.829693	0.829693
500	16    	0.829693	0  	0.829693	0.829693
501	16    	0.829693	0  	0.829693	0.829693
502	16    	0.829693	0  	0.829693	0.829693
503	16    	0.829693	0  	0.829693	0.829693
504	16    	0.829693	0  	0.829693	0.829693
505	16    	0.829693	0  	0.829693	0.829693
506	16    	0.829693	0  	0.829693	0.829693
507	16    	0.829693	0  	0.829693	0.829693
508	16    	0.829693	0  	0.829693	0.829693
509	16    	0.829693	0  	0.829693	0.829693
510	16    	0.829693	0  	0.829693	0.829693
511	16    	0.829693	0  	0.829693	0.829693
512	16    	0.829693	0  	0.829693	0.829693
513	16    	0.829693	0  	0.829693	0.829693
514	16    	0.829693	0  	0.829693	0.829693
515	16    	0.829693	0  	0.829693	0.829693
516	16    	0.829693	0  	0.829693	0.829693
517	16    	0.829693	0  	0.829693	0.829693
518	16    	0.829693	0  	0.829693	0.829693
519	16    	0.829693	0  	0.829693	0.829693
520	16    	0.829693	0  	0.829693	0.829693
521	16    	0.829693	0  	0.829693	0.829693
522	16    	0.829693	0  	0.829693	0.829693
523	16    	0.829693	0  	0.829693	0.829693
524	16    	0.829693	0  	0.829693	0.829693
525	16    	0.829693	0  	0.829693	0.829693
526	16    	0.829693	0  	0.829693	0.829693
527	16    	0.829693	0  	0.829693	0.829693
528	16    	0.829693	0  	0.829693	0.829693
529	16    	0.829693	0  	0.829693	0.829693
530	16    	0.829693	0  	0.829693	0.829693
531	16    	0.829693	0  	0.829693	0.829693
532	16    	0.829693	0  	0.829693	0.829693
533	16    	0.829693	0  	0.829693	0.829693
534	16    	0.829693	0  	0.829693	0.829693
535	16    	0.829693	0  	0.829693	0.829693
536	16    	0.829693	0  	0.829693	0.829693
537	16    	0.829813	0  	0.829813	0.829813
538	16    	0.829813	0  	0.829813	0.829813
539	16    	0.829813	0  	0.829813	0.829813
540	16    	0.829813	0  	0.829813	0.829813
541	16    	0.829813	0  	0.829813	0.829813
542	16    	0.829813	0  	0.829813	0.829813
543	16    	0.835137	0  	0.835137	0.835137
544	16    	0.835137	0  	0.835137	0.835137
545	16    	0.835137	0  	0.835137	0.835137
546	16    	0.835137	0  	0.835137	0.835137
547	16    	0.835137	0  	0.835137	0.835137
548	16    	0.835137	0  	0.835137	0.835137
549	16    	0.835137	0  	0.835137	0.835137
550	16    	0.835137	0  	0.835137	0.835137
551	16    	0.835137	0  	0.835137	0.835137
552	16    	0.835137	0  	0.835137	0.835137
553	16    	0.835137	0  	0.835137	0.835137
554	16    	0.835137	0  	0.835137	0.835137
555	16    	0.835137	0  	0.835137	0.835137
556	16    	0.835137	0  	0.835137	0.835137
557	16    	0.835137	0  	0.835137	0.835137
558	16    	0.835137	0  	0.835137	0.835137
559	16    	0.835137	0  	0.835137	0.835137
560	16    	0.835137	0  	0.835137	0.835137
561	16    	0.835137	0  	0.835137	0.835137
562	16    	0.835137	0  	0.835137	0.835137
563	16    	0.835137	0  	0.835137	0.835137
564	16    	0.835137	0  	0.835137	0.835137
565	16    	0.835137	0  	0.835137	0.835137
566	16    	0.835137	0  	0.835137	0.835137
567	16    	0.835137	0  	0.835137	0.835137
568	16    	0.835137	0  	0.835137	0.835137
569	16    	0.835137	0  	0.835137	0.835137
570	16    	0.835137	0  	0.835137	0.835137
571	16    	0.835137	0  	0.835137	0.835137
572	16    	0.835137	0  	0.835137	0.835137
573	16    	0.835137	0  	0.835137	0.835137
574	16    	0.835137	0  	0.835137	0.835137
575	16    	0.835137	0  	0.835137	0.835137
576	16    	0.835137	0  	0.835137	0.835137
577	16    	0.835137	0  	0.835137	0.835137
578	16    	0.835137	0  	0.835137	0.835137
579	16    	0.835137	0  	0.835137	0.835137
580	16    	0.835137	0  	0.835137	0.835137
581	16    	0.835137	0  	0.835137	0.835137
582	16    	0.835137	0  	0.835137	0.835137
583	16    	0.835137	0  	0.835137	0.835137
584	16    	0.835137	0  	0.835137	0.835137
585	16    	0.835137	0  	0.835137	0.835137
586	16    	0.835137	0  	0.835137	0.835137
587	16    	0.835137	0  	0.835137	0.835137
588	16    	0.835137	0  	0.835137	0.835137
589	16    	0.835137	0  	0.835137	0.835137
590	16    	0.835137	0  	0.835137	0.835137
591	16    	0.835137	0  	0.835137	0.835137
592	16    	0.835137	0  	0.835137	0.835137
593	16    	0.835137	0  	0.835137	0.835137
594	16    	0.835137	0  	0.835137	0.835137
595	16    	0.835137	0  	0.835137	0.835137
596	16    	0.835137	0  	0.835137	0.835137
597	16    	0.835137	0  	0.835137	0.835137
598	16    	0.835137	0  	0.835137	0.835137
599	16    	0.835137	0  	0.835137	0.835137
600	16    	0.835137	0  	0.835137	0.835137
601	16    	0.835137	0  	0.835137	0.835137
602	16    	0.835137	0  	0.835137	0.835137
603	16    	0.835137	0  	0.835137	0.835137
604	16    	0.835137	0  	0.835137	0.835137
605	16    	0.835137	0  	0.835137	0.835137
606	16    	0.835137	0  	0.835137	0.835137
607	16    	0.835137	0  	0.835137	0.835137
608	16    	0.835137	0  	0.835137	0.835137
609	16    	0.835137	0  	0.835137	0.835137
610	16    	0.835137	0  	0.835137	0.835137
611	16    	0.835137	0  	0.835137	0.835137
612	16    	0.835137	0  	0.835137	0.835137
613	16    	0.835137	0  	0.835137	0.835137
614	16    	0.835137	0  	0.835137	0.835137
615	16    	0.835137	0  	0.835137	0.835137
616	16    	0.835137	0  	0.835137	0.835137
617	16    	0.835137	0  	0.835137	0.835137
618	16    	0.835137	0  	0.835137	0.835137
619	16    	0.835137	0  	0.835137	0.835137
620	16    	0.835137	0  	0.835137	0.835137
621	16    	0.835137	0  	0.835137	0.835137
622	16    	0.835137	0  	0.835137	0.835137
623	16    	0.835137	0  	0.835137	0.835137
624	16    	0.835137	0  	0.835137	0.835137
625	16    	0.835137	0  	0.835137	0.835137