gen	nevals	avg     	std	min     	max     
0  	1     	0.782565	0  	0.782565	0.782565
1  	16    	0.782565	0  	0.782565	0.782565
2  	16    	0.782565	0  	0.782565	0.782565
3  	16    	0.782565	0  	0.782565	0.782565
4  	16    	0.787587	0  	0.787587	0.787587
5  	16    	0.787793	0  	0.787793	0.787793
6  	16    	0.795818	0  	0.795818	0.795818
7  	16    	0.800756	0  	0.800756	0.800756
8  	16    	0.805507	0  	0.805507	0.805507
9  	16    	0.805507	0  	0.805507	0.805507
10 	16    	0.805507	0  	0.805507	0.805507
11 	16    	0.812708	0  	0.812708	0.812708
12 	16    	0.816141	0  	0.816141	0.816141
13 	16    	0.816141	0  	0.816141	0.816141
14 	16    	0.817469	0  	0.817469	0.817469
15 	16    	0.817516	0  	0.817516	0.817516
16 	16    	0.825381	0  	0.825381	0.825381
17 	16    	0.825381	0  	0.825381	0.825381
18 	16    	0.825381	0  	0.825381	0.825381
19 	16    	0.825381	0  	0.825381	0.825381
20 	16    	0.825381	0  	0.825381	0.825381
21 	16    	0.827729	0  	0.827729	0.827729
22 	16    	0.827729	0  	0.827729	0.827729
23 	16    	0.827729	0  	0.827729	0.827729
24 	16    	0.827729	0  	0.827729	0.827729
25 	16    	0.82915 	0  	0.82915 	0.82915 
26 	16    	0.83016 	0  	0.83016 	0.83016 
27 	16    	0.832442	0  	0.832442	0.832442
28 	16    	0.832442	0  	0.832442	0.832442
29 	16    	0.832442	0  	0.832442	0.832442
30 	16    	0.832442	0  	0.832442	0.832442
31 	16    	0.832442	0  	0.832442	0.832442
32 	16    	0.838334	0  	0.838334	0.838334
33 	16    	0.838334	0  	0.838334	0.838334
34 	16    	0.838334	0  	0.838334	0.838334
35 	16    	0.838334	0  	0.838334	0.838334
36 	16    	0.838334	0  	0.838334	0.838334
37 	16    	0.838334	0  	0.838334	0.838334
38 	16    	0.842964	0  	0.842964	0.842964
39 	16    	0.844058	0  	0.844058	0.844058
40 	16    	0.844058	0  	0.844058	0.844058
41 	16    	0.844058	0  	0.844058	0.844058
42 	16    	0.844058	0  	0.844058	0.844058
43 	16    	0.844058	0  	0.844058	0.844058
44 	16    	0.844058	0  	0.844058	0.844058
45 	16    	0.844947	0  	0.844947	0.844947
46 	16    	0.844947	0  	0.844947	0.844947
47 	16    	0.85429 	0  	0.85429 	0.85429 
48 	16    	0.85429 	0  	0.85429 	0.85429 
49 	16    	0.85429 	0  	0.85429 	0.85429 
50 	16    	0.85429 	0  	0.85429 	0.85429 
51 	16    	0.85429 	0  	0.85429 	0.85429 
52 	16    	0.85429 	0  	0.85429 	0.85429 
53 	16    	0.857601	0  	0.857601	0.857601
54 	16    	0.857601	0  	0.857601	0.857601
55 	16    	0.857601	0  	0.857601	0.857601
56 	16    	0.857601	0  	0.857601	0.857601
57 	16    	0.857601	0  	0.857601	0.857601
58 	16    	0.857601	0  	0.857601	0.857601
59 	16    	0.857601	0  	0.857601	0.857601
60 	16    	0.857601	0  	0.857601	0.857601
61 	16    	0.857601	0  	0.857601	0.857601
62 	16    	0.857601	0  	0.857601	0.857601
63 	16    	0.857601	0  	0.857601	0.857601
64 	16    	0.857601	0  	0.857601	0.857601
65 	16    	0.857601	0  	0.857601	0.857601
66 	16    	0.857601	0  	0.857601	0.857601
67 	16    	0.857601	0  	0.857601	0.857601
68 	16    	0.857601	0  	0.857601	0.857601
69 	16    	0.857601	0  	0.857601	0.857601
70 	16    	0.857601	0  	0.857601	0.857601
71 	16    	0.857601	0  	0.857601	0.857601
72 	16    	0.857601	0  	0.857601	0.857601
73 	16    	0.857601	0  	0.857601	0.857601
74 	16    	0.857601	0  	0.857601	0.857601
75 	16    	0.857601	0  	0.857601	0.857601
76 	16    	0.857601	0  	0.857601	0.857601
77 	16    	0.857601	0  	0.857601	0.857601
78 	16    	0.857601	0  	0.857601	0.857601
79 	16    	0.857601	0  	0.857601	0.857601
80 	16    	0.857601	0  	0.857601	0.857601
81 	16    	0.857601	0  	0.857601	0.857601
82 	16    	0.857601	0  	0.857601	0.857601
83 	16    	0.857601	0  	0.857601	0.857601
84 	16    	0.857601	0  	0.857601	0.857601
85 	16    	0.857601	0  	0.857601	0.857601
86 	16    	0.857601	0  	0.857601	0.857601
87 	16    	0.857601	0  	0.857601	0.857601
88 	16    	0.857601	0  	0.857601	0.857601
89 	16    	0.857601	0  	0.857601	0.857601
90 	16    	0.857601	0  	0.857601	0.857601
91 	16    	0.863203	0  	0.863203	0.863203
92 	16    	0.863203	0  	0.863203	0.863203
93 	16    	0.863203	0  	0.863203	0.863203
94 	16    	0.863203	0  	0.863203	0.863203
95 	16    	0.863203	0  	0.863203	0.863203
96 	16    	0.863203	0  	0.863203	0.863203
97 	16    	0.863203	0  	0.863203	0.863203
98 	16    	0.863203	0  	0.863203	0.863203
99 	16    	0.863203	0  	0.863203	0.863203
100	16    	0.863203	0  	0.863203	0.863203
101	16    	0.863203	0  	0.863203	0.863203
102	16    	0.863203	0  	0.863203	0.863203
103	16    	0.863203	0  	0.863203	0.863203
104	16    	0.863203	0  	0.863203	0.863203
105	16    	0.863203	0  	0.863203	0.863203
106	16    	0.863203	0  	0.863203	0.863203
107	16    	0.863203	0  	0.863203	0.863203
108	16    	0.863203	0  	0.863203	0.863203
109	16    	0.863203	0  	0.863203	0.863203
110	16    	0.863203	0  	0.863203	0.863203
111	16    	0.863203	0  	0.863203	0.863203
112	16    	0.863203	0  	0.863203	0.863203
113	16    	0.865812	0  	0.865812	0.865812
114	16    	0.865812	0  	0.865812	0.865812
115	16    	0.865812	0  	0.865812	0.865812
116	16    	0.866719	0  	0.866719	0.866719
117	16    	0.866719	0  	0.866719	0.866719
118	16    	0.866719	0  	0.866719	0.866719
119	16    	0.866719	0  	0.866719	0.866719
120	16    	0.868029	0  	0.868029	0.868029
121	16    	0.868029	0  	0.868029	0.868029
122	16    	0.868029	0  	0.868029	0.868029
123	16    	0.868029	0  	0.868029	0.868029
124	16    	0.868029	0  	0.868029	0.868029
125	16    	0.868029	0  	0.868029	0.868029
126	16    	0.868029	0  	0.868029	0.868029
127	16    	0.868029	0  	0.868029	0.868029
128	16    	0.868029	0  	0.868029	0.868029
129	16    	0.868029	0  	0.868029	0.868029
130	16    	0.868029	0  	0.868029	0.868029
131	16    	0.868029	0  	0.868029	0.868029
132	16    	0.868029	0  	0.868029	0.868029
133	16    	0.868029	0  	0.868029	0.868029
134	16    	0.868029	0  	0.868029	0.868029
135	16    	0.868029	0  	0.868029	0.868029
136	16    	0.868029	0  	0.868029	0.868029
137	16    	0.868029	0  	0.868029	0.868029
138	16    	0.869375	0  	0.869375	0.869375
139	16    	0.869375	0  	0.869375	0.869375
140	16    	0.869375	0  	0.869375	0.869375
141	16    	0.869375	0  	0.869375	0.869375
142	16    	0.869375	0  	0.869375	0.869375
143	16    	0.869375	0  	0.869375	0.869375
144	16    	0.869375	0  	0.869375	0.869375
145	16    	0.869375	0  	0.869375	0.869375
146	16    	0.869375	0  	0.869375	0.869375
147	16    	0.869375	0  	0.869375	0.869375
148	16    	0.869375	0  	0.869375	0.869375
149	16    	0.869375	0  	0.869375	0.869375
150	16    	0.869375	0  	0.869375	0.869375
151	16    	0.869375	0  	0.869375	0.869375
152	16    	0.869375	0  	0.869375	0.869375
153	16    	0.869375	0  	0.869375	0.869375
154	16    	0.869375	0  	0.869375	0.869375
155	16    	0.869375	0  	0.869375	0.869375
156	16    	0.869375	0  	0.869375	0.869375
157	16    	0.869375	0  	0.869375	0.869375
158	16    	0.869375	0  	0.869375	0.869375
159	16    	0.869375	0  	0.869375	0.869375
160	16    	0.869375	0  	0.869375	0.869375
161	16    	0.869375	0  	0.869375	0.869375
162	16    	0.869375	0  	0.869375	0.869375
163	16    	0.869375	0  	0.869375	0.869375
164	16    	0.869375	0  	0.869375	0.869375
165	16    	0.869375	0  	0.869375	0.869375
166	16    	0.870124	0  	0.870124	0.870124
167	16    	0.870124	0  	0.870124	0.870124
168	16    	0.870124	0  	0.870124	0.870124
169	16    	0.870788	0  	0.870788	0.870788
170	16    	0.870788	0  	0.870788	0.870788
171	16    	0.870788	0  	0.870788	0.870788
172	16    	0.870788	0  	0.870788	0.870788
173	16    	0.870788	0  	0.870788	0.870788
174	16    	0.870788	0  	0.870788	0.870788
175	16    	0.870788	0  	0.870788	0.870788
176	16    	0.870788	0  	0.870788	0.870788
177	16    	0.870788	0  	0.870788	0.870788
178	16    	0.870788	0  	0.870788	0.870788
179	16    	0.870788	0  	0.870788	0.870788
180	16    	0.874893	0  	0.874893	0.874893
181	16    	0.874893	0  	0.874893	0.874893
182	16    	0.874893	0  	0.874893	0.874893
183	16    	0.876876	0  	0.876876	0.876876
184	16    	0.876876	0  	0.876876	0.876876
185	16    	0.876876	0  	0.876876	0.876876
186	16    	0.876876	0  	0.876876	0.876876
187	16    	0.876876	0  	0.876876	0.876876
188	16    	0.876876	0  	0.876876	0.876876
189	16    	0.876876	0  	0.876876	0.876876
190	16    	0.876876	0  	0.876876	0.876876
191	16    	0.876876	0  	0.876876	0.876876
192	16    	0.879598	0  	0.879598	0.879598
193	16    	0.879598	0  	0.879598	0.879598
194	16    	0.879598	0  	0.879598	0.879598
195	16    	0.880935	0  	0.880935	0.880935
196	16    	0.880954	0  	0.880954	0.880954
197	16    	0.880954	0  	0.880954	0.880954
198	16    	0.889156	0  	0.889156	0.889156
199	16    	0.889156	0  	0.889156	0.889156
200	16    	0.889156	0  	0.889156	0.889156
201	16    	0.889156	0  	0.889156	0.889156
202	16    	0.889156	0  	0.889156	0.889156
203	16    	0.889156	0  	0.889156	0.889156
204	16    	0.889156	0  	0.889156	0.889156
205	16    	0.889156	0  	0.889156	0.889156
206	16    	0.889156	0  	0.889156	0.889156
207	16    	0.889156	0  	0.889156	0.889156
208	16    	0.889156	0  	0.889156	0.889156
209	16    	0.889156	0  	0.889156	0.889156
210	16    	0.889156	0  	0.889156	0.889156
211	16    	0.889156	0  	0.889156	0.889156
212	16    	0.889156	0  	0.889156	0.889156
213	16    	0.889156	0  	0.889156	0.889156
214	16    	0.889156	0  	0.889156	0.889156
215	16    	0.889156	0  	0.889156	0.889156
216	16    	0.889156	0  	0.889156	0.889156
217	16    	0.889156	0  	0.889156	0.889156
218	16    	0.889156	0  	0.889156	0.889156
219	16    	0.889156	0  	0.889156	0.889156
220	16    	0.889156	0  	0.889156	0.889156
221	16    	0.889156	0  	0.889156	0.889156
222	16    	0.889156	0  	0.889156	0.889156
223	16    	0.889156	0  	0.889156	0.889156
224	16    	0.889156	0  	0.889156	0.889156
225	16    	0.889156	0  	0.889156	0.889156
226	16    	0.889156	0  	0.889156	0.889156
227	16    	0.889156	0  	0.889156	0.889156
228	16    	0.889156	0  	0.889156	0.889156
229	16    	0.889156	0  	0.889156	0.889156
230	16    	0.889156	0  	0.889156	0.889156
231	16    	0.889156	0  	0.889156	0.889156
232	16    	0.889156	0  	0.889156	0.889156
233	16    	0.889156	0  	0.889156	0.889156
234	16    	0.889156	0  	0.889156	0.889156
235	16    	0.889156	0  	0.889156	0.889156
236	16    	0.889156	0  	0.889156	0.889156
237	16    	0.889156	0  	0.889156	0.889156
238	16    	0.889156	0  	0.889156	0.889156
239	16    	0.889156	0  	0.889156	0.889156
240	16    	0.889156	0  	0.889156	0.889156
241	16    	0.889156	0  	0.889156	0.889156
242	16    	0.889156	0  	0.889156	0.889156
243	16    	0.889156	0  	0.889156	0.889156
244	16    	0.889156	0  	0.889156	0.889156
245	16    	0.889156	0  	0.889156	0.889156
246	16    	0.889156	0  	0.889156	0.889156
247	16    	0.889156	0  	0.889156	0.889156
248	16    	0.889156	0  	0.889156	0.889156
249	16    	0.889156	0  	0.889156	0.889156
250	16    	0.889156	0  	0.889156	0.889156
251	16    	0.889156	0  	0.889156	0.889156
252	16    	0.889156	0  	0.889156	0.889156
253	16    	0.889156	0  	0.889156	0.889156
254	16    	0.889156	0  	0.889156	0.889156
255	16    	0.889156	0  	0.889156	0.889156
256	16    	0.889156	0  	0.889156	0.889156
257	16    	0.889156	0  	0.889156	0.889156
258	16    	0.889156	0  	0.889156	0.889156
259	16    	0.889156	0  	0.889156	0.889156
260	16    	0.889156	0  	0.889156	0.889156
261	16    	0.889156	0  	0.889156	0.889156
262	16    	0.889156	0  	0.889156	0.889156
263	16    	0.889156	0  	0.889156	0.889156
264	16    	0.889156	0  	0.889156	0.889156
265	16    	0.889156	0  	0.889156	0.889156
266	16    	0.889156	0  	0.889156	0.889156
267	16    	0.889156	0  	0.889156	0.889156
268	16    	0.889156	0  	0.889156	0.889156
269	16    	0.889156	0  	0.889156	0.889156
270	16    	0.889156	0  	0.889156	0.889156
271	16    	0.889156	0  	0.889156	0.889156
272	16    	0.889156	0  	0.889156	0.889156
273	16    	0.889156	0  	0.889156	0.889156
274	16    	0.889156	0  	0.889156	0.889156
275	16    	0.889156	0  	0.889156	0.889156
276	16    	0.889156	0  	0.889156	0.889156
277	16    	0.889156	0  	0.889156	0.889156
278	16    	0.889156	0  	0.889156	0.889156
279	16    	0.889156	0  	0.889156	0.889156
280	16    	0.889156	0  	0.889156	0.889156
281	16    	0.889156	0  	0.889156	0.889156
282	16    	0.889156	0  	0.889156	0.889156
283	16    	0.889156	0  	0.889156	0.889156
284	16    	0.889156	0  	0.889156	0.889156
285	16    	0.889156	0  	0.889156	0.889156
286	16    	0.889156	0  	0.889156	0.889156
287	16    	0.889156	0  	0.889156	0.889156
288	16    	0.889156	0  	0.889156	0.889156
289	16    	0.889156	0  	0.889156	0.889156
290	16    	0.889156	0  	0.889156	0.889156
291	16    	0.889156	0  	0.889156	0.889156
292	16    	0.889156	0  	0.889156	0.889156
293	16    	0.889156	0  	0.889156	0.889156
294	16    	0.889156	0  	0.889156	0.889156
295	16    	0.889156	0  	0.889156	0.889156
296	16    	0.889156	0  	0.889156	0.889156
297	16    	0.889156	0  	0.889156	0.889156
298	16    	0.889156	0  	0.889156	0.889156
299	16    	0.889839	0  	0.889839	0.889839
300	16    	0.889839	0  	0.889839	0.889839
301	16    	0.889839	0  	0.889839	0.889839
302	16    	0.889923	0  	0.889923	0.889923
303	16    	0.889923	0  	0.889923	0.889923
304	16    	0.889923	0  	0.889923	0.889923
305	16    	0.889923	0  	0.889923	0.889923
306	16    	0.889923	0  	0.889923	0.889923
307	16    	0.889923	0  	0.889923	0.889923
308	16    	0.889923	0  	0.889923	0.889923
309	16    	0.889923	0  	0.889923	0.889923
310	16    	0.889923	0  	0.889923	0.889923
311	16    	0.889923	0  	0.889923	0.889923
312	16    	0.889923	0  	0.889923	0.889923
313	16    	0.889923	0  	0.889923	0.889923
314	16    	0.889923	0  	0.889923	0.889923
315	16    	0.889923	0  	0.889923	0.889923
316	16    	0.889923	0  	0.889923	0.889923
317	16    	0.889923	0  	0.889923	0.889923
318	16    	0.889923	0  	0.889923	0.889923
319	16    	0.889923	0  	0.889923	0.889923
320	16    	0.889923	0  	0.889923	0.889923
321	16    	0.889923	0  	0.889923	0.889923
322	16    	0.889923	0  	0.889923	0.889923
323	16    	0.889923	0  	0.889923	0.889923
324	16    	0.889923	0  	0.889923	0.889923
325	16    	0.889923	0  	0.889923	0.889923
326	16    	0.889923	0  	0.889923	0.889923
327	16    	0.889923	0  	0.889923	0.889923
328	16    	0.889923	0  	0.889923	0.889923
329	16    	0.889923	0  	0.889923	0.889923
330	16    	0.889923	0  	0.889923	0.889923
331	16    	0.889923	0  	0.889923	0.889923
332	16    	0.889923	0  	0.889923	0.889923
333	16    	0.889923	0  	0.889923	0.889923
334	16    	0.889923	0  	0.889923	0.889923
335	16    	0.889923	0  	0.889923	0.889923
336	16    	0.889923	0  	0.889923	0.889923
337	16    	0.889923	0  	0.889923	0.889923
338	16    	0.889923	0  	0.889923	0.889923
339	16    	0.889923	0  	0.889923	0.889923
340	16    	0.889923	0  	0.889923	0.889923
341	16    	0.889923	0  	0.889923	0.889923
342	16    	0.889923	0  	0.889923	0.889923
343	16    	0.889923	0  	0.889923	0.889923
344	16    	0.889923	0  	0.889923	0.889923
345	16    	0.889923	0  	0.889923	0.889923
346	16    	0.889923	0  	0.889923	0.889923
347	16    	0.889923	0  	0.889923	0.889923
348	16    	0.889923	0  	0.889923	0.889923
349	16    	0.889923	0  	0.889923	0.889923
350	16    	0.889923	0  	0.889923	0.889923
351	16    	0.889923	0  	0.889923	0.889923
352	16    	0.889923	0  	0.889923	0.889923
353	16    	0.889923	0  	0.889923	0.889923
354	16    	0.889923	0  	0.889923	0.889923
355	16    	0.889923	0  	0.889923	0.889923
356	16    	0.889923	0  	0.889923	0.889923
357	16    	0.889923	0  	0.889923	0.889923
358	16    	0.889923	0  	0.889923	0.889923
359	16    	0.889923	0  	0.889923	0.889923
360	16    	0.889923	0  	0.889923	0.889923
361	16    	0.889923	0  	0.889923	0.889923
362	16    	0.889923	0  	0.889923	0.889923
363	16    	0.889923	0  	0.889923	0.889923
364	16    	0.889923	0  	0.889923	0.889923
365	16    	0.889923	0  	0.889923	0.889923
366	16    	0.889923	0  	0.889923	0.889923
367	16    	0.889923	0  	0.889923	0.889923
368	16    	0.889923	0  	0.889923	0.889923
369	16    	0.889923	0  	0.889923	0.889923
370	16    	0.889923	0  	0.889923	0.889923
371	16    	0.889923	0  	0.889923	0.889923
372	16    	0.889923	0  	0.889923	0.889923
373	16    	0.889923	0  	0.889923	0.889923
374	16    	0.889923	0  	0.889923	0.889923
375	16    	0.889923	0  	0.889923	0.889923
376	16    	0.889923	0  	0.889923	0.889923
377	16    	0.889923	0  	0.889923	0.889923
378	16    	0.889923	0  	0.889923	0.889923
379	16    	0.889923	0  	0.889923	0.889923
380	16    	0.889923	0  	0.889923	0.889923
381	16    	0.889923	0  	0.889923	0.889923
382	16    	0.889923	0  	0.889923	0.889923
383	16    	0.889923	0  	0.889923	0.889923
384	16    	0.889923	0  	0.889923	0.889923
385	16    	0.889923	0  	0.889923	0.889923
386	16    	0.889923	0  	0.889923	0.889923
387	16    	0.889923	0  	0.889923	0.889923
388	16    	0.889923	0  	0.889923	0.889923
389	16    	0.889923	0  	0.889923	0.889923
390	16    	0.889923	0  	0.889923	0.889923
391	16    	0.889923	0  	0.889923	0.889923
392	16    	0.889923	0  	0.889923	0.889923
393	16    	0.889923	0  	0.889923	0.889923
394	16    	0.889923	0  	0.889923	0.889923
395	16    	0.889923	0  	0.889923	0.889923
396	16    	0.889923	0  	0.889923	0.889923
397	16    	0.889923	0  	0.889923	0.889923
398	16    	0.889923	0  	0.889923	0.889923
399	16    	0.889923	0  	0.889923	0.889923
400	16    	0.889923	0  	0.889923	0.889923
401	16    	0.889923	0  	0.889923	0.889923
402	16    	0.889923	0  	0.889923	0.889923
403	16    	0.889923	0  	0.889923	0.889923
404	16    	0.889923	0  	0.889923	0.889923
405	16    	0.889923	0  	0.889923	0.889923
406	16    	0.889923	0  	0.889923	0.889923
407	16    	0.889923	0  	0.889923	0.889923
408	16    	0.889923	0  	0.889923	0.889923
409	16    	0.889923	0  	0.889923	0.889923
410	16    	0.889923	0  	0.889923	0.889923
411	16    	0.889923	0  	0.889923	0.889923
412	16    	0.889923	0  	0.889923	0.889923
413	16    	0.889923	0  	0.889923	0.889923
414	16    	0.889923	0  	0.889923	0.889923
415	16    	0.889923	0  	0.889923	0.889923
416	16    	0.889923	0  	0.889923	0.889923
417	16    	0.889923	0  	0.889923	0.889923
418	16    	0.889923	0  	0.889923	0.889923
419	16    	0.889923	0  	0.889923	0.889923
420	16    	0.889923	0  	0.889923	0.889923
421	16    	0.889923	0  	0.889923	0.889923
422	16    	0.889923	0  	0.889923	0.889923
423	16    	0.889923	0  	0.889923	0.889923
424	16    	0.889923	0  	0.889923	0.889923
425	16    	0.889923	0  	0.889923	0.889923
426	16    	0.889923	0  	0.889923	0.889923
427	16    	0.889923	0  	0.889923	0.889923
428	16    	0.889923	0  	0.889923	0.889923
429	16    	0.889923	0  	0.889923	0.889923
430	16    	0.889923	0  	0.889923	0.889923
431	16    	0.889923	0  	0.889923	0.889923
432	16    	0.889923	0  	0.889923	0.889923
433	16    	0.889923	0  	0.889923	0.889923
434	16    	0.889923	0  	0.889923	0.889923
435	16    	0.889923	0  	0.889923	0.889923
436	16    	0.889923	0  	0.889923	0.889923
437	16    	0.889923	0  	0.889923	0.889923
438	16    	0.889923	0  	0.889923	0.889923
439	16    	0.889923	0  	0.889923	0.889923
440	16    	0.889923	0  	0.889923	0.889923
441	16    	0.889923	0  	0.889923	0.889923
442	16    	0.889923	0  	0.889923	0.889923
443	16    	0.889923	0  	0.889923	0.889923
444	16    	0.889923	0  	0.889923	0.889923
445	16    	0.889923	0  	0.889923	0.889923
446	16    	0.889923	0  	0.889923	0.889923
447	16    	0.889923	0  	0.889923	0.889923
448	16    	0.89256 	0  	0.89256 	0.89256 
449	16    	0.89256 	0  	0.89256 	0.89256 
450	16    	0.89256 	0  	0.89256 	0.89256 
451	16    	0.89256 	0  	0.89256 	0.89256 
452	16    	0.89256 	0  	0.89256 	0.89256 
453	16    	0.89256 	0  	0.89256 	0.89256 
454	16    	0.894637	0  	0.894637	0.894637
455	16    	0.894637	0  	0.894637	0.894637
456	16    	0.894637	0  	0.894637	0.894637
457	16    	0.894637	0  	0.894637	0.894637
458	16    	0.894637	0  	0.894637	0.894637
459	16    	0.894637	0  	0.894637	0.894637
460	16    	0.894637	0  	0.894637	0.894637
461	16    	0.894637	0  	0.894637	0.894637
462	16    	0.894637	0  	0.894637	0.894637
463	16    	0.894637	0  	0.894637	0.894637
464	16    	0.894637	0  	0.894637	0.894637
465	16    	0.894637	0  	0.894637	0.894637
466	16    	0.894637	0  	0.894637	0.894637
467	16    	0.894637	0  	0.894637	0.894637
468	16    	0.894637	0  	0.894637	0.894637
469	16    	0.894637	0  	0.894637	0.894637
470	16    	0.894637	0  	0.894637	0.894637
471	16    	0.894637	0  	0.894637	0.894637
472	16    	0.894637	0  	0.894637	0.894637
473	16    	0.894637	0  	0.894637	0.894637
474	16    	0.894637	0  	0.894637	0.894637
475	16    	0.894637	0  	0.894637	0.894637
476	16    	0.894637	0  	0.894637	0.894637
477	16    	0.894637	0  	0.894637	0.894637
478	16    	0.894637	0  	0.894637	0.894637
479	16    	0.894637	0  	0.894637	0.894637
480	16    	0.894637	0  	0.894637	0.894637
481	16    	0.894637	0  	0.894637	0.894637
482	16    	0.894637	0  	0.894637	0.894637
483	16    	0.894637	0  	0.894637	0.894637
484	16    	0.894637	0  	0.894637	0.894637
485	16    	0.894637	0  	0.894637	0.894637
486	16    	0.894637	0  	0.894637	0.894637
487	16    	0.894637	0  	0.894637	0.894637
488	16    	0.894637	0  	0.894637	0.894637
489	16    	0.894637	0  	0.894637	0.894637
490	16    	0.894637	0  	0.894637	0.894637
491	16    	0.894637	0  	0.894637	0.894637
492	16    	0.894637	0  	0.894637	0.894637
493	16    	0.894637	0  	0.894637	0.894637
494	16    	0.894637	0  	0.894637	0.894637
495	16    	0.894637	0  	0.894637	0.894637
496	16    	0.894637	0  	0.894637	0.894637
497	16    	0.894637	0  	0.894637	0.894637
498	16    	0.894637	0  	0.894637	0.894637
499	16    	0.894637	0  	0.894637	0.894637
500	16    	0.894637	0  	0.894637	0.894637
501	16    	0.894637	0  	0.894637	0.894637
502	16    	0.897059	0  	0.897059	0.897059
503	16    	0.897059	0  	0.897059	0.897059
504	16    	0.897059	0  	0.897059	0.897059
505	16    	0.897059	0  	0.897059	0.897059
506	16    	0.897059	0  	0.897059	0.897059
507	16    	0.897059	0  	0.897059	0.897059
508	16    	0.897059	0  	0.897059	0.897059
509	16    	0.897059	0  	0.897059	0.897059
510	16    	0.897059	0  	0.897059	0.897059
511	16    	0.897059	0  	0.897059	0.897059
512	16    	0.897059	0  	0.897059	0.897059
513	16    	0.897059	0  	0.897059	0.897059
514	16    	0.897059	0  	0.897059	0.897059
515	16    	0.897059	0  	0.897059	0.897059
516	16    	0.897199	0  	0.897199	0.897199
517	16    	0.897199	0  	0.897199	0.897199
518	16    	0.897199	0  	0.897199	0.897199
519	16    	0.897199	0  	0.897199	0.897199
520	16    	0.897199	0  	0.897199	0.897199
521	16    	0.897199	0  	0.897199	0.897199
522	16    	0.897199	0  	0.897199	0.897199
523	16    	0.897199	0  	0.897199	0.897199
524	16    	0.897199	0  	0.897199	0.897199
525	16    	0.897199	0  	0.897199	0.897199
526	16    	0.897199	0  	0.897199	0.897199
527	16    	0.897199	0  	0.897199	0.897199
528	16    	0.897199	0  	0.897199	0.897199
529	16    	0.897199	0  	0.897199	0.897199
530	16    	0.898415	0  	0.898415	0.898415
531	16    	0.898415	0  	0.898415	0.898415
532	16    	0.898415	0  	0.898415	0.898415
533	16    	0.898415	0  	0.898415	0.898415
534	16    	0.898415	0  	0.898415	0.898415
535	16    	0.898415	0  	0.898415	0.898415
536	16    	0.898415	0  	0.898415	0.898415
537	16    	0.898415	0  	0.898415	0.898415
538	16    	0.898415	0  	0.898415	0.898415
539	16    	0.898415	0  	0.898415	0.898415
540	16    	0.898415	0  	0.898415	0.898415
541	16    	0.898415	0  	0.898415	0.898415
542	16    	0.898415	0  	0.898415	0.898415
543	16    	0.898415	0  	0.898415	0.898415
544	16    	0.898415	0  	0.898415	0.898415
545	16    	0.898415	0  	0.898415	0.898415
546	16    	0.898415	0  	0.898415	0.898415
547	16    	0.898415	0  	0.898415	0.898415
548	16    	0.898415	0  	0.898415	0.898415
549	16    	0.898415	0  	0.898415	0.898415
550	16    	0.898415	0  	0.898415	0.898415
551	16    	0.898415	0  	0.898415	0.898415
552	16    	0.898415	0  	0.898415	0.898415
553	16    	0.898415	0  	0.898415	0.898415
554	16    	0.898415	0  	0.898415	0.898415
555	16    	0.898415	0  	0.898415	0.898415
556	16    	0.898415	0  	0.898415	0.898415
557	16    	0.898415	0  	0.898415	0.898415
558	16    	0.898415	0  	0.898415	0.898415
559	16    	0.898415	0  	0.898415	0.898415
560	16    	0.898415	0  	0.898415	0.898415
561	16    	0.898415	0  	0.898415	0.898415
562	16    	0.898415	0  	0.898415	0.898415
563	16    	0.898415	0  	0.898415	0.898415
564	16    	0.898415	0  	0.898415	0.898415
565	16    	0.898415	0  	0.898415	0.898415
566	16    	0.898415	0  	0.898415	0.898415
567	16    	0.898415	0  	0.898415	0.898415
568	16    	0.898415	0  	0.898415	0.898415
569	16    	0.898415	0  	0.898415	0.898415
570	16    	0.898415	0  	0.898415	0.898415
571	16    	0.898415	0  	0.898415	0.898415
572	16    	0.898415	0  	0.898415	0.898415
573	16    	0.898415	0  	0.898415	0.898415
574	16    	0.898415	0  	0.898415	0.898415
575	16    	0.898434	0  	0.898434	0.898434
576	16    	0.898434	0  	0.898434	0.898434
577	16    	0.898434	0  	0.898434	0.898434
578	16    	0.898434	0  	0.898434	0.898434
579	16    	0.898434	0  	0.898434	0.898434
580	16    	0.898434	0  	0.898434	0.898434
581	16    	0.898434	0  	0.898434	0.898434
582	16    	0.898434	0  	0.898434	0.898434
583	16    	0.898434	0  	0.898434	0.898434
584	16    	0.898434	0  	0.898434	0.898434
585	16    	0.898434	0  	0.898434	0.898434
586	16    	0.898434	0  	0.898434	0.898434
587	16    	0.898434	0  	0.898434	0.898434
588	16    	0.898434	0  	0.898434	0.898434
589	16    	0.898434	0  	0.898434	0.898434
590	16    	0.898434	0  	0.898434	0.898434
591	16    	0.898434	0  	0.898434	0.898434
592	16    	0.898434	0  	0.898434	0.898434
593	16    	0.898434	0  	0.898434	0.898434
594	16    	0.898434	0  	0.898434	0.898434
595	16    	0.898434	0  	0.898434	0.898434
596	16    	0.898434	0  	0.898434	0.898434
597	16    	0.898434	0  	0.898434	0.898434
598	16    	0.898434	0  	0.898434	0.898434
599	16    	0.898434	0  	0.898434	0.898434
600	16    	0.898434	0  	0.898434	0.898434
601	16    	0.898434	0  	0.898434	0.898434
602	16    	0.898434	0  	0.898434	0.898434
603	16    	0.898434	0  	0.898434	0.898434
604	16    	0.898434	0  	0.898434	0.898434
605	16    	0.898434	0  	0.898434	0.898434
606	16    	0.898434	0  	0.898434	0.898434
607	16    	0.898434	0  	0.898434	0.898434
608	16    	0.898434	0  	0.898434	0.898434
609	16    	0.898434	0  	0.898434	0.898434
610	16    	0.898434	0  	0.898434	0.898434
611	16    	0.898434	0  	0.898434	0.898434
612	16    	0.898434	0  	0.898434	0.898434
613	16    	0.898434	0  	0.898434	0.898434
614	16    	0.898434	0  	0.898434	0.898434
615	16    	0.898434	0  	0.898434	0.898434
616	16    	0.898434	0  	0.898434	0.898434
617	16    	0.898434	0  	0.898434	0.898434
618	16    	0.898434	0  	0.898434	0.898434
619	16    	0.898434	0  	0.898434	0.898434
620	16    	0.898434	0  	0.898434	0.898434
621	16    	0.898434	0  	0.898434	0.898434
622	16    	0.898434	0  	0.898434	0.898434
623	16    	0.898434	0  	0.898434	0.898434
624	16    	0.898434	0  	0.898434	0.898434
625	16    	0.898434	0  	0.898434	0.898434