gen	nevals	avg     	std	min     	max     
0  	1     	0.892141	0  	0.892141	0.892141
1  	16    	0.89495 	0  	0.89495 	0.89495 
2  	16    	0.89495 	0  	0.89495 	0.89495 
3  	16    	0.89495 	0  	0.89495 	0.89495 
4  	16    	0.895912	0  	0.895912	0.895912
5  	16    	0.895958	0  	0.895958	0.895958
6  	16    	0.899012	0  	0.899012	0.899012
7  	16    	0.899012	0  	0.899012	0.899012
8  	16    	0.899012	0  	0.899012	0.899012
9  	16    	0.899012	0  	0.899012	0.899012
10 	16    	0.899102	0  	0.899102	0.899102
11 	16    	0.899652	0  	0.899652	0.899652
12 	16    	0.901738	0  	0.901738	0.901738
13 	16    	0.903841	0  	0.903841	0.903841
14 	16    	0.904623	0  	0.904623	0.904623
15 	16    	0.904623	0  	0.904623	0.904623
16 	16    	0.904623	0  	0.904623	0.904623
17 	16    	0.904623	0  	0.904623	0.904623
18 	16    	0.907575	0  	0.907575	0.907575
19 	16    	0.907575	0  	0.907575	0.907575
20 	16    	0.907787	0  	0.907787	0.907787
21 	16    	0.910894	0  	0.910894	0.910894
22 	16    	0.910894	0  	0.910894	0.910894
23 	16    	0.911425	0  	0.911425	0.911425
24 	16    	0.911425	0  	0.911425	0.911425
25 	16    	0.911425	0  	0.911425	0.911425
26 	16    	0.912781	0  	0.912781	0.912781
27 	16    	0.912781	0  	0.912781	0.912781
28 	16    	0.914184	0  	0.914184	0.914184
29 	16    	0.914184	0  	0.914184	0.914184
30 	16    	0.914933	0  	0.914933	0.914933
31 	16    	0.914933	0  	0.914933	0.914933
32 	16    	0.915245	0  	0.915245	0.915245
33 	16    	0.915245	0  	0.915245	0.915245
34 	16    	0.91681 	0  	0.91681 	0.91681 
35 	16    	0.91681 	0  	0.91681 	0.91681 
36 	16    	0.919022	0  	0.919022	0.919022
37 	16    	0.919022	0  	0.919022	0.919022
38 	16    	0.919022	0  	0.919022	0.919022
39 	16    	0.919022	0  	0.919022	0.919022
40 	16    	0.919022	0  	0.919022	0.919022
41 	16    	0.919022	0  	0.919022	0.919022
42 	16    	0.919022	0  	0.919022	0.919022
43 	16    	0.920667	0  	0.920667	0.920667
44 	16    	0.920667	0  	0.920667	0.920667
45 	16    	0.921904	0  	0.921904	0.921904
46 	16    	0.921904	0  	0.921904	0.921904
47 	16    	0.921904	0  	0.921904	0.921904
48 	16    	0.921904	0  	0.921904	0.921904
49 	16    	0.921904	0  	0.921904	0.921904
50 	16    	0.921904	0  	0.921904	0.921904
51 	16    	0.921904	0  	0.921904	0.921904
52 	16    	0.921904	0  	0.921904	0.921904
53 	16    	0.921904	0  	0.921904	0.921904
54 	16    	0.921904	0  	0.921904	0.921904
55 	16    	0.921904	0  	0.921904	0.921904
56 	16    	0.921904	0  	0.921904	0.921904
57 	16    	0.922315	0  	0.922315	0.922315
58 	16    	0.922315	0  	0.922315	0.922315
59 	16    	0.922315	0  	0.922315	0.922315
60 	16    	0.922315	0  	0.922315	0.922315
61 	16    	0.922315	0  	0.922315	0.922315
62 	16    	0.923665	0  	0.923665	0.923665
63 	16    	0.923665	0  	0.923665	0.923665
64 	16    	0.923665	0  	0.923665	0.923665
65 	16    	0.923665	0  	0.923665	0.923665
66 	16    	0.923917	0  	0.923917	0.923917
67 	16    	0.923917	0  	0.923917	0.923917
68 	16    	0.923917	0  	0.923917	0.923917
69 	16    	0.923917	0  	0.923917	0.923917
70 	16    	0.924196	0  	0.924196	0.924196
71 	16    	0.924196	0  	0.924196	0.924196
72 	16    	0.924196	0  	0.924196	0.924196
73 	16    	0.924196	0  	0.924196	0.924196
74 	16    	0.924196	0  	0.924196	0.924196
75 	16    	0.924196	0  	0.924196	0.924196
76 	16    	0.924196	0  	0.924196	0.924196
77 	16    	0.924196	0  	0.924196	0.924196
78 	16    	0.924196	0  	0.924196	0.924196
79 	16    	0.924196	0  	0.924196	0.924196
80 	16    	0.924196	0  	0.924196	0.924196
81 	16    	0.924643	0  	0.924643	0.924643
82 	16    	0.924643	0  	0.924643	0.924643
83 	16    	0.924643	0  	0.924643	0.924643
84 	16    	0.924643	0  	0.924643	0.924643
85 	16    	0.924643	0  	0.924643	0.924643
86 	16    	0.924958	0  	0.924958	0.924958
87 	16    	0.924958	0  	0.924958	0.924958
88 	16    	0.924958	0  	0.924958	0.924958
89 	16    	0.924958	0  	0.924958	0.924958
90 	16    	0.92663 	0  	0.92663 	0.92663 
91 	16    	0.92663 	0  	0.92663 	0.92663 
92 	16    	0.92663 	0  	0.92663 	0.92663 
93 	16    	0.92663 	0  	0.92663 	0.92663 
94 	16    	0.927104	0  	0.927104	0.927104
95 	16    	0.927104	0  	0.927104	0.927104
96 	16    	0.927104	0  	0.927104	0.927104
97 	16    	0.927104	0  	0.927104	0.927104
98 	16    	0.927104	0  	0.927104	0.927104
99 	16    	0.927104	0  	0.927104	0.927104
100	16    	0.927104	0  	0.927104	0.927104
101	16    	0.927104	0  	0.927104	0.927104
102	16    	0.927104	0  	0.927104	0.927104
103	16    	0.927104	0  	0.927104	0.927104
104	16    	0.927104	0  	0.927104	0.927104
105	16    	0.927104	0  	0.927104	0.927104
106	16    	0.927104	0  	0.927104	0.927104
107	16    	0.927104	0  	0.927104	0.927104
108	16    	0.927104	0  	0.927104	0.927104
109	16    	0.927104	0  	0.927104	0.927104
110	16    	0.927104	0  	0.927104	0.927104
111	16    	0.927104	0  	0.927104	0.927104
112	16    	0.927104	0  	0.927104	0.927104
113	16    	0.927104	0  	0.927104	0.927104
114	16    	0.927104	0  	0.927104	0.927104
115	16    	0.927104	0  	0.927104	0.927104
116	16    	0.927104	0  	0.927104	0.927104
117	16    	0.927104	0  	0.927104	0.927104
118	16    	0.927104	0  	0.927104	0.927104
119	16    	0.927104	0  	0.927104	0.927104
120	16    	0.927104	0  	0.927104	0.927104
121	16    	0.927104	0  	0.927104	0.927104
122	16    	0.927104	0  	0.927104	0.927104
123	16    	0.927104	0  	0.927104	0.927104
124	16    	0.927104	0  	0.927104	0.927104
125	16    	0.927104	0  	0.927104	0.927104
126	16    	0.927104	0  	0.927104	0.927104
127	16    	0.927104	0  	0.927104	0.927104
128	16    	0.927104	0  	0.927104	0.927104
129	16    	0.927104	0  	0.927104	0.927104
130	16    	0.927104	0  	0.927104	0.927104
131	16    	0.927104	0  	0.927104	0.927104
132	16    	0.927104	0  	0.927104	0.927104
133	16    	0.927104	0  	0.927104	0.927104
134	16    	0.927104	0  	0.927104	0.927104
135	16    	0.927104	0  	0.927104	0.927104
136	16    	0.927104	0  	0.927104	0.927104
137	16    	0.927104	0  	0.927104	0.927104
138	16    	0.927104	0  	0.927104	0.927104
139	16    	0.927104	0  	0.927104	0.927104
140	16    	0.927104	0  	0.927104	0.927104
141	16    	0.927104	0  	0.927104	0.927104
142	16    	0.927104	0  	0.927104	0.927104
143	16    	0.927104	0  	0.927104	0.927104
144	16    	0.927104	0  	0.927104	0.927104
145	16    	0.927104	0  	0.927104	0.927104
146	16    	0.927104	0  	0.927104	0.927104
147	16    	0.927104	0  	0.927104	0.927104
148	16    	0.927104	0  	0.927104	0.927104
149	16    	0.927104	0  	0.927104	0.927104
150	16    	0.927104	0  	0.927104	0.927104
151	16    	0.927104	0  	0.927104	0.927104
152	16    	0.927104	0  	0.927104	0.927104
153	16    	0.927104	0  	0.927104	0.927104
154	16    	0.927104	0  	0.927104	0.927104
155	16    	0.927104	0  	0.927104	0.927104
156	16    	0.927104	0  	0.927104	0.927104
157	16    	0.927104	0  	0.927104	0.927104
158	16    	0.927104	0  	0.927104	0.927104
159	16    	0.927104	0  	0.927104	0.927104
160	16    	0.927104	0  	0.927104	0.927104
161	16    	0.927104	0  	0.927104	0.927104
162	16    	0.927104	0  	0.927104	0.927104
163	16    	0.927104	0  	0.927104	0.927104
164	16    	0.927104	0  	0.927104	0.927104
165	16    	0.927104	0  	0.927104	0.927104
166	16    	0.927104	0  	0.927104	0.927104
167	16    	0.927104	0  	0.927104	0.927104
168	16    	0.927104	0  	0.927104	0.927104
169	16    	0.927104	0  	0.927104	0.927104
170	16    	0.927104	0  	0.927104	0.927104
171	16    	0.927104	0  	0.927104	0.927104
172	16    	0.927104	0  	0.927104	0.927104
173	16    	0.927104	0  	0.927104	0.927104
174	16    	0.927104	0  	0.927104	0.927104
175	16    	0.927104	0  	0.927104	0.927104
176	16    	0.927104	0  	0.927104	0.927104
177	16    	0.927104	0  	0.927104	0.927104
178	16    	0.927104	0  	0.927104	0.927104
179	16    	0.927104	0  	0.927104	0.927104
180	16    	0.927104	0  	0.927104	0.927104
181	16    	0.927104	0  	0.927104	0.927104
182	16    	0.927104	0  	0.927104	0.927104
183	16    	0.927104	0  	0.927104	0.927104
184	16    	0.927104	0  	0.927104	0.927104
185	16    	0.927104	0  	0.927104	0.927104
186	16    	0.927104	0  	0.927104	0.927104
187	16    	0.927104	0  	0.927104	0.927104
188	16    	0.927104	0  	0.927104	0.927104
189	16    	0.927104	0  	0.927104	0.927104
190	16    	0.927104	0  	0.927104	0.927104
191	16    	0.927104	0  	0.927104	0.927104
192	16    	0.927104	0  	0.927104	0.927104
193	16    	0.927104	0  	0.927104	0.927104
194	16    	0.927104	0  	0.927104	0.927104
195	16    	0.927104	0  	0.927104	0.927104
196	16    	0.927104	0  	0.927104	0.927104
197	16    	0.927104	0  	0.927104	0.927104
198	16    	0.927104	0  	0.927104	0.927104
199	16    	0.927104	0  	0.927104	0.927104
200	16    	0.927104	0  	0.927104	0.927104
201	16    	0.927104	0  	0.927104	0.927104
202	16    	0.927104	0  	0.927104	0.927104
203	16    	0.927104	0  	0.927104	0.927104
204	16    	0.927104	0  	0.927104	0.927104
205	16    	0.927104	0  	0.927104	0.927104
206	16    	0.927104	0  	0.927104	0.927104
207	16    	0.927104	0  	0.927104	0.927104
208	16    	0.927104	0  	0.927104	0.927104
209	16    	0.927104	0  	0.927104	0.927104
210	16    	0.927104	0  	0.927104	0.927104
211	16    	0.927104	0  	0.927104	0.927104
212	16    	0.927104	0  	0.927104	0.927104
213	16    	0.927104	0  	0.927104	0.927104
214	16    	0.927104	0  	0.927104	0.927104
215	16    	0.927104	0  	0.927104	0.927104
216	16    	0.927104	0  	0.927104	0.927104
217	16    	0.927104	0  	0.927104	0.927104
218	16    	0.927104	0  	0.927104	0.927104
219	16    	0.927104	0  	0.927104	0.927104
220	16    	0.927104	0  	0.927104	0.927104
221	16    	0.927104	0  	0.927104	0.927104
222	16    	0.927104	0  	0.927104	0.927104
223	16    	0.927104	0  	0.927104	0.927104
224	16    	0.927104	0  	0.927104	0.927104
225	16    	0.927104	0  	0.927104	0.927104
226	16    	0.927104	0  	0.927104	0.927104
227	16    	0.927104	0  	0.927104	0.927104
228	16    	0.927104	0  	0.927104	0.927104
229	16    	0.927104	0  	0.927104	0.927104
230	16    	0.927104	0  	0.927104	0.927104
231	16    	0.927104	0  	0.927104	0.927104
232	16    	0.927104	0  	0.927104	0.927104
233	16    	0.927104	0  	0.927104	0.927104
234	16    	0.927104	0  	0.927104	0.927104
235	16    	0.927104	0  	0.927104	0.927104
236	16    	0.927104	0  	0.927104	0.927104
237	16    	0.927104	0  	0.927104	0.927104
238	16    	0.927104	0  	0.927104	0.927104
239	16    	0.927104	0  	0.927104	0.927104
240	16    	0.927104	0  	0.927104	0.927104
241	16    	0.927104	0  	0.927104	0.927104
242	16    	0.927104	0  	0.927104	0.927104
243	16    	0.927104	0  	0.927104	0.927104
244	16    	0.927104	0  	0.927104	0.927104
245	16    	0.927104	0  	0.927104	0.927104
246	16    	0.927104	0  	0.927104	0.927104
247	16    	0.927104	0  	0.927104	0.927104
248	16    	0.927104	0  	0.927104	0.927104
249	16    	0.927104	0  	0.927104	0.927104
250	16    	0.927104	0  	0.927104	0.927104
251	16    	0.927104	0  	0.927104	0.927104
252	16    	0.927104	0  	0.927104	0.927104
253	16    	0.927104	0  	0.927104	0.927104
254	16    	0.927104	0  	0.927104	0.927104
255	16    	0.927104	0  	0.927104	0.927104
256	16    	0.927104	0  	0.927104	0.927104
257	16    	0.927104	0  	0.927104	0.927104
258	16    	0.927104	0  	0.927104	0.927104
259	16    	0.927104	0  	0.927104	0.927104
260	16    	0.927104	0  	0.927104	0.927104
261	16    	0.927104	0  	0.927104	0.927104
262	16    	0.927104	0  	0.927104	0.927104
263	16    	0.927104	0  	0.927104	0.927104
264	16    	0.927104	0  	0.927104	0.927104
265	16    	0.927104	0  	0.927104	0.927104
266	16    	0.927104	0  	0.927104	0.927104
267	16    	0.927104	0  	0.927104	0.927104
268	16    	0.927104	0  	0.927104	0.927104
269	16    	0.927104	0  	0.927104	0.927104
270	16    	0.927104	0  	0.927104	0.927104
271	16    	0.927104	0  	0.927104	0.927104
272	16    	0.927104	0  	0.927104	0.927104
273	16    	0.927104	0  	0.927104	0.927104
274	16    	0.927104	0  	0.927104	0.927104
275	16    	0.927104	0  	0.927104	0.927104
276	16    	0.927104	0  	0.927104	0.927104
277	16    	0.927104	0  	0.927104	0.927104
278	16    	0.927104	0  	0.927104	0.927104
279	16    	0.927104	0  	0.927104	0.927104
280	16    	0.927104	0  	0.927104	0.927104
281	16    	0.927104	0  	0.927104	0.927104
282	16    	0.927104	0  	0.927104	0.927104
283	16    	0.927104	0  	0.927104	0.927104
284	16    	0.927104	0  	0.927104	0.927104
285	16    	0.927104	0  	0.927104	0.927104
286	16    	0.927104	0  	0.927104	0.927104
287	16    	0.927104	0  	0.927104	0.927104
288	16    	0.927104	0  	0.927104	0.927104
289	16    	0.927157	0  	0.927157	0.927157
290	16    	0.927157	0  	0.927157	0.927157
291	16    	0.927157	0  	0.927157	0.927157
292	16    	0.927157	0  	0.927157	0.927157
293	16    	0.927157	0  	0.927157	0.927157
294	16    	0.927157	0  	0.927157	0.927157
295	16    	0.927157	0  	0.927157	0.927157
296	16    	0.927157	0  	0.927157	0.927157
297	16    	0.927157	0  	0.927157	0.927157
298	16    	0.928013	0  	0.928013	0.928013
299	16    	0.928013	0  	0.928013	0.928013
300	16    	0.928013	0  	0.928013	0.928013
301	16    	0.928013	0  	0.928013	0.928013
302	16    	0.928013	0  	0.928013	0.928013
303	16    	0.928013	0  	0.928013	0.928013
304	16    	0.928013	0  	0.928013	0.928013
305	16    	0.928013	0  	0.928013	0.928013
306	16    	0.928013	0  	0.928013	0.928013
307	16    	0.928013	0  	0.928013	0.928013
308	16    	0.928013	0  	0.928013	0.928013
309	16    	0.928013	0  	0.928013	0.928013
310	16    	0.928013	0  	0.928013	0.928013
311	16    	0.928013	0  	0.928013	0.928013
312	16    	0.928769	0  	0.928769	0.928769
313	16    	0.928769	0  	0.928769	0.928769
314	16    	0.928769	0  	0.928769	0.928769
315	16    	0.928769	0  	0.928769	0.928769
316	16    	0.928769	0  	0.928769	0.928769
317	16    	0.928769	0  	0.928769	0.928769
318	16    	0.928769	0  	0.928769	0.928769
319	16    	0.928769	0  	0.928769	0.928769
320	16    	0.928769	0  	0.928769	0.928769
321	16    	0.928769	0  	0.928769	0.928769
322	16    	0.928769	0  	0.928769	0.928769
323	16    	0.928769	0  	0.928769	0.928769
324	16    	0.928769	0  	0.928769	0.928769
325	16    	0.928769	0  	0.928769	0.928769
326	16    	0.928769	0  	0.928769	0.928769
327	16    	0.928769	0  	0.928769	0.928769
328	16    	0.928769	0  	0.928769	0.928769
329	16    	0.928769	0  	0.928769	0.928769
330	16    	0.928769	0  	0.928769	0.928769
331	16    	0.928769	0  	0.928769	0.928769
332	16    	0.928769	0  	0.928769	0.928769
333	16    	0.928769	0  	0.928769	0.928769
334	16    	0.928769	0  	0.928769	0.928769
335	16    	0.928769	0  	0.928769	0.928769
336	16    	0.928769	0  	0.928769	0.928769
337	16    	0.928769	0  	0.928769	0.928769
338	16    	0.928769	0  	0.928769	0.928769
339	16    	0.928769	0  	0.928769	0.928769
340	16    	0.928958	0  	0.928958	0.928958
341	16    	0.928958	0  	0.928958	0.928958
342	16    	0.928958	0  	0.928958	0.928958
343	16    	0.928958	0  	0.928958	0.928958
344	16    	0.928958	0  	0.928958	0.928958
345	16    	0.928958	0  	0.928958	0.928958
346	16    	0.928958	0  	0.928958	0.928958
347	16    	0.928958	0  	0.928958	0.928958
348	16    	0.929681	0  	0.929681	0.929681
349	16    	0.929681	0  	0.929681	0.929681
350	16    	0.929681	0  	0.929681	0.929681
351	16    	0.929681	0  	0.929681	0.929681
352	16    	0.929681	0  	0.929681	0.929681
353	16    	0.929681	0  	0.929681	0.929681
354	16    	0.929681	0  	0.929681	0.929681
355	16    	0.929681	0  	0.929681	0.929681
356	16    	0.929681	0  	0.929681	0.929681
357	16    	0.929711	0  	0.929711	0.929711
358	16    	0.929711	0  	0.929711	0.929711
359	16    	0.929711	0  	0.929711	0.929711
360	16    	0.929711	0  	0.929711	0.929711
361	16    	0.929711	0  	0.929711	0.929711
362	16    	0.929711	0  	0.929711	0.929711
363	16    	0.929711	0  	0.929711	0.929711
364	16    	0.929711	0  	0.929711	0.929711
365	16    	0.929711	0  	0.929711	0.929711
366	16    	0.929711	0  	0.929711	0.929711
367	16    	0.929711	0  	0.929711	0.929711
368	16    	0.929711	0  	0.929711	0.929711
369	16    	0.929711	0  	0.929711	0.929711
370	16    	0.929711	0  	0.929711	0.929711
371	16    	0.929711	0  	0.929711	0.929711
372	16    	0.929711	0  	0.929711	0.929711
373	16    	0.929711	0  	0.929711	0.929711
374	16    	0.929711	0  	0.929711	0.929711
375	16    	0.929711	0  	0.929711	0.929711
376	16    	0.929711	0  	0.929711	0.929711
377	16    	0.929711	0  	0.929711	0.929711
378	16    	0.929711	0  	0.929711	0.929711
379	16    	0.929711	0  	0.929711	0.929711
380	16    	0.929711	0  	0.929711	0.929711
381	16    	0.929711	0  	0.929711	0.929711
382	16    	0.929711	0  	0.929711	0.929711
383	16    	0.929711	0  	0.929711	0.929711
384	16    	0.929711	0  	0.929711	0.929711
385	16    	0.929711	0  	0.929711	0.929711
386	16    	0.929711	0  	0.929711	0.929711
387	16    	0.929711	0  	0.929711	0.929711
388	16    	0.929711	0  	0.929711	0.929711
389	16    	0.929711	0  	0.929711	0.929711
390	16    	0.929711	0  	0.929711	0.929711
391	16    	0.929711	0  	0.929711	0.929711
392	16    	0.929711	0  	0.929711	0.929711
393	16    	0.929711	0  	0.929711	0.929711
394	16    	0.929711	0  	0.929711	0.929711
395	16    	0.929711	0  	0.929711	0.929711
396	16    	0.929711	0  	0.929711	0.929711
397	16    	0.929711	0  	0.929711	0.929711
398	16    	0.929711	0  	0.929711	0.929711
399	16    	0.929711	0  	0.929711	0.929711
400	16    	0.929711	0  	0.929711	0.929711
401	16    	0.929711	0  	0.929711	0.929711
402	16    	0.929711	0  	0.929711	0.929711
403	16    	0.929711	0  	0.929711	0.929711
404	16    	0.929711	0  	0.929711	0.929711
405	16    	0.929711	0  	0.929711	0.929711
406	16    	0.929711	0  	0.929711	0.929711
407	16    	0.929711	0  	0.929711	0.929711
408	16    	0.929711	0  	0.929711	0.929711
409	16    	0.929711	0  	0.929711	0.929711
410	16    	0.929711	0  	0.929711	0.929711
411	16    	0.929711	0  	0.929711	0.929711
412	16    	0.929711	0  	0.929711	0.929711
413	16    	0.929711	0  	0.929711	0.929711
414	16    	0.929711	0  	0.929711	0.929711
415	16    	0.929711	0  	0.929711	0.929711
416	16    	0.929711	0  	0.929711	0.929711
417	16    	0.929711	0  	0.929711	0.929711
418	16    	0.929711	0  	0.929711	0.929711
419	16    	0.929711	0  	0.929711	0.929711
420	16    	0.929711	0  	0.929711	0.929711
421	16    	0.929711	0  	0.929711	0.929711
422	16    	0.929711	0  	0.929711	0.929711
423	16    	0.929711	0  	0.929711	0.929711
424	16    	0.929711	0  	0.929711	0.929711
425	16    	0.929711	0  	0.929711	0.929711
426	16    	0.930142	0  	0.930142	0.930142
427	16    	0.930142	0  	0.930142	0.930142
428	16    	0.930142	0  	0.930142	0.930142
429	16    	0.930142	0  	0.930142	0.930142
430	16    	0.930142	0  	0.930142	0.930142
431	16    	0.930142	0  	0.930142	0.930142
432	16    	0.930142	0  	0.930142	0.930142
433	16    	0.930142	0  	0.930142	0.930142
434	16    	0.930142	0  	0.930142	0.930142
435	16    	0.930142	0  	0.930142	0.930142
436	16    	0.930142	0  	0.930142	0.930142
437	16    	0.930142	0  	0.930142	0.930142
438	16    	0.930142	0  	0.930142	0.930142
439	16    	0.930142	0  	0.930142	0.930142
440	16    	0.930142	0  	0.930142	0.930142
441	16    	0.930142	0  	0.930142	0.930142
442	16    	0.930142	0  	0.930142	0.930142
443	16    	0.930719	0  	0.930719	0.930719
444	16    	0.930719	0  	0.930719	0.930719
445	16    	0.930719	0  	0.930719	0.930719
446	16    	0.930719	0  	0.930719	0.930719
447	16    	0.930719	0  	0.930719	0.930719
448	16    	0.930719	0  	0.930719	0.930719
449	16    	0.930719	0  	0.930719	0.930719
450	16    	0.930719	0  	0.930719	0.930719
451	16    	0.930719	0  	0.930719	0.930719
452	16    	0.930719	0  	0.930719	0.930719
453	16    	0.930719	0  	0.930719	0.930719
454	16    	0.930719	0  	0.930719	0.930719
455	16    	0.930719	0  	0.930719	0.930719
456	16    	0.930719	0  	0.930719	0.930719
457	16    	0.930719	0  	0.930719	0.930719
458	16    	0.930719	0  	0.930719	0.930719
459	16    	0.930719	0  	0.930719	0.930719
460	16    	0.930719	0  	0.930719	0.930719
461	16    	0.930719	0  	0.930719	0.930719
462	16    	0.930719	0  	0.930719	0.930719
463	16    	0.930719	0  	0.930719	0.930719
464	16    	0.930719	0  	0.930719	0.930719
465	16    	0.930719	0  	0.930719	0.930719
466	16    	0.930719	0  	0.930719	0.930719
467	16    	0.930719	0  	0.930719	0.930719
468	16    	0.930719	0  	0.930719	0.930719
469	16    	0.930719	0  	0.930719	0.930719
470	16    	0.930719	0  	0.930719	0.930719
471	16    	0.930719	0  	0.930719	0.930719
472	16    	0.930719	0  	0.930719	0.930719
473	16    	0.931561	0  	0.931561	0.931561
474	16    	0.931561	0  	0.931561	0.931561
475	16    	0.932589	0  	0.932589	0.932589
476	16    	0.932589	0  	0.932589	0.932589
477	16    	0.932884	0  	0.932884	0.932884
478	16    	0.932884	0  	0.932884	0.932884
479	16    	0.932884	0  	0.932884	0.932884
480	16    	0.932884	0  	0.932884	0.932884
481	16    	0.932884	0  	0.932884	0.932884
482	16    	0.932884	0  	0.932884	0.932884
483	16    	0.932884	0  	0.932884	0.932884
484	16    	0.932884	0  	0.932884	0.932884
485	16    	0.932884	0  	0.932884	0.932884
486	16    	0.932884	0  	0.932884	0.932884
487	16    	0.932884	0  	0.932884	0.932884
488	16    	0.932884	0  	0.932884	0.932884
489	16    	0.932884	0  	0.932884	0.932884
490	16    	0.932884	0  	0.932884	0.932884
491	16    	0.932884	0  	0.932884	0.932884
492	16    	0.932884	0  	0.932884	0.932884
493	16    	0.932884	0  	0.932884	0.932884
494	16    	0.932884	0  	0.932884	0.932884
495	16    	0.932884	0  	0.932884	0.932884
496	16    	0.932884	0  	0.932884	0.932884
497	16    	0.932884	0  	0.932884	0.932884
498	16    	0.932884	0  	0.932884	0.932884
499	16    	0.932884	0  	0.932884	0.932884
500	16    	0.932884	0  	0.932884	0.932884
501	16    	0.932884	0  	0.932884	0.932884
502	16    	0.932884	0  	0.932884	0.932884
503	16    	0.932884	0  	0.932884	0.932884
504	16    	0.932884	0  	0.932884	0.932884
505	16    	0.932884	0  	0.932884	0.932884
506	16    	0.932884	0  	0.932884	0.932884
507	16    	0.932884	0  	0.932884	0.932884
508	16    	0.932884	0  	0.932884	0.932884
509	16    	0.932884	0  	0.932884	0.932884
510	16    	0.932884	0  	0.932884	0.932884
511	16    	0.932884	0  	0.932884	0.932884
512	16    	0.932884	0  	0.932884	0.932884
513	16    	0.932884	0  	0.932884	0.932884
514	16    	0.932884	0  	0.932884	0.932884
515	16    	0.932884	0  	0.932884	0.932884
516	16    	0.932884	0  	0.932884	0.932884
517	16    	0.932884	0  	0.932884	0.932884
518	16    	0.932884	0  	0.932884	0.932884
519	16    	0.932884	0  	0.932884	0.932884
520	16    	0.932884	0  	0.932884	0.932884
521	16    	0.932884	0  	0.932884	0.932884
522	16    	0.932884	0  	0.932884	0.932884
523	16    	0.932884	0  	0.932884	0.932884
524	16    	0.932884	0  	0.932884	0.932884
525	16    	0.932884	0  	0.932884	0.932884
526	16    	0.932884	0  	0.932884	0.932884
527	16    	0.932884	0  	0.932884	0.932884
528	16    	0.932884	0  	0.932884	0.932884
529	16    	0.932884	0  	0.932884	0.932884
530	16    	0.932884	0  	0.932884	0.932884
531	16    	0.932884	0  	0.932884	0.932884
532	16    	0.932884	0  	0.932884	0.932884
533	16    	0.932884	0  	0.932884	0.932884
534	16    	0.932884	0  	0.932884	0.932884
535	16    	0.932884	0  	0.932884	0.932884
536	16    	0.932884	0  	0.932884	0.932884
537	16    	0.932884	0  	0.932884	0.932884
538	16    	0.932884	0  	0.932884	0.932884
539	16    	0.932884	0  	0.932884	0.932884
540	16    	0.932884	0  	0.932884	0.932884
541	16    	0.932884	0  	0.932884	0.932884
542	16    	0.932884	0  	0.932884	0.932884
543	16    	0.932884	0  	0.932884	0.932884
544	16    	0.932884	0  	0.932884	0.932884
545	16    	0.932884	0  	0.932884	0.932884
546	16    	0.932884	0  	0.932884	0.932884
547	16    	0.932884	0  	0.932884	0.932884
548	16    	0.932884	0  	0.932884	0.932884
549	16    	0.932884	0  	0.932884	0.932884
550	16    	0.932884	0  	0.932884	0.932884
551	16    	0.932884	0  	0.932884	0.932884
552	16    	0.932884	0  	0.932884	0.932884
553	16    	0.932884	0  	0.932884	0.932884
554	16    	0.932884	0  	0.932884	0.932884
555	16    	0.932884	0  	0.932884	0.932884
556	16    	0.932884	0  	0.932884	0.932884
557	16    	0.932884	0  	0.932884	0.932884
558	16    	0.932884	0  	0.932884	0.932884
559	16    	0.932884	0  	0.932884	0.932884
560	16    	0.932884	0  	0.932884	0.932884
561	16    	0.932884	0  	0.932884	0.932884
562	16    	0.932884	0  	0.932884	0.932884
563	16    	0.932884	0  	0.932884	0.932884
564	16    	0.932884	0  	0.932884	0.932884
565	16    	0.932884	0  	0.932884	0.932884
566	16    	0.932884	0  	0.932884	0.932884
567	16    	0.932884	0  	0.932884	0.932884
568	16    	0.932884	0  	0.932884	0.932884
569	16    	0.932884	0  	0.932884	0.932884
570	16    	0.932884	0  	0.932884	0.932884
571	16    	0.932884	0  	0.932884	0.932884
572	16    	0.932884	0  	0.932884	0.932884
573	16    	0.932884	0  	0.932884	0.932884
574	16    	0.932884	0  	0.932884	0.932884
575	16    	0.932884	0  	0.932884	0.932884
576	16    	0.932884	0  	0.932884	0.932884
577	16    	0.932884	0  	0.932884	0.932884
578	16    	0.933166	0  	0.933166	0.933166
579	16    	0.933166	0  	0.933166	0.933166
580	16    	0.933166	0  	0.933166	0.933166
581	16    	0.933166	0  	0.933166	0.933166
582	16    	0.933166	0  	0.933166	0.933166
583	16    	0.933166	0  	0.933166	0.933166
584	16    	0.933166	0  	0.933166	0.933166
585	16    	0.933285	0  	0.933285	0.933285
586	16    	0.933285	0  	0.933285	0.933285
587	16    	0.933285	0  	0.933285	0.933285
588	16    	0.933285	0  	0.933285	0.933285
589	16    	0.933285	0  	0.933285	0.933285
590	16    	0.933285	0  	0.933285	0.933285
591	16    	0.933285	0  	0.933285	0.933285
592	16    	0.933285	0  	0.933285	0.933285
593	16    	0.933285	0  	0.933285	0.933285
594	16    	0.933285	0  	0.933285	0.933285
595	16    	0.933285	0  	0.933285	0.933285
596	16    	0.933285	0  	0.933285	0.933285
597	16    	0.933285	0  	0.933285	0.933285
598	16    	0.933285	0  	0.933285	0.933285
599	16    	0.933285	0  	0.933285	0.933285
600	16    	0.933285	0  	0.933285	0.933285
601	16    	0.933285	0  	0.933285	0.933285
602	16    	0.933285	0  	0.933285	0.933285
603	16    	0.933285	0  	0.933285	0.933285
604	16    	0.933285	0  	0.933285	0.933285
605	16    	0.933285	0  	0.933285	0.933285
606	16    	0.933285	0  	0.933285	0.933285
607	16    	0.933285	0  	0.933285	0.933285
608	16    	0.933285	0  	0.933285	0.933285
609	16    	0.933285	0  	0.933285	0.933285
610	16    	0.933285	0  	0.933285	0.933285
611	16    	0.933285	0  	0.933285	0.933285
612	16    	0.933285	0  	0.933285	0.933285
613	16    	0.933285	0  	0.933285	0.933285
614	16    	0.933285	0  	0.933285	0.933285
615	16    	0.933285	0  	0.933285	0.933285
616	16    	0.933285	0  	0.933285	0.933285
617	16    	0.933302	0  	0.933302	0.933302
618	16    	0.933726	0  	0.933726	0.933726
619	16    	0.933726	0  	0.933726	0.933726
620	16    	0.933726	0  	0.933726	0.933726
621	16    	0.934728	0  	0.934728	0.934728
622	16    	0.934728	0  	0.934728	0.934728
623	16    	0.93555 	0  	0.93555 	0.93555 
624	16    	0.93555 	0  	0.93555 	0.93555 
625	16    	0.93555 	0  	0.93555 	0.93555 