gen	nevals	avg     	std	min     	max     
0  	1     	0.813282	0  	0.813282	0.813282
1  	16    	0.813282	0  	0.813282	0.813282
2  	16    	0.823435	0  	0.823435	0.823435
3  	16    	0.828866	0  	0.828866	0.828866
4  	16    	0.833233	0  	0.833233	0.833233
5  	16    	0.833233	0  	0.833233	0.833233
6  	16    	0.833233	0  	0.833233	0.833233
7  	16    	0.833233	0  	0.833233	0.833233
8  	16    	0.833233	0  	0.833233	0.833233
9  	16    	0.833233	0  	0.833233	0.833233
10 	16    	0.833233	0  	0.833233	0.833233
11 	16    	0.833233	0  	0.833233	0.833233
12 	16    	0.835267	0  	0.835267	0.835267
13 	16    	0.835267	0  	0.835267	0.835267
14 	16    	0.835267	0  	0.835267	0.835267
15 	16    	0.839158	0  	0.839158	0.839158
16 	16    	0.839158	0  	0.839158	0.839158
17 	16    	0.839158	0  	0.839158	0.839158
18 	16    	0.839158	0  	0.839158	0.839158
19 	16    	0.839158	0  	0.839158	0.839158
20 	16    	0.839158	0  	0.839158	0.839158
21 	16    	0.839158	0  	0.839158	0.839158
22 	16    	0.84054 	0  	0.84054 	0.84054 
23 	16    	0.84054 	0  	0.84054 	0.84054 
24 	16    	0.84054 	0  	0.84054 	0.84054 
25 	16    	0.84054 	0  	0.84054 	0.84054 
26 	16    	0.84054 	0  	0.84054 	0.84054 
27 	16    	0.84054 	0  	0.84054 	0.84054 
28 	16    	0.842219	0  	0.842219	0.842219
29 	16    	0.842219	0  	0.842219	0.842219
30 	16    	0.84291 	0  	0.84291 	0.84291 
31 	16    	0.84291 	0  	0.84291 	0.84291 
32 	16    	0.84291 	0  	0.84291 	0.84291 
33 	16    	0.84291 	0  	0.84291 	0.84291 
34 	16    	0.84291 	0  	0.84291 	0.84291 
35 	16    	0.84291 	0  	0.84291 	0.84291 
36 	16    	0.84291 	0  	0.84291 	0.84291 
37 	16    	0.84291 	0  	0.84291 	0.84291 
38 	16    	0.84291 	0  	0.84291 	0.84291 
39 	16    	0.84291 	0  	0.84291 	0.84291 
40 	16    	0.84291 	0  	0.84291 	0.84291 
41 	16    	0.84291 	0  	0.84291 	0.84291 
42 	16    	0.84291 	0  	0.84291 	0.84291 
43 	16    	0.84291 	0  	0.84291 	0.84291 
44 	16    	0.84291 	0  	0.84291 	0.84291 
45 	16    	0.84291 	0  	0.84291 	0.84291 
46 	16    	0.84291 	0  	0.84291 	0.84291 
47 	16    	0.84291 	0  	0.84291 	0.84291 
48 	16    	0.84291 	0  	0.84291 	0.84291 
49 	16    	0.84291 	0  	0.84291 	0.84291 
50 	16    	0.84291 	0  	0.84291 	0.84291 
51 	16    	0.843106	0  	0.843106	0.843106
52 	16    	0.843106	0  	0.843106	0.843106
53 	16    	0.843106	0  	0.843106	0.843106
54 	16    	0.843106	0  	0.843106	0.843106
55 	16    	0.843106	0  	0.843106	0.843106
56 	16    	0.843106	0  	0.843106	0.843106
57 	16    	0.843106	0  	0.843106	0.843106
58 	16    	0.843106	0  	0.843106	0.843106
59 	16    	0.843106	0  	0.843106	0.843106
60 	16    	0.843106	0  	0.843106	0.843106
61 	16    	0.843106	0  	0.843106	0.843106
62 	16    	0.843404	0  	0.843404	0.843404
63 	16    	0.85143 	0  	0.85143 	0.85143 
64 	16    	0.85143 	0  	0.85143 	0.85143 
65 	16    	0.85143 	0  	0.85143 	0.85143 
66 	16    	0.85143 	0  	0.85143 	0.85143 
67 	16    	0.85143 	0  	0.85143 	0.85143 
68 	16    	0.85143 	0  	0.85143 	0.85143 
69 	16    	0.85143 	0  	0.85143 	0.85143 
70 	16    	0.85143 	0  	0.85143 	0.85143 
71 	16    	0.85143 	0  	0.85143 	0.85143 
72 	16    	0.85143 	0  	0.85143 	0.85143 
73 	16    	0.85143 	0  	0.85143 	0.85143 
74 	16    	0.85143 	0  	0.85143 	0.85143 
75 	16    	0.85143 	0  	0.85143 	0.85143 
76 	16    	0.85143 	0  	0.85143 	0.85143 
77 	16    	0.85143 	0  	0.85143 	0.85143 
78 	16    	0.85143 	0  	0.85143 	0.85143 
79 	16    	0.85143 	0  	0.85143 	0.85143 
80 	16    	0.85143 	0  	0.85143 	0.85143 
81 	16    	0.85143 	0  	0.85143 	0.85143 
82 	16    	0.85143 	0  	0.85143 	0.85143 
83 	16    	0.852941	0  	0.852941	0.852941
84 	16    	0.854304	0  	0.854304	0.854304
85 	16    	0.854304	0  	0.854304	0.854304
86 	16    	0.854304	0  	0.854304	0.854304
87 	16    	0.854304	0  	0.854304	0.854304
88 	16    	0.854304	0  	0.854304	0.854304
89 	16    	0.854304	0  	0.854304	0.854304
90 	16    	0.854733	0  	0.854733	0.854733
91 	16    	0.854733	0  	0.854733	0.854733
92 	16    	0.854733	0  	0.854733	0.854733
93 	16    	0.861722	0  	0.861722	0.861722
94 	16    	0.861722	0  	0.861722	0.861722
95 	16    	0.861722	0  	0.861722	0.861722
96 	16    	0.861722	0  	0.861722	0.861722
97 	16    	0.861722	0  	0.861722	0.861722
98 	16    	0.861722	0  	0.861722	0.861722
99 	16    	0.861722	0  	0.861722	0.861722
100	16    	0.861722	0  	0.861722	0.861722
101	16    	0.861722	0  	0.861722	0.861722
102	16    	0.861722	0  	0.861722	0.861722
103	16    	0.861722	0  	0.861722	0.861722
104	16    	0.861722	0  	0.861722	0.861722
105	16    	0.861722	0  	0.861722	0.861722
106	16    	0.861722	0  	0.861722	0.861722
107	16    	0.861722	0  	0.861722	0.861722
108	16    	0.861722	0  	0.861722	0.861722
109	16    	0.861722	0  	0.861722	0.861722
110	16    	0.861722	0  	0.861722	0.861722
111	16    	0.861722	0  	0.861722	0.861722
112	16    	0.861937	0  	0.861937	0.861937
113	16    	0.861937	0  	0.861937	0.861937
114	16    	0.861937	0  	0.861937	0.861937
115	16    	0.861937	0  	0.861937	0.861937
116	16    	0.861937	0  	0.861937	0.861937
117	16    	0.862693	0  	0.862693	0.862693
118	16    	0.862693	0  	0.862693	0.862693
119	16    	0.862693	0  	0.862693	0.862693
120	16    	0.862693	0  	0.862693	0.862693
121	16    	0.862693	0  	0.862693	0.862693
122	16    	0.862693	0  	0.862693	0.862693
123	16    	0.862693	0  	0.862693	0.862693
124	16    	0.862693	0  	0.862693	0.862693
125	16    	0.862693	0  	0.862693	0.862693
126	16    	0.862693	0  	0.862693	0.862693
127	16    	0.862693	0  	0.862693	0.862693
128	16    	0.862693	0  	0.862693	0.862693
129	16    	0.862693	0  	0.862693	0.862693
130	16    	0.862693	0  	0.862693	0.862693
131	16    	0.862693	0  	0.862693	0.862693
132	16    	0.862693	0  	0.862693	0.862693
133	16    	0.864307	0  	0.864307	0.864307
134	16    	0.864307	0  	0.864307	0.864307
135	16    	0.864307	0  	0.864307	0.864307
136	16    	0.864307	0  	0.864307	0.864307
137	16    	0.864307	0  	0.864307	0.864307
138	16    	0.864307	0  	0.864307	0.864307
139	16    	0.864307	0  	0.864307	0.864307
140	16    	0.864307	0  	0.864307	0.864307
141	16    	0.864307	0  	0.864307	0.864307
142	16    	0.867405	0  	0.867405	0.867405
143	16    	0.867405	0  	0.867405	0.867405
144	16    	0.867405	0  	0.867405	0.867405
145	16    	0.867405	0  	0.867405	0.867405
146	16    	0.867405	0  	0.867405	0.867405
147	16    	0.867405	0  	0.867405	0.867405
148	16    	0.867405	0  	0.867405	0.867405
149	16    	0.867405	0  	0.867405	0.867405
150	16    	0.867405	0  	0.867405	0.867405
151	16    	0.867405	0  	0.867405	0.867405
152	16    	0.867405	0  	0.867405	0.867405
153	16    	0.867405	0  	0.867405	0.867405
154	16    	0.867405	0  	0.867405	0.867405
155	16    	0.867405	0  	0.867405	0.867405
156	16    	0.867405	0  	0.867405	0.867405
157	16    	0.867405	0  	0.867405	0.867405
158	16    	0.867405	0  	0.867405	0.867405
159	16    	0.867405	0  	0.867405	0.867405
160	16    	0.867405	0  	0.867405	0.867405
161	16    	0.867405	0  	0.867405	0.867405
162	16    	0.867405	0  	0.867405	0.867405
163	16    	0.867405	0  	0.867405	0.867405
164	16    	0.868339	0  	0.868339	0.868339
165	16    	0.87111 	0  	0.87111 	0.87111 
166	16    	0.87111 	0  	0.87111 	0.87111 
167	16    	0.872631	0  	0.872631	0.872631
168	16    	0.872631	0  	0.872631	0.872631
169	16    	0.872631	0  	0.872631	0.872631
170	16    	0.872631	0  	0.872631	0.872631
171	16    	0.873471	0  	0.873471	0.873471
172	16    	0.873471	0  	0.873471	0.873471
173	16    	0.873471	0  	0.873471	0.873471
174	16    	0.873471	0  	0.873471	0.873471
175	16    	0.873471	0  	0.873471	0.873471
176	16    	0.873471	0  	0.873471	0.873471
177	16    	0.873471	0  	0.873471	0.873471
178	16    	0.873471	0  	0.873471	0.873471
179	16    	0.873471	0  	0.873471	0.873471
180	16    	0.873471	0  	0.873471	0.873471
181	16    	0.873471	0  	0.873471	0.873471
182	16    	0.873471	0  	0.873471	0.873471
183	16    	0.873471	0  	0.873471	0.873471
184	16    	0.873471	0  	0.873471	0.873471
185	16    	0.873471	0  	0.873471	0.873471
186	16    	0.873471	0  	0.873471	0.873471
187	16    	0.873471	0  	0.873471	0.873471
188	16    	0.873471	0  	0.873471	0.873471
189	16    	0.873471	0  	0.873471	0.873471
190	16    	0.875151	0  	0.875151	0.875151
191	16    	0.875832	0  	0.875832	0.875832
192	16    	0.875832	0  	0.875832	0.875832
193	16    	0.875832	0  	0.875832	0.875832
194	16    	0.875832	0  	0.875832	0.875832
195	16    	0.875832	0  	0.875832	0.875832
196	16    	0.88145 	0  	0.88145 	0.88145 
197	16    	0.88145 	0  	0.88145 	0.88145 
198	16    	0.88145 	0  	0.88145 	0.88145 
199	16    	0.88145 	0  	0.88145 	0.88145 
200	16    	0.88145 	0  	0.88145 	0.88145 
201	16    	0.881608	0  	0.881608	0.881608
202	16    	0.881608	0  	0.881608	0.881608
203	16    	0.881608	0  	0.881608	0.881608
204	16    	0.881608	0  	0.881608	0.881608
205	16    	0.881608	0  	0.881608	0.881608
206	16    	0.881608	0  	0.881608	0.881608
207	16    	0.882653	0  	0.882653	0.882653
208	16    	0.882653	0  	0.882653	0.882653
209	16    	0.882653	0  	0.882653	0.882653
210	16    	0.882653	0  	0.882653	0.882653
211	16    	0.882653	0  	0.882653	0.882653
212	16    	0.882653	0  	0.882653	0.882653
213	16    	0.882653	0  	0.882653	0.882653
214	16    	0.882653	0  	0.882653	0.882653
215	16    	0.882653	0  	0.882653	0.882653
216	16    	0.882653	0  	0.882653	0.882653
217	16    	0.882653	0  	0.882653	0.882653
218	16    	0.882653	0  	0.882653	0.882653
219	16    	0.882653	0  	0.882653	0.882653
220	16    	0.882653	0  	0.882653	0.882653
221	16    	0.883269	0  	0.883269	0.883269
222	16    	0.883269	0  	0.883269	0.883269
223	16    	0.883269	0  	0.883269	0.883269
224	16    	0.885714	0  	0.885714	0.885714
225	16    	0.889437	0  	0.889437	0.889437
226	16    	0.889437	0  	0.889437	0.889437
227	16    	0.889437	0  	0.889437	0.889437
228	16    	0.889437	0  	0.889437	0.889437
229	16    	0.889437	0  	0.889437	0.889437
230	16    	0.889437	0  	0.889437	0.889437
231	16    	0.893357	0  	0.893357	0.893357
232	16    	0.893357	0  	0.893357	0.893357
233	16    	0.893357	0  	0.893357	0.893357
234	16    	0.893357	0  	0.893357	0.893357
235	16    	0.895942	0  	0.895942	0.895942
236	16    	0.895942	0  	0.895942	0.895942
237	16    	0.895942	0  	0.895942	0.895942
238	16    	0.895942	0  	0.895942	0.895942
239	16    	0.896483	0  	0.896483	0.896483
240	16    	0.896483	0  	0.896483	0.896483
241	16    	0.896483	0  	0.896483	0.896483
242	16    	0.896483	0  	0.896483	0.896483
243	16    	0.896483	0  	0.896483	0.896483
244	16    	0.896483	0  	0.896483	0.896483
245	16    	0.896483	0  	0.896483	0.896483
246	16    	0.896483	0  	0.896483	0.896483
247	16    	0.896483	0  	0.896483	0.896483
248	16    	0.896483	0  	0.896483	0.896483
249	16    	0.896483	0  	0.896483	0.896483
250	16    	0.896483	0  	0.896483	0.896483
251	16    	0.896483	0  	0.896483	0.896483
252	16    	0.896483	0  	0.896483	0.896483
253	16    	0.896483	0  	0.896483	0.896483
254	16    	0.896483	0  	0.896483	0.896483
255	16    	0.898004	0  	0.898004	0.898004
256	16    	0.898004	0  	0.898004	0.898004
257	16    	0.898004	0  	0.898004	0.898004
258	16    	0.898004	0  	0.898004	0.898004
259	16    	0.898004	0  	0.898004	0.898004
260	16    	0.898004	0  	0.898004	0.898004
261	16    	0.898004	0  	0.898004	0.898004
262	16    	0.898004	0  	0.898004	0.898004
263	16    	0.898004	0  	0.898004	0.898004
264	16    	0.898004	0  	0.898004	0.898004
265	16    	0.898004	0  	0.898004	0.898004
266	16    	0.898004	0  	0.898004	0.898004
267	16    	0.898004	0  	0.898004	0.898004
268	16    	0.898004	0  	0.898004	0.898004
269	16    	0.898004	0  	0.898004	0.898004
270	16    	0.898004	0  	0.898004	0.898004
271	16    	0.898004	0  	0.898004	0.898004
272	16    	0.898004	0  	0.898004	0.898004
273	16    	0.899217	0  	0.899217	0.899217
274	16    	0.900029	0  	0.900029	0.900029
275	16    	0.900029	0  	0.900029	0.900029
276	16    	0.900029	0  	0.900029	0.900029
277	16    	0.900029	0  	0.900029	0.900029
278	16    	0.900029	0  	0.900029	0.900029
279	16    	0.900029	0  	0.900029	0.900029
280	16    	0.900029	0  	0.900029	0.900029
281	16    	0.900029	0  	0.900029	0.900029
282	16    	0.900029	0  	0.900029	0.900029
283	16    	0.900029	0  	0.900029	0.900029
284	16    	0.900029	0  	0.900029	0.900029
285	16    	0.900029	0  	0.900029	0.900029
286	16    	0.900029	0  	0.900029	0.900029
287	16    	0.900029	0  	0.900029	0.900029
288	16    	0.900029	0  	0.900029	0.900029
289	16    	0.900029	0  	0.900029	0.900029
290	16    	0.900029	0  	0.900029	0.900029
291	16    	0.900029	0  	0.900029	0.900029
292	16    	0.900029	0  	0.900029	0.900029
293	16    	0.900029	0  	0.900029	0.900029
294	16    	0.900029	0  	0.900029	0.900029
295	16    	0.900029	0  	0.900029	0.900029
296	16    	0.900029	0  	0.900029	0.900029
297	16    	0.900029	0  	0.900029	0.900029
298	16    	0.900029	0  	0.900029	0.900029
299	16    	0.900029	0  	0.900029	0.900029
300	16    	0.900029	0  	0.900029	0.900029
301	16    	0.900029	0  	0.900029	0.900029
302	16    	0.900029	0  	0.900029	0.900029
303	16    	0.900029	0  	0.900029	0.900029
304	16    	0.900029	0  	0.900029	0.900029
305	16    	0.900029	0  	0.900029	0.900029
306	16    	0.900029	0  	0.900029	0.900029
307	16    	0.900029	0  	0.900029	0.900029
308	16    	0.900029	0  	0.900029	0.900029
309	16    	0.900654	0  	0.900654	0.900654
310	16    	0.900654	0  	0.900654	0.900654
311	16    	0.900654	0  	0.900654	0.900654
312	16    	0.900654	0  	0.900654	0.900654
313	16    	0.900654	0  	0.900654	0.900654
314	16    	0.900654	0  	0.900654	0.900654
315	16    	0.900654	0  	0.900654	0.900654
316	16    	0.900654	0  	0.900654	0.900654
317	16    	0.900654	0  	0.900654	0.900654
318	16    	0.900654	0  	0.900654	0.900654
319	16    	0.900654	0  	0.900654	0.900654
320	16    	0.900654	0  	0.900654	0.900654
321	16    	0.900654	0  	0.900654	0.900654
322	16    	0.900654	0  	0.900654	0.900654
323	16    	0.900654	0  	0.900654	0.900654
324	16    	0.900654	0  	0.900654	0.900654
325	16    	0.902931	0  	0.902931	0.902931
326	16    	0.902931	0  	0.902931	0.902931
327	16    	0.902931	0  	0.902931	0.902931
328	16    	0.902931	0  	0.902931	0.902931
329	16    	0.902931	0  	0.902931	0.902931
330	16    	0.902931	0  	0.902931	0.902931
331	16    	0.902931	0  	0.902931	0.902931
332	16    	0.902931	0  	0.902931	0.902931
333	16    	0.902931	0  	0.902931	0.902931
334	16    	0.902931	0  	0.902931	0.902931
335	16    	0.902931	0  	0.902931	0.902931
336	16    	0.902931	0  	0.902931	0.902931
337	16    	0.902931	0  	0.902931	0.902931
338	16    	0.902931	0  	0.902931	0.902931
339	16    	0.902931	0  	0.902931	0.902931
340	16    	0.902931	0  	0.902931	0.902931
341	16    	0.902931	0  	0.902931	0.902931
342	16    	0.902931	0  	0.902931	0.902931
343	16    	0.902931	0  	0.902931	0.902931
344	16    	0.902931	0  	0.902931	0.902931
345	16    	0.902931	0  	0.902931	0.902931
346	16    	0.902931	0  	0.902931	0.902931
347	16    	0.902931	0  	0.902931	0.902931
348	16    	0.902931	0  	0.902931	0.902931
349	16    	0.902931	0  	0.902931	0.902931
350	16    	0.902931	0  	0.902931	0.902931
351	16    	0.902931	0  	0.902931	0.902931
352	16    	0.902931	0  	0.902931	0.902931
353	16    	0.902931	0  	0.902931	0.902931
354	16    	0.902931	0  	0.902931	0.902931
355	16    	0.902931	0  	0.902931	0.902931
356	16    	0.902931	0  	0.902931	0.902931
357	16    	0.902931	0  	0.902931	0.902931
358	16    	0.902931	0  	0.902931	0.902931
359	16    	0.902931	0  	0.902931	0.902931
360	16    	0.902931	0  	0.902931	0.902931
361	16    	0.902931	0  	0.902931	0.902931
362	16    	0.902931	0  	0.902931	0.902931
363	16    	0.902931	0  	0.902931	0.902931
364	16    	0.902931	0  	0.902931	0.902931
365	16    	0.902931	0  	0.902931	0.902931
366	16    	0.902931	0  	0.902931	0.902931
367	16    	0.902931	0  	0.902931	0.902931
368	16    	0.902931	0  	0.902931	0.902931
369	16    	0.902931	0  	0.902931	0.902931
370	16    	0.902931	0  	0.902931	0.902931
371	16    	0.902931	0  	0.902931	0.902931
372	16    	0.903902	0  	0.903902	0.903902
373	16    	0.903902	0  	0.903902	0.903902
374	16    	0.903902	0  	0.903902	0.903902
375	16    	0.903902	0  	0.903902	0.903902
376	16    	0.903902	0  	0.903902	0.903902
377	16    	0.904611	0  	0.904611	0.904611
378	16    	0.904611	0  	0.904611	0.904611
379	16    	0.904611	0  	0.904611	0.904611
380	16    	0.904611	0  	0.904611	0.904611
381	16    	0.904611	0  	0.904611	0.904611
382	16    	0.904611	0  	0.904611	0.904611
383	16    	0.904611	0  	0.904611	0.904611
384	16    	0.904611	0  	0.904611	0.904611
385	16    	0.904611	0  	0.904611	0.904611
386	16    	0.904611	0  	0.904611	0.904611
387	16    	0.904611	0  	0.904611	0.904611
388	16    	0.904611	0  	0.904611	0.904611
389	16    	0.904611	0  	0.904611	0.904611
390	16    	0.904611	0  	0.904611	0.904611
391	16    	0.904611	0  	0.904611	0.904611
392	16    	0.904611	0  	0.904611	0.904611
393	16    	0.904611	0  	0.904611	0.904611
394	16    	0.904611	0  	0.904611	0.904611
395	16    	0.904611	0  	0.904611	0.904611
396	16    	0.904611	0  	0.904611	0.904611
397	16    	0.904611	0  	0.904611	0.904611
398	16    	0.904611	0  	0.904611	0.904611
399	16    	0.904611	0  	0.904611	0.904611
400	16    	0.904611	0  	0.904611	0.904611
401	16    	0.904611	0  	0.904611	0.904611
402	16    	0.904611	0  	0.904611	0.904611
403	16    	0.904611	0  	0.904611	0.904611
404	16    	0.904611	0  	0.904611	0.904611
405	16    	0.904611	0  	0.904611	0.904611
406	16    	0.904611	0  	0.904611	0.904611
407	16    	0.904611	0  	0.904611	0.904611
408	16    	0.904611	0  	0.904611	0.904611
409	16    	0.904611	0  	0.904611	0.904611
410	16    	0.904611	0  	0.904611	0.904611
411	16    	0.904611	0  	0.904611	0.904611
412	16    	0.904611	0  	0.904611	0.904611
413	16    	0.904611	0  	0.904611	0.904611
414	16    	0.905133	0  	0.905133	0.905133
415	16    	0.905133	0  	0.905133	0.905133
416	16    	0.905133	0  	0.905133	0.905133
417	16    	0.905133	0  	0.905133	0.905133
418	16    	0.905133	0  	0.905133	0.905133
419	16    	0.905133	0  	0.905133	0.905133
420	16    	0.905133	0  	0.905133	0.905133
421	16    	0.90783 	0  	0.90783 	0.90783 
422	16    	0.90783 	0  	0.90783 	0.90783 
423	16    	0.90783 	0  	0.90783 	0.90783 
424	16    	0.90783 	0  	0.90783 	0.90783 
425	16    	0.90783 	0  	0.90783 	0.90783 
426	16    	0.90783 	0  	0.90783 	0.90783 
427	16    	0.90783 	0  	0.90783 	0.90783 
428	16    	0.90783 	0  	0.90783 	0.90783 
429	16    	0.90783 	0  	0.90783 	0.90783 
430	16    	0.90783 	0  	0.90783 	0.90783 
431	16    	0.90783 	0  	0.90783 	0.90783 
432	16    	0.90783 	0  	0.90783 	0.90783 
433	16    	0.91133 	0  	0.91133 	0.91133 
434	16    	0.91133 	0  	0.91133 	0.91133 
435	16    	0.91133 	0  	0.91133 	0.91133 
436	16    	0.91133 	0  	0.91133 	0.91133 
437	16    	0.91133 	0  	0.91133 	0.91133 
438	16    	0.91133 	0  	0.91133 	0.91133 
439	16    	0.91133 	0  	0.91133 	0.91133 
440	16    	0.91133 	0  	0.91133 	0.91133 
441	16    	0.91133 	0  	0.91133 	0.91133 
442	16    	0.91133 	0  	0.91133 	0.91133 
443	16    	0.91133 	0  	0.91133 	0.91133 
444	16    	0.91133 	0  	0.91133 	0.91133 
445	16    	0.91133 	0  	0.91133 	0.91133 
446	16    	0.91133 	0  	0.91133 	0.91133 
447	16    	0.91133 	0  	0.91133 	0.91133 
448	16    	0.91133 	0  	0.91133 	0.91133 
449	16    	0.91133 	0  	0.91133 	0.91133 
450	16    	0.91133 	0  	0.91133 	0.91133 
451	16    	0.91133 	0  	0.91133 	0.91133 
452	16    	0.91133 	0  	0.91133 	0.91133 
453	16    	0.91133 	0  	0.91133 	0.91133 
454	16    	0.91133 	0  	0.91133 	0.91133 
455	16    	0.91133 	0  	0.91133 	0.91133 
456	16    	0.91133 	0  	0.91133 	0.91133 
457	16    	0.91133 	0  	0.91133 	0.91133 
458	16    	0.91133 	0  	0.91133 	0.91133 
459	16    	0.91133 	0  	0.91133 	0.91133 
460	16    	0.91133 	0  	0.91133 	0.91133 
461	16    	0.91133 	0  	0.91133 	0.91133 
462	16    	0.91133 	0  	0.91133 	0.91133 
463	16    	0.91133 	0  	0.91133 	0.91133 
464	16    	0.911367	0  	0.911367	0.911367
465	16    	0.911367	0  	0.911367	0.911367
466	16    	0.911367	0  	0.911367	0.911367
467	16    	0.911367	0  	0.911367	0.911367
468	16    	0.911367	0  	0.911367	0.911367
469	16    	0.911367	0  	0.911367	0.911367
470	16    	0.911367	0  	0.911367	0.911367
471	16    	0.911367	0  	0.911367	0.911367
472	16    	0.911367	0  	0.911367	0.911367
473	16    	0.911367	0  	0.911367	0.911367
474	16    	0.911367	0  	0.911367	0.911367
475	16    	0.911367	0  	0.911367	0.911367
476	16    	0.911367	0  	0.911367	0.911367
477	16    	0.911367	0  	0.911367	0.911367
478	16    	0.911367	0  	0.911367	0.911367
479	16    	0.911367	0  	0.911367	0.911367
480	16    	0.911367	0  	0.911367	0.911367
481	16    	0.911367	0  	0.911367	0.911367
482	16    	0.911367	0  	0.911367	0.911367
483	16    	0.911367	0  	0.911367	0.911367
484	16    	0.911367	0  	0.911367	0.911367
485	16    	0.911367	0  	0.911367	0.911367
486	16    	0.911367	0  	0.911367	0.911367
487	16    	0.911367	0  	0.911367	0.911367
488	16    	0.911367	0  	0.911367	0.911367
489	16    	0.911367	0  	0.911367	0.911367
490	16    	0.911367	0  	0.911367	0.911367
491	16    	0.911367	0  	0.911367	0.911367
492	16    	0.911367	0  	0.911367	0.911367
493	16    	0.911367	0  	0.911367	0.911367
494	16    	0.911367	0  	0.911367	0.911367
495	16    	0.911367	0  	0.911367	0.911367
496	16    	0.911367	0  	0.911367	0.911367
497	16    	0.911367	0  	0.911367	0.911367
498	16    	0.911367	0  	0.911367	0.911367
499	16    	0.911367	0  	0.911367	0.911367
500	16    	0.911367	0  	0.911367	0.911367
501	16    	0.911367	0  	0.911367	0.911367
502	16    	0.911367	0  	0.911367	0.911367
503	16    	0.911367	0  	0.911367	0.911367
504	16    	0.911367	0  	0.911367	0.911367
505	16    	0.911367	0  	0.911367	0.911367
506	16    	0.911367	0  	0.911367	0.911367
507	16    	0.911367	0  	0.911367	0.911367
508	16    	0.911367	0  	0.911367	0.911367
509	16    	0.911367	0  	0.911367	0.911367
510	16    	0.911367	0  	0.911367	0.911367
511	16    	0.911367	0  	0.911367	0.911367
512	16    	0.911367	0  	0.911367	0.911367
513	16    	0.911367	0  	0.911367	0.911367
514	16    	0.911367	0  	0.911367	0.911367
515	16    	0.913765	0  	0.913765	0.913765
516	16    	0.913765	0  	0.913765	0.913765
517	16    	0.913765	0  	0.913765	0.913765
518	16    	0.913765	0  	0.913765	0.913765
519	16    	0.913765	0  	0.913765	0.913765
520	16    	0.913765	0  	0.913765	0.913765
521	16    	0.913765	0  	0.913765	0.913765
522	16    	0.913765	0  	0.913765	0.913765
523	16    	0.913765	0  	0.913765	0.913765
524	16    	0.913765	0  	0.913765	0.913765
525	16    	0.913765	0  	0.913765	0.913765
526	16    	0.913765	0  	0.913765	0.913765
527	16    	0.913765	0  	0.913765	0.913765
528	16    	0.913765	0  	0.913765	0.913765
529	16    	0.913765	0  	0.913765	0.913765
530	16    	0.914129	0  	0.914129	0.914129
531	16    	0.914129	0  	0.914129	0.914129
532	16    	0.92137 	0  	0.92137 	0.92137 
533	16    	0.92137 	0  	0.92137 	0.92137 
534	16    	0.92137 	0  	0.92137 	0.92137 
535	16    	0.92137 	0  	0.92137 	0.92137 
536	16    	0.92137 	0  	0.92137 	0.92137 
537	16    	0.92137 	0  	0.92137 	0.92137 
538	16    	0.92137 	0  	0.92137 	0.92137 
539	16    	0.92137 	0  	0.92137 	0.92137 
540	16    	0.92137 	0  	0.92137 	0.92137 
541	16    	0.92137 	0  	0.92137 	0.92137 
542	16    	0.92137 	0  	0.92137 	0.92137 
543	16    	0.92137 	0  	0.92137 	0.92137 
544	16    	0.92137 	0  	0.92137 	0.92137 
545	16    	0.92137 	0  	0.92137 	0.92137 
546	16    	0.92137 	0  	0.92137 	0.92137 
547	16    	0.92137 	0  	0.92137 	0.92137 
548	16    	0.92137 	0  	0.92137 	0.92137 
549	16    	0.92137 	0  	0.92137 	0.92137 
550	16    	0.92137 	0  	0.92137 	0.92137 
551	16    	0.92137 	0  	0.92137 	0.92137 
552	16    	0.92137 	0  	0.92137 	0.92137 
553	16    	0.92137 	0  	0.92137 	0.92137 
554	16    	0.92137 	0  	0.92137 	0.92137 
555	16    	0.92137 	0  	0.92137 	0.92137 
556	16    	0.92137 	0  	0.92137 	0.92137 
557	16    	0.92137 	0  	0.92137 	0.92137 
558	16    	0.92137 	0  	0.92137 	0.92137 
559	16    	0.92137 	0  	0.92137 	0.92137 
560	16    	0.92137 	0  	0.92137 	0.92137 
561	16    	0.92137 	0  	0.92137 	0.92137 
562	16    	0.92137 	0  	0.92137 	0.92137 
563	16    	0.92137 	0  	0.92137 	0.92137 
564	16    	0.92137 	0  	0.92137 	0.92137 
565	16    	0.92137 	0  	0.92137 	0.92137 
566	16    	0.92137 	0  	0.92137 	0.92137 
567	16    	0.92137 	0  	0.92137 	0.92137 
568	16    	0.92137 	0  	0.92137 	0.92137 
569	16    	0.92137 	0  	0.92137 	0.92137 
570	16    	0.92137 	0  	0.92137 	0.92137 
571	16    	0.92137 	0  	0.92137 	0.92137 
572	16    	0.92137 	0  	0.92137 	0.92137 
573	16    	0.92137 	0  	0.92137 	0.92137 
574	16    	0.92137 	0  	0.92137 	0.92137 
575	16    	0.92137 	0  	0.92137 	0.92137 
576	16    	0.92137 	0  	0.92137 	0.92137 
577	16    	0.92137 	0  	0.92137 	0.92137 
578	16    	0.92137 	0  	0.92137 	0.92137 
579	16    	0.92137 	0  	0.92137 	0.92137 
580	16    	0.92137 	0  	0.92137 	0.92137 
581	16    	0.92137 	0  	0.92137 	0.92137 
582	16    	0.92137 	0  	0.92137 	0.92137 
583	16    	0.92137 	0  	0.92137 	0.92137 
584	16    	0.92137 	0  	0.92137 	0.92137 
585	16    	0.92137 	0  	0.92137 	0.92137 
586	16    	0.92137 	0  	0.92137 	0.92137 
587	16    	0.92137 	0  	0.92137 	0.92137 
588	16    	0.92137 	0  	0.92137 	0.92137 
589	16    	0.92137 	0  	0.92137 	0.92137 
590	16    	0.92137 	0  	0.92137 	0.92137 
591	16    	0.92137 	0  	0.92137 	0.92137 
592	16    	0.92137 	0  	0.92137 	0.92137 
593	16    	0.92137 	0  	0.92137 	0.92137 
594	16    	0.92137 	0  	0.92137 	0.92137 
595	16    	0.92137 	0  	0.92137 	0.92137 
596	16    	0.92137 	0  	0.92137 	0.92137 
597	16    	0.92137 	0  	0.92137 	0.92137 
598	16    	0.92137 	0  	0.92137 	0.92137 
599	16    	0.92137 	0  	0.92137 	0.92137 
600	16    	0.92137 	0  	0.92137 	0.92137 
601	16    	0.92137 	0  	0.92137 	0.92137 
602	16    	0.92137 	0  	0.92137 	0.92137 
603	16    	0.92137 	0  	0.92137 	0.92137 
604	16    	0.921912	0  	0.921912	0.921912
605	16    	0.921912	0  	0.921912	0.921912
606	16    	0.921912	0  	0.921912	0.921912
607	16    	0.921912	0  	0.921912	0.921912
608	16    	0.921912	0  	0.921912	0.921912
609	16    	0.921912	0  	0.921912	0.921912
610	16    	0.921912	0  	0.921912	0.921912
611	16    	0.921912	0  	0.921912	0.921912
612	16    	0.921912	0  	0.921912	0.921912
613	16    	0.921912	0  	0.921912	0.921912
614	16    	0.921912	0  	0.921912	0.921912
615	16    	0.921912	0  	0.921912	0.921912
616	16    	0.921912	0  	0.921912	0.921912
617	16    	0.921912	0  	0.921912	0.921912
618	16    	0.921912	0  	0.921912	0.921912
619	16    	0.921912	0  	0.921912	0.921912
620	16    	0.921912	0  	0.921912	0.921912
621	16    	0.923918	0  	0.923918	0.923918
622	16    	0.923918	0  	0.923918	0.923918
623	16    	0.923918	0  	0.923918	0.923918
624	16    	0.925803	0  	0.925803	0.925803
625	16    	0.925803	0  	0.925803	0.925803