gen	nevals	avg     	std	min     	max     
0  	1     	0.803579	0  	0.803579	0.803579
1  	16    	0.809631	0  	0.809631	0.809631
2  	16    	0.812308	0  	0.812308	0.812308
3  	16    	0.825349	0  	0.825349	0.825349
4  	16    	0.825349	0  	0.825349	0.825349
5  	16    	0.825349	0  	0.825349	0.825349
6  	16    	0.825349	0  	0.825349	0.825349
7  	16    	0.825349	0  	0.825349	0.825349
8  	16    	0.825349	0  	0.825349	0.825349
9  	16    	0.825349	0  	0.825349	0.825349
10 	16    	0.830868	0  	0.830868	0.830868
11 	16    	0.834133	0  	0.834133	0.834133
12 	16    	0.834133	0  	0.834133	0.834133
13 	16    	0.834133	0  	0.834133	0.834133
14 	16    	0.835843	0  	0.835843	0.835843
15 	16    	0.839495	0  	0.839495	0.839495
16 	16    	0.839495	0  	0.839495	0.839495
17 	16    	0.839495	0  	0.839495	0.839495
18 	16    	0.839495	0  	0.839495	0.839495
19 	16    	0.839495	0  	0.839495	0.839495
20 	16    	0.839495	0  	0.839495	0.839495
21 	16    	0.844305	0  	0.844305	0.844305
22 	16    	0.846411	0  	0.846411	0.846411
23 	16    	0.846411	0  	0.846411	0.846411
24 	16    	0.846411	0  	0.846411	0.846411
25 	16    	0.846411	0  	0.846411	0.846411
26 	16    	0.846411	0  	0.846411	0.846411
27 	16    	0.846411	0  	0.846411	0.846411
28 	16    	0.84826 	0  	0.84826 	0.84826 
29 	16    	0.848563	0  	0.848563	0.848563
30 	16    	0.848563	0  	0.848563	0.848563
31 	16    	0.848563	0  	0.848563	0.848563
32 	16    	0.848563	0  	0.848563	0.848563
33 	16    	0.848563	0  	0.848563	0.848563
34 	16    	0.848563	0  	0.848563	0.848563
35 	16    	0.848563	0  	0.848563	0.848563
36 	16    	0.848563	0  	0.848563	0.848563
37 	16    	0.848563	0  	0.848563	0.848563
38 	16    	0.848563	0  	0.848563	0.848563
39 	16    	0.848563	0  	0.848563	0.848563
40 	16    	0.850439	0  	0.850439	0.850439
41 	16    	0.850439	0  	0.850439	0.850439
42 	16    	0.850439	0  	0.850439	0.850439
43 	16    	0.850439	0  	0.850439	0.850439
44 	16    	0.850439	0  	0.850439	0.850439
45 	16    	0.850439	0  	0.850439	0.850439
46 	16    	0.850439	0  	0.850439	0.850439
47 	16    	0.850439	0  	0.850439	0.850439
48 	16    	0.850439	0  	0.850439	0.850439
49 	16    	0.850439	0  	0.850439	0.850439
50 	16    	0.850439	0  	0.850439	0.850439
51 	16    	0.850439	0  	0.850439	0.850439
52 	16    	0.850439	0  	0.850439	0.850439
53 	16    	0.850439	0  	0.850439	0.850439
54 	16    	0.850439	0  	0.850439	0.850439
55 	16    	0.850439	0  	0.850439	0.850439
56 	16    	0.850439	0  	0.850439	0.850439
57 	16    	0.85204 	0  	0.85204 	0.85204 
58 	16    	0.85204 	0  	0.85204 	0.85204 
59 	16    	0.85204 	0  	0.85204 	0.85204 
60 	16    	0.852325	0  	0.852325	0.852325
61 	16    	0.852325	0  	0.852325	0.852325
62 	16    	0.852325	0  	0.852325	0.852325
63 	16    	0.852325	0  	0.852325	0.852325
64 	16    	0.852325	0  	0.852325	0.852325
65 	16    	0.852325	0  	0.852325	0.852325
66 	16    	0.852325	0  	0.852325	0.852325
67 	16    	0.852325	0  	0.852325	0.852325
68 	16    	0.852325	0  	0.852325	0.852325
69 	16    	0.852325	0  	0.852325	0.852325
70 	16    	0.852325	0  	0.852325	0.852325
71 	16    	0.852325	0  	0.852325	0.852325
72 	16    	0.852325	0  	0.852325	0.852325
73 	16    	0.852325	0  	0.852325	0.852325
74 	16    	0.852325	0  	0.852325	0.852325
75 	16    	0.852325	0  	0.852325	0.852325
76 	16    	0.852325	0  	0.852325	0.852325
77 	16    	0.852325	0  	0.852325	0.852325
78 	16    	0.854284	0  	0.854284	0.854284
79 	16    	0.854284	0  	0.854284	0.854284
80 	16    	0.854284	0  	0.854284	0.854284
81 	16    	0.855056	0  	0.855056	0.855056
82 	16    	0.855056	0  	0.855056	0.855056
83 	16    	0.855286	0  	0.855286	0.855286
84 	16    	0.857061	0  	0.857061	0.857061
85 	16    	0.862368	0  	0.862368	0.862368
86 	16    	0.864759	0  	0.864759	0.864759
87 	16    	0.867353	0  	0.867353	0.867353
88 	16    	0.867353	0  	0.867353	0.867353
89 	16    	0.867353	0  	0.867353	0.867353
90 	16    	0.867353	0  	0.867353	0.867353
91 	16    	0.867353	0  	0.867353	0.867353
92 	16    	0.867353	0  	0.867353	0.867353
93 	16    	0.867353	0  	0.867353	0.867353
94 	16    	0.867353	0  	0.867353	0.867353
95 	16    	0.867353	0  	0.867353	0.867353
96 	16    	0.867353	0  	0.867353	0.867353
97 	16    	0.867353	0  	0.867353	0.867353
98 	16    	0.867353	0  	0.867353	0.867353
99 	16    	0.867353	0  	0.867353	0.867353
100	16    	0.867353	0  	0.867353	0.867353
101	16    	0.867353	0  	0.867353	0.867353
102	16    	0.867353	0  	0.867353	0.867353
103	16    	0.867353	0  	0.867353	0.867353
104	16    	0.867353	0  	0.867353	0.867353
105	16    	0.867353	0  	0.867353	0.867353
106	16    	0.867353	0  	0.867353	0.867353
107	16    	0.867353	0  	0.867353	0.867353
108	16    	0.867353	0  	0.867353	0.867353
109	16    	0.867353	0  	0.867353	0.867353
110	16    	0.867353	0  	0.867353	0.867353
111	16    	0.867353	0  	0.867353	0.867353
112	16    	0.867353	0  	0.867353	0.867353
113	16    	0.867353	0  	0.867353	0.867353
114	16    	0.867353	0  	0.867353	0.867353
115	16    	0.867353	0  	0.867353	0.867353
116	16    	0.867353	0  	0.867353	0.867353
117	16    	0.867353	0  	0.867353	0.867353
118	16    	0.867353	0  	0.867353	0.867353
119	16    	0.867353	0  	0.867353	0.867353
120	16    	0.867353	0  	0.867353	0.867353
121	16    	0.867353	0  	0.867353	0.867353
122	16    	0.867353	0  	0.867353	0.867353
123	16    	0.867353	0  	0.867353	0.867353
124	16    	0.867353	0  	0.867353	0.867353
125	16    	0.870885	0  	0.870885	0.870885
126	16    	0.870885	0  	0.870885	0.870885
127	16    	0.870885	0  	0.870885	0.870885
128	16    	0.870885	0  	0.870885	0.870885
129	16    	0.871611	0  	0.871611	0.871611
130	16    	0.871611	0  	0.871611	0.871611
131	16    	0.871611	0  	0.871611	0.871611
132	16    	0.871611	0  	0.871611	0.871611
133	16    	0.871611	0  	0.871611	0.871611
134	16    	0.872798	0  	0.872798	0.872798
135	16    	0.873285	0  	0.873285	0.873285
136	16    	0.882924	0  	0.882924	0.882924
137	16    	0.882924	0  	0.882924	0.882924
138	16    	0.882924	0  	0.882924	0.882924
139	16    	0.882924	0  	0.882924	0.882924
140	16    	0.882924	0  	0.882924	0.882924
141	16    	0.882924	0  	0.882924	0.882924
142	16    	0.882924	0  	0.882924	0.882924
143	16    	0.882924	0  	0.882924	0.882924
144	16    	0.882924	0  	0.882924	0.882924
145	16    	0.882924	0  	0.882924	0.882924
146	16    	0.882924	0  	0.882924	0.882924
147	16    	0.882924	0  	0.882924	0.882924
148	16    	0.883549	0  	0.883549	0.883549
149	16    	0.883549	0  	0.883549	0.883549
150	16    	0.883549	0  	0.883549	0.883549
151	16    	0.884947	0  	0.884947	0.884947
152	16    	0.884947	0  	0.884947	0.884947
153	16    	0.884947	0  	0.884947	0.884947
154	16    	0.884947	0  	0.884947	0.884947
155	16    	0.884947	0  	0.884947	0.884947
156	16    	0.884947	0  	0.884947	0.884947
157	16    	0.884947	0  	0.884947	0.884947
158	16    	0.884947	0  	0.884947	0.884947
159	16    	0.884947	0  	0.884947	0.884947
160	16    	0.884947	0  	0.884947	0.884947
161	16    	0.884947	0  	0.884947	0.884947
162	16    	0.884947	0  	0.884947	0.884947
163	16    	0.884947	0  	0.884947	0.884947
164	16    	0.884947	0  	0.884947	0.884947
165	16    	0.884947	0  	0.884947	0.884947
166	16    	0.884947	0  	0.884947	0.884947
167	16    	0.884947	0  	0.884947	0.884947
168	16    	0.884947	0  	0.884947	0.884947
169	16    	0.884947	0  	0.884947	0.884947
170	16    	0.884947	0  	0.884947	0.884947
171	16    	0.884947	0  	0.884947	0.884947
172	16    	0.884947	0  	0.884947	0.884947
173	16    	0.884947	0  	0.884947	0.884947
174	16    	0.884947	0  	0.884947	0.884947
175	16    	0.884947	0  	0.884947	0.884947
176	16    	0.884947	0  	0.884947	0.884947
177	16    	0.884947	0  	0.884947	0.884947
178	16    	0.884947	0  	0.884947	0.884947
179	16    	0.886566	0  	0.886566	0.886566
180	16    	0.886566	0  	0.886566	0.886566
181	16    	0.886566	0  	0.886566	0.886566
182	16    	0.886566	0  	0.886566	0.886566
183	16    	0.887449	0  	0.887449	0.887449
184	16    	0.890107	0  	0.890107	0.890107
185	16    	0.890686	0  	0.890686	0.890686
186	16    	0.890686	0  	0.890686	0.890686
187	16    	0.890686	0  	0.890686	0.890686
188	16    	0.890686	0  	0.890686	0.890686
189	16    	0.890686	0  	0.890686	0.890686
190	16    	0.890686	0  	0.890686	0.890686
191	16    	0.890686	0  	0.890686	0.890686
192	16    	0.890686	0  	0.890686	0.890686
193	16    	0.890686	0  	0.890686	0.890686
194	16    	0.890686	0  	0.890686	0.890686
195	16    	0.891707	0  	0.891707	0.891707
196	16    	0.891707	0  	0.891707	0.891707
197	16    	0.891707	0  	0.891707	0.891707
198	16    	0.891707	0  	0.891707	0.891707
199	16    	0.891707	0  	0.891707	0.891707
200	16    	0.891707	0  	0.891707	0.891707
201	16    	0.891707	0  	0.891707	0.891707
202	16    	0.891707	0  	0.891707	0.891707
203	16    	0.891707	0  	0.891707	0.891707
204	16    	0.891707	0  	0.891707	0.891707
205	16    	0.891707	0  	0.891707	0.891707
206	16    	0.891707	0  	0.891707	0.891707
207	16    	0.891707	0  	0.891707	0.891707
208	16    	0.891707	0  	0.891707	0.891707
209	16    	0.89271 	0  	0.89271 	0.89271 
210	16    	0.89271 	0  	0.89271 	0.89271 
211	16    	0.89271 	0  	0.89271 	0.89271 
212	16    	0.89271 	0  	0.89271 	0.89271 
213	16    	0.89271 	0  	0.89271 	0.89271 
214	16    	0.89271 	0  	0.89271 	0.89271 
215	16    	0.89271 	0  	0.89271 	0.89271 
216	16    	0.898918	0  	0.898918	0.898918
217	16    	0.898918	0  	0.898918	0.898918
218	16    	0.898918	0  	0.898918	0.898918
219	16    	0.898918	0  	0.898918	0.898918
220	16    	0.898918	0  	0.898918	0.898918
221	16    	0.898918	0  	0.898918	0.898918
222	16    	0.898918	0  	0.898918	0.898918
223	16    	0.898918	0  	0.898918	0.898918
224	16    	0.898918	0  	0.898918	0.898918
225	16    	0.898918	0  	0.898918	0.898918
226	16    	0.898918	0  	0.898918	0.898918
227	16    	0.898918	0  	0.898918	0.898918
228	16    	0.898918	0  	0.898918	0.898918
229	16    	0.898918	0  	0.898918	0.898918
230	16    	0.898918	0  	0.898918	0.898918
231	16    	0.898918	0  	0.898918	0.898918
232	16    	0.898918	0  	0.898918	0.898918
233	16    	0.898918	0  	0.898918	0.898918
234	16    	0.898918	0  	0.898918	0.898918
235	16    	0.898918	0  	0.898918	0.898918
236	16    	0.898918	0  	0.898918	0.898918
237	16    	0.898918	0  	0.898918	0.898918
238	16    	0.898918	0  	0.898918	0.898918
239	16    	0.898918	0  	0.898918	0.898918
240	16    	0.898918	0  	0.898918	0.898918
241	16    	0.898918	0  	0.898918	0.898918
242	16    	0.898918	0  	0.898918	0.898918
243	16    	0.898918	0  	0.898918	0.898918
244	16    	0.898918	0  	0.898918	0.898918
245	16    	0.898918	0  	0.898918	0.898918
246	16    	0.898918	0  	0.898918	0.898918
247	16    	0.898918	0  	0.898918	0.898918
248	16    	0.898918	0  	0.898918	0.898918
249	16    	0.898918	0  	0.898918	0.898918
250	16    	0.898918	0  	0.898918	0.898918
251	16    	0.898918	0  	0.898918	0.898918
252	16    	0.898918	0  	0.898918	0.898918
253	16    	0.898918	0  	0.898918	0.898918
254	16    	0.898918	0  	0.898918	0.898918
255	16    	0.898918	0  	0.898918	0.898918
256	16    	0.898918	0  	0.898918	0.898918
257	16    	0.898918	0  	0.898918	0.898918
258	16    	0.898918	0  	0.898918	0.898918
259	16    	0.898918	0  	0.898918	0.898918
260	16    	0.898918	0  	0.898918	0.898918
261	16    	0.898918	0  	0.898918	0.898918
262	16    	0.898918	0  	0.898918	0.898918
263	16    	0.898918	0  	0.898918	0.898918
264	16    	0.898918	0  	0.898918	0.898918
265	16    	0.898918	0  	0.898918	0.898918
266	16    	0.898918	0  	0.898918	0.898918
267	16    	0.898918	0  	0.898918	0.898918
268	16    	0.898918	0  	0.898918	0.898918
269	16    	0.898918	0  	0.898918	0.898918
270	16    	0.898918	0  	0.898918	0.898918
271	16    	0.898918	0  	0.898918	0.898918
272	16    	0.898918	0  	0.898918	0.898918
273	16    	0.898918	0  	0.898918	0.898918
274	16    	0.898918	0  	0.898918	0.898918
275	16    	0.898918	0  	0.898918	0.898918
276	16    	0.898918	0  	0.898918	0.898918
277	16    	0.898918	0  	0.898918	0.898918
278	16    	0.898918	0  	0.898918	0.898918
279	16    	0.898918	0  	0.898918	0.898918
280	16    	0.898918	0  	0.898918	0.898918
281	16    	0.898918	0  	0.898918	0.898918
282	16    	0.898918	0  	0.898918	0.898918
283	16    	0.898918	0  	0.898918	0.898918
284	16    	0.898918	0  	0.898918	0.898918
285	16    	0.898918	0  	0.898918	0.898918
286	16    	0.898918	0  	0.898918	0.898918
287	16    	0.898918	0  	0.898918	0.898918
288	16    	0.898918	0  	0.898918	0.898918
289	16    	0.898918	0  	0.898918	0.898918
290	16    	0.898918	0  	0.898918	0.898918
291	16    	0.898918	0  	0.898918	0.898918
292	16    	0.898918	0  	0.898918	0.898918
293	16    	0.898918	0  	0.898918	0.898918
294	16    	0.898918	0  	0.898918	0.898918
295	16    	0.898918	0  	0.898918	0.898918
296	16    	0.898918	0  	0.898918	0.898918
297	16    	0.898918	0  	0.898918	0.898918
298	16    	0.898918	0  	0.898918	0.898918
299	16    	0.898918	0  	0.898918	0.898918
300	16    	0.898918	0  	0.898918	0.898918
301	16    	0.898918	0  	0.898918	0.898918
302	16    	0.898918	0  	0.898918	0.898918
303	16    	0.898918	0  	0.898918	0.898918
304	16    	0.898918	0  	0.898918	0.898918
305	16    	0.898918	0  	0.898918	0.898918
306	16    	0.898918	0  	0.898918	0.898918
307	16    	0.898918	0  	0.898918	0.898918
308	16    	0.898918	0  	0.898918	0.898918
309	16    	0.898918	0  	0.898918	0.898918
310	16    	0.898918	0  	0.898918	0.898918
311	16    	0.898918	0  	0.898918	0.898918
312	16    	0.898918	0  	0.898918	0.898918
313	16    	0.898918	0  	0.898918	0.898918
314	16    	0.898918	0  	0.898918	0.898918
315	16    	0.898918	0  	0.898918	0.898918
316	16    	0.898918	0  	0.898918	0.898918
317	16    	0.898918	0  	0.898918	0.898918
318	16    	0.898918	0  	0.898918	0.898918
319	16    	0.898918	0  	0.898918	0.898918
320	16    	0.898918	0  	0.898918	0.898918
321	16    	0.898918	0  	0.898918	0.898918
322	16    	0.898918	0  	0.898918	0.898918
323	16    	0.898918	0  	0.898918	0.898918
324	16    	0.898918	0  	0.898918	0.898918
325	16    	0.898918	0  	0.898918	0.898918
326	16    	0.898918	0  	0.898918	0.898918
327	16    	0.898918	0  	0.898918	0.898918
328	16    	0.898918	0  	0.898918	0.898918
329	16    	0.898918	0  	0.898918	0.898918
330	16    	0.898918	0  	0.898918	0.898918
331	16    	0.898918	0  	0.898918	0.898918
332	16    	0.898918	0  	0.898918	0.898918
333	16    	0.898918	0  	0.898918	0.898918
334	16    	0.898918	0  	0.898918	0.898918
335	16    	0.898918	0  	0.898918	0.898918
336	16    	0.898918	0  	0.898918	0.898918
337	16    	0.898918	0  	0.898918	0.898918
338	16    	0.898918	0  	0.898918	0.898918
339	16    	0.898918	0  	0.898918	0.898918
340	16    	0.898918	0  	0.898918	0.898918
341	16    	0.898918	0  	0.898918	0.898918
342	16    	0.898918	0  	0.898918	0.898918
343	16    	0.898918	0  	0.898918	0.898918
344	16    	0.898918	0  	0.898918	0.898918
345	16    	0.898918	0  	0.898918	0.898918
346	16    	0.898918	0  	0.898918	0.898918
347	16    	0.898918	0  	0.898918	0.898918
348	16    	0.898918	0  	0.898918	0.898918
349	16    	0.898918	0  	0.898918	0.898918
350	16    	0.898918	0  	0.898918	0.898918
351	16    	0.898918	0  	0.898918	0.898918
352	16    	0.898918	0  	0.898918	0.898918
353	16    	0.898918	0  	0.898918	0.898918
354	16    	0.898918	0  	0.898918	0.898918
355	16    	0.898918	0  	0.898918	0.898918
356	16    	0.898918	0  	0.898918	0.898918
357	16    	0.898918	0  	0.898918	0.898918
358	16    	0.898918	0  	0.898918	0.898918
359	16    	0.898918	0  	0.898918	0.898918
360	16    	0.898918	0  	0.898918	0.898918
361	16    	0.898918	0  	0.898918	0.898918
362	16    	0.898918	0  	0.898918	0.898918
363	16    	0.898918	0  	0.898918	0.898918
364	16    	0.898918	0  	0.898918	0.898918
365	16    	0.898918	0  	0.898918	0.898918
366	16    	0.898918	0  	0.898918	0.898918
367	16    	0.898918	0  	0.898918	0.898918
368	16    	0.898918	0  	0.898918	0.898918
369	16    	0.898918	0  	0.898918	0.898918
370	16    	0.898918	0  	0.898918	0.898918
371	16    	0.898918	0  	0.898918	0.898918
372	16    	0.898918	0  	0.898918	0.898918
373	16    	0.898918	0  	0.898918	0.898918
374	16    	0.898918	0  	0.898918	0.898918
375	16    	0.898918	0  	0.898918	0.898918
376	16    	0.898918	0  	0.898918	0.898918
377	16    	0.898918	0  	0.898918	0.898918
378	16    	0.898918	0  	0.898918	0.898918
379	16    	0.898918	0  	0.898918	0.898918
380	16    	0.898918	0  	0.898918	0.898918
381	16    	0.898918	0  	0.898918	0.898918
382	16    	0.898918	0  	0.898918	0.898918
383	16    	0.898918	0  	0.898918	0.898918
384	16    	0.898918	0  	0.898918	0.898918
385	16    	0.898918	0  	0.898918	0.898918
386	16    	0.898918	0  	0.898918	0.898918
387	16    	0.898918	0  	0.898918	0.898918
388	16    	0.898918	0  	0.898918	0.898918
389	16    	0.898918	0  	0.898918	0.898918
390	16    	0.898918	0  	0.898918	0.898918
391	16    	0.898918	0  	0.898918	0.898918
392	16    	0.898918	0  	0.898918	0.898918
393	16    	0.898918	0  	0.898918	0.898918
394	16    	0.898918	0  	0.898918	0.898918
395	16    	0.898918	0  	0.898918	0.898918
396	16    	0.898918	0  	0.898918	0.898918
397	16    	0.898918	0  	0.898918	0.898918
398	16    	0.898918	0  	0.898918	0.898918
399	16    	0.898918	0  	0.898918	0.898918
400	16    	0.898918	0  	0.898918	0.898918
401	16    	0.898918	0  	0.898918	0.898918
402	16    	0.898918	0  	0.898918	0.898918
403	16    	0.898918	0  	0.898918	0.898918
404	16    	0.898918	0  	0.898918	0.898918
405	16    	0.898918	0  	0.898918	0.898918
406	16    	0.898918	0  	0.898918	0.898918
407	16    	0.898918	0  	0.898918	0.898918
408	16    	0.898918	0  	0.898918	0.898918
409	16    	0.898918	0  	0.898918	0.898918
410	16    	0.898918	0  	0.898918	0.898918
411	16    	0.898918	0  	0.898918	0.898918
412	16    	0.898918	0  	0.898918	0.898918
413	16    	0.898918	0  	0.898918	0.898918
414	16    	0.898918	0  	0.898918	0.898918
415	16    	0.898918	0  	0.898918	0.898918
416	16    	0.898918	0  	0.898918	0.898918
417	16    	0.898918	0  	0.898918	0.898918
418	16    	0.898918	0  	0.898918	0.898918
419	16    	0.898918	0  	0.898918	0.898918
420	16    	0.898918	0  	0.898918	0.898918
421	16    	0.898918	0  	0.898918	0.898918
422	16    	0.898918	0  	0.898918	0.898918
423	16    	0.898918	0  	0.898918	0.898918
424	16    	0.898918	0  	0.898918	0.898918
425	16    	0.898918	0  	0.898918	0.898918
426	16    	0.898918	0  	0.898918	0.898918
427	16    	0.898918	0  	0.898918	0.898918
428	16    	0.898918	0  	0.898918	0.898918
429	16    	0.898918	0  	0.898918	0.898918
430	16    	0.898918	0  	0.898918	0.898918
431	16    	0.898918	0  	0.898918	0.898918
432	16    	0.898918	0  	0.898918	0.898918
433	16    	0.898918	0  	0.898918	0.898918
434	16    	0.898918	0  	0.898918	0.898918
435	16    	0.898918	0  	0.898918	0.898918
436	16    	0.898918	0  	0.898918	0.898918
437	16    	0.898918	0  	0.898918	0.898918
438	16    	0.898918	0  	0.898918	0.898918
439	16    	0.898918	0  	0.898918	0.898918
440	16    	0.898918	0  	0.898918	0.898918
441	16    	0.898918	0  	0.898918	0.898918
442	16    	0.898918	0  	0.898918	0.898918
443	16    	0.898918	0  	0.898918	0.898918
444	16    	0.898918	0  	0.898918	0.898918
445	16    	0.898918	0  	0.898918	0.898918
446	16    	0.898918	0  	0.898918	0.898918
447	16    	0.898918	0  	0.898918	0.898918
448	16    	0.898918	0  	0.898918	0.898918
449	16    	0.898918	0  	0.898918	0.898918
450	16    	0.898918	0  	0.898918	0.898918
451	16    	0.898918	0  	0.898918	0.898918
452	16    	0.898918	0  	0.898918	0.898918
453	16    	0.898918	0  	0.898918	0.898918
454	16    	0.898918	0  	0.898918	0.898918
455	16    	0.898918	0  	0.898918	0.898918
456	16    	0.898918	0  	0.898918	0.898918
457	16    	0.898918	0  	0.898918	0.898918
458	16    	0.898918	0  	0.898918	0.898918
459	16    	0.898918	0  	0.898918	0.898918
460	16    	0.898918	0  	0.898918	0.898918
461	16    	0.898918	0  	0.898918	0.898918
462	16    	0.898918	0  	0.898918	0.898918
463	16    	0.898918	0  	0.898918	0.898918
464	16    	0.898918	0  	0.898918	0.898918
465	16    	0.898918	0  	0.898918	0.898918
466	16    	0.898918	0  	0.898918	0.898918
467	16    	0.898918	0  	0.898918	0.898918
468	16    	0.898918	0  	0.898918	0.898918
469	16    	0.898918	0  	0.898918	0.898918
470	16    	0.898918	0  	0.898918	0.898918
471	16    	0.898918	0  	0.898918	0.898918
472	16    	0.898918	0  	0.898918	0.898918
473	16    	0.898918	0  	0.898918	0.898918
474	16    	0.898918	0  	0.898918	0.898918
475	16    	0.898918	0  	0.898918	0.898918
476	16    	0.898918	0  	0.898918	0.898918
477	16    	0.898918	0  	0.898918	0.898918
478	16    	0.898918	0  	0.898918	0.898918
479	16    	0.898918	0  	0.898918	0.898918
480	16    	0.898918	0  	0.898918	0.898918
481	16    	0.898918	0  	0.898918	0.898918
482	16    	0.898918	0  	0.898918	0.898918
483	16    	0.898918	0  	0.898918	0.898918
484	16    	0.898918	0  	0.898918	0.898918
485	16    	0.898918	0  	0.898918	0.898918
486	16    	0.898918	0  	0.898918	0.898918
487	16    	0.898918	0  	0.898918	0.898918
488	16    	0.898918	0  	0.898918	0.898918
489	16    	0.898918	0  	0.898918	0.898918
490	16    	0.898918	0  	0.898918	0.898918
491	16    	0.898918	0  	0.898918	0.898918
492	16    	0.898918	0  	0.898918	0.898918
493	16    	0.898918	0  	0.898918	0.898918
494	16    	0.898918	0  	0.898918	0.898918
495	16    	0.898918	0  	0.898918	0.898918
496	16    	0.898918	0  	0.898918	0.898918
497	16    	0.898918	0  	0.898918	0.898918
498	16    	0.898918	0  	0.898918	0.898918
499	16    	0.898918	0  	0.898918	0.898918
500	16    	0.898918	0  	0.898918	0.898918
501	16    	0.898918	0  	0.898918	0.898918
502	16    	0.898918	0  	0.898918	0.898918
503	16    	0.898918	0  	0.898918	0.898918
504	16    	0.898918	0  	0.898918	0.898918
505	16    	0.898918	0  	0.898918	0.898918
506	16    	0.898918	0  	0.898918	0.898918
507	16    	0.898918	0  	0.898918	0.898918
508	16    	0.898918	0  	0.898918	0.898918
509	16    	0.898918	0  	0.898918	0.898918
510	16    	0.898918	0  	0.898918	0.898918
511	16    	0.898918	0  	0.898918	0.898918
512	16    	0.898918	0  	0.898918	0.898918
513	16    	0.898918	0  	0.898918	0.898918
514	16    	0.898918	0  	0.898918	0.898918
515	16    	0.898918	0  	0.898918	0.898918
516	16    	0.898918	0  	0.898918	0.898918
517	16    	0.898918	0  	0.898918	0.898918
518	16    	0.898918	0  	0.898918	0.898918
519	16    	0.898918	0  	0.898918	0.898918
520	16    	0.898918	0  	0.898918	0.898918
521	16    	0.898918	0  	0.898918	0.898918
522	16    	0.898918	0  	0.898918	0.898918
523	16    	0.898918	0  	0.898918	0.898918
524	16    	0.898918	0  	0.898918	0.898918
525	16    	0.898918	0  	0.898918	0.898918
526	16    	0.898918	0  	0.898918	0.898918
527	16    	0.898918	0  	0.898918	0.898918
528	16    	0.898918	0  	0.898918	0.898918
529	16    	0.898918	0  	0.898918	0.898918
530	16    	0.898918	0  	0.898918	0.898918
531	16    	0.898918	0  	0.898918	0.898918
532	16    	0.898918	0  	0.898918	0.898918
533	16    	0.898918	0  	0.898918	0.898918
534	16    	0.898918	0  	0.898918	0.898918
535	16    	0.898918	0  	0.898918	0.898918
536	16    	0.898918	0  	0.898918	0.898918
537	16    	0.898918	0  	0.898918	0.898918
538	16    	0.898918	0  	0.898918	0.898918
539	16    	0.898918	0  	0.898918	0.898918
540	16    	0.898918	0  	0.898918	0.898918
541	16    	0.898918	0  	0.898918	0.898918
542	16    	0.898918	0  	0.898918	0.898918
543	16    	0.898918	0  	0.898918	0.898918
544	16    	0.898918	0  	0.898918	0.898918
545	16    	0.898918	0  	0.898918	0.898918
546	16    	0.900215	0  	0.900215	0.900215
547	16    	0.900215	0  	0.900215	0.900215
548	16    	0.900215	0  	0.900215	0.900215
549	16    	0.900215	0  	0.900215	0.900215
550	16    	0.900215	0  	0.900215	0.900215
551	16    	0.900215	0  	0.900215	0.900215
552	16    	0.900215	0  	0.900215	0.900215
553	16    	0.900215	0  	0.900215	0.900215
554	16    	0.900215	0  	0.900215	0.900215
555	16    	0.900215	0  	0.900215	0.900215
556	16    	0.900215	0  	0.900215	0.900215
557	16    	0.900215	0  	0.900215	0.900215
558	16    	0.900215	0  	0.900215	0.900215
559	16    	0.900215	0  	0.900215	0.900215
560	16    	0.900215	0  	0.900215	0.900215
561	16    	0.900215	0  	0.900215	0.900215
562	16    	0.900215	0  	0.900215	0.900215
563	16    	0.900215	0  	0.900215	0.900215
564	16    	0.900215	0  	0.900215	0.900215
565	16    	0.900215	0  	0.900215	0.900215
566	16    	0.900215	0  	0.900215	0.900215
567	16    	0.900215	0  	0.900215	0.900215
568	16    	0.900215	0  	0.900215	0.900215
569	16    	0.900215	0  	0.900215	0.900215
570	16    	0.900215	0  	0.900215	0.900215
571	16    	0.900215	0  	0.900215	0.900215
572	16    	0.900215	0  	0.900215	0.900215
573	16    	0.900215	0  	0.900215	0.900215
574	16    	0.900215	0  	0.900215	0.900215
575	16    	0.900215	0  	0.900215	0.900215
576	16    	0.900215	0  	0.900215	0.900215
577	16    	0.900215	0  	0.900215	0.900215
578	16    	0.900215	0  	0.900215	0.900215
579	16    	0.900215	0  	0.900215	0.900215
580	16    	0.900215	0  	0.900215	0.900215
581	16    	0.900215	0  	0.900215	0.900215
582	16    	0.900215	0  	0.900215	0.900215
583	16    	0.900215	0  	0.900215	0.900215
584	16    	0.900215	0  	0.900215	0.900215
585	16    	0.900215	0  	0.900215	0.900215
586	16    	0.900215	0  	0.900215	0.900215
587	16    	0.900215	0  	0.900215	0.900215
588	16    	0.900215	0  	0.900215	0.900215
589	16    	0.900215	0  	0.900215	0.900215
590	16    	0.901475	0  	0.901475	0.901475
591	16    	0.902606	0  	0.902606	0.902606
592	16    	0.902606	0  	0.902606	0.902606
593	16    	0.902606	0  	0.902606	0.902606
594	16    	0.903378	0  	0.903378	0.903378
595	16    	0.903378	0  	0.903378	0.903378
596	16    	0.903378	0  	0.903378	0.903378
597	16    	0.903378	0  	0.903378	0.903378
598	16    	0.903378	0  	0.903378	0.903378
599	16    	0.903378	0  	0.903378	0.903378
600	16    	0.903378	0  	0.903378	0.903378
601	16    	0.903378	0  	0.903378	0.903378
602	16    	0.903378	0  	0.903378	0.903378
603	16    	0.903378	0  	0.903378	0.903378
604	16    	0.903378	0  	0.903378	0.903378
605	16    	0.903378	0  	0.903378	0.903378
606	16    	0.903378	0  	0.903378	0.903378
607	16    	0.903378	0  	0.903378	0.903378
608	16    	0.903378	0  	0.903378	0.903378
609	16    	0.903378	0  	0.903378	0.903378
610	16    	0.903378	0  	0.903378	0.903378
611	16    	0.903378	0  	0.903378	0.903378
612	16    	0.90485 	0  	0.90485 	0.90485 
613	16    	0.90485 	0  	0.90485 	0.90485 
614	16    	0.90485 	0  	0.90485 	0.90485 
615	16    	0.90485 	0  	0.90485 	0.90485 
616	16    	0.90485 	0  	0.90485 	0.90485 
617	16    	0.90485 	0  	0.90485 	0.90485 
618	16    	0.90485 	0  	0.90485 	0.90485 
619	16    	0.90485 	0  	0.90485 	0.90485 
620	16    	0.90485 	0  	0.90485 	0.90485 
621	16    	0.90485 	0  	0.90485 	0.90485 
622	16    	0.90485 	0  	0.90485 	0.90485 
623	16    	0.90485 	0  	0.90485 	0.90485 
624	16    	0.90485 	0  	0.90485 	0.90485 
625	16    	0.90485 	0  	0.90485 	0.90485 