gen	nevals	avg     	std	min     	max     
0  	1     	0.666411	0  	0.666411	0.666411
1  	16    	0.700063	0  	0.700063	0.700063
2  	16    	0.70235 	0  	0.70235 	0.70235 
3  	16    	0.707196	0  	0.707196	0.707196
4  	16    	0.707196	0  	0.707196	0.707196
5  	16    	0.713206	0  	0.713206	0.713206
6  	16    	0.713206	0  	0.713206	0.713206
7  	16    	0.713206	0  	0.713206	0.713206
8  	16    	0.713206	0  	0.713206	0.713206
9  	16    	0.720533	0  	0.720533	0.720533
10 	16    	0.720533	0  	0.720533	0.720533
11 	16    	0.723247	0  	0.723247	0.723247
12 	16    	0.723247	0  	0.723247	0.723247
13 	16    	0.723247	0  	0.723247	0.723247
14 	16    	0.723247	0  	0.723247	0.723247
15 	16    	0.723247	0  	0.723247	0.723247
16 	16    	0.75151 	0  	0.75151 	0.75151 
17 	16    	0.75151 	0  	0.75151 	0.75151 
18 	16    	0.75151 	0  	0.75151 	0.75151 
19 	16    	0.75151 	0  	0.75151 	0.75151 
20 	16    	0.75151 	0  	0.75151 	0.75151 
21 	16    	0.75151 	0  	0.75151 	0.75151 
22 	16    	0.75151 	0  	0.75151 	0.75151 
23 	16    	0.75151 	0  	0.75151 	0.75151 
24 	16    	0.75151 	0  	0.75151 	0.75151 
25 	16    	0.75151 	0  	0.75151 	0.75151 
26 	16    	0.75151 	0  	0.75151 	0.75151 
27 	16    	0.75151 	0  	0.75151 	0.75151 
28 	16    	0.75151 	0  	0.75151 	0.75151 
29 	16    	0.75151 	0  	0.75151 	0.75151 
30 	16    	0.75151 	0  	0.75151 	0.75151 
31 	16    	0.75151 	0  	0.75151 	0.75151 
32 	16    	0.75151 	0  	0.75151 	0.75151 
33 	16    	0.75151 	0  	0.75151 	0.75151 
34 	16    	0.75151 	0  	0.75151 	0.75151 
35 	16    	0.75151 	0  	0.75151 	0.75151 
36 	16    	0.75151 	0  	0.75151 	0.75151 
37 	16    	0.75151 	0  	0.75151 	0.75151 
38 	16    	0.75151 	0  	0.75151 	0.75151 
39 	16    	0.75151 	0  	0.75151 	0.75151 
40 	16    	0.752828	0  	0.752828	0.752828
41 	16    	0.752828	0  	0.752828	0.752828
42 	16    	0.752828	0  	0.752828	0.752828
43 	16    	0.752828	0  	0.752828	0.752828
44 	16    	0.752828	0  	0.752828	0.752828
45 	16    	0.752828	0  	0.752828	0.752828
46 	16    	0.752828	0  	0.752828	0.752828
47 	16    	0.752828	0  	0.752828	0.752828
48 	16    	0.758954	0  	0.758954	0.758954
49 	16    	0.758954	0  	0.758954	0.758954
50 	16    	0.758954	0  	0.758954	0.758954
51 	16    	0.758954	0  	0.758954	0.758954
52 	16    	0.772213	0  	0.772213	0.772213
53 	16    	0.772213	0  	0.772213	0.772213
54 	16    	0.772213	0  	0.772213	0.772213
55 	16    	0.772213	0  	0.772213	0.772213
56 	16    	0.772213	0  	0.772213	0.772213
57 	16    	0.772213	0  	0.772213	0.772213
58 	16    	0.772213	0  	0.772213	0.772213
59 	16    	0.772213	0  	0.772213	0.772213
60 	16    	0.772213	0  	0.772213	0.772213
61 	16    	0.772213	0  	0.772213	0.772213
62 	16    	0.772213	0  	0.772213	0.772213
63 	16    	0.772213	0  	0.772213	0.772213
64 	16    	0.772213	0  	0.772213	0.772213
65 	16    	0.772213	0  	0.772213	0.772213
66 	16    	0.772213	0  	0.772213	0.772213
67 	16    	0.772213	0  	0.772213	0.772213
68 	16    	0.772213	0  	0.772213	0.772213
69 	16    	0.772213	0  	0.772213	0.772213
70 	16    	0.774035	0  	0.774035	0.774035
71 	16    	0.774035	0  	0.774035	0.774035
72 	16    	0.786984	0  	0.786984	0.786984
73 	16    	0.786984	0  	0.786984	0.786984
74 	16    	0.786984	0  	0.786984	0.786984
75 	16    	0.786984	0  	0.786984	0.786984
76 	16    	0.786984	0  	0.786984	0.786984
77 	16    	0.786984	0  	0.786984	0.786984
78 	16    	0.786984	0  	0.786984	0.786984
79 	16    	0.786984	0  	0.786984	0.786984
80 	16    	0.786984	0  	0.786984	0.786984
81 	16    	0.790473	0  	0.790473	0.790473
82 	16    	0.795514	0  	0.795514	0.795514
83 	16    	0.795514	0  	0.795514	0.795514
84 	16    	0.795514	0  	0.795514	0.795514
85 	16    	0.805981	0  	0.805981	0.805981
86 	16    	0.805981	0  	0.805981	0.805981
87 	16    	0.825289	0  	0.825289	0.825289
88 	16    	0.825289	0  	0.825289	0.825289
89 	16    	0.825289	0  	0.825289	0.825289
90 	16    	0.825289	0  	0.825289	0.825289
91 	16    	0.825289	0  	0.825289	0.825289
92 	16    	0.825289	0  	0.825289	0.825289
93 	16    	0.825289	0  	0.825289	0.825289
94 	16    	0.825289	0  	0.825289	0.825289
95 	16    	0.825289	0  	0.825289	0.825289
96 	16    	0.825289	0  	0.825289	0.825289
97 	16    	0.825289	0  	0.825289	0.825289
98 	16    	0.825289	0  	0.825289	0.825289
99 	16    	0.825289	0  	0.825289	0.825289
100	16    	0.825289	0  	0.825289	0.825289
101	16    	0.825289	0  	0.825289	0.825289
102	16    	0.825289	0  	0.825289	0.825289
103	16    	0.825289	0  	0.825289	0.825289
104	16    	0.825289	0  	0.825289	0.825289
105	16    	0.825289	0  	0.825289	0.825289
106	16    	0.825289	0  	0.825289	0.825289
107	16    	0.825289	0  	0.825289	0.825289
108	16    	0.825289	0  	0.825289	0.825289
109	16    	0.825289	0  	0.825289	0.825289
110	16    	0.825289	0  	0.825289	0.825289
111	16    	0.825289	0  	0.825289	0.825289
112	16    	0.825289	0  	0.825289	0.825289
113	16    	0.825289	0  	0.825289	0.825289
114	16    	0.825289	0  	0.825289	0.825289
115	16    	0.835214	0  	0.835214	0.835214
116	16    	0.835214	0  	0.835214	0.835214
117	16    	0.835214	0  	0.835214	0.835214
118	16    	0.835214	0  	0.835214	0.835214
119	16    	0.835214	0  	0.835214	0.835214
120	16    	0.835214	0  	0.835214	0.835214
121	16    	0.835214	0  	0.835214	0.835214
122	16    	0.835214	0  	0.835214	0.835214
123	16    	0.835214	0  	0.835214	0.835214
124	16    	0.835214	0  	0.835214	0.835214
125	16    	0.835214	0  	0.835214	0.835214
126	16    	0.835214	0  	0.835214	0.835214
127	16    	0.835214	0  	0.835214	0.835214
128	16    	0.835214	0  	0.835214	0.835214
129	16    	0.835214	0  	0.835214	0.835214
130	16    	0.835214	0  	0.835214	0.835214
131	16    	0.835214	0  	0.835214	0.835214
132	16    	0.835214	0  	0.835214	0.835214
133	16    	0.835214	0  	0.835214	0.835214
134	16    	0.835214	0  	0.835214	0.835214
135	16    	0.835214	0  	0.835214	0.835214
136	16    	0.835214	0  	0.835214	0.835214
137	16    	0.835214	0  	0.835214	0.835214
138	16    	0.835214	0  	0.835214	0.835214
139	16    	0.835214	0  	0.835214	0.835214
140	16    	0.835214	0  	0.835214	0.835214
141	16    	0.835214	0  	0.835214	0.835214
142	16    	0.835214	0  	0.835214	0.835214
143	16    	0.835214	0  	0.835214	0.835214
144	16    	0.835214	0  	0.835214	0.835214
145	16    	0.835214	0  	0.835214	0.835214
146	16    	0.835214	0  	0.835214	0.835214
147	16    	0.835214	0  	0.835214	0.835214
148	16    	0.835214	0  	0.835214	0.835214
149	16    	0.835214	0  	0.835214	0.835214
150	16    	0.835214	0  	0.835214	0.835214
151	16    	0.835214	0  	0.835214	0.835214
152	16    	0.836222	0  	0.836222	0.836222
153	16    	0.836222	0  	0.836222	0.836222
154	16    	0.836222	0  	0.836222	0.836222
155	16    	0.836222	0  	0.836222	0.836222
156	16    	0.836222	0  	0.836222	0.836222
157	16    	0.836222	0  	0.836222	0.836222
158	16    	0.836222	0  	0.836222	0.836222
159	16    	0.836222	0  	0.836222	0.836222
160	16    	0.836222	0  	0.836222	0.836222
161	16    	0.836222	0  	0.836222	0.836222
162	16    	0.836222	0  	0.836222	0.836222
163	16    	0.836222	0  	0.836222	0.836222
164	16    	0.836222	0  	0.836222	0.836222
165	16    	0.836222	0  	0.836222	0.836222
166	16    	0.836222	0  	0.836222	0.836222
167	16    	0.836222	0  	0.836222	0.836222
168	16    	0.836222	0  	0.836222	0.836222
169	16    	0.836222	0  	0.836222	0.836222
170	16    	0.836222	0  	0.836222	0.836222
171	16    	0.836222	0  	0.836222	0.836222
172	16    	0.836222	0  	0.836222	0.836222
173	16    	0.836222	0  	0.836222	0.836222
174	16    	0.836222	0  	0.836222	0.836222
175	16    	0.836222	0  	0.836222	0.836222
176	16    	0.836222	0  	0.836222	0.836222
177	16    	0.836222	0  	0.836222	0.836222
178	16    	0.838005	0  	0.838005	0.838005
179	16    	0.838005	0  	0.838005	0.838005
180	16    	0.838005	0  	0.838005	0.838005
181	16    	0.838005	0  	0.838005	0.838005
182	16    	0.838005	0  	0.838005	0.838005
183	16    	0.838005	0  	0.838005	0.838005
184	16    	0.838005	0  	0.838005	0.838005
185	16    	0.872161	0  	0.872161	0.872161
186	16    	0.872161	0  	0.872161	0.872161
187	16    	0.872161	0  	0.872161	0.872161
188	16    	0.872161	0  	0.872161	0.872161
189	16    	0.872161	0  	0.872161	0.872161
190	16    	0.872161	0  	0.872161	0.872161
191	16    	0.872161	0  	0.872161	0.872161
192	16    	0.872161	0  	0.872161	0.872161
193	16    	0.872161	0  	0.872161	0.872161
194	16    	0.872161	0  	0.872161	0.872161
195	16    	0.872161	0  	0.872161	0.872161
196	16    	0.872161	0  	0.872161	0.872161
197	16    	0.872161	0  	0.872161	0.872161
198	16    	0.872161	0  	0.872161	0.872161
199	16    	0.872161	0  	0.872161	0.872161
200	16    	0.872161	0  	0.872161	0.872161
201	16    	0.872161	0  	0.872161	0.872161
202	16    	0.872161	0  	0.872161	0.872161
203	16    	0.872161	0  	0.872161	0.872161
204	16    	0.872161	0  	0.872161	0.872161
205	16    	0.872161	0  	0.872161	0.872161
206	16    	0.872161	0  	0.872161	0.872161
207	16    	0.872161	0  	0.872161	0.872161
208	16    	0.872161	0  	0.872161	0.872161
209	16    	0.872161	0  	0.872161	0.872161
210	16    	0.872161	0  	0.872161	0.872161
211	16    	0.872161	0  	0.872161	0.872161
212	16    	0.872161	0  	0.872161	0.872161
213	16    	0.872161	0  	0.872161	0.872161
214	16    	0.872161	0  	0.872161	0.872161
215	16    	0.872161	0  	0.872161	0.872161
216	16    	0.872161	0  	0.872161	0.872161
217	16    	0.872161	0  	0.872161	0.872161
218	16    	0.872161	0  	0.872161	0.872161
219	16    	0.872161	0  	0.872161	0.872161
220	16    	0.872161	0  	0.872161	0.872161
221	16    	0.872161	0  	0.872161	0.872161
222	16    	0.872161	0  	0.872161	0.872161
223	16    	0.872161	0  	0.872161	0.872161
224	16    	0.872161	0  	0.872161	0.872161
225	16    	0.872161	0  	0.872161	0.872161
226	16    	0.872161	0  	0.872161	0.872161
227	16    	0.872161	0  	0.872161	0.872161
228	16    	0.872161	0  	0.872161	0.872161
229	16    	0.872161	0  	0.872161	0.872161
230	16    	0.872161	0  	0.872161	0.872161
231	16    	0.872161	0  	0.872161	0.872161
232	16    	0.872161	0  	0.872161	0.872161
233	16    	0.872161	0  	0.872161	0.872161
234	16    	0.872161	0  	0.872161	0.872161
235	16    	0.872161	0  	0.872161	0.872161
236	16    	0.872161	0  	0.872161	0.872161
237	16    	0.874448	0  	0.874448	0.874448
238	16    	0.874448	0  	0.874448	0.874448
239	16    	0.874448	0  	0.874448	0.874448
240	16    	0.874448	0  	0.874448	0.874448
241	16    	0.874448	0  	0.874448	0.874448
242	16    	0.883714	0  	0.883714	0.883714
243	16    	0.883714	0  	0.883714	0.883714
244	16    	0.883714	0  	0.883714	0.883714
245	16    	0.883714	0  	0.883714	0.883714
246	16    	0.883714	0  	0.883714	0.883714
247	16    	0.883714	0  	0.883714	0.883714
248	16    	0.883714	0  	0.883714	0.883714
249	16    	0.883714	0  	0.883714	0.883714
250	16    	0.883714	0  	0.883714	0.883714
251	16    	0.883714	0  	0.883714	0.883714
252	16    	0.883714	0  	0.883714	0.883714
253	16    	0.883714	0  	0.883714	0.883714
254	16    	0.883714	0  	0.883714	0.883714
255	16    	0.883714	0  	0.883714	0.883714
256	16    	0.883714	0  	0.883714	0.883714
257	16    	0.883714	0  	0.883714	0.883714
258	16    	0.883714	0  	0.883714	0.883714
259	16    	0.883714	0  	0.883714	0.883714
260	16    	0.883714	0  	0.883714	0.883714
261	16    	0.883714	0  	0.883714	0.883714
262	16    	0.883714	0  	0.883714	0.883714
263	16    	0.883714	0  	0.883714	0.883714
264	16    	0.883714	0  	0.883714	0.883714
265	16    	0.883714	0  	0.883714	0.883714
266	16    	0.883714	0  	0.883714	0.883714
267	16    	0.883714	0  	0.883714	0.883714
268	16    	0.883714	0  	0.883714	0.883714
269	16    	0.883714	0  	0.883714	0.883714
270	16    	0.883714	0  	0.883714	0.883714
271	16    	0.883714	0  	0.883714	0.883714
272	16    	0.883714	0  	0.883714	0.883714
273	16    	0.883714	0  	0.883714	0.883714
274	16    	0.883714	0  	0.883714	0.883714
275	16    	0.883714	0  	0.883714	0.883714
276	16    	0.883714	0  	0.883714	0.883714
277	16    	0.883714	0  	0.883714	0.883714
278	16    	0.883714	0  	0.883714	0.883714
279	16    	0.883714	0  	0.883714	0.883714
280	16    	0.883714	0  	0.883714	0.883714
281	16    	0.883714	0  	0.883714	0.883714
282	16    	0.883714	0  	0.883714	0.883714
283	16    	0.883714	0  	0.883714	0.883714
284	16    	0.883714	0  	0.883714	0.883714
285	16    	0.883714	0  	0.883714	0.883714
286	16    	0.883714	0  	0.883714	0.883714
287	16    	0.883714	0  	0.883714	0.883714
288	16    	0.883714	0  	0.883714	0.883714
289	16    	0.883714	0  	0.883714	0.883714
290	16    	0.883714	0  	0.883714	0.883714
291	16    	0.883714	0  	0.883714	0.883714
292	16    	0.883714	0  	0.883714	0.883714
293	16    	0.883714	0  	0.883714	0.883714
294	16    	0.883714	0  	0.883714	0.883714
295	16    	0.883714	0  	0.883714	0.883714
296	16    	0.883714	0  	0.883714	0.883714
297	16    	0.883714	0  	0.883714	0.883714
298	16    	0.883714	0  	0.883714	0.883714
299	16    	0.883714	0  	0.883714	0.883714
300	16    	0.883714	0  	0.883714	0.883714
301	16    	0.883714	0  	0.883714	0.883714
302	16    	0.883714	0  	0.883714	0.883714
303	16    	0.883714	0  	0.883714	0.883714
304	16    	0.883714	0  	0.883714	0.883714
305	16    	0.883714	0  	0.883714	0.883714
306	16    	0.883714	0  	0.883714	0.883714
307	16    	0.883714	0  	0.883714	0.883714
308	16    	0.883714	0  	0.883714	0.883714
309	16    	0.883714	0  	0.883714	0.883714
310	16    	0.883714	0  	0.883714	0.883714
311	16    	0.883714	0  	0.883714	0.883714
312	16    	0.883714	0  	0.883714	0.883714
313	16    	0.883714	0  	0.883714	0.883714
314	16    	0.883714	0  	0.883714	0.883714
315	16    	0.883714	0  	0.883714	0.883714
316	16    	0.883714	0  	0.883714	0.883714
317	16    	0.883714	0  	0.883714	0.883714
318	16    	0.883714	0  	0.883714	0.883714
319	16    	0.883714	0  	0.883714	0.883714
320	16    	0.883714	0  	0.883714	0.883714
321	16    	0.883714	0  	0.883714	0.883714
322	16    	0.883714	0  	0.883714	0.883714
323	16    	0.883714	0  	0.883714	0.883714
324	16    	0.883714	0  	0.883714	0.883714
325	16    	0.883714	0  	0.883714	0.883714
326	16    	0.883714	0  	0.883714	0.883714
327	16    	0.883714	0  	0.883714	0.883714
328	16    	0.883714	0  	0.883714	0.883714
329	16    	0.883714	0  	0.883714	0.883714
330	16    	0.883714	0  	0.883714	0.883714
331	16    	0.883714	0  	0.883714	0.883714
332	16    	0.883714	0  	0.883714	0.883714
333	16    	0.883714	0  	0.883714	0.883714
334	16    	0.883714	0  	0.883714	0.883714
335	16    	0.883714	0  	0.883714	0.883714
336	16    	0.883714	0  	0.883714	0.883714
337	16    	0.883714	0  	0.883714	0.883714
338	16    	0.883714	0  	0.883714	0.883714
339	16    	0.883714	0  	0.883714	0.883714
340	16    	0.883714	0  	0.883714	0.883714
341	16    	0.883714	0  	0.883714	0.883714
342	16    	0.883714	0  	0.883714	0.883714
343	16    	0.883714	0  	0.883714	0.883714
344	16    	0.883714	0  	0.883714	0.883714
345	16    	0.883714	0  	0.883714	0.883714
346	16    	0.883714	0  	0.883714	0.883714
347	16    	0.883714	0  	0.883714	0.883714
348	16    	0.883714	0  	0.883714	0.883714
349	16    	0.883714	0  	0.883714	0.883714
350	16    	0.883714	0  	0.883714	0.883714
351	16    	0.883714	0  	0.883714	0.883714
352	16    	0.883714	0  	0.883714	0.883714
353	16    	0.883714	0  	0.883714	0.883714
354	16    	0.883714	0  	0.883714	0.883714
355	16    	0.883714	0  	0.883714	0.883714
356	16    	0.883714	0  	0.883714	0.883714
357	16    	0.883714	0  	0.883714	0.883714
358	16    	0.883714	0  	0.883714	0.883714
359	16    	0.883714	0  	0.883714	0.883714
360	16    	0.883714	0  	0.883714	0.883714
361	16    	0.883714	0  	0.883714	0.883714
362	16    	0.883714	0  	0.883714	0.883714
363	16    	0.883714	0  	0.883714	0.883714
364	16    	0.883714	0  	0.883714	0.883714
365	16    	0.883714	0  	0.883714	0.883714
366	16    	0.883714	0  	0.883714	0.883714
367	16    	0.883714	0  	0.883714	0.883714
368	16    	0.883714	0  	0.883714	0.883714
369	16    	0.883714	0  	0.883714	0.883714
370	16    	0.883714	0  	0.883714	0.883714
371	16    	0.883714	0  	0.883714	0.883714
372	16    	0.883714	0  	0.883714	0.883714
373	16    	0.883714	0  	0.883714	0.883714
374	16    	0.883714	0  	0.883714	0.883714
375	16    	0.883714	0  	0.883714	0.883714
376	16    	0.883714	0  	0.883714	0.883714
377	16    	0.883714	0  	0.883714	0.883714
378	16    	0.883714	0  	0.883714	0.883714
379	16    	0.883714	0  	0.883714	0.883714
380	16    	0.883714	0  	0.883714	0.883714
381	16    	0.883714	0  	0.883714	0.883714
382	16    	0.883714	0  	0.883714	0.883714
383	16    	0.883714	0  	0.883714	0.883714
384	16    	0.883714	0  	0.883714	0.883714
385	16    	0.883714	0  	0.883714	0.883714
386	16    	0.883714	0  	0.883714	0.883714
387	16    	0.883714	0  	0.883714	0.883714
388	16    	0.883714	0  	0.883714	0.883714
389	16    	0.883714	0  	0.883714	0.883714
390	16    	0.883714	0  	0.883714	0.883714
391	16    	0.883714	0  	0.883714	0.883714
392	16    	0.883714	0  	0.883714	0.883714
393	16    	0.883714	0  	0.883714	0.883714
394	16    	0.883714	0  	0.883714	0.883714
395	16    	0.883714	0  	0.883714	0.883714
396	16    	0.883714	0  	0.883714	0.883714
397	16    	0.883714	0  	0.883714	0.883714
398	16    	0.883714	0  	0.883714	0.883714
399	16    	0.883714	0  	0.883714	0.883714
400	16    	0.883714	0  	0.883714	0.883714
401	16    	0.883714	0  	0.883714	0.883714
402	16    	0.883714	0  	0.883714	0.883714
403	16    	0.883714	0  	0.883714	0.883714
404	16    	0.883714	0  	0.883714	0.883714
405	16    	0.883714	0  	0.883714	0.883714
406	16    	0.883714	0  	0.883714	0.883714
407	16    	0.883714	0  	0.883714	0.883714
408	16    	0.883714	0  	0.883714	0.883714
409	16    	0.883714	0  	0.883714	0.883714
410	16    	0.883714	0  	0.883714	0.883714
411	16    	0.883714	0  	0.883714	0.883714
412	16    	0.883714	0  	0.883714	0.883714
413	16    	0.886777	0  	0.886777	0.886777
414	16    	0.886777	0  	0.886777	0.886777
415	16    	0.886777	0  	0.886777	0.886777
416	16    	0.886777	0  	0.886777	0.886777
417	16    	0.886777	0  	0.886777	0.886777
418	16    	0.886777	0  	0.886777	0.886777
419	16    	0.886777	0  	0.886777	0.886777
420	16    	0.886777	0  	0.886777	0.886777
421	16    	0.886777	0  	0.886777	0.886777
422	16    	0.886777	0  	0.886777	0.886777
423	16    	0.886777	0  	0.886777	0.886777
424	16    	0.886777	0  	0.886777	0.886777
425	16    	0.886777	0  	0.886777	0.886777
426	16    	0.886777	0  	0.886777	0.886777
427	16    	0.886777	0  	0.886777	0.886777
428	16    	0.886777	0  	0.886777	0.886777
429	16    	0.886777	0  	0.886777	0.886777
430	16    	0.886777	0  	0.886777	0.886777
431	16    	0.886777	0  	0.886777	0.886777
432	16    	0.886777	0  	0.886777	0.886777
433	16    	0.886816	0  	0.886816	0.886816
434	16    	0.886816	0  	0.886816	0.886816
435	16    	0.886816	0  	0.886816	0.886816
436	16    	0.886816	0  	0.886816	0.886816
437	16    	0.886816	0  	0.886816	0.886816
438	16    	0.886816	0  	0.886816	0.886816
439	16    	0.888793	0  	0.888793	0.888793
440	16    	0.888793	0  	0.888793	0.888793
441	16    	0.888793	0  	0.888793	0.888793
442	16    	0.888793	0  	0.888793	0.888793
443	16    	0.888793	0  	0.888793	0.888793
444	16    	0.888793	0  	0.888793	0.888793
445	16    	0.888793	0  	0.888793	0.888793
446	16    	0.888793	0  	0.888793	0.888793
447	16    	0.888793	0  	0.888793	0.888793
448	16    	0.896896	0  	0.896896	0.896896
449	16    	0.896896	0  	0.896896	0.896896
450	16    	0.897439	0  	0.897439	0.897439
451	16    	0.897439	0  	0.897439	0.897439
452	16    	0.897439	0  	0.897439	0.897439
453	16    	0.897439	0  	0.897439	0.897439
454	16    	0.897439	0  	0.897439	0.897439
455	16    	0.897439	0  	0.897439	0.897439
456	16    	0.897439	0  	0.897439	0.897439
457	16    	0.897439	0  	0.897439	0.897439
458	16    	0.897439	0  	0.897439	0.897439
459	16    	0.897439	0  	0.897439	0.897439
460	16    	0.897439	0  	0.897439	0.897439
461	16    	0.897439	0  	0.897439	0.897439
462	16    	0.897439	0  	0.897439	0.897439
463	16    	0.897439	0  	0.897439	0.897439
464	16    	0.897439	0  	0.897439	0.897439
465	16    	0.897439	0  	0.897439	0.897439
466	16    	0.897439	0  	0.897439	0.897439
467	16    	0.897439	0  	0.897439	0.897439
468	16    	0.897439	0  	0.897439	0.897439
469	16    	0.897439	0  	0.897439	0.897439
470	16    	0.897439	0  	0.897439	0.897439
471	16    	0.897439	0  	0.897439	0.897439
472	16    	0.897439	0  	0.897439	0.897439
473	16    	0.897439	0  	0.897439	0.897439
474	16    	0.897439	0  	0.897439	0.897439
475	16    	0.897439	0  	0.897439	0.897439
476	16    	0.897439	0  	0.897439	0.897439
477	16    	0.897439	0  	0.897439	0.897439
478	16    	0.897439	0  	0.897439	0.897439
479	16    	0.897439	0  	0.897439	0.897439
480	16    	0.897439	0  	0.897439	0.897439
481	16    	0.897439	0  	0.897439	0.897439
482	16    	0.897439	0  	0.897439	0.897439
483	16    	0.897439	0  	0.897439	0.897439
484	16    	0.897439	0  	0.897439	0.897439
485	16    	0.897439	0  	0.897439	0.897439
486	16    	0.897439	0  	0.897439	0.897439
487	16    	0.897439	0  	0.897439	0.897439
488	16    	0.897439	0  	0.897439	0.897439
489	16    	0.897439	0  	0.897439	0.897439
490	16    	0.897439	0  	0.897439	0.897439
491	16    	0.897439	0  	0.897439	0.897439
492	16    	0.897439	0  	0.897439	0.897439
493	16    	0.897439	0  	0.897439	0.897439
494	16    	0.897439	0  	0.897439	0.897439
495	16    	0.897439	0  	0.897439	0.897439
496	16    	0.897439	0  	0.897439	0.897439
497	16    	0.897439	0  	0.897439	0.897439
498	16    	0.897439	0  	0.897439	0.897439
499	16    	0.897439	0  	0.897439	0.897439
500	16    	0.897439	0  	0.897439	0.897439
501	16    	0.900928	0  	0.900928	0.900928
502	16    	0.900928	0  	0.900928	0.900928
503	16    	0.900928	0  	0.900928	0.900928
504	16    	0.900928	0  	0.900928	0.900928
505	16    	0.900928	0  	0.900928	0.900928
506	16    	0.900928	0  	0.900928	0.900928
507	16    	0.900928	0  	0.900928	0.900928
508	16    	0.900928	0  	0.900928	0.900928
509	16    	0.900928	0  	0.900928	0.900928
510	16    	0.900928	0  	0.900928	0.900928
511	16    	0.900928	0  	0.900928	0.900928
512	16    	0.900928	0  	0.900928	0.900928
513	16    	0.900928	0  	0.900928	0.900928
514	16    	0.900928	0  	0.900928	0.900928
515	16    	0.900928	0  	0.900928	0.900928
516	16    	0.900928	0  	0.900928	0.900928
517	16    	0.900928	0  	0.900928	0.900928
518	16    	0.900928	0  	0.900928	0.900928
519	16    	0.900928	0  	0.900928	0.900928
520	16    	0.900928	0  	0.900928	0.900928
521	16    	0.900928	0  	0.900928	0.900928
522	16    	0.900928	0  	0.900928	0.900928
523	16    	0.900928	0  	0.900928	0.900928
524	16    	0.900928	0  	0.900928	0.900928
525	16    	0.900928	0  	0.900928	0.900928
526	16    	0.900928	0  	0.900928	0.900928
527	16    	0.900928	0  	0.900928	0.900928
528	16    	0.900928	0  	0.900928	0.900928
529	16    	0.900928	0  	0.900928	0.900928
530	16    	0.900928	0  	0.900928	0.900928
531	16    	0.900928	0  	0.900928	0.900928
532	16    	0.900928	0  	0.900928	0.900928
533	16    	0.900928	0  	0.900928	0.900928
534	16    	0.900928	0  	0.900928	0.900928
535	16    	0.900928	0  	0.900928	0.900928
536	16    	0.900928	0  	0.900928	0.900928
537	16    	0.900928	0  	0.900928	0.900928
538	16    	0.900928	0  	0.900928	0.900928
539	16    	0.900928	0  	0.900928	0.900928
540	16    	0.900928	0  	0.900928	0.900928
541	16    	0.900928	0  	0.900928	0.900928
542	16    	0.900928	0  	0.900928	0.900928
543	16    	0.900928	0  	0.900928	0.900928
544	16    	0.900928	0  	0.900928	0.900928
545	16    	0.900928	0  	0.900928	0.900928
546	16    	0.900928	0  	0.900928	0.900928
547	16    	0.900928	0  	0.900928	0.900928
548	16    	0.900928	0  	0.900928	0.900928
549	16    	0.900928	0  	0.900928	0.900928
550	16    	0.900928	0  	0.900928	0.900928
551	16    	0.900928	0  	0.900928	0.900928
552	16    	0.900928	0  	0.900928	0.900928
553	16    	0.900928	0  	0.900928	0.900928
554	16    	0.900928	0  	0.900928	0.900928
555	16    	0.900928	0  	0.900928	0.900928
556	16    	0.900928	0  	0.900928	0.900928
557	16    	0.900928	0  	0.900928	0.900928
558	16    	0.900928	0  	0.900928	0.900928
559	16    	0.900928	0  	0.900928	0.900928
560	16    	0.900928	0  	0.900928	0.900928
561	16    	0.900928	0  	0.900928	0.900928
562	16    	0.900928	0  	0.900928	0.900928
563	16    	0.900928	0  	0.900928	0.900928
564	16    	0.900928	0  	0.900928	0.900928
565	16    	0.900928	0  	0.900928	0.900928
566	16    	0.900928	0  	0.900928	0.900928
567	16    	0.900928	0  	0.900928	0.900928
568	16    	0.900928	0  	0.900928	0.900928
569	16    	0.900928	0  	0.900928	0.900928
570	16    	0.900928	0  	0.900928	0.900928
571	16    	0.900928	0  	0.900928	0.900928
572	16    	0.900928	0  	0.900928	0.900928
573	16    	0.900928	0  	0.900928	0.900928
574	16    	0.900928	0  	0.900928	0.900928
575	16    	0.900928	0  	0.900928	0.900928
576	16    	0.900928	0  	0.900928	0.900928
577	16    	0.900928	0  	0.900928	0.900928
578	16    	0.900928	0  	0.900928	0.900928
579	16    	0.900928	0  	0.900928	0.900928
580	16    	0.900928	0  	0.900928	0.900928
581	16    	0.900928	0  	0.900928	0.900928
582	16    	0.900928	0  	0.900928	0.900928
583	16    	0.900928	0  	0.900928	0.900928
584	16    	0.900928	0  	0.900928	0.900928
585	16    	0.900928	0  	0.900928	0.900928
586	16    	0.900928	0  	0.900928	0.900928
587	16    	0.900928	0  	0.900928	0.900928
588	16    	0.900928	0  	0.900928	0.900928
589	16    	0.900928	0  	0.900928	0.900928
590	16    	0.900928	0  	0.900928	0.900928
591	16    	0.900928	0  	0.900928	0.900928
592	16    	0.900928	0  	0.900928	0.900928
593	16    	0.900928	0  	0.900928	0.900928
594	16    	0.900928	0  	0.900928	0.900928
595	16    	0.900928	0  	0.900928	0.900928
596	16    	0.900928	0  	0.900928	0.900928
597	16    	0.900928	0  	0.900928	0.900928
598	16    	0.900928	0  	0.900928	0.900928
599	16    	0.900928	0  	0.900928	0.900928
600	16    	0.900928	0  	0.900928	0.900928
601	16    	0.900928	0  	0.900928	0.900928
602	16    	0.900928	0  	0.900928	0.900928
603	16    	0.900928	0  	0.900928	0.900928
604	16    	0.900928	0  	0.900928	0.900928
605	16    	0.900928	0  	0.900928	0.900928
606	16    	0.900928	0  	0.900928	0.900928
607	16    	0.900928	0  	0.900928	0.900928
608	16    	0.900928	0  	0.900928	0.900928
609	16    	0.900928	0  	0.900928	0.900928
610	16    	0.900928	0  	0.900928	0.900928
611	16    	0.900928	0  	0.900928	0.900928
612	16    	0.900928	0  	0.900928	0.900928
613	16    	0.900928	0  	0.900928	0.900928
614	16    	0.900928	0  	0.900928	0.900928
615	16    	0.900928	0  	0.900928	0.900928
616	16    	0.900928	0  	0.900928	0.900928
617	16    	0.900928	0  	0.900928	0.900928
618	16    	0.900928	0  	0.900928	0.900928
619	16    	0.900928	0  	0.900928	0.900928
620	16    	0.900928	0  	0.900928	0.900928
621	16    	0.900928	0  	0.900928	0.900928
622	16    	0.900928	0  	0.900928	0.900928
623	16    	0.900928	0  	0.900928	0.900928
624	16    	0.900928	0  	0.900928	0.900928
625	16    	0.900928	0  	0.900928	0.900928