gen	nevals	avg     	std	min     	max     
0  	1     	0.793068	0  	0.793068	0.793068
1  	16    	0.804533	0  	0.804533	0.804533
2  	16    	0.812787	0  	0.812787	0.812787
3  	16    	0.812787	0  	0.812787	0.812787
4  	16    	0.812787	0  	0.812787	0.812787
5  	16    	0.812787	0  	0.812787	0.812787
6  	16    	0.812787	0  	0.812787	0.812787
7  	16    	0.812787	0  	0.812787	0.812787
8  	16    	0.812787	0  	0.812787	0.812787
9  	16    	0.812787	0  	0.812787	0.812787
10 	16    	0.812787	0  	0.812787	0.812787
11 	16    	0.812787	0  	0.812787	0.812787
12 	16    	0.812787	0  	0.812787	0.812787
13 	16    	0.812787	0  	0.812787	0.812787
14 	16    	0.812787	0  	0.812787	0.812787
15 	16    	0.812806	0  	0.812806	0.812806
16 	16    	0.812806	0  	0.812806	0.812806
17 	16    	0.81449 	0  	0.81449 	0.81449 
18 	16    	0.820574	0  	0.820574	0.820574
19 	16    	0.820574	0  	0.820574	0.820574
20 	16    	0.820574	0  	0.820574	0.820574
21 	16    	0.820574	0  	0.820574	0.820574
22 	16    	0.820574	0  	0.820574	0.820574
23 	16    	0.820574	0  	0.820574	0.820574
24 	16    	0.820574	0  	0.820574	0.820574
25 	16    	0.820574	0  	0.820574	0.820574
26 	16    	0.820574	0  	0.820574	0.820574
27 	16    	0.822558	0  	0.822558	0.822558
28 	16    	0.822558	0  	0.822558	0.822558
29 	16    	0.825627	0  	0.825627	0.825627
30 	16    	0.825627	0  	0.825627	0.825627
31 	16    	0.825627	0  	0.825627	0.825627
32 	16    	0.827499	0  	0.827499	0.827499
33 	16    	0.827499	0  	0.827499	0.827499
34 	16    	0.827499	0  	0.827499	0.827499
35 	16    	0.827499	0  	0.827499	0.827499
36 	16    	0.829717	0  	0.829717	0.829717
37 	16    	0.83114 	0  	0.83114 	0.83114 
38 	16    	0.83114 	0  	0.83114 	0.83114 
39 	16    	0.83114 	0  	0.83114 	0.83114 
40 	16    	0.832197	0  	0.832197	0.832197
41 	16    	0.832197	0  	0.832197	0.832197
42 	16    	0.832197	0  	0.832197	0.832197
43 	16    	0.832197	0  	0.832197	0.832197
44 	16    	0.832197	0  	0.832197	0.832197
45 	16    	0.833002	0  	0.833002	0.833002
46 	16    	0.833002	0  	0.833002	0.833002
47 	16    	0.833002	0  	0.833002	0.833002
48 	16    	0.83567 	0  	0.83567 	0.83567 
49 	16    	0.83567 	0  	0.83567 	0.83567 
50 	16    	0.838075	0  	0.838075	0.838075
51 	16    	0.838075	0  	0.838075	0.838075
52 	16    	0.838075	0  	0.838075	0.838075
53 	16    	0.838075	0  	0.838075	0.838075
54 	16    	0.838075	0  	0.838075	0.838075
55 	16    	0.838075	0  	0.838075	0.838075
56 	16    	0.838075	0  	0.838075	0.838075
57 	16    	0.838075	0  	0.838075	0.838075
58 	16    	0.838075	0  	0.838075	0.838075
59 	16    	0.838075	0  	0.838075	0.838075
60 	16    	0.838075	0  	0.838075	0.838075
61 	16    	0.838075	0  	0.838075	0.838075
62 	16    	0.838075	0  	0.838075	0.838075
63 	16    	0.841846	0  	0.841846	0.841846
64 	16    	0.841846	0  	0.841846	0.841846
65 	16    	0.841846	0  	0.841846	0.841846
66 	16    	0.841846	0  	0.841846	0.841846
67 	16    	0.841846	0  	0.841846	0.841846
68 	16    	0.841846	0  	0.841846	0.841846
69 	16    	0.841846	0  	0.841846	0.841846
70 	16    	0.841846	0  	0.841846	0.841846
71 	16    	0.841846	0  	0.841846	0.841846
72 	16    	0.841846	0  	0.841846	0.841846
73 	16    	0.842567	0  	0.842567	0.842567
74 	16    	0.842567	0  	0.842567	0.842567
75 	16    	0.849118	0  	0.849118	0.849118
76 	16    	0.849118	0  	0.849118	0.849118
77 	16    	0.849118	0  	0.849118	0.849118
78 	16    	0.849118	0  	0.849118	0.849118
79 	16    	0.849118	0  	0.849118	0.849118
80 	16    	0.852113	0  	0.852113	0.852113
81 	16    	0.852113	0  	0.852113	0.852113
82 	16    	0.852113	0  	0.852113	0.852113
83 	16    	0.852113	0  	0.852113	0.852113
84 	16    	0.852113	0  	0.852113	0.852113
85 	16    	0.852113	0  	0.852113	0.852113
86 	16    	0.852113	0  	0.852113	0.852113
87 	16    	0.852113	0  	0.852113	0.852113
88 	16    	0.852113	0  	0.852113	0.852113
89 	16    	0.852113	0  	0.852113	0.852113
90 	16    	0.852113	0  	0.852113	0.852113
91 	16    	0.852113	0  	0.852113	0.852113
92 	16    	0.852113	0  	0.852113	0.852113
93 	16    	0.852113	0  	0.852113	0.852113
94 	16    	0.852113	0  	0.852113	0.852113
95 	16    	0.852113	0  	0.852113	0.852113
96 	16    	0.852113	0  	0.852113	0.852113
97 	16    	0.852113	0  	0.852113	0.852113
98 	16    	0.852113	0  	0.852113	0.852113
99 	16    	0.852113	0  	0.852113	0.852113
100	16    	0.852113	0  	0.852113	0.852113
101	16    	0.852113	0  	0.852113	0.852113
102	16    	0.852113	0  	0.852113	0.852113
103	16    	0.852113	0  	0.852113	0.852113
104	16    	0.852113	0  	0.852113	0.852113
105	16    	0.852113	0  	0.852113	0.852113
106	16    	0.852113	0  	0.852113	0.852113
107	16    	0.852113	0  	0.852113	0.852113
108	16    	0.852113	0  	0.852113	0.852113
109	16    	0.852787	0  	0.852787	0.852787
110	16    	0.852787	0  	0.852787	0.852787
111	16    	0.852787	0  	0.852787	0.852787
112	16    	0.852787	0  	0.852787	0.852787
113	16    	0.852787	0  	0.852787	0.852787
114	16    	0.852787	0  	0.852787	0.852787
115	16    	0.852787	0  	0.852787	0.852787
116	16    	0.852787	0  	0.852787	0.852787
117	16    	0.852787	0  	0.852787	0.852787
118	16    	0.852787	0  	0.852787	0.852787
119	16    	0.852787	0  	0.852787	0.852787
120	16    	0.852787	0  	0.852787	0.852787
121	16    	0.852787	0  	0.852787	0.852787
122	16    	0.853114	0  	0.853114	0.853114
123	16    	0.853114	0  	0.853114	0.853114
124	16    	0.853114	0  	0.853114	0.853114
125	16    	0.853114	0  	0.853114	0.853114
126	16    	0.853114	0  	0.853114	0.853114
127	16    	0.853114	0  	0.853114	0.853114
128	16    	0.853114	0  	0.853114	0.853114
129	16    	0.853114	0  	0.853114	0.853114
130	16    	0.853114	0  	0.853114	0.853114
131	16    	0.853114	0  	0.853114	0.853114
132	16    	0.853114	0  	0.853114	0.853114
133	16    	0.853114	0  	0.853114	0.853114
134	16    	0.853114	0  	0.853114	0.853114
135	16    	0.853114	0  	0.853114	0.853114
136	16    	0.853114	0  	0.853114	0.853114
137	16    	0.856764	0  	0.856764	0.856764
138	16    	0.856764	0  	0.856764	0.856764
139	16    	0.856764	0  	0.856764	0.856764
140	16    	0.856764	0  	0.856764	0.856764
141	16    	0.856764	0  	0.856764	0.856764
142	16    	0.858524	0  	0.858524	0.858524
143	16    	0.858524	0  	0.858524	0.858524
144	16    	0.858524	0  	0.858524	0.858524
145	16    	0.858524	0  	0.858524	0.858524
146	16    	0.858524	0  	0.858524	0.858524
147	16    	0.858524	0  	0.858524	0.858524
148	16    	0.858524	0  	0.858524	0.858524
149	16    	0.858524	0  	0.858524	0.858524
150	16    	0.859806	0  	0.859806	0.859806
151	16    	0.859806	0  	0.859806	0.859806
152	16    	0.860714	0  	0.860714	0.860714
153	16    	0.862136	0  	0.862136	0.862136
154	16    	0.862136	0  	0.862136	0.862136
155	16    	0.862136	0  	0.862136	0.862136
156	16    	0.86632 	0  	0.86632 	0.86632 
157	16    	0.86632 	0  	0.86632 	0.86632 
158	16    	0.86632 	0  	0.86632 	0.86632 
159	16    	0.86632 	0  	0.86632 	0.86632 
160	16    	0.86632 	0  	0.86632 	0.86632 
161	16    	0.86632 	0  	0.86632 	0.86632 
162	16    	0.86632 	0  	0.86632 	0.86632 
163	16    	0.86632 	0  	0.86632 	0.86632 
164	16    	0.86632 	0  	0.86632 	0.86632 
165	16    	0.86632 	0  	0.86632 	0.86632 
166	16    	0.86632 	0  	0.86632 	0.86632 
167	16    	0.86632 	0  	0.86632 	0.86632 
168	16    	0.86632 	0  	0.86632 	0.86632 
169	16    	0.86632 	0  	0.86632 	0.86632 
170	16    	0.870016	0  	0.870016	0.870016
171	16    	0.870016	0  	0.870016	0.870016
172	16    	0.870016	0  	0.870016	0.870016
173	16    	0.870016	0  	0.870016	0.870016
174	16    	0.870016	0  	0.870016	0.870016
175	16    	0.870016	0  	0.870016	0.870016
176	16    	0.870016	0  	0.870016	0.870016
177	16    	0.870016	0  	0.870016	0.870016
178	16    	0.870016	0  	0.870016	0.870016
179	16    	0.870559	0  	0.870559	0.870559
180	16    	0.870559	0  	0.870559	0.870559
181	16    	0.870559	0  	0.870559	0.870559
182	16    	0.870559	0  	0.870559	0.870559
183	16    	0.875098	0  	0.875098	0.875098
184	16    	0.875098	0  	0.875098	0.875098
185	16    	0.875098	0  	0.875098	0.875098
186	16    	0.875098	0  	0.875098	0.875098
187	16    	0.875098	0  	0.875098	0.875098
188	16    	0.875098	0  	0.875098	0.875098
189	16    	0.875098	0  	0.875098	0.875098
190	16    	0.875098	0  	0.875098	0.875098
191	16    	0.875098	0  	0.875098	0.875098
192	16    	0.875098	0  	0.875098	0.875098
193	16    	0.882024	0  	0.882024	0.882024
194	16    	0.882024	0  	0.882024	0.882024
195	16    	0.882024	0  	0.882024	0.882024
196	16    	0.882024	0  	0.882024	0.882024
197	16    	0.882024	0  	0.882024	0.882024
198	16    	0.882024	0  	0.882024	0.882024
199	16    	0.882024	0  	0.882024	0.882024
200	16    	0.882024	0  	0.882024	0.882024
201	16    	0.882024	0  	0.882024	0.882024
202	16    	0.882024	0  	0.882024	0.882024
203	16    	0.882202	0  	0.882202	0.882202
204	16    	0.882202	0  	0.882202	0.882202
205	16    	0.882202	0  	0.882202	0.882202
206	16    	0.882202	0  	0.882202	0.882202
207	16    	0.882202	0  	0.882202	0.882202
208	16    	0.882202	0  	0.882202	0.882202
209	16    	0.882202	0  	0.882202	0.882202
210	16    	0.882202	0  	0.882202	0.882202
211	16    	0.882202	0  	0.882202	0.882202
212	16    	0.882202	0  	0.882202	0.882202
213	16    	0.882202	0  	0.882202	0.882202
214	16    	0.882202	0  	0.882202	0.882202
215	16    	0.882202	0  	0.882202	0.882202
216	16    	0.882202	0  	0.882202	0.882202
217	16    	0.890381	0  	0.890381	0.890381
218	16    	0.890381	0  	0.890381	0.890381
219	16    	0.890381	0  	0.890381	0.890381
220	16    	0.890381	0  	0.890381	0.890381
221	16    	0.890381	0  	0.890381	0.890381
222	16    	0.890381	0  	0.890381	0.890381
223	16    	0.890381	0  	0.890381	0.890381
224	16    	0.890381	0  	0.890381	0.890381
225	16    	0.890381	0  	0.890381	0.890381
226	16    	0.890381	0  	0.890381	0.890381
227	16    	0.890381	0  	0.890381	0.890381
228	16    	0.890381	0  	0.890381	0.890381
229	16    	0.890381	0  	0.890381	0.890381
230	16    	0.890381	0  	0.890381	0.890381
231	16    	0.890381	0  	0.890381	0.890381
232	16    	0.890381	0  	0.890381	0.890381
233	16    	0.890578	0  	0.890578	0.890578
234	16    	0.890578	0  	0.890578	0.890578
235	16    	0.890578	0  	0.890578	0.890578
236	16    	0.890578	0  	0.890578	0.890578
237	16    	0.890578	0  	0.890578	0.890578
238	16    	0.890578	0  	0.890578	0.890578
239	16    	0.890578	0  	0.890578	0.890578
240	16    	0.890578	0  	0.890578	0.890578
241	16    	0.890578	0  	0.890578	0.890578
242	16    	0.890578	0  	0.890578	0.890578
243	16    	0.890578	0  	0.890578	0.890578
244	16    	0.890578	0  	0.890578	0.890578
245	16    	0.890578	0  	0.890578	0.890578
246	16    	0.890578	0  	0.890578	0.890578
247	16    	0.890578	0  	0.890578	0.890578
248	16    	0.890578	0  	0.890578	0.890578
249	16    	0.890578	0  	0.890578	0.890578
250	16    	0.890578	0  	0.890578	0.890578
251	16    	0.890578	0  	0.890578	0.890578
252	16    	0.890578	0  	0.890578	0.890578
253	16    	0.890578	0  	0.890578	0.890578
254	16    	0.890578	0  	0.890578	0.890578
255	16    	0.890578	0  	0.890578	0.890578
256	16    	0.890578	0  	0.890578	0.890578
257	16    	0.890578	0  	0.890578	0.890578
258	16    	0.890578	0  	0.890578	0.890578
259	16    	0.890578	0  	0.890578	0.890578
260	16    	0.890578	0  	0.890578	0.890578
261	16    	0.890578	0  	0.890578	0.890578
262	16    	0.890578	0  	0.890578	0.890578
263	16    	0.890578	0  	0.890578	0.890578
264	16    	0.890578	0  	0.890578	0.890578
265	16    	0.890578	0  	0.890578	0.890578
266	16    	0.890578	0  	0.890578	0.890578
267	16    	0.890578	0  	0.890578	0.890578
268	16    	0.890578	0  	0.890578	0.890578
269	16    	0.890578	0  	0.890578	0.890578
270	16    	0.890578	0  	0.890578	0.890578
271	16    	0.890578	0  	0.890578	0.890578
272	16    	0.890578	0  	0.890578	0.890578
273	16    	0.890578	0  	0.890578	0.890578
274	16    	0.890578	0  	0.890578	0.890578
275	16    	0.890578	0  	0.890578	0.890578
276	16    	0.890578	0  	0.890578	0.890578
277	16    	0.890578	0  	0.890578	0.890578
278	16    	0.890578	0  	0.890578	0.890578
279	16    	0.890578	0  	0.890578	0.890578
280	16    	0.890578	0  	0.890578	0.890578
281	16    	0.890578	0  	0.890578	0.890578
282	16    	0.890578	0  	0.890578	0.890578
283	16    	0.890578	0  	0.890578	0.890578
284	16    	0.890578	0  	0.890578	0.890578
285	16    	0.890578	0  	0.890578	0.890578
286	16    	0.890578	0  	0.890578	0.890578
287	16    	0.890578	0  	0.890578	0.890578
288	16    	0.890578	0  	0.890578	0.890578
289	16    	0.890578	0  	0.890578	0.890578
290	16    	0.890578	0  	0.890578	0.890578
291	16    	0.890578	0  	0.890578	0.890578
292	16    	0.890578	0  	0.890578	0.890578
293	16    	0.890578	0  	0.890578	0.890578
294	16    	0.890578	0  	0.890578	0.890578
295	16    	0.890578	0  	0.890578	0.890578
296	16    	0.890578	0  	0.890578	0.890578
297	16    	0.890578	0  	0.890578	0.890578
298	16    	0.890578	0  	0.890578	0.890578
299	16    	0.890578	0  	0.890578	0.890578
300	16    	0.890578	0  	0.890578	0.890578
301	16    	0.890578	0  	0.890578	0.890578
302	16    	0.890578	0  	0.890578	0.890578
303	16    	0.890578	0  	0.890578	0.890578
304	16    	0.890578	0  	0.890578	0.890578
305	16    	0.890578	0  	0.890578	0.890578
306	16    	0.890578	0  	0.890578	0.890578
307	16    	0.890578	0  	0.890578	0.890578
308	16    	0.890578	0  	0.890578	0.890578
309	16    	0.890578	0  	0.890578	0.890578
310	16    	0.890578	0  	0.890578	0.890578
311	16    	0.890578	0  	0.890578	0.890578
312	16    	0.890578	0  	0.890578	0.890578
313	16    	0.890578	0  	0.890578	0.890578
314	16    	0.890578	0  	0.890578	0.890578
315	16    	0.890578	0  	0.890578	0.890578
316	16    	0.890578	0  	0.890578	0.890578
317	16    	0.890578	0  	0.890578	0.890578
318	16    	0.890578	0  	0.890578	0.890578
319	16    	0.890578	0  	0.890578	0.890578
320	16    	0.890578	0  	0.890578	0.890578
321	16    	0.890578	0  	0.890578	0.890578
322	16    	0.890578	0  	0.890578	0.890578
323	16    	0.890578	0  	0.890578	0.890578
324	16    	0.890578	0  	0.890578	0.890578
325	16    	0.890578	0  	0.890578	0.890578
326	16    	0.890578	0  	0.890578	0.890578
327	16    	0.890578	0  	0.890578	0.890578
328	16    	0.890578	0  	0.890578	0.890578
329	16    	0.890578	0  	0.890578	0.890578
330	16    	0.890578	0  	0.890578	0.890578
331	16    	0.890578	0  	0.890578	0.890578
332	16    	0.890578	0  	0.890578	0.890578
333	16    	0.890578	0  	0.890578	0.890578
334	16    	0.890578	0  	0.890578	0.890578
335	16    	0.890578	0  	0.890578	0.890578
336	16    	0.890578	0  	0.890578	0.890578
337	16    	0.890578	0  	0.890578	0.890578
338	16    	0.890578	0  	0.890578	0.890578
339	16    	0.890578	0  	0.890578	0.890578
340	16    	0.890578	0  	0.890578	0.890578
341	16    	0.890578	0  	0.890578	0.890578
342	16    	0.890578	0  	0.890578	0.890578
343	16    	0.890578	0  	0.890578	0.890578
344	16    	0.890578	0  	0.890578	0.890578
345	16    	0.890578	0  	0.890578	0.890578
346	16    	0.890578	0  	0.890578	0.890578
347	16    	0.890578	0  	0.890578	0.890578
348	16    	0.890578	0  	0.890578	0.890578
349	16    	0.890578	0  	0.890578	0.890578
350	16    	0.890578	0  	0.890578	0.890578
351	16    	0.890578	0  	0.890578	0.890578
352	16    	0.890578	0  	0.890578	0.890578
353	16    	0.890578	0  	0.890578	0.890578
354	16    	0.890578	0  	0.890578	0.890578
355	16    	0.890578	0  	0.890578	0.890578
356	16    	0.890578	0  	0.890578	0.890578
357	16    	0.890578	0  	0.890578	0.890578
358	16    	0.890578	0  	0.890578	0.890578
359	16    	0.890578	0  	0.890578	0.890578
360	16    	0.890578	0  	0.890578	0.890578
361	16    	0.890578	0  	0.890578	0.890578
362	16    	0.890578	0  	0.890578	0.890578
363	16    	0.890578	0  	0.890578	0.890578
364	16    	0.890578	0  	0.890578	0.890578
365	16    	0.890578	0  	0.890578	0.890578
366	16    	0.890578	0  	0.890578	0.890578
367	16    	0.890578	0  	0.890578	0.890578
368	16    	0.890578	0  	0.890578	0.890578
369	16    	0.890578	0  	0.890578	0.890578
370	16    	0.890578	0  	0.890578	0.890578
371	16    	0.890578	0  	0.890578	0.890578
372	16    	0.890578	0  	0.890578	0.890578
373	16    	0.890578	0  	0.890578	0.890578
374	16    	0.890578	0  	0.890578	0.890578
375	16    	0.890578	0  	0.890578	0.890578
376	16    	0.890578	0  	0.890578	0.890578
377	16    	0.890578	0  	0.890578	0.890578
378	16    	0.890578	0  	0.890578	0.890578
379	16    	0.890578	0  	0.890578	0.890578
380	16    	0.890578	0  	0.890578	0.890578
381	16    	0.890578	0  	0.890578	0.890578
382	16    	0.890578	0  	0.890578	0.890578
383	16    	0.890578	0  	0.890578	0.890578
384	16    	0.890578	0  	0.890578	0.890578
385	16    	0.890578	0  	0.890578	0.890578
386	16    	0.890578	0  	0.890578	0.890578
387	16    	0.890578	0  	0.890578	0.890578
388	16    	0.890578	0  	0.890578	0.890578
389	16    	0.890578	0  	0.890578	0.890578
390	16    	0.890578	0  	0.890578	0.890578
391	16    	0.890578	0  	0.890578	0.890578
392	16    	0.890578	0  	0.890578	0.890578
393	16    	0.890578	0  	0.890578	0.890578
394	16    	0.890578	0  	0.890578	0.890578
395	16    	0.890578	0  	0.890578	0.890578
396	16    	0.890578	0  	0.890578	0.890578
397	16    	0.890578	0  	0.890578	0.890578
398	16    	0.890578	0  	0.890578	0.890578
399	16    	0.890578	0  	0.890578	0.890578
400	16    	0.890578	0  	0.890578	0.890578
401	16    	0.890578	0  	0.890578	0.890578
402	16    	0.890578	0  	0.890578	0.890578
403	16    	0.890578	0  	0.890578	0.890578
404	16    	0.890578	0  	0.890578	0.890578
405	16    	0.890578	0  	0.890578	0.890578
406	16    	0.890578	0  	0.890578	0.890578
407	16    	0.890578	0  	0.890578	0.890578
408	16    	0.890578	0  	0.890578	0.890578
409	16    	0.890578	0  	0.890578	0.890578
410	16    	0.890578	0  	0.890578	0.890578
411	16    	0.890578	0  	0.890578	0.890578
412	16    	0.890578	0  	0.890578	0.890578
413	16    	0.890578	0  	0.890578	0.890578
414	16    	0.890578	0  	0.890578	0.890578
415	16    	0.890578	0  	0.890578	0.890578
416	16    	0.890578	0  	0.890578	0.890578
417	16    	0.890578	0  	0.890578	0.890578
418	16    	0.890578	0  	0.890578	0.890578
419	16    	0.890578	0  	0.890578	0.890578
420	16    	0.890578	0  	0.890578	0.890578
421	16    	0.890578	0  	0.890578	0.890578
422	16    	0.890578	0  	0.890578	0.890578
423	16    	0.890578	0  	0.890578	0.890578
424	16    	0.890578	0  	0.890578	0.890578
425	16    	0.890578	0  	0.890578	0.890578
426	16    	0.890578	0  	0.890578	0.890578
427	16    	0.890578	0  	0.890578	0.890578
428	16    	0.890578	0  	0.890578	0.890578
429	16    	0.890578	0  	0.890578	0.890578
430	16    	0.890578	0  	0.890578	0.890578
431	16    	0.890578	0  	0.890578	0.890578
432	16    	0.890578	0  	0.890578	0.890578
433	16    	0.890578	0  	0.890578	0.890578
434	16    	0.890578	0  	0.890578	0.890578
435	16    	0.890578	0  	0.890578	0.890578
436	16    	0.890578	0  	0.890578	0.890578
437	16    	0.890578	0  	0.890578	0.890578
438	16    	0.890578	0  	0.890578	0.890578
439	16    	0.890578	0  	0.890578	0.890578
440	16    	0.890578	0  	0.890578	0.890578
441	16    	0.890578	0  	0.890578	0.890578
442	16    	0.890578	0  	0.890578	0.890578
443	16    	0.890578	0  	0.890578	0.890578
444	16    	0.890578	0  	0.890578	0.890578
445	16    	0.890943	0  	0.890943	0.890943
446	16    	0.891018	0  	0.891018	0.891018
447	16    	0.891018	0  	0.891018	0.891018
448	16    	0.891018	0  	0.891018	0.891018
449	16    	0.892562	0  	0.892562	0.892562
450	16    	0.892562	0  	0.892562	0.892562
451	16    	0.892562	0  	0.892562	0.892562
452	16    	0.892562	0  	0.892562	0.892562
453	16    	0.892562	0  	0.892562	0.892562
454	16    	0.892562	0  	0.892562	0.892562
455	16    	0.892562	0  	0.892562	0.892562
456	16    	0.892562	0  	0.892562	0.892562
457	16    	0.892562	0  	0.892562	0.892562
458	16    	0.892562	0  	0.892562	0.892562
459	16    	0.892562	0  	0.892562	0.892562
460	16    	0.892562	0  	0.892562	0.892562
461	16    	0.892562	0  	0.892562	0.892562
462	16    	0.892562	0  	0.892562	0.892562
463	16    	0.892562	0  	0.892562	0.892562
464	16    	0.89448 	0  	0.89448 	0.89448 
465	16    	0.89448 	0  	0.89448 	0.89448 
466	16    	0.89448 	0  	0.89448 	0.89448 
467	16    	0.89448 	0  	0.89448 	0.89448 
468	16    	0.89448 	0  	0.89448 	0.89448 
469	16    	0.89448 	0  	0.89448 	0.89448 
470	16    	0.89448 	0  	0.89448 	0.89448 
471	16    	0.89448 	0  	0.89448 	0.89448 
472	16    	0.89448 	0  	0.89448 	0.89448 
473	16    	0.89448 	0  	0.89448 	0.89448 
474	16    	0.89448 	0  	0.89448 	0.89448 
475	16    	0.89448 	0  	0.89448 	0.89448 
476	16    	0.89448 	0  	0.89448 	0.89448 
477	16    	0.89448 	0  	0.89448 	0.89448 
478	16    	0.89448 	0  	0.89448 	0.89448 
479	16    	0.89448 	0  	0.89448 	0.89448 
480	16    	0.89448 	0  	0.89448 	0.89448 
481	16    	0.89448 	0  	0.89448 	0.89448 
482	16    	0.89448 	0  	0.89448 	0.89448 
483	16    	0.89448 	0  	0.89448 	0.89448 
484	16    	0.89448 	0  	0.89448 	0.89448 
485	16    	0.89448 	0  	0.89448 	0.89448 
486	16    	0.89448 	0  	0.89448 	0.89448 
487	16    	0.89448 	0  	0.89448 	0.89448 
488	16    	0.89609 	0  	0.89609 	0.89609 
489	16    	0.89609 	0  	0.89609 	0.89609 
490	16    	0.89609 	0  	0.89609 	0.89609 
491	16    	0.89609 	0  	0.89609 	0.89609 
492	16    	0.89609 	0  	0.89609 	0.89609 
493	16    	0.896343	0  	0.896343	0.896343
494	16    	0.898243	0  	0.898243	0.898243
495	16    	0.898243	0  	0.898243	0.898243
496	16    	0.898243	0  	0.898243	0.898243
497	16    	0.898243	0  	0.898243	0.898243
498	16    	0.898243	0  	0.898243	0.898243
499	16    	0.898243	0  	0.898243	0.898243
500	16    	0.898243	0  	0.898243	0.898243
501	16    	0.898243	0  	0.898243	0.898243
502	16    	0.898243	0  	0.898243	0.898243
503	16    	0.898243	0  	0.898243	0.898243
504	16    	0.898243	0  	0.898243	0.898243
505	16    	0.898243	0  	0.898243	0.898243
506	16    	0.898243	0  	0.898243	0.898243
507	16    	0.898243	0  	0.898243	0.898243
508	16    	0.898243	0  	0.898243	0.898243
509	16    	0.898243	0  	0.898243	0.898243
510	16    	0.898243	0  	0.898243	0.898243
511	16    	0.898243	0  	0.898243	0.898243
512	16    	0.898243	0  	0.898243	0.898243
513	16    	0.898243	0  	0.898243	0.898243
514	16    	0.898243	0  	0.898243	0.898243
515	16    	0.898243	0  	0.898243	0.898243
516	16    	0.898243	0  	0.898243	0.898243
517	16    	0.898243	0  	0.898243	0.898243
518	16    	0.898243	0  	0.898243	0.898243
519	16    	0.898243	0  	0.898243	0.898243
520	16    	0.898243	0  	0.898243	0.898243
521	16    	0.898243	0  	0.898243	0.898243
522	16    	0.898243	0  	0.898243	0.898243
523	16    	0.898243	0  	0.898243	0.898243
524	16    	0.898243	0  	0.898243	0.898243
525	16    	0.898243	0  	0.898243	0.898243
526	16    	0.898243	0  	0.898243	0.898243
527	16    	0.898243	0  	0.898243	0.898243
528	16    	0.898243	0  	0.898243	0.898243
529	16    	0.898243	0  	0.898243	0.898243
530	16    	0.898243	0  	0.898243	0.898243
531	16    	0.898243	0  	0.898243	0.898243
532	16    	0.898243	0  	0.898243	0.898243
533	16    	0.898243	0  	0.898243	0.898243
534	16    	0.898243	0  	0.898243	0.898243
535	16    	0.898243	0  	0.898243	0.898243
536	16    	0.898243	0  	0.898243	0.898243
537	16    	0.898243	0  	0.898243	0.898243
538	16    	0.898243	0  	0.898243	0.898243
539	16    	0.898243	0  	0.898243	0.898243
540	16    	0.898243	0  	0.898243	0.898243
541	16    	0.898243	0  	0.898243	0.898243
542	16    	0.898243	0  	0.898243	0.898243
543	16    	0.898243	0  	0.898243	0.898243
544	16    	0.898243	0  	0.898243	0.898243
545	16    	0.898243	0  	0.898243	0.898243
546	16    	0.898243	0  	0.898243	0.898243
547	16    	0.898243	0  	0.898243	0.898243
548	16    	0.898243	0  	0.898243	0.898243
549	16    	0.898243	0  	0.898243	0.898243
550	16    	0.898243	0  	0.898243	0.898243
551	16    	0.898243	0  	0.898243	0.898243
552	16    	0.898243	0  	0.898243	0.898243
553	16    	0.898243	0  	0.898243	0.898243
554	16    	0.898973	0  	0.898973	0.898973
555	16    	0.898973	0  	0.898973	0.898973
556	16    	0.898973	0  	0.898973	0.898973
557	16    	0.898973	0  	0.898973	0.898973
558	16    	0.898973	0  	0.898973	0.898973
559	16    	0.898973	0  	0.898973	0.898973
560	16    	0.898973	0  	0.898973	0.898973
561	16    	0.898973	0  	0.898973	0.898973
562	16    	0.898973	0  	0.898973	0.898973
563	16    	0.898973	0  	0.898973	0.898973
564	16    	0.898973	0  	0.898973	0.898973
565	16    	0.899282	0  	0.899282	0.899282
566	16    	0.899282	0  	0.899282	0.899282
567	16    	0.899282	0  	0.899282	0.899282
568	16    	0.899282	0  	0.899282	0.899282
569	16    	0.899282	0  	0.899282	0.899282
570	16    	0.899282	0  	0.899282	0.899282
571	16    	0.899282	0  	0.899282	0.899282
572	16    	0.899282	0  	0.899282	0.899282
573	16    	0.900629	0  	0.900629	0.900629
574	16    	0.900629	0  	0.900629	0.900629
575	16    	0.900629	0  	0.900629	0.900629
576	16    	0.900629	0  	0.900629	0.900629
577	16    	0.900629	0  	0.900629	0.900629
578	16    	0.900629	0  	0.900629	0.900629
579	16    	0.900629	0  	0.900629	0.900629
580	16    	0.900629	0  	0.900629	0.900629
581	16    	0.900629	0  	0.900629	0.900629
582	16    	0.900629	0  	0.900629	0.900629
583	16    	0.900629	0  	0.900629	0.900629
584	16    	0.900629	0  	0.900629	0.900629
585	16    	0.900629	0  	0.900629	0.900629
586	16    	0.900629	0  	0.900629	0.900629
587	16    	0.900629	0  	0.900629	0.900629
588	16    	0.900629	0  	0.900629	0.900629
589	16    	0.900629	0  	0.900629	0.900629
590	16    	0.900629	0  	0.900629	0.900629
591	16    	0.900629	0  	0.900629	0.900629
592	16    	0.900629	0  	0.900629	0.900629
593	16    	0.900629	0  	0.900629	0.900629
594	16    	0.900629	0  	0.900629	0.900629
595	16    	0.900629	0  	0.900629	0.900629
596	16    	0.900629	0  	0.900629	0.900629
597	16    	0.900629	0  	0.900629	0.900629
598	16    	0.900629	0  	0.900629	0.900629
599	16    	0.900629	0  	0.900629	0.900629
600	16    	0.900629	0  	0.900629	0.900629
601	16    	0.900629	0  	0.900629	0.900629
602	16    	0.901116	0  	0.901116	0.901116
603	16    	0.901116	0  	0.901116	0.901116
604	16    	0.901116	0  	0.901116	0.901116
605	16    	0.901116	0  	0.901116	0.901116
606	16    	0.901116	0  	0.901116	0.901116
607	16    	0.901116	0  	0.901116	0.901116
608	16    	0.901116	0  	0.901116	0.901116
609	16    	0.901116	0  	0.901116	0.901116
610	16    	0.901116	0  	0.901116	0.901116
611	16    	0.901116	0  	0.901116	0.901116
612	16    	0.901116	0  	0.901116	0.901116
613	16    	0.901116	0  	0.901116	0.901116
614	16    	0.901116	0  	0.901116	0.901116
615	16    	0.901116	0  	0.901116	0.901116
616	16    	0.901116	0  	0.901116	0.901116
617	16    	0.901116	0  	0.901116	0.901116
618	16    	0.901116	0  	0.901116	0.901116
619	16    	0.901116	0  	0.901116	0.901116
620	16    	0.901116	0  	0.901116	0.901116
621	16    	0.901116	0  	0.901116	0.901116
622	16    	0.901116	0  	0.901116	0.901116
623	16    	0.901116	0  	0.901116	0.901116
624	16    	0.901116	0  	0.901116	0.901116
625	16    	0.901116	0  	0.901116	0.901116