gen	nevals	avg     	std	min     	max     
0  	1     	0.881126	0  	0.881126	0.881126
1  	16    	0.886134	0  	0.886134	0.886134
2  	16    	0.886134	0  	0.886134	0.886134
3  	16    	0.887542	0  	0.887542	0.887542
4  	16    	0.888565	0  	0.888565	0.888565
5  	16    	0.893014	0  	0.893014	0.893014
6  	16    	0.897995	0  	0.897995	0.897995
7  	16    	0.897995	0  	0.897995	0.897995
8  	16    	0.90542 	0  	0.90542 	0.90542 
9  	16    	0.90542 	0  	0.90542 	0.90542 
10 	16    	0.90542 	0  	0.90542 	0.90542 
11 	16    	0.90542 	0  	0.90542 	0.90542 
12 	16    	0.90542 	0  	0.90542 	0.90542 
13 	16    	0.90542 	0  	0.90542 	0.90542 
14 	16    	0.906483	0  	0.906483	0.906483
15 	16    	0.906483	0  	0.906483	0.906483
16 	16    	0.906483	0  	0.906483	0.906483
17 	16    	0.908455	0  	0.908455	0.908455
18 	16    	0.908455	0  	0.908455	0.908455
19 	16    	0.914459	0  	0.914459	0.914459
20 	16    	0.914459	0  	0.914459	0.914459
21 	16    	0.914459	0  	0.914459	0.914459
22 	16    	0.915661	0  	0.915661	0.915661
23 	16    	0.915661	0  	0.915661	0.915661
24 	16    	0.917932	0  	0.917932	0.917932
25 	16    	0.917932	0  	0.917932	0.917932
26 	16    	0.917932	0  	0.917932	0.917932
27 	16    	0.917932	0  	0.917932	0.917932
28 	16    	0.917932	0  	0.917932	0.917932
29 	16    	0.917932	0  	0.917932	0.917932
30 	16    	0.917932	0  	0.917932	0.917932
31 	16    	0.917932	0  	0.917932	0.917932
32 	16    	0.917932	0  	0.917932	0.917932
33 	16    	0.917932	0  	0.917932	0.917932
34 	16    	0.917932	0  	0.917932	0.917932
35 	16    	0.917932	0  	0.917932	0.917932
36 	16    	0.917932	0  	0.917932	0.917932
37 	16    	0.917932	0  	0.917932	0.917932
38 	16    	0.918271	0  	0.918271	0.918271
39 	16    	0.918271	0  	0.918271	0.918271
40 	16    	0.919918	0  	0.919918	0.919918
41 	16    	0.920409	0  	0.920409	0.920409
42 	16    	0.920409	0  	0.920409	0.920409
43 	16    	0.920409	0  	0.920409	0.920409
44 	16    	0.920456	0  	0.920456	0.920456
45 	16    	0.920456	0  	0.920456	0.920456
46 	16    	0.920456	0  	0.920456	0.920456
47 	16    	0.920456	0  	0.920456	0.920456
48 	16    	0.920456	0  	0.920456	0.920456
49 	16    	0.920456	0  	0.920456	0.920456
50 	16    	0.920456	0  	0.920456	0.920456
51 	16    	0.920456	0  	0.920456	0.920456
52 	16    	0.920456	0  	0.920456	0.920456
53 	16    	0.921924	0  	0.921924	0.921924
54 	16    	0.921924	0  	0.921924	0.921924
55 	16    	0.921924	0  	0.921924	0.921924
56 	16    	0.921924	0  	0.921924	0.921924
57 	16    	0.921924	0  	0.921924	0.921924
58 	16    	0.921924	0  	0.921924	0.921924
59 	16    	0.921924	0  	0.921924	0.921924
60 	16    	0.921924	0  	0.921924	0.921924
61 	16    	0.921924	0  	0.921924	0.921924
62 	16    	0.921924	0  	0.921924	0.921924
63 	16    	0.922973	0  	0.922973	0.922973
64 	16    	0.922973	0  	0.922973	0.922973
65 	16    	0.922973	0  	0.922973	0.922973
66 	16    	0.922973	0  	0.922973	0.922973
67 	16    	0.922973	0  	0.922973	0.922973
68 	16    	0.923345	0  	0.923345	0.923345
69 	16    	0.923345	0  	0.923345	0.923345
70 	16    	0.923345	0  	0.923345	0.923345
71 	16    	0.923345	0  	0.923345	0.923345
72 	16    	0.923345	0  	0.923345	0.923345
73 	16    	0.923345	0  	0.923345	0.923345
74 	16    	0.923345	0  	0.923345	0.923345
75 	16    	0.923345	0  	0.923345	0.923345
76 	16    	0.925251	0  	0.925251	0.925251
77 	16    	0.925251	0  	0.925251	0.925251
78 	16    	0.925251	0  	0.925251	0.925251
79 	16    	0.925251	0  	0.925251	0.925251
80 	16    	0.925251	0  	0.925251	0.925251
81 	16    	0.925251	0  	0.925251	0.925251
82 	16    	0.925251	0  	0.925251	0.925251
83 	16    	0.925251	0  	0.925251	0.925251
84 	16    	0.926054	0  	0.926054	0.926054
85 	16    	0.926792	0  	0.926792	0.926792
86 	16    	0.931274	0  	0.931274	0.931274
87 	16    	0.931274	0  	0.931274	0.931274
88 	16    	0.931274	0  	0.931274	0.931274
89 	16    	0.931274	0  	0.931274	0.931274
90 	16    	0.931274	0  	0.931274	0.931274
91 	16    	0.931274	0  	0.931274	0.931274
92 	16    	0.931274	0  	0.931274	0.931274
93 	16    	0.931274	0  	0.931274	0.931274
94 	16    	0.931274	0  	0.931274	0.931274
95 	16    	0.931274	0  	0.931274	0.931274
96 	16    	0.931274	0  	0.931274	0.931274
97 	16    	0.931274	0  	0.931274	0.931274
98 	16    	0.932716	0  	0.932716	0.932716
99 	16    	0.932716	0  	0.932716	0.932716
100	16    	0.932716	0  	0.932716	0.932716
101	16    	0.932716	0  	0.932716	0.932716
102	16    	0.932716	0  	0.932716	0.932716
103	16    	0.932716	0  	0.932716	0.932716
104	16    	0.932716	0  	0.932716	0.932716
105	16    	0.932716	0  	0.932716	0.932716
106	16    	0.932716	0  	0.932716	0.932716
107	16    	0.932716	0  	0.932716	0.932716
108	16    	0.932716	0  	0.932716	0.932716
109	16    	0.932716	0  	0.932716	0.932716
110	16    	0.932716	0  	0.932716	0.932716
111	16    	0.932716	0  	0.932716	0.932716
112	16    	0.932716	0  	0.932716	0.932716
113	16    	0.932716	0  	0.932716	0.932716
114	16    	0.932716	0  	0.932716	0.932716
115	16    	0.932716	0  	0.932716	0.932716
116	16    	0.932716	0  	0.932716	0.932716
117	16    	0.932716	0  	0.932716	0.932716
118	16    	0.932716	0  	0.932716	0.932716
119	16    	0.932716	0  	0.932716	0.932716
120	16    	0.932716	0  	0.932716	0.932716
121	16    	0.932716	0  	0.932716	0.932716
122	16    	0.932716	0  	0.932716	0.932716
123	16    	0.932716	0  	0.932716	0.932716
124	16    	0.932716	0  	0.932716	0.932716
125	16    	0.932716	0  	0.932716	0.932716
126	16    	0.932716	0  	0.932716	0.932716
127	16    	0.932716	0  	0.932716	0.932716
128	16    	0.932716	0  	0.932716	0.932716
129	16    	0.932716	0  	0.932716	0.932716
130	16    	0.932716	0  	0.932716	0.932716
131	16    	0.932716	0  	0.932716	0.932716
132	16    	0.932716	0  	0.932716	0.932716
133	16    	0.932716	0  	0.932716	0.932716
134	16    	0.932716	0  	0.932716	0.932716
135	16    	0.932716	0  	0.932716	0.932716
136	16    	0.934987	0  	0.934987	0.934987
137	16    	0.934987	0  	0.934987	0.934987
138	16    	0.934987	0  	0.934987	0.934987
139	16    	0.934987	0  	0.934987	0.934987
140	16    	0.934987	0  	0.934987	0.934987
141	16    	0.934987	0  	0.934987	0.934987
142	16    	0.934987	0  	0.934987	0.934987
143	16    	0.934987	0  	0.934987	0.934987
144	16    	0.934987	0  	0.934987	0.934987
145	16    	0.936089	0  	0.936089	0.936089
146	16    	0.936089	0  	0.936089	0.936089
147	16    	0.936089	0  	0.936089	0.936089
148	16    	0.936089	0  	0.936089	0.936089
149	16    	0.936089	0  	0.936089	0.936089
150	16    	0.936089	0  	0.936089	0.936089
151	16    	0.936089	0  	0.936089	0.936089
152	16    	0.936089	0  	0.936089	0.936089
153	16    	0.936089	0  	0.936089	0.936089
154	16    	0.936089	0  	0.936089	0.936089
155	16    	0.936089	0  	0.936089	0.936089
156	16    	0.936089	0  	0.936089	0.936089
157	16    	0.936089	0  	0.936089	0.936089
158	16    	0.936089	0  	0.936089	0.936089
159	16    	0.936089	0  	0.936089	0.936089
160	16    	0.936089	0  	0.936089	0.936089
161	16    	0.936089	0  	0.936089	0.936089
162	16    	0.936089	0  	0.936089	0.936089
163	16    	0.936089	0  	0.936089	0.936089
164	16    	0.936089	0  	0.936089	0.936089
165	16    	0.936089	0  	0.936089	0.936089
166	16    	0.936089	0  	0.936089	0.936089
167	16    	0.936089	0  	0.936089	0.936089
168	16    	0.936089	0  	0.936089	0.936089
169	16    	0.936089	0  	0.936089	0.936089
170	16    	0.936089	0  	0.936089	0.936089
171	16    	0.936089	0  	0.936089	0.936089
172	16    	0.936089	0  	0.936089	0.936089
173	16    	0.936089	0  	0.936089	0.936089
174	16    	0.936089	0  	0.936089	0.936089
175	16    	0.936089	0  	0.936089	0.936089
176	16    	0.936089	0  	0.936089	0.936089
177	16    	0.936089	0  	0.936089	0.936089
178	16    	0.936089	0  	0.936089	0.936089
179	16    	0.936089	0  	0.936089	0.936089
180	16    	0.936089	0  	0.936089	0.936089
181	16    	0.936089	0  	0.936089	0.936089
182	16    	0.936089	0  	0.936089	0.936089
183	16    	0.936089	0  	0.936089	0.936089
184	16    	0.936089	0  	0.936089	0.936089
185	16    	0.936089	0  	0.936089	0.936089
186	16    	0.936089	0  	0.936089	0.936089
187	16    	0.936089	0  	0.936089	0.936089
188	16    	0.936089	0  	0.936089	0.936089
189	16    	0.936089	0  	0.936089	0.936089
190	16    	0.936089	0  	0.936089	0.936089
191	16    	0.938161	0  	0.938161	0.938161
192	16    	0.938161	0  	0.938161	0.938161
193	16    	0.938161	0  	0.938161	0.938161
194	16    	0.938161	0  	0.938161	0.938161
195	16    	0.938161	0  	0.938161	0.938161
196	16    	0.938161	0  	0.938161	0.938161
197	16    	0.938161	0  	0.938161	0.938161
198	16    	0.938161	0  	0.938161	0.938161
199	16    	0.938161	0  	0.938161	0.938161
200	16    	0.938161	0  	0.938161	0.938161
201	16    	0.938161	0  	0.938161	0.938161
202	16    	0.938161	0  	0.938161	0.938161
203	16    	0.938161	0  	0.938161	0.938161
204	16    	0.938161	0  	0.938161	0.938161
205	16    	0.938161	0  	0.938161	0.938161
206	16    	0.938161	0  	0.938161	0.938161
207	16    	0.938161	0  	0.938161	0.938161
208	16    	0.938161	0  	0.938161	0.938161
209	16    	0.938161	0  	0.938161	0.938161
210	16    	0.938161	0  	0.938161	0.938161
211	16    	0.938161	0  	0.938161	0.938161
212	16    	0.938161	0  	0.938161	0.938161
213	16    	0.938161	0  	0.938161	0.938161
214	16    	0.938161	0  	0.938161	0.938161
215	16    	0.938161	0  	0.938161	0.938161
216	16    	0.938161	0  	0.938161	0.938161
217	16    	0.938161	0  	0.938161	0.938161
218	16    	0.938161	0  	0.938161	0.938161
219	16    	0.938161	0  	0.938161	0.938161
220	16    	0.938161	0  	0.938161	0.938161
221	16    	0.938161	0  	0.938161	0.938161
222	16    	0.938161	0  	0.938161	0.938161
223	16    	0.938161	0  	0.938161	0.938161
224	16    	0.938161	0  	0.938161	0.938161
225	16    	0.938161	0  	0.938161	0.938161
226	16    	0.938161	0  	0.938161	0.938161
227	16    	0.938161	0  	0.938161	0.938161
228	16    	0.938161	0  	0.938161	0.938161
229	16    	0.938161	0  	0.938161	0.938161
230	16    	0.938161	0  	0.938161	0.938161
231	16    	0.938161	0  	0.938161	0.938161
232	16    	0.938161	0  	0.938161	0.938161
233	16    	0.938161	0  	0.938161	0.938161
234	16    	0.938161	0  	0.938161	0.938161
235	16    	0.938161	0  	0.938161	0.938161
236	16    	0.938161	0  	0.938161	0.938161
237	16    	0.938161	0  	0.938161	0.938161
238	16    	0.938932	0  	0.938932	0.938932
239	16    	0.938932	0  	0.938932	0.938932
240	16    	0.938932	0  	0.938932	0.938932
241	16    	0.938932	0  	0.938932	0.938932
242	16    	0.938932	0  	0.938932	0.938932
243	16    	0.938932	0  	0.938932	0.938932
244	16    	0.940393	0  	0.940393	0.940393
245	16    	0.941064	0  	0.941064	0.941064
246	16    	0.941064	0  	0.941064	0.941064
247	16    	0.941323	0  	0.941323	0.941323
248	16    	0.941323	0  	0.941323	0.941323
249	16    	0.941323	0  	0.941323	0.941323
250	16    	0.941323	0  	0.941323	0.941323
251	16    	0.941323	0  	0.941323	0.941323
252	16    	0.941323	0  	0.941323	0.941323
253	16    	0.943262	0  	0.943262	0.943262
254	16    	0.943262	0  	0.943262	0.943262
255	16    	0.943262	0  	0.943262	0.943262
256	16    	0.943262	0  	0.943262	0.943262
257	16    	0.943262	0  	0.943262	0.943262
258	16    	0.943262	0  	0.943262	0.943262
259	16    	0.943262	0  	0.943262	0.943262
260	16    	0.943262	0  	0.943262	0.943262
261	16    	0.943262	0  	0.943262	0.943262
262	16    	0.943262	0  	0.943262	0.943262
263	16    	0.943262	0  	0.943262	0.943262
264	16    	0.943262	0  	0.943262	0.943262
265	16    	0.943262	0  	0.943262	0.943262
266	16    	0.943262	0  	0.943262	0.943262
267	16    	0.943262	0  	0.943262	0.943262
268	16    	0.943262	0  	0.943262	0.943262
269	16    	0.943262	0  	0.943262	0.943262
270	16    	0.943262	0  	0.943262	0.943262
271	16    	0.943262	0  	0.943262	0.943262
272	16    	0.943262	0  	0.943262	0.943262
273	16    	0.943262	0  	0.943262	0.943262
274	16    	0.943262	0  	0.943262	0.943262
275	16    	0.943262	0  	0.943262	0.943262
276	16    	0.943262	0  	0.943262	0.943262
277	16    	0.943262	0  	0.943262	0.943262
278	16    	0.943262	0  	0.943262	0.943262
279	16    	0.943262	0  	0.943262	0.943262
280	16    	0.943262	0  	0.943262	0.943262
281	16    	0.943262	0  	0.943262	0.943262
282	16    	0.943262	0  	0.943262	0.943262
283	16    	0.943262	0  	0.943262	0.943262
284	16    	0.943262	0  	0.943262	0.943262
285	16    	0.943262	0  	0.943262	0.943262
286	16    	0.943262	0  	0.943262	0.943262
287	16    	0.943262	0  	0.943262	0.943262
288	16    	0.943262	0  	0.943262	0.943262
289	16    	0.943262	0  	0.943262	0.943262
290	16    	0.943262	0  	0.943262	0.943262
291	16    	0.943262	0  	0.943262	0.943262
292	16    	0.944504	0  	0.944504	0.944504
293	16    	0.944504	0  	0.944504	0.944504
294	16    	0.944504	0  	0.944504	0.944504
295	16    	0.944504	0  	0.944504	0.944504
296	16    	0.944504	0  	0.944504	0.944504
297	16    	0.944504	0  	0.944504	0.944504
298	16    	0.944504	0  	0.944504	0.944504
299	16    	0.944504	0  	0.944504	0.944504
300	16    	0.944504	0  	0.944504	0.944504
301	16    	0.944504	0  	0.944504	0.944504
302	16    	0.944504	0  	0.944504	0.944504
303	16    	0.944504	0  	0.944504	0.944504
304	16    	0.94623 	0  	0.94623 	0.94623 
305	16    	0.94623 	0  	0.94623 	0.94623 
306	16    	0.94623 	0  	0.94623 	0.94623 
307	16    	0.94623 	0  	0.94623 	0.94623 
308	16    	0.94623 	0  	0.94623 	0.94623 
309	16    	0.94623 	0  	0.94623 	0.94623 
310	16    	0.94623 	0  	0.94623 	0.94623 
311	16    	0.94623 	0  	0.94623 	0.94623 
312	16    	0.94623 	0  	0.94623 	0.94623 
313	16    	0.94623 	0  	0.94623 	0.94623 
314	16    	0.94623 	0  	0.94623 	0.94623 
315	16    	0.94623 	0  	0.94623 	0.94623 
316	16    	0.94623 	0  	0.94623 	0.94623 
317	16    	0.94623 	0  	0.94623 	0.94623 
318	16    	0.94623 	0  	0.94623 	0.94623 
319	16    	0.94623 	0  	0.94623 	0.94623 
320	16    	0.94623 	0  	0.94623 	0.94623 
321	16    	0.94623 	0  	0.94623 	0.94623 
322	16    	0.94623 	0  	0.94623 	0.94623 
323	16    	0.94623 	0  	0.94623 	0.94623 
324	16    	0.94623 	0  	0.94623 	0.94623 
325	16    	0.94623 	0  	0.94623 	0.94623 
326	16    	0.94623 	0  	0.94623 	0.94623 
327	16    	0.94623 	0  	0.94623 	0.94623 
328	16    	0.94623 	0  	0.94623 	0.94623 
329	16    	0.94623 	0  	0.94623 	0.94623 
330	16    	0.94623 	0  	0.94623 	0.94623 
331	16    	0.94623 	0  	0.94623 	0.94623 
332	16    	0.94623 	0  	0.94623 	0.94623 
333	16    	0.94623 	0  	0.94623 	0.94623 
334	16    	0.94623 	0  	0.94623 	0.94623 
335	16    	0.94623 	0  	0.94623 	0.94623 
336	16    	0.94623 	0  	0.94623 	0.94623 
337	16    	0.94623 	0  	0.94623 	0.94623 
338	16    	0.94623 	0  	0.94623 	0.94623 
339	16    	0.94623 	0  	0.94623 	0.94623 
340	16    	0.94623 	0  	0.94623 	0.94623 
341	16    	0.94623 	0  	0.94623 	0.94623 
342	16    	0.94623 	0  	0.94623 	0.94623 
343	16    	0.94623 	0  	0.94623 	0.94623 
344	16    	0.94623 	0  	0.94623 	0.94623 
345	16    	0.94623 	0  	0.94623 	0.94623 
346	16    	0.94623 	0  	0.94623 	0.94623 
347	16    	0.94623 	0  	0.94623 	0.94623 
348	16    	0.94623 	0  	0.94623 	0.94623 
349	16    	0.94623 	0  	0.94623 	0.94623 
350	16    	0.94623 	0  	0.94623 	0.94623 
351	16    	0.94623 	0  	0.94623 	0.94623 
352	16    	0.94623 	0  	0.94623 	0.94623 
353	16    	0.94623 	0  	0.94623 	0.94623 
354	16    	0.94623 	0  	0.94623 	0.94623 
355	16    	0.94623 	0  	0.94623 	0.94623 
356	16    	0.94623 	0  	0.94623 	0.94623 
357	16    	0.94623 	0  	0.94623 	0.94623 
358	16    	0.94623 	0  	0.94623 	0.94623 
359	16    	0.94623 	0  	0.94623 	0.94623 
360	16    	0.94623 	0  	0.94623 	0.94623 
361	16    	0.94623 	0  	0.94623 	0.94623 
362	16    	0.94623 	0  	0.94623 	0.94623 
363	16    	0.94623 	0  	0.94623 	0.94623 
364	16    	0.94623 	0  	0.94623 	0.94623 
365	16    	0.94623 	0  	0.94623 	0.94623 
366	16    	0.94623 	0  	0.94623 	0.94623 
367	16    	0.948276	0  	0.948276	0.948276
368	16    	0.948276	0  	0.948276	0.948276
369	16    	0.948276	0  	0.948276	0.948276
370	16    	0.948276	0  	0.948276	0.948276
371	16    	0.948276	0  	0.948276	0.948276
372	16    	0.948276	0  	0.948276	0.948276
373	16    	0.948276	0  	0.948276	0.948276
374	16    	0.948276	0  	0.948276	0.948276
375	16    	0.948276	0  	0.948276	0.948276
376	16    	0.948276	0  	0.948276	0.948276
377	16    	0.948276	0  	0.948276	0.948276
378	16    	0.948276	0  	0.948276	0.948276
379	16    	0.948276	0  	0.948276	0.948276
380	16    	0.948276	0  	0.948276	0.948276
381	16    	0.948276	0  	0.948276	0.948276
382	16    	0.948276	0  	0.948276	0.948276
383	16    	0.948276	0  	0.948276	0.948276
384	16    	0.948276	0  	0.948276	0.948276
385	16    	0.948276	0  	0.948276	0.948276
386	16    	0.948276	0  	0.948276	0.948276
387	16    	0.948276	0  	0.948276	0.948276
388	16    	0.948276	0  	0.948276	0.948276
389	16    	0.948276	0  	0.948276	0.948276
390	16    	0.948276	0  	0.948276	0.948276
391	16    	0.948276	0  	0.948276	0.948276
392	16    	0.948276	0  	0.948276	0.948276
393	16    	0.948276	0  	0.948276	0.948276
394	16    	0.948276	0  	0.948276	0.948276
395	16    	0.948276	0  	0.948276	0.948276
396	16    	0.948276	0  	0.948276	0.948276
397	16    	0.948276	0  	0.948276	0.948276
398	16    	0.948276	0  	0.948276	0.948276
399	16    	0.948276	0  	0.948276	0.948276
400	16    	0.948276	0  	0.948276	0.948276
401	16    	0.948276	0  	0.948276	0.948276
402	16    	0.948276	0  	0.948276	0.948276
403	16    	0.948276	0  	0.948276	0.948276
404	16    	0.948276	0  	0.948276	0.948276
405	16    	0.948276	0  	0.948276	0.948276
406	16    	0.948276	0  	0.948276	0.948276
407	16    	0.948276	0  	0.948276	0.948276
408	16    	0.948276	0  	0.948276	0.948276
409	16    	0.948276	0  	0.948276	0.948276
410	16    	0.948276	0  	0.948276	0.948276
411	16    	0.948276	0  	0.948276	0.948276
412	16    	0.948276	0  	0.948276	0.948276
413	16    	0.948276	0  	0.948276	0.948276
414	16    	0.948276	0  	0.948276	0.948276
415	16    	0.948276	0  	0.948276	0.948276
416	16    	0.948276	0  	0.948276	0.948276
417	16    	0.948276	0  	0.948276	0.948276
418	16    	0.948276	0  	0.948276	0.948276
419	16    	0.948276	0  	0.948276	0.948276
420	16    	0.948276	0  	0.948276	0.948276
421	16    	0.948276	0  	0.948276	0.948276
422	16    	0.948276	0  	0.948276	0.948276
423	16    	0.948276	0  	0.948276	0.948276
424	16    	0.948276	0  	0.948276	0.948276
425	16    	0.948276	0  	0.948276	0.948276
426	16    	0.948276	0  	0.948276	0.948276
427	16    	0.948276	0  	0.948276	0.948276
428	16    	0.948276	0  	0.948276	0.948276
429	16    	0.948276	0  	0.948276	0.948276
430	16    	0.948276	0  	0.948276	0.948276
431	16    	0.948276	0  	0.948276	0.948276
432	16    	0.948276	0  	0.948276	0.948276
433	16    	0.948276	0  	0.948276	0.948276
434	16    	0.948276	0  	0.948276	0.948276
435	16    	0.948276	0  	0.948276	0.948276
436	16    	0.948276	0  	0.948276	0.948276
437	16    	0.948276	0  	0.948276	0.948276
438	16    	0.948276	0  	0.948276	0.948276
439	16    	0.948276	0  	0.948276	0.948276
440	16    	0.948422	0  	0.948422	0.948422
441	16    	0.948422	0  	0.948422	0.948422
442	16    	0.948422	0  	0.948422	0.948422
443	16    	0.948422	0  	0.948422	0.948422
444	16    	0.948422	0  	0.948422	0.948422
445	16    	0.948422	0  	0.948422	0.948422
446	16    	0.948422	0  	0.948422	0.948422
447	16    	0.948422	0  	0.948422	0.948422
448	16    	0.948422	0  	0.948422	0.948422
449	16    	0.948422	0  	0.948422	0.948422
450	16    	0.948422	0  	0.948422	0.948422
451	16    	0.948422	0  	0.948422	0.948422
452	16    	0.948422	0  	0.948422	0.948422
453	16    	0.948422	0  	0.948422	0.948422
454	16    	0.948422	0  	0.948422	0.948422
455	16    	0.948422	0  	0.948422	0.948422
456	16    	0.948422	0  	0.948422	0.948422
457	16    	0.948422	0  	0.948422	0.948422
458	16    	0.948422	0  	0.948422	0.948422
459	16    	0.948422	0  	0.948422	0.948422
460	16    	0.948422	0  	0.948422	0.948422
461	16    	0.948422	0  	0.948422	0.948422
462	16    	0.948422	0  	0.948422	0.948422
463	16    	0.948422	0  	0.948422	0.948422
464	16    	0.948422	0  	0.948422	0.948422
465	16    	0.948422	0  	0.948422	0.948422
466	16    	0.948422	0  	0.948422	0.948422
467	16    	0.948422	0  	0.948422	0.948422
468	16    	0.948422	0  	0.948422	0.948422
469	16    	0.948422	0  	0.948422	0.948422
470	16    	0.948422	0  	0.948422	0.948422
471	16    	0.948422	0  	0.948422	0.948422
472	16    	0.948422	0  	0.948422	0.948422
473	16    	0.948422	0  	0.948422	0.948422
474	16    	0.948422	0  	0.948422	0.948422
475	16    	0.948422	0  	0.948422	0.948422
476	16    	0.948422	0  	0.948422	0.948422
477	16    	0.948422	0  	0.948422	0.948422
478	16    	0.948422	0  	0.948422	0.948422
479	16    	0.948422	0  	0.948422	0.948422
480	16    	0.948422	0  	0.948422	0.948422
481	16    	0.948422	0  	0.948422	0.948422
482	16    	0.948422	0  	0.948422	0.948422
483	16    	0.948422	0  	0.948422	0.948422
484	16    	0.948422	0  	0.948422	0.948422
485	16    	0.948422	0  	0.948422	0.948422
486	16    	0.948422	0  	0.948422	0.948422
487	16    	0.948422	0  	0.948422	0.948422
488	16    	0.948422	0  	0.948422	0.948422
489	16    	0.948422	0  	0.948422	0.948422
490	16    	0.948422	0  	0.948422	0.948422
491	16    	0.948422	0  	0.948422	0.948422
492	16    	0.948422	0  	0.948422	0.948422
493	16    	0.948422	0  	0.948422	0.948422
494	16    	0.948422	0  	0.948422	0.948422
495	16    	0.948422	0  	0.948422	0.948422
496	16    	0.948422	0  	0.948422	0.948422
497	16    	0.948422	0  	0.948422	0.948422
498	16    	0.948422	0  	0.948422	0.948422
499	16    	0.948422	0  	0.948422	0.948422
500	16    	0.948422	0  	0.948422	0.948422
501	16    	0.948422	0  	0.948422	0.948422
502	16    	0.948422	0  	0.948422	0.948422
503	16    	0.948422	0  	0.948422	0.948422
504	16    	0.948422	0  	0.948422	0.948422
505	16    	0.948422	0  	0.948422	0.948422
506	16    	0.948422	0  	0.948422	0.948422
507	16    	0.948422	0  	0.948422	0.948422
508	16    	0.948422	0  	0.948422	0.948422
509	16    	0.948422	0  	0.948422	0.948422
510	16    	0.948422	0  	0.948422	0.948422
511	16    	0.948422	0  	0.948422	0.948422
512	16    	0.948422	0  	0.948422	0.948422
513	16    	0.948422	0  	0.948422	0.948422
514	16    	0.948422	0  	0.948422	0.948422
515	16    	0.948422	0  	0.948422	0.948422
516	16    	0.948422	0  	0.948422	0.948422
517	16    	0.948422	0  	0.948422	0.948422
518	16    	0.948422	0  	0.948422	0.948422
519	16    	0.948422	0  	0.948422	0.948422
520	16    	0.948422	0  	0.948422	0.948422
521	16    	0.948422	0  	0.948422	0.948422
522	16    	0.948422	0  	0.948422	0.948422
523	16    	0.948422	0  	0.948422	0.948422
524	16    	0.948422	0  	0.948422	0.948422
525	16    	0.948422	0  	0.948422	0.948422
526	16    	0.948422	0  	0.948422	0.948422
527	16    	0.948422	0  	0.948422	0.948422
528	16    	0.948422	0  	0.948422	0.948422
529	16    	0.948422	0  	0.948422	0.948422
530	16    	0.948422	0  	0.948422	0.948422
531	16    	0.948422	0  	0.948422	0.948422
532	16    	0.948422	0  	0.948422	0.948422
533	16    	0.948422	0  	0.948422	0.948422
534	16    	0.948422	0  	0.948422	0.948422
535	16    	0.948422	0  	0.948422	0.948422
536	16    	0.948422	0  	0.948422	0.948422
537	16    	0.948422	0  	0.948422	0.948422
538	16    	0.948422	0  	0.948422	0.948422
539	16    	0.948422	0  	0.948422	0.948422
540	16    	0.948422	0  	0.948422	0.948422
541	16    	0.948422	0  	0.948422	0.948422
542	16    	0.948422	0  	0.948422	0.948422
543	16    	0.948422	0  	0.948422	0.948422
544	16    	0.948422	0  	0.948422	0.948422
545	16    	0.948422	0  	0.948422	0.948422
546	16    	0.948422	0  	0.948422	0.948422
547	16    	0.948422	0  	0.948422	0.948422
548	16    	0.948422	0  	0.948422	0.948422
549	16    	0.948422	0  	0.948422	0.948422
550	16    	0.948422	0  	0.948422	0.948422
551	16    	0.948422	0  	0.948422	0.948422
552	16    	0.948422	0  	0.948422	0.948422
553	16    	0.948422	0  	0.948422	0.948422
554	16    	0.948422	0  	0.948422	0.948422
555	16    	0.948422	0  	0.948422	0.948422
556	16    	0.948422	0  	0.948422	0.948422
557	16    	0.948422	0  	0.948422	0.948422
558	16    	0.948422	0  	0.948422	0.948422
559	16    	0.948422	0  	0.948422	0.948422
560	16    	0.948422	0  	0.948422	0.948422
561	16    	0.948422	0  	0.948422	0.948422
562	16    	0.948422	0  	0.948422	0.948422
563	16    	0.948422	0  	0.948422	0.948422
564	16    	0.948422	0  	0.948422	0.948422
565	16    	0.948422	0  	0.948422	0.948422
566	16    	0.948422	0  	0.948422	0.948422
567	16    	0.948422	0  	0.948422	0.948422
568	16    	0.948422	0  	0.948422	0.948422
569	16    	0.948422	0  	0.948422	0.948422
570	16    	0.949186	0  	0.949186	0.949186
571	16    	0.949186	0  	0.949186	0.949186
572	16    	0.949186	0  	0.949186	0.949186
573	16    	0.949186	0  	0.949186	0.949186
574	16    	0.949186	0  	0.949186	0.949186
575	16    	0.949186	0  	0.949186	0.949186
576	16    	0.949186	0  	0.949186	0.949186
577	16    	0.949186	0  	0.949186	0.949186
578	16    	0.949186	0  	0.949186	0.949186
579	16    	0.949186	0  	0.949186	0.949186
580	16    	0.949186	0  	0.949186	0.949186
581	16    	0.949186	0  	0.949186	0.949186
582	16    	0.949186	0  	0.949186	0.949186
583	16    	0.949186	0  	0.949186	0.949186
584	16    	0.949186	0  	0.949186	0.949186
585	16    	0.949186	0  	0.949186	0.949186
586	16    	0.949186	0  	0.949186	0.949186
587	16    	0.949186	0  	0.949186	0.949186
588	16    	0.949186	0  	0.949186	0.949186
589	16    	0.949186	0  	0.949186	0.949186
590	16    	0.949186	0  	0.949186	0.949186
591	16    	0.949186	0  	0.949186	0.949186
592	16    	0.949186	0  	0.949186	0.949186
593	16    	0.949186	0  	0.949186	0.949186
594	16    	0.949186	0  	0.949186	0.949186
595	16    	0.949186	0  	0.949186	0.949186
596	16    	0.949186	0  	0.949186	0.949186
597	16    	0.949186	0  	0.949186	0.949186
598	16    	0.949186	0  	0.949186	0.949186
599	16    	0.949186	0  	0.949186	0.949186
600	16    	0.949186	0  	0.949186	0.949186
601	16    	0.949186	0  	0.949186	0.949186
602	16    	0.949186	0  	0.949186	0.949186
603	16    	0.949186	0  	0.949186	0.949186
604	16    	0.949186	0  	0.949186	0.949186
605	16    	0.949186	0  	0.949186	0.949186
606	16    	0.949186	0  	0.949186	0.949186
607	16    	0.949186	0  	0.949186	0.949186
608	16    	0.949186	0  	0.949186	0.949186
609	16    	0.949186	0  	0.949186	0.949186
610	16    	0.949186	0  	0.949186	0.949186
611	16    	0.949186	0  	0.949186	0.949186
612	16    	0.949186	0  	0.949186	0.949186
613	16    	0.949186	0  	0.949186	0.949186
614	16    	0.949186	0  	0.949186	0.949186
615	16    	0.949186	0  	0.949186	0.949186
616	16    	0.949186	0  	0.949186	0.949186
617	16    	0.949186	0  	0.949186	0.949186
618	16    	0.949186	0  	0.949186	0.949186
619	16    	0.949186	0  	0.949186	0.949186
620	16    	0.949186	0  	0.949186	0.949186
621	16    	0.949186	0  	0.949186	0.949186
622	16    	0.949186	0  	0.949186	0.949186
623	16    	0.949186	0  	0.949186	0.949186
624	16    	0.949186	0  	0.949186	0.949186
625	16    	0.949186	0  	0.949186	0.949186