gen	nevals	avg     	std	min     	max     
0  	1     	0.712941	0  	0.712941	0.712941
1  	16    	0.721111	0  	0.721111	0.721111
2  	16    	0.721111	0  	0.721111	0.721111
3  	16    	0.721111	0  	0.721111	0.721111
4  	16    	0.727563	0  	0.727563	0.727563
5  	16    	0.727563	0  	0.727563	0.727563
6  	16    	0.727563	0  	0.727563	0.727563
7  	16    	0.727563	0  	0.727563	0.727563
8  	16    	0.727563	0  	0.727563	0.727563
9  	16    	0.727563	0  	0.727563	0.727563
10 	16    	0.727563	0  	0.727563	0.727563
11 	16    	0.727563	0  	0.727563	0.727563
12 	16    	0.727563	0  	0.727563	0.727563
13 	16    	0.727563	0  	0.727563	0.727563
14 	16    	0.728741	0  	0.728741	0.728741
15 	16    	0.728741	0  	0.728741	0.728741
16 	16    	0.728741	0  	0.728741	0.728741
17 	16    	0.728741	0  	0.728741	0.728741
18 	16    	0.728741	0  	0.728741	0.728741
19 	16    	0.728741	0  	0.728741	0.728741
20 	16    	0.728741	0  	0.728741	0.728741
21 	16    	0.728741	0  	0.728741	0.728741
22 	16    	0.728741	0  	0.728741	0.728741
23 	16    	0.728741	0  	0.728741	0.728741
24 	16    	0.728741	0  	0.728741	0.728741
25 	16    	0.728741	0  	0.728741	0.728741
26 	16    	0.730179	0  	0.730179	0.730179
27 	16    	0.734173	0  	0.734173	0.734173
28 	16    	0.734173	0  	0.734173	0.734173
29 	16    	0.734173	0  	0.734173	0.734173
30 	16    	0.734173	0  	0.734173	0.734173
31 	16    	0.734173	0  	0.734173	0.734173
32 	16    	0.734173	0  	0.734173	0.734173
33 	16    	0.734173	0  	0.734173	0.734173
34 	16    	0.734173	0  	0.734173	0.734173
35 	16    	0.73433 	0  	0.73433 	0.73433 
36 	16    	0.742299	0  	0.742299	0.742299
37 	16    	0.742299	0  	0.742299	0.742299
38 	16    	0.742299	0  	0.742299	0.742299
39 	16    	0.742299	0  	0.742299	0.742299
40 	16    	0.742299	0  	0.742299	0.742299
41 	16    	0.742299	0  	0.742299	0.742299
42 	16    	0.742299	0  	0.742299	0.742299
43 	16    	0.752553	0  	0.752553	0.752553
44 	16    	0.752553	0  	0.752553	0.752553
45 	16    	0.752553	0  	0.752553	0.752553
46 	16    	0.752553	0  	0.752553	0.752553
47 	16    	0.752553	0  	0.752553	0.752553
48 	16    	0.752553	0  	0.752553	0.752553
49 	16    	0.752553	0  	0.752553	0.752553
50 	16    	0.752553	0  	0.752553	0.752553
51 	16    	0.752553	0  	0.752553	0.752553
52 	16    	0.752553	0  	0.752553	0.752553
53 	16    	0.752553	0  	0.752553	0.752553
54 	16    	0.752553	0  	0.752553	0.752553
55 	16    	0.752553	0  	0.752553	0.752553
56 	16    	0.752553	0  	0.752553	0.752553
57 	16    	0.752553	0  	0.752553	0.752553
58 	16    	0.752553	0  	0.752553	0.752553
59 	16    	0.752553	0  	0.752553	0.752553
60 	16    	0.752553	0  	0.752553	0.752553
61 	16    	0.752553	0  	0.752553	0.752553
62 	16    	0.752553	0  	0.752553	0.752553
63 	16    	0.752553	0  	0.752553	0.752553
64 	16    	0.752553	0  	0.752553	0.752553
65 	16    	0.752553	0  	0.752553	0.752553
66 	16    	0.752553	0  	0.752553	0.752553
67 	16    	0.752553	0  	0.752553	0.752553
68 	16    	0.752553	0  	0.752553	0.752553
69 	16    	0.752553	0  	0.752553	0.752553
70 	16    	0.752553	0  	0.752553	0.752553
71 	16    	0.752553	0  	0.752553	0.752553
72 	16    	0.752553	0  	0.752553	0.752553
73 	16    	0.752553	0  	0.752553	0.752553
74 	16    	0.752553	0  	0.752553	0.752553
75 	16    	0.752553	0  	0.752553	0.752553
76 	16    	0.752553	0  	0.752553	0.752553
77 	16    	0.752553	0  	0.752553	0.752553
78 	16    	0.752553	0  	0.752553	0.752553
79 	16    	0.752553	0  	0.752553	0.752553
80 	16    	0.752553	0  	0.752553	0.752553
81 	16    	0.752553	0  	0.752553	0.752553
82 	16    	0.752553	0  	0.752553	0.752553
83 	16    	0.752553	0  	0.752553	0.752553
84 	16    	0.752553	0  	0.752553	0.752553
85 	16    	0.752553	0  	0.752553	0.752553
86 	16    	0.752553	0  	0.752553	0.752553
87 	16    	0.752553	0  	0.752553	0.752553
88 	16    	0.753102	0  	0.753102	0.753102
89 	16    	0.755413	0  	0.755413	0.755413
90 	16    	0.76537 	0  	0.76537 	0.76537 
91 	16    	0.76537 	0  	0.76537 	0.76537 
92 	16    	0.76537 	0  	0.76537 	0.76537 
93 	16    	0.76537 	0  	0.76537 	0.76537 
94 	16    	0.76537 	0  	0.76537 	0.76537 
95 	16    	0.76537 	0  	0.76537 	0.76537 
96 	16    	0.76537 	0  	0.76537 	0.76537 
97 	16    	0.76537 	0  	0.76537 	0.76537 
98 	16    	0.76537 	0  	0.76537 	0.76537 
99 	16    	0.76537 	0  	0.76537 	0.76537 
100	16    	0.76537 	0  	0.76537 	0.76537 
101	16    	0.76537 	0  	0.76537 	0.76537 
102	16    	0.76537 	0  	0.76537 	0.76537 
103	16    	0.76537 	0  	0.76537 	0.76537 
104	16    	0.76537 	0  	0.76537 	0.76537 
105	16    	0.76537 	0  	0.76537 	0.76537 
106	16    	0.76537 	0  	0.76537 	0.76537 
107	16    	0.767297	0  	0.767297	0.767297
108	16    	0.767297	0  	0.767297	0.767297
109	16    	0.767297	0  	0.767297	0.767297
110	16    	0.767297	0  	0.767297	0.767297
111	16    	0.767297	0  	0.767297	0.767297
112	16    	0.767297	0  	0.767297	0.767297
113	16    	0.767297	0  	0.767297	0.767297
114	16    	0.767297	0  	0.767297	0.767297
115	16    	0.767297	0  	0.767297	0.767297
116	16    	0.767297	0  	0.767297	0.767297
117	16    	0.768456	0  	0.768456	0.768456
118	16    	0.768456	0  	0.768456	0.768456
119	16    	0.768456	0  	0.768456	0.768456
120	16    	0.77381 	0  	0.77381 	0.77381 
121	16    	0.77381 	0  	0.77381 	0.77381 
122	16    	0.77381 	0  	0.77381 	0.77381 
123	16    	0.77381 	0  	0.77381 	0.77381 
124	16    	0.77381 	0  	0.77381 	0.77381 
125	16    	0.77381 	0  	0.77381 	0.77381 
126	16    	0.77381 	0  	0.77381 	0.77381 
127	16    	0.77381 	0  	0.77381 	0.77381 
128	16    	0.77381 	0  	0.77381 	0.77381 
129	16    	0.77381 	0  	0.77381 	0.77381 
130	16    	0.77381 	0  	0.77381 	0.77381 
131	16    	0.77381 	0  	0.77381 	0.77381 
132	16    	0.77381 	0  	0.77381 	0.77381 
133	16    	0.77381 	0  	0.77381 	0.77381 
134	16    	0.77381 	0  	0.77381 	0.77381 
135	16    	0.77381 	0  	0.77381 	0.77381 
136	16    	0.77381 	0  	0.77381 	0.77381 
137	16    	0.77381 	0  	0.77381 	0.77381 
138	16    	0.77381 	0  	0.77381 	0.77381 
139	16    	0.77381 	0  	0.77381 	0.77381 
140	16    	0.77381 	0  	0.77381 	0.77381 
141	16    	0.77381 	0  	0.77381 	0.77381 
142	16    	0.77381 	0  	0.77381 	0.77381 
143	16    	0.77381 	0  	0.77381 	0.77381 
144	16    	0.77381 	0  	0.77381 	0.77381 
145	16    	0.77381 	0  	0.77381 	0.77381 
146	16    	0.77381 	0  	0.77381 	0.77381 
147	16    	0.77381 	0  	0.77381 	0.77381 
148	16    	0.77381 	0  	0.77381 	0.77381 
149	16    	0.77381 	0  	0.77381 	0.77381 
150	16    	0.77381 	0  	0.77381 	0.77381 
151	16    	0.77381 	0  	0.77381 	0.77381 
152	16    	0.77381 	0  	0.77381 	0.77381 
153	16    	0.77381 	0  	0.77381 	0.77381 
154	16    	0.77381 	0  	0.77381 	0.77381 
155	16    	0.775066	0  	0.775066	0.775066
156	16    	0.775066	0  	0.775066	0.775066
157	16    	0.775066	0  	0.775066	0.775066
158	16    	0.775066	0  	0.775066	0.775066
159	16    	0.775066	0  	0.775066	0.775066
160	16    	0.775066	0  	0.775066	0.775066
161	16    	0.775066	0  	0.775066	0.775066
162	16    	0.775066	0  	0.775066	0.775066
163	16    	0.775066	0  	0.775066	0.775066
164	16    	0.775066	0  	0.775066	0.775066
165	16    	0.775066	0  	0.775066	0.775066
166	16    	0.775066	0  	0.775066	0.775066
167	16    	0.775066	0  	0.775066	0.775066
168	16    	0.776469	0  	0.776469	0.776469
169	16    	0.776469	0  	0.776469	0.776469
170	16    	0.776469	0  	0.776469	0.776469
171	16    	0.776469	0  	0.776469	0.776469
172	16    	0.776469	0  	0.776469	0.776469
173	16    	0.782974	0  	0.782974	0.782974
174	16    	0.782974	0  	0.782974	0.782974
175	16    	0.782974	0  	0.782974	0.782974
176	16    	0.782974	0  	0.782974	0.782974
177	16    	0.782974	0  	0.782974	0.782974
178	16    	0.782974	0  	0.782974	0.782974
179	16    	0.782974	0  	0.782974	0.782974
180	16    	0.784352	0  	0.784352	0.784352
181	16    	0.784352	0  	0.784352	0.784352
182	16    	0.784352	0  	0.784352	0.784352
183	16    	0.785005	0  	0.785005	0.785005
184	16    	0.785005	0  	0.785005	0.785005
185	16    	0.785005	0  	0.785005	0.785005
186	16    	0.785005	0  	0.785005	0.785005
187	16    	0.785005	0  	0.785005	0.785005
188	16    	0.785005	0  	0.785005	0.785005
189	16    	0.785005	0  	0.785005	0.785005
190	16    	0.785005	0  	0.785005	0.785005
191	16    	0.785005	0  	0.785005	0.785005
192	16    	0.786985	0  	0.786985	0.786985
193	16    	0.786985	0  	0.786985	0.786985
194	16    	0.786985	0  	0.786985	0.786985
195	16    	0.786985	0  	0.786985	0.786985
196	16    	0.786985	0  	0.786985	0.786985
197	16    	0.786985	0  	0.786985	0.786985
198	16    	0.786985	0  	0.786985	0.786985
199	16    	0.793158	0  	0.793158	0.793158
200	16    	0.793158	0  	0.793158	0.793158
201	16    	0.793158	0  	0.793158	0.793158
202	16    	0.793158	0  	0.793158	0.793158
203	16    	0.793158	0  	0.793158	0.793158
204	16    	0.793158	0  	0.793158	0.793158
205	16    	0.793158	0  	0.793158	0.793158
206	16    	0.793158	0  	0.793158	0.793158
207	16    	0.793158	0  	0.793158	0.793158
208	16    	0.793158	0  	0.793158	0.793158
209	16    	0.793158	0  	0.793158	0.793158
210	16    	0.793158	0  	0.793158	0.793158
211	16    	0.793158	0  	0.793158	0.793158
212	16    	0.793158	0  	0.793158	0.793158
213	16    	0.793158	0  	0.793158	0.793158
214	16    	0.793158	0  	0.793158	0.793158
215	16    	0.793158	0  	0.793158	0.793158
216	16    	0.793158	0  	0.793158	0.793158
217	16    	0.793158	0  	0.793158	0.793158
218	16    	0.793158	0  	0.793158	0.793158
219	16    	0.793158	0  	0.793158	0.793158
220	16    	0.793158	0  	0.793158	0.793158
221	16    	0.794222	0  	0.794222	0.794222
222	16    	0.794222	0  	0.794222	0.794222
223	16    	0.796959	0  	0.796959	0.796959
224	16    	0.796959	0  	0.796959	0.796959
225	16    	0.800421	0  	0.800421	0.800421
226	16    	0.800421	0  	0.800421	0.800421
227	16    	0.800421	0  	0.800421	0.800421
228	16    	0.800421	0  	0.800421	0.800421
229	16    	0.800421	0  	0.800421	0.800421
230	16    	0.800421	0  	0.800421	0.800421
231	16    	0.800421	0  	0.800421	0.800421
232	16    	0.800421	0  	0.800421	0.800421
233	16    	0.800421	0  	0.800421	0.800421
234	16    	0.800421	0  	0.800421	0.800421
235	16    	0.800421	0  	0.800421	0.800421
236	16    	0.800421	0  	0.800421	0.800421
237	16    	0.800421	0  	0.800421	0.800421
238	16    	0.800421	0  	0.800421	0.800421
239	16    	0.800421	0  	0.800421	0.800421
240	16    	0.800421	0  	0.800421	0.800421
241	16    	0.800421	0  	0.800421	0.800421
242	16    	0.800421	0  	0.800421	0.800421
243	16    	0.800421	0  	0.800421	0.800421
244	16    	0.800421	0  	0.800421	0.800421
245	16    	0.800421	0  	0.800421	0.800421
246	16    	0.800421	0  	0.800421	0.800421
247	16    	0.800421	0  	0.800421	0.800421
248	16    	0.800421	0  	0.800421	0.800421
249	16    	0.800421	0  	0.800421	0.800421
250	16    	0.800421	0  	0.800421	0.800421
251	16    	0.800421	0  	0.800421	0.800421
252	16    	0.800421	0  	0.800421	0.800421
253	16    	0.800421	0  	0.800421	0.800421
254	16    	0.800421	0  	0.800421	0.800421
255	16    	0.800421	0  	0.800421	0.800421
256	16    	0.800421	0  	0.800421	0.800421
257	16    	0.800421	0  	0.800421	0.800421
258	16    	0.800421	0  	0.800421	0.800421
259	16    	0.800421	0  	0.800421	0.800421
260	16    	0.800421	0  	0.800421	0.800421
261	16    	0.800421	0  	0.800421	0.800421
262	16    	0.800421	0  	0.800421	0.800421
263	16    	0.800421	0  	0.800421	0.800421
264	16    	0.800421	0  	0.800421	0.800421
265	16    	0.800421	0  	0.800421	0.800421
266	16    	0.800421	0  	0.800421	0.800421
267	16    	0.800421	0  	0.800421	0.800421
268	16    	0.800421	0  	0.800421	0.800421
269	16    	0.800421	0  	0.800421	0.800421
270	16    	0.800421	0  	0.800421	0.800421
271	16    	0.800421	0  	0.800421	0.800421
272	16    	0.800421	0  	0.800421	0.800421
273	16    	0.800421	0  	0.800421	0.800421
274	16    	0.800421	0  	0.800421	0.800421
275	16    	0.800421	0  	0.800421	0.800421
276	16    	0.800421	0  	0.800421	0.800421
277	16    	0.800421	0  	0.800421	0.800421
278	16    	0.800421	0  	0.800421	0.800421
279	16    	0.800421	0  	0.800421	0.800421
280	16    	0.800421	0  	0.800421	0.800421
281	16    	0.800421	0  	0.800421	0.800421
282	16    	0.800421	0  	0.800421	0.800421
283	16    	0.800421	0  	0.800421	0.800421
284	16    	0.800421	0  	0.800421	0.800421
285	16    	0.800421	0  	0.800421	0.800421
286	16    	0.800421	0  	0.800421	0.800421
287	16    	0.800421	0  	0.800421	0.800421
288	16    	0.800421	0  	0.800421	0.800421
289	16    	0.800421	0  	0.800421	0.800421
290	16    	0.800421	0  	0.800421	0.800421
291	16    	0.800421	0  	0.800421	0.800421
292	16    	0.800421	0  	0.800421	0.800421
293	16    	0.800421	0  	0.800421	0.800421
294	16    	0.800421	0  	0.800421	0.800421
295	16    	0.800421	0  	0.800421	0.800421
296	16    	0.800421	0  	0.800421	0.800421
297	16    	0.800421	0  	0.800421	0.800421
298	16    	0.800421	0  	0.800421	0.800421
299	16    	0.800421	0  	0.800421	0.800421
300	16    	0.800421	0  	0.800421	0.800421
301	16    	0.800421	0  	0.800421	0.800421
302	16    	0.800421	0  	0.800421	0.800421
303	16    	0.800421	0  	0.800421	0.800421
304	16    	0.800421	0  	0.800421	0.800421
305	16    	0.800421	0  	0.800421	0.800421
306	16    	0.800421	0  	0.800421	0.800421
307	16    	0.800421	0  	0.800421	0.800421
308	16    	0.800421	0  	0.800421	0.800421
309	16    	0.800421	0  	0.800421	0.800421
310	16    	0.800866	0  	0.800866	0.800866
311	16    	0.800866	0  	0.800866	0.800866
312	16    	0.800866	0  	0.800866	0.800866
313	16    	0.800866	0  	0.800866	0.800866
314	16    	0.800866	0  	0.800866	0.800866
315	16    	0.800866	0  	0.800866	0.800866
316	16    	0.800866	0  	0.800866	0.800866
317	16    	0.800866	0  	0.800866	0.800866
318	16    	0.800866	0  	0.800866	0.800866
319	16    	0.800866	0  	0.800866	0.800866
320	16    	0.800866	0  	0.800866	0.800866
321	16    	0.800866	0  	0.800866	0.800866
322	16    	0.800866	0  	0.800866	0.800866
323	16    	0.800866	0  	0.800866	0.800866
324	16    	0.800866	0  	0.800866	0.800866
325	16    	0.800866	0  	0.800866	0.800866
326	16    	0.800866	0  	0.800866	0.800866
327	16    	0.800866	0  	0.800866	0.800866
328	16    	0.800866	0  	0.800866	0.800866
329	16    	0.800866	0  	0.800866	0.800866
330	16    	0.800866	0  	0.800866	0.800866
331	16    	0.800866	0  	0.800866	0.800866
332	16    	0.800866	0  	0.800866	0.800866
333	16    	0.800866	0  	0.800866	0.800866
334	16    	0.800866	0  	0.800866	0.800866
335	16    	0.800866	0  	0.800866	0.800866
336	16    	0.800866	0  	0.800866	0.800866
337	16    	0.800866	0  	0.800866	0.800866
338	16    	0.800866	0  	0.800866	0.800866
339	16    	0.800866	0  	0.800866	0.800866
340	16    	0.800866	0  	0.800866	0.800866
341	16    	0.800866	0  	0.800866	0.800866
342	16    	0.800866	0  	0.800866	0.800866
343	16    	0.800866	0  	0.800866	0.800866
344	16    	0.800866	0  	0.800866	0.800866
345	16    	0.800866	0  	0.800866	0.800866
346	16    	0.800866	0  	0.800866	0.800866
347	16    	0.800866	0  	0.800866	0.800866
348	16    	0.800866	0  	0.800866	0.800866
349	16    	0.800866	0  	0.800866	0.800866
350	16    	0.800866	0  	0.800866	0.800866
351	16    	0.800866	0  	0.800866	0.800866
352	16    	0.800866	0  	0.800866	0.800866
353	16    	0.800866	0  	0.800866	0.800866
354	16    	0.800866	0  	0.800866	0.800866
355	16    	0.800866	0  	0.800866	0.800866
356	16    	0.800866	0  	0.800866	0.800866
357	16    	0.800866	0  	0.800866	0.800866
358	16    	0.800866	0  	0.800866	0.800866
359	16    	0.800866	0  	0.800866	0.800866
360	16    	0.800866	0  	0.800866	0.800866
361	16    	0.800866	0  	0.800866	0.800866
362	16    	0.800866	0  	0.800866	0.800866
363	16    	0.800866	0  	0.800866	0.800866
364	16    	0.800866	0  	0.800866	0.800866
365	16    	0.800866	0  	0.800866	0.800866
366	16    	0.800866	0  	0.800866	0.800866
367	16    	0.800866	0  	0.800866	0.800866
368	16    	0.800866	0  	0.800866	0.800866
369	16    	0.800866	0  	0.800866	0.800866
370	16    	0.800866	0  	0.800866	0.800866
371	16    	0.800866	0  	0.800866	0.800866
372	16    	0.800866	0  	0.800866	0.800866
373	16    	0.800866	0  	0.800866	0.800866
374	16    	0.800866	0  	0.800866	0.800866
375	16    	0.800866	0  	0.800866	0.800866
376	16    	0.800866	0  	0.800866	0.800866
377	16    	0.800866	0  	0.800866	0.800866
378	16    	0.800866	0  	0.800866	0.800866
379	16    	0.800866	0  	0.800866	0.800866
380	16    	0.800866	0  	0.800866	0.800866
381	16    	0.800866	0  	0.800866	0.800866
382	16    	0.800866	0  	0.800866	0.800866
383	16    	0.800866	0  	0.800866	0.800866
384	16    	0.800866	0  	0.800866	0.800866
385	16    	0.800866	0  	0.800866	0.800866
386	16    	0.800866	0  	0.800866	0.800866
387	16    	0.800866	0  	0.800866	0.800866
388	16    	0.800866	0  	0.800866	0.800866
389	16    	0.800866	0  	0.800866	0.800866
390	16    	0.800866	0  	0.800866	0.800866
391	16    	0.800866	0  	0.800866	0.800866
392	16    	0.800866	0  	0.800866	0.800866
393	16    	0.800866	0  	0.800866	0.800866
394	16    	0.800866	0  	0.800866	0.800866
395	16    	0.800866	0  	0.800866	0.800866
396	16    	0.800866	0  	0.800866	0.800866
397	16    	0.800866	0  	0.800866	0.800866
398	16    	0.800866	0  	0.800866	0.800866
399	16    	0.800866	0  	0.800866	0.800866
400	16    	0.800866	0  	0.800866	0.800866
401	16    	0.800866	0  	0.800866	0.800866
402	16    	0.800866	0  	0.800866	0.800866
403	16    	0.800866	0  	0.800866	0.800866
404	16    	0.800866	0  	0.800866	0.800866
405	16    	0.800866	0  	0.800866	0.800866
406	16    	0.800866	0  	0.800866	0.800866
407	16    	0.800866	0  	0.800866	0.800866
408	16    	0.800866	0  	0.800866	0.800866
409	16    	0.800866	0  	0.800866	0.800866
410	16    	0.800866	0  	0.800866	0.800866
411	16    	0.800866	0  	0.800866	0.800866
412	16    	0.800866	0  	0.800866	0.800866
413	16    	0.800866	0  	0.800866	0.800866
414	16    	0.800866	0  	0.800866	0.800866
415	16    	0.800866	0  	0.800866	0.800866
416	16    	0.800866	0  	0.800866	0.800866
417	16    	0.800866	0  	0.800866	0.800866
418	16    	0.800866	0  	0.800866	0.800866
419	16    	0.800866	0  	0.800866	0.800866
420	16    	0.800866	0  	0.800866	0.800866
421	16    	0.800866	0  	0.800866	0.800866
422	16    	0.800866	0  	0.800866	0.800866
423	16    	0.800866	0  	0.800866	0.800866
424	16    	0.800866	0  	0.800866	0.800866
425	16    	0.800866	0  	0.800866	0.800866
426	16    	0.800866	0  	0.800866	0.800866
427	16    	0.800866	0  	0.800866	0.800866
428	16    	0.800866	0  	0.800866	0.800866
429	16    	0.800866	0  	0.800866	0.800866
430	16    	0.800866	0  	0.800866	0.800866
431	16    	0.800866	0  	0.800866	0.800866
432	16    	0.800866	0  	0.800866	0.800866
433	16    	0.800866	0  	0.800866	0.800866
434	16    	0.800866	0  	0.800866	0.800866
435	16    	0.800866	0  	0.800866	0.800866
436	16    	0.800866	0  	0.800866	0.800866
437	16    	0.800866	0  	0.800866	0.800866
438	16    	0.800866	0  	0.800866	0.800866
439	16    	0.800866	0  	0.800866	0.800866
440	16    	0.800866	0  	0.800866	0.800866
441	16    	0.801345	0  	0.801345	0.801345
442	16    	0.801345	0  	0.801345	0.801345
443	16    	0.801345	0  	0.801345	0.801345
444	16    	0.801345	0  	0.801345	0.801345
445	16    	0.801345	0  	0.801345	0.801345
446	16    	0.801345	0  	0.801345	0.801345
447	16    	0.801345	0  	0.801345	0.801345
448	16    	0.801345	0  	0.801345	0.801345
449	16    	0.801345	0  	0.801345	0.801345
450	16    	0.801345	0  	0.801345	0.801345
451	16    	0.801345	0  	0.801345	0.801345
452	16    	0.801345	0  	0.801345	0.801345
453	16    	0.801345	0  	0.801345	0.801345
454	16    	0.801345	0  	0.801345	0.801345
455	16    	0.801345	0  	0.801345	0.801345
456	16    	0.801345	0  	0.801345	0.801345
457	16    	0.801345	0  	0.801345	0.801345
458	16    	0.801345	0  	0.801345	0.801345
459	16    	0.801345	0  	0.801345	0.801345
460	16    	0.801345	0  	0.801345	0.801345
461	16    	0.801345	0  	0.801345	0.801345
462	16    	0.801345	0  	0.801345	0.801345
463	16    	0.801345	0  	0.801345	0.801345
464	16    	0.801345	0  	0.801345	0.801345
465	16    	0.801345	0  	0.801345	0.801345
466	16    	0.801345	0  	0.801345	0.801345
467	16    	0.801345	0  	0.801345	0.801345
468	16    	0.801345	0  	0.801345	0.801345
469	16    	0.801345	0  	0.801345	0.801345
470	16    	0.801345	0  	0.801345	0.801345
471	16    	0.802357	0  	0.802357	0.802357
472	16    	0.802357	0  	0.802357	0.802357
473	16    	0.802357	0  	0.802357	0.802357
474	16    	0.802357	0  	0.802357	0.802357
475	16    	0.802357	0  	0.802357	0.802357
476	16    	0.802357	0  	0.802357	0.802357
477	16    	0.802357	0  	0.802357	0.802357
478	16    	0.802357	0  	0.802357	0.802357
479	16    	0.802357	0  	0.802357	0.802357
480	16    	0.802357	0  	0.802357	0.802357
481	16    	0.802357	0  	0.802357	0.802357
482	16    	0.802357	0  	0.802357	0.802357
483	16    	0.802357	0  	0.802357	0.802357
484	16    	0.803734	0  	0.803734	0.803734
485	16    	0.803734	0  	0.803734	0.803734
486	16    	0.803734	0  	0.803734	0.803734
487	16    	0.803734	0  	0.803734	0.803734
488	16    	0.803734	0  	0.803734	0.803734
489	16    	0.803734	0  	0.803734	0.803734
490	16    	0.803734	0  	0.803734	0.803734
491	16    	0.80642 	0  	0.80642 	0.80642 
492	16    	0.808626	0  	0.808626	0.808626
493	16    	0.808626	0  	0.808626	0.808626
494	16    	0.808626	0  	0.808626	0.808626
495	16    	0.808626	0  	0.808626	0.808626
496	16    	0.808626	0  	0.808626	0.808626
497	16    	0.808626	0  	0.808626	0.808626
498	16    	0.808626	0  	0.808626	0.808626
499	16    	0.808626	0  	0.808626	0.808626
500	16    	0.808626	0  	0.808626	0.808626
501	16    	0.808626	0  	0.808626	0.808626
502	16    	0.808626	0  	0.808626	0.808626
503	16    	0.808626	0  	0.808626	0.808626
504	16    	0.808626	0  	0.808626	0.808626
505	16    	0.808626	0  	0.808626	0.808626
506	16    	0.808626	0  	0.808626	0.808626
507	16    	0.808626	0  	0.808626	0.808626
508	16    	0.808626	0  	0.808626	0.808626
509	16    	0.808626	0  	0.808626	0.808626
510	16    	0.808626	0  	0.808626	0.808626
511	16    	0.808626	0  	0.808626	0.808626
512	16    	0.808626	0  	0.808626	0.808626
513	16    	0.808626	0  	0.808626	0.808626
514	16    	0.808626	0  	0.808626	0.808626
515	16    	0.808626	0  	0.808626	0.808626
516	16    	0.808626	0  	0.808626	0.808626
517	16    	0.808626	0  	0.808626	0.808626
518	16    	0.808626	0  	0.808626	0.808626
519	16    	0.811669	0  	0.811669	0.811669
520	16    	0.811669	0  	0.811669	0.811669
521	16    	0.811669	0  	0.811669	0.811669
522	16    	0.811669	0  	0.811669	0.811669
523	16    	0.811669	0  	0.811669	0.811669
524	16    	0.811669	0  	0.811669	0.811669
525	16    	0.811669	0  	0.811669	0.811669
526	16    	0.811669	0  	0.811669	0.811669
527	16    	0.811669	0  	0.811669	0.811669
528	16    	0.813081	0  	0.813081	0.813081
529	16    	0.813081	0  	0.813081	0.813081
530	16    	0.813081	0  	0.813081	0.813081
531	16    	0.813081	0  	0.813081	0.813081
532	16    	0.813081	0  	0.813081	0.813081
533	16    	0.813081	0  	0.813081	0.813081
534	16    	0.813081	0  	0.813081	0.813081
535	16    	0.813081	0  	0.813081	0.813081
536	16    	0.813081	0  	0.813081	0.813081
537	16    	0.813779	0  	0.813779	0.813779
538	16    	0.813779	0  	0.813779	0.813779
539	16    	0.813779	0  	0.813779	0.813779
540	16    	0.813779	0  	0.813779	0.813779
541	16    	0.813779	0  	0.813779	0.813779
542	16    	0.813779	0  	0.813779	0.813779
543	16    	0.813779	0  	0.813779	0.813779
544	16    	0.813779	0  	0.813779	0.813779
545	16    	0.813779	0  	0.813779	0.813779
546	16    	0.813779	0  	0.813779	0.813779
547	16    	0.813779	0  	0.813779	0.813779
548	16    	0.813779	0  	0.813779	0.813779
549	16    	0.813779	0  	0.813779	0.813779
550	16    	0.813779	0  	0.813779	0.813779
551	16    	0.813779	0  	0.813779	0.813779
552	16    	0.813779	0  	0.813779	0.813779
553	16    	0.813779	0  	0.813779	0.813779
554	16    	0.813779	0  	0.813779	0.813779
555	16    	0.813779	0  	0.813779	0.813779
556	16    	0.813779	0  	0.813779	0.813779
557	16    	0.813779	0  	0.813779	0.813779
558	16    	0.813779	0  	0.813779	0.813779
559	16    	0.813779	0  	0.813779	0.813779
560	16    	0.813779	0  	0.813779	0.813779
561	16    	0.813779	0  	0.813779	0.813779
562	16    	0.813779	0  	0.813779	0.813779
563	16    	0.813779	0  	0.813779	0.813779
564	16    	0.813779	0  	0.813779	0.813779
565	16    	0.813779	0  	0.813779	0.813779
566	16    	0.813779	0  	0.813779	0.813779
567	16    	0.813779	0  	0.813779	0.813779
568	16    	0.813779	0  	0.813779	0.813779
569	16    	0.813779	0  	0.813779	0.813779
570	16    	0.813779	0  	0.813779	0.813779
571	16    	0.813779	0  	0.813779	0.813779
572	16    	0.813779	0  	0.813779	0.813779
573	16    	0.813779	0  	0.813779	0.813779
574	16    	0.813779	0  	0.813779	0.813779
575	16    	0.813779	0  	0.813779	0.813779
576	16    	0.813779	0  	0.813779	0.813779
577	16    	0.813779	0  	0.813779	0.813779
578	16    	0.813779	0  	0.813779	0.813779
579	16    	0.813779	0  	0.813779	0.813779
580	16    	0.813779	0  	0.813779	0.813779
581	16    	0.813779	0  	0.813779	0.813779
582	16    	0.813779	0  	0.813779	0.813779
583	16    	0.813779	0  	0.813779	0.813779
584	16    	0.813779	0  	0.813779	0.813779
585	16    	0.813779	0  	0.813779	0.813779
586	16    	0.813779	0  	0.813779	0.813779
587	16    	0.813779	0  	0.813779	0.813779
588	16    	0.813779	0  	0.813779	0.813779
589	16    	0.813779	0  	0.813779	0.813779
590	16    	0.813779	0  	0.813779	0.813779
591	16    	0.813779	0  	0.813779	0.813779
592	16    	0.813779	0  	0.813779	0.813779
593	16    	0.813779	0  	0.813779	0.813779
594	16    	0.813779	0  	0.813779	0.813779
595	16    	0.813779	0  	0.813779	0.813779
596	16    	0.813779	0  	0.813779	0.813779
597	16    	0.813779	0  	0.813779	0.813779
598	16    	0.813779	0  	0.813779	0.813779
599	16    	0.813779	0  	0.813779	0.813779
600	16    	0.813779	0  	0.813779	0.813779
601	16    	0.813779	0  	0.813779	0.813779
602	16    	0.813779	0  	0.813779	0.813779
603	16    	0.813779	0  	0.813779	0.813779
604	16    	0.813779	0  	0.813779	0.813779
605	16    	0.813779	0  	0.813779	0.813779
606	16    	0.813779	0  	0.813779	0.813779
607	16    	0.813779	0  	0.813779	0.813779
608	16    	0.813779	0  	0.813779	0.813779
609	16    	0.813779	0  	0.813779	0.813779
610	16    	0.813779	0  	0.813779	0.813779
611	16    	0.813779	0  	0.813779	0.813779
612	16    	0.813779	0  	0.813779	0.813779
613	16    	0.813779	0  	0.813779	0.813779
614	16    	0.813779	0  	0.813779	0.813779
615	16    	0.813779	0  	0.813779	0.813779
616	16    	0.813779	0  	0.813779	0.813779
617	16    	0.813779	0  	0.813779	0.813779
618	16    	0.813779	0  	0.813779	0.813779
619	16    	0.813779	0  	0.813779	0.813779
620	16    	0.813779	0  	0.813779	0.813779
621	16    	0.813779	0  	0.813779	0.813779
622	16    	0.813779	0  	0.813779	0.813779
623	16    	0.813779	0  	0.813779	0.813779
624	16    	0.813779	0  	0.813779	0.813779
625	16    	0.813779	0  	0.813779	0.813779