gen	nevals	avg     	std	min     	max     
0  	1     	0.913861	0  	0.913861	0.913861
1  	16    	0.913861	0  	0.913861	0.913861
2  	16    	0.913861	0  	0.913861	0.913861
3  	16    	0.913861	0  	0.913861	0.913861
4  	16    	0.918733	0  	0.918733	0.918733
5  	16    	0.918733	0  	0.918733	0.918733
6  	16    	0.918733	0  	0.918733	0.918733
7  	16    	0.918733	0  	0.918733	0.918733
8  	16    	0.918733	0  	0.918733	0.918733
9  	16    	0.918733	0  	0.918733	0.918733
10 	16    	0.918733	0  	0.918733	0.918733
11 	16    	0.918733	0  	0.918733	0.918733
12 	16    	0.918733	0  	0.918733	0.918733
13 	16    	0.918733	0  	0.918733	0.918733
14 	16    	0.918733	0  	0.918733	0.918733
15 	16    	0.918733	0  	0.918733	0.918733
16 	16    	0.918733	0  	0.918733	0.918733
17 	16    	0.918733	0  	0.918733	0.918733
18 	16    	0.918733	0  	0.918733	0.918733
19 	16    	0.918733	0  	0.918733	0.918733
20 	16    	0.918733	0  	0.918733	0.918733
21 	16    	0.919048	0  	0.919048	0.919048
22 	16    	0.919048	0  	0.919048	0.919048
23 	16    	0.919048	0  	0.919048	0.919048
24 	16    	0.919048	0  	0.919048	0.919048
25 	16    	0.919048	0  	0.919048	0.919048
26 	16    	0.919048	0  	0.919048	0.919048
27 	16    	0.919048	0  	0.919048	0.919048
28 	16    	0.919048	0  	0.919048	0.919048
29 	16    	0.919048	0  	0.919048	0.919048
30 	16    	0.919048	0  	0.919048	0.919048
31 	16    	0.919048	0  	0.919048	0.919048
32 	16    	0.921397	0  	0.921397	0.921397
33 	16    	0.921397	0  	0.921397	0.921397
34 	16    	0.921397	0  	0.921397	0.921397
35 	16    	0.923806	0  	0.923806	0.923806
36 	16    	0.923806	0  	0.923806	0.923806
37 	16    	0.923806	0  	0.923806	0.923806
38 	16    	0.923806	0  	0.923806	0.923806
39 	16    	0.923806	0  	0.923806	0.923806
40 	16    	0.923806	0  	0.923806	0.923806
41 	16    	0.923806	0  	0.923806	0.923806
42 	16    	0.925208	0  	0.925208	0.925208
43 	16    	0.925208	0  	0.925208	0.925208
44 	16    	0.925208	0  	0.925208	0.925208
45 	16    	0.925208	0  	0.925208	0.925208
46 	16    	0.925208	0  	0.925208	0.925208
47 	16    	0.925208	0  	0.925208	0.925208
48 	16    	0.925208	0  	0.925208	0.925208
49 	16    	0.925208	0  	0.925208	0.925208
50 	16    	0.925208	0  	0.925208	0.925208
51 	16    	0.925208	0  	0.925208	0.925208
52 	16    	0.925208	0  	0.925208	0.925208
53 	16    	0.925208	0  	0.925208	0.925208
54 	16    	0.925208	0  	0.925208	0.925208
55 	16    	0.925208	0  	0.925208	0.925208
56 	16    	0.925208	0  	0.925208	0.925208
57 	16    	0.925208	0  	0.925208	0.925208
58 	16    	0.925208	0  	0.925208	0.925208
59 	16    	0.925208	0  	0.925208	0.925208
60 	16    	0.925208	0  	0.925208	0.925208
61 	16    	0.925208	0  	0.925208	0.925208
62 	16    	0.925685	0  	0.925685	0.925685
63 	16    	0.925685	0  	0.925685	0.925685
64 	16    	0.925685	0  	0.925685	0.925685
65 	16    	0.925685	0  	0.925685	0.925685
66 	16    	0.925785	0  	0.925785	0.925785
67 	16    	0.925785	0  	0.925785	0.925785
68 	16    	0.925785	0  	0.925785	0.925785
69 	16    	0.925785	0  	0.925785	0.925785
70 	16    	0.925785	0  	0.925785	0.925785
71 	16    	0.925785	0  	0.925785	0.925785
72 	16    	0.925785	0  	0.925785	0.925785
73 	16    	0.925785	0  	0.925785	0.925785
74 	16    	0.925785	0  	0.925785	0.925785
75 	16    	0.925785	0  	0.925785	0.925785
76 	16    	0.926094	0  	0.926094	0.926094
77 	16    	0.926094	0  	0.926094	0.926094
78 	16    	0.926986	0  	0.926986	0.926986
79 	16    	0.926986	0  	0.926986	0.926986
80 	16    	0.926986	0  	0.926986	0.926986
81 	16    	0.926986	0  	0.926986	0.926986
82 	16    	0.93065 	0  	0.93065 	0.93065 
83 	16    	0.93065 	0  	0.93065 	0.93065 
84 	16    	0.93065 	0  	0.93065 	0.93065 
85 	16    	0.93065 	0  	0.93065 	0.93065 
86 	16    	0.933355	0  	0.933355	0.933355
87 	16    	0.933355	0  	0.933355	0.933355
88 	16    	0.933355	0  	0.933355	0.933355
89 	16    	0.933355	0  	0.933355	0.933355
90 	16    	0.933355	0  	0.933355	0.933355
91 	16    	0.933355	0  	0.933355	0.933355
92 	16    	0.933355	0  	0.933355	0.933355
93 	16    	0.933355	0  	0.933355	0.933355
94 	16    	0.933979	0  	0.933979	0.933979
95 	16    	0.933979	0  	0.933979	0.933979
96 	16    	0.933979	0  	0.933979	0.933979
97 	16    	0.933979	0  	0.933979	0.933979
98 	16    	0.933979	0  	0.933979	0.933979
99 	16    	0.936193	0  	0.936193	0.936193
100	16    	0.936193	0  	0.936193	0.936193
101	16    	0.936193	0  	0.936193	0.936193
102	16    	0.936193	0  	0.936193	0.936193
103	16    	0.936193	0  	0.936193	0.936193
104	16    	0.936193	0  	0.936193	0.936193
105	16    	0.936193	0  	0.936193	0.936193
106	16    	0.936193	0  	0.936193	0.936193
107	16    	0.936193	0  	0.936193	0.936193
108	16    	0.936193	0  	0.936193	0.936193
109	16    	0.936193	0  	0.936193	0.936193
110	16    	0.936193	0  	0.936193	0.936193
111	16    	0.936193	0  	0.936193	0.936193
112	16    	0.936193	0  	0.936193	0.936193
113	16    	0.936193	0  	0.936193	0.936193
114	16    	0.936193	0  	0.936193	0.936193
115	16    	0.936193	0  	0.936193	0.936193
116	16    	0.936193	0  	0.936193	0.936193
117	16    	0.936193	0  	0.936193	0.936193
118	16    	0.936193	0  	0.936193	0.936193
119	16    	0.936193	0  	0.936193	0.936193
120	16    	0.937139	0  	0.937139	0.937139
121	16    	0.937139	0  	0.937139	0.937139
122	16    	0.937139	0  	0.937139	0.937139
123	16    	0.937139	0  	0.937139	0.937139
124	16    	0.937139	0  	0.937139	0.937139
125	16    	0.937139	0  	0.937139	0.937139
126	16    	0.937139	0  	0.937139	0.937139
127	16    	0.937139	0  	0.937139	0.937139
128	16    	0.937139	0  	0.937139	0.937139
129	16    	0.937139	0  	0.937139	0.937139
130	16    	0.937139	0  	0.937139	0.937139
131	16    	0.937139	0  	0.937139	0.937139
132	16    	0.937139	0  	0.937139	0.937139
133	16    	0.937139	0  	0.937139	0.937139
134	16    	0.937139	0  	0.937139	0.937139
135	16    	0.937139	0  	0.937139	0.937139
136	16    	0.937139	0  	0.937139	0.937139
137	16    	0.937139	0  	0.937139	0.937139
138	16    	0.937139	0  	0.937139	0.937139
139	16    	0.937139	0  	0.937139	0.937139
140	16    	0.937139	0  	0.937139	0.937139
141	16    	0.937139	0  	0.937139	0.937139
142	16    	0.937139	0  	0.937139	0.937139
143	16    	0.937139	0  	0.937139	0.937139
144	16    	0.937139	0  	0.937139	0.937139
145	16    	0.937139	0  	0.937139	0.937139
146	16    	0.937139	0  	0.937139	0.937139
147	16    	0.937139	0  	0.937139	0.937139
148	16    	0.937139	0  	0.937139	0.937139
149	16    	0.938535	0  	0.938535	0.938535
150	16    	0.938535	0  	0.938535	0.938535
151	16    	0.938535	0  	0.938535	0.938535
152	16    	0.938535	0  	0.938535	0.938535
153	16    	0.938535	0  	0.938535	0.938535
154	16    	0.938535	0  	0.938535	0.938535
155	16    	0.938535	0  	0.938535	0.938535
156	16    	0.939287	0  	0.939287	0.939287
157	16    	0.939287	0  	0.939287	0.939287
158	16    	0.939287	0  	0.939287	0.939287
159	16    	0.939287	0  	0.939287	0.939287
160	16    	0.939287	0  	0.939287	0.939287
161	16    	0.940011	0  	0.940011	0.940011
162	16    	0.941387	0  	0.941387	0.941387
163	16    	0.941387	0  	0.941387	0.941387
164	16    	0.941387	0  	0.941387	0.941387
165	16    	0.941387	0  	0.941387	0.941387
166	16    	0.941387	0  	0.941387	0.941387
167	16    	0.941387	0  	0.941387	0.941387
168	16    	0.942561	0  	0.942561	0.942561
169	16    	0.942561	0  	0.942561	0.942561
170	16    	0.942561	0  	0.942561	0.942561
171	16    	0.945091	0  	0.945091	0.945091
172	16    	0.945091	0  	0.945091	0.945091
173	16    	0.945091	0  	0.945091	0.945091
174	16    	0.945091	0  	0.945091	0.945091
175	16    	0.945091	0  	0.945091	0.945091
176	16    	0.945091	0  	0.945091	0.945091
177	16    	0.945091	0  	0.945091	0.945091
178	16    	0.945178	0  	0.945178	0.945178
179	16    	0.945178	0  	0.945178	0.945178
180	16    	0.945178	0  	0.945178	0.945178
181	16    	0.945178	0  	0.945178	0.945178
182	16    	0.945178	0  	0.945178	0.945178
183	16    	0.945178	0  	0.945178	0.945178
184	16    	0.945178	0  	0.945178	0.945178
185	16    	0.945178	0  	0.945178	0.945178
186	16    	0.945178	0  	0.945178	0.945178
187	16    	0.945178	0  	0.945178	0.945178
188	16    	0.945178	0  	0.945178	0.945178
189	16    	0.945178	0  	0.945178	0.945178
190	16    	0.945178	0  	0.945178	0.945178
191	16    	0.945178	0  	0.945178	0.945178
192	16    	0.945178	0  	0.945178	0.945178
193	16    	0.945178	0  	0.945178	0.945178
194	16    	0.945178	0  	0.945178	0.945178
195	16    	0.945178	0  	0.945178	0.945178
196	16    	0.945178	0  	0.945178	0.945178
197	16    	0.945178	0  	0.945178	0.945178
198	16    	0.945178	0  	0.945178	0.945178
199	16    	0.945178	0  	0.945178	0.945178
200	16    	0.945178	0  	0.945178	0.945178
201	16    	0.945178	0  	0.945178	0.945178
202	16    	0.945178	0  	0.945178	0.945178
203	16    	0.945178	0  	0.945178	0.945178
204	16    	0.945178	0  	0.945178	0.945178
205	16    	0.945178	0  	0.945178	0.945178
206	16    	0.945178	0  	0.945178	0.945178
207	16    	0.945178	0  	0.945178	0.945178
208	16    	0.945178	0  	0.945178	0.945178
209	16    	0.945178	0  	0.945178	0.945178
210	16    	0.945178	0  	0.945178	0.945178
211	16    	0.945178	0  	0.945178	0.945178
212	16    	0.945178	0  	0.945178	0.945178
213	16    	0.945178	0  	0.945178	0.945178
214	16    	0.945178	0  	0.945178	0.945178
215	16    	0.945802	0  	0.945802	0.945802
216	16    	0.945802	0  	0.945802	0.945802
217	16    	0.945802	0  	0.945802	0.945802
218	16    	0.945802	0  	0.945802	0.945802
219	16    	0.945802	0  	0.945802	0.945802
220	16    	0.945802	0  	0.945802	0.945802
221	16    	0.948607	0  	0.948607	0.948607
222	16    	0.948607	0  	0.948607	0.948607
223	16    	0.948607	0  	0.948607	0.948607
224	16    	0.948607	0  	0.948607	0.948607
225	16    	0.948607	0  	0.948607	0.948607
226	16    	0.948607	0  	0.948607	0.948607
227	16    	0.948607	0  	0.948607	0.948607
228	16    	0.948607	0  	0.948607	0.948607
229	16    	0.948607	0  	0.948607	0.948607
230	16    	0.948607	0  	0.948607	0.948607
231	16    	0.948607	0  	0.948607	0.948607
232	16    	0.948607	0  	0.948607	0.948607
233	16    	0.948607	0  	0.948607	0.948607
234	16    	0.948607	0  	0.948607	0.948607
235	16    	0.948607	0  	0.948607	0.948607
236	16    	0.948607	0  	0.948607	0.948607
237	16    	0.948607	0  	0.948607	0.948607
238	16    	0.948607	0  	0.948607	0.948607
239	16    	0.948607	0  	0.948607	0.948607
240	16    	0.948607	0  	0.948607	0.948607
241	16    	0.948607	0  	0.948607	0.948607
242	16    	0.948607	0  	0.948607	0.948607
243	16    	0.948607	0  	0.948607	0.948607
244	16    	0.948607	0  	0.948607	0.948607
245	16    	0.948607	0  	0.948607	0.948607
246	16    	0.948607	0  	0.948607	0.948607
247	16    	0.948607	0  	0.948607	0.948607
248	16    	0.948607	0  	0.948607	0.948607
249	16    	0.948607	0  	0.948607	0.948607
250	16    	0.948607	0  	0.948607	0.948607
251	16    	0.948607	0  	0.948607	0.948607
252	16    	0.948607	0  	0.948607	0.948607
253	16    	0.948607	0  	0.948607	0.948607
254	16    	0.948607	0  	0.948607	0.948607
255	16    	0.948607	0  	0.948607	0.948607
256	16    	0.948607	0  	0.948607	0.948607
257	16    	0.948607	0  	0.948607	0.948607
258	16    	0.948607	0  	0.948607	0.948607
259	16    	0.948607	0  	0.948607	0.948607
260	16    	0.948607	0  	0.948607	0.948607
261	16    	0.948607	0  	0.948607	0.948607
262	16    	0.948607	0  	0.948607	0.948607
263	16    	0.948607	0  	0.948607	0.948607
264	16    	0.948607	0  	0.948607	0.948607
265	16    	0.948607	0  	0.948607	0.948607
266	16    	0.948607	0  	0.948607	0.948607
267	16    	0.948607	0  	0.948607	0.948607
268	16    	0.948607	0  	0.948607	0.948607
269	16    	0.948607	0  	0.948607	0.948607
270	16    	0.948607	0  	0.948607	0.948607
271	16    	0.948607	0  	0.948607	0.948607
272	16    	0.948607	0  	0.948607	0.948607
273	16    	0.948607	0  	0.948607	0.948607
274	16    	0.948607	0  	0.948607	0.948607
275	16    	0.948607	0  	0.948607	0.948607
276	16    	0.948607	0  	0.948607	0.948607
277	16    	0.948607	0  	0.948607	0.948607
278	16    	0.948607	0  	0.948607	0.948607
279	16    	0.948607	0  	0.948607	0.948607
280	16    	0.948607	0  	0.948607	0.948607
281	16    	0.948607	0  	0.948607	0.948607
282	16    	0.948607	0  	0.948607	0.948607
283	16    	0.948607	0  	0.948607	0.948607
284	16    	0.948607	0  	0.948607	0.948607
285	16    	0.948607	0  	0.948607	0.948607
286	16    	0.948607	0  	0.948607	0.948607
287	16    	0.948607	0  	0.948607	0.948607
288	16    	0.948607	0  	0.948607	0.948607
289	16    	0.948607	0  	0.948607	0.948607
290	16    	0.948607	0  	0.948607	0.948607
291	16    	0.948607	0  	0.948607	0.948607
292	16    	0.948607	0  	0.948607	0.948607
293	16    	0.948607	0  	0.948607	0.948607
294	16    	0.948607	0  	0.948607	0.948607
295	16    	0.948607	0  	0.948607	0.948607
296	16    	0.948607	0  	0.948607	0.948607
297	16    	0.948607	0  	0.948607	0.948607
298	16    	0.948607	0  	0.948607	0.948607
299	16    	0.948607	0  	0.948607	0.948607
300	16    	0.948607	0  	0.948607	0.948607
301	16    	0.948607	0  	0.948607	0.948607
302	16    	0.948607	0  	0.948607	0.948607
303	16    	0.948607	0  	0.948607	0.948607
304	16    	0.948607	0  	0.948607	0.948607
305	16    	0.948607	0  	0.948607	0.948607
306	16    	0.948607	0  	0.948607	0.948607
307	16    	0.948607	0  	0.948607	0.948607
308	16    	0.948607	0  	0.948607	0.948607
309	16    	0.948607	0  	0.948607	0.948607
310	16    	0.948607	0  	0.948607	0.948607
311	16    	0.948607	0  	0.948607	0.948607
312	16    	0.948607	0  	0.948607	0.948607
313	16    	0.948607	0  	0.948607	0.948607
314	16    	0.948607	0  	0.948607	0.948607
315	16    	0.948607	0  	0.948607	0.948607
316	16    	0.948607	0  	0.948607	0.948607
317	16    	0.948607	0  	0.948607	0.948607
318	16    	0.948607	0  	0.948607	0.948607
319	16    	0.948607	0  	0.948607	0.948607
320	16    	0.948607	0  	0.948607	0.948607
321	16    	0.948607	0  	0.948607	0.948607
322	16    	0.948607	0  	0.948607	0.948607
323	16    	0.948607	0  	0.948607	0.948607
324	16    	0.948607	0  	0.948607	0.948607
325	16    	0.948607	0  	0.948607	0.948607
326	16    	0.948607	0  	0.948607	0.948607
327	16    	0.948607	0  	0.948607	0.948607
328	16    	0.948607	0  	0.948607	0.948607
329	16    	0.948607	0  	0.948607	0.948607
330	16    	0.948607	0  	0.948607	0.948607
331	16    	0.948607	0  	0.948607	0.948607
332	16    	0.948607	0  	0.948607	0.948607
333	16    	0.948607	0  	0.948607	0.948607
334	16    	0.948607	0  	0.948607	0.948607
335	16    	0.948607	0  	0.948607	0.948607
336	16    	0.948607	0  	0.948607	0.948607
337	16    	0.948607	0  	0.948607	0.948607
338	16    	0.948607	0  	0.948607	0.948607
339	16    	0.948607	0  	0.948607	0.948607
340	16    	0.948607	0  	0.948607	0.948607
341	16    	0.948607	0  	0.948607	0.948607
342	16    	0.948607	0  	0.948607	0.948607
343	16    	0.948607	0  	0.948607	0.948607
344	16    	0.948607	0  	0.948607	0.948607
345	16    	0.948607	0  	0.948607	0.948607
346	16    	0.948607	0  	0.948607	0.948607
347	16    	0.948607	0  	0.948607	0.948607
348	16    	0.948607	0  	0.948607	0.948607
349	16    	0.948607	0  	0.948607	0.948607
350	16    	0.948607	0  	0.948607	0.948607
351	16    	0.948607	0  	0.948607	0.948607
352	16    	0.948607	0  	0.948607	0.948607
353	16    	0.948607	0  	0.948607	0.948607
354	16    	0.948607	0  	0.948607	0.948607
355	16    	0.948607	0  	0.948607	0.948607
356	16    	0.948607	0  	0.948607	0.948607
357	16    	0.948607	0  	0.948607	0.948607
358	16    	0.948607	0  	0.948607	0.948607
359	16    	0.948607	0  	0.948607	0.948607
360	16    	0.948607	0  	0.948607	0.948607
361	16    	0.948607	0  	0.948607	0.948607
362	16    	0.948607	0  	0.948607	0.948607
363	16    	0.948607	0  	0.948607	0.948607
364	16    	0.948607	0  	0.948607	0.948607
365	16    	0.948607	0  	0.948607	0.948607
366	16    	0.948607	0  	0.948607	0.948607
367	16    	0.948607	0  	0.948607	0.948607
368	16    	0.948607	0  	0.948607	0.948607
369	16    	0.948607	0  	0.948607	0.948607
370	16    	0.948607	0  	0.948607	0.948607
371	16    	0.948607	0  	0.948607	0.948607
372	16    	0.948607	0  	0.948607	0.948607
373	16    	0.948607	0  	0.948607	0.948607
374	16    	0.948607	0  	0.948607	0.948607
375	16    	0.948607	0  	0.948607	0.948607
376	16    	0.948607	0  	0.948607	0.948607
377	16    	0.948607	0  	0.948607	0.948607
378	16    	0.948607	0  	0.948607	0.948607
379	16    	0.948607	0  	0.948607	0.948607
380	16    	0.948607	0  	0.948607	0.948607
381	16    	0.948607	0  	0.948607	0.948607
382	16    	0.948607	0  	0.948607	0.948607
383	16    	0.948607	0  	0.948607	0.948607
384	16    	0.948607	0  	0.948607	0.948607
385	16    	0.948607	0  	0.948607	0.948607
386	16    	0.948607	0  	0.948607	0.948607
387	16    	0.948607	0  	0.948607	0.948607
388	16    	0.948607	0  	0.948607	0.948607
389	16    	0.948607	0  	0.948607	0.948607
390	16    	0.948607	0  	0.948607	0.948607
391	16    	0.948607	0  	0.948607	0.948607
392	16    	0.948607	0  	0.948607	0.948607
393	16    	0.948607	0  	0.948607	0.948607
394	16    	0.948607	0  	0.948607	0.948607
395	16    	0.948607	0  	0.948607	0.948607
396	16    	0.948607	0  	0.948607	0.948607
397	16    	0.948607	0  	0.948607	0.948607
398	16    	0.948607	0  	0.948607	0.948607
399	16    	0.948607	0  	0.948607	0.948607
400	16    	0.948607	0  	0.948607	0.948607
401	16    	0.948607	0  	0.948607	0.948607
402	16    	0.948607	0  	0.948607	0.948607
403	16    	0.948607	0  	0.948607	0.948607
404	16    	0.948607	0  	0.948607	0.948607
405	16    	0.948607	0  	0.948607	0.948607
406	16    	0.948607	0  	0.948607	0.948607
407	16    	0.948607	0  	0.948607	0.948607
408	16    	0.948607	0  	0.948607	0.948607
409	16    	0.948607	0  	0.948607	0.948607
410	16    	0.948607	0  	0.948607	0.948607
411	16    	0.948607	0  	0.948607	0.948607
412	16    	0.948607	0  	0.948607	0.948607
413	16    	0.948607	0  	0.948607	0.948607
414	16    	0.948607	0  	0.948607	0.948607
415	16    	0.948607	0  	0.948607	0.948607
416	16    	0.948607	0  	0.948607	0.948607
417	16    	0.948607	0  	0.948607	0.948607
418	16    	0.948607	0  	0.948607	0.948607
419	16    	0.948607	0  	0.948607	0.948607
420	16    	0.948607	0  	0.948607	0.948607
421	16    	0.948607	0  	0.948607	0.948607
422	16    	0.948607	0  	0.948607	0.948607
423	16    	0.948607	0  	0.948607	0.948607
424	16    	0.948607	0  	0.948607	0.948607
425	16    	0.948607	0  	0.948607	0.948607
426	16    	0.948607	0  	0.948607	0.948607
427	16    	0.948607	0  	0.948607	0.948607
428	16    	0.948607	0  	0.948607	0.948607
429	16    	0.948607	0  	0.948607	0.948607
430	16    	0.948607	0  	0.948607	0.948607
431	16    	0.948607	0  	0.948607	0.948607
432	16    	0.948607	0  	0.948607	0.948607
433	16    	0.948607	0  	0.948607	0.948607
434	16    	0.948607	0  	0.948607	0.948607
435	16    	0.948607	0  	0.948607	0.948607
436	16    	0.948607	0  	0.948607	0.948607
437	16    	0.948607	0  	0.948607	0.948607
438	16    	0.948607	0  	0.948607	0.948607
439	16    	0.948607	0  	0.948607	0.948607
440	16    	0.948607	0  	0.948607	0.948607
441	16    	0.948607	0  	0.948607	0.948607
442	16    	0.948607	0  	0.948607	0.948607
443	16    	0.948607	0  	0.948607	0.948607
444	16    	0.948607	0  	0.948607	0.948607
445	16    	0.948607	0  	0.948607	0.948607
446	16    	0.948607	0  	0.948607	0.948607
447	16    	0.948607	0  	0.948607	0.948607
448	16    	0.948607	0  	0.948607	0.948607
449	16    	0.948607	0  	0.948607	0.948607
450	16    	0.948607	0  	0.948607	0.948607
451	16    	0.948607	0  	0.948607	0.948607
452	16    	0.948607	0  	0.948607	0.948607
453	16    	0.948607	0  	0.948607	0.948607
454	16    	0.948607	0  	0.948607	0.948607
455	16    	0.948607	0  	0.948607	0.948607
456	16    	0.948607	0  	0.948607	0.948607
457	16    	0.948607	0  	0.948607	0.948607
458	16    	0.948607	0  	0.948607	0.948607
459	16    	0.948607	0  	0.948607	0.948607
460	16    	0.948607	0  	0.948607	0.948607
461	16    	0.948607	0  	0.948607	0.948607
462	16    	0.948607	0  	0.948607	0.948607
463	16    	0.948607	0  	0.948607	0.948607
464	16    	0.948607	0  	0.948607	0.948607
465	16    	0.948607	0  	0.948607	0.948607
466	16    	0.948607	0  	0.948607	0.948607
467	16    	0.948607	0  	0.948607	0.948607
468	16    	0.948607	0  	0.948607	0.948607
469	16    	0.948607	0  	0.948607	0.948607
470	16    	0.948607	0  	0.948607	0.948607
471	16    	0.948607	0  	0.948607	0.948607
472	16    	0.948607	0  	0.948607	0.948607
473	16    	0.948607	0  	0.948607	0.948607
474	16    	0.948607	0  	0.948607	0.948607
475	16    	0.948607	0  	0.948607	0.948607
476	16    	0.948607	0  	0.948607	0.948607
477	16    	0.948607	0  	0.948607	0.948607
478	16    	0.948607	0  	0.948607	0.948607
479	16    	0.948607	0  	0.948607	0.948607
480	16    	0.948607	0  	0.948607	0.948607
481	16    	0.948607	0  	0.948607	0.948607
482	16    	0.948607	0  	0.948607	0.948607
483	16    	0.948607	0  	0.948607	0.948607
484	16    	0.948607	0  	0.948607	0.948607
485	16    	0.948607	0  	0.948607	0.948607
486	16    	0.948607	0  	0.948607	0.948607
487	16    	0.948607	0  	0.948607	0.948607
488	16    	0.948607	0  	0.948607	0.948607
489	16    	0.948607	0  	0.948607	0.948607
490	16    	0.948607	0  	0.948607	0.948607
491	16    	0.948607	0  	0.948607	0.948607
492	16    	0.948607	0  	0.948607	0.948607
493	16    	0.948607	0  	0.948607	0.948607
494	16    	0.948607	0  	0.948607	0.948607
495	16    	0.948607	0  	0.948607	0.948607
496	16    	0.948607	0  	0.948607	0.948607
497	16    	0.948607	0  	0.948607	0.948607
498	16    	0.948607	0  	0.948607	0.948607
499	16    	0.948607	0  	0.948607	0.948607
500	16    	0.948607	0  	0.948607	0.948607
501	16    	0.948607	0  	0.948607	0.948607
502	16    	0.948607	0  	0.948607	0.948607
503	16    	0.948607	0  	0.948607	0.948607
504	16    	0.948607	0  	0.948607	0.948607
505	16    	0.948607	0  	0.948607	0.948607
506	16    	0.948607	0  	0.948607	0.948607
507	16    	0.948607	0  	0.948607	0.948607
508	16    	0.948607	0  	0.948607	0.948607
509	16    	0.948607	0  	0.948607	0.948607
510	16    	0.948607	0  	0.948607	0.948607
511	16    	0.950171	0  	0.950171	0.950171
512	16    	0.950171	0  	0.950171	0.950171
513	16    	0.950171	0  	0.950171	0.950171
514	16    	0.950171	0  	0.950171	0.950171
515	16    	0.950171	0  	0.950171	0.950171
516	16    	0.950171	0  	0.950171	0.950171
517	16    	0.950171	0  	0.950171	0.950171
518	16    	0.950171	0  	0.950171	0.950171
519	16    	0.950171	0  	0.950171	0.950171
520	16    	0.950171	0  	0.950171	0.950171
521	16    	0.950171	0  	0.950171	0.950171
522	16    	0.950171	0  	0.950171	0.950171
523	16    	0.950171	0  	0.950171	0.950171
524	16    	0.950171	0  	0.950171	0.950171
525	16    	0.950171	0  	0.950171	0.950171
526	16    	0.950171	0  	0.950171	0.950171
527	16    	0.950171	0  	0.950171	0.950171
528	16    	0.950171	0  	0.950171	0.950171
529	16    	0.950171	0  	0.950171	0.950171
530	16    	0.950171	0  	0.950171	0.950171
531	16    	0.950171	0  	0.950171	0.950171
532	16    	0.950171	0  	0.950171	0.950171
533	16    	0.950171	0  	0.950171	0.950171
534	16    	0.950171	0  	0.950171	0.950171
535	16    	0.950171	0  	0.950171	0.950171
536	16    	0.950171	0  	0.950171	0.950171
537	16    	0.950171	0  	0.950171	0.950171
538	16    	0.950171	0  	0.950171	0.950171
539	16    	0.950171	0  	0.950171	0.950171
540	16    	0.950171	0  	0.950171	0.950171
541	16    	0.950171	0  	0.950171	0.950171
542	16    	0.950171	0  	0.950171	0.950171
543	16    	0.950171	0  	0.950171	0.950171
544	16    	0.950171	0  	0.950171	0.950171
545	16    	0.950171	0  	0.950171	0.950171
546	16    	0.950171	0  	0.950171	0.950171
547	16    	0.950171	0  	0.950171	0.950171
548	16    	0.950171	0  	0.950171	0.950171
549	16    	0.950171	0  	0.950171	0.950171
550	16    	0.950171	0  	0.950171	0.950171
551	16    	0.950171	0  	0.950171	0.950171
552	16    	0.950171	0  	0.950171	0.950171
553	16    	0.950171	0  	0.950171	0.950171
554	16    	0.950171	0  	0.950171	0.950171
555	16    	0.950171	0  	0.950171	0.950171
556	16    	0.950171	0  	0.950171	0.950171
557	16    	0.950171	0  	0.950171	0.950171
558	16    	0.950171	0  	0.950171	0.950171
559	16    	0.950171	0  	0.950171	0.950171
560	16    	0.950171	0  	0.950171	0.950171
561	16    	0.950171	0  	0.950171	0.950171
562	16    	0.950171	0  	0.950171	0.950171
563	16    	0.950171	0  	0.950171	0.950171
564	16    	0.950171	0  	0.950171	0.950171
565	16    	0.950171	0  	0.950171	0.950171
566	16    	0.950171	0  	0.950171	0.950171
567	16    	0.950171	0  	0.950171	0.950171
568	16    	0.950171	0  	0.950171	0.950171
569	16    	0.950171	0  	0.950171	0.950171
570	16    	0.950171	0  	0.950171	0.950171
571	16    	0.950171	0  	0.950171	0.950171
572	16    	0.950171	0  	0.950171	0.950171
573	16    	0.950171	0  	0.950171	0.950171
574	16    	0.950171	0  	0.950171	0.950171
575	16    	0.950171	0  	0.950171	0.950171
576	16    	0.950171	0  	0.950171	0.950171
577	16    	0.950171	0  	0.950171	0.950171
578	16    	0.950171	0  	0.950171	0.950171
579	16    	0.950171	0  	0.950171	0.950171
580	16    	0.950171	0  	0.950171	0.950171
581	16    	0.950171	0  	0.950171	0.950171
582	16    	0.950171	0  	0.950171	0.950171
583	16    	0.950171	0  	0.950171	0.950171
584	16    	0.950171	0  	0.950171	0.950171
585	16    	0.950171	0  	0.950171	0.950171
586	16    	0.950171	0  	0.950171	0.950171
587	16    	0.950171	0  	0.950171	0.950171
588	16    	0.950171	0  	0.950171	0.950171
589	16    	0.950171	0  	0.950171	0.950171
590	16    	0.950171	0  	0.950171	0.950171
591	16    	0.950171	0  	0.950171	0.950171
592	16    	0.950171	0  	0.950171	0.950171
593	16    	0.950171	0  	0.950171	0.950171
594	16    	0.950171	0  	0.950171	0.950171
595	16    	0.950171	0  	0.950171	0.950171
596	16    	0.950171	0  	0.950171	0.950171
597	16    	0.950171	0  	0.950171	0.950171
598	16    	0.950171	0  	0.950171	0.950171
599	16    	0.950171	0  	0.950171	0.950171
600	16    	0.950171	0  	0.950171	0.950171
601	16    	0.950171	0  	0.950171	0.950171
602	16    	0.950171	0  	0.950171	0.950171
603	16    	0.950171	0  	0.950171	0.950171
604	16    	0.950171	0  	0.950171	0.950171
605	16    	0.950171	0  	0.950171	0.950171
606	16    	0.950171	0  	0.950171	0.950171
607	16    	0.950171	0  	0.950171	0.950171
608	16    	0.950171	0  	0.950171	0.950171
609	16    	0.950171	0  	0.950171	0.950171
610	16    	0.950171	0  	0.950171	0.950171
611	16    	0.950171	0  	0.950171	0.950171
612	16    	0.950171	0  	0.950171	0.950171
613	16    	0.950171	0  	0.950171	0.950171
614	16    	0.950171	0  	0.950171	0.950171
615	16    	0.950171	0  	0.950171	0.950171
616	16    	0.950171	0  	0.950171	0.950171
617	16    	0.950171	0  	0.950171	0.950171
618	16    	0.950171	0  	0.950171	0.950171
619	16    	0.950171	0  	0.950171	0.950171
620	16    	0.950171	0  	0.950171	0.950171
621	16    	0.950171	0  	0.950171	0.950171
622	16    	0.950171	0  	0.950171	0.950171
623	16    	0.950171	0  	0.950171	0.950171
624	16    	0.950171	0  	0.950171	0.950171
625	16    	0.950171	0  	0.950171	0.950171