gen	nevals	avg     	std	min     	max     
0  	1     	0.919667	0  	0.919667	0.919667
1  	16    	0.919667	0  	0.919667	0.919667
2  	16    	0.919667	0  	0.919667	0.919667
3  	16    	0.919898	0  	0.919898	0.919898
4  	16    	0.920158	0  	0.920158	0.920158
5  	16    	0.920158	0  	0.920158	0.920158
6  	16    	0.920158	0  	0.920158	0.920158
7  	16    	0.920158	0  	0.920158	0.920158
8  	16    	0.920158	0  	0.920158	0.920158
9  	16    	0.920158	0  	0.920158	0.920158
10 	16    	0.920158	0  	0.920158	0.920158
11 	16    	0.920158	0  	0.920158	0.920158
12 	16    	0.920158	0  	0.920158	0.920158
13 	16    	0.920158	0  	0.920158	0.920158
14 	16    	0.920158	0  	0.920158	0.920158
15 	16    	0.920158	0  	0.920158	0.920158
16 	16    	0.920158	0  	0.920158	0.920158
17 	16    	0.920158	0  	0.920158	0.920158
18 	16    	0.920158	0  	0.920158	0.920158
19 	16    	0.920158	0  	0.920158	0.920158
20 	16    	0.920158	0  	0.920158	0.920158
21 	16    	0.920158	0  	0.920158	0.920158
22 	16    	0.920158	0  	0.920158	0.920158
23 	16    	0.920158	0  	0.920158	0.920158
24 	16    	0.920158	0  	0.920158	0.920158
25 	16    	0.920158	0  	0.920158	0.920158
26 	16    	0.920158	0  	0.920158	0.920158
27 	16    	0.920158	0  	0.920158	0.920158
28 	16    	0.921159	0  	0.921159	0.921159
29 	16    	0.921958	0  	0.921958	0.921958
30 	16    	0.921958	0  	0.921958	0.921958
31 	16    	0.921958	0  	0.921958	0.921958
32 	16    	0.922308	0  	0.922308	0.922308
33 	16    	0.922308	0  	0.922308	0.922308
34 	16    	0.922308	0  	0.922308	0.922308
35 	16    	0.922308	0  	0.922308	0.922308
36 	16    	0.922308	0  	0.922308	0.922308
37 	16    	0.922565	0  	0.922565	0.922565
38 	16    	0.922565	0  	0.922565	0.922565
39 	16    	0.922565	0  	0.922565	0.922565
40 	16    	0.9235  	0  	0.9235  	0.9235  
41 	16    	0.9235  	0  	0.9235  	0.9235  
42 	16    	0.9235  	0  	0.9235  	0.9235  
43 	16    	0.924038	0  	0.924038	0.924038
44 	16    	0.924038	0  	0.924038	0.924038
45 	16    	0.924038	0  	0.924038	0.924038
46 	16    	0.924038	0  	0.924038	0.924038
47 	16    	0.924038	0  	0.924038	0.924038
48 	16    	0.924038	0  	0.924038	0.924038
49 	16    	0.924038	0  	0.924038	0.924038
50 	16    	0.924038	0  	0.924038	0.924038
51 	16    	0.924038	0  	0.924038	0.924038
52 	16    	0.924038	0  	0.924038	0.924038
53 	16    	0.924038	0  	0.924038	0.924038
54 	16    	0.925018	0  	0.925018	0.925018
55 	16    	0.925018	0  	0.925018	0.925018
56 	16    	0.925018	0  	0.925018	0.925018
57 	16    	0.925018	0  	0.925018	0.925018
58 	16    	0.925018	0  	0.925018	0.925018
59 	16    	0.925018	0  	0.925018	0.925018
60 	16    	0.925018	0  	0.925018	0.925018
61 	16    	0.925018	0  	0.925018	0.925018
62 	16    	0.925018	0  	0.925018	0.925018
63 	16    	0.925018	0  	0.925018	0.925018
64 	16    	0.925018	0  	0.925018	0.925018
65 	16    	0.925018	0  	0.925018	0.925018
66 	16    	0.925018	0  	0.925018	0.925018
67 	16    	0.925431	0  	0.925431	0.925431
68 	16    	0.926603	0  	0.926603	0.926603
69 	16    	0.926603	0  	0.926603	0.926603
70 	16    	0.926603	0  	0.926603	0.926603
71 	16    	0.926603	0  	0.926603	0.926603
72 	16    	0.926603	0  	0.926603	0.926603
73 	16    	0.926603	0  	0.926603	0.926603
74 	16    	0.926603	0  	0.926603	0.926603
75 	16    	0.928389	0  	0.928389	0.928389
76 	16    	0.928389	0  	0.928389	0.928389
77 	16    	0.929369	0  	0.929369	0.929369
78 	16    	0.929369	0  	0.929369	0.929369
79 	16    	0.929369	0  	0.929369	0.929369
80 	16    	0.929369	0  	0.929369	0.929369
81 	16    	0.929369	0  	0.929369	0.929369
82 	16    	0.929369	0  	0.929369	0.929369
83 	16    	0.929369	0  	0.929369	0.929369
84 	16    	0.929369	0  	0.929369	0.929369
85 	16    	0.929369	0  	0.929369	0.929369
86 	16    	0.929369	0  	0.929369	0.929369
87 	16    	0.929369	0  	0.929369	0.929369
88 	16    	0.929369	0  	0.929369	0.929369
89 	16    	0.929369	0  	0.929369	0.929369
90 	16    	0.929369	0  	0.929369	0.929369
91 	16    	0.929369	0  	0.929369	0.929369
92 	16    	0.929369	0  	0.929369	0.929369
93 	16    	0.929369	0  	0.929369	0.929369
94 	16    	0.929369	0  	0.929369	0.929369
95 	16    	0.929369	0  	0.929369	0.929369
96 	16    	0.929369	0  	0.929369	0.929369
97 	16    	0.929369	0  	0.929369	0.929369
98 	16    	0.929369	0  	0.929369	0.929369
99 	16    	0.929369	0  	0.929369	0.929369
100	16    	0.929369	0  	0.929369	0.929369
101	16    	0.929369	0  	0.929369	0.929369
102	16    	0.929369	0  	0.929369	0.929369
103	16    	0.929369	0  	0.929369	0.929369
104	16    	0.929369	0  	0.929369	0.929369
105	16    	0.929369	0  	0.929369	0.929369
106	16    	0.929369	0  	0.929369	0.929369
107	16    	0.929369	0  	0.929369	0.929369
108	16    	0.929369	0  	0.929369	0.929369
109	16    	0.929369	0  	0.929369	0.929369
110	16    	0.929947	0  	0.929947	0.929947
111	16    	0.929947	0  	0.929947	0.929947
112	16    	0.929947	0  	0.929947	0.929947
113	16    	0.929947	0  	0.929947	0.929947
114	16    	0.929947	0  	0.929947	0.929947
115	16    	0.929947	0  	0.929947	0.929947
116	16    	0.929947	0  	0.929947	0.929947
117	16    	0.929947	0  	0.929947	0.929947
118	16    	0.929947	0  	0.929947	0.929947
119	16    	0.930964	0  	0.930964	0.930964
120	16    	0.931902	0  	0.931902	0.931902
121	16    	0.931902	0  	0.931902	0.931902
122	16    	0.931902	0  	0.931902	0.931902
123	16    	0.931902	0  	0.931902	0.931902
124	16    	0.931902	0  	0.931902	0.931902
125	16    	0.931902	0  	0.931902	0.931902
126	16    	0.932952	0  	0.932952	0.932952
127	16    	0.932952	0  	0.932952	0.932952
128	16    	0.932952	0  	0.932952	0.932952
129	16    	0.932952	0  	0.932952	0.932952
130	16    	0.932952	0  	0.932952	0.932952
131	16    	0.932952	0  	0.932952	0.932952
132	16    	0.932952	0  	0.932952	0.932952
133	16    	0.932952	0  	0.932952	0.932952
134	16    	0.932952	0  	0.932952	0.932952
135	16    	0.932952	0  	0.932952	0.932952
136	16    	0.932952	0  	0.932952	0.932952
137	16    	0.932952	0  	0.932952	0.932952
138	16    	0.932952	0  	0.932952	0.932952
139	16    	0.932952	0  	0.932952	0.932952
140	16    	0.932952	0  	0.932952	0.932952
141	16    	0.932952	0  	0.932952	0.932952
142	16    	0.932952	0  	0.932952	0.932952
143	16    	0.933638	0  	0.933638	0.933638
144	16    	0.933638	0  	0.933638	0.933638
145	16    	0.933638	0  	0.933638	0.933638
146	16    	0.933638	0  	0.933638	0.933638
147	16    	0.933638	0  	0.933638	0.933638
148	16    	0.933638	0  	0.933638	0.933638
149	16    	0.933638	0  	0.933638	0.933638
150	16    	0.933638	0  	0.933638	0.933638
151	16    	0.933638	0  	0.933638	0.933638
152	16    	0.933638	0  	0.933638	0.933638
153	16    	0.933638	0  	0.933638	0.933638
154	16    	0.933638	0  	0.933638	0.933638
155	16    	0.933638	0  	0.933638	0.933638
156	16    	0.933638	0  	0.933638	0.933638
157	16    	0.933638	0  	0.933638	0.933638
158	16    	0.933638	0  	0.933638	0.933638
159	16    	0.933638	0  	0.933638	0.933638
160	16    	0.933638	0  	0.933638	0.933638
161	16    	0.933638	0  	0.933638	0.933638
162	16    	0.933638	0  	0.933638	0.933638
163	16    	0.933638	0  	0.933638	0.933638
164	16    	0.933638	0  	0.933638	0.933638
165	16    	0.933638	0  	0.933638	0.933638
166	16    	0.933638	0  	0.933638	0.933638
167	16    	0.933638	0  	0.933638	0.933638
168	16    	0.933638	0  	0.933638	0.933638
169	16    	0.933638	0  	0.933638	0.933638
170	16    	0.933638	0  	0.933638	0.933638
171	16    	0.933638	0  	0.933638	0.933638
172	16    	0.933638	0  	0.933638	0.933638
173	16    	0.933638	0  	0.933638	0.933638
174	16    	0.935114	0  	0.935114	0.935114
175	16    	0.935114	0  	0.935114	0.935114
176	16    	0.935114	0  	0.935114	0.935114
177	16    	0.935114	0  	0.935114	0.935114
178	16    	0.935114	0  	0.935114	0.935114
179	16    	0.935114	0  	0.935114	0.935114
180	16    	0.935114	0  	0.935114	0.935114
181	16    	0.935114	0  	0.935114	0.935114
182	16    	0.935114	0  	0.935114	0.935114
183	16    	0.935114	0  	0.935114	0.935114
184	16    	0.935114	0  	0.935114	0.935114
185	16    	0.935114	0  	0.935114	0.935114
186	16    	0.935114	0  	0.935114	0.935114
187	16    	0.935114	0  	0.935114	0.935114
188	16    	0.935114	0  	0.935114	0.935114
189	16    	0.935114	0  	0.935114	0.935114
190	16    	0.935114	0  	0.935114	0.935114
191	16    	0.935114	0  	0.935114	0.935114
192	16    	0.935114	0  	0.935114	0.935114
193	16    	0.935114	0  	0.935114	0.935114
194	16    	0.935114	0  	0.935114	0.935114
195	16    	0.935114	0  	0.935114	0.935114
196	16    	0.936719	0  	0.936719	0.936719
197	16    	0.936719	0  	0.936719	0.936719
198	16    	0.936719	0  	0.936719	0.936719
199	16    	0.936719	0  	0.936719	0.936719
200	16    	0.936719	0  	0.936719	0.936719
201	16    	0.936719	0  	0.936719	0.936719
202	16    	0.936719	0  	0.936719	0.936719
203	16    	0.936719	0  	0.936719	0.936719
204	16    	0.936719	0  	0.936719	0.936719
205	16    	0.936719	0  	0.936719	0.936719
206	16    	0.936719	0  	0.936719	0.936719
207	16    	0.936719	0  	0.936719	0.936719
208	16    	0.936719	0  	0.936719	0.936719
209	16    	0.936719	0  	0.936719	0.936719
210	16    	0.936719	0  	0.936719	0.936719
211	16    	0.936719	0  	0.936719	0.936719
212	16    	0.936719	0  	0.936719	0.936719
213	16    	0.936719	0  	0.936719	0.936719
214	16    	0.936719	0  	0.936719	0.936719
215	16    	0.936719	0  	0.936719	0.936719
216	16    	0.936719	0  	0.936719	0.936719
217	16    	0.936719	0  	0.936719	0.936719
218	16    	0.936877	0  	0.936877	0.936877
219	16    	0.936877	0  	0.936877	0.936877
220	16    	0.936877	0  	0.936877	0.936877
221	16    	0.936877	0  	0.936877	0.936877
222	16    	0.936877	0  	0.936877	0.936877
223	16    	0.936877	0  	0.936877	0.936877
224	16    	0.936877	0  	0.936877	0.936877
225	16    	0.936877	0  	0.936877	0.936877
226	16    	0.936877	0  	0.936877	0.936877
227	16    	0.936877	0  	0.936877	0.936877
228	16    	0.936877	0  	0.936877	0.936877
229	16    	0.936877	0  	0.936877	0.936877
230	16    	0.936877	0  	0.936877	0.936877
231	16    	0.936877	0  	0.936877	0.936877
232	16    	0.936877	0  	0.936877	0.936877
233	16    	0.936877	0  	0.936877	0.936877
234	16    	0.936877	0  	0.936877	0.936877
235	16    	0.936877	0  	0.936877	0.936877
236	16    	0.936877	0  	0.936877	0.936877
237	16    	0.936877	0  	0.936877	0.936877
238	16    	0.936877	0  	0.936877	0.936877
239	16    	0.936877	0  	0.936877	0.936877
240	16    	0.938812	0  	0.938812	0.938812
241	16    	0.938812	0  	0.938812	0.938812
242	16    	0.938812	0  	0.938812	0.938812
243	16    	0.938812	0  	0.938812	0.938812
244	16    	0.938812	0  	0.938812	0.938812
245	16    	0.938812	0  	0.938812	0.938812
246	16    	0.938812	0  	0.938812	0.938812
247	16    	0.938812	0  	0.938812	0.938812
248	16    	0.938812	0  	0.938812	0.938812
249	16    	0.938812	0  	0.938812	0.938812
250	16    	0.938812	0  	0.938812	0.938812
251	16    	0.938812	0  	0.938812	0.938812
252	16    	0.938812	0  	0.938812	0.938812
253	16    	0.938812	0  	0.938812	0.938812
254	16    	0.938812	0  	0.938812	0.938812
255	16    	0.938812	0  	0.938812	0.938812
256	16    	0.938812	0  	0.938812	0.938812
257	16    	0.938812	0  	0.938812	0.938812
258	16    	0.938812	0  	0.938812	0.938812
259	16    	0.938812	0  	0.938812	0.938812
260	16    	0.938812	0  	0.938812	0.938812
261	16    	0.938812	0  	0.938812	0.938812
262	16    	0.938812	0  	0.938812	0.938812
263	16    	0.938812	0  	0.938812	0.938812
264	16    	0.938812	0  	0.938812	0.938812
265	16    	0.938812	0  	0.938812	0.938812
266	16    	0.938812	0  	0.938812	0.938812
267	16    	0.938812	0  	0.938812	0.938812
268	16    	0.938812	0  	0.938812	0.938812
269	16    	0.938812	0  	0.938812	0.938812
270	16    	0.938812	0  	0.938812	0.938812
271	16    	0.938812	0  	0.938812	0.938812
272	16    	0.938812	0  	0.938812	0.938812
273	16    	0.938812	0  	0.938812	0.938812
274	16    	0.938812	0  	0.938812	0.938812
275	16    	0.938812	0  	0.938812	0.938812
276	16    	0.938812	0  	0.938812	0.938812
277	16    	0.938812	0  	0.938812	0.938812
278	16    	0.938812	0  	0.938812	0.938812
279	16    	0.938812	0  	0.938812	0.938812
280	16    	0.938812	0  	0.938812	0.938812
281	16    	0.938812	0  	0.938812	0.938812
282	16    	0.938812	0  	0.938812	0.938812
283	16    	0.938812	0  	0.938812	0.938812
284	16    	0.938812	0  	0.938812	0.938812
285	16    	0.938812	0  	0.938812	0.938812
286	16    	0.938812	0  	0.938812	0.938812
287	16    	0.938812	0  	0.938812	0.938812
288	16    	0.938812	0  	0.938812	0.938812
289	16    	0.938812	0  	0.938812	0.938812
290	16    	0.938812	0  	0.938812	0.938812
291	16    	0.938812	0  	0.938812	0.938812
292	16    	0.938812	0  	0.938812	0.938812
293	16    	0.938812	0  	0.938812	0.938812
294	16    	0.938993	0  	0.938993	0.938993
295	16    	0.938993	0  	0.938993	0.938993
296	16    	0.938993	0  	0.938993	0.938993
297	16    	0.938993	0  	0.938993	0.938993
298	16    	0.938993	0  	0.938993	0.938993
299	16    	0.938993	0  	0.938993	0.938993
300	16    	0.938993	0  	0.938993	0.938993
301	16    	0.938993	0  	0.938993	0.938993
302	16    	0.938993	0  	0.938993	0.938993
303	16    	0.938993	0  	0.938993	0.938993
304	16    	0.938993	0  	0.938993	0.938993
305	16    	0.938993	0  	0.938993	0.938993
306	16    	0.938993	0  	0.938993	0.938993
307	16    	0.938993	0  	0.938993	0.938993
308	16    	0.938993	0  	0.938993	0.938993
309	16    	0.938993	0  	0.938993	0.938993
310	16    	0.938993	0  	0.938993	0.938993
311	16    	0.939006	0  	0.939006	0.939006
312	16    	0.939006	0  	0.939006	0.939006
313	16    	0.939063	0  	0.939063	0.939063
314	16    	0.939063	0  	0.939063	0.939063
315	16    	0.939063	0  	0.939063	0.939063
316	16    	0.939063	0  	0.939063	0.939063
317	16    	0.939063	0  	0.939063	0.939063
318	16    	0.939063	0  	0.939063	0.939063
319	16    	0.939063	0  	0.939063	0.939063
320	16    	0.939063	0  	0.939063	0.939063
321	16    	0.939063	0  	0.939063	0.939063
322	16    	0.939063	0  	0.939063	0.939063
323	16    	0.939063	0  	0.939063	0.939063
324	16    	0.939063	0  	0.939063	0.939063
325	16    	0.939063	0  	0.939063	0.939063
326	16    	0.939063	0  	0.939063	0.939063
327	16    	0.939063	0  	0.939063	0.939063
328	16    	0.939063	0  	0.939063	0.939063
329	16    	0.939063	0  	0.939063	0.939063
330	16    	0.939063	0  	0.939063	0.939063
331	16    	0.939063	0  	0.939063	0.939063
332	16    	0.939063	0  	0.939063	0.939063
333	16    	0.939063	0  	0.939063	0.939063
334	16    	0.939063	0  	0.939063	0.939063
335	16    	0.939063	0  	0.939063	0.939063
336	16    	0.939063	0  	0.939063	0.939063
337	16    	0.939063	0  	0.939063	0.939063
338	16    	0.939063	0  	0.939063	0.939063
339	16    	0.939063	0  	0.939063	0.939063
340	16    	0.939063	0  	0.939063	0.939063
341	16    	0.939063	0  	0.939063	0.939063
342	16    	0.939063	0  	0.939063	0.939063
343	16    	0.939063	0  	0.939063	0.939063
344	16    	0.939063	0  	0.939063	0.939063
345	16    	0.939063	0  	0.939063	0.939063
346	16    	0.939063	0  	0.939063	0.939063
347	16    	0.939063	0  	0.939063	0.939063
348	16    	0.939063	0  	0.939063	0.939063
349	16    	0.9393  	0  	0.9393  	0.9393  
350	16    	0.9393  	0  	0.9393  	0.9393  
351	16    	0.9393  	0  	0.9393  	0.9393  
352	16    	0.9393  	0  	0.9393  	0.9393  
353	16    	0.9393  	0  	0.9393  	0.9393  
354	16    	0.9393  	0  	0.9393  	0.9393  
355	16    	0.9393  	0  	0.9393  	0.9393  
356	16    	0.9393  	0  	0.9393  	0.9393  
357	16    	0.9393  	0  	0.9393  	0.9393  
358	16    	0.9393  	0  	0.9393  	0.9393  
359	16    	0.9393  	0  	0.9393  	0.9393  
360	16    	0.939805	0  	0.939805	0.939805
361	16    	0.939805	0  	0.939805	0.939805
362	16    	0.939805	0  	0.939805	0.939805
363	16    	0.939805	0  	0.939805	0.939805
364	16    	0.939805	0  	0.939805	0.939805
365	16    	0.939805	0  	0.939805	0.939805
366	16    	0.939805	0  	0.939805	0.939805
367	16    	0.939805	0  	0.939805	0.939805
368	16    	0.939805	0  	0.939805	0.939805
369	16    	0.939805	0  	0.939805	0.939805
370	16    	0.939805	0  	0.939805	0.939805
371	16    	0.939805	0  	0.939805	0.939805
372	16    	0.939805	0  	0.939805	0.939805
373	16    	0.939805	0  	0.939805	0.939805
374	16    	0.939805	0  	0.939805	0.939805
375	16    	0.939805	0  	0.939805	0.939805
376	16    	0.939805	0  	0.939805	0.939805
377	16    	0.939805	0  	0.939805	0.939805
378	16    	0.939805	0  	0.939805	0.939805
379	16    	0.939805	0  	0.939805	0.939805
380	16    	0.939805	0  	0.939805	0.939805
381	16    	0.939805	0  	0.939805	0.939805
382	16    	0.939805	0  	0.939805	0.939805
383	16    	0.939805	0  	0.939805	0.939805
384	16    	0.939805	0  	0.939805	0.939805
385	16    	0.939805	0  	0.939805	0.939805
386	16    	0.939805	0  	0.939805	0.939805
387	16    	0.939805	0  	0.939805	0.939805
388	16    	0.939805	0  	0.939805	0.939805
389	16    	0.939805	0  	0.939805	0.939805
390	16    	0.939805	0  	0.939805	0.939805
391	16    	0.939805	0  	0.939805	0.939805
392	16    	0.939805	0  	0.939805	0.939805
393	16    	0.939805	0  	0.939805	0.939805
394	16    	0.939805	0  	0.939805	0.939805
395	16    	0.939805	0  	0.939805	0.939805
396	16    	0.939805	0  	0.939805	0.939805
397	16    	0.939805	0  	0.939805	0.939805
398	16    	0.939805	0  	0.939805	0.939805
399	16    	0.939805	0  	0.939805	0.939805
400	16    	0.939805	0  	0.939805	0.939805
401	16    	0.939805	0  	0.939805	0.939805
402	16    	0.939805	0  	0.939805	0.939805
403	16    	0.939805	0  	0.939805	0.939805
404	16    	0.939805	0  	0.939805	0.939805
405	16    	0.939805	0  	0.939805	0.939805
406	16    	0.939805	0  	0.939805	0.939805
407	16    	0.939805	0  	0.939805	0.939805
408	16    	0.939805	0  	0.939805	0.939805
409	16    	0.939805	0  	0.939805	0.939805
410	16    	0.939805	0  	0.939805	0.939805
411	16    	0.939805	0  	0.939805	0.939805
412	16    	0.939805	0  	0.939805	0.939805
413	16    	0.939822	0  	0.939822	0.939822
414	16    	0.939822	0  	0.939822	0.939822
415	16    	0.939822	0  	0.939822	0.939822
416	16    	0.939822	0  	0.939822	0.939822
417	16    	0.942575	0  	0.942575	0.942575
418	16    	0.942575	0  	0.942575	0.942575
419	16    	0.942575	0  	0.942575	0.942575
420	16    	0.942575	0  	0.942575	0.942575
421	16    	0.942575	0  	0.942575	0.942575
422	16    	0.942575	0  	0.942575	0.942575
423	16    	0.942575	0  	0.942575	0.942575
424	16    	0.942575	0  	0.942575	0.942575
425	16    	0.942575	0  	0.942575	0.942575
426	16    	0.942575	0  	0.942575	0.942575
427	16    	0.942575	0  	0.942575	0.942575
428	16    	0.942575	0  	0.942575	0.942575
429	16    	0.942575	0  	0.942575	0.942575
430	16    	0.942575	0  	0.942575	0.942575
431	16    	0.942575	0  	0.942575	0.942575
432	16    	0.942575	0  	0.942575	0.942575
433	16    	0.942575	0  	0.942575	0.942575
434	16    	0.942575	0  	0.942575	0.942575
435	16    	0.942575	0  	0.942575	0.942575
436	16    	0.942575	0  	0.942575	0.942575
437	16    	0.942575	0  	0.942575	0.942575
438	16    	0.942575	0  	0.942575	0.942575
439	16    	0.942575	0  	0.942575	0.942575
440	16    	0.942575	0  	0.942575	0.942575
441	16    	0.942575	0  	0.942575	0.942575
442	16    	0.942575	0  	0.942575	0.942575
443	16    	0.942575	0  	0.942575	0.942575
444	16    	0.942575	0  	0.942575	0.942575
445	16    	0.942575	0  	0.942575	0.942575
446	16    	0.942575	0  	0.942575	0.942575
447	16    	0.942575	0  	0.942575	0.942575
448	16    	0.942575	0  	0.942575	0.942575
449	16    	0.942575	0  	0.942575	0.942575
450	16    	0.942575	0  	0.942575	0.942575
451	16    	0.942575	0  	0.942575	0.942575
452	16    	0.942575	0  	0.942575	0.942575
453	16    	0.942575	0  	0.942575	0.942575
454	16    	0.942575	0  	0.942575	0.942575
455	16    	0.942575	0  	0.942575	0.942575
456	16    	0.942575	0  	0.942575	0.942575
457	16    	0.942575	0  	0.942575	0.942575
458	16    	0.942575	0  	0.942575	0.942575
459	16    	0.942575	0  	0.942575	0.942575
460	16    	0.942575	0  	0.942575	0.942575
461	16    	0.942575	0  	0.942575	0.942575
462	16    	0.942575	0  	0.942575	0.942575
463	16    	0.942575	0  	0.942575	0.942575
464	16    	0.942575	0  	0.942575	0.942575
465	16    	0.942575	0  	0.942575	0.942575
466	16    	0.942575	0  	0.942575	0.942575
467	16    	0.942575	0  	0.942575	0.942575
468	16    	0.942575	0  	0.942575	0.942575
469	16    	0.942575	0  	0.942575	0.942575
470	16    	0.942575	0  	0.942575	0.942575
471	16    	0.942575	0  	0.942575	0.942575
472	16    	0.942575	0  	0.942575	0.942575
473	16    	0.942575	0  	0.942575	0.942575
474	16    	0.942575	0  	0.942575	0.942575
475	16    	0.942575	0  	0.942575	0.942575
476	16    	0.942575	0  	0.942575	0.942575
477	16    	0.942575	0  	0.942575	0.942575
478	16    	0.942575	0  	0.942575	0.942575
479	16    	0.942575	0  	0.942575	0.942575
480	16    	0.942575	0  	0.942575	0.942575
481	16    	0.942575	0  	0.942575	0.942575
482	16    	0.942575	0  	0.942575	0.942575
483	16    	0.942575	0  	0.942575	0.942575
484	16    	0.942575	0  	0.942575	0.942575
485	16    	0.942575	0  	0.942575	0.942575
486	16    	0.942575	0  	0.942575	0.942575
487	16    	0.942575	0  	0.942575	0.942575
488	16    	0.942575	0  	0.942575	0.942575
489	16    	0.942575	0  	0.942575	0.942575
490	16    	0.942575	0  	0.942575	0.942575
491	16    	0.942575	0  	0.942575	0.942575
492	16    	0.942575	0  	0.942575	0.942575
493	16    	0.942575	0  	0.942575	0.942575
494	16    	0.942575	0  	0.942575	0.942575
495	16    	0.942575	0  	0.942575	0.942575
496	16    	0.942575	0  	0.942575	0.942575
497	16    	0.942575	0  	0.942575	0.942575
498	16    	0.942575	0  	0.942575	0.942575
499	16    	0.942575	0  	0.942575	0.942575
500	16    	0.942575	0  	0.942575	0.942575
501	16    	0.942575	0  	0.942575	0.942575
502	16    	0.942575	0  	0.942575	0.942575
503	16    	0.942575	0  	0.942575	0.942575
504	16    	0.942575	0  	0.942575	0.942575
505	16    	0.942575	0  	0.942575	0.942575
506	16    	0.942575	0  	0.942575	0.942575
507	16    	0.942575	0  	0.942575	0.942575
508	16    	0.942575	0  	0.942575	0.942575
509	16    	0.942575	0  	0.942575	0.942575
510	16    	0.942575	0  	0.942575	0.942575
511	16    	0.942575	0  	0.942575	0.942575
512	16    	0.942575	0  	0.942575	0.942575
513	16    	0.942575	0  	0.942575	0.942575
514	16    	0.942575	0  	0.942575	0.942575
515	16    	0.942575	0  	0.942575	0.942575
516	16    	0.942575	0  	0.942575	0.942575
517	16    	0.942575	0  	0.942575	0.942575
518	16    	0.942575	0  	0.942575	0.942575
519	16    	0.942575	0  	0.942575	0.942575
520	16    	0.942575	0  	0.942575	0.942575
521	16    	0.942575	0  	0.942575	0.942575
522	16    	0.942575	0  	0.942575	0.942575
523	16    	0.942575	0  	0.942575	0.942575
524	16    	0.942575	0  	0.942575	0.942575
525	16    	0.942575	0  	0.942575	0.942575
526	16    	0.942575	0  	0.942575	0.942575
527	16    	0.942575	0  	0.942575	0.942575
528	16    	0.942575	0  	0.942575	0.942575
529	16    	0.942575	0  	0.942575	0.942575
530	16    	0.942575	0  	0.942575	0.942575
531	16    	0.942575	0  	0.942575	0.942575
532	16    	0.942575	0  	0.942575	0.942575
533	16    	0.942575	0  	0.942575	0.942575
534	16    	0.942575	0  	0.942575	0.942575
535	16    	0.942575	0  	0.942575	0.942575
536	16    	0.942575	0  	0.942575	0.942575
537	16    	0.942575	0  	0.942575	0.942575
538	16    	0.942575	0  	0.942575	0.942575
539	16    	0.942575	0  	0.942575	0.942575
540	16    	0.942575	0  	0.942575	0.942575
541	16    	0.942575	0  	0.942575	0.942575
542	16    	0.942575	0  	0.942575	0.942575
543	16    	0.942575	0  	0.942575	0.942575
544	16    	0.942575	0  	0.942575	0.942575
545	16    	0.942575	0  	0.942575	0.942575
546	16    	0.942575	0  	0.942575	0.942575
547	16    	0.942575	0  	0.942575	0.942575
548	16    	0.942575	0  	0.942575	0.942575
549	16    	0.942575	0  	0.942575	0.942575
550	16    	0.942575	0  	0.942575	0.942575
551	16    	0.942575	0  	0.942575	0.942575
552	16    	0.942575	0  	0.942575	0.942575
553	16    	0.942575	0  	0.942575	0.942575
554	16    	0.942575	0  	0.942575	0.942575
555	16    	0.942575	0  	0.942575	0.942575
556	16    	0.942575	0  	0.942575	0.942575
557	16    	0.942575	0  	0.942575	0.942575
558	16    	0.942575	0  	0.942575	0.942575
559	16    	0.942575	0  	0.942575	0.942575
560	16    	0.942575	0  	0.942575	0.942575
561	16    	0.942575	0  	0.942575	0.942575
562	16    	0.942575	0  	0.942575	0.942575
563	16    	0.942575	0  	0.942575	0.942575
564	16    	0.942575	0  	0.942575	0.942575
565	16    	0.942575	0  	0.942575	0.942575
566	16    	0.942575	0  	0.942575	0.942575
567	16    	0.942575	0  	0.942575	0.942575
568	16    	0.942575	0  	0.942575	0.942575
569	16    	0.942575	0  	0.942575	0.942575
570	16    	0.942575	0  	0.942575	0.942575
571	16    	0.942575	0  	0.942575	0.942575
572	16    	0.942575	0  	0.942575	0.942575
573	16    	0.942575	0  	0.942575	0.942575
574	16    	0.942575	0  	0.942575	0.942575
575	16    	0.942575	0  	0.942575	0.942575
576	16    	0.942575	0  	0.942575	0.942575
577	16    	0.942575	0  	0.942575	0.942575
578	16    	0.942575	0  	0.942575	0.942575
579	16    	0.942575	0  	0.942575	0.942575
580	16    	0.942575	0  	0.942575	0.942575
581	16    	0.942575	0  	0.942575	0.942575
582	16    	0.942575	0  	0.942575	0.942575
583	16    	0.942575	0  	0.942575	0.942575
584	16    	0.942575	0  	0.942575	0.942575
585	16    	0.942575	0  	0.942575	0.942575
586	16    	0.942575	0  	0.942575	0.942575
587	16    	0.942575	0  	0.942575	0.942575
588	16    	0.942575	0  	0.942575	0.942575
589	16    	0.942575	0  	0.942575	0.942575
590	16    	0.942575	0  	0.942575	0.942575
591	16    	0.942575	0  	0.942575	0.942575
592	16    	0.942575	0  	0.942575	0.942575
593	16    	0.942575	0  	0.942575	0.942575
594	16    	0.942575	0  	0.942575	0.942575
595	16    	0.942575	0  	0.942575	0.942575
596	16    	0.942575	0  	0.942575	0.942575
597	16    	0.942575	0  	0.942575	0.942575
598	16    	0.942575	0  	0.942575	0.942575
599	16    	0.942575	0  	0.942575	0.942575
600	16    	0.942575	0  	0.942575	0.942575
601	16    	0.942575	0  	0.942575	0.942575
602	16    	0.942575	0  	0.942575	0.942575
603	16    	0.942575	0  	0.942575	0.942575
604	16    	0.942575	0  	0.942575	0.942575
605	16    	0.942575	0  	0.942575	0.942575
606	16    	0.942575	0  	0.942575	0.942575
607	16    	0.942575	0  	0.942575	0.942575
608	16    	0.942575	0  	0.942575	0.942575
609	16    	0.942575	0  	0.942575	0.942575
610	16    	0.942575	0  	0.942575	0.942575
611	16    	0.942575	0  	0.942575	0.942575
612	16    	0.942575	0  	0.942575	0.942575
613	16    	0.942575	0  	0.942575	0.942575
614	16    	0.942575	0  	0.942575	0.942575
615	16    	0.942575	0  	0.942575	0.942575
616	16    	0.942575	0  	0.942575	0.942575
617	16    	0.942575	0  	0.942575	0.942575
618	16    	0.942575	0  	0.942575	0.942575
619	16    	0.942575	0  	0.942575	0.942575
620	16    	0.942575	0  	0.942575	0.942575
621	16    	0.942575	0  	0.942575	0.942575
622	16    	0.942575	0  	0.942575	0.942575
623	16    	0.942575	0  	0.942575	0.942575
624	16    	0.942575	0  	0.942575	0.942575
625	16    	0.942575	0  	0.942575	0.942575