gen	nevals	avg     	std	min     	max     
0  	1     	0.693464	0  	0.693464	0.693464
1  	16    	0.693464	0  	0.693464	0.693464
2  	16    	0.703977	0  	0.703977	0.703977
3  	16    	0.703977	0  	0.703977	0.703977
4  	16    	0.703977	0  	0.703977	0.703977
5  	16    	0.703977	0  	0.703977	0.703977
6  	16    	0.703977	0  	0.703977	0.703977
7  	16    	0.715788	0  	0.715788	0.715788
8  	16    	0.715788	0  	0.715788	0.715788
9  	16    	0.715788	0  	0.715788	0.715788
10 	16    	0.715788	0  	0.715788	0.715788
11 	16    	0.715788	0  	0.715788	0.715788
12 	16    	0.715788	0  	0.715788	0.715788
13 	16    	0.721417	0  	0.721417	0.721417
14 	16    	0.733228	0  	0.733228	0.733228
15 	16    	0.733228	0  	0.733228	0.733228
16 	16    	0.733228	0  	0.733228	0.733228
17 	16    	0.733228	0  	0.733228	0.733228
18 	16    	0.733228	0  	0.733228	0.733228
19 	16    	0.733228	0  	0.733228	0.733228
20 	16    	0.733228	0  	0.733228	0.733228
21 	16    	0.733228	0  	0.733228	0.733228
22 	16    	0.733228	0  	0.733228	0.733228
23 	16    	0.733228	0  	0.733228	0.733228
24 	16    	0.733228	0  	0.733228	0.733228
25 	16    	0.733228	0  	0.733228	0.733228
26 	16    	0.733228	0  	0.733228	0.733228
27 	16    	0.733228	0  	0.733228	0.733228
28 	16    	0.741697	0  	0.741697	0.741697
29 	16    	0.741697	0  	0.741697	0.741697
30 	16    	0.744747	0  	0.744747	0.744747
31 	16    	0.757547	0  	0.757547	0.757547
32 	16    	0.757547	0  	0.757547	0.757547
33 	16    	0.757547	0  	0.757547	0.757547
34 	16    	0.757547	0  	0.757547	0.757547
35 	16    	0.759673	0  	0.759673	0.759673
36 	16    	0.759673	0  	0.759673	0.759673
37 	16    	0.763047	0  	0.763047	0.763047
38 	16    	0.777616	0  	0.777616	0.777616
39 	16    	0.777616	0  	0.777616	0.777616
40 	16    	0.790027	0  	0.790027	0.790027
41 	16    	0.790027	0  	0.790027	0.790027
42 	16    	0.790027	0  	0.790027	0.790027
43 	16    	0.790027	0  	0.790027	0.790027
44 	16    	0.790027	0  	0.790027	0.790027
45 	16    	0.790027	0  	0.790027	0.790027
46 	16    	0.790027	0  	0.790027	0.790027
47 	16    	0.790027	0  	0.790027	0.790027
48 	16    	0.790027	0  	0.790027	0.790027
49 	16    	0.790027	0  	0.790027	0.790027
50 	16    	0.790027	0  	0.790027	0.790027
51 	16    	0.790027	0  	0.790027	0.790027
52 	16    	0.790027	0  	0.790027	0.790027
53 	16    	0.790027	0  	0.790027	0.790027
54 	16    	0.790027	0  	0.790027	0.790027
55 	16    	0.790027	0  	0.790027	0.790027
56 	16    	0.790027	0  	0.790027	0.790027
57 	16    	0.790027	0  	0.790027	0.790027
58 	16    	0.790027	0  	0.790027	0.790027
59 	16    	0.790027	0  	0.790027	0.790027
60 	16    	0.790027	0  	0.790027	0.790027
61 	16    	0.790027	0  	0.790027	0.790027
62 	16    	0.790027	0  	0.790027	0.790027
63 	16    	0.790027	0  	0.790027	0.790027
64 	16    	0.790027	0  	0.790027	0.790027
65 	16    	0.790027	0  	0.790027	0.790027
66 	16    	0.790027	0  	0.790027	0.790027
67 	16    	0.790027	0  	0.790027	0.790027
68 	16    	0.790027	0  	0.790027	0.790027
69 	16    	0.790027	0  	0.790027	0.790027
70 	16    	0.790027	0  	0.790027	0.790027
71 	16    	0.790027	0  	0.790027	0.790027
72 	16    	0.790027	0  	0.790027	0.790027
73 	16    	0.790027	0  	0.790027	0.790027
74 	16    	0.790027	0  	0.790027	0.790027
75 	16    	0.790027	0  	0.790027	0.790027
76 	16    	0.790027	0  	0.790027	0.790027
77 	16    	0.790027	0  	0.790027	0.790027
78 	16    	0.790027	0  	0.790027	0.790027
79 	16    	0.790027	0  	0.790027	0.790027
80 	16    	0.790027	0  	0.790027	0.790027
81 	16    	0.792023	0  	0.792023	0.792023
82 	16    	0.792023	0  	0.792023	0.792023
83 	16    	0.792023	0  	0.792023	0.792023
84 	16    	0.792023	0  	0.792023	0.792023
85 	16    	0.792023	0  	0.792023	0.792023
86 	16    	0.792023	0  	0.792023	0.792023
87 	16    	0.792023	0  	0.792023	0.792023
88 	16    	0.792023	0  	0.792023	0.792023
89 	16    	0.792023	0  	0.792023	0.792023
90 	16    	0.792023	0  	0.792023	0.792023
91 	16    	0.792023	0  	0.792023	0.792023
92 	16    	0.792023	0  	0.792023	0.792023
93 	16    	0.792023	0  	0.792023	0.792023
94 	16    	0.792023	0  	0.792023	0.792023
95 	16    	0.792023	0  	0.792023	0.792023
96 	16    	0.792023	0  	0.792023	0.792023
97 	16    	0.792023	0  	0.792023	0.792023
98 	16    	0.792023	0  	0.792023	0.792023
99 	16    	0.792023	0  	0.792023	0.792023
100	16    	0.792023	0  	0.792023	0.792023
101	16    	0.792023	0  	0.792023	0.792023
102	16    	0.792023	0  	0.792023	0.792023
103	16    	0.792023	0  	0.792023	0.792023
104	16    	0.792023	0  	0.792023	0.792023
105	16    	0.792023	0  	0.792023	0.792023
106	16    	0.792023	0  	0.792023	0.792023
107	16    	0.792023	0  	0.792023	0.792023
108	16    	0.792023	0  	0.792023	0.792023
109	16    	0.792023	0  	0.792023	0.792023
110	16    	0.792023	0  	0.792023	0.792023
111	16    	0.792023	0  	0.792023	0.792023
112	16    	0.792023	0  	0.792023	0.792023
113	16    	0.792023	0  	0.792023	0.792023
114	16    	0.792023	0  	0.792023	0.792023
115	16    	0.796987	0  	0.796987	0.796987
116	16    	0.796987	0  	0.796987	0.796987
117	16    	0.796987	0  	0.796987	0.796987
118	16    	0.796987	0  	0.796987	0.796987
119	16    	0.796987	0  	0.796987	0.796987
120	16    	0.796987	0  	0.796987	0.796987
121	16    	0.796987	0  	0.796987	0.796987
122	16    	0.796987	0  	0.796987	0.796987
123	16    	0.796987	0  	0.796987	0.796987
124	16    	0.796987	0  	0.796987	0.796987
125	16    	0.796987	0  	0.796987	0.796987
126	16    	0.796987	0  	0.796987	0.796987
127	16    	0.796987	0  	0.796987	0.796987
128	16    	0.797539	0  	0.797539	0.797539
129	16    	0.797539	0  	0.797539	0.797539
130	16    	0.797539	0  	0.797539	0.797539
131	16    	0.797539	0  	0.797539	0.797539
132	16    	0.797539	0  	0.797539	0.797539
133	16    	0.797539	0  	0.797539	0.797539
134	16    	0.797539	0  	0.797539	0.797539
135	16    	0.797539	0  	0.797539	0.797539
136	16    	0.797539	0  	0.797539	0.797539
137	16    	0.798009	0  	0.798009	0.798009
138	16    	0.798009	0  	0.798009	0.798009
139	16    	0.798009	0  	0.798009	0.798009
140	16    	0.798009	0  	0.798009	0.798009
141	16    	0.798009	0  	0.798009	0.798009
142	16    	0.798009	0  	0.798009	0.798009
143	16    	0.798009	0  	0.798009	0.798009
144	16    	0.798009	0  	0.798009	0.798009
145	16    	0.798009	0  	0.798009	0.798009
146	16    	0.798009	0  	0.798009	0.798009
147	16    	0.798009	0  	0.798009	0.798009
148	16    	0.798009	0  	0.798009	0.798009
149	16    	0.798009	0  	0.798009	0.798009
150	16    	0.798009	0  	0.798009	0.798009
151	16    	0.798009	0  	0.798009	0.798009
152	16    	0.798009	0  	0.798009	0.798009
153	16    	0.798009	0  	0.798009	0.798009
154	16    	0.798009	0  	0.798009	0.798009
155	16    	0.798009	0  	0.798009	0.798009
156	16    	0.798009	0  	0.798009	0.798009
157	16    	0.798009	0  	0.798009	0.798009
158	16    	0.798009	0  	0.798009	0.798009
159	16    	0.798009	0  	0.798009	0.798009
160	16    	0.805683	0  	0.805683	0.805683
161	16    	0.805683	0  	0.805683	0.805683
162	16    	0.805683	0  	0.805683	0.805683
163	16    	0.805683	0  	0.805683	0.805683
164	16    	0.805683	0  	0.805683	0.805683
165	16    	0.805683	0  	0.805683	0.805683
166	16    	0.805683	0  	0.805683	0.805683
167	16    	0.805683	0  	0.805683	0.805683
168	16    	0.805683	0  	0.805683	0.805683
169	16    	0.805683	0  	0.805683	0.805683
170	16    	0.805683	0  	0.805683	0.805683
171	16    	0.805683	0  	0.805683	0.805683
172	16    	0.805683	0  	0.805683	0.805683
173	16    	0.817429	0  	0.817429	0.817429
174	16    	0.817429	0  	0.817429	0.817429
175	16    	0.817429	0  	0.817429	0.817429
176	16    	0.817429	0  	0.817429	0.817429
177	16    	0.817429	0  	0.817429	0.817429
178	16    	0.817429	0  	0.817429	0.817429
179	16    	0.817429	0  	0.817429	0.817429
180	16    	0.817429	0  	0.817429	0.817429
181	16    	0.817429	0  	0.817429	0.817429
182	16    	0.817429	0  	0.817429	0.817429
183	16    	0.817429	0  	0.817429	0.817429
184	16    	0.817429	0  	0.817429	0.817429
185	16    	0.817429	0  	0.817429	0.817429
186	16    	0.817429	0  	0.817429	0.817429
187	16    	0.817429	0  	0.817429	0.817429
188	16    	0.817429	0  	0.817429	0.817429
189	16    	0.817429	0  	0.817429	0.817429
190	16    	0.817429	0  	0.817429	0.817429
191	16    	0.817429	0  	0.817429	0.817429
192	16    	0.817429	0  	0.817429	0.817429
193	16    	0.817429	0  	0.817429	0.817429
194	16    	0.817429	0  	0.817429	0.817429
195	16    	0.817429	0  	0.817429	0.817429
196	16    	0.817429	0  	0.817429	0.817429
197	16    	0.817429	0  	0.817429	0.817429
198	16    	0.817429	0  	0.817429	0.817429
199	16    	0.817429	0  	0.817429	0.817429
200	16    	0.817429	0  	0.817429	0.817429
201	16    	0.817429	0  	0.817429	0.817429
202	16    	0.817429	0  	0.817429	0.817429
203	16    	0.819765	0  	0.819765	0.819765
204	16    	0.819765	0  	0.819765	0.819765
205	16    	0.820089	0  	0.820089	0.820089
206	16    	0.820089	0  	0.820089	0.820089
207	16    	0.820089	0  	0.820089	0.820089
208	16    	0.825703	0  	0.825703	0.825703
209	16    	0.825703	0  	0.825703	0.825703
210	16    	0.825703	0  	0.825703	0.825703
211	16    	0.825703	0  	0.825703	0.825703
212	16    	0.825703	0  	0.825703	0.825703
213	16    	0.825703	0  	0.825703	0.825703
214	16    	0.825703	0  	0.825703	0.825703
215	16    	0.825703	0  	0.825703	0.825703
216	16    	0.825703	0  	0.825703	0.825703
217	16    	0.825703	0  	0.825703	0.825703
218	16    	0.825703	0  	0.825703	0.825703
219	16    	0.825703	0  	0.825703	0.825703
220	16    	0.825703	0  	0.825703	0.825703
221	16    	0.825703	0  	0.825703	0.825703
222	16    	0.825703	0  	0.825703	0.825703
223	16    	0.825703	0  	0.825703	0.825703
224	16    	0.826368	0  	0.826368	0.826368
225	16    	0.826368	0  	0.826368	0.826368
226	16    	0.833734	0  	0.833734	0.833734
227	16    	0.833734	0  	0.833734	0.833734
228	16    	0.833734	0  	0.833734	0.833734
229	16    	0.833734	0  	0.833734	0.833734
230	16    	0.833734	0  	0.833734	0.833734
231	16    	0.833734	0  	0.833734	0.833734
232	16    	0.833734	0  	0.833734	0.833734
233	16    	0.833734	0  	0.833734	0.833734
234	16    	0.833734	0  	0.833734	0.833734
235	16    	0.833734	0  	0.833734	0.833734
236	16    	0.833734	0  	0.833734	0.833734
237	16    	0.833734	0  	0.833734	0.833734
238	16    	0.833734	0  	0.833734	0.833734
239	16    	0.833734	0  	0.833734	0.833734
240	16    	0.833734	0  	0.833734	0.833734
241	16    	0.833734	0  	0.833734	0.833734
242	16    	0.833734	0  	0.833734	0.833734
243	16    	0.833734	0  	0.833734	0.833734
244	16    	0.833734	0  	0.833734	0.833734
245	16    	0.833734	0  	0.833734	0.833734
246	16    	0.833734	0  	0.833734	0.833734
247	16    	0.833734	0  	0.833734	0.833734
248	16    	0.839655	0  	0.839655	0.839655
249	16    	0.839655	0  	0.839655	0.839655
250	16    	0.839655	0  	0.839655	0.839655
251	16    	0.839655	0  	0.839655	0.839655
252	16    	0.839655	0  	0.839655	0.839655
253	16    	0.839655	0  	0.839655	0.839655
254	16    	0.839655	0  	0.839655	0.839655
255	16    	0.839655	0  	0.839655	0.839655
256	16    	0.839655	0  	0.839655	0.839655
257	16    	0.839655	0  	0.839655	0.839655
258	16    	0.839655	0  	0.839655	0.839655
259	16    	0.839655	0  	0.839655	0.839655
260	16    	0.839655	0  	0.839655	0.839655
261	16    	0.839655	0  	0.839655	0.839655
262	16    	0.839655	0  	0.839655	0.839655
263	16    	0.839655	0  	0.839655	0.839655
264	16    	0.839655	0  	0.839655	0.839655
265	16    	0.839655	0  	0.839655	0.839655
266	16    	0.839655	0  	0.839655	0.839655
267	16    	0.839655	0  	0.839655	0.839655
268	16    	0.839655	0  	0.839655	0.839655
269	16    	0.839655	0  	0.839655	0.839655
270	16    	0.839655	0  	0.839655	0.839655
271	16    	0.839655	0  	0.839655	0.839655
272	16    	0.839655	0  	0.839655	0.839655
273	16    	0.839655	0  	0.839655	0.839655
274	16    	0.839655	0  	0.839655	0.839655
275	16    	0.839655	0  	0.839655	0.839655
276	16    	0.839655	0  	0.839655	0.839655
277	16    	0.839655	0  	0.839655	0.839655
278	16    	0.839655	0  	0.839655	0.839655
279	16    	0.839655	0  	0.839655	0.839655
280	16    	0.839655	0  	0.839655	0.839655
281	16    	0.839655	0  	0.839655	0.839655
282	16    	0.839655	0  	0.839655	0.839655
283	16    	0.839655	0  	0.839655	0.839655
284	16    	0.839655	0  	0.839655	0.839655
285	16    	0.839655	0  	0.839655	0.839655
286	16    	0.839655	0  	0.839655	0.839655
287	16    	0.839655	0  	0.839655	0.839655
288	16    	0.839655	0  	0.839655	0.839655
289	16    	0.839655	0  	0.839655	0.839655
290	16    	0.839655	0  	0.839655	0.839655
291	16    	0.839866	0  	0.839866	0.839866
292	16    	0.839866	0  	0.839866	0.839866
293	16    	0.839866	0  	0.839866	0.839866
294	16    	0.839866	0  	0.839866	0.839866
295	16    	0.839866	0  	0.839866	0.839866
296	16    	0.839866	0  	0.839866	0.839866
297	16    	0.839866	0  	0.839866	0.839866
298	16    	0.839866	0  	0.839866	0.839866
299	16    	0.839866	0  	0.839866	0.839866
300	16    	0.839866	0  	0.839866	0.839866
301	16    	0.839866	0  	0.839866	0.839866
302	16    	0.839866	0  	0.839866	0.839866
303	16    	0.839866	0  	0.839866	0.839866
304	16    	0.839866	0  	0.839866	0.839866
305	16    	0.839866	0  	0.839866	0.839866
306	16    	0.839866	0  	0.839866	0.839866
307	16    	0.839866	0  	0.839866	0.839866
308	16    	0.839866	0  	0.839866	0.839866
309	16    	0.839866	0  	0.839866	0.839866
310	16    	0.839866	0  	0.839866	0.839866
311	16    	0.839866	0  	0.839866	0.839866
312	16    	0.839866	0  	0.839866	0.839866
313	16    	0.839866	0  	0.839866	0.839866
314	16    	0.839866	0  	0.839866	0.839866
315	16    	0.839866	0  	0.839866	0.839866
316	16    	0.839866	0  	0.839866	0.839866
317	16    	0.84204 	0  	0.84204 	0.84204 
318	16    	0.84204 	0  	0.84204 	0.84204 
319	16    	0.84204 	0  	0.84204 	0.84204 
320	16    	0.84204 	0  	0.84204 	0.84204 
321	16    	0.84204 	0  	0.84204 	0.84204 
322	16    	0.84204 	0  	0.84204 	0.84204 
323	16    	0.84204 	0  	0.84204 	0.84204 
324	16    	0.84204 	0  	0.84204 	0.84204 
325	16    	0.84204 	0  	0.84204 	0.84204 
326	16    	0.84204 	0  	0.84204 	0.84204 
327	16    	0.84204 	0  	0.84204 	0.84204 
328	16    	0.84204 	0  	0.84204 	0.84204 
329	16    	0.84204 	0  	0.84204 	0.84204 
330	16    	0.84204 	0  	0.84204 	0.84204 
331	16    	0.84204 	0  	0.84204 	0.84204 
332	16    	0.84204 	0  	0.84204 	0.84204 
333	16    	0.84204 	0  	0.84204 	0.84204 
334	16    	0.84204 	0  	0.84204 	0.84204 
335	16    	0.84204 	0  	0.84204 	0.84204 
336	16    	0.84204 	0  	0.84204 	0.84204 
337	16    	0.84204 	0  	0.84204 	0.84204 
338	16    	0.84204 	0  	0.84204 	0.84204 
339	16    	0.84204 	0  	0.84204 	0.84204 
340	16    	0.84204 	0  	0.84204 	0.84204 
341	16    	0.84204 	0  	0.84204 	0.84204 
342	16    	0.84204 	0  	0.84204 	0.84204 
343	16    	0.84204 	0  	0.84204 	0.84204 
344	16    	0.84204 	0  	0.84204 	0.84204 
345	16    	0.84204 	0  	0.84204 	0.84204 
346	16    	0.84204 	0  	0.84204 	0.84204 
347	16    	0.84204 	0  	0.84204 	0.84204 
348	16    	0.84204 	0  	0.84204 	0.84204 
349	16    	0.84204 	0  	0.84204 	0.84204 
350	16    	0.84204 	0  	0.84204 	0.84204 
351	16    	0.84204 	0  	0.84204 	0.84204 
352	16    	0.84204 	0  	0.84204 	0.84204 
353	16    	0.84204 	0  	0.84204 	0.84204 
354	16    	0.84204 	0  	0.84204 	0.84204 
355	16    	0.84204 	0  	0.84204 	0.84204 
356	16    	0.84204 	0  	0.84204 	0.84204 
357	16    	0.84204 	0  	0.84204 	0.84204 
358	16    	0.84204 	0  	0.84204 	0.84204 
359	16    	0.84204 	0  	0.84204 	0.84204 
360	16    	0.84204 	0  	0.84204 	0.84204 
361	16    	0.84204 	0  	0.84204 	0.84204 
362	16    	0.84204 	0  	0.84204 	0.84204 
363	16    	0.84204 	0  	0.84204 	0.84204 
364	16    	0.84204 	0  	0.84204 	0.84204 
365	16    	0.84204 	0  	0.84204 	0.84204 
366	16    	0.84204 	0  	0.84204 	0.84204 
367	16    	0.84204 	0  	0.84204 	0.84204 
368	16    	0.84204 	0  	0.84204 	0.84204 
369	16    	0.84204 	0  	0.84204 	0.84204 
370	16    	0.84204 	0  	0.84204 	0.84204 
371	16    	0.84204 	0  	0.84204 	0.84204 
372	16    	0.84204 	0  	0.84204 	0.84204 
373	16    	0.84204 	0  	0.84204 	0.84204 
374	16    	0.84204 	0  	0.84204 	0.84204 
375	16    	0.84204 	0  	0.84204 	0.84204 
376	16    	0.84204 	0  	0.84204 	0.84204 
377	16    	0.84204 	0  	0.84204 	0.84204 
378	16    	0.84204 	0  	0.84204 	0.84204 
379	16    	0.84204 	0  	0.84204 	0.84204 
380	16    	0.84204 	0  	0.84204 	0.84204 
381	16    	0.84204 	0  	0.84204 	0.84204 
382	16    	0.84204 	0  	0.84204 	0.84204 
383	16    	0.84204 	0  	0.84204 	0.84204 
384	16    	0.84204 	0  	0.84204 	0.84204 
385	16    	0.84204 	0  	0.84204 	0.84204 
386	16    	0.84204 	0  	0.84204 	0.84204 
387	16    	0.84204 	0  	0.84204 	0.84204 
388	16    	0.84204 	0  	0.84204 	0.84204 
389	16    	0.84204 	0  	0.84204 	0.84204 
390	16    	0.84204 	0  	0.84204 	0.84204 
391	16    	0.84204 	0  	0.84204 	0.84204 
392	16    	0.84204 	0  	0.84204 	0.84204 
393	16    	0.84204 	0  	0.84204 	0.84204 
394	16    	0.84204 	0  	0.84204 	0.84204 
395	16    	0.84204 	0  	0.84204 	0.84204 
396	16    	0.84204 	0  	0.84204 	0.84204 
397	16    	0.84204 	0  	0.84204 	0.84204 
398	16    	0.84204 	0  	0.84204 	0.84204 
399	16    	0.84204 	0  	0.84204 	0.84204 
400	16    	0.84204 	0  	0.84204 	0.84204 
401	16    	0.84204 	0  	0.84204 	0.84204 
402	16    	0.84204 	0  	0.84204 	0.84204 
403	16    	0.84204 	0  	0.84204 	0.84204 
404	16    	0.84204 	0  	0.84204 	0.84204 
405	16    	0.84204 	0  	0.84204 	0.84204 
406	16    	0.84204 	0  	0.84204 	0.84204 
407	16    	0.84204 	0  	0.84204 	0.84204 
408	16    	0.84204 	0  	0.84204 	0.84204 
409	16    	0.84204 	0  	0.84204 	0.84204 
410	16    	0.84204 	0  	0.84204 	0.84204 
411	16    	0.84204 	0  	0.84204 	0.84204 
412	16    	0.84204 	0  	0.84204 	0.84204 
413	16    	0.84204 	0  	0.84204 	0.84204 
414	16    	0.84204 	0  	0.84204 	0.84204 
415	16    	0.84204 	0  	0.84204 	0.84204 
416	16    	0.84204 	0  	0.84204 	0.84204 
417	16    	0.84204 	0  	0.84204 	0.84204 
418	16    	0.84204 	0  	0.84204 	0.84204 
419	16    	0.84204 	0  	0.84204 	0.84204 
420	16    	0.84204 	0  	0.84204 	0.84204 
421	16    	0.84204 	0  	0.84204 	0.84204 
422	16    	0.84204 	0  	0.84204 	0.84204 
423	16    	0.84204 	0  	0.84204 	0.84204 
424	16    	0.84204 	0  	0.84204 	0.84204 
425	16    	0.84204 	0  	0.84204 	0.84204 
426	16    	0.84204 	0  	0.84204 	0.84204 
427	16    	0.84204 	0  	0.84204 	0.84204 
428	16    	0.84204 	0  	0.84204 	0.84204 
429	16    	0.84204 	0  	0.84204 	0.84204 
430	16    	0.84204 	0  	0.84204 	0.84204 
431	16    	0.84204 	0  	0.84204 	0.84204 
432	16    	0.84204 	0  	0.84204 	0.84204 
433	16    	0.84204 	0  	0.84204 	0.84204 
434	16    	0.84204 	0  	0.84204 	0.84204 
435	16    	0.84204 	0  	0.84204 	0.84204 
436	16    	0.84204 	0  	0.84204 	0.84204 
437	16    	0.84204 	0  	0.84204 	0.84204 
438	16    	0.84204 	0  	0.84204 	0.84204 
439	16    	0.84204 	0  	0.84204 	0.84204 
440	16    	0.84204 	0  	0.84204 	0.84204 
441	16    	0.84204 	0  	0.84204 	0.84204 
442	16    	0.84204 	0  	0.84204 	0.84204 
443	16    	0.84204 	0  	0.84204 	0.84204 
444	16    	0.84204 	0  	0.84204 	0.84204 
445	16    	0.84204 	0  	0.84204 	0.84204 
446	16    	0.84204 	0  	0.84204 	0.84204 
447	16    	0.84204 	0  	0.84204 	0.84204 
448	16    	0.84204 	0  	0.84204 	0.84204 
449	16    	0.84204 	0  	0.84204 	0.84204 
450	16    	0.84204 	0  	0.84204 	0.84204 
451	16    	0.84204 	0  	0.84204 	0.84204 
452	16    	0.84204 	0  	0.84204 	0.84204 
453	16    	0.84204 	0  	0.84204 	0.84204 
454	16    	0.84204 	0  	0.84204 	0.84204 
455	16    	0.84204 	0  	0.84204 	0.84204 
456	16    	0.84204 	0  	0.84204 	0.84204 
457	16    	0.84204 	0  	0.84204 	0.84204 
458	16    	0.84204 	0  	0.84204 	0.84204 
459	16    	0.84204 	0  	0.84204 	0.84204 
460	16    	0.84204 	0  	0.84204 	0.84204 
461	16    	0.84204 	0  	0.84204 	0.84204 
462	16    	0.84204 	0  	0.84204 	0.84204 
463	16    	0.84204 	0  	0.84204 	0.84204 
464	16    	0.84204 	0  	0.84204 	0.84204 
465	16    	0.84204 	0  	0.84204 	0.84204 
466	16    	0.84204 	0  	0.84204 	0.84204 
467	16    	0.84204 	0  	0.84204 	0.84204 
468	16    	0.84204 	0  	0.84204 	0.84204 
469	16    	0.84204 	0  	0.84204 	0.84204 
470	16    	0.84204 	0  	0.84204 	0.84204 
471	16    	0.84204 	0  	0.84204 	0.84204 
472	16    	0.84204 	0  	0.84204 	0.84204 
473	16    	0.84204 	0  	0.84204 	0.84204 
474	16    	0.84204 	0  	0.84204 	0.84204 
475	16    	0.84204 	0  	0.84204 	0.84204 
476	16    	0.84204 	0  	0.84204 	0.84204 
477	16    	0.84204 	0  	0.84204 	0.84204 
478	16    	0.84204 	0  	0.84204 	0.84204 
479	16    	0.84204 	0  	0.84204 	0.84204 
480	16    	0.84204 	0  	0.84204 	0.84204 
481	16    	0.84204 	0  	0.84204 	0.84204 
482	16    	0.84204 	0  	0.84204 	0.84204 
483	16    	0.84204 	0  	0.84204 	0.84204 
484	16    	0.84204 	0  	0.84204 	0.84204 
485	16    	0.84204 	0  	0.84204 	0.84204 
486	16    	0.84204 	0  	0.84204 	0.84204 
487	16    	0.84204 	0  	0.84204 	0.84204 
488	16    	0.84204 	0  	0.84204 	0.84204 
489	16    	0.84204 	0  	0.84204 	0.84204 
490	16    	0.84204 	0  	0.84204 	0.84204 
491	16    	0.84204 	0  	0.84204 	0.84204 
492	16    	0.84204 	0  	0.84204 	0.84204 
493	16    	0.843792	0  	0.843792	0.843792
494	16    	0.843792	0  	0.843792	0.843792
495	16    	0.843792	0  	0.843792	0.843792
496	16    	0.843792	0  	0.843792	0.843792
497	16    	0.843792	0  	0.843792	0.843792
498	16    	0.843792	0  	0.843792	0.843792
499	16    	0.843792	0  	0.843792	0.843792
500	16    	0.843792	0  	0.843792	0.843792
501	16    	0.843792	0  	0.843792	0.843792
502	16    	0.843792	0  	0.843792	0.843792
503	16    	0.843792	0  	0.843792	0.843792
504	16    	0.843792	0  	0.843792	0.843792
505	16    	0.843792	0  	0.843792	0.843792
506	16    	0.843792	0  	0.843792	0.843792
507	16    	0.843792	0  	0.843792	0.843792
508	16    	0.843792	0  	0.843792	0.843792
509	16    	0.843792	0  	0.843792	0.843792
510	16    	0.843792	0  	0.843792	0.843792
511	16    	0.843792	0  	0.843792	0.843792
512	16    	0.843792	0  	0.843792	0.843792
513	16    	0.843792	0  	0.843792	0.843792
514	16    	0.843792	0  	0.843792	0.843792
515	16    	0.843792	0  	0.843792	0.843792
516	16    	0.843792	0  	0.843792	0.843792
517	16    	0.843792	0  	0.843792	0.843792
518	16    	0.843792	0  	0.843792	0.843792
519	16    	0.843792	0  	0.843792	0.843792
520	16    	0.843792	0  	0.843792	0.843792
521	16    	0.843792	0  	0.843792	0.843792
522	16    	0.843792	0  	0.843792	0.843792
523	16    	0.843792	0  	0.843792	0.843792
524	16    	0.843792	0  	0.843792	0.843792
525	16    	0.843792	0  	0.843792	0.843792
526	16    	0.843792	0  	0.843792	0.843792
527	16    	0.843792	0  	0.843792	0.843792
528	16    	0.843792	0  	0.843792	0.843792
529	16    	0.843792	0  	0.843792	0.843792
530	16    	0.843792	0  	0.843792	0.843792
531	16    	0.843792	0  	0.843792	0.843792
532	16    	0.843792	0  	0.843792	0.843792
533	16    	0.843792	0  	0.843792	0.843792
534	16    	0.843792	0  	0.843792	0.843792
535	16    	0.843792	0  	0.843792	0.843792
536	16    	0.843792	0  	0.843792	0.843792
537	16    	0.843792	0  	0.843792	0.843792
538	16    	0.843792	0  	0.843792	0.843792
539	16    	0.843792	0  	0.843792	0.843792
540	16    	0.843792	0  	0.843792	0.843792
541	16    	0.843792	0  	0.843792	0.843792
542	16    	0.843792	0  	0.843792	0.843792
543	16    	0.843792	0  	0.843792	0.843792
544	16    	0.843792	0  	0.843792	0.843792
545	16    	0.843792	0  	0.843792	0.843792
546	16    	0.843792	0  	0.843792	0.843792
547	16    	0.843792	0  	0.843792	0.843792
548	16    	0.843792	0  	0.843792	0.843792
549	16    	0.843792	0  	0.843792	0.843792
550	16    	0.843792	0  	0.843792	0.843792
551	16    	0.843792	0  	0.843792	0.843792
552	16    	0.843792	0  	0.843792	0.843792
553	16    	0.843792	0  	0.843792	0.843792
554	16    	0.843792	0  	0.843792	0.843792
555	16    	0.843792	0  	0.843792	0.843792
556	16    	0.843792	0  	0.843792	0.843792
557	16    	0.843792	0  	0.843792	0.843792
558	16    	0.844425	0  	0.844425	0.844425
559	16    	0.844425	0  	0.844425	0.844425
560	16    	0.844425	0  	0.844425	0.844425
561	16    	0.844425	0  	0.844425	0.844425
562	16    	0.844425	0  	0.844425	0.844425
563	16    	0.844425	0  	0.844425	0.844425
564	16    	0.844425	0  	0.844425	0.844425
565	16    	0.844425	0  	0.844425	0.844425
566	16    	0.844425	0  	0.844425	0.844425
567	16    	0.844425	0  	0.844425	0.844425
568	16    	0.844425	0  	0.844425	0.844425
569	16    	0.844425	0  	0.844425	0.844425
570	16    	0.844425	0  	0.844425	0.844425
571	16    	0.844425	0  	0.844425	0.844425
572	16    	0.844425	0  	0.844425	0.844425
573	16    	0.844425	0  	0.844425	0.844425
574	16    	0.844425	0  	0.844425	0.844425
575	16    	0.844425	0  	0.844425	0.844425
576	16    	0.844425	0  	0.844425	0.844425
577	16    	0.844425	0  	0.844425	0.844425
578	16    	0.844425	0  	0.844425	0.844425
579	16    	0.844425	0  	0.844425	0.844425
580	16    	0.844425	0  	0.844425	0.844425
581	16    	0.844425	0  	0.844425	0.844425
582	16    	0.844425	0  	0.844425	0.844425
583	16    	0.844425	0  	0.844425	0.844425
584	16    	0.844425	0  	0.844425	0.844425
585	16    	0.844425	0  	0.844425	0.844425
586	16    	0.844425	0  	0.844425	0.844425
587	16    	0.844425	0  	0.844425	0.844425
588	16    	0.844425	0  	0.844425	0.844425
589	16    	0.844425	0  	0.844425	0.844425
590	16    	0.844425	0  	0.844425	0.844425
591	16    	0.844425	0  	0.844425	0.844425
592	16    	0.844425	0  	0.844425	0.844425
593	16    	0.844425	0  	0.844425	0.844425
594	16    	0.844425	0  	0.844425	0.844425
595	16    	0.844425	0  	0.844425	0.844425
596	16    	0.844425	0  	0.844425	0.844425
597	16    	0.844425	0  	0.844425	0.844425
598	16    	0.844425	0  	0.844425	0.844425
599	16    	0.844425	0  	0.844425	0.844425
600	16    	0.844425	0  	0.844425	0.844425
601	16    	0.844425	0  	0.844425	0.844425
602	16    	0.844425	0  	0.844425	0.844425
603	16    	0.844425	0  	0.844425	0.844425
604	16    	0.844425	0  	0.844425	0.844425
605	16    	0.844425	0  	0.844425	0.844425
606	16    	0.844425	0  	0.844425	0.844425
607	16    	0.844425	0  	0.844425	0.844425
608	16    	0.844425	0  	0.844425	0.844425
609	16    	0.844425	0  	0.844425	0.844425
610	16    	0.844425	0  	0.844425	0.844425
611	16    	0.844425	0  	0.844425	0.844425
612	16    	0.844425	0  	0.844425	0.844425
613	16    	0.844425	0  	0.844425	0.844425
614	16    	0.844425	0  	0.844425	0.844425
615	16    	0.844425	0  	0.844425	0.844425
616	16    	0.844425	0  	0.844425	0.844425
617	16    	0.844425	0  	0.844425	0.844425
618	16    	0.844425	0  	0.844425	0.844425
619	16    	0.844425	0  	0.844425	0.844425
620	16    	0.844425	0  	0.844425	0.844425
621	16    	0.844425	0  	0.844425	0.844425
622	16    	0.844425	0  	0.844425	0.844425
623	16    	0.844425	0  	0.844425	0.844425
624	16    	0.844425	0  	0.844425	0.844425
625	16    	0.844425	0  	0.844425	0.844425