gen	nevals	avg     	std	min     	max     
0  	1     	0.81976 	0  	0.81976 	0.81976 
1  	16    	0.81976 	0  	0.81976 	0.81976 
2  	16    	0.81976 	0  	0.81976 	0.81976 
3  	16    	0.825772	0  	0.825772	0.825772
4  	16    	0.828439	0  	0.828439	0.828439
5  	16    	0.830752	0  	0.830752	0.830752
6  	16    	0.830752	0  	0.830752	0.830752
7  	16    	0.830752	0  	0.830752	0.830752
8  	16    	0.830752	0  	0.830752	0.830752
9  	16    	0.83087 	0  	0.83087 	0.83087 
10 	16    	0.83087 	0  	0.83087 	0.83087 
11 	16    	0.833819	0  	0.833819	0.833819
12 	16    	0.833819	0  	0.833819	0.833819
13 	16    	0.833819	0  	0.833819	0.833819
14 	16    	0.833819	0  	0.833819	0.833819
15 	16    	0.833819	0  	0.833819	0.833819
16 	16    	0.835273	0  	0.835273	0.835273
17 	16    	0.837363	0  	0.837363	0.837363
18 	16    	0.837999	0  	0.837999	0.837999
19 	16    	0.839522	0  	0.839522	0.839522
20 	16    	0.839522	0  	0.839522	0.839522
21 	16    	0.842457	0  	0.842457	0.842457
22 	16    	0.843093	0  	0.843093	0.843093
23 	16    	0.844352	0  	0.844352	0.844352
24 	16    	0.844352	0  	0.844352	0.844352
25 	16    	0.844352	0  	0.844352	0.844352
26 	16    	0.844352	0  	0.844352	0.844352
27 	16    	0.844352	0  	0.844352	0.844352
28 	16    	0.844352	0  	0.844352	0.844352
29 	16    	0.844352	0  	0.844352	0.844352
30 	16    	0.844352	0  	0.844352	0.844352
31 	16    	0.844352	0  	0.844352	0.844352
32 	16    	0.844352	0  	0.844352	0.844352
33 	16    	0.844352	0  	0.844352	0.844352
34 	16    	0.844352	0  	0.844352	0.844352
35 	16    	0.844352	0  	0.844352	0.844352
36 	16    	0.844352	0  	0.844352	0.844352
37 	16    	0.844352	0  	0.844352	0.844352
38 	16    	0.844352	0  	0.844352	0.844352
39 	16    	0.844352	0  	0.844352	0.844352
40 	16    	0.844352	0  	0.844352	0.844352
41 	16    	0.844352	0  	0.844352	0.844352
42 	16    	0.844352	0  	0.844352	0.844352
43 	16    	0.844352	0  	0.844352	0.844352
44 	16    	0.844933	0  	0.844933	0.844933
45 	16    	0.844933	0  	0.844933	0.844933
46 	16    	0.844933	0  	0.844933	0.844933
47 	16    	0.844933	0  	0.844933	0.844933
48 	16    	0.844933	0  	0.844933	0.844933
49 	16    	0.844933	0  	0.844933	0.844933
50 	16    	0.844933	0  	0.844933	0.844933
51 	16    	0.844933	0  	0.844933	0.844933
52 	16    	0.844933	0  	0.844933	0.844933
53 	16    	0.845229	0  	0.845229	0.845229
54 	16    	0.845229	0  	0.845229	0.845229
55 	16    	0.845229	0  	0.845229	0.845229
56 	16    	0.845229	0  	0.845229	0.845229
57 	16    	0.845229	0  	0.845229	0.845229
58 	16    	0.845229	0  	0.845229	0.845229
59 	16    	0.847223	0  	0.847223	0.847223
60 	16    	0.847223	0  	0.847223	0.847223
61 	16    	0.847223	0  	0.847223	0.847223
62 	16    	0.848078	0  	0.848078	0.848078
63 	16    	0.848078	0  	0.848078	0.848078
64 	16    	0.848078	0  	0.848078	0.848078
65 	16    	0.848078	0  	0.848078	0.848078
66 	16    	0.848078	0  	0.848078	0.848078
67 	16    	0.848078	0  	0.848078	0.848078
68 	16    	0.848078	0  	0.848078	0.848078
69 	16    	0.848078	0  	0.848078	0.848078
70 	16    	0.848078	0  	0.848078	0.848078
71 	16    	0.848078	0  	0.848078	0.848078
72 	16    	0.848078	0  	0.848078	0.848078
73 	16    	0.848078	0  	0.848078	0.848078
74 	16    	0.848078	0  	0.848078	0.848078
75 	16    	0.848078	0  	0.848078	0.848078
76 	16    	0.848641	0  	0.848641	0.848641
77 	16    	0.848641	0  	0.848641	0.848641
78 	16    	0.848641	0  	0.848641	0.848641
79 	16    	0.850613	0  	0.850613	0.850613
80 	16    	0.850613	0  	0.850613	0.850613
81 	16    	0.850613	0  	0.850613	0.850613
82 	16    	0.850613	0  	0.850613	0.850613
83 	16    	0.850613	0  	0.850613	0.850613
84 	16    	0.850613	0  	0.850613	0.850613
85 	16    	0.850613	0  	0.850613	0.850613
86 	16    	0.850613	0  	0.850613	0.850613
87 	16    	0.851245	0  	0.851245	0.851245
88 	16    	0.851245	0  	0.851245	0.851245
89 	16    	0.851245	0  	0.851245	0.851245
90 	16    	0.851245	0  	0.851245	0.851245
91 	16    	0.851245	0  	0.851245	0.851245
92 	16    	0.851245	0  	0.851245	0.851245
93 	16    	0.851245	0  	0.851245	0.851245
94 	16    	0.851245	0  	0.851245	0.851245
95 	16    	0.851245	0  	0.851245	0.851245
96 	16    	0.851245	0  	0.851245	0.851245
97 	16    	0.851245	0  	0.851245	0.851245
98 	16    	0.851245	0  	0.851245	0.851245
99 	16    	0.851245	0  	0.851245	0.851245
100	16    	0.851245	0  	0.851245	0.851245
101	16    	0.851245	0  	0.851245	0.851245
102	16    	0.851245	0  	0.851245	0.851245
103	16    	0.851245	0  	0.851245	0.851245
104	16    	0.851245	0  	0.851245	0.851245
105	16    	0.851245	0  	0.851245	0.851245
106	16    	0.851245	0  	0.851245	0.851245
107	16    	0.851245	0  	0.851245	0.851245
108	16    	0.851245	0  	0.851245	0.851245
109	16    	0.851245	0  	0.851245	0.851245
110	16    	0.851295	0  	0.851295	0.851295
111	16    	0.851295	0  	0.851295	0.851295
112	16    	0.851295	0  	0.851295	0.851295
113	16    	0.854126	0  	0.854126	0.854126
114	16    	0.854126	0  	0.854126	0.854126
115	16    	0.854126	0  	0.854126	0.854126
116	16    	0.854126	0  	0.854126	0.854126
117	16    	0.854126	0  	0.854126	0.854126
118	16    	0.854126	0  	0.854126	0.854126
119	16    	0.854126	0  	0.854126	0.854126
120	16    	0.854126	0  	0.854126	0.854126
121	16    	0.854126	0  	0.854126	0.854126
122	16    	0.854385	0  	0.854385	0.854385
123	16    	0.854385	0  	0.854385	0.854385
124	16    	0.854385	0  	0.854385	0.854385
125	16    	0.854385	0  	0.854385	0.854385
126	16    	0.854385	0  	0.854385	0.854385
127	16    	0.854385	0  	0.854385	0.854385
128	16    	0.854385	0  	0.854385	0.854385
129	16    	0.854385	0  	0.854385	0.854385
130	16    	0.854385	0  	0.854385	0.854385
131	16    	0.855075	0  	0.855075	0.855075
132	16    	0.856125	0  	0.856125	0.856125
133	16    	0.856125	0  	0.856125	0.856125
134	16    	0.856125	0  	0.856125	0.856125
135	16    	0.857347	0  	0.857347	0.857347
136	16    	0.857347	0  	0.857347	0.857347
137	16    	0.857347	0  	0.857347	0.857347
138	16    	0.857347	0  	0.857347	0.857347
139	16    	0.857347	0  	0.857347	0.857347
140	16    	0.859392	0  	0.859392	0.859392
141	16    	0.859987	0  	0.859987	0.859987
142	16    	0.859987	0  	0.859987	0.859987
143	16    	0.859987	0  	0.859987	0.859987
144	16    	0.860505	0  	0.860505	0.860505
145	16    	0.860505	0  	0.860505	0.860505
146	16    	0.86125 	0  	0.86125 	0.86125 
147	16    	0.861291	0  	0.861291	0.861291
148	16    	0.864517	0  	0.864517	0.864517
149	16    	0.864517	0  	0.864517	0.864517
150	16    	0.864517	0  	0.864517	0.864517
151	16    	0.864517	0  	0.864517	0.864517
152	16    	0.864517	0  	0.864517	0.864517
153	16    	0.864517	0  	0.864517	0.864517
154	16    	0.864517	0  	0.864517	0.864517
155	16    	0.864517	0  	0.864517	0.864517
156	16    	0.864517	0  	0.864517	0.864517
157	16    	0.864517	0  	0.864517	0.864517
158	16    	0.864517	0  	0.864517	0.864517
159	16    	0.864517	0  	0.864517	0.864517
160	16    	0.864517	0  	0.864517	0.864517
161	16    	0.864517	0  	0.864517	0.864517
162	16    	0.864517	0  	0.864517	0.864517
163	16    	0.864517	0  	0.864517	0.864517
164	16    	0.864517	0  	0.864517	0.864517
165	16    	0.865322	0  	0.865322	0.865322
166	16    	0.865322	0  	0.865322	0.865322
167	16    	0.865322	0  	0.865322	0.865322
168	16    	0.867198	0  	0.867198	0.867198
169	16    	0.867198	0  	0.867198	0.867198
170	16    	0.867198	0  	0.867198	0.867198
171	16    	0.869175	0  	0.869175	0.869175
172	16    	0.869175	0  	0.869175	0.869175
173	16    	0.869175	0  	0.869175	0.869175
174	16    	0.869175	0  	0.869175	0.869175
175	16    	0.869175	0  	0.869175	0.869175
176	16    	0.869175	0  	0.869175	0.869175
177	16    	0.869175	0  	0.869175	0.869175
178	16    	0.869175	0  	0.869175	0.869175
179	16    	0.869175	0  	0.869175	0.869175
180	16    	0.869175	0  	0.869175	0.869175
181	16    	0.869175	0  	0.869175	0.869175
182	16    	0.869175	0  	0.869175	0.869175
183	16    	0.869175	0  	0.869175	0.869175
184	16    	0.869175	0  	0.869175	0.869175
185	16    	0.869175	0  	0.869175	0.869175
186	16    	0.869175	0  	0.869175	0.869175
187	16    	0.869175	0  	0.869175	0.869175
188	16    	0.869175	0  	0.869175	0.869175
189	16    	0.869175	0  	0.869175	0.869175
190	16    	0.869638	0  	0.869638	0.869638
191	16    	0.869638	0  	0.869638	0.869638
192	16    	0.869638	0  	0.869638	0.869638
193	16    	0.869702	0  	0.869702	0.869702
194	16    	0.869702	0  	0.869702	0.869702
195	16    	0.869702	0  	0.869702	0.869702
196	16    	0.869702	0  	0.869702	0.869702
197	16    	0.869702	0  	0.869702	0.869702
198	16    	0.869702	0  	0.869702	0.869702
199	16    	0.869702	0  	0.869702	0.869702
200	16    	0.871897	0  	0.871897	0.871897
201	16    	0.871897	0  	0.871897	0.871897
202	16    	0.871897	0  	0.871897	0.871897
203	16    	0.871897	0  	0.871897	0.871897
204	16    	0.871897	0  	0.871897	0.871897
205	16    	0.871897	0  	0.871897	0.871897
206	16    	0.871897	0  	0.871897	0.871897
207	16    	0.871897	0  	0.871897	0.871897
208	16    	0.871897	0  	0.871897	0.871897
209	16    	0.871897	0  	0.871897	0.871897
210	16    	0.871897	0  	0.871897	0.871897
211	16    	0.871897	0  	0.871897	0.871897
212	16    	0.871897	0  	0.871897	0.871897
213	16    	0.871897	0  	0.871897	0.871897
214	16    	0.871897	0  	0.871897	0.871897
215	16    	0.871897	0  	0.871897	0.871897
216	16    	0.871897	0  	0.871897	0.871897
217	16    	0.871897	0  	0.871897	0.871897
218	16    	0.871897	0  	0.871897	0.871897
219	16    	0.871897	0  	0.871897	0.871897
220	16    	0.871897	0  	0.871897	0.871897
221	16    	0.871897	0  	0.871897	0.871897
222	16    	0.871897	0  	0.871897	0.871897
223	16    	0.871897	0  	0.871897	0.871897
224	16    	0.871969	0  	0.871969	0.871969
225	16    	0.871969	0  	0.871969	0.871969
226	16    	0.871969	0  	0.871969	0.871969
227	16    	0.871969	0  	0.871969	0.871969
228	16    	0.871969	0  	0.871969	0.871969
229	16    	0.871969	0  	0.871969	0.871969
230	16    	0.871969	0  	0.871969	0.871969
231	16    	0.871969	0  	0.871969	0.871969
232	16    	0.871969	0  	0.871969	0.871969
233	16    	0.871969	0  	0.871969	0.871969
234	16    	0.871969	0  	0.871969	0.871969
235	16    	0.871969	0  	0.871969	0.871969
236	16    	0.871969	0  	0.871969	0.871969
237	16    	0.871969	0  	0.871969	0.871969
238	16    	0.871969	0  	0.871969	0.871969
239	16    	0.871969	0  	0.871969	0.871969
240	16    	0.871969	0  	0.871969	0.871969
241	16    	0.871969	0  	0.871969	0.871969
242	16    	0.871969	0  	0.871969	0.871969
243	16    	0.871969	0  	0.871969	0.871969
244	16    	0.871969	0  	0.871969	0.871969
245	16    	0.871969	0  	0.871969	0.871969
246	16    	0.871969	0  	0.871969	0.871969
247	16    	0.871969	0  	0.871969	0.871969
248	16    	0.871969	0  	0.871969	0.871969
249	16    	0.871969	0  	0.871969	0.871969
250	16    	0.871969	0  	0.871969	0.871969
251	16    	0.871969	0  	0.871969	0.871969
252	16    	0.871969	0  	0.871969	0.871969
253	16    	0.871969	0  	0.871969	0.871969
254	16    	0.871969	0  	0.871969	0.871969
255	16    	0.871969	0  	0.871969	0.871969
256	16    	0.871969	0  	0.871969	0.871969
257	16    	0.871969	0  	0.871969	0.871969
258	16    	0.871969	0  	0.871969	0.871969
259	16    	0.871969	0  	0.871969	0.871969
260	16    	0.871969	0  	0.871969	0.871969
261	16    	0.871969	0  	0.871969	0.871969
262	16    	0.871969	0  	0.871969	0.871969
263	16    	0.871969	0  	0.871969	0.871969
264	16    	0.871969	0  	0.871969	0.871969
265	16    	0.871969	0  	0.871969	0.871969
266	16    	0.871969	0  	0.871969	0.871969
267	16    	0.871969	0  	0.871969	0.871969
268	16    	0.871969	0  	0.871969	0.871969
269	16    	0.872665	0  	0.872665	0.872665
270	16    	0.872665	0  	0.872665	0.872665
271	16    	0.872665	0  	0.872665	0.872665
272	16    	0.872665	0  	0.872665	0.872665
273	16    	0.872665	0  	0.872665	0.872665
274	16    	0.874378	0  	0.874378	0.874378
275	16    	0.874378	0  	0.874378	0.874378
276	16    	0.874378	0  	0.874378	0.874378
277	16    	0.874378	0  	0.874378	0.874378
278	16    	0.874378	0  	0.874378	0.874378
279	16    	0.874378	0  	0.874378	0.874378
280	16    	0.874378	0  	0.874378	0.874378
281	16    	0.874378	0  	0.874378	0.874378
282	16    	0.874378	0  	0.874378	0.874378
283	16    	0.874378	0  	0.874378	0.874378
284	16    	0.876231	0  	0.876231	0.876231
285	16    	0.876231	0  	0.876231	0.876231
286	16    	0.876231	0  	0.876231	0.876231
287	16    	0.876231	0  	0.876231	0.876231
288	16    	0.876231	0  	0.876231	0.876231
289	16    	0.876231	0  	0.876231	0.876231
290	16    	0.876231	0  	0.876231	0.876231
291	16    	0.876231	0  	0.876231	0.876231
292	16    	0.876231	0  	0.876231	0.876231
293	16    	0.876231	0  	0.876231	0.876231
294	16    	0.876231	0  	0.876231	0.876231
295	16    	0.876231	0  	0.876231	0.876231
296	16    	0.876231	0  	0.876231	0.876231
297	16    	0.876231	0  	0.876231	0.876231
298	16    	0.876231	0  	0.876231	0.876231
299	16    	0.876231	0  	0.876231	0.876231
300	16    	0.876231	0  	0.876231	0.876231
301	16    	0.876231	0  	0.876231	0.876231
302	16    	0.876231	0  	0.876231	0.876231
303	16    	0.876231	0  	0.876231	0.876231
304	16    	0.876231	0  	0.876231	0.876231
305	16    	0.876231	0  	0.876231	0.876231
306	16    	0.876231	0  	0.876231	0.876231
307	16    	0.876231	0  	0.876231	0.876231
308	16    	0.876231	0  	0.876231	0.876231
309	16    	0.876231	0  	0.876231	0.876231
310	16    	0.876231	0  	0.876231	0.876231
311	16    	0.876231	0  	0.876231	0.876231
312	16    	0.876231	0  	0.876231	0.876231
313	16    	0.876231	0  	0.876231	0.876231
314	16    	0.876231	0  	0.876231	0.876231
315	16    	0.876281	0  	0.876281	0.876281
316	16    	0.876281	0  	0.876281	0.876281
317	16    	0.876281	0  	0.876281	0.876281
318	16    	0.876281	0  	0.876281	0.876281
319	16    	0.876281	0  	0.876281	0.876281
320	16    	0.876281	0  	0.876281	0.876281
321	16    	0.876281	0  	0.876281	0.876281
322	16    	0.877281	0  	0.877281	0.877281
323	16    	0.877281	0  	0.877281	0.877281
324	16    	0.877281	0  	0.877281	0.877281
325	16    	0.877281	0  	0.877281	0.877281
326	16    	0.877281	0  	0.877281	0.877281
327	16    	0.877281	0  	0.877281	0.877281
328	16    	0.877281	0  	0.877281	0.877281
329	16    	0.877281	0  	0.877281	0.877281
330	16    	0.877281	0  	0.877281	0.877281
331	16    	0.877281	0  	0.877281	0.877281
332	16    	0.877281	0  	0.877281	0.877281
333	16    	0.877281	0  	0.877281	0.877281
334	16    	0.877281	0  	0.877281	0.877281
335	16    	0.877281	0  	0.877281	0.877281
336	16    	0.877281	0  	0.877281	0.877281
337	16    	0.877572	0  	0.877572	0.877572
338	16    	0.877572	0  	0.877572	0.877572
339	16    	0.877572	0  	0.877572	0.877572
340	16    	0.877572	0  	0.877572	0.877572
341	16    	0.877572	0  	0.877572	0.877572
342	16    	0.877572	0  	0.877572	0.877572
343	16    	0.877572	0  	0.877572	0.877572
344	16    	0.877572	0  	0.877572	0.877572
345	16    	0.877572	0  	0.877572	0.877572
346	16    	0.877572	0  	0.877572	0.877572
347	16    	0.877572	0  	0.877572	0.877572
348	16    	0.877572	0  	0.877572	0.877572
349	16    	0.877572	0  	0.877572	0.877572
350	16    	0.877572	0  	0.877572	0.877572
351	16    	0.877572	0  	0.877572	0.877572
352	16    	0.877572	0  	0.877572	0.877572
353	16    	0.877572	0  	0.877572	0.877572
354	16    	0.877572	0  	0.877572	0.877572
355	16    	0.877572	0  	0.877572	0.877572
356	16    	0.877572	0  	0.877572	0.877572
357	16    	0.877572	0  	0.877572	0.877572
358	16    	0.877572	0  	0.877572	0.877572
359	16    	0.877572	0  	0.877572	0.877572
360	16    	0.877572	0  	0.877572	0.877572
361	16    	0.877572	0  	0.877572	0.877572
362	16    	0.877572	0  	0.877572	0.877572
363	16    	0.877572	0  	0.877572	0.877572
364	16    	0.877572	0  	0.877572	0.877572
365	16    	0.877572	0  	0.877572	0.877572
366	16    	0.877572	0  	0.877572	0.877572
367	16    	0.877572	0  	0.877572	0.877572
368	16    	0.877572	0  	0.877572	0.877572
369	16    	0.877572	0  	0.877572	0.877572
370	16    	0.877572	0  	0.877572	0.877572
371	16    	0.877572	0  	0.877572	0.877572
372	16    	0.877572	0  	0.877572	0.877572
373	16    	0.877572	0  	0.877572	0.877572
374	16    	0.877572	0  	0.877572	0.877572
375	16    	0.877572	0  	0.877572	0.877572
376	16    	0.877572	0  	0.877572	0.877572
377	16    	0.877572	0  	0.877572	0.877572
378	16    	0.877572	0  	0.877572	0.877572
379	16    	0.877572	0  	0.877572	0.877572
380	16    	0.877572	0  	0.877572	0.877572
381	16    	0.877572	0  	0.877572	0.877572
382	16    	0.877572	0  	0.877572	0.877572
383	16    	0.877572	0  	0.877572	0.877572
384	16    	0.877572	0  	0.877572	0.877572
385	16    	0.877572	0  	0.877572	0.877572
386	16    	0.877572	0  	0.877572	0.877572
387	16    	0.877572	0  	0.877572	0.877572
388	16    	0.877572	0  	0.877572	0.877572
389	16    	0.877572	0  	0.877572	0.877572
390	16    	0.877572	0  	0.877572	0.877572
391	16    	0.877572	0  	0.877572	0.877572
392	16    	0.877572	0  	0.877572	0.877572
393	16    	0.877572	0  	0.877572	0.877572
394	16    	0.877572	0  	0.877572	0.877572
395	16    	0.877572	0  	0.877572	0.877572
396	16    	0.877572	0  	0.877572	0.877572
397	16    	0.877572	0  	0.877572	0.877572
398	16    	0.877572	0  	0.877572	0.877572
399	16    	0.877572	0  	0.877572	0.877572
400	16    	0.877572	0  	0.877572	0.877572
401	16    	0.877572	0  	0.877572	0.877572
402	16    	0.877572	0  	0.877572	0.877572
403	16    	0.877572	0  	0.877572	0.877572
404	16    	0.877572	0  	0.877572	0.877572
405	16    	0.877572	0  	0.877572	0.877572
406	16    	0.877572	0  	0.877572	0.877572
407	16    	0.877572	0  	0.877572	0.877572
408	16    	0.877572	0  	0.877572	0.877572
409	16    	0.877572	0  	0.877572	0.877572
410	16    	0.877572	0  	0.877572	0.877572
411	16    	0.877572	0  	0.877572	0.877572
412	16    	0.877572	0  	0.877572	0.877572
413	16    	0.877572	0  	0.877572	0.877572
414	16    	0.877572	0  	0.877572	0.877572
415	16    	0.877572	0  	0.877572	0.877572
416	16    	0.877949	0  	0.877949	0.877949
417	16    	0.879258	0  	0.879258	0.879258
418	16    	0.879258	0  	0.879258	0.879258
419	16    	0.879258	0  	0.879258	0.879258
420	16    	0.879258	0  	0.879258	0.879258
421	16    	0.879258	0  	0.879258	0.879258
422	16    	0.879258	0  	0.879258	0.879258
423	16    	0.879258	0  	0.879258	0.879258
424	16    	0.879258	0  	0.879258	0.879258
425	16    	0.879258	0  	0.879258	0.879258
426	16    	0.879258	0  	0.879258	0.879258
427	16    	0.879258	0  	0.879258	0.879258
428	16    	0.879258	0  	0.879258	0.879258
429	16    	0.879326	0  	0.879326	0.879326
430	16    	0.880171	0  	0.880171	0.880171
431	16    	0.880171	0  	0.880171	0.880171
432	16    	0.88098 	0  	0.88098 	0.88098 
433	16    	0.88098 	0  	0.88098 	0.88098 
434	16    	0.88098 	0  	0.88098 	0.88098 
435	16    	0.881893	0  	0.881893	0.881893
436	16    	0.882184	0  	0.882184	0.882184
437	16    	0.882184	0  	0.882184	0.882184
438	16    	0.882184	0  	0.882184	0.882184
439	16    	0.882184	0  	0.882184	0.882184
440	16    	0.882184	0  	0.882184	0.882184
441	16    	0.882184	0  	0.882184	0.882184
442	16    	0.882184	0  	0.882184	0.882184
443	16    	0.882184	0  	0.882184	0.882184
444	16    	0.882184	0  	0.882184	0.882184
445	16    	0.882184	0  	0.882184	0.882184
446	16    	0.882288	0  	0.882288	0.882288
447	16    	0.886046	0  	0.886046	0.886046
448	16    	0.886046	0  	0.886046	0.886046
449	16    	0.886046	0  	0.886046	0.886046
450	16    	0.886046	0  	0.886046	0.886046
451	16    	0.886046	0  	0.886046	0.886046
452	16    	0.886046	0  	0.886046	0.886046
453	16    	0.886046	0  	0.886046	0.886046
454	16    	0.886046	0  	0.886046	0.886046
455	16    	0.886046	0  	0.886046	0.886046
456	16    	0.886046	0  	0.886046	0.886046
457	16    	0.886046	0  	0.886046	0.886046
458	16    	0.886046	0  	0.886046	0.886046
459	16    	0.886046	0  	0.886046	0.886046
460	16    	0.886046	0  	0.886046	0.886046
461	16    	0.886046	0  	0.886046	0.886046
462	16    	0.886046	0  	0.886046	0.886046
463	16    	0.886046	0  	0.886046	0.886046
464	16    	0.886046	0  	0.886046	0.886046
465	16    	0.886046	0  	0.886046	0.886046
466	16    	0.886046	0  	0.886046	0.886046
467	16    	0.886046	0  	0.886046	0.886046
468	16    	0.886046	0  	0.886046	0.886046
469	16    	0.886046	0  	0.886046	0.886046
470	16    	0.886046	0  	0.886046	0.886046
471	16    	0.886046	0  	0.886046	0.886046
472	16    	0.887764	0  	0.887764	0.887764
473	16    	0.887764	0  	0.887764	0.887764
474	16    	0.888114	0  	0.888114	0.888114
475	16    	0.888114	0  	0.888114	0.888114
476	16    	0.888114	0  	0.888114	0.888114
477	16    	0.888114	0  	0.888114	0.888114
478	16    	0.888114	0  	0.888114	0.888114
479	16    	0.888114	0  	0.888114	0.888114
480	16    	0.888114	0  	0.888114	0.888114
481	16    	0.888114	0  	0.888114	0.888114
482	16    	0.888114	0  	0.888114	0.888114
483	16    	0.888114	0  	0.888114	0.888114
484	16    	0.888114	0  	0.888114	0.888114
485	16    	0.888114	0  	0.888114	0.888114
486	16    	0.888114	0  	0.888114	0.888114
487	16    	0.888114	0  	0.888114	0.888114
488	16    	0.888114	0  	0.888114	0.888114
489	16    	0.888114	0  	0.888114	0.888114
490	16    	0.888114	0  	0.888114	0.888114
491	16    	0.888114	0  	0.888114	0.888114
492	16    	0.888114	0  	0.888114	0.888114
493	16    	0.888114	0  	0.888114	0.888114
494	16    	0.888114	0  	0.888114	0.888114
495	16    	0.888114	0  	0.888114	0.888114
496	16    	0.888114	0  	0.888114	0.888114
497	16    	0.888114	0  	0.888114	0.888114
498	16    	0.888114	0  	0.888114	0.888114
499	16    	0.888114	0  	0.888114	0.888114
500	16    	0.888114	0  	0.888114	0.888114
501	16    	0.888114	0  	0.888114	0.888114
502	16    	0.888114	0  	0.888114	0.888114
503	16    	0.888114	0  	0.888114	0.888114
504	16    	0.888564	0  	0.888564	0.888564
505	16    	0.888564	0  	0.888564	0.888564
506	16    	0.888564	0  	0.888564	0.888564
507	16    	0.888564	0  	0.888564	0.888564
508	16    	0.888564	0  	0.888564	0.888564
509	16    	0.888564	0  	0.888564	0.888564
510	16    	0.888564	0  	0.888564	0.888564
511	16    	0.888564	0  	0.888564	0.888564
512	16    	0.888564	0  	0.888564	0.888564
513	16    	0.888564	0  	0.888564	0.888564
514	16    	0.889718	0  	0.889718	0.889718
515	16    	0.889718	0  	0.889718	0.889718
516	16    	0.890313	0  	0.890313	0.890313
517	16    	0.890313	0  	0.890313	0.890313
518	16    	0.890313	0  	0.890313	0.890313
519	16    	0.890313	0  	0.890313	0.890313
520	16    	0.890313	0  	0.890313	0.890313
521	16    	0.890313	0  	0.890313	0.890313
522	16    	0.890313	0  	0.890313	0.890313
523	16    	0.890313	0  	0.890313	0.890313
524	16    	0.890631	0  	0.890631	0.890631
525	16    	0.890631	0  	0.890631	0.890631
526	16    	0.890631	0  	0.890631	0.890631
527	16    	0.890631	0  	0.890631	0.890631
528	16    	0.890631	0  	0.890631	0.890631
529	16    	0.890631	0  	0.890631	0.890631
530	16    	0.890631	0  	0.890631	0.890631
531	16    	0.890631	0  	0.890631	0.890631
532	16    	0.890631	0  	0.890631	0.890631
533	16    	0.890631	0  	0.890631	0.890631
534	16    	0.890631	0  	0.890631	0.890631
535	16    	0.890631	0  	0.890631	0.890631
536	16    	0.890631	0  	0.890631	0.890631
537	16    	0.890631	0  	0.890631	0.890631
538	16    	0.890631	0  	0.890631	0.890631
539	16    	0.890631	0  	0.890631	0.890631
540	16    	0.890654	0  	0.890654	0.890654
541	16    	0.893762	0  	0.893762	0.893762
542	16    	0.893762	0  	0.893762	0.893762
543	16    	0.893762	0  	0.893762	0.893762
544	16    	0.893762	0  	0.893762	0.893762
545	16    	0.893762	0  	0.893762	0.893762
546	16    	0.893762	0  	0.893762	0.893762
547	16    	0.893762	0  	0.893762	0.893762
548	16    	0.893762	0  	0.893762	0.893762
549	16    	0.893762	0  	0.893762	0.893762
550	16    	0.893762	0  	0.893762	0.893762
551	16    	0.893762	0  	0.893762	0.893762
552	16    	0.893762	0  	0.893762	0.893762
553	16    	0.893762	0  	0.893762	0.893762
554	16    	0.893762	0  	0.893762	0.893762
555	16    	0.893762	0  	0.893762	0.893762
556	16    	0.893762	0  	0.893762	0.893762
557	16    	0.893762	0  	0.893762	0.893762
558	16    	0.893762	0  	0.893762	0.893762
559	16    	0.893762	0  	0.893762	0.893762
560	16    	0.893762	0  	0.893762	0.893762
561	16    	0.893762	0  	0.893762	0.893762
562	16    	0.893762	0  	0.893762	0.893762
563	16    	0.893762	0  	0.893762	0.893762
564	16    	0.893762	0  	0.893762	0.893762
565	16    	0.893762	0  	0.893762	0.893762
566	16    	0.893762	0  	0.893762	0.893762
567	16    	0.893762	0  	0.893762	0.893762
568	16    	0.893762	0  	0.893762	0.893762
569	16    	0.893762	0  	0.893762	0.893762
570	16    	0.893762	0  	0.893762	0.893762
571	16    	0.893762	0  	0.893762	0.893762
572	16    	0.893762	0  	0.893762	0.893762
573	16    	0.893762	0  	0.893762	0.893762
574	16    	0.893762	0  	0.893762	0.893762
575	16    	0.893762	0  	0.893762	0.893762
576	16    	0.893762	0  	0.893762	0.893762
577	16    	0.893889	0  	0.893889	0.893889
578	16    	0.893889	0  	0.893889	0.893889
579	16    	0.893889	0  	0.893889	0.893889
580	16    	0.893889	0  	0.893889	0.893889
581	16    	0.893889	0  	0.893889	0.893889
582	16    	0.893889	0  	0.893889	0.893889
583	16    	0.894175	0  	0.894175	0.894175
584	16    	0.894175	0  	0.894175	0.894175
585	16    	0.894175	0  	0.894175	0.894175
586	16    	0.894175	0  	0.894175	0.894175
587	16    	0.894175	0  	0.894175	0.894175
588	16    	0.894175	0  	0.894175	0.894175
589	16    	0.894175	0  	0.894175	0.894175
590	16    	0.894175	0  	0.894175	0.894175
591	16    	0.894175	0  	0.894175	0.894175
592	16    	0.896225	0  	0.896225	0.896225
593	16    	0.896225	0  	0.896225	0.896225
594	16    	0.896225	0  	0.896225	0.896225
595	16    	0.896225	0  	0.896225	0.896225
596	16    	0.896225	0  	0.896225	0.896225
597	16    	0.896225	0  	0.896225	0.896225
598	16    	0.896225	0  	0.896225	0.896225
599	16    	0.896225	0  	0.896225	0.896225
600	16    	0.896225	0  	0.896225	0.896225
601	16    	0.896225	0  	0.896225	0.896225
602	16    	0.896225	0  	0.896225	0.896225
603	16    	0.896225	0  	0.896225	0.896225
604	16    	0.896225	0  	0.896225	0.896225
605	16    	0.896225	0  	0.896225	0.896225
606	16    	0.896225	0  	0.896225	0.896225
607	16    	0.896225	0  	0.896225	0.896225
608	16    	0.896225	0  	0.896225	0.896225
609	16    	0.896225	0  	0.896225	0.896225
610	16    	0.896225	0  	0.896225	0.896225
611	16    	0.896225	0  	0.896225	0.896225
612	16    	0.896225	0  	0.896225	0.896225
613	16    	0.896225	0  	0.896225	0.896225
614	16    	0.896225	0  	0.896225	0.896225
615	16    	0.896225	0  	0.896225	0.896225
616	16    	0.896225	0  	0.896225	0.896225
617	16    	0.896225	0  	0.896225	0.896225
618	16    	0.896225	0  	0.896225	0.896225
619	16    	0.896225	0  	0.896225	0.896225
620	16    	0.896225	0  	0.896225	0.896225
621	16    	0.896225	0  	0.896225	0.896225
622	16    	0.896225	0  	0.896225	0.896225
623	16    	0.896225	0  	0.896225	0.896225
624	16    	0.896225	0  	0.896225	0.896225
625	16    	0.896225	0  	0.896225	0.896225