gen	nevals	avg     	std	min     	max     
0  	1     	0.894643	0  	0.894643	0.894643
1  	16    	0.894643	0  	0.894643	0.894643
2  	16    	0.895202	0  	0.895202	0.895202
3  	16    	0.896256	0  	0.896256	0.896256
4  	16    	0.896527	0  	0.896527	0.896527
5  	16    	0.896527	0  	0.896527	0.896527
6  	16    	0.896527	0  	0.896527	0.896527
7  	16    	0.899221	0  	0.899221	0.899221
8  	16    	0.902176	0  	0.902176	0.902176
9  	16    	0.902176	0  	0.902176	0.902176
10 	16    	0.902176	0  	0.902176	0.902176
11 	16    	0.902176	0  	0.902176	0.902176
12 	16    	0.902176	0  	0.902176	0.902176
13 	16    	0.902176	0  	0.902176	0.902176
14 	16    	0.902176	0  	0.902176	0.902176
15 	16    	0.902176	0  	0.902176	0.902176
16 	16    	0.902176	0  	0.902176	0.902176
17 	16    	0.902176	0  	0.902176	0.902176
18 	16    	0.905567	0  	0.905567	0.905567
19 	16    	0.905567	0  	0.905567	0.905567
20 	16    	0.905567	0  	0.905567	0.905567
21 	16    	0.905567	0  	0.905567	0.905567
22 	16    	0.905567	0  	0.905567	0.905567
23 	16    	0.905567	0  	0.905567	0.905567
24 	16    	0.905567	0  	0.905567	0.905567
25 	16    	0.905567	0  	0.905567	0.905567
26 	16    	0.905567	0  	0.905567	0.905567
27 	16    	0.906185	0  	0.906185	0.906185
28 	16    	0.906185	0  	0.906185	0.906185
29 	16    	0.906185	0  	0.906185	0.906185
30 	16    	0.906185	0  	0.906185	0.906185
31 	16    	0.906185	0  	0.906185	0.906185
32 	16    	0.906185	0  	0.906185	0.906185
33 	16    	0.906476	0  	0.906476	0.906476
34 	16    	0.907481	0  	0.907481	0.907481
35 	16    	0.907481	0  	0.907481	0.907481
36 	16    	0.908188	0  	0.908188	0.908188
37 	16    	0.908188	0  	0.908188	0.908188
38 	16    	0.908188	0  	0.908188	0.908188
39 	16    	0.910865	0  	0.910865	0.910865
40 	16    	0.910865	0  	0.910865	0.910865
41 	16    	0.913321	0  	0.913321	0.913321
42 	16    	0.914908	0  	0.914908	0.914908
43 	16    	0.914908	0  	0.914908	0.914908
44 	16    	0.914908	0  	0.914908	0.914908
45 	16    	0.914908	0  	0.914908	0.914908
46 	16    	0.914908	0  	0.914908	0.914908
47 	16    	0.914908	0  	0.914908	0.914908
48 	16    	0.914908	0  	0.914908	0.914908
49 	16    	0.914908	0  	0.914908	0.914908
50 	16    	0.914908	0  	0.914908	0.914908
51 	16    	0.914908	0  	0.914908	0.914908
52 	16    	0.914908	0  	0.914908	0.914908
53 	16    	0.914908	0  	0.914908	0.914908
54 	16    	0.914908	0  	0.914908	0.914908
55 	16    	0.914908	0  	0.914908	0.914908
56 	16    	0.914908	0  	0.914908	0.914908
57 	16    	0.91579 	0  	0.91579 	0.91579 
58 	16    	0.916914	0  	0.916914	0.916914
59 	16    	0.916914	0  	0.916914	0.916914
60 	16    	0.916914	0  	0.916914	0.916914
61 	16    	0.916914	0  	0.916914	0.916914
62 	16    	0.916914	0  	0.916914	0.916914
63 	16    	0.916914	0  	0.916914	0.916914
64 	16    	0.916914	0  	0.916914	0.916914
65 	16    	0.916914	0  	0.916914	0.916914
66 	16    	0.916914	0  	0.916914	0.916914
67 	16    	0.917555	0  	0.917555	0.917555
68 	16    	0.917555	0  	0.917555	0.917555
69 	16    	0.918705	0  	0.918705	0.918705
70 	16    	0.918705	0  	0.918705	0.918705
71 	16    	0.918705	0  	0.918705	0.918705
72 	16    	0.918705	0  	0.918705	0.918705
73 	16    	0.918705	0  	0.918705	0.918705
74 	16    	0.918705	0  	0.918705	0.918705
75 	16    	0.918705	0  	0.918705	0.918705
76 	16    	0.918705	0  	0.918705	0.918705
77 	16    	0.918705	0  	0.918705	0.918705
78 	16    	0.918705	0  	0.918705	0.918705
79 	16    	0.918705	0  	0.918705	0.918705
80 	16    	0.918705	0  	0.918705	0.918705
81 	16    	0.918705	0  	0.918705	0.918705
82 	16    	0.918705	0  	0.918705	0.918705
83 	16    	0.918705	0  	0.918705	0.918705
84 	16    	0.918705	0  	0.918705	0.918705
85 	16    	0.918705	0  	0.918705	0.918705
86 	16    	0.918705	0  	0.918705	0.918705
87 	16    	0.918705	0  	0.918705	0.918705
88 	16    	0.918705	0  	0.918705	0.918705
89 	16    	0.918705	0  	0.918705	0.918705
90 	16    	0.918705	0  	0.918705	0.918705
91 	16    	0.918705	0  	0.918705	0.918705
92 	16    	0.918705	0  	0.918705	0.918705
93 	16    	0.918705	0  	0.918705	0.918705
94 	16    	0.918705	0  	0.918705	0.918705
95 	16    	0.919961	0  	0.919961	0.919961
96 	16    	0.919961	0  	0.919961	0.919961
97 	16    	0.919961	0  	0.919961	0.919961
98 	16    	0.919961	0  	0.919961	0.919961
99 	16    	0.920903	0  	0.920903	0.920903
100	16    	0.920903	0  	0.920903	0.920903
101	16    	0.920903	0  	0.920903	0.920903
102	16    	0.920903	0  	0.920903	0.920903
103	16    	0.920903	0  	0.920903	0.920903
104	16    	0.920903	0  	0.920903	0.920903
105	16    	0.920903	0  	0.920903	0.920903
106	16    	0.922447	0  	0.922447	0.922447
107	16    	0.922447	0  	0.922447	0.922447
108	16    	0.922447	0  	0.922447	0.922447
109	16    	0.922447	0  	0.922447	0.922447
110	16    	0.922447	0  	0.922447	0.922447
111	16    	0.922447	0  	0.922447	0.922447
112	16    	0.922447	0  	0.922447	0.922447
113	16    	0.922447	0  	0.922447	0.922447
114	16    	0.922447	0  	0.922447	0.922447
115	16    	0.922447	0  	0.922447	0.922447
116	16    	0.922566	0  	0.922566	0.922566
117	16    	0.923366	0  	0.923366	0.923366
118	16    	0.923366	0  	0.923366	0.923366
119	16    	0.923366	0  	0.923366	0.923366
120	16    	0.923366	0  	0.923366	0.923366
121	16    	0.923366	0  	0.923366	0.923366
122	16    	0.923366	0  	0.923366	0.923366
123	16    	0.923366	0  	0.923366	0.923366
124	16    	0.923366	0  	0.923366	0.923366
125	16    	0.923366	0  	0.923366	0.923366
126	16    	0.923366	0  	0.923366	0.923366
127	16    	0.923366	0  	0.923366	0.923366
128	16    	0.923366	0  	0.923366	0.923366
129	16    	0.923366	0  	0.923366	0.923366
130	16    	0.923366	0  	0.923366	0.923366
131	16    	0.923366	0  	0.923366	0.923366
132	16    	0.923366	0  	0.923366	0.923366
133	16    	0.923366	0  	0.923366	0.923366
134	16    	0.923366	0  	0.923366	0.923366
135	16    	0.923366	0  	0.923366	0.923366
136	16    	0.923366	0  	0.923366	0.923366
137	16    	0.923366	0  	0.923366	0.923366
138	16    	0.923366	0  	0.923366	0.923366
139	16    	0.923366	0  	0.923366	0.923366
140	16    	0.923366	0  	0.923366	0.923366
141	16    	0.923395	0  	0.923395	0.923395
142	16    	0.923395	0  	0.923395	0.923395
143	16    	0.923395	0  	0.923395	0.923395
144	16    	0.923395	0  	0.923395	0.923395
145	16    	0.923395	0  	0.923395	0.923395
146	16    	0.923395	0  	0.923395	0.923395
147	16    	0.923395	0  	0.923395	0.923395
148	16    	0.923395	0  	0.923395	0.923395
149	16    	0.923395	0  	0.923395	0.923395
150	16    	0.923395	0  	0.923395	0.923395
151	16    	0.923395	0  	0.923395	0.923395
152	16    	0.923395	0  	0.923395	0.923395
153	16    	0.923395	0  	0.923395	0.923395
154	16    	0.923395	0  	0.923395	0.923395
155	16    	0.923395	0  	0.923395	0.923395
156	16    	0.923673	0  	0.923673	0.923673
157	16    	0.923673	0  	0.923673	0.923673
158	16    	0.923673	0  	0.923673	0.923673
159	16    	0.923673	0  	0.923673	0.923673
160	16    	0.923673	0  	0.923673	0.923673
161	16    	0.923673	0  	0.923673	0.923673
162	16    	0.923673	0  	0.923673	0.923673
163	16    	0.923673	0  	0.923673	0.923673
164	16    	0.923673	0  	0.923673	0.923673
165	16    	0.923921	0  	0.923921	0.923921
166	16    	0.923921	0  	0.923921	0.923921
167	16    	0.923921	0  	0.923921	0.923921
168	16    	0.923921	0  	0.923921	0.923921
169	16    	0.923921	0  	0.923921	0.923921
170	16    	0.923921	0  	0.923921	0.923921
171	16    	0.923921	0  	0.923921	0.923921
172	16    	0.923921	0  	0.923921	0.923921
173	16    	0.923921	0  	0.923921	0.923921
174	16    	0.923921	0  	0.923921	0.923921
175	16    	0.923961	0  	0.923961	0.923961
176	16    	0.924225	0  	0.924225	0.924225
177	16    	0.924225	0  	0.924225	0.924225
178	16    	0.924225	0  	0.924225	0.924225
179	16    	0.924225	0  	0.924225	0.924225
180	16    	0.924225	0  	0.924225	0.924225
181	16    	0.924225	0  	0.924225	0.924225
182	16    	0.924225	0  	0.924225	0.924225
183	16    	0.92597 	0  	0.92597 	0.92597 
184	16    	0.92597 	0  	0.92597 	0.92597 
185	16    	0.92597 	0  	0.92597 	0.92597 
186	16    	0.92597 	0  	0.92597 	0.92597 
187	16    	0.92597 	0  	0.92597 	0.92597 
188	16    	0.92597 	0  	0.92597 	0.92597 
189	16    	0.92597 	0  	0.92597 	0.92597 
190	16    	0.92597 	0  	0.92597 	0.92597 
191	16    	0.92597 	0  	0.92597 	0.92597 
192	16    	0.92597 	0  	0.92597 	0.92597 
193	16    	0.926069	0  	0.926069	0.926069
194	16    	0.926069	0  	0.926069	0.926069
195	16    	0.926069	0  	0.926069	0.926069
196	16    	0.926069	0  	0.926069	0.926069
197	16    	0.926069	0  	0.926069	0.926069
198	16    	0.926069	0  	0.926069	0.926069
199	16    	0.926069	0  	0.926069	0.926069
200	16    	0.926069	0  	0.926069	0.926069
201	16    	0.926069	0  	0.926069	0.926069
202	16    	0.926069	0  	0.926069	0.926069
203	16    	0.926069	0  	0.926069	0.926069
204	16    	0.926069	0  	0.926069	0.926069
205	16    	0.926069	0  	0.926069	0.926069
206	16    	0.926069	0  	0.926069	0.926069
207	16    	0.926069	0  	0.926069	0.926069
208	16    	0.926069	0  	0.926069	0.926069
209	16    	0.926069	0  	0.926069	0.926069
210	16    	0.926069	0  	0.926069	0.926069
211	16    	0.926069	0  	0.926069	0.926069
212	16    	0.926069	0  	0.926069	0.926069
213	16    	0.926069	0  	0.926069	0.926069
214	16    	0.926069	0  	0.926069	0.926069
215	16    	0.926069	0  	0.926069	0.926069
216	16    	0.926069	0  	0.926069	0.926069
217	16    	0.926069	0  	0.926069	0.926069
218	16    	0.926112	0  	0.926112	0.926112
219	16    	0.926112	0  	0.926112	0.926112
220	16    	0.9264  	0  	0.9264  	0.9264  
221	16    	0.927114	0  	0.927114	0.927114
222	16    	0.927114	0  	0.927114	0.927114
223	16    	0.927114	0  	0.927114	0.927114
224	16    	0.927114	0  	0.927114	0.927114
225	16    	0.927114	0  	0.927114	0.927114
226	16    	0.927114	0  	0.927114	0.927114
227	16    	0.927114	0  	0.927114	0.927114
228	16    	0.927114	0  	0.927114	0.927114
229	16    	0.927114	0  	0.927114	0.927114
230	16    	0.927114	0  	0.927114	0.927114
231	16    	0.927114	0  	0.927114	0.927114
232	16    	0.927114	0  	0.927114	0.927114
233	16    	0.927114	0  	0.927114	0.927114
234	16    	0.927114	0  	0.927114	0.927114
235	16    	0.927114	0  	0.927114	0.927114
236	16    	0.927114	0  	0.927114	0.927114
237	16    	0.927114	0  	0.927114	0.927114
238	16    	0.927114	0  	0.927114	0.927114
239	16    	0.927114	0  	0.927114	0.927114
240	16    	0.928459	0  	0.928459	0.928459
241	16    	0.928459	0  	0.928459	0.928459
242	16    	0.928459	0  	0.928459	0.928459
243	16    	0.928459	0  	0.928459	0.928459
244	16    	0.928459	0  	0.928459	0.928459
245	16    	0.928459	0  	0.928459	0.928459
246	16    	0.928459	0  	0.928459	0.928459
247	16    	0.929784	0  	0.929784	0.929784
248	16    	0.929784	0  	0.929784	0.929784
249	16    	0.929784	0  	0.929784	0.929784
250	16    	0.929784	0  	0.929784	0.929784
251	16    	0.929784	0  	0.929784	0.929784
252	16    	0.929784	0  	0.929784	0.929784
253	16    	0.929784	0  	0.929784	0.929784
254	16    	0.929784	0  	0.929784	0.929784
255	16    	0.929784	0  	0.929784	0.929784
256	16    	0.929784	0  	0.929784	0.929784
257	16    	0.929784	0  	0.929784	0.929784
258	16    	0.929784	0  	0.929784	0.929784
259	16    	0.929784	0  	0.929784	0.929784
260	16    	0.929784	0  	0.929784	0.929784
261	16    	0.929784	0  	0.929784	0.929784
262	16    	0.929784	0  	0.929784	0.929784
263	16    	0.929784	0  	0.929784	0.929784
264	16    	0.929784	0  	0.929784	0.929784
265	16    	0.929784	0  	0.929784	0.929784
266	16    	0.929784	0  	0.929784	0.929784
267	16    	0.929784	0  	0.929784	0.929784
268	16    	0.929784	0  	0.929784	0.929784
269	16    	0.929784	0  	0.929784	0.929784
270	16    	0.929784	0  	0.929784	0.929784
271	16    	0.929784	0  	0.929784	0.929784
272	16    	0.929784	0  	0.929784	0.929784
273	16    	0.929784	0  	0.929784	0.929784
274	16    	0.929784	0  	0.929784	0.929784
275	16    	0.929784	0  	0.929784	0.929784
276	16    	0.929784	0  	0.929784	0.929784
277	16    	0.929784	0  	0.929784	0.929784
278	16    	0.929784	0  	0.929784	0.929784
279	16    	0.929784	0  	0.929784	0.929784
280	16    	0.929784	0  	0.929784	0.929784
281	16    	0.929784	0  	0.929784	0.929784
282	16    	0.929784	0  	0.929784	0.929784
283	16    	0.929784	0  	0.929784	0.929784
284	16    	0.929784	0  	0.929784	0.929784
285	16    	0.929784	0  	0.929784	0.929784
286	16    	0.929784	0  	0.929784	0.929784
287	16    	0.929784	0  	0.929784	0.929784
288	16    	0.929784	0  	0.929784	0.929784
289	16    	0.929784	0  	0.929784	0.929784
290	16    	0.929784	0  	0.929784	0.929784
291	16    	0.929784	0  	0.929784	0.929784
292	16    	0.929784	0  	0.929784	0.929784
293	16    	0.929784	0  	0.929784	0.929784
294	16    	0.929784	0  	0.929784	0.929784
295	16    	0.929784	0  	0.929784	0.929784
296	16    	0.929784	0  	0.929784	0.929784
297	16    	0.929784	0  	0.929784	0.929784
298	16    	0.929784	0  	0.929784	0.929784
299	16    	0.929784	0  	0.929784	0.929784
300	16    	0.929784	0  	0.929784	0.929784
301	16    	0.929784	0  	0.929784	0.929784
302	16    	0.929784	0  	0.929784	0.929784
303	16    	0.929784	0  	0.929784	0.929784
304	16    	0.929784	0  	0.929784	0.929784
305	16    	0.929784	0  	0.929784	0.929784
306	16    	0.929784	0  	0.929784	0.929784
307	16    	0.929784	0  	0.929784	0.929784
308	16    	0.929784	0  	0.929784	0.929784
309	16    	0.929784	0  	0.929784	0.929784
310	16    	0.929784	0  	0.929784	0.929784
311	16    	0.929784	0  	0.929784	0.929784
312	16    	0.929784	0  	0.929784	0.929784
313	16    	0.929784	0  	0.929784	0.929784
314	16    	0.929784	0  	0.929784	0.929784
315	16    	0.929784	0  	0.929784	0.929784
316	16    	0.929784	0  	0.929784	0.929784
317	16    	0.929784	0  	0.929784	0.929784
318	16    	0.929784	0  	0.929784	0.929784
319	16    	0.929784	0  	0.929784	0.929784
320	16    	0.929784	0  	0.929784	0.929784
321	16    	0.929784	0  	0.929784	0.929784
322	16    	0.929784	0  	0.929784	0.929784
323	16    	0.929784	0  	0.929784	0.929784
324	16    	0.929784	0  	0.929784	0.929784
325	16    	0.929784	0  	0.929784	0.929784
326	16    	0.929784	0  	0.929784	0.929784
327	16    	0.929784	0  	0.929784	0.929784
328	16    	0.929784	0  	0.929784	0.929784
329	16    	0.929784	0  	0.929784	0.929784
330	16    	0.929784	0  	0.929784	0.929784
331	16    	0.929784	0  	0.929784	0.929784
332	16    	0.929784	0  	0.929784	0.929784
333	16    	0.929784	0  	0.929784	0.929784
334	16    	0.929784	0  	0.929784	0.929784
335	16    	0.929784	0  	0.929784	0.929784
336	16    	0.929784	0  	0.929784	0.929784
337	16    	0.929784	0  	0.929784	0.929784
338	16    	0.929784	0  	0.929784	0.929784
339	16    	0.929784	0  	0.929784	0.929784
340	16    	0.929784	0  	0.929784	0.929784
341	16    	0.929784	0  	0.929784	0.929784
342	16    	0.929784	0  	0.929784	0.929784
343	16    	0.929784	0  	0.929784	0.929784
344	16    	0.929784	0  	0.929784	0.929784
345	16    	0.929784	0  	0.929784	0.929784
346	16    	0.929784	0  	0.929784	0.929784
347	16    	0.929784	0  	0.929784	0.929784
348	16    	0.929784	0  	0.929784	0.929784
349	16    	0.929784	0  	0.929784	0.929784
350	16    	0.929784	0  	0.929784	0.929784
351	16    	0.929784	0  	0.929784	0.929784
352	16    	0.929784	0  	0.929784	0.929784
353	16    	0.929784	0  	0.929784	0.929784
354	16    	0.929784	0  	0.929784	0.929784
355	16    	0.929784	0  	0.929784	0.929784
356	16    	0.929784	0  	0.929784	0.929784
357	16    	0.929784	0  	0.929784	0.929784
358	16    	0.929784	0  	0.929784	0.929784
359	16    	0.929784	0  	0.929784	0.929784
360	16    	0.929784	0  	0.929784	0.929784
361	16    	0.929784	0  	0.929784	0.929784
362	16    	0.929784	0  	0.929784	0.929784
363	16    	0.929784	0  	0.929784	0.929784
364	16    	0.929784	0  	0.929784	0.929784
365	16    	0.929784	0  	0.929784	0.929784
366	16    	0.929784	0  	0.929784	0.929784
367	16    	0.929784	0  	0.929784	0.929784
368	16    	0.929784	0  	0.929784	0.929784
369	16    	0.929784	0  	0.929784	0.929784
370	16    	0.929784	0  	0.929784	0.929784
371	16    	0.929784	0  	0.929784	0.929784
372	16    	0.929784	0  	0.929784	0.929784
373	16    	0.929784	0  	0.929784	0.929784
374	16    	0.929784	0  	0.929784	0.929784
375	16    	0.929784	0  	0.929784	0.929784
376	16    	0.929784	0  	0.929784	0.929784
377	16    	0.929784	0  	0.929784	0.929784
378	16    	0.929784	0  	0.929784	0.929784
379	16    	0.929784	0  	0.929784	0.929784
380	16    	0.929784	0  	0.929784	0.929784
381	16    	0.929784	0  	0.929784	0.929784
382	16    	0.929784	0  	0.929784	0.929784
383	16    	0.929784	0  	0.929784	0.929784
384	16    	0.929784	0  	0.929784	0.929784
385	16    	0.929784	0  	0.929784	0.929784
386	16    	0.929784	0  	0.929784	0.929784
387	16    	0.929784	0  	0.929784	0.929784
388	16    	0.929784	0  	0.929784	0.929784
389	16    	0.929784	0  	0.929784	0.929784
390	16    	0.929784	0  	0.929784	0.929784
391	16    	0.929784	0  	0.929784	0.929784
392	16    	0.929784	0  	0.929784	0.929784
393	16    	0.929784	0  	0.929784	0.929784
394	16    	0.929784	0  	0.929784	0.929784
395	16    	0.929784	0  	0.929784	0.929784
396	16    	0.929784	0  	0.929784	0.929784
397	16    	0.929784	0  	0.929784	0.929784
398	16    	0.929784	0  	0.929784	0.929784
399	16    	0.929784	0  	0.929784	0.929784
400	16    	0.929784	0  	0.929784	0.929784
401	16    	0.929784	0  	0.929784	0.929784
402	16    	0.929784	0  	0.929784	0.929784
403	16    	0.929784	0  	0.929784	0.929784
404	16    	0.929784	0  	0.929784	0.929784
405	16    	0.929784	0  	0.929784	0.929784
406	16    	0.929784	0  	0.929784	0.929784
407	16    	0.929784	0  	0.929784	0.929784
408	16    	0.929784	0  	0.929784	0.929784
409	16    	0.929784	0  	0.929784	0.929784
410	16    	0.929784	0  	0.929784	0.929784
411	16    	0.929784	0  	0.929784	0.929784
412	16    	0.929784	0  	0.929784	0.929784
413	16    	0.929784	0  	0.929784	0.929784
414	16    	0.929784	0  	0.929784	0.929784
415	16    	0.930082	0  	0.930082	0.930082
416	16    	0.930082	0  	0.930082	0.930082
417	16    	0.930082	0  	0.930082	0.930082
418	16    	0.930082	0  	0.930082	0.930082
419	16    	0.930082	0  	0.930082	0.930082
420	16    	0.930082	0  	0.930082	0.930082
421	16    	0.930082	0  	0.930082	0.930082
422	16    	0.930082	0  	0.930082	0.930082
423	16    	0.930082	0  	0.930082	0.930082
424	16    	0.930082	0  	0.930082	0.930082
425	16    	0.930082	0  	0.930082	0.930082
426	16    	0.930082	0  	0.930082	0.930082
427	16    	0.930082	0  	0.930082	0.930082
428	16    	0.930082	0  	0.930082	0.930082
429	16    	0.930082	0  	0.930082	0.930082
430	16    	0.930082	0  	0.930082	0.930082
431	16    	0.930082	0  	0.930082	0.930082
432	16    	0.930082	0  	0.930082	0.930082
433	16    	0.930082	0  	0.930082	0.930082
434	16    	0.930082	0  	0.930082	0.930082
435	16    	0.930082	0  	0.930082	0.930082
436	16    	0.930082	0  	0.930082	0.930082
437	16    	0.930082	0  	0.930082	0.930082
438	16    	0.930082	0  	0.930082	0.930082
439	16    	0.930082	0  	0.930082	0.930082
440	16    	0.930082	0  	0.930082	0.930082
441	16    	0.930082	0  	0.930082	0.930082
442	16    	0.930082	0  	0.930082	0.930082
443	16    	0.930082	0  	0.930082	0.930082
444	16    	0.930082	0  	0.930082	0.930082
445	16    	0.930082	0  	0.930082	0.930082
446	16    	0.930082	0  	0.930082	0.930082
447	16    	0.930082	0  	0.930082	0.930082
448	16    	0.930082	0  	0.930082	0.930082
449	16    	0.930082	0  	0.930082	0.930082
450	16    	0.930082	0  	0.930082	0.930082
451	16    	0.930082	0  	0.930082	0.930082
452	16    	0.930082	0  	0.930082	0.930082
453	16    	0.930082	0  	0.930082	0.930082
454	16    	0.930082	0  	0.930082	0.930082
455	16    	0.930082	0  	0.930082	0.930082
456	16    	0.930082	0  	0.930082	0.930082
457	16    	0.930082	0  	0.930082	0.930082
458	16    	0.930082	0  	0.930082	0.930082
459	16    	0.930082	0  	0.930082	0.930082
460	16    	0.930082	0  	0.930082	0.930082
461	16    	0.930082	0  	0.930082	0.930082
462	16    	0.930082	0  	0.930082	0.930082
463	16    	0.930082	0  	0.930082	0.930082
464	16    	0.930082	0  	0.930082	0.930082
465	16    	0.930082	0  	0.930082	0.930082
466	16    	0.930082	0  	0.930082	0.930082
467	16    	0.930082	0  	0.930082	0.930082
468	16    	0.930082	0  	0.930082	0.930082
469	16    	0.930082	0  	0.930082	0.930082
470	16    	0.930082	0  	0.930082	0.930082
471	16    	0.930082	0  	0.930082	0.930082
472	16    	0.930082	0  	0.930082	0.930082
473	16    	0.930082	0  	0.930082	0.930082
474	16    	0.930082	0  	0.930082	0.930082
475	16    	0.930082	0  	0.930082	0.930082
476	16    	0.930082	0  	0.930082	0.930082
477	16    	0.930082	0  	0.930082	0.930082
478	16    	0.930082	0  	0.930082	0.930082
479	16    	0.930082	0  	0.930082	0.930082
480	16    	0.930082	0  	0.930082	0.930082
481	16    	0.930082	0  	0.930082	0.930082
482	16    	0.930082	0  	0.930082	0.930082
483	16    	0.930082	0  	0.930082	0.930082
484	16    	0.930082	0  	0.930082	0.930082
485	16    	0.930082	0  	0.930082	0.930082
486	16    	0.930082	0  	0.930082	0.930082
487	16    	0.930082	0  	0.930082	0.930082
488	16    	0.930082	0  	0.930082	0.930082
489	16    	0.930135	0  	0.930135	0.930135
490	16    	0.930135	0  	0.930135	0.930135
491	16    	0.930135	0  	0.930135	0.930135
492	16    	0.930135	0  	0.930135	0.930135
493	16    	0.930135	0  	0.930135	0.930135
494	16    	0.930135	0  	0.930135	0.930135
495	16    	0.930135	0  	0.930135	0.930135
496	16    	0.930135	0  	0.930135	0.930135
497	16    	0.930135	0  	0.930135	0.930135
498	16    	0.930135	0  	0.930135	0.930135
499	16    	0.930135	0  	0.930135	0.930135
500	16    	0.930135	0  	0.930135	0.930135
501	16    	0.930135	0  	0.930135	0.930135
502	16    	0.930135	0  	0.930135	0.930135
503	16    	0.930135	0  	0.930135	0.930135
504	16    	0.930135	0  	0.930135	0.930135
505	16    	0.930135	0  	0.930135	0.930135
506	16    	0.930135	0  	0.930135	0.930135
507	16    	0.930135	0  	0.930135	0.930135
508	16    	0.930135	0  	0.930135	0.930135
509	16    	0.930135	0  	0.930135	0.930135
510	16    	0.930135	0  	0.930135	0.930135
511	16    	0.930135	0  	0.930135	0.930135
512	16    	0.930135	0  	0.930135	0.930135
513	16    	0.930135	0  	0.930135	0.930135
514	16    	0.930135	0  	0.930135	0.930135
515	16    	0.930135	0  	0.930135	0.930135
516	16    	0.930135	0  	0.930135	0.930135
517	16    	0.930135	0  	0.930135	0.930135
518	16    	0.930135	0  	0.930135	0.930135
519	16    	0.930135	0  	0.930135	0.930135
520	16    	0.930135	0  	0.930135	0.930135
521	16    	0.930135	0  	0.930135	0.930135
522	16    	0.930135	0  	0.930135	0.930135
523	16    	0.930135	0  	0.930135	0.930135
524	16    	0.930135	0  	0.930135	0.930135
525	16    	0.930135	0  	0.930135	0.930135
526	16    	0.930135	0  	0.930135	0.930135
527	16    	0.930135	0  	0.930135	0.930135
528	16    	0.930135	0  	0.930135	0.930135
529	16    	0.930135	0  	0.930135	0.930135
530	16    	0.930135	0  	0.930135	0.930135
531	16    	0.930135	0  	0.930135	0.930135
532	16    	0.930135	0  	0.930135	0.930135
533	16    	0.930135	0  	0.930135	0.930135
534	16    	0.930135	0  	0.930135	0.930135
535	16    	0.930135	0  	0.930135	0.930135
536	16    	0.930135	0  	0.930135	0.930135
537	16    	0.930135	0  	0.930135	0.930135
538	16    	0.930135	0  	0.930135	0.930135
539	16    	0.930135	0  	0.930135	0.930135
540	16    	0.930135	0  	0.930135	0.930135
541	16    	0.930135	0  	0.930135	0.930135
542	16    	0.930135	0  	0.930135	0.930135
543	16    	0.930135	0  	0.930135	0.930135
544	16    	0.930135	0  	0.930135	0.930135
545	16    	0.930135	0  	0.930135	0.930135
546	16    	0.930135	0  	0.930135	0.930135
547	16    	0.930135	0  	0.930135	0.930135
548	16    	0.930135	0  	0.930135	0.930135
549	16    	0.930135	0  	0.930135	0.930135
550	16    	0.930135	0  	0.930135	0.930135
551	16    	0.930135	0  	0.930135	0.930135
552	16    	0.930135	0  	0.930135	0.930135
553	16    	0.930135	0  	0.930135	0.930135
554	16    	0.930135	0  	0.930135	0.930135
555	16    	0.930135	0  	0.930135	0.930135
556	16    	0.930135	0  	0.930135	0.930135
557	16    	0.930135	0  	0.930135	0.930135
558	16    	0.930135	0  	0.930135	0.930135
559	16    	0.930135	0  	0.930135	0.930135
560	16    	0.930135	0  	0.930135	0.930135
561	16    	0.930135	0  	0.930135	0.930135
562	16    	0.930135	0  	0.930135	0.930135
563	16    	0.930135	0  	0.930135	0.930135
564	16    	0.930135	0  	0.930135	0.930135
565	16    	0.930135	0  	0.930135	0.930135
566	16    	0.930135	0  	0.930135	0.930135
567	16    	0.930135	0  	0.930135	0.930135
568	16    	0.930135	0  	0.930135	0.930135
569	16    	0.930135	0  	0.930135	0.930135
570	16    	0.930135	0  	0.930135	0.930135
571	16    	0.930135	0  	0.930135	0.930135
572	16    	0.930135	0  	0.930135	0.930135
573	16    	0.930135	0  	0.930135	0.930135
574	16    	0.930135	0  	0.930135	0.930135
575	16    	0.930135	0  	0.930135	0.930135
576	16    	0.930135	0  	0.930135	0.930135
577	16    	0.930135	0  	0.930135	0.930135
578	16    	0.930135	0  	0.930135	0.930135
579	16    	0.930135	0  	0.930135	0.930135
580	16    	0.930135	0  	0.930135	0.930135
581	16    	0.930135	0  	0.930135	0.930135
582	16    	0.930135	0  	0.930135	0.930135
583	16    	0.930135	0  	0.930135	0.930135
584	16    	0.930135	0  	0.930135	0.930135
585	16    	0.930135	0  	0.930135	0.930135
586	16    	0.930135	0  	0.930135	0.930135
587	16    	0.930135	0  	0.930135	0.930135
588	16    	0.930135	0  	0.930135	0.930135
589	16    	0.930135	0  	0.930135	0.930135
590	16    	0.930135	0  	0.930135	0.930135
591	16    	0.930135	0  	0.930135	0.930135
592	16    	0.930135	0  	0.930135	0.930135
593	16    	0.930135	0  	0.930135	0.930135
594	16    	0.930135	0  	0.930135	0.930135
595	16    	0.930135	0  	0.930135	0.930135
596	16    	0.930135	0  	0.930135	0.930135
597	16    	0.930135	0  	0.930135	0.930135
598	16    	0.930135	0  	0.930135	0.930135
599	16    	0.930135	0  	0.930135	0.930135
600	16    	0.930135	0  	0.930135	0.930135
601	16    	0.930135	0  	0.930135	0.930135
602	16    	0.930135	0  	0.930135	0.930135
603	16    	0.930135	0  	0.930135	0.930135
604	16    	0.930135	0  	0.930135	0.930135
605	16    	0.930135	0  	0.930135	0.930135
606	16    	0.930135	0  	0.930135	0.930135
607	16    	0.930135	0  	0.930135	0.930135
608	16    	0.930135	0  	0.930135	0.930135
609	16    	0.930135	0  	0.930135	0.930135
610	16    	0.930135	0  	0.930135	0.930135
611	16    	0.930135	0  	0.930135	0.930135
612	16    	0.930135	0  	0.930135	0.930135
613	16    	0.930135	0  	0.930135	0.930135
614	16    	0.930135	0  	0.930135	0.930135
615	16    	0.930135	0  	0.930135	0.930135
616	16    	0.930135	0  	0.930135	0.930135
617	16    	0.930135	0  	0.930135	0.930135
618	16    	0.930135	0  	0.930135	0.930135
619	16    	0.930135	0  	0.930135	0.930135
620	16    	0.930135	0  	0.930135	0.930135
621	16    	0.930135	0  	0.930135	0.930135
622	16    	0.930135	0  	0.930135	0.930135
623	16    	0.930135	0  	0.930135	0.930135
624	16    	0.930135	0  	0.930135	0.930135
625	16    	0.930135	0  	0.930135	0.930135