gen	nevals	avg     	std	min     	max     
0  	1     	0.88481 	0  	0.88481 	0.88481 
1  	16    	0.88481 	0  	0.88481 	0.88481 
2  	16    	0.88629 	0  	0.88629 	0.88629 
3  	16    	0.888364	0  	0.888364	0.888364
4  	16    	0.890849	0  	0.890849	0.890849
5  	16    	0.890849	0  	0.890849	0.890849
6  	16    	0.890849	0  	0.890849	0.890849
7  	16    	0.893848	0  	0.893848	0.893848
8  	16    	0.896613	0  	0.896613	0.896613
9  	16    	0.896613	0  	0.896613	0.896613
10 	16    	0.899439	0  	0.899439	0.899439
11 	16    	0.899439	0  	0.899439	0.899439
12 	16    	0.899439	0  	0.899439	0.899439
13 	16    	0.899439	0  	0.899439	0.899439
14 	16    	0.899439	0  	0.899439	0.899439
15 	16    	0.901467	0  	0.901467	0.901467
16 	16    	0.901467	0  	0.901467	0.901467
17 	16    	0.901467	0  	0.901467	0.901467
18 	16    	0.901467	0  	0.901467	0.901467
19 	16    	0.901896	0  	0.901896	0.901896
20 	16    	0.905702	0  	0.905702	0.905702
21 	16    	0.907591	0  	0.907591	0.907591
22 	16    	0.907837	0  	0.907837	0.907837
23 	16    	0.907837	0  	0.907837	0.907837
24 	16    	0.907837	0  	0.907837	0.907837
25 	16    	0.907837	0  	0.907837	0.907837
26 	16    	0.907837	0  	0.907837	0.907837
27 	16    	0.907837	0  	0.907837	0.907837
28 	16    	0.907837	0  	0.907837	0.907837
29 	16    	0.907837	0  	0.907837	0.907837
30 	16    	0.907837	0  	0.907837	0.907837
31 	16    	0.907837	0  	0.907837	0.907837
32 	16    	0.907837	0  	0.907837	0.907837
33 	16    	0.907837	0  	0.907837	0.907837
34 	16    	0.907837	0  	0.907837	0.907837
35 	16    	0.907837	0  	0.907837	0.907837
36 	16    	0.908259	0  	0.908259	0.908259
37 	16    	0.908259	0  	0.908259	0.908259
38 	16    	0.908259	0  	0.908259	0.908259
39 	16    	0.908496	0  	0.908496	0.908496
40 	16    	0.908496	0  	0.908496	0.908496
41 	16    	0.908496	0  	0.908496	0.908496
42 	16    	0.908496	0  	0.908496	0.908496
43 	16    	0.908496	0  	0.908496	0.908496
44 	16    	0.908973	0  	0.908973	0.908973
45 	16    	0.908973	0  	0.908973	0.908973
46 	16    	0.910618	0  	0.910618	0.910618
47 	16    	0.910631	0  	0.910631	0.910631
48 	16    	0.910631	0  	0.910631	0.910631
49 	16    	0.910949	0  	0.910949	0.910949
50 	16    	0.910949	0  	0.910949	0.910949
51 	16    	0.910949	0  	0.910949	0.910949
52 	16    	0.910949	0  	0.910949	0.910949
53 	16    	0.910949	0  	0.910949	0.910949
54 	16    	0.910949	0  	0.910949	0.910949
55 	16    	0.911329	0  	0.911329	0.911329
56 	16    	0.911329	0  	0.911329	0.911329
57 	16    	0.911329	0  	0.911329	0.911329
58 	16    	0.911329	0  	0.911329	0.911329
59 	16    	0.914136	0  	0.914136	0.914136
60 	16    	0.914136	0  	0.914136	0.914136
61 	16    	0.914136	0  	0.914136	0.914136
62 	16    	0.914136	0  	0.914136	0.914136
63 	16    	0.914136	0  	0.914136	0.914136
64 	16    	0.916661	0  	0.916661	0.916661
65 	16    	0.916661	0  	0.916661	0.916661
66 	16    	0.916661	0  	0.916661	0.916661
67 	16    	0.916661	0  	0.916661	0.916661
68 	16    	0.916661	0  	0.916661	0.916661
69 	16    	0.916661	0  	0.916661	0.916661
70 	16    	0.916661	0  	0.916661	0.916661
71 	16    	0.916661	0  	0.916661	0.916661
72 	16    	0.916661	0  	0.916661	0.916661
73 	16    	0.916661	0  	0.916661	0.916661
74 	16    	0.916661	0  	0.916661	0.916661
75 	16    	0.916661	0  	0.916661	0.916661
76 	16    	0.916661	0  	0.916661	0.916661
77 	16    	0.916661	0  	0.916661	0.916661
78 	16    	0.916661	0  	0.916661	0.916661
79 	16    	0.916661	0  	0.916661	0.916661
80 	16    	0.916661	0  	0.916661	0.916661
81 	16    	0.916661	0  	0.916661	0.916661
82 	16    	0.916784	0  	0.916784	0.916784
83 	16    	0.917164	0  	0.917164	0.917164
84 	16    	0.917579	0  	0.917579	0.917579
85 	16    	0.918309	0  	0.918309	0.918309
86 	16    	0.918309	0  	0.918309	0.918309
87 	16    	0.918309	0  	0.918309	0.918309
88 	16    	0.918309	0  	0.918309	0.918309
89 	16    	0.918309	0  	0.918309	0.918309
90 	16    	0.918309	0  	0.918309	0.918309
91 	16    	0.920224	0  	0.920224	0.920224
92 	16    	0.920224	0  	0.920224	0.920224
93 	16    	0.920224	0  	0.920224	0.920224
94 	16    	0.920224	0  	0.920224	0.920224
95 	16    	0.920224	0  	0.920224	0.920224
96 	16    	0.920224	0  	0.920224	0.920224
97 	16    	0.920224	0  	0.920224	0.920224
98 	16    	0.920224	0  	0.920224	0.920224
99 	16    	0.920224	0  	0.920224	0.920224
100	16    	0.920224	0  	0.920224	0.920224
101	16    	0.920224	0  	0.920224	0.920224
102	16    	0.920224	0  	0.920224	0.920224
103	16    	0.920224	0  	0.920224	0.920224
104	16    	0.920224	0  	0.920224	0.920224
105	16    	0.920224	0  	0.920224	0.920224
106	16    	0.920224	0  	0.920224	0.920224
107	16    	0.920224	0  	0.920224	0.920224
108	16    	0.920224	0  	0.920224	0.920224
109	16    	0.920224	0  	0.920224	0.920224
110	16    	0.920224	0  	0.920224	0.920224
111	16    	0.920224	0  	0.920224	0.920224
112	16    	0.920224	0  	0.920224	0.920224
113	16    	0.920224	0  	0.920224	0.920224
114	16    	0.920292	0  	0.920292	0.920292
115	16    	0.920292	0  	0.920292	0.920292
116	16    	0.920292	0  	0.920292	0.920292
117	16    	0.920292	0  	0.920292	0.920292
118	16    	0.922742	0  	0.922742	0.922742
119	16    	0.922742	0  	0.922742	0.922742
120	16    	0.922742	0  	0.922742	0.922742
121	16    	0.922742	0  	0.922742	0.922742
122	16    	0.922742	0  	0.922742	0.922742
123	16    	0.922742	0  	0.922742	0.922742
124	16    	0.922742	0  	0.922742	0.922742
125	16    	0.922742	0  	0.922742	0.922742
126	16    	0.922742	0  	0.922742	0.922742
127	16    	0.922742	0  	0.922742	0.922742
128	16    	0.922742	0  	0.922742	0.922742
129	16    	0.922742	0  	0.922742	0.922742
130	16    	0.922742	0  	0.922742	0.922742
131	16    	0.922742	0  	0.922742	0.922742
132	16    	0.922742	0  	0.922742	0.922742
133	16    	0.922742	0  	0.922742	0.922742
134	16    	0.922742	0  	0.922742	0.922742
135	16    	0.922742	0  	0.922742	0.922742
136	16    	0.922742	0  	0.922742	0.922742
137	16    	0.922742	0  	0.922742	0.922742
138	16    	0.922742	0  	0.922742	0.922742
139	16    	0.922742	0  	0.922742	0.922742
140	16    	0.922742	0  	0.922742	0.922742
141	16    	0.922742	0  	0.922742	0.922742
142	16    	0.922742	0  	0.922742	0.922742
143	16    	0.922742	0  	0.922742	0.922742
144	16    	0.922742	0  	0.922742	0.922742
145	16    	0.922742	0  	0.922742	0.922742
146	16    	0.922742	0  	0.922742	0.922742
147	16    	0.922742	0  	0.922742	0.922742
148	16    	0.922742	0  	0.922742	0.922742
149	16    	0.922742	0  	0.922742	0.922742
150	16    	0.922742	0  	0.922742	0.922742
151	16    	0.922742	0  	0.922742	0.922742
152	16    	0.922742	0  	0.922742	0.922742
153	16    	0.922742	0  	0.922742	0.922742
154	16    	0.922742	0  	0.922742	0.922742
155	16    	0.922742	0  	0.922742	0.922742
156	16    	0.923427	0  	0.923427	0.923427
157	16    	0.923427	0  	0.923427	0.923427
158	16    	0.923427	0  	0.923427	0.923427
159	16    	0.923427	0  	0.923427	0.923427
160	16    	0.923427	0  	0.923427	0.923427
161	16    	0.923427	0  	0.923427	0.923427
162	16    	0.923427	0  	0.923427	0.923427
163	16    	0.923427	0  	0.923427	0.923427
164	16    	0.923427	0  	0.923427	0.923427
165	16    	0.923427	0  	0.923427	0.923427
166	16    	0.923427	0  	0.923427	0.923427
167	16    	0.923703	0  	0.923703	0.923703
168	16    	0.923703	0  	0.923703	0.923703
169	16    	0.923703	0  	0.923703	0.923703
170	16    	0.923703	0  	0.923703	0.923703
171	16    	0.923703	0  	0.923703	0.923703
172	16    	0.923703	0  	0.923703	0.923703
173	16    	0.923703	0  	0.923703	0.923703
174	16    	0.923703	0  	0.923703	0.923703
175	16    	0.924903	0  	0.924903	0.924903
176	16    	0.925118	0  	0.925118	0.925118
177	16    	0.925118	0  	0.925118	0.925118
178	16    	0.925118	0  	0.925118	0.925118
179	16    	0.925118	0  	0.925118	0.925118
180	16    	0.925118	0  	0.925118	0.925118
181	16    	0.925118	0  	0.925118	0.925118
182	16    	0.925118	0  	0.925118	0.925118
183	16    	0.925118	0  	0.925118	0.925118
184	16    	0.925118	0  	0.925118	0.925118
185	16    	0.925118	0  	0.925118	0.925118
186	16    	0.925118	0  	0.925118	0.925118
187	16    	0.925118	0  	0.925118	0.925118
188	16    	0.925118	0  	0.925118	0.925118
189	16    	0.925118	0  	0.925118	0.925118
190	16    	0.925118	0  	0.925118	0.925118
191	16    	0.925118	0  	0.925118	0.925118
192	16    	0.925118	0  	0.925118	0.925118
193	16    	0.925118	0  	0.925118	0.925118
194	16    	0.925118	0  	0.925118	0.925118
195	16    	0.925439	0  	0.925439	0.925439
196	16    	0.925439	0  	0.925439	0.925439
197	16    	0.925439	0  	0.925439	0.925439
198	16    	0.925439	0  	0.925439	0.925439
199	16    	0.925439	0  	0.925439	0.925439
200	16    	0.925439	0  	0.925439	0.925439
201	16    	0.925439	0  	0.925439	0.925439
202	16    	0.925439	0  	0.925439	0.925439
203	16    	0.925835	0  	0.925835	0.925835
204	16    	0.925835	0  	0.925835	0.925835
205	16    	0.925835	0  	0.925835	0.925835
206	16    	0.926448	0  	0.926448	0.926448
207	16    	0.92723 	0  	0.92723 	0.92723 
208	16    	0.92723 	0  	0.92723 	0.92723 
209	16    	0.92723 	0  	0.92723 	0.92723 
210	16    	0.92723 	0  	0.92723 	0.92723 
211	16    	0.92723 	0  	0.92723 	0.92723 
212	16    	0.927451	0  	0.927451	0.927451
213	16    	0.928632	0  	0.928632	0.928632
214	16    	0.928632	0  	0.928632	0.928632
215	16    	0.928723	0  	0.928723	0.928723
216	16    	0.928723	0  	0.928723	0.928723
217	16    	0.928723	0  	0.928723	0.928723
218	16    	0.928723	0  	0.928723	0.928723
219	16    	0.929424	0  	0.929424	0.929424
220	16    	0.929424	0  	0.929424	0.929424
221	16    	0.932422	0  	0.932422	0.932422
222	16    	0.932422	0  	0.932422	0.932422
223	16    	0.934648	0  	0.934648	0.934648
224	16    	0.934648	0  	0.934648	0.934648
225	16    	0.934648	0  	0.934648	0.934648
226	16    	0.934648	0  	0.934648	0.934648
227	16    	0.934648	0  	0.934648	0.934648
228	16    	0.934648	0  	0.934648	0.934648
229	16    	0.934648	0  	0.934648	0.934648
230	16    	0.934648	0  	0.934648	0.934648
231	16    	0.934648	0  	0.934648	0.934648
232	16    	0.934648	0  	0.934648	0.934648
233	16    	0.934648	0  	0.934648	0.934648
234	16    	0.934648	0  	0.934648	0.934648
235	16    	0.934648	0  	0.934648	0.934648
236	16    	0.934648	0  	0.934648	0.934648
237	16    	0.934648	0  	0.934648	0.934648
238	16    	0.934648	0  	0.934648	0.934648
239	16    	0.934648	0  	0.934648	0.934648
240	16    	0.934648	0  	0.934648	0.934648
241	16    	0.934648	0  	0.934648	0.934648
242	16    	0.934648	0  	0.934648	0.934648
243	16    	0.934648	0  	0.934648	0.934648
244	16    	0.934648	0  	0.934648	0.934648
245	16    	0.934648	0  	0.934648	0.934648
246	16    	0.934648	0  	0.934648	0.934648
247	16    	0.934648	0  	0.934648	0.934648
248	16    	0.934648	0  	0.934648	0.934648
249	16    	0.934648	0  	0.934648	0.934648
250	16    	0.934648	0  	0.934648	0.934648
251	16    	0.934648	0  	0.934648	0.934648
252	16    	0.934648	0  	0.934648	0.934648
253	16    	0.934648	0  	0.934648	0.934648
254	16    	0.934648	0  	0.934648	0.934648
255	16    	0.934648	0  	0.934648	0.934648
256	16    	0.934648	0  	0.934648	0.934648
257	16    	0.934648	0  	0.934648	0.934648
258	16    	0.934648	0  	0.934648	0.934648
259	16    	0.934648	0  	0.934648	0.934648
260	16    	0.934648	0  	0.934648	0.934648
261	16    	0.934648	0  	0.934648	0.934648
262	16    	0.934648	0  	0.934648	0.934648
263	16    	0.934648	0  	0.934648	0.934648
264	16    	0.934648	0  	0.934648	0.934648
265	16    	0.934648	0  	0.934648	0.934648
266	16    	0.934648	0  	0.934648	0.934648
267	16    	0.934648	0  	0.934648	0.934648
268	16    	0.934648	0  	0.934648	0.934648
269	16    	0.934648	0  	0.934648	0.934648
270	16    	0.934648	0  	0.934648	0.934648
271	16    	0.934963	0  	0.934963	0.934963
272	16    	0.934963	0  	0.934963	0.934963
273	16    	0.934963	0  	0.934963	0.934963
274	16    	0.934963	0  	0.934963	0.934963
275	16    	0.934963	0  	0.934963	0.934963
276	16    	0.934963	0  	0.934963	0.934963
277	16    	0.934963	0  	0.934963	0.934963
278	16    	0.936144	0  	0.936144	0.936144
279	16    	0.936144	0  	0.936144	0.936144
280	16    	0.936144	0  	0.936144	0.936144
281	16    	0.936144	0  	0.936144	0.936144
282	16    	0.936144	0  	0.936144	0.936144
283	16    	0.936144	0  	0.936144	0.936144
284	16    	0.936144	0  	0.936144	0.936144
285	16    	0.936144	0  	0.936144	0.936144
286	16    	0.936144	0  	0.936144	0.936144
287	16    	0.936144	0  	0.936144	0.936144
288	16    	0.936144	0  	0.936144	0.936144
289	16    	0.936144	0  	0.936144	0.936144
290	16    	0.936144	0  	0.936144	0.936144
291	16    	0.936144	0  	0.936144	0.936144
292	16    	0.936144	0  	0.936144	0.936144
293	16    	0.936144	0  	0.936144	0.936144
294	16    	0.936144	0  	0.936144	0.936144
295	16    	0.936144	0  	0.936144	0.936144
296	16    	0.936144	0  	0.936144	0.936144
297	16    	0.936151	0  	0.936151	0.936151
298	16    	0.936151	0  	0.936151	0.936151
299	16    	0.936151	0  	0.936151	0.936151
300	16    	0.936151	0  	0.936151	0.936151
301	16    	0.936151	0  	0.936151	0.936151
302	16    	0.936151	0  	0.936151	0.936151
303	16    	0.936151	0  	0.936151	0.936151
304	16    	0.936151	0  	0.936151	0.936151
305	16    	0.936151	0  	0.936151	0.936151
306	16    	0.936151	0  	0.936151	0.936151
307	16    	0.936151	0  	0.936151	0.936151
308	16    	0.936151	0  	0.936151	0.936151
309	16    	0.936151	0  	0.936151	0.936151
310	16    	0.936151	0  	0.936151	0.936151
311	16    	0.936151	0  	0.936151	0.936151
312	16    	0.936151	0  	0.936151	0.936151
313	16    	0.936151	0  	0.936151	0.936151
314	16    	0.936151	0  	0.936151	0.936151
315	16    	0.936151	0  	0.936151	0.936151
316	16    	0.936151	0  	0.936151	0.936151
317	16    	0.936151	0  	0.936151	0.936151
318	16    	0.936151	0  	0.936151	0.936151
319	16    	0.936151	0  	0.936151	0.936151
320	16    	0.936151	0  	0.936151	0.936151
321	16    	0.936151	0  	0.936151	0.936151
322	16    	0.936151	0  	0.936151	0.936151
323	16    	0.936151	0  	0.936151	0.936151
324	16    	0.936151	0  	0.936151	0.936151
325	16    	0.936151	0  	0.936151	0.936151
326	16    	0.936151	0  	0.936151	0.936151
327	16    	0.936151	0  	0.936151	0.936151
328	16    	0.936151	0  	0.936151	0.936151
329	16    	0.936151	0  	0.936151	0.936151
330	16    	0.936151	0  	0.936151	0.936151
331	16    	0.936151	0  	0.936151	0.936151
332	16    	0.936151	0  	0.936151	0.936151
333	16    	0.936151	0  	0.936151	0.936151
334	16    	0.936151	0  	0.936151	0.936151
335	16    	0.936151	0  	0.936151	0.936151
336	16    	0.936784	0  	0.936784	0.936784
337	16    	0.936784	0  	0.936784	0.936784
338	16    	0.936784	0  	0.936784	0.936784
339	16    	0.936784	0  	0.936784	0.936784
340	16    	0.936784	0  	0.936784	0.936784
341	16    	0.936784	0  	0.936784	0.936784
342	16    	0.936784	0  	0.936784	0.936784
343	16    	0.936784	0  	0.936784	0.936784
344	16    	0.936784	0  	0.936784	0.936784
345	16    	0.936784	0  	0.936784	0.936784
346	16    	0.936784	0  	0.936784	0.936784
347	16    	0.936784	0  	0.936784	0.936784
348	16    	0.936784	0  	0.936784	0.936784
349	16    	0.937429	0  	0.937429	0.937429
350	16    	0.939286	0  	0.939286	0.939286
351	16    	0.939286	0  	0.939286	0.939286
352	16    	0.939286	0  	0.939286	0.939286
353	16    	0.939286	0  	0.939286	0.939286
354	16    	0.939286	0  	0.939286	0.939286
355	16    	0.939286	0  	0.939286	0.939286
356	16    	0.939286	0  	0.939286	0.939286
357	16    	0.939286	0  	0.939286	0.939286
358	16    	0.939286	0  	0.939286	0.939286
359	16    	0.939286	0  	0.939286	0.939286
360	16    	0.939286	0  	0.939286	0.939286
361	16    	0.939286	0  	0.939286	0.939286
362	16    	0.939286	0  	0.939286	0.939286
363	16    	0.939286	0  	0.939286	0.939286
364	16    	0.939286	0  	0.939286	0.939286
365	16    	0.939286	0  	0.939286	0.939286
366	16    	0.939286	0  	0.939286	0.939286
367	16    	0.939286	0  	0.939286	0.939286
368	16    	0.939286	0  	0.939286	0.939286
369	16    	0.939286	0  	0.939286	0.939286
370	16    	0.939286	0  	0.939286	0.939286
371	16    	0.939286	0  	0.939286	0.939286
372	16    	0.939286	0  	0.939286	0.939286
373	16    	0.939286	0  	0.939286	0.939286
374	16    	0.939286	0  	0.939286	0.939286
375	16    	0.939286	0  	0.939286	0.939286
376	16    	0.939286	0  	0.939286	0.939286
377	16    	0.939286	0  	0.939286	0.939286
378	16    	0.939286	0  	0.939286	0.939286
379	16    	0.939286	0  	0.939286	0.939286
380	16    	0.939286	0  	0.939286	0.939286
381	16    	0.939286	0  	0.939286	0.939286
382	16    	0.939286	0  	0.939286	0.939286
383	16    	0.939286	0  	0.939286	0.939286
384	16    	0.939286	0  	0.939286	0.939286
385	16    	0.939286	0  	0.939286	0.939286
386	16    	0.939286	0  	0.939286	0.939286
387	16    	0.939286	0  	0.939286	0.939286
388	16    	0.939286	0  	0.939286	0.939286
389	16    	0.939286	0  	0.939286	0.939286
390	16    	0.939286	0  	0.939286	0.939286
391	16    	0.939286	0  	0.939286	0.939286
392	16    	0.939286	0  	0.939286	0.939286
393	16    	0.939286	0  	0.939286	0.939286
394	16    	0.939286	0  	0.939286	0.939286
395	16    	0.939286	0  	0.939286	0.939286
396	16    	0.939286	0  	0.939286	0.939286
397	16    	0.939286	0  	0.939286	0.939286
398	16    	0.939286	0  	0.939286	0.939286
399	16    	0.939286	0  	0.939286	0.939286
400	16    	0.939286	0  	0.939286	0.939286
401	16    	0.939286	0  	0.939286	0.939286
402	16    	0.939286	0  	0.939286	0.939286
403	16    	0.939286	0  	0.939286	0.939286
404	16    	0.939286	0  	0.939286	0.939286
405	16    	0.939286	0  	0.939286	0.939286
406	16    	0.939451	0  	0.939451	0.939451
407	16    	0.939451	0  	0.939451	0.939451
408	16    	0.939451	0  	0.939451	0.939451
409	16    	0.939451	0  	0.939451	0.939451
410	16    	0.939451	0  	0.939451	0.939451
411	16    	0.939451	0  	0.939451	0.939451
412	16    	0.939451	0  	0.939451	0.939451
413	16    	0.939451	0  	0.939451	0.939451
414	16    	0.939451	0  	0.939451	0.939451
415	16    	0.939451	0  	0.939451	0.939451
416	16    	0.939451	0  	0.939451	0.939451
417	16    	0.939451	0  	0.939451	0.939451
418	16    	0.939451	0  	0.939451	0.939451
419	16    	0.939451	0  	0.939451	0.939451
420	16    	0.939451	0  	0.939451	0.939451
421	16    	0.939451	0  	0.939451	0.939451
422	16    	0.939451	0  	0.939451	0.939451
423	16    	0.939451	0  	0.939451	0.939451
424	16    	0.939451	0  	0.939451	0.939451
425	16    	0.939451	0  	0.939451	0.939451
426	16    	0.939451	0  	0.939451	0.939451
427	16    	0.939451	0  	0.939451	0.939451
428	16    	0.939685	0  	0.939685	0.939685
429	16    	0.939685	0  	0.939685	0.939685
430	16    	0.939685	0  	0.939685	0.939685
431	16    	0.940567	0  	0.940567	0.940567
432	16    	0.940567	0  	0.940567	0.940567
433	16    	0.940567	0  	0.940567	0.940567
434	16    	0.940567	0  	0.940567	0.940567
435	16    	0.940567	0  	0.940567	0.940567
436	16    	0.940567	0  	0.940567	0.940567
437	16    	0.940567	0  	0.940567	0.940567
438	16    	0.940567	0  	0.940567	0.940567
439	16    	0.940567	0  	0.940567	0.940567
440	16    	0.940567	0  	0.940567	0.940567
441	16    	0.940567	0  	0.940567	0.940567
442	16    	0.940567	0  	0.940567	0.940567
443	16    	0.940567	0  	0.940567	0.940567
444	16    	0.940567	0  	0.940567	0.940567
445	16    	0.940567	0  	0.940567	0.940567
446	16    	0.940918	0  	0.940918	0.940918
447	16    	0.940918	0  	0.940918	0.940918
448	16    	0.940947	0  	0.940947	0.940947
449	16    	0.940947	0  	0.940947	0.940947
450	16    	0.940947	0  	0.940947	0.940947
451	16    	0.940947	0  	0.940947	0.940947
452	16    	0.940947	0  	0.940947	0.940947
453	16    	0.940947	0  	0.940947	0.940947
454	16    	0.940947	0  	0.940947	0.940947
455	16    	0.940947	0  	0.940947	0.940947
456	16    	0.940947	0  	0.940947	0.940947
457	16    	0.940947	0  	0.940947	0.940947
458	16    	0.940947	0  	0.940947	0.940947
459	16    	0.940947	0  	0.940947	0.940947
460	16    	0.940947	0  	0.940947	0.940947
461	16    	0.940947	0  	0.940947	0.940947
462	16    	0.940947	0  	0.940947	0.940947
463	16    	0.941781	0  	0.941781	0.941781
464	16    	0.941781	0  	0.941781	0.941781
465	16    	0.941781	0  	0.941781	0.941781
466	16    	0.941781	0  	0.941781	0.941781
467	16    	0.941781	0  	0.941781	0.941781
468	16    	0.941781	0  	0.941781	0.941781
469	16    	0.941781	0  	0.941781	0.941781
470	16    	0.941781	0  	0.941781	0.941781
471	16    	0.941781	0  	0.941781	0.941781
472	16    	0.941781	0  	0.941781	0.941781
473	16    	0.941781	0  	0.941781	0.941781
474	16    	0.941781	0  	0.941781	0.941781
475	16    	0.941781	0  	0.941781	0.941781
476	16    	0.941781	0  	0.941781	0.941781
477	16    	0.941781	0  	0.941781	0.941781
478	16    	0.941781	0  	0.941781	0.941781
479	16    	0.941781	0  	0.941781	0.941781
480	16    	0.941781	0  	0.941781	0.941781
481	16    	0.941781	0  	0.941781	0.941781
482	16    	0.941781	0  	0.941781	0.941781
483	16    	0.941781	0  	0.941781	0.941781
484	16    	0.941781	0  	0.941781	0.941781
485	16    	0.941781	0  	0.941781	0.941781
486	16    	0.941781	0  	0.941781	0.941781
487	16    	0.941781	0  	0.941781	0.941781
488	16    	0.941781	0  	0.941781	0.941781
489	16    	0.941781	0  	0.941781	0.941781
490	16    	0.941781	0  	0.941781	0.941781
491	16    	0.941781	0  	0.941781	0.941781
492	16    	0.941781	0  	0.941781	0.941781
493	16    	0.941781	0  	0.941781	0.941781
494	16    	0.941781	0  	0.941781	0.941781
495	16    	0.941781	0  	0.941781	0.941781
496	16    	0.941781	0  	0.941781	0.941781
497	16    	0.941781	0  	0.941781	0.941781
498	16    	0.941781	0  	0.941781	0.941781
499	16    	0.941781	0  	0.941781	0.941781
500	16    	0.941781	0  	0.941781	0.941781
501	16    	0.942229	0  	0.942229	0.942229
502	16    	0.942229	0  	0.942229	0.942229
503	16    	0.942229	0  	0.942229	0.942229
504	16    	0.942229	0  	0.942229	0.942229
505	16    	0.94231 	0  	0.94231 	0.94231 
506	16    	0.94231 	0  	0.94231 	0.94231 
507	16    	0.94231 	0  	0.94231 	0.94231 
508	16    	0.94231 	0  	0.94231 	0.94231 
509	16    	0.94231 	0  	0.94231 	0.94231 
510	16    	0.94231 	0  	0.94231 	0.94231 
511	16    	0.94231 	0  	0.94231 	0.94231 
512	16    	0.94231 	0  	0.94231 	0.94231 
513	16    	0.94231 	0  	0.94231 	0.94231 
514	16    	0.943397	0  	0.943397	0.943397
515	16    	0.943397	0  	0.943397	0.943397
516	16    	0.943397	0  	0.943397	0.943397
517	16    	0.943397	0  	0.943397	0.943397
518	16    	0.943397	0  	0.943397	0.943397
519	16    	0.945224	0  	0.945224	0.945224
520	16    	0.945224	0  	0.945224	0.945224
521	16    	0.945224	0  	0.945224	0.945224
522	16    	0.945224	0  	0.945224	0.945224
523	16    	0.945224	0  	0.945224	0.945224
524	16    	0.945224	0  	0.945224	0.945224
525	16    	0.945224	0  	0.945224	0.945224
526	16    	0.945224	0  	0.945224	0.945224
527	16    	0.945224	0  	0.945224	0.945224
528	16    	0.945224	0  	0.945224	0.945224
529	16    	0.945224	0  	0.945224	0.945224
530	16    	0.945224	0  	0.945224	0.945224
531	16    	0.945224	0  	0.945224	0.945224
532	16    	0.945224	0  	0.945224	0.945224
533	16    	0.945224	0  	0.945224	0.945224
534	16    	0.945224	0  	0.945224	0.945224
535	16    	0.945224	0  	0.945224	0.945224
536	16    	0.945224	0  	0.945224	0.945224
537	16    	0.945224	0  	0.945224	0.945224
538	16    	0.945224	0  	0.945224	0.945224
539	16    	0.945224	0  	0.945224	0.945224
540	16    	0.945224	0  	0.945224	0.945224
541	16    	0.945224	0  	0.945224	0.945224
542	16    	0.945224	0  	0.945224	0.945224
543	16    	0.945224	0  	0.945224	0.945224
544	16    	0.945224	0  	0.945224	0.945224
545	16    	0.945224	0  	0.945224	0.945224
546	16    	0.945224	0  	0.945224	0.945224
547	16    	0.945224	0  	0.945224	0.945224
548	16    	0.945224	0  	0.945224	0.945224
549	16    	0.945224	0  	0.945224	0.945224
550	16    	0.945224	0  	0.945224	0.945224
551	16    	0.945224	0  	0.945224	0.945224
552	16    	0.945224	0  	0.945224	0.945224
553	16    	0.945224	0  	0.945224	0.945224
554	16    	0.945224	0  	0.945224	0.945224
555	16    	0.945224	0  	0.945224	0.945224
556	16    	0.945224	0  	0.945224	0.945224
557	16    	0.945224	0  	0.945224	0.945224
558	16    	0.945224	0  	0.945224	0.945224
559	16    	0.945224	0  	0.945224	0.945224
560	16    	0.945224	0  	0.945224	0.945224
561	16    	0.945224	0  	0.945224	0.945224
562	16    	0.945224	0  	0.945224	0.945224
563	16    	0.945224	0  	0.945224	0.945224
564	16    	0.945224	0  	0.945224	0.945224
565	16    	0.945224	0  	0.945224	0.945224
566	16    	0.945224	0  	0.945224	0.945224
567	16    	0.945224	0  	0.945224	0.945224
568	16    	0.945224	0  	0.945224	0.945224
569	16    	0.945224	0  	0.945224	0.945224
570	16    	0.945224	0  	0.945224	0.945224
571	16    	0.945224	0  	0.945224	0.945224
572	16    	0.945224	0  	0.945224	0.945224
573	16    	0.945224	0  	0.945224	0.945224
574	16    	0.945224	0  	0.945224	0.945224
575	16    	0.945224	0  	0.945224	0.945224
576	16    	0.945224	0  	0.945224	0.945224
577	16    	0.945224	0  	0.945224	0.945224
578	16    	0.945224	0  	0.945224	0.945224
579	16    	0.945224	0  	0.945224	0.945224
580	16    	0.945224	0  	0.945224	0.945224
581	16    	0.945224	0  	0.945224	0.945224
582	16    	0.945224	0  	0.945224	0.945224
583	16    	0.945224	0  	0.945224	0.945224
584	16    	0.945224	0  	0.945224	0.945224
585	16    	0.945224	0  	0.945224	0.945224
586	16    	0.945224	0  	0.945224	0.945224
587	16    	0.945224	0  	0.945224	0.945224
588	16    	0.945224	0  	0.945224	0.945224
589	16    	0.945224	0  	0.945224	0.945224
590	16    	0.945224	0  	0.945224	0.945224
591	16    	0.945224	0  	0.945224	0.945224
592	16    	0.945224	0  	0.945224	0.945224
593	16    	0.945224	0  	0.945224	0.945224
594	16    	0.945224	0  	0.945224	0.945224
595	16    	0.945224	0  	0.945224	0.945224
596	16    	0.945224	0  	0.945224	0.945224
597	16    	0.945224	0  	0.945224	0.945224
598	16    	0.946237	0  	0.946237	0.946237
599	16    	0.946237	0  	0.946237	0.946237
600	16    	0.946237	0  	0.946237	0.946237
601	16    	0.946237	0  	0.946237	0.946237
602	16    	0.946762	0  	0.946762	0.946762
603	16    	0.946762	0  	0.946762	0.946762
604	16    	0.946762	0  	0.946762	0.946762
605	16    	0.946762	0  	0.946762	0.946762
606	16    	0.946762	0  	0.946762	0.946762
607	16    	0.946762	0  	0.946762	0.946762
608	16    	0.946762	0  	0.946762	0.946762
609	16    	0.946762	0  	0.946762	0.946762
610	16    	0.946762	0  	0.946762	0.946762
611	16    	0.946762	0  	0.946762	0.946762
612	16    	0.946762	0  	0.946762	0.946762
613	16    	0.946762	0  	0.946762	0.946762
614	16    	0.946762	0  	0.946762	0.946762
615	16    	0.946762	0  	0.946762	0.946762
616	16    	0.946762	0  	0.946762	0.946762
617	16    	0.946762	0  	0.946762	0.946762
618	16    	0.946762	0  	0.946762	0.946762
619	16    	0.946762	0  	0.946762	0.946762
620	16    	0.946762	0  	0.946762	0.946762
621	16    	0.946762	0  	0.946762	0.946762
622	16    	0.946762	0  	0.946762	0.946762
623	16    	0.946762	0  	0.946762	0.946762
624	16    	0.946762	0  	0.946762	0.946762
625	16    	0.946762	0  	0.946762	0.946762