gen	nevals	avg     	std	min     	max     
0  	1     	0.856146	0  	0.856146	0.856146
1  	16    	0.856146	0  	0.856146	0.856146
2  	16    	0.856146	0  	0.856146	0.856146
3  	16    	0.856146	0  	0.856146	0.856146
4  	16    	0.871013	0  	0.871013	0.871013
5  	16    	0.871013	0  	0.871013	0.871013
6  	16    	0.885573	0  	0.885573	0.885573
7  	16    	0.885573	0  	0.885573	0.885573
8  	16    	0.894643	0  	0.894643	0.894643
9  	16    	0.894643	0  	0.894643	0.894643
10 	16    	0.894643	0  	0.894643	0.894643
11 	16    	0.894643	0  	0.894643	0.894643
12 	16    	0.90119 	0  	0.90119 	0.90119 
13 	16    	0.902196	0  	0.902196	0.902196
14 	16    	0.906253	0  	0.906253	0.906253
15 	16    	0.906253	0  	0.906253	0.906253
16 	16    	0.906253	0  	0.906253	0.906253
17 	16    	0.906253	0  	0.906253	0.906253
18 	16    	0.906253	0  	0.906253	0.906253
19 	16    	0.906253	0  	0.906253	0.906253
20 	16    	0.913277	0  	0.913277	0.913277
21 	16    	0.913277	0  	0.913277	0.913277
22 	16    	0.913277	0  	0.913277	0.913277
23 	16    	0.913277	0  	0.913277	0.913277
24 	16    	0.916704	0  	0.916704	0.916704
25 	16    	0.916704	0  	0.916704	0.916704
26 	16    	0.916704	0  	0.916704	0.916704
27 	16    	0.916704	0  	0.916704	0.916704
28 	16    	0.916704	0  	0.916704	0.916704
29 	16    	0.916704	0  	0.916704	0.916704
30 	16    	0.924427	0  	0.924427	0.924427
31 	16    	0.924427	0  	0.924427	0.924427
32 	16    	0.925842	0  	0.925842	0.925842
33 	16    	0.925842	0  	0.925842	0.925842
34 	16    	0.929951	0  	0.929951	0.929951
35 	16    	0.929951	0  	0.929951	0.929951
36 	16    	0.929951	0  	0.929951	0.929951
37 	16    	0.930224	0  	0.930224	0.930224
38 	16    	0.930224	0  	0.930224	0.930224
39 	16    	0.930224	0  	0.930224	0.930224
40 	16    	0.930224	0  	0.930224	0.930224
41 	16    	0.930224	0  	0.930224	0.930224
42 	16    	0.930224	0  	0.930224	0.930224
43 	16    	0.930224	0  	0.930224	0.930224
44 	16    	0.930224	0  	0.930224	0.930224
45 	16    	0.930224	0  	0.930224	0.930224
46 	16    	0.930224	0  	0.930224	0.930224
47 	16    	0.935611	0  	0.935611	0.935611
48 	16    	0.935611	0  	0.935611	0.935611
49 	16    	0.935611	0  	0.935611	0.935611
50 	16    	0.935611	0  	0.935611	0.935611
51 	16    	0.935611	0  	0.935611	0.935611
52 	16    	0.935611	0  	0.935611	0.935611
53 	16    	0.935611	0  	0.935611	0.935611
54 	16    	0.935611	0  	0.935611	0.935611
55 	16    	0.935611	0  	0.935611	0.935611
56 	16    	0.93793 	0  	0.93793 	0.93793 
57 	16    	0.93793 	0  	0.93793 	0.93793 
58 	16    	0.93793 	0  	0.93793 	0.93793 
59 	16    	0.93793 	0  	0.93793 	0.93793 
60 	16    	0.93793 	0  	0.93793 	0.93793 
61 	16    	0.93793 	0  	0.93793 	0.93793 
62 	16    	0.93793 	0  	0.93793 	0.93793 
63 	16    	0.93793 	0  	0.93793 	0.93793 
64 	16    	0.93793 	0  	0.93793 	0.93793 
65 	16    	0.93793 	0  	0.93793 	0.93793 
66 	16    	0.93793 	0  	0.93793 	0.93793 
67 	16    	0.93793 	0  	0.93793 	0.93793 
68 	16    	0.93793 	0  	0.93793 	0.93793 
69 	16    	0.93793 	0  	0.93793 	0.93793 
70 	16    	0.93793 	0  	0.93793 	0.93793 
71 	16    	0.93793 	0  	0.93793 	0.93793 
72 	16    	0.93793 	0  	0.93793 	0.93793 
73 	16    	0.93793 	0  	0.93793 	0.93793 
74 	16    	0.93793 	0  	0.93793 	0.93793 
75 	16    	0.93793 	0  	0.93793 	0.93793 
76 	16    	0.93793 	0  	0.93793 	0.93793 
77 	16    	0.93793 	0  	0.93793 	0.93793 
78 	16    	0.94105 	0  	0.94105 	0.94105 
79 	16    	0.943266	0  	0.943266	0.943266
80 	16    	0.943266	0  	0.943266	0.943266
81 	16    	0.943266	0  	0.943266	0.943266
82 	16    	0.943266	0  	0.943266	0.943266
83 	16    	0.943266	0  	0.943266	0.943266
84 	16    	0.943266	0  	0.943266	0.943266
85 	16    	0.943266	0  	0.943266	0.943266
86 	16    	0.943266	0  	0.943266	0.943266
87 	16    	0.943266	0  	0.943266	0.943266
88 	16    	0.943266	0  	0.943266	0.943266
89 	16    	0.943266	0  	0.943266	0.943266
90 	16    	0.947119	0  	0.947119	0.947119
91 	16    	0.947119	0  	0.947119	0.947119
92 	16    	0.947119	0  	0.947119	0.947119
93 	16    	0.947119	0  	0.947119	0.947119
94 	16    	0.947119	0  	0.947119	0.947119
95 	16    	0.947119	0  	0.947119	0.947119
96 	16    	0.947119	0  	0.947119	0.947119
97 	16    	0.947119	0  	0.947119	0.947119
98 	16    	0.947119	0  	0.947119	0.947119
99 	16    	0.947119	0  	0.947119	0.947119
100	16    	0.947119	0  	0.947119	0.947119
101	16    	0.954604	0  	0.954604	0.954604
102	16    	0.954604	0  	0.954604	0.954604
103	16    	0.954604	0  	0.954604	0.954604
104	16    	0.954604	0  	0.954604	0.954604
105	16    	0.954604	0  	0.954604	0.954604
106	16    	0.954604	0  	0.954604	0.954604
107	16    	0.954604	0  	0.954604	0.954604
108	16    	0.954604	0  	0.954604	0.954604
109	16    	0.954604	0  	0.954604	0.954604
110	16    	0.954604	0  	0.954604	0.954604
111	16    	0.954604	0  	0.954604	0.954604
112	16    	0.954604	0  	0.954604	0.954604
113	16    	0.954604	0  	0.954604	0.954604
114	16    	0.954604	0  	0.954604	0.954604
115	16    	0.954604	0  	0.954604	0.954604
116	16    	0.954604	0  	0.954604	0.954604
117	16    	0.954604	0  	0.954604	0.954604
118	16    	0.954604	0  	0.954604	0.954604
119	16    	0.954604	0  	0.954604	0.954604
120	16    	0.954604	0  	0.954604	0.954604
121	16    	0.954604	0  	0.954604	0.954604
122	16    	0.954604	0  	0.954604	0.954604
123	16    	0.954604	0  	0.954604	0.954604
124	16    	0.954604	0  	0.954604	0.954604
125	16    	0.954604	0  	0.954604	0.954604
126	16    	0.954604	0  	0.954604	0.954604
127	16    	0.954604	0  	0.954604	0.954604
128	16    	0.954604	0  	0.954604	0.954604
129	16    	0.954604	0  	0.954604	0.954604
130	16    	0.954604	0  	0.954604	0.954604
131	16    	0.954604	0  	0.954604	0.954604
132	16    	0.954604	0  	0.954604	0.954604
133	16    	0.954604	0  	0.954604	0.954604
134	16    	0.954604	0  	0.954604	0.954604
135	16    	0.954604	0  	0.954604	0.954604
136	16    	0.954604	0  	0.954604	0.954604
137	16    	0.954604	0  	0.954604	0.954604
138	16    	0.954604	0  	0.954604	0.954604
139	16    	0.954604	0  	0.954604	0.954604
140	16    	0.954604	0  	0.954604	0.954604
141	16    	0.954604	0  	0.954604	0.954604
142	16    	0.954604	0  	0.954604	0.954604
143	16    	0.954604	0  	0.954604	0.954604
144	16    	0.954604	0  	0.954604	0.954604
145	16    	0.954604	0  	0.954604	0.954604
146	16    	0.954604	0  	0.954604	0.954604
147	16    	0.954604	0  	0.954604	0.954604
148	16    	0.954604	0  	0.954604	0.954604
149	16    	0.954604	0  	0.954604	0.954604
150	16    	0.954604	0  	0.954604	0.954604
151	16    	0.954604	0  	0.954604	0.954604
152	16    	0.954604	0  	0.954604	0.954604
153	16    	0.954604	0  	0.954604	0.954604
154	16    	0.954604	0  	0.954604	0.954604
155	16    	0.954604	0  	0.954604	0.954604
156	16    	0.954604	0  	0.954604	0.954604
157	16    	0.954604	0  	0.954604	0.954604
158	16    	0.954604	0  	0.954604	0.954604
159	16    	0.954604	0  	0.954604	0.954604
160	16    	0.955201	0  	0.955201	0.955201
161	16    	0.955201	0  	0.955201	0.955201
162	16    	0.955201	0  	0.955201	0.955201
163	16    	0.955201	0  	0.955201	0.955201
164	16    	0.955201	0  	0.955201	0.955201
165	16    	0.955201	0  	0.955201	0.955201
166	16    	0.955201	0  	0.955201	0.955201
167	16    	0.955201	0  	0.955201	0.955201
168	16    	0.955201	0  	0.955201	0.955201
169	16    	0.955201	0  	0.955201	0.955201
170	16    	0.955201	0  	0.955201	0.955201
171	16    	0.955201	0  	0.955201	0.955201
172	16    	0.955201	0  	0.955201	0.955201
173	16    	0.955201	0  	0.955201	0.955201
174	16    	0.955201	0  	0.955201	0.955201
175	16    	0.955201	0  	0.955201	0.955201
176	16    	0.955201	0  	0.955201	0.955201
177	16    	0.955201	0  	0.955201	0.955201
178	16    	0.955201	0  	0.955201	0.955201
179	16    	0.955201	0  	0.955201	0.955201
180	16    	0.955201	0  	0.955201	0.955201
181	16    	0.959821	0  	0.959821	0.959821
182	16    	0.959821	0  	0.959821	0.959821
183	16    	0.959821	0  	0.959821	0.959821
184	16    	0.959821	0  	0.959821	0.959821
185	16    	0.959821	0  	0.959821	0.959821
186	16    	0.959821	0  	0.959821	0.959821
187	16    	0.959821	0  	0.959821	0.959821
188	16    	0.959821	0  	0.959821	0.959821
189	16    	0.959821	0  	0.959821	0.959821
190	16    	0.959821	0  	0.959821	0.959821
191	16    	0.959821	0  	0.959821	0.959821
192	16    	0.959821	0  	0.959821	0.959821
193	16    	0.959821	0  	0.959821	0.959821
194	16    	0.959821	0  	0.959821	0.959821
195	16    	0.959821	0  	0.959821	0.959821
196	16    	0.959821	0  	0.959821	0.959821
197	16    	0.959821	0  	0.959821	0.959821
198	16    	0.959821	0  	0.959821	0.959821
199	16    	0.959821	0  	0.959821	0.959821
200	16    	0.959821	0  	0.959821	0.959821
201	16    	0.959821	0  	0.959821	0.959821
202	16    	0.959821	0  	0.959821	0.959821
203	16    	0.959821	0  	0.959821	0.959821
204	16    	0.959821	0  	0.959821	0.959821
205	16    	0.959821	0  	0.959821	0.959821
206	16    	0.959821	0  	0.959821	0.959821
207	16    	0.959821	0  	0.959821	0.959821
208	16    	0.959821	0  	0.959821	0.959821
209	16    	0.959821	0  	0.959821	0.959821
210	16    	0.959821	0  	0.959821	0.959821
211	16    	0.959821	0  	0.959821	0.959821
212	16    	0.959821	0  	0.959821	0.959821
213	16    	0.959821	0  	0.959821	0.959821
214	16    	0.959821	0  	0.959821	0.959821
215	16    	0.959821	0  	0.959821	0.959821
216	16    	0.959821	0  	0.959821	0.959821
217	16    	0.959821	0  	0.959821	0.959821
218	16    	0.959821	0  	0.959821	0.959821
219	16    	0.959821	0  	0.959821	0.959821
220	16    	0.959821	0  	0.959821	0.959821
221	16    	0.959821	0  	0.959821	0.959821
222	16    	0.959821	0  	0.959821	0.959821
223	16    	0.959821	0  	0.959821	0.959821
224	16    	0.959821	0  	0.959821	0.959821
225	16    	0.959821	0  	0.959821	0.959821
226	16    	0.959821	0  	0.959821	0.959821
227	16    	0.963862	0  	0.963862	0.963862
228	16    	0.963862	0  	0.963862	0.963862
229	16    	0.963862	0  	0.963862	0.963862
230	16    	0.963862	0  	0.963862	0.963862
231	16    	0.963862	0  	0.963862	0.963862
232	16    	0.963862	0  	0.963862	0.963862
233	16    	0.963862	0  	0.963862	0.963862
234	16    	0.963862	0  	0.963862	0.963862
235	16    	0.963862	0  	0.963862	0.963862
236	16    	0.963862	0  	0.963862	0.963862
237	16    	0.963862	0  	0.963862	0.963862
238	16    	0.963862	0  	0.963862	0.963862
239	16    	0.963862	0  	0.963862	0.963862
240	16    	0.963862	0  	0.963862	0.963862
241	16    	0.963862	0  	0.963862	0.963862
242	16    	0.963862	0  	0.963862	0.963862
243	16    	0.963862	0  	0.963862	0.963862
244	16    	0.963862	0  	0.963862	0.963862
245	16    	0.963862	0  	0.963862	0.963862
246	16    	0.963862	0  	0.963862	0.963862
247	16    	0.963862	0  	0.963862	0.963862
248	16    	0.963862	0  	0.963862	0.963862
249	16    	0.963862	0  	0.963862	0.963862
250	16    	0.963862	0  	0.963862	0.963862
251	16    	0.963862	0  	0.963862	0.963862
252	16    	0.963862	0  	0.963862	0.963862
253	16    	0.963862	0  	0.963862	0.963862
254	16    	0.963862	0  	0.963862	0.963862
255	16    	0.963862	0  	0.963862	0.963862
256	16    	0.963862	0  	0.963862	0.963862
257	16    	0.963862	0  	0.963862	0.963862
258	16    	0.963862	0  	0.963862	0.963862
259	16    	0.963862	0  	0.963862	0.963862
260	16    	0.963862	0  	0.963862	0.963862
261	16    	0.963862	0  	0.963862	0.963862
262	16    	0.963862	0  	0.963862	0.963862
263	16    	0.963862	0  	0.963862	0.963862
264	16    	0.963862	0  	0.963862	0.963862
265	16    	0.963862	0  	0.963862	0.963862
266	16    	0.963862	0  	0.963862	0.963862
267	16    	0.963862	0  	0.963862	0.963862
268	16    	0.963862	0  	0.963862	0.963862
269	16    	0.963862	0  	0.963862	0.963862
270	16    	0.963862	0  	0.963862	0.963862
271	16    	0.963862	0  	0.963862	0.963862
272	16    	0.963862	0  	0.963862	0.963862
273	16    	0.963862	0  	0.963862	0.963862
274	16    	0.963862	0  	0.963862	0.963862
275	16    	0.963862	0  	0.963862	0.963862
276	16    	0.963862	0  	0.963862	0.963862
277	16    	0.963862	0  	0.963862	0.963862
278	16    	0.963862	0  	0.963862	0.963862
279	16    	0.963862	0  	0.963862	0.963862
280	16    	0.963862	0  	0.963862	0.963862
281	16    	0.963862	0  	0.963862	0.963862
282	16    	0.963862	0  	0.963862	0.963862
283	16    	0.96514 	0  	0.96514 	0.96514 
284	16    	0.96514 	0  	0.96514 	0.96514 
285	16    	0.96514 	0  	0.96514 	0.96514 
286	16    	0.96514 	0  	0.96514 	0.96514 
287	16    	0.96514 	0  	0.96514 	0.96514 
288	16    	0.96514 	0  	0.96514 	0.96514 
289	16    	0.96514 	0  	0.96514 	0.96514 
290	16    	0.96514 	0  	0.96514 	0.96514 
291	16    	0.96514 	0  	0.96514 	0.96514 
292	16    	0.96514 	0  	0.96514 	0.96514 
293	16    	0.96514 	0  	0.96514 	0.96514 
294	16    	0.96514 	0  	0.96514 	0.96514 
295	16    	0.96514 	0  	0.96514 	0.96514 
296	16    	0.96514 	0  	0.96514 	0.96514 
297	16    	0.96514 	0  	0.96514 	0.96514 
298	16    	0.96514 	0  	0.96514 	0.96514 
299	16    	0.96514 	0  	0.96514 	0.96514 
300	16    	0.96768 	0  	0.96768 	0.96768 
301	16    	0.96768 	0  	0.96768 	0.96768 
302	16    	0.96768 	0  	0.96768 	0.96768 
303	16    	0.96768 	0  	0.96768 	0.96768 
304	16    	0.96768 	0  	0.96768 	0.96768 
305	16    	0.96768 	0  	0.96768 	0.96768 
306	16    	0.96768 	0  	0.96768 	0.96768 
307	16    	0.96768 	0  	0.96768 	0.96768 
308	16    	0.96768 	0  	0.96768 	0.96768 
309	16    	0.96768 	0  	0.96768 	0.96768 
310	16    	0.96768 	0  	0.96768 	0.96768 
311	16    	0.96768 	0  	0.96768 	0.96768 
312	16    	0.96768 	0  	0.96768 	0.96768 
313	16    	0.96768 	0  	0.96768 	0.96768 
314	16    	0.96768 	0  	0.96768 	0.96768 
315	16    	0.96768 	0  	0.96768 	0.96768 
316	16    	0.96768 	0  	0.96768 	0.96768 
317	16    	0.96768 	0  	0.96768 	0.96768 
318	16    	0.96768 	0  	0.96768 	0.96768 
319	16    	0.96768 	0  	0.96768 	0.96768 
320	16    	0.96768 	0  	0.96768 	0.96768 
321	16    	0.96768 	0  	0.96768 	0.96768 
322	16    	0.96768 	0  	0.96768 	0.96768 
323	16    	0.96768 	0  	0.96768 	0.96768 
324	16    	0.96768 	0  	0.96768 	0.96768 
325	16    	0.96768 	0  	0.96768 	0.96768 
326	16    	0.96768 	0  	0.96768 	0.96768 
327	16    	0.96768 	0  	0.96768 	0.96768 
328	16    	0.96768 	0  	0.96768 	0.96768 
329	16    	0.96768 	0  	0.96768 	0.96768 
330	16    	0.96768 	0  	0.96768 	0.96768 
331	16    	0.96768 	0  	0.96768 	0.96768 
332	16    	0.96768 	0  	0.96768 	0.96768 
333	16    	0.96768 	0  	0.96768 	0.96768 
334	16    	0.96768 	0  	0.96768 	0.96768 
335	16    	0.96768 	0  	0.96768 	0.96768 
336	16    	0.96768 	0  	0.96768 	0.96768 
337	16    	0.96768 	0  	0.96768 	0.96768 
338	16    	0.96768 	0  	0.96768 	0.96768 
339	16    	0.96768 	0  	0.96768 	0.96768 
340	16    	0.96768 	0  	0.96768 	0.96768 
341	16    	0.96768 	0  	0.96768 	0.96768 
342	16    	0.96768 	0  	0.96768 	0.96768 
343	16    	0.96768 	0  	0.96768 	0.96768 
344	16    	0.96768 	0  	0.96768 	0.96768 
345	16    	0.96768 	0  	0.96768 	0.96768 
346	16    	0.96768 	0  	0.96768 	0.96768 
347	16    	0.96768 	0  	0.96768 	0.96768 
348	16    	0.96768 	0  	0.96768 	0.96768 
349	16    	0.96768 	0  	0.96768 	0.96768 
350	16    	0.96768 	0  	0.96768 	0.96768 
351	16    	0.96768 	0  	0.96768 	0.96768 
352	16    	0.96768 	0  	0.96768 	0.96768 
353	16    	0.96768 	0  	0.96768 	0.96768 
354	16    	0.96768 	0  	0.96768 	0.96768 
355	16    	0.96768 	0  	0.96768 	0.96768 
356	16    	0.968243	0  	0.968243	0.968243
357	16    	0.968243	0  	0.968243	0.968243
358	16    	0.968243	0  	0.968243	0.968243
359	16    	0.968243	0  	0.968243	0.968243
360	16    	0.968243	0  	0.968243	0.968243
361	16    	0.968243	0  	0.968243	0.968243
362	16    	0.968243	0  	0.968243	0.968243
363	16    	0.968243	0  	0.968243	0.968243
364	16    	0.968243	0  	0.968243	0.968243
365	16    	0.968243	0  	0.968243	0.968243
366	16    	0.968243	0  	0.968243	0.968243
367	16    	0.968243	0  	0.968243	0.968243
368	16    	0.968243	0  	0.968243	0.968243
369	16    	0.968243	0  	0.968243	0.968243
370	16    	0.968243	0  	0.968243	0.968243
371	16    	0.968243	0  	0.968243	0.968243
372	16    	0.968243	0  	0.968243	0.968243
373	16    	0.968243	0  	0.968243	0.968243
374	16    	0.968243	0  	0.968243	0.968243
375	16    	0.968243	0  	0.968243	0.968243
376	16    	0.968243	0  	0.968243	0.968243
377	16    	0.968243	0  	0.968243	0.968243
378	16    	0.968243	0  	0.968243	0.968243
379	16    	0.968243	0  	0.968243	0.968243
380	16    	0.968243	0  	0.968243	0.968243
381	16    	0.968243	0  	0.968243	0.968243
382	16    	0.968243	0  	0.968243	0.968243
383	16    	0.968243	0  	0.968243	0.968243
384	16    	0.968243	0  	0.968243	0.968243
385	16    	0.968243	0  	0.968243	0.968243
386	16    	0.968243	0  	0.968243	0.968243
387	16    	0.968243	0  	0.968243	0.968243
388	16    	0.968243	0  	0.968243	0.968243
389	16    	0.968243	0  	0.968243	0.968243
390	16    	0.968243	0  	0.968243	0.968243
391	16    	0.968243	0  	0.968243	0.968243
392	16    	0.968243	0  	0.968243	0.968243
393	16    	0.968243	0  	0.968243	0.968243
394	16    	0.968243	0  	0.968243	0.968243
395	16    	0.968669	0  	0.968669	0.968669
396	16    	0.968669	0  	0.968669	0.968669
397	16    	0.968669	0  	0.968669	0.968669
398	16    	0.968669	0  	0.968669	0.968669
399	16    	0.968669	0  	0.968669	0.968669
400	16    	0.968669	0  	0.968669	0.968669
401	16    	0.968669	0  	0.968669	0.968669
402	16    	0.968669	0  	0.968669	0.968669
403	16    	0.968669	0  	0.968669	0.968669
404	16    	0.968669	0  	0.968669	0.968669
405	16    	0.968669	0  	0.968669	0.968669
406	16    	0.968669	0  	0.968669	0.968669
407	16    	0.968669	0  	0.968669	0.968669
408	16    	0.968669	0  	0.968669	0.968669
409	16    	0.968669	0  	0.968669	0.968669
410	16    	0.968669	0  	0.968669	0.968669
411	16    	0.968669	0  	0.968669	0.968669
412	16    	0.968669	0  	0.968669	0.968669
413	16    	0.968669	0  	0.968669	0.968669
414	16    	0.968669	0  	0.968669	0.968669
415	16    	0.968669	0  	0.968669	0.968669
416	16    	0.968669	0  	0.968669	0.968669
417	16    	0.968669	0  	0.968669	0.968669
418	16    	0.968669	0  	0.968669	0.968669
419	16    	0.970221	0  	0.970221	0.970221
420	16    	0.970221	0  	0.970221	0.970221
421	16    	0.970221	0  	0.970221	0.970221
422	16    	0.970221	0  	0.970221	0.970221
423	16    	0.970221	0  	0.970221	0.970221
424	16    	0.970221	0  	0.970221	0.970221
425	16    	0.970221	0  	0.970221	0.970221
426	16    	0.970221	0  	0.970221	0.970221
427	16    	0.970221	0  	0.970221	0.970221
428	16    	0.970221	0  	0.970221	0.970221
429	16    	0.970221	0  	0.970221	0.970221
430	16    	0.970221	0  	0.970221	0.970221
431	16    	0.970221	0  	0.970221	0.970221
432	16    	0.970221	0  	0.970221	0.970221
433	16    	0.970221	0  	0.970221	0.970221
434	16    	0.970221	0  	0.970221	0.970221
435	16    	0.970221	0  	0.970221	0.970221
436	16    	0.970221	0  	0.970221	0.970221
437	16    	0.970221	0  	0.970221	0.970221
438	16    	0.970221	0  	0.970221	0.970221
439	16    	0.970221	0  	0.970221	0.970221
440	16    	0.970221	0  	0.970221	0.970221
441	16    	0.970221	0  	0.970221	0.970221
442	16    	0.970221	0  	0.970221	0.970221
443	16    	0.970221	0  	0.970221	0.970221
444	16    	0.970221	0  	0.970221	0.970221
445	16    	0.970221	0  	0.970221	0.970221
446	16    	0.970221	0  	0.970221	0.970221
447	16    	0.970221	0  	0.970221	0.970221
448	16    	0.970221	0  	0.970221	0.970221
449	16    	0.970221	0  	0.970221	0.970221
450	16    	0.970221	0  	0.970221	0.970221
451	16    	0.970221	0  	0.970221	0.970221
452	16    	0.970221	0  	0.970221	0.970221
453	16    	0.971278	0  	0.971278	0.971278
454	16    	0.971278	0  	0.971278	0.971278
455	16    	0.971278	0  	0.971278	0.971278
456	16    	0.971278	0  	0.971278	0.971278
457	16    	0.971278	0  	0.971278	0.971278
458	16    	0.971278	0  	0.971278	0.971278
459	16    	0.971278	0  	0.971278	0.971278
460	16    	0.971278	0  	0.971278	0.971278
461	16    	0.971278	0  	0.971278	0.971278
462	16    	0.971278	0  	0.971278	0.971278
463	16    	0.971278	0  	0.971278	0.971278
464	16    	0.971278	0  	0.971278	0.971278
465	16    	0.971278	0  	0.971278	0.971278
466	16    	0.971278	0  	0.971278	0.971278
467	16    	0.971278	0  	0.971278	0.971278
468	16    	0.971278	0  	0.971278	0.971278
469	16    	0.971278	0  	0.971278	0.971278
470	16    	0.971278	0  	0.971278	0.971278
471	16    	0.971278	0  	0.971278	0.971278
472	16    	0.971278	0  	0.971278	0.971278
473	16    	0.971278	0  	0.971278	0.971278
474	16    	0.971278	0  	0.971278	0.971278
475	16    	0.971278	0  	0.971278	0.971278
476	16    	0.971278	0  	0.971278	0.971278
477	16    	0.971278	0  	0.971278	0.971278
478	16    	0.971278	0  	0.971278	0.971278
479	16    	0.971278	0  	0.971278	0.971278
480	16    	0.971278	0  	0.971278	0.971278
481	16    	0.971278	0  	0.971278	0.971278
482	16    	0.971278	0  	0.971278	0.971278
483	16    	0.971278	0  	0.971278	0.971278
484	16    	0.971278	0  	0.971278	0.971278
485	16    	0.971278	0  	0.971278	0.971278
486	16    	0.971278	0  	0.971278	0.971278
487	16    	0.971278	0  	0.971278	0.971278
488	16    	0.974773	0  	0.974773	0.974773
489	16    	0.974773	0  	0.974773	0.974773
490	16    	0.974773	0  	0.974773	0.974773
491	16    	0.974773	0  	0.974773	0.974773
492	16    	0.974773	0  	0.974773	0.974773
493	16    	0.974773	0  	0.974773	0.974773
494	16    	0.974773	0  	0.974773	0.974773
495	16    	0.974773	0  	0.974773	0.974773
496	16    	0.974773	0  	0.974773	0.974773
497	16    	0.974773	0  	0.974773	0.974773
498	16    	0.974773	0  	0.974773	0.974773
499	16    	0.976853	0  	0.976853	0.976853
500	16    	0.976853	0  	0.976853	0.976853
501	16    	0.976853	0  	0.976853	0.976853
502	16    	0.976853	0  	0.976853	0.976853
503	16    	0.976853	0  	0.976853	0.976853
504	16    	0.976853	0  	0.976853	0.976853
505	16    	0.976853	0  	0.976853	0.976853
506	16    	0.976853	0  	0.976853	0.976853
507	16    	0.976853	0  	0.976853	0.976853
508	16    	0.976853	0  	0.976853	0.976853
509	16    	0.976853	0  	0.976853	0.976853
510	16    	0.976853	0  	0.976853	0.976853
511	16    	0.976853	0  	0.976853	0.976853
512	16    	0.976853	0  	0.976853	0.976853
513	16    	0.976853	0  	0.976853	0.976853
514	16    	0.976853	0  	0.976853	0.976853
515	16    	0.976853	0  	0.976853	0.976853
516	16    	0.976853	0  	0.976853	0.976853
517	16    	0.976853	0  	0.976853	0.976853
518	16    	0.976853	0  	0.976853	0.976853
519	16    	0.976853	0  	0.976853	0.976853
520	16    	0.976853	0  	0.976853	0.976853
521	16    	0.976853	0  	0.976853	0.976853
522	16    	0.976853	0  	0.976853	0.976853
523	16    	0.976853	0  	0.976853	0.976853
524	16    	0.976853	0  	0.976853	0.976853
525	16    	0.976853	0  	0.976853	0.976853
526	16    	0.976853	0  	0.976853	0.976853
527	16    	0.976853	0  	0.976853	0.976853
528	16    	0.976853	0  	0.976853	0.976853
529	16    	0.976853	0  	0.976853	0.976853
530	16    	0.976853	0  	0.976853	0.976853
531	16    	0.976853	0  	0.976853	0.976853
532	16    	0.976853	0  	0.976853	0.976853
533	16    	0.976853	0  	0.976853	0.976853
534	16    	0.976853	0  	0.976853	0.976853
535	16    	0.976853	0  	0.976853	0.976853
536	16    	0.976955	0  	0.976955	0.976955
537	16    	0.976955	0  	0.976955	0.976955
538	16    	0.976955	0  	0.976955	0.976955
539	16    	0.976955	0  	0.976955	0.976955
540	16    	0.976955	0  	0.976955	0.976955
541	16    	0.976955	0  	0.976955	0.976955
542	16    	0.976955	0  	0.976955	0.976955
543	16    	0.976955	0  	0.976955	0.976955
544	16    	0.976955	0  	0.976955	0.976955
545	16    	0.976955	0  	0.976955	0.976955
546	16    	0.976955	0  	0.976955	0.976955
547	16    	0.976955	0  	0.976955	0.976955
548	16    	0.976955	0  	0.976955	0.976955
549	16    	0.976955	0  	0.976955	0.976955
550	16    	0.976955	0  	0.976955	0.976955
551	16    	0.976955	0  	0.976955	0.976955
552	16    	0.976955	0  	0.976955	0.976955
553	16    	0.976955	0  	0.976955	0.976955
554	16    	0.976955	0  	0.976955	0.976955
555	16    	0.976955	0  	0.976955	0.976955
556	16    	0.976955	0  	0.976955	0.976955
557	16    	0.976955	0  	0.976955	0.976955
558	16    	0.976955	0  	0.976955	0.976955
559	16    	0.976955	0  	0.976955	0.976955
560	16    	0.976955	0  	0.976955	0.976955
561	16    	0.976955	0  	0.976955	0.976955
562	16    	0.976955	0  	0.976955	0.976955
563	16    	0.976955	0  	0.976955	0.976955
564	16    	0.976955	0  	0.976955	0.976955
565	16    	0.976955	0  	0.976955	0.976955
566	16    	0.976955	0  	0.976955	0.976955
567	16    	0.976955	0  	0.976955	0.976955
568	16    	0.976955	0  	0.976955	0.976955
569	16    	0.976955	0  	0.976955	0.976955
570	16    	0.978967	0  	0.978967	0.978967
571	16    	0.978967	0  	0.978967	0.978967
572	16    	0.978967	0  	0.978967	0.978967
573	16    	0.978967	0  	0.978967	0.978967
574	16    	0.978967	0  	0.978967	0.978967
575	16    	0.978967	0  	0.978967	0.978967
576	16    	0.978967	0  	0.978967	0.978967
577	16    	0.978967	0  	0.978967	0.978967
578	16    	0.978967	0  	0.978967	0.978967
579	16    	0.978967	0  	0.978967	0.978967
580	16    	0.978967	0  	0.978967	0.978967
581	16    	0.978967	0  	0.978967	0.978967
582	16    	0.978967	0  	0.978967	0.978967
583	16    	0.978967	0  	0.978967	0.978967
584	16    	0.978967	0  	0.978967	0.978967
585	16    	0.978967	0  	0.978967	0.978967
586	16    	0.978967	0  	0.978967	0.978967
587	16    	0.980024	0  	0.980024	0.980024
588	16    	0.980024	0  	0.980024	0.980024
589	16    	0.980024	0  	0.980024	0.980024
590	16    	0.980024	0  	0.980024	0.980024
591	16    	0.980024	0  	0.980024	0.980024
592	16    	0.980024	0  	0.980024	0.980024
593	16    	0.980024	0  	0.980024	0.980024
594	16    	0.980024	0  	0.980024	0.980024
595	16    	0.980024	0  	0.980024	0.980024
596	16    	0.980024	0  	0.980024	0.980024
597	16    	0.980024	0  	0.980024	0.980024
598	16    	0.980024	0  	0.980024	0.980024
599	16    	0.982888	0  	0.982888	0.982888
600	16    	0.982888	0  	0.982888	0.982888
601	16    	0.982888	0  	0.982888	0.982888
602	16    	0.982888	0  	0.982888	0.982888
603	16    	0.982888	0  	0.982888	0.982888
604	16    	0.982888	0  	0.982888	0.982888
605	16    	0.982888	0  	0.982888	0.982888
606	16    	0.982888	0  	0.982888	0.982888
607	16    	0.982888	0  	0.982888	0.982888
608	16    	0.982888	0  	0.982888	0.982888
609	16    	0.982888	0  	0.982888	0.982888
610	16    	0.982888	0  	0.982888	0.982888
611	16    	0.982888	0  	0.982888	0.982888
612	16    	0.982888	0  	0.982888	0.982888
613	16    	0.982888	0  	0.982888	0.982888
614	16    	0.982888	0  	0.982888	0.982888
615	16    	0.982888	0  	0.982888	0.982888
616	16    	0.982888	0  	0.982888	0.982888
617	16    	0.982888	0  	0.982888	0.982888
618	16    	0.982888	0  	0.982888	0.982888
619	16    	0.982888	0  	0.982888	0.982888
620	16    	0.982888	0  	0.982888	0.982888
621	16    	0.982888	0  	0.982888	0.982888
622	16    	0.982888	0  	0.982888	0.982888
623	16    	0.982888	0  	0.982888	0.982888
624	16    	0.982888	0  	0.982888	0.982888
625	16    	0.982888	0  	0.982888	0.982888