gen	nevals	avg     	std	min     	max     
0  	1     	0.896965	0  	0.896965	0.896965
1  	16    	0.902044	0  	0.902044	0.902044
2  	16    	0.902044	0  	0.902044	0.902044
3  	16    	0.902044	0  	0.902044	0.902044
4  	16    	0.902044	0  	0.902044	0.902044
5  	16    	0.902044	0  	0.902044	0.902044
6  	16    	0.902916	0  	0.902916	0.902916
7  	16    	0.908925	0  	0.908925	0.908925
8  	16    	0.908925	0  	0.908925	0.908925
9  	16    	0.914999	0  	0.914999	0.914999
10 	16    	0.916079	0  	0.916079	0.916079
11 	16    	0.916079	0  	0.916079	0.916079
12 	16    	0.916079	0  	0.916079	0.916079
13 	16    	0.917139	0  	0.917139	0.917139
14 	16    	0.917139	0  	0.917139	0.917139
15 	16    	0.917139	0  	0.917139	0.917139
16 	16    	0.917139	0  	0.917139	0.917139
17 	16    	0.917139	0  	0.917139	0.917139
18 	16    	0.917139	0  	0.917139	0.917139
19 	16    	0.917139	0  	0.917139	0.917139
20 	16    	0.917139	0  	0.917139	0.917139
21 	16    	0.917139	0  	0.917139	0.917139
22 	16    	0.917139	0  	0.917139	0.917139
23 	16    	0.917139	0  	0.917139	0.917139
24 	16    	0.918114	0  	0.918114	0.918114
25 	16    	0.918114	0  	0.918114	0.918114
26 	16    	0.918114	0  	0.918114	0.918114
27 	16    	0.918114	0  	0.918114	0.918114
28 	16    	0.918114	0  	0.918114	0.918114
29 	16    	0.920592	0  	0.920592	0.920592
30 	16    	0.920592	0  	0.920592	0.920592
31 	16    	0.920592	0  	0.920592	0.920592
32 	16    	0.920592	0  	0.920592	0.920592
33 	16    	0.920703	0  	0.920703	0.920703
34 	16    	0.920703	0  	0.920703	0.920703
35 	16    	0.920703	0  	0.920703	0.920703
36 	16    	0.920703	0  	0.920703	0.920703
37 	16    	0.920703	0  	0.920703	0.920703
38 	16    	0.920703	0  	0.920703	0.920703
39 	16    	0.921138	0  	0.921138	0.921138
40 	16    	0.921138	0  	0.921138	0.921138
41 	16    	0.921197	0  	0.921197	0.921197
42 	16    	0.921197	0  	0.921197	0.921197
43 	16    	0.921197	0  	0.921197	0.921197
44 	16    	0.921197	0  	0.921197	0.921197
45 	16    	0.921197	0  	0.921197	0.921197
46 	16    	0.925496	0  	0.925496	0.925496
47 	16    	0.925496	0  	0.925496	0.925496
48 	16    	0.925496	0  	0.925496	0.925496
49 	16    	0.925496	0  	0.925496	0.925496
50 	16    	0.925496	0  	0.925496	0.925496
51 	16    	0.925496	0  	0.925496	0.925496
52 	16    	0.925496	0  	0.925496	0.925496
53 	16    	0.925496	0  	0.925496	0.925496
54 	16    	0.927122	0  	0.927122	0.927122
55 	16    	0.927122	0  	0.927122	0.927122
56 	16    	0.927122	0  	0.927122	0.927122
57 	16    	0.927122	0  	0.927122	0.927122
58 	16    	0.927122	0  	0.927122	0.927122
59 	16    	0.927122	0  	0.927122	0.927122
60 	16    	0.927122	0  	0.927122	0.927122
61 	16    	0.927122	0  	0.927122	0.927122
62 	16    	0.927122	0  	0.927122	0.927122
63 	16    	0.927122	0  	0.927122	0.927122
64 	16    	0.927122	0  	0.927122	0.927122
65 	16    	0.927122	0  	0.927122	0.927122
66 	16    	0.927122	0  	0.927122	0.927122
67 	16    	0.927122	0  	0.927122	0.927122
68 	16    	0.927922	0  	0.927922	0.927922
69 	16    	0.927922	0  	0.927922	0.927922
70 	16    	0.927922	0  	0.927922	0.927922
71 	16    	0.927922	0  	0.927922	0.927922
72 	16    	0.927922	0  	0.927922	0.927922
73 	16    	0.928442	0  	0.928442	0.928442
74 	16    	0.928442	0  	0.928442	0.928442
75 	16    	0.928442	0  	0.928442	0.928442
76 	16    	0.929053	0  	0.929053	0.929053
77 	16    	0.929053	0  	0.929053	0.929053
78 	16    	0.929053	0  	0.929053	0.929053
79 	16    	0.929053	0  	0.929053	0.929053
80 	16    	0.929053	0  	0.929053	0.929053
81 	16    	0.929801	0  	0.929801	0.929801
82 	16    	0.929801	0  	0.929801	0.929801
83 	16    	0.929801	0  	0.929801	0.929801
84 	16    	0.929801	0  	0.929801	0.929801
85 	16    	0.930471	0  	0.930471	0.930471
86 	16    	0.930471	0  	0.930471	0.930471
87 	16    	0.930471	0  	0.930471	0.930471
88 	16    	0.930471	0  	0.930471	0.930471
89 	16    	0.93358 	0  	0.93358 	0.93358 
90 	16    	0.93358 	0  	0.93358 	0.93358 
91 	16    	0.93358 	0  	0.93358 	0.93358 
92 	16    	0.93358 	0  	0.93358 	0.93358 
93 	16    	0.93358 	0  	0.93358 	0.93358 
94 	16    	0.93358 	0  	0.93358 	0.93358 
95 	16    	0.934054	0  	0.934054	0.934054
96 	16    	0.934054	0  	0.934054	0.934054
97 	16    	0.934054	0  	0.934054	0.934054
98 	16    	0.934054	0  	0.934054	0.934054
99 	16    	0.934054	0  	0.934054	0.934054
100	16    	0.934054	0  	0.934054	0.934054
101	16    	0.934054	0  	0.934054	0.934054
102	16    	0.934054	0  	0.934054	0.934054
103	16    	0.934054	0  	0.934054	0.934054
104	16    	0.934054	0  	0.934054	0.934054
105	16    	0.934054	0  	0.934054	0.934054
106	16    	0.934054	0  	0.934054	0.934054
107	16    	0.934054	0  	0.934054	0.934054
108	16    	0.934054	0  	0.934054	0.934054
109	16    	0.934054	0  	0.934054	0.934054
110	16    	0.934054	0  	0.934054	0.934054
111	16    	0.934054	0  	0.934054	0.934054
112	16    	0.934054	0  	0.934054	0.934054
113	16    	0.934054	0  	0.934054	0.934054
114	16    	0.934054	0  	0.934054	0.934054
115	16    	0.934054	0  	0.934054	0.934054
116	16    	0.934054	0  	0.934054	0.934054
117	16    	0.934054	0  	0.934054	0.934054
118	16    	0.934054	0  	0.934054	0.934054
119	16    	0.934054	0  	0.934054	0.934054
120	16    	0.934054	0  	0.934054	0.934054
121	16    	0.934054	0  	0.934054	0.934054
122	16    	0.934054	0  	0.934054	0.934054
123	16    	0.934054	0  	0.934054	0.934054
124	16    	0.934054	0  	0.934054	0.934054
125	16    	0.934054	0  	0.934054	0.934054
126	16    	0.934054	0  	0.934054	0.934054
127	16    	0.934054	0  	0.934054	0.934054
128	16    	0.934054	0  	0.934054	0.934054
129	16    	0.934145	0  	0.934145	0.934145
130	16    	0.934145	0  	0.934145	0.934145
131	16    	0.934145	0  	0.934145	0.934145
132	16    	0.934145	0  	0.934145	0.934145
133	16    	0.934145	0  	0.934145	0.934145
134	16    	0.934145	0  	0.934145	0.934145
135	16    	0.934822	0  	0.934822	0.934822
136	16    	0.934822	0  	0.934822	0.934822
137	16    	0.935687	0  	0.935687	0.935687
138	16    	0.935687	0  	0.935687	0.935687
139	16    	0.935687	0  	0.935687	0.935687
140	16    	0.935687	0  	0.935687	0.935687
141	16    	0.935687	0  	0.935687	0.935687
142	16    	0.935687	0  	0.935687	0.935687
143	16    	0.935687	0  	0.935687	0.935687
144	16    	0.935687	0  	0.935687	0.935687
145	16    	0.935687	0  	0.935687	0.935687
146	16    	0.935687	0  	0.935687	0.935687
147	16    	0.935687	0  	0.935687	0.935687
148	16    	0.935687	0  	0.935687	0.935687
149	16    	0.935687	0  	0.935687	0.935687
150	16    	0.935687	0  	0.935687	0.935687
151	16    	0.935687	0  	0.935687	0.935687
152	16    	0.935687	0  	0.935687	0.935687
153	16    	0.935687	0  	0.935687	0.935687
154	16    	0.935687	0  	0.935687	0.935687
155	16    	0.935687	0  	0.935687	0.935687
156	16    	0.935687	0  	0.935687	0.935687
157	16    	0.935687	0  	0.935687	0.935687
158	16    	0.935687	0  	0.935687	0.935687
159	16    	0.935687	0  	0.935687	0.935687
160	16    	0.935687	0  	0.935687	0.935687
161	16    	0.935687	0  	0.935687	0.935687
162	16    	0.935687	0  	0.935687	0.935687
163	16    	0.935687	0  	0.935687	0.935687
164	16    	0.935687	0  	0.935687	0.935687
165	16    	0.935687	0  	0.935687	0.935687
166	16    	0.937052	0  	0.937052	0.937052
167	16    	0.937052	0  	0.937052	0.937052
168	16    	0.937052	0  	0.937052	0.937052
169	16    	0.937052	0  	0.937052	0.937052
170	16    	0.937052	0  	0.937052	0.937052
171	16    	0.937052	0  	0.937052	0.937052
172	16    	0.937052	0  	0.937052	0.937052
173	16    	0.937052	0  	0.937052	0.937052
174	16    	0.937052	0  	0.937052	0.937052
175	16    	0.937052	0  	0.937052	0.937052
176	16    	0.937052	0  	0.937052	0.937052
177	16    	0.937052	0  	0.937052	0.937052
178	16    	0.937052	0  	0.937052	0.937052
179	16    	0.937052	0  	0.937052	0.937052
180	16    	0.937052	0  	0.937052	0.937052
181	16    	0.937052	0  	0.937052	0.937052
182	16    	0.937052	0  	0.937052	0.937052
183	16    	0.937052	0  	0.937052	0.937052
184	16    	0.937052	0  	0.937052	0.937052
185	16    	0.937052	0  	0.937052	0.937052
186	16    	0.937052	0  	0.937052	0.937052
187	16    	0.937052	0  	0.937052	0.937052
188	16    	0.937052	0  	0.937052	0.937052
189	16    	0.937052	0  	0.937052	0.937052
190	16    	0.937052	0  	0.937052	0.937052
191	16    	0.937052	0  	0.937052	0.937052
192	16    	0.937052	0  	0.937052	0.937052
193	16    	0.937052	0  	0.937052	0.937052
194	16    	0.937052	0  	0.937052	0.937052
195	16    	0.937052	0  	0.937052	0.937052
196	16    	0.937052	0  	0.937052	0.937052
197	16    	0.937052	0  	0.937052	0.937052
198	16    	0.937052	0  	0.937052	0.937052
199	16    	0.937052	0  	0.937052	0.937052
200	16    	0.937052	0  	0.937052	0.937052
201	16    	0.937052	0  	0.937052	0.937052
202	16    	0.937052	0  	0.937052	0.937052
203	16    	0.937052	0  	0.937052	0.937052
204	16    	0.937052	0  	0.937052	0.937052
205	16    	0.937052	0  	0.937052	0.937052
206	16    	0.937052	0  	0.937052	0.937052
207	16    	0.937052	0  	0.937052	0.937052
208	16    	0.937052	0  	0.937052	0.937052
209	16    	0.937716	0  	0.937716	0.937716
210	16    	0.937716	0  	0.937716	0.937716
211	16    	0.937716	0  	0.937716	0.937716
212	16    	0.937716	0  	0.937716	0.937716
213	16    	0.937716	0  	0.937716	0.937716
214	16    	0.937716	0  	0.937716	0.937716
215	16    	0.937716	0  	0.937716	0.937716
216	16    	0.937716	0  	0.937716	0.937716
217	16    	0.937716	0  	0.937716	0.937716
218	16    	0.937716	0  	0.937716	0.937716
219	16    	0.938366	0  	0.938366	0.938366
220	16    	0.938366	0  	0.938366	0.938366
221	16    	0.938366	0  	0.938366	0.938366
222	16    	0.938366	0  	0.938366	0.938366
223	16    	0.939218	0  	0.939218	0.939218
224	16    	0.939218	0  	0.939218	0.939218
225	16    	0.940024	0  	0.940024	0.940024
226	16    	0.940024	0  	0.940024	0.940024
227	16    	0.940024	0  	0.940024	0.940024
228	16    	0.940024	0  	0.940024	0.940024
229	16    	0.940024	0  	0.940024	0.940024
230	16    	0.940024	0  	0.940024	0.940024
231	16    	0.940024	0  	0.940024	0.940024
232	16    	0.940024	0  	0.940024	0.940024
233	16    	0.940024	0  	0.940024	0.940024
234	16    	0.940024	0  	0.940024	0.940024
235	16    	0.940024	0  	0.940024	0.940024
236	16    	0.941793	0  	0.941793	0.941793
237	16    	0.941793	0  	0.941793	0.941793
238	16    	0.946762	0  	0.946762	0.946762
239	16    	0.946762	0  	0.946762	0.946762
240	16    	0.946762	0  	0.946762	0.946762
241	16    	0.946762	0  	0.946762	0.946762
242	16    	0.946762	0  	0.946762	0.946762
243	16    	0.946762	0  	0.946762	0.946762
244	16    	0.946762	0  	0.946762	0.946762
245	16    	0.946762	0  	0.946762	0.946762
246	16    	0.946762	0  	0.946762	0.946762
247	16    	0.946762	0  	0.946762	0.946762
248	16    	0.946762	0  	0.946762	0.946762
249	16    	0.946762	0  	0.946762	0.946762
250	16    	0.946762	0  	0.946762	0.946762
251	16    	0.946762	0  	0.946762	0.946762
252	16    	0.946762	0  	0.946762	0.946762
253	16    	0.946762	0  	0.946762	0.946762
254	16    	0.946762	0  	0.946762	0.946762
255	16    	0.946762	0  	0.946762	0.946762
256	16    	0.946762	0  	0.946762	0.946762
257	16    	0.946762	0  	0.946762	0.946762
258	16    	0.946762	0  	0.946762	0.946762
259	16    	0.946762	0  	0.946762	0.946762
260	16    	0.946762	0  	0.946762	0.946762
261	16    	0.946762	0  	0.946762	0.946762
262	16    	0.946762	0  	0.946762	0.946762
263	16    	0.946762	0  	0.946762	0.946762
264	16    	0.946762	0  	0.946762	0.946762
265	16    	0.946762	0  	0.946762	0.946762
266	16    	0.946762	0  	0.946762	0.946762
267	16    	0.946762	0  	0.946762	0.946762
268	16    	0.946762	0  	0.946762	0.946762
269	16    	0.946762	0  	0.946762	0.946762
270	16    	0.946762	0  	0.946762	0.946762
271	16    	0.946762	0  	0.946762	0.946762
272	16    	0.946762	0  	0.946762	0.946762
273	16    	0.946762	0  	0.946762	0.946762
274	16    	0.946762	0  	0.946762	0.946762
275	16    	0.946762	0  	0.946762	0.946762
276	16    	0.946762	0  	0.946762	0.946762
277	16    	0.946762	0  	0.946762	0.946762
278	16    	0.946762	0  	0.946762	0.946762
279	16    	0.946762	0  	0.946762	0.946762
280	16    	0.946762	0  	0.946762	0.946762
281	16    	0.946762	0  	0.946762	0.946762
282	16    	0.946762	0  	0.946762	0.946762
283	16    	0.946762	0  	0.946762	0.946762
284	16    	0.946762	0  	0.946762	0.946762
285	16    	0.946762	0  	0.946762	0.946762
286	16    	0.946762	0  	0.946762	0.946762
287	16    	0.946762	0  	0.946762	0.946762
288	16    	0.946762	0  	0.946762	0.946762
289	16    	0.946762	0  	0.946762	0.946762
290	16    	0.946762	0  	0.946762	0.946762
291	16    	0.946762	0  	0.946762	0.946762
292	16    	0.946762	0  	0.946762	0.946762
293	16    	0.946762	0  	0.946762	0.946762
294	16    	0.946762	0  	0.946762	0.946762
295	16    	0.946762	0  	0.946762	0.946762
296	16    	0.946762	0  	0.946762	0.946762
297	16    	0.946762	0  	0.946762	0.946762
298	16    	0.946762	0  	0.946762	0.946762
299	16    	0.946762	0  	0.946762	0.946762
300	16    	0.946762	0  	0.946762	0.946762
301	16    	0.946762	0  	0.946762	0.946762
302	16    	0.946762	0  	0.946762	0.946762
303	16    	0.946762	0  	0.946762	0.946762
304	16    	0.946762	0  	0.946762	0.946762
305	16    	0.946762	0  	0.946762	0.946762
306	16    	0.946762	0  	0.946762	0.946762
307	16    	0.946762	0  	0.946762	0.946762
308	16    	0.946762	0  	0.946762	0.946762
309	16    	0.946762	0  	0.946762	0.946762
310	16    	0.946762	0  	0.946762	0.946762
311	16    	0.946762	0  	0.946762	0.946762
312	16    	0.946762	0  	0.946762	0.946762
313	16    	0.946762	0  	0.946762	0.946762
314	16    	0.946762	0  	0.946762	0.946762
315	16    	0.946762	0  	0.946762	0.946762
316	16    	0.946762	0  	0.946762	0.946762
317	16    	0.946762	0  	0.946762	0.946762
318	16    	0.946762	0  	0.946762	0.946762
319	16    	0.946762	0  	0.946762	0.946762
320	16    	0.946762	0  	0.946762	0.946762
321	16    	0.946762	0  	0.946762	0.946762
322	16    	0.946762	0  	0.946762	0.946762
323	16    	0.948719	0  	0.948719	0.948719
324	16    	0.948719	0  	0.948719	0.948719
325	16    	0.94909 	0  	0.94909 	0.94909 
326	16    	0.94909 	0  	0.94909 	0.94909 
327	16    	0.94909 	0  	0.94909 	0.94909 
328	16    	0.94909 	0  	0.94909 	0.94909 
329	16    	0.94909 	0  	0.94909 	0.94909 
330	16    	0.94909 	0  	0.94909 	0.94909 
331	16    	0.94909 	0  	0.94909 	0.94909 
332	16    	0.94909 	0  	0.94909 	0.94909 
333	16    	0.950885	0  	0.950885	0.950885
334	16    	0.950885	0  	0.950885	0.950885
335	16    	0.950885	0  	0.950885	0.950885
336	16    	0.950885	0  	0.950885	0.950885
337	16    	0.950885	0  	0.950885	0.950885
338	16    	0.950885	0  	0.950885	0.950885
339	16    	0.950885	0  	0.950885	0.950885
340	16    	0.950885	0  	0.950885	0.950885
341	16    	0.950885	0  	0.950885	0.950885
342	16    	0.950885	0  	0.950885	0.950885
343	16    	0.950983	0  	0.950983	0.950983
344	16    	0.950983	0  	0.950983	0.950983
345	16    	0.950983	0  	0.950983	0.950983
346	16    	0.950983	0  	0.950983	0.950983
347	16    	0.950983	0  	0.950983	0.950983
348	16    	0.950983	0  	0.950983	0.950983
349	16    	0.950983	0  	0.950983	0.950983
350	16    	0.950983	0  	0.950983	0.950983
351	16    	0.950983	0  	0.950983	0.950983
352	16    	0.950983	0  	0.950983	0.950983
353	16    	0.950983	0  	0.950983	0.950983
354	16    	0.950983	0  	0.950983	0.950983
355	16    	0.950983	0  	0.950983	0.950983
356	16    	0.950983	0  	0.950983	0.950983
357	16    	0.950983	0  	0.950983	0.950983
358	16    	0.950983	0  	0.950983	0.950983
359	16    	0.950983	0  	0.950983	0.950983
360	16    	0.950983	0  	0.950983	0.950983
361	16    	0.950983	0  	0.950983	0.950983
362	16    	0.950983	0  	0.950983	0.950983
363	16    	0.950983	0  	0.950983	0.950983
364	16    	0.950983	0  	0.950983	0.950983
365	16    	0.950983	0  	0.950983	0.950983
366	16    	0.950983	0  	0.950983	0.950983
367	16    	0.950983	0  	0.950983	0.950983
368	16    	0.950983	0  	0.950983	0.950983
369	16    	0.950983	0  	0.950983	0.950983
370	16    	0.950983	0  	0.950983	0.950983
371	16    	0.950983	0  	0.950983	0.950983
372	16    	0.950983	0  	0.950983	0.950983
373	16    	0.950983	0  	0.950983	0.950983
374	16    	0.950983	0  	0.950983	0.950983
375	16    	0.950983	0  	0.950983	0.950983
376	16    	0.950983	0  	0.950983	0.950983
377	16    	0.950983	0  	0.950983	0.950983
378	16    	0.950983	0  	0.950983	0.950983
379	16    	0.950983	0  	0.950983	0.950983
380	16    	0.950983	0  	0.950983	0.950983
381	16    	0.950983	0  	0.950983	0.950983
382	16    	0.953129	0  	0.953129	0.953129
383	16    	0.953129	0  	0.953129	0.953129
384	16    	0.953129	0  	0.953129	0.953129
385	16    	0.954651	0  	0.954651	0.954651
386	16    	0.954651	0  	0.954651	0.954651
387	16    	0.954651	0  	0.954651	0.954651
388	16    	0.954651	0  	0.954651	0.954651
389	16    	0.954651	0  	0.954651	0.954651
390	16    	0.954651	0  	0.954651	0.954651
391	16    	0.954651	0  	0.954651	0.954651
392	16    	0.954651	0  	0.954651	0.954651
393	16    	0.954651	0  	0.954651	0.954651
394	16    	0.954651	0  	0.954651	0.954651
395	16    	0.954651	0  	0.954651	0.954651
396	16    	0.954651	0  	0.954651	0.954651
397	16    	0.954651	0  	0.954651	0.954651
398	16    	0.954651	0  	0.954651	0.954651
399	16    	0.954651	0  	0.954651	0.954651
400	16    	0.954651	0  	0.954651	0.954651
401	16    	0.954651	0  	0.954651	0.954651
402	16    	0.954651	0  	0.954651	0.954651
403	16    	0.954651	0  	0.954651	0.954651
404	16    	0.954651	0  	0.954651	0.954651
405	16    	0.954651	0  	0.954651	0.954651
406	16    	0.954651	0  	0.954651	0.954651
407	16    	0.954651	0  	0.954651	0.954651
408	16    	0.954651	0  	0.954651	0.954651
409	16    	0.954651	0  	0.954651	0.954651
410	16    	0.954651	0  	0.954651	0.954651
411	16    	0.954651	0  	0.954651	0.954651
412	16    	0.954651	0  	0.954651	0.954651
413	16    	0.954651	0  	0.954651	0.954651
414	16    	0.954651	0  	0.954651	0.954651
415	16    	0.954651	0  	0.954651	0.954651
416	16    	0.954651	0  	0.954651	0.954651
417	16    	0.954651	0  	0.954651	0.954651
418	16    	0.954651	0  	0.954651	0.954651
419	16    	0.954651	0  	0.954651	0.954651
420	16    	0.954651	0  	0.954651	0.954651
421	16    	0.954651	0  	0.954651	0.954651
422	16    	0.954651	0  	0.954651	0.954651
423	16    	0.954651	0  	0.954651	0.954651
424	16    	0.954651	0  	0.954651	0.954651
425	16    	0.954651	0  	0.954651	0.954651
426	16    	0.954651	0  	0.954651	0.954651
427	16    	0.954651	0  	0.954651	0.954651
428	16    	0.954651	0  	0.954651	0.954651
429	16    	0.954651	0  	0.954651	0.954651
430	16    	0.954651	0  	0.954651	0.954651
431	16    	0.954651	0  	0.954651	0.954651
432	16    	0.954651	0  	0.954651	0.954651
433	16    	0.954651	0  	0.954651	0.954651
434	16    	0.954651	0  	0.954651	0.954651
435	16    	0.954651	0  	0.954651	0.954651
436	16    	0.954651	0  	0.954651	0.954651
437	16    	0.954651	0  	0.954651	0.954651
438	16    	0.956244	0  	0.956244	0.956244
439	16    	0.956244	0  	0.956244	0.956244
440	16    	0.956244	0  	0.956244	0.956244
441	16    	0.956244	0  	0.956244	0.956244
442	16    	0.956244	0  	0.956244	0.956244
443	16    	0.956244	0  	0.956244	0.956244
444	16    	0.956244	0  	0.956244	0.956244
445	16    	0.956244	0  	0.956244	0.956244
446	16    	0.956244	0  	0.956244	0.956244
447	16    	0.956244	0  	0.956244	0.956244
448	16    	0.956244	0  	0.956244	0.956244
449	16    	0.956244	0  	0.956244	0.956244
450	16    	0.956244	0  	0.956244	0.956244
451	16    	0.956244	0  	0.956244	0.956244
452	16    	0.956244	0  	0.956244	0.956244
453	16    	0.956244	0  	0.956244	0.956244
454	16    	0.956244	0  	0.956244	0.956244
455	16    	0.956244	0  	0.956244	0.956244
456	16    	0.956244	0  	0.956244	0.956244
457	16    	0.956244	0  	0.956244	0.956244
458	16    	0.956244	0  	0.956244	0.956244
459	16    	0.956244	0  	0.956244	0.956244
460	16    	0.956244	0  	0.956244	0.956244
461	16    	0.956244	0  	0.956244	0.956244
462	16    	0.956244	0  	0.956244	0.956244
463	16    	0.956244	0  	0.956244	0.956244
464	16    	0.956244	0  	0.956244	0.956244
465	16    	0.956244	0  	0.956244	0.956244
466	16    	0.956244	0  	0.956244	0.956244
467	16    	0.956244	0  	0.956244	0.956244
468	16    	0.956244	0  	0.956244	0.956244
469	16    	0.956244	0  	0.956244	0.956244
470	16    	0.956244	0  	0.956244	0.956244
471	16    	0.956244	0  	0.956244	0.956244
472	16    	0.956244	0  	0.956244	0.956244
473	16    	0.956244	0  	0.956244	0.956244
474	16    	0.956244	0  	0.956244	0.956244
475	16    	0.956244	0  	0.956244	0.956244
476	16    	0.956244	0  	0.956244	0.956244
477	16    	0.956244	0  	0.956244	0.956244
478	16    	0.956244	0  	0.956244	0.956244
479	16    	0.956244	0  	0.956244	0.956244
480	16    	0.956244	0  	0.956244	0.956244
481	16    	0.956244	0  	0.956244	0.956244
482	16    	0.956244	0  	0.956244	0.956244
483	16    	0.956244	0  	0.956244	0.956244
484	16    	0.956244	0  	0.956244	0.956244
485	16    	0.956244	0  	0.956244	0.956244
486	16    	0.956244	0  	0.956244	0.956244
487	16    	0.956244	0  	0.956244	0.956244
488	16    	0.956244	0  	0.956244	0.956244
489	16    	0.956244	0  	0.956244	0.956244
490	16    	0.956244	0  	0.956244	0.956244
491	16    	0.956244	0  	0.956244	0.956244
492	16    	0.956244	0  	0.956244	0.956244
493	16    	0.956244	0  	0.956244	0.956244
494	16    	0.956244	0  	0.956244	0.956244
495	16    	0.956244	0  	0.956244	0.956244
496	16    	0.956244	0  	0.956244	0.956244
497	16    	0.956244	0  	0.956244	0.956244
498	16    	0.956244	0  	0.956244	0.956244
499	16    	0.956244	0  	0.956244	0.956244
500	16    	0.956244	0  	0.956244	0.956244
501	16    	0.957226	0  	0.957226	0.957226
502	16    	0.957226	0  	0.957226	0.957226
503	16    	0.957226	0  	0.957226	0.957226
504	16    	0.957226	0  	0.957226	0.957226
505	16    	0.957226	0  	0.957226	0.957226
506	16    	0.957226	0  	0.957226	0.957226
507	16    	0.957226	0  	0.957226	0.957226
508	16    	0.957226	0  	0.957226	0.957226
509	16    	0.957226	0  	0.957226	0.957226
510	16    	0.957226	0  	0.957226	0.957226
511	16    	0.957226	0  	0.957226	0.957226
512	16    	0.957226	0  	0.957226	0.957226
513	16    	0.957226	0  	0.957226	0.957226
514	16    	0.957226	0  	0.957226	0.957226
515	16    	0.957226	0  	0.957226	0.957226
516	16    	0.957226	0  	0.957226	0.957226
517	16    	0.957226	0  	0.957226	0.957226
518	16    	0.957226	0  	0.957226	0.957226
519	16    	0.957226	0  	0.957226	0.957226
520	16    	0.957226	0  	0.957226	0.957226
521	16    	0.957226	0  	0.957226	0.957226
522	16    	0.957226	0  	0.957226	0.957226
523	16    	0.957226	0  	0.957226	0.957226
524	16    	0.957226	0  	0.957226	0.957226
525	16    	0.957226	0  	0.957226	0.957226
526	16    	0.957759	0  	0.957759	0.957759
527	16    	0.957759	0  	0.957759	0.957759
528	16    	0.957759	0  	0.957759	0.957759
529	16    	0.957759	0  	0.957759	0.957759
530	16    	0.957759	0  	0.957759	0.957759
531	16    	0.957759	0  	0.957759	0.957759
532	16    	0.957759	0  	0.957759	0.957759
533	16    	0.957759	0  	0.957759	0.957759
534	16    	0.957759	0  	0.957759	0.957759
535	16    	0.957759	0  	0.957759	0.957759
536	16    	0.957759	0  	0.957759	0.957759
537	16    	0.957759	0  	0.957759	0.957759
538	16    	0.957759	0  	0.957759	0.957759
539	16    	0.957759	0  	0.957759	0.957759
540	16    	0.957759	0  	0.957759	0.957759
541	16    	0.957759	0  	0.957759	0.957759
542	16    	0.957759	0  	0.957759	0.957759
543	16    	0.957759	0  	0.957759	0.957759
544	16    	0.957759	0  	0.957759	0.957759
545	16    	0.957759	0  	0.957759	0.957759
546	16    	0.957759	0  	0.957759	0.957759
547	16    	0.957759	0  	0.957759	0.957759
548	16    	0.957759	0  	0.957759	0.957759
549	16    	0.957759	0  	0.957759	0.957759
550	16    	0.957759	0  	0.957759	0.957759
551	16    	0.957759	0  	0.957759	0.957759
552	16    	0.957759	0  	0.957759	0.957759
553	16    	0.957759	0  	0.957759	0.957759
554	16    	0.957759	0  	0.957759	0.957759
555	16    	0.957759	0  	0.957759	0.957759
556	16    	0.957759	0  	0.957759	0.957759
557	16    	0.957759	0  	0.957759	0.957759
558	16    	0.957759	0  	0.957759	0.957759
559	16    	0.957759	0  	0.957759	0.957759
560	16    	0.957759	0  	0.957759	0.957759
561	16    	0.957759	0  	0.957759	0.957759
562	16    	0.957759	0  	0.957759	0.957759
563	16    	0.957759	0  	0.957759	0.957759
564	16    	0.957759	0  	0.957759	0.957759
565	16    	0.957759	0  	0.957759	0.957759
566	16    	0.957759	0  	0.957759	0.957759
567	16    	0.958013	0  	0.958013	0.958013
568	16    	0.958013	0  	0.958013	0.958013
569	16    	0.958689	0  	0.958689	0.958689
570	16    	0.958689	0  	0.958689	0.958689
571	16    	0.958689	0  	0.958689	0.958689
572	16    	0.958689	0  	0.958689	0.958689
573	16    	0.958936	0  	0.958936	0.958936
574	16    	0.958936	0  	0.958936	0.958936
575	16    	0.958936	0  	0.958936	0.958936
576	16    	0.958936	0  	0.958936	0.958936
577	16    	0.958936	0  	0.958936	0.958936
578	16    	0.958936	0  	0.958936	0.958936
579	16    	0.958936	0  	0.958936	0.958936
580	16    	0.958936	0  	0.958936	0.958936
581	16    	0.958936	0  	0.958936	0.958936
582	16    	0.958936	0  	0.958936	0.958936
583	16    	0.958936	0  	0.958936	0.958936
584	16    	0.958936	0  	0.958936	0.958936
585	16    	0.958936	0  	0.958936	0.958936
586	16    	0.958936	0  	0.958936	0.958936
587	16    	0.958936	0  	0.958936	0.958936
588	16    	0.958936	0  	0.958936	0.958936
589	16    	0.958936	0  	0.958936	0.958936
590	16    	0.958936	0  	0.958936	0.958936
591	16    	0.958936	0  	0.958936	0.958936
592	16    	0.958936	0  	0.958936	0.958936
593	16    	0.958936	0  	0.958936	0.958936
594	16    	0.958936	0  	0.958936	0.958936
595	16    	0.958936	0  	0.958936	0.958936
596	16    	0.958936	0  	0.958936	0.958936
597	16    	0.958936	0  	0.958936	0.958936
598	16    	0.958936	0  	0.958936	0.958936
599	16    	0.958936	0  	0.958936	0.958936
600	16    	0.958936	0  	0.958936	0.958936
601	16    	0.958936	0  	0.958936	0.958936
602	16    	0.958936	0  	0.958936	0.958936
603	16    	0.958936	0  	0.958936	0.958936
604	16    	0.958936	0  	0.958936	0.958936
605	16    	0.958936	0  	0.958936	0.958936
606	16    	0.958936	0  	0.958936	0.958936
607	16    	0.958936	0  	0.958936	0.958936
608	16    	0.958936	0  	0.958936	0.958936
609	16    	0.958936	0  	0.958936	0.958936
610	16    	0.958936	0  	0.958936	0.958936
611	16    	0.958936	0  	0.958936	0.958936
612	16    	0.958936	0  	0.958936	0.958936
613	16    	0.959353	0  	0.959353	0.959353
614	16    	0.959353	0  	0.959353	0.959353
615	16    	0.959353	0  	0.959353	0.959353
616	16    	0.959353	0  	0.959353	0.959353
617	16    	0.959353	0  	0.959353	0.959353
618	16    	0.959353	0  	0.959353	0.959353
619	16    	0.959353	0  	0.959353	0.959353
620	16    	0.959353	0  	0.959353	0.959353
621	16    	0.959353	0  	0.959353	0.959353
622	16    	0.959353	0  	0.959353	0.959353
623	16    	0.959353	0  	0.959353	0.959353
624	16    	0.959353	0  	0.959353	0.959353
625	16    	0.959353	0  	0.959353	0.959353