gen	nevals	avg     	std	min     	max     
0  	1     	0.844979	0  	0.844979	0.844979
1  	16    	0.846019	0  	0.846019	0.846019
2  	16    	0.846019	0  	0.846019	0.846019
3  	16    	0.847845	0  	0.847845	0.847845
4  	16    	0.848349	0  	0.848349	0.848349
5  	16    	0.848349	0  	0.848349	0.848349
6  	16    	0.848349	0  	0.848349	0.848349
7  	16    	0.848349	0  	0.848349	0.848349
8  	16    	0.848349	0  	0.848349	0.848349
9  	16    	0.848349	0  	0.848349	0.848349
10 	16    	0.848349	0  	0.848349	0.848349
11 	16    	0.848349	0  	0.848349	0.848349
12 	16    	0.848349	0  	0.848349	0.848349
13 	16    	0.848349	0  	0.848349	0.848349
14 	16    	0.848349	0  	0.848349	0.848349
15 	16    	0.848349	0  	0.848349	0.848349
16 	16    	0.848349	0  	0.848349	0.848349
17 	16    	0.848349	0  	0.848349	0.848349
18 	16    	0.848349	0  	0.848349	0.848349
19 	16    	0.849726	0  	0.849726	0.849726
20 	16    	0.849726	0  	0.849726	0.849726
21 	16    	0.849726	0  	0.849726	0.849726
22 	16    	0.850914	0  	0.850914	0.850914
23 	16    	0.850914	0  	0.850914	0.850914
24 	16    	0.852902	0  	0.852902	0.852902
25 	16    	0.852902	0  	0.852902	0.852902
26 	16    	0.854122	0  	0.854122	0.854122
27 	16    	0.858634	0  	0.858634	0.858634
28 	16    	0.858634	0  	0.858634	0.858634
29 	16    	0.858634	0  	0.858634	0.858634
30 	16    	0.858634	0  	0.858634	0.858634
31 	16    	0.859119	0  	0.859119	0.859119
32 	16    	0.859207	0  	0.859207	0.859207
33 	16    	0.859207	0  	0.859207	0.859207
34 	16    	0.859207	0  	0.859207	0.859207
35 	16    	0.859207	0  	0.859207	0.859207
36 	16    	0.859207	0  	0.859207	0.859207
37 	16    	0.860381	0  	0.860381	0.860381
38 	16    	0.860381	0  	0.860381	0.860381
39 	16    	0.860381	0  	0.860381	0.860381
40 	16    	0.860381	0  	0.860381	0.860381
41 	16    	0.860381	0  	0.860381	0.860381
42 	16    	0.860381	0  	0.860381	0.860381
43 	16    	0.860381	0  	0.860381	0.860381
44 	16    	0.860381	0  	0.860381	0.860381
45 	16    	0.860381	0  	0.860381	0.860381
46 	16    	0.86046 	0  	0.86046 	0.86046 
47 	16    	0.86046 	0  	0.86046 	0.86046 
48 	16    	0.864398	0  	0.864398	0.864398
49 	16    	0.864398	0  	0.864398	0.864398
50 	16    	0.864398	0  	0.864398	0.864398
51 	16    	0.864398	0  	0.864398	0.864398
52 	16    	0.864398	0  	0.864398	0.864398
53 	16    	0.864398	0  	0.864398	0.864398
54 	16    	0.864398	0  	0.864398	0.864398
55 	16    	0.864398	0  	0.864398	0.864398
56 	16    	0.865734	0  	0.865734	0.865734
57 	16    	0.86658 	0  	0.86658 	0.86658 
58 	16    	0.86671 	0  	0.86671 	0.86671 
59 	16    	0.86671 	0  	0.86671 	0.86671 
60 	16    	0.867875	0  	0.867875	0.867875
61 	16    	0.867875	0  	0.867875	0.867875
62 	16    	0.868147	0  	0.868147	0.868147
63 	16    	0.868147	0  	0.868147	0.868147
64 	16    	0.868147	0  	0.868147	0.868147
65 	16    	0.872211	0  	0.872211	0.872211
66 	16    	0.872211	0  	0.872211	0.872211
67 	16    	0.872211	0  	0.872211	0.872211
68 	16    	0.872211	0  	0.872211	0.872211
69 	16    	0.872211	0  	0.872211	0.872211
70 	16    	0.872211	0  	0.872211	0.872211
71 	16    	0.872211	0  	0.872211	0.872211
72 	16    	0.872211	0  	0.872211	0.872211
73 	16    	0.872211	0  	0.872211	0.872211
74 	16    	0.872211	0  	0.872211	0.872211
75 	16    	0.872211	0  	0.872211	0.872211
76 	16    	0.872211	0  	0.872211	0.872211
77 	16    	0.872211	0  	0.872211	0.872211
78 	16    	0.872211	0  	0.872211	0.872211
79 	16    	0.872211	0  	0.872211	0.872211
80 	16    	0.872211	0  	0.872211	0.872211
81 	16    	0.872211	0  	0.872211	0.872211
82 	16    	0.872211	0  	0.872211	0.872211
83 	16    	0.872211	0  	0.872211	0.872211
84 	16    	0.872368	0  	0.872368	0.872368
85 	16    	0.872368	0  	0.872368	0.872368
86 	16    	0.872368	0  	0.872368	0.872368
87 	16    	0.872368	0  	0.872368	0.872368
88 	16    	0.872368	0  	0.872368	0.872368
89 	16    	0.872368	0  	0.872368	0.872368
90 	16    	0.872368	0  	0.872368	0.872368
91 	16    	0.872368	0  	0.872368	0.872368
92 	16    	0.872368	0  	0.872368	0.872368
93 	16    	0.872368	0  	0.872368	0.872368
94 	16    	0.872368	0  	0.872368	0.872368
95 	16    	0.872368	0  	0.872368	0.872368
96 	16    	0.872368	0  	0.872368	0.872368
97 	16    	0.872368	0  	0.872368	0.872368
98 	16    	0.872368	0  	0.872368	0.872368
99 	16    	0.872368	0  	0.872368	0.872368
100	16    	0.872368	0  	0.872368	0.872368
101	16    	0.872368	0  	0.872368	0.872368
102	16    	0.872368	0  	0.872368	0.872368
103	16    	0.872368	0  	0.872368	0.872368
104	16    	0.872483	0  	0.872483	0.872483
105	16    	0.872483	0  	0.872483	0.872483
106	16    	0.872483	0  	0.872483	0.872483
107	16    	0.872483	0  	0.872483	0.872483
108	16    	0.874013	0  	0.874013	0.874013
109	16    	0.874707	0  	0.874707	0.874707
110	16    	0.878382	0  	0.878382	0.878382
111	16    	0.878382	0  	0.878382	0.878382
112	16    	0.878382	0  	0.878382	0.878382
113	16    	0.878382	0  	0.878382	0.878382
114	16    	0.878382	0  	0.878382	0.878382
115	16    	0.878382	0  	0.878382	0.878382
116	16    	0.878382	0  	0.878382	0.878382
117	16    	0.878382	0  	0.878382	0.878382
118	16    	0.878382	0  	0.878382	0.878382
119	16    	0.878382	0  	0.878382	0.878382
120	16    	0.878382	0  	0.878382	0.878382
121	16    	0.878382	0  	0.878382	0.878382
122	16    	0.878382	0  	0.878382	0.878382
123	16    	0.878382	0  	0.878382	0.878382
124	16    	0.878382	0  	0.878382	0.878382
125	16    	0.878382	0  	0.878382	0.878382
126	16    	0.878382	0  	0.878382	0.878382
127	16    	0.878382	0  	0.878382	0.878382
128	16    	0.878382	0  	0.878382	0.878382
129	16    	0.878382	0  	0.878382	0.878382
130	16    	0.878382	0  	0.878382	0.878382
131	16    	0.878382	0  	0.878382	0.878382
132	16    	0.878382	0  	0.878382	0.878382
133	16    	0.878382	0  	0.878382	0.878382
134	16    	0.878382	0  	0.878382	0.878382
135	16    	0.878382	0  	0.878382	0.878382
136	16    	0.878382	0  	0.878382	0.878382
137	16    	0.878382	0  	0.878382	0.878382
138	16    	0.878382	0  	0.878382	0.878382
139	16    	0.878382	0  	0.878382	0.878382
140	16    	0.878382	0  	0.878382	0.878382
141	16    	0.878382	0  	0.878382	0.878382
142	16    	0.878382	0  	0.878382	0.878382
143	16    	0.878382	0  	0.878382	0.878382
144	16    	0.878382	0  	0.878382	0.878382
145	16    	0.878382	0  	0.878382	0.878382
146	16    	0.878382	0  	0.878382	0.878382
147	16    	0.878382	0  	0.878382	0.878382
148	16    	0.878382	0  	0.878382	0.878382
149	16    	0.878382	0  	0.878382	0.878382
150	16    	0.878382	0  	0.878382	0.878382
151	16    	0.878382	0  	0.878382	0.878382
152	16    	0.878382	0  	0.878382	0.878382
153	16    	0.878382	0  	0.878382	0.878382
154	16    	0.878382	0  	0.878382	0.878382
155	16    	0.878382	0  	0.878382	0.878382
156	16    	0.878382	0  	0.878382	0.878382
157	16    	0.878382	0  	0.878382	0.878382
158	16    	0.878382	0  	0.878382	0.878382
159	16    	0.878382	0  	0.878382	0.878382
160	16    	0.878382	0  	0.878382	0.878382
161	16    	0.878382	0  	0.878382	0.878382
162	16    	0.878451	0  	0.878451	0.878451
163	16    	0.878451	0  	0.878451	0.878451
164	16    	0.878451	0  	0.878451	0.878451
165	16    	0.87853 	0  	0.87853 	0.87853 
166	16    	0.87853 	0  	0.87853 	0.87853 
167	16    	0.87853 	0  	0.87853 	0.87853 
168	16    	0.87853 	0  	0.87853 	0.87853 
169	16    	0.87853 	0  	0.87853 	0.87853 
170	16    	0.87853 	0  	0.87853 	0.87853 
171	16    	0.87853 	0  	0.87853 	0.87853 
172	16    	0.87853 	0  	0.87853 	0.87853 
173	16    	0.87853 	0  	0.87853 	0.87853 
174	16    	0.87853 	0  	0.87853 	0.87853 
175	16    	0.87853 	0  	0.87853 	0.87853 
176	16    	0.87853 	0  	0.87853 	0.87853 
177	16    	0.87853 	0  	0.87853 	0.87853 
178	16    	0.879593	0  	0.879593	0.879593
179	16    	0.879593	0  	0.879593	0.879593
180	16    	0.879593	0  	0.879593	0.879593
181	16    	0.879593	0  	0.879593	0.879593
182	16    	0.879593	0  	0.879593	0.879593
183	16    	0.879593	0  	0.879593	0.879593
184	16    	0.879593	0  	0.879593	0.879593
185	16    	0.879593	0  	0.879593	0.879593
186	16    	0.879593	0  	0.879593	0.879593
187	16    	0.879593	0  	0.879593	0.879593
188	16    	0.879593	0  	0.879593	0.879593
189	16    	0.879593	0  	0.879593	0.879593
190	16    	0.879593	0  	0.879593	0.879593
191	16    	0.879593	0  	0.879593	0.879593
192	16    	0.879593	0  	0.879593	0.879593
193	16    	0.883231	0  	0.883231	0.883231
194	16    	0.883231	0  	0.883231	0.883231
195	16    	0.883231	0  	0.883231	0.883231
196	16    	0.883231	0  	0.883231	0.883231
197	16    	0.883231	0  	0.883231	0.883231
198	16    	0.883231	0  	0.883231	0.883231
199	16    	0.883231	0  	0.883231	0.883231
200	16    	0.883231	0  	0.883231	0.883231
201	16    	0.883231	0  	0.883231	0.883231
202	16    	0.883231	0  	0.883231	0.883231
203	16    	0.883231	0  	0.883231	0.883231
204	16    	0.883231	0  	0.883231	0.883231
205	16    	0.883231	0  	0.883231	0.883231
206	16    	0.883231	0  	0.883231	0.883231
207	16    	0.883231	0  	0.883231	0.883231
208	16    	0.883231	0  	0.883231	0.883231
209	16    	0.883231	0  	0.883231	0.883231
210	16    	0.883231	0  	0.883231	0.883231
211	16    	0.883231	0  	0.883231	0.883231
212	16    	0.883231	0  	0.883231	0.883231
213	16    	0.883231	0  	0.883231	0.883231
214	16    	0.883231	0  	0.883231	0.883231
215	16    	0.883231	0  	0.883231	0.883231
216	16    	0.883231	0  	0.883231	0.883231
217	16    	0.883231	0  	0.883231	0.883231
218	16    	0.883231	0  	0.883231	0.883231
219	16    	0.883231	0  	0.883231	0.883231
220	16    	0.883231	0  	0.883231	0.883231
221	16    	0.883231	0  	0.883231	0.883231
222	16    	0.883231	0  	0.883231	0.883231
223	16    	0.883231	0  	0.883231	0.883231
224	16    	0.883231	0  	0.883231	0.883231
225	16    	0.883231	0  	0.883231	0.883231
226	16    	0.883231	0  	0.883231	0.883231
227	16    	0.883231	0  	0.883231	0.883231
228	16    	0.883231	0  	0.883231	0.883231
229	16    	0.883231	0  	0.883231	0.883231
230	16    	0.883231	0  	0.883231	0.883231
231	16    	0.883231	0  	0.883231	0.883231
232	16    	0.883231	0  	0.883231	0.883231
233	16    	0.883231	0  	0.883231	0.883231
234	16    	0.883231	0  	0.883231	0.883231
235	16    	0.883231	0  	0.883231	0.883231
236	16    	0.883231	0  	0.883231	0.883231
237	16    	0.883231	0  	0.883231	0.883231
238	16    	0.883231	0  	0.883231	0.883231
239	16    	0.883231	0  	0.883231	0.883231
240	16    	0.883231	0  	0.883231	0.883231
241	16    	0.883231	0  	0.883231	0.883231
242	16    	0.883231	0  	0.883231	0.883231
243	16    	0.883231	0  	0.883231	0.883231
244	16    	0.883231	0  	0.883231	0.883231
245	16    	0.883231	0  	0.883231	0.883231
246	16    	0.883231	0  	0.883231	0.883231
247	16    	0.883231	0  	0.883231	0.883231
248	16    	0.883231	0  	0.883231	0.883231
249	16    	0.883231	0  	0.883231	0.883231
250	16    	0.883231	0  	0.883231	0.883231
251	16    	0.883231	0  	0.883231	0.883231
252	16    	0.883231	0  	0.883231	0.883231
253	16    	0.883231	0  	0.883231	0.883231
254	16    	0.883231	0  	0.883231	0.883231
255	16    	0.883231	0  	0.883231	0.883231
256	16    	0.883231	0  	0.883231	0.883231
257	16    	0.883231	0  	0.883231	0.883231
258	16    	0.883231	0  	0.883231	0.883231
259	16    	0.883231	0  	0.883231	0.883231
260	16    	0.883231	0  	0.883231	0.883231
261	16    	0.883231	0  	0.883231	0.883231
262	16    	0.883231	0  	0.883231	0.883231
263	16    	0.883231	0  	0.883231	0.883231
264	16    	0.884285	0  	0.884285	0.884285
265	16    	0.884285	0  	0.884285	0.884285
266	16    	0.884285	0  	0.884285	0.884285
267	16    	0.884285	0  	0.884285	0.884285
268	16    	0.884636	0  	0.884636	0.884636
269	16    	0.884636	0  	0.884636	0.884636
270	16    	0.884636	0  	0.884636	0.884636
271	16    	0.884636	0  	0.884636	0.884636
272	16    	0.884636	0  	0.884636	0.884636
273	16    	0.884636	0  	0.884636	0.884636
274	16    	0.884636	0  	0.884636	0.884636
275	16    	0.884636	0  	0.884636	0.884636
276	16    	0.884636	0  	0.884636	0.884636
277	16    	0.884719	0  	0.884719	0.884719
278	16    	0.884719	0  	0.884719	0.884719
279	16    	0.884719	0  	0.884719	0.884719
280	16    	0.884719	0  	0.884719	0.884719
281	16    	0.884719	0  	0.884719	0.884719
282	16    	0.884719	0  	0.884719	0.884719
283	16    	0.884719	0  	0.884719	0.884719
284	16    	0.884719	0  	0.884719	0.884719
285	16    	0.884719	0  	0.884719	0.884719
286	16    	0.884719	0  	0.884719	0.884719
287	16    	0.884719	0  	0.884719	0.884719
288	16    	0.884719	0  	0.884719	0.884719
289	16    	0.884719	0  	0.884719	0.884719
290	16    	0.884719	0  	0.884719	0.884719
291	16    	0.884719	0  	0.884719	0.884719
292	16    	0.885598	0  	0.885598	0.885598
293	16    	0.885598	0  	0.885598	0.885598
294	16    	0.885598	0  	0.885598	0.885598
295	16    	0.885598	0  	0.885598	0.885598
296	16    	0.885598	0  	0.885598	0.885598
297	16    	0.885598	0  	0.885598	0.885598
298	16    	0.885598	0  	0.885598	0.885598
299	16    	0.885598	0  	0.885598	0.885598
300	16    	0.885598	0  	0.885598	0.885598
301	16    	0.885598	0  	0.885598	0.885598
302	16    	0.885598	0  	0.885598	0.885598
303	16    	0.885598	0  	0.885598	0.885598
304	16    	0.886199	0  	0.886199	0.886199
305	16    	0.886199	0  	0.886199	0.886199
306	16    	0.886199	0  	0.886199	0.886199
307	16    	0.886199	0  	0.886199	0.886199
308	16    	0.886199	0  	0.886199	0.886199
309	16    	0.886199	0  	0.886199	0.886199
310	16    	0.886199	0  	0.886199	0.886199
311	16    	0.886199	0  	0.886199	0.886199
312	16    	0.886199	0  	0.886199	0.886199
313	16    	0.886199	0  	0.886199	0.886199
314	16    	0.886199	0  	0.886199	0.886199
315	16    	0.886199	0  	0.886199	0.886199
316	16    	0.886199	0  	0.886199	0.886199
317	16    	0.886199	0  	0.886199	0.886199
318	16    	0.886199	0  	0.886199	0.886199
319	16    	0.886199	0  	0.886199	0.886199
320	16    	0.886199	0  	0.886199	0.886199
321	16    	0.886199	0  	0.886199	0.886199
322	16    	0.886199	0  	0.886199	0.886199
323	16    	0.886199	0  	0.886199	0.886199
324	16    	0.886199	0  	0.886199	0.886199
325	16    	0.886199	0  	0.886199	0.886199
326	16    	0.886199	0  	0.886199	0.886199
327	16    	0.886199	0  	0.886199	0.886199
328	16    	0.886199	0  	0.886199	0.886199
329	16    	0.886199	0  	0.886199	0.886199
330	16    	0.886199	0  	0.886199	0.886199
331	16    	0.886199	0  	0.886199	0.886199
332	16    	0.886199	0  	0.886199	0.886199
333	16    	0.886199	0  	0.886199	0.886199
334	16    	0.886199	0  	0.886199	0.886199
335	16    	0.886199	0  	0.886199	0.886199
336	16    	0.886199	0  	0.886199	0.886199
337	16    	0.886199	0  	0.886199	0.886199
338	16    	0.886199	0  	0.886199	0.886199
339	16    	0.886411	0  	0.886411	0.886411
340	16    	0.886411	0  	0.886411	0.886411
341	16    	0.886411	0  	0.886411	0.886411
342	16    	0.886411	0  	0.886411	0.886411
343	16    	0.886411	0  	0.886411	0.886411
344	16    	0.886411	0  	0.886411	0.886411
345	16    	0.886411	0  	0.886411	0.886411
346	16    	0.886411	0  	0.886411	0.886411
347	16    	0.886411	0  	0.886411	0.886411
348	16    	0.886411	0  	0.886411	0.886411
349	16    	0.886494	0  	0.886494	0.886494
350	16    	0.886494	0  	0.886494	0.886494
351	16    	0.886494	0  	0.886494	0.886494
352	16    	0.886494	0  	0.886494	0.886494
353	16    	0.886633	0  	0.886633	0.886633
354	16    	0.886633	0  	0.886633	0.886633
355	16    	0.886633	0  	0.886633	0.886633
356	16    	0.886633	0  	0.886633	0.886633
357	16    	0.886633	0  	0.886633	0.886633
358	16    	0.886633	0  	0.886633	0.886633
359	16    	0.886633	0  	0.886633	0.886633
360	16    	0.886633	0  	0.886633	0.886633
361	16    	0.886633	0  	0.886633	0.886633
362	16    	0.886633	0  	0.886633	0.886633
363	16    	0.886633	0  	0.886633	0.886633
364	16    	0.88789 	0  	0.88789 	0.88789 
365	16    	0.88789 	0  	0.88789 	0.88789 
366	16    	0.88789 	0  	0.88789 	0.88789 
367	16    	0.88789 	0  	0.88789 	0.88789 
368	16    	0.88789 	0  	0.88789 	0.88789 
369	16    	0.888246	0  	0.888246	0.888246
370	16    	0.888246	0  	0.888246	0.888246
371	16    	0.888246	0  	0.888246	0.888246
372	16    	0.888246	0  	0.888246	0.888246
373	16    	0.888246	0  	0.888246	0.888246
374	16    	0.888246	0  	0.888246	0.888246
375	16    	0.888246	0  	0.888246	0.888246
376	16    	0.888246	0  	0.888246	0.888246
377	16    	0.888246	0  	0.888246	0.888246
378	16    	0.888246	0  	0.888246	0.888246
379	16    	0.888246	0  	0.888246	0.888246
380	16    	0.889018	0  	0.889018	0.889018
381	16    	0.889018	0  	0.889018	0.889018
382	16    	0.889592	0  	0.889592	0.889592
383	16    	0.889592	0  	0.889592	0.889592
384	16    	0.889592	0  	0.889592	0.889592
385	16    	0.889592	0  	0.889592	0.889592
386	16    	0.889592	0  	0.889592	0.889592
387	16    	0.890932	0  	0.890932	0.890932
388	16    	0.890932	0  	0.890932	0.890932
389	16    	0.890932	0  	0.890932	0.890932
390	16    	0.890932	0  	0.890932	0.890932
391	16    	0.890932	0  	0.890932	0.890932
392	16    	0.890932	0  	0.890932	0.890932
393	16    	0.890932	0  	0.890932	0.890932
394	16    	0.890932	0  	0.890932	0.890932
395	16    	0.890932	0  	0.890932	0.890932
396	16    	0.890932	0  	0.890932	0.890932
397	16    	0.890932	0  	0.890932	0.890932
398	16    	0.890932	0  	0.890932	0.890932
399	16    	0.890932	0  	0.890932	0.890932
400	16    	0.890932	0  	0.890932	0.890932
401	16    	0.890932	0  	0.890932	0.890932
402	16    	0.890932	0  	0.890932	0.890932
403	16    	0.890932	0  	0.890932	0.890932
404	16    	0.890932	0  	0.890932	0.890932
405	16    	0.890932	0  	0.890932	0.890932
406	16    	0.890932	0  	0.890932	0.890932
407	16    	0.890932	0  	0.890932	0.890932
408	16    	0.890932	0  	0.890932	0.890932
409	16    	0.890932	0  	0.890932	0.890932
410	16    	0.890932	0  	0.890932	0.890932
411	16    	0.890932	0  	0.890932	0.890932
412	16    	0.890932	0  	0.890932	0.890932
413	16    	0.890932	0  	0.890932	0.890932
414	16    	0.890932	0  	0.890932	0.890932
415	16    	0.890932	0  	0.890932	0.890932
416	16    	0.890932	0  	0.890932	0.890932
417	16    	0.890932	0  	0.890932	0.890932
418	16    	0.890932	0  	0.890932	0.890932
419	16    	0.890932	0  	0.890932	0.890932
420	16    	0.890932	0  	0.890932	0.890932
421	16    	0.890932	0  	0.890932	0.890932
422	16    	0.890932	0  	0.890932	0.890932
423	16    	0.890932	0  	0.890932	0.890932
424	16    	0.890932	0  	0.890932	0.890932
425	16    	0.890932	0  	0.890932	0.890932
426	16    	0.890932	0  	0.890932	0.890932
427	16    	0.890932	0  	0.890932	0.890932
428	16    	0.890932	0  	0.890932	0.890932
429	16    	0.890932	0  	0.890932	0.890932
430	16    	0.890932	0  	0.890932	0.890932
431	16    	0.890932	0  	0.890932	0.890932
432	16    	0.890932	0  	0.890932	0.890932
433	16    	0.890932	0  	0.890932	0.890932
434	16    	0.890932	0  	0.890932	0.890932
435	16    	0.890932	0  	0.890932	0.890932
436	16    	0.890932	0  	0.890932	0.890932
437	16    	0.890932	0  	0.890932	0.890932
438	16    	0.891607	0  	0.891607	0.891607
439	16    	0.891607	0  	0.891607	0.891607
440	16    	0.891607	0  	0.891607	0.891607
441	16    	0.892009	0  	0.892009	0.892009
442	16    	0.892009	0  	0.892009	0.892009
443	16    	0.892009	0  	0.892009	0.892009
444	16    	0.892009	0  	0.892009	0.892009
445	16    	0.892009	0  	0.892009	0.892009
446	16    	0.892009	0  	0.892009	0.892009
447	16    	0.892009	0  	0.892009	0.892009
448	16    	0.892536	0  	0.892536	0.892536
449	16    	0.892536	0  	0.892536	0.892536
450	16    	0.892536	0  	0.892536	0.892536
451	16    	0.892536	0  	0.892536	0.892536
452	16    	0.892536	0  	0.892536	0.892536
453	16    	0.892536	0  	0.892536	0.892536
454	16    	0.892536	0  	0.892536	0.892536
455	16    	0.892536	0  	0.892536	0.892536
456	16    	0.895342	0  	0.895342	0.895342
457	16    	0.895342	0  	0.895342	0.895342
458	16    	0.895342	0  	0.895342	0.895342
459	16    	0.895342	0  	0.895342	0.895342
460	16    	0.895342	0  	0.895342	0.895342
461	16    	0.895342	0  	0.895342	0.895342
462	16    	0.895342	0  	0.895342	0.895342
463	16    	0.895342	0  	0.895342	0.895342
464	16    	0.895342	0  	0.895342	0.895342
465	16    	0.895342	0  	0.895342	0.895342
466	16    	0.895342	0  	0.895342	0.895342
467	16    	0.895342	0  	0.895342	0.895342
468	16    	0.895342	0  	0.895342	0.895342
469	16    	0.895342	0  	0.895342	0.895342
470	16    	0.895342	0  	0.895342	0.895342
471	16    	0.895342	0  	0.895342	0.895342
472	16    	0.895342	0  	0.895342	0.895342
473	16    	0.895342	0  	0.895342	0.895342
474	16    	0.895342	0  	0.895342	0.895342
475	16    	0.895342	0  	0.895342	0.895342
476	16    	0.895342	0  	0.895342	0.895342
477	16    	0.895342	0  	0.895342	0.895342
478	16    	0.895342	0  	0.895342	0.895342
479	16    	0.895342	0  	0.895342	0.895342
480	16    	0.895342	0  	0.895342	0.895342
481	16    	0.895342	0  	0.895342	0.895342
482	16    	0.895342	0  	0.895342	0.895342
483	16    	0.895342	0  	0.895342	0.895342
484	16    	0.895342	0  	0.895342	0.895342
485	16    	0.895342	0  	0.895342	0.895342
486	16    	0.895342	0  	0.895342	0.895342
487	16    	0.895342	0  	0.895342	0.895342
488	16    	0.895342	0  	0.895342	0.895342
489	16    	0.895342	0  	0.895342	0.895342
490	16    	0.895342	0  	0.895342	0.895342
491	16    	0.895342	0  	0.895342	0.895342
492	16    	0.895342	0  	0.895342	0.895342
493	16    	0.895342	0  	0.895342	0.895342
494	16    	0.895342	0  	0.895342	0.895342
495	16    	0.895342	0  	0.895342	0.895342
496	16    	0.895342	0  	0.895342	0.895342
497	16    	0.895342	0  	0.895342	0.895342
498	16    	0.895342	0  	0.895342	0.895342
499	16    	0.895342	0  	0.895342	0.895342
500	16    	0.895342	0  	0.895342	0.895342
501	16    	0.895342	0  	0.895342	0.895342
502	16    	0.895342	0  	0.895342	0.895342
503	16    	0.895342	0  	0.895342	0.895342
504	16    	0.895342	0  	0.895342	0.895342
505	16    	0.895342	0  	0.895342	0.895342
506	16    	0.895342	0  	0.895342	0.895342
507	16    	0.895342	0  	0.895342	0.895342
508	16    	0.895342	0  	0.895342	0.895342
509	16    	0.895342	0  	0.895342	0.895342
510	16    	0.895342	0  	0.895342	0.895342
511	16    	0.895342	0  	0.895342	0.895342
512	16    	0.895342	0  	0.895342	0.895342
513	16    	0.895342	0  	0.895342	0.895342
514	16    	0.895342	0  	0.895342	0.895342
515	16    	0.895342	0  	0.895342	0.895342
516	16    	0.895342	0  	0.895342	0.895342
517	16    	0.895342	0  	0.895342	0.895342
518	16    	0.895342	0  	0.895342	0.895342
519	16    	0.895342	0  	0.895342	0.895342
520	16    	0.895342	0  	0.895342	0.895342
521	16    	0.895342	0  	0.895342	0.895342
522	16    	0.895342	0  	0.895342	0.895342
523	16    	0.895342	0  	0.895342	0.895342
524	16    	0.895342	0  	0.895342	0.895342
525	16    	0.895342	0  	0.895342	0.895342
526	16    	0.895342	0  	0.895342	0.895342
527	16    	0.895342	0  	0.895342	0.895342
528	16    	0.895342	0  	0.895342	0.895342
529	16    	0.895342	0  	0.895342	0.895342
530	16    	0.895342	0  	0.895342	0.895342
531	16    	0.895342	0  	0.895342	0.895342
532	16    	0.895342	0  	0.895342	0.895342
533	16    	0.895342	0  	0.895342	0.895342
534	16    	0.895342	0  	0.895342	0.895342
535	16    	0.895342	0  	0.895342	0.895342
536	16    	0.895342	0  	0.895342	0.895342
537	16    	0.895342	0  	0.895342	0.895342
538	16    	0.895342	0  	0.895342	0.895342
539	16    	0.895342	0  	0.895342	0.895342
540	16    	0.895342	0  	0.895342	0.895342
541	16    	0.895342	0  	0.895342	0.895342
542	16    	0.895342	0  	0.895342	0.895342
543	16    	0.895342	0  	0.895342	0.895342
544	16    	0.895342	0  	0.895342	0.895342
545	16    	0.895342	0  	0.895342	0.895342
546	16    	0.895342	0  	0.895342	0.895342
547	16    	0.895342	0  	0.895342	0.895342
548	16    	0.895342	0  	0.895342	0.895342
549	16    	0.895342	0  	0.895342	0.895342
550	16    	0.895342	0  	0.895342	0.895342
551	16    	0.895342	0  	0.895342	0.895342
552	16    	0.895342	0  	0.895342	0.895342
553	16    	0.895342	0  	0.895342	0.895342
554	16    	0.895342	0  	0.895342	0.895342
555	16    	0.895342	0  	0.895342	0.895342
556	16    	0.895342	0  	0.895342	0.895342
557	16    	0.895342	0  	0.895342	0.895342
558	16    	0.895342	0  	0.895342	0.895342
559	16    	0.895342	0  	0.895342	0.895342
560	16    	0.895342	0  	0.895342	0.895342
561	16    	0.895342	0  	0.895342	0.895342
562	16    	0.895342	0  	0.895342	0.895342
563	16    	0.895342	0  	0.895342	0.895342
564	16    	0.895342	0  	0.895342	0.895342
565	16    	0.895342	0  	0.895342	0.895342
566	16    	0.895342	0  	0.895342	0.895342
567	16    	0.895342	0  	0.895342	0.895342
568	16    	0.895342	0  	0.895342	0.895342
569	16    	0.895342	0  	0.895342	0.895342
570	16    	0.895342	0  	0.895342	0.895342
571	16    	0.895342	0  	0.895342	0.895342
572	16    	0.895342	0  	0.895342	0.895342
573	16    	0.895342	0  	0.895342	0.895342
574	16    	0.895342	0  	0.895342	0.895342
575	16    	0.895342	0  	0.895342	0.895342
576	16    	0.895342	0  	0.895342	0.895342
577	16    	0.895458	0  	0.895458	0.895458
578	16    	0.895458	0  	0.895458	0.895458
579	16    	0.895458	0  	0.895458	0.895458
580	16    	0.895458	0  	0.895458	0.895458
581	16    	0.895458	0  	0.895458	0.895458
582	16    	0.895458	0  	0.895458	0.895458
583	16    	0.895458	0  	0.895458	0.895458
584	16    	0.895458	0  	0.895458	0.895458
585	16    	0.895458	0  	0.895458	0.895458
586	16    	0.895458	0  	0.895458	0.895458
587	16    	0.895458	0  	0.895458	0.895458
588	16    	0.895458	0  	0.895458	0.895458
589	16    	0.895458	0  	0.895458	0.895458
590	16    	0.895458	0  	0.895458	0.895458
591	16    	0.895458	0  	0.895458	0.895458
592	16    	0.895458	0  	0.895458	0.895458
593	16    	0.895458	0  	0.895458	0.895458
594	16    	0.895458	0  	0.895458	0.895458
595	16    	0.895458	0  	0.895458	0.895458
596	16    	0.895458	0  	0.895458	0.895458
597	16    	0.895458	0  	0.895458	0.895458
598	16    	0.895458	0  	0.895458	0.895458
599	16    	0.895458	0  	0.895458	0.895458
600	16    	0.895458	0  	0.895458	0.895458
601	16    	0.895458	0  	0.895458	0.895458
602	16    	0.895458	0  	0.895458	0.895458
603	16    	0.895458	0  	0.895458	0.895458
604	16    	0.895458	0  	0.895458	0.895458
605	16    	0.895458	0  	0.895458	0.895458
606	16    	0.895458	0  	0.895458	0.895458
607	16    	0.895458	0  	0.895458	0.895458
608	16    	0.895458	0  	0.895458	0.895458
609	16    	0.895458	0  	0.895458	0.895458
610	16    	0.895458	0  	0.895458	0.895458
611	16    	0.895458	0  	0.895458	0.895458
612	16    	0.895837	0  	0.895837	0.895837
613	16    	0.897247	0  	0.897247	0.897247
614	16    	0.897247	0  	0.897247	0.897247
615	16    	0.897247	0  	0.897247	0.897247
616	16    	0.897247	0  	0.897247	0.897247
617	16    	0.897247	0  	0.897247	0.897247
618	16    	0.897247	0  	0.897247	0.897247
619	16    	0.897247	0  	0.897247	0.897247
620	16    	0.897247	0  	0.897247	0.897247
621	16    	0.897247	0  	0.897247	0.897247
622	16    	0.897247	0  	0.897247	0.897247
623	16    	0.897247	0  	0.897247	0.897247
624	16    	0.897247	0  	0.897247	0.897247
625	16    	0.897247	0  	0.897247	0.897247