gen	nevals	avg     	std	min     	max     
0  	1     	0.640778	0  	0.640778	0.640778
1  	16    	0.678762	0  	0.678762	0.678762
2  	16    	0.678762	0  	0.678762	0.678762
3  	16    	0.678762	0  	0.678762	0.678762
4  	16    	0.678762	0  	0.678762	0.678762
5  	16    	0.723037	0  	0.723037	0.723037
6  	16    	0.723037	0  	0.723037	0.723037
7  	16    	0.723037	0  	0.723037	0.723037
8  	16    	0.74006 	0  	0.74006 	0.74006 
9  	16    	0.74006 	0  	0.74006 	0.74006 
10 	16    	0.74006 	0  	0.74006 	0.74006 
11 	16    	0.74006 	0  	0.74006 	0.74006 
12 	16    	0.74006 	0  	0.74006 	0.74006 
13 	16    	0.74006 	0  	0.74006 	0.74006 
14 	16    	0.74006 	0  	0.74006 	0.74006 
15 	16    	0.74006 	0  	0.74006 	0.74006 
16 	16    	0.74006 	0  	0.74006 	0.74006 
17 	16    	0.74006 	0  	0.74006 	0.74006 
18 	16    	0.74006 	0  	0.74006 	0.74006 
19 	16    	0.74006 	0  	0.74006 	0.74006 
20 	16    	0.74006 	0  	0.74006 	0.74006 
21 	16    	0.74006 	0  	0.74006 	0.74006 
22 	16    	0.74006 	0  	0.74006 	0.74006 
23 	16    	0.74006 	0  	0.74006 	0.74006 
24 	16    	0.74006 	0  	0.74006 	0.74006 
25 	16    	0.74006 	0  	0.74006 	0.74006 
26 	16    	0.74006 	0  	0.74006 	0.74006 
27 	16    	0.74006 	0  	0.74006 	0.74006 
28 	16    	0.74006 	0  	0.74006 	0.74006 
29 	16    	0.752193	0  	0.752193	0.752193
30 	16    	0.752193	0  	0.752193	0.752193
31 	16    	0.752193	0  	0.752193	0.752193
32 	16    	0.752193	0  	0.752193	0.752193
33 	16    	0.752193	0  	0.752193	0.752193
34 	16    	0.769034	0  	0.769034	0.769034
35 	16    	0.769034	0  	0.769034	0.769034
36 	16    	0.775825	0  	0.775825	0.775825
37 	16    	0.778586	0  	0.778586	0.778586
38 	16    	0.822862	0  	0.822862	0.822862
39 	16    	0.822862	0  	0.822862	0.822862
40 	16    	0.822862	0  	0.822862	0.822862
41 	16    	0.822862	0  	0.822862	0.822862
42 	16    	0.822862	0  	0.822862	0.822862
43 	16    	0.822862	0  	0.822862	0.822862
44 	16    	0.822862	0  	0.822862	0.822862
45 	16    	0.822862	0  	0.822862	0.822862
46 	16    	0.822862	0  	0.822862	0.822862
47 	16    	0.822862	0  	0.822862	0.822862
48 	16    	0.822862	0  	0.822862	0.822862
49 	16    	0.822862	0  	0.822862	0.822862
50 	16    	0.822862	0  	0.822862	0.822862
51 	16    	0.822862	0  	0.822862	0.822862
52 	16    	0.822862	0  	0.822862	0.822862
53 	16    	0.822862	0  	0.822862	0.822862
54 	16    	0.822862	0  	0.822862	0.822862
55 	16    	0.822862	0  	0.822862	0.822862
56 	16    	0.822862	0  	0.822862	0.822862
57 	16    	0.822862	0  	0.822862	0.822862
58 	16    	0.822862	0  	0.822862	0.822862
59 	16    	0.822862	0  	0.822862	0.822862
60 	16    	0.822862	0  	0.822862	0.822862
61 	16    	0.822862	0  	0.822862	0.822862
62 	16    	0.822862	0  	0.822862	0.822862
63 	16    	0.822862	0  	0.822862	0.822862
64 	16    	0.822862	0  	0.822862	0.822862
65 	16    	0.822862	0  	0.822862	0.822862
66 	16    	0.822862	0  	0.822862	0.822862
67 	16    	0.822862	0  	0.822862	0.822862
68 	16    	0.822862	0  	0.822862	0.822862
69 	16    	0.822862	0  	0.822862	0.822862
70 	16    	0.822862	0  	0.822862	0.822862
71 	16    	0.822862	0  	0.822862	0.822862
72 	16    	0.822862	0  	0.822862	0.822862
73 	16    	0.822862	0  	0.822862	0.822862
74 	16    	0.822862	0  	0.822862	0.822862
75 	16    	0.822862	0  	0.822862	0.822862
76 	16    	0.822862	0  	0.822862	0.822862
77 	16    	0.822862	0  	0.822862	0.822862
78 	16    	0.822862	0  	0.822862	0.822862
79 	16    	0.822862	0  	0.822862	0.822862
80 	16    	0.822862	0  	0.822862	0.822862
81 	16    	0.822862	0  	0.822862	0.822862
82 	16    	0.822862	0  	0.822862	0.822862
83 	16    	0.822862	0  	0.822862	0.822862
84 	16    	0.822862	0  	0.822862	0.822862
85 	16    	0.822862	0  	0.822862	0.822862
86 	16    	0.822862	0  	0.822862	0.822862
87 	16    	0.822862	0  	0.822862	0.822862
88 	16    	0.822862	0  	0.822862	0.822862
89 	16    	0.822862	0  	0.822862	0.822862
90 	16    	0.822862	0  	0.822862	0.822862
91 	16    	0.822862	0  	0.822862	0.822862
92 	16    	0.822862	0  	0.822862	0.822862
93 	16    	0.822862	0  	0.822862	0.822862
94 	16    	0.822862	0  	0.822862	0.822862
95 	16    	0.822862	0  	0.822862	0.822862
96 	16    	0.822862	0  	0.822862	0.822862
97 	16    	0.822862	0  	0.822862	0.822862
98 	16    	0.822862	0  	0.822862	0.822862
99 	16    	0.822862	0  	0.822862	0.822862
100	16    	0.822862	0  	0.822862	0.822862
101	16    	0.822862	0  	0.822862	0.822862
102	16    	0.822862	0  	0.822862	0.822862
103	16    	0.822862	0  	0.822862	0.822862
104	16    	0.822862	0  	0.822862	0.822862
105	16    	0.822862	0  	0.822862	0.822862
106	16    	0.822862	0  	0.822862	0.822862
107	16    	0.822862	0  	0.822862	0.822862
108	16    	0.822862	0  	0.822862	0.822862
109	16    	0.822862	0  	0.822862	0.822862
110	16    	0.822862	0  	0.822862	0.822862
111	16    	0.822862	0  	0.822862	0.822862
112	16    	0.822862	0  	0.822862	0.822862
113	16    	0.822862	0  	0.822862	0.822862
114	16    	0.822862	0  	0.822862	0.822862
115	16    	0.822862	0  	0.822862	0.822862
116	16    	0.822862	0  	0.822862	0.822862
117	16    	0.822862	0  	0.822862	0.822862
118	16    	0.822862	0  	0.822862	0.822862
119	16    	0.822862	0  	0.822862	0.822862
120	16    	0.822862	0  	0.822862	0.822862
121	16    	0.822862	0  	0.822862	0.822862
122	16    	0.822862	0  	0.822862	0.822862
123	16    	0.822862	0  	0.822862	0.822862
124	16    	0.822862	0  	0.822862	0.822862
125	16    	0.822862	0  	0.822862	0.822862
126	16    	0.822862	0  	0.822862	0.822862
127	16    	0.822862	0  	0.822862	0.822862
128	16    	0.822862	0  	0.822862	0.822862
129	16    	0.822862	0  	0.822862	0.822862
130	16    	0.822862	0  	0.822862	0.822862
131	16    	0.822862	0  	0.822862	0.822862
132	16    	0.822862	0  	0.822862	0.822862
133	16    	0.822862	0  	0.822862	0.822862
134	16    	0.822862	0  	0.822862	0.822862
135	16    	0.822862	0  	0.822862	0.822862
136	16    	0.822862	0  	0.822862	0.822862
137	16    	0.822862	0  	0.822862	0.822862
138	16    	0.822862	0  	0.822862	0.822862
139	16    	0.822862	0  	0.822862	0.822862
140	16    	0.822862	0  	0.822862	0.822862
141	16    	0.822862	0  	0.822862	0.822862
142	16    	0.822862	0  	0.822862	0.822862
143	16    	0.822862	0  	0.822862	0.822862
144	16    	0.822862	0  	0.822862	0.822862
145	16    	0.822862	0  	0.822862	0.822862
146	16    	0.822862	0  	0.822862	0.822862
147	16    	0.822862	0  	0.822862	0.822862
148	16    	0.822862	0  	0.822862	0.822862
149	16    	0.822862	0  	0.822862	0.822862
150	16    	0.822862	0  	0.822862	0.822862
151	16    	0.822862	0  	0.822862	0.822862
152	16    	0.822862	0  	0.822862	0.822862
153	16    	0.822862	0  	0.822862	0.822862
154	16    	0.822862	0  	0.822862	0.822862
155	16    	0.822862	0  	0.822862	0.822862
156	16    	0.822862	0  	0.822862	0.822862
157	16    	0.822862	0  	0.822862	0.822862
158	16    	0.822862	0  	0.822862	0.822862
159	16    	0.822862	0  	0.822862	0.822862
160	16    	0.822862	0  	0.822862	0.822862
161	16    	0.822862	0  	0.822862	0.822862
162	16    	0.822862	0  	0.822862	0.822862
163	16    	0.822862	0  	0.822862	0.822862
164	16    	0.822862	0  	0.822862	0.822862
165	16    	0.822862	0  	0.822862	0.822862
166	16    	0.822862	0  	0.822862	0.822862
167	16    	0.822862	0  	0.822862	0.822862
168	16    	0.822862	0  	0.822862	0.822862
169	16    	0.822862	0  	0.822862	0.822862
170	16    	0.822862	0  	0.822862	0.822862
171	16    	0.822862	0  	0.822862	0.822862
172	16    	0.822862	0  	0.822862	0.822862
173	16    	0.822862	0  	0.822862	0.822862
174	16    	0.822862	0  	0.822862	0.822862
175	16    	0.822862	0  	0.822862	0.822862
176	16    	0.822862	0  	0.822862	0.822862
177	16    	0.822862	0  	0.822862	0.822862
178	16    	0.822862	0  	0.822862	0.822862
179	16    	0.822862	0  	0.822862	0.822862
180	16    	0.822862	0  	0.822862	0.822862
181	16    	0.822862	0  	0.822862	0.822862
182	16    	0.822862	0  	0.822862	0.822862
183	16    	0.822862	0  	0.822862	0.822862
184	16    	0.822862	0  	0.822862	0.822862
185	16    	0.822862	0  	0.822862	0.822862
186	16    	0.822862	0  	0.822862	0.822862
187	16    	0.822862	0  	0.822862	0.822862
188	16    	0.822862	0  	0.822862	0.822862
189	16    	0.822862	0  	0.822862	0.822862
190	16    	0.822862	0  	0.822862	0.822862
191	16    	0.822862	0  	0.822862	0.822862
192	16    	0.822862	0  	0.822862	0.822862
193	16    	0.822862	0  	0.822862	0.822862
194	16    	0.822862	0  	0.822862	0.822862
195	16    	0.822862	0  	0.822862	0.822862
196	16    	0.822862	0  	0.822862	0.822862
197	16    	0.822862	0  	0.822862	0.822862
198	16    	0.822862	0  	0.822862	0.822862
199	16    	0.822862	0  	0.822862	0.822862
200	16    	0.822862	0  	0.822862	0.822862
201	16    	0.822862	0  	0.822862	0.822862
202	16    	0.822862	0  	0.822862	0.822862
203	16    	0.822862	0  	0.822862	0.822862
204	16    	0.822862	0  	0.822862	0.822862
205	16    	0.822862	0  	0.822862	0.822862
206	16    	0.822862	0  	0.822862	0.822862
207	16    	0.822862	0  	0.822862	0.822862
208	16    	0.822862	0  	0.822862	0.822862
209	16    	0.822862	0  	0.822862	0.822862
210	16    	0.822862	0  	0.822862	0.822862
211	16    	0.822862	0  	0.822862	0.822862
212	16    	0.822862	0  	0.822862	0.822862
213	16    	0.822862	0  	0.822862	0.822862
214	16    	0.822862	0  	0.822862	0.822862
215	16    	0.822862	0  	0.822862	0.822862
216	16    	0.822862	0  	0.822862	0.822862
217	16    	0.822862	0  	0.822862	0.822862
218	16    	0.822862	0  	0.822862	0.822862
219	16    	0.822862	0  	0.822862	0.822862
220	16    	0.822862	0  	0.822862	0.822862
221	16    	0.822862	0  	0.822862	0.822862
222	16    	0.822862	0  	0.822862	0.822862
223	16    	0.822862	0  	0.822862	0.822862
224	16    	0.822862	0  	0.822862	0.822862
225	16    	0.822862	0  	0.822862	0.822862
226	16    	0.822862	0  	0.822862	0.822862
227	16    	0.822862	0  	0.822862	0.822862
228	16    	0.822862	0  	0.822862	0.822862
229	16    	0.822862	0  	0.822862	0.822862
230	16    	0.822862	0  	0.822862	0.822862
231	16    	0.822862	0  	0.822862	0.822862
232	16    	0.822862	0  	0.822862	0.822862
233	16    	0.822862	0  	0.822862	0.822862
234	16    	0.822862	0  	0.822862	0.822862
235	16    	0.822862	0  	0.822862	0.822862
236	16    	0.822862	0  	0.822862	0.822862
237	16    	0.822862	0  	0.822862	0.822862
238	16    	0.822862	0  	0.822862	0.822862
239	16    	0.822862	0  	0.822862	0.822862
240	16    	0.822862	0  	0.822862	0.822862
241	16    	0.822862	0  	0.822862	0.822862
242	16    	0.822862	0  	0.822862	0.822862
243	16    	0.822862	0  	0.822862	0.822862
244	16    	0.822862	0  	0.822862	0.822862
245	16    	0.822862	0  	0.822862	0.822862
246	16    	0.822862	0  	0.822862	0.822862
247	16    	0.822862	0  	0.822862	0.822862
248	16    	0.822862	0  	0.822862	0.822862
249	16    	0.822862	0  	0.822862	0.822862
250	16    	0.822862	0  	0.822862	0.822862
251	16    	0.822862	0  	0.822862	0.822862
252	16    	0.822862	0  	0.822862	0.822862
253	16    	0.822862	0  	0.822862	0.822862
254	16    	0.822862	0  	0.822862	0.822862
255	16    	0.822862	0  	0.822862	0.822862
256	16    	0.822862	0  	0.822862	0.822862
257	16    	0.822862	0  	0.822862	0.822862
258	16    	0.822862	0  	0.822862	0.822862
259	16    	0.822862	0  	0.822862	0.822862
260	16    	0.822862	0  	0.822862	0.822862
261	16    	0.822862	0  	0.822862	0.822862
262	16    	0.822862	0  	0.822862	0.822862
263	16    	0.831645	0  	0.831645	0.831645
264	16    	0.831645	0  	0.831645	0.831645
265	16    	0.831645	0  	0.831645	0.831645
266	16    	0.831645	0  	0.831645	0.831645
267	16    	0.831645	0  	0.831645	0.831645
268	16    	0.831645	0  	0.831645	0.831645
269	16    	0.831645	0  	0.831645	0.831645
270	16    	0.831645	0  	0.831645	0.831645
271	16    	0.831645	0  	0.831645	0.831645
272	16    	0.831645	0  	0.831645	0.831645
273	16    	0.831645	0  	0.831645	0.831645
274	16    	0.831645	0  	0.831645	0.831645
275	16    	0.831645	0  	0.831645	0.831645
276	16    	0.831645	0  	0.831645	0.831645
277	16    	0.831645	0  	0.831645	0.831645
278	16    	0.831645	0  	0.831645	0.831645
279	16    	0.831645	0  	0.831645	0.831645
280	16    	0.831645	0  	0.831645	0.831645
281	16    	0.831645	0  	0.831645	0.831645
282	16    	0.831645	0  	0.831645	0.831645
283	16    	0.831645	0  	0.831645	0.831645
284	16    	0.831645	0  	0.831645	0.831645
285	16    	0.831645	0  	0.831645	0.831645
286	16    	0.831645	0  	0.831645	0.831645
287	16    	0.831645	0  	0.831645	0.831645
288	16    	0.831645	0  	0.831645	0.831645
289	16    	0.831645	0  	0.831645	0.831645
290	16    	0.831645	0  	0.831645	0.831645
291	16    	0.831645	0  	0.831645	0.831645
292	16    	0.831645	0  	0.831645	0.831645
293	16    	0.831645	0  	0.831645	0.831645
294	16    	0.831645	0  	0.831645	0.831645
295	16    	0.831645	0  	0.831645	0.831645
296	16    	0.831645	0  	0.831645	0.831645
297	16    	0.831645	0  	0.831645	0.831645
298	16    	0.831645	0  	0.831645	0.831645
299	16    	0.831645	0  	0.831645	0.831645
300	16    	0.831645	0  	0.831645	0.831645
301	16    	0.831645	0  	0.831645	0.831645
302	16    	0.831645	0  	0.831645	0.831645
303	16    	0.831645	0  	0.831645	0.831645
304	16    	0.831645	0  	0.831645	0.831645
305	16    	0.831645	0  	0.831645	0.831645
306	16    	0.831645	0  	0.831645	0.831645
307	16    	0.831645	0  	0.831645	0.831645
308	16    	0.831645	0  	0.831645	0.831645
309	16    	0.831645	0  	0.831645	0.831645
310	16    	0.831645	0  	0.831645	0.831645
311	16    	0.831645	0  	0.831645	0.831645
312	16    	0.831645	0  	0.831645	0.831645
313	16    	0.831645	0  	0.831645	0.831645
314	16    	0.831645	0  	0.831645	0.831645
315	16    	0.831645	0  	0.831645	0.831645
316	16    	0.831645	0  	0.831645	0.831645
317	16    	0.831645	0  	0.831645	0.831645
318	16    	0.831645	0  	0.831645	0.831645
319	16    	0.831645	0  	0.831645	0.831645
320	16    	0.831645	0  	0.831645	0.831645
321	16    	0.831645	0  	0.831645	0.831645
322	16    	0.831645	0  	0.831645	0.831645
323	16    	0.831645	0  	0.831645	0.831645
324	16    	0.831645	0  	0.831645	0.831645
325	16    	0.831645	0  	0.831645	0.831645
326	16    	0.831645	0  	0.831645	0.831645
327	16    	0.831645	0  	0.831645	0.831645
328	16    	0.831645	0  	0.831645	0.831645
329	16    	0.831645	0  	0.831645	0.831645
330	16    	0.831645	0  	0.831645	0.831645
331	16    	0.831645	0  	0.831645	0.831645
332	16    	0.831645	0  	0.831645	0.831645
333	16    	0.831645	0  	0.831645	0.831645
334	16    	0.831645	0  	0.831645	0.831645
335	16    	0.831645	0  	0.831645	0.831645
336	16    	0.831645	0  	0.831645	0.831645
337	16    	0.831645	0  	0.831645	0.831645
338	16    	0.831645	0  	0.831645	0.831645
339	16    	0.831645	0  	0.831645	0.831645
340	16    	0.831645	0  	0.831645	0.831645
341	16    	0.831645	0  	0.831645	0.831645
342	16    	0.831645	0  	0.831645	0.831645
343	16    	0.831645	0  	0.831645	0.831645
344	16    	0.831645	0  	0.831645	0.831645
345	16    	0.831645	0  	0.831645	0.831645
346	16    	0.831645	0  	0.831645	0.831645
347	16    	0.831645	0  	0.831645	0.831645
348	16    	0.831645	0  	0.831645	0.831645
349	16    	0.831645	0  	0.831645	0.831645
350	16    	0.831645	0  	0.831645	0.831645
351	16    	0.831645	0  	0.831645	0.831645
352	16    	0.831645	0  	0.831645	0.831645
353	16    	0.831645	0  	0.831645	0.831645
354	16    	0.831645	0  	0.831645	0.831645
355	16    	0.831645	0  	0.831645	0.831645
356	16    	0.831645	0  	0.831645	0.831645
357	16    	0.831645	0  	0.831645	0.831645
358	16    	0.831645	0  	0.831645	0.831645
359	16    	0.831645	0  	0.831645	0.831645
360	16    	0.831645	0  	0.831645	0.831645
361	16    	0.831645	0  	0.831645	0.831645
362	16    	0.831645	0  	0.831645	0.831645
363	16    	0.831645	0  	0.831645	0.831645
364	16    	0.831645	0  	0.831645	0.831645
365	16    	0.831645	0  	0.831645	0.831645
366	16    	0.831645	0  	0.831645	0.831645
367	16    	0.831645	0  	0.831645	0.831645
368	16    	0.831645	0  	0.831645	0.831645
369	16    	0.831645	0  	0.831645	0.831645
370	16    	0.831645	0  	0.831645	0.831645
371	16    	0.831645	0  	0.831645	0.831645
372	16    	0.831645	0  	0.831645	0.831645
373	16    	0.831645	0  	0.831645	0.831645
374	16    	0.831645	0  	0.831645	0.831645
375	16    	0.831645	0  	0.831645	0.831645
376	16    	0.831645	0  	0.831645	0.831645
377	16    	0.831645	0  	0.831645	0.831645
378	16    	0.831645	0  	0.831645	0.831645
379	16    	0.831645	0  	0.831645	0.831645
380	16    	0.831645	0  	0.831645	0.831645
381	16    	0.831645	0  	0.831645	0.831645
382	16    	0.831645	0  	0.831645	0.831645
383	16    	0.831645	0  	0.831645	0.831645
384	16    	0.831645	0  	0.831645	0.831645
385	16    	0.831645	0  	0.831645	0.831645
386	16    	0.831645	0  	0.831645	0.831645
387	16    	0.831645	0  	0.831645	0.831645
388	16    	0.831645	0  	0.831645	0.831645
389	16    	0.831645	0  	0.831645	0.831645
390	16    	0.831645	0  	0.831645	0.831645
391	16    	0.831645	0  	0.831645	0.831645
392	16    	0.831645	0  	0.831645	0.831645
393	16    	0.831645	0  	0.831645	0.831645
394	16    	0.831645	0  	0.831645	0.831645
395	16    	0.831645	0  	0.831645	0.831645
396	16    	0.831645	0  	0.831645	0.831645
397	16    	0.831645	0  	0.831645	0.831645
398	16    	0.831645	0  	0.831645	0.831645
399	16    	0.831645	0  	0.831645	0.831645
400	16    	0.831645	0  	0.831645	0.831645
401	16    	0.831645	0  	0.831645	0.831645
402	16    	0.831645	0  	0.831645	0.831645
403	16    	0.831645	0  	0.831645	0.831645
404	16    	0.831645	0  	0.831645	0.831645
405	16    	0.831645	0  	0.831645	0.831645
406	16    	0.831645	0  	0.831645	0.831645
407	16    	0.831645	0  	0.831645	0.831645
408	16    	0.831645	0  	0.831645	0.831645
409	16    	0.831645	0  	0.831645	0.831645
410	16    	0.831645	0  	0.831645	0.831645
411	16    	0.831645	0  	0.831645	0.831645
412	16    	0.831645	0  	0.831645	0.831645
413	16    	0.831645	0  	0.831645	0.831645
414	16    	0.831645	0  	0.831645	0.831645
415	16    	0.831645	0  	0.831645	0.831645
416	16    	0.831645	0  	0.831645	0.831645
417	16    	0.831645	0  	0.831645	0.831645
418	16    	0.831645	0  	0.831645	0.831645
419	16    	0.831645	0  	0.831645	0.831645
420	16    	0.831645	0  	0.831645	0.831645
421	16    	0.831645	0  	0.831645	0.831645
422	16    	0.831645	0  	0.831645	0.831645
423	16    	0.831645	0  	0.831645	0.831645
424	16    	0.831645	0  	0.831645	0.831645
425	16    	0.831645	0  	0.831645	0.831645
426	16    	0.831645	0  	0.831645	0.831645
427	16    	0.831645	0  	0.831645	0.831645
428	16    	0.831645	0  	0.831645	0.831645
429	16    	0.831645	0  	0.831645	0.831645
430	16    	0.831645	0  	0.831645	0.831645
431	16    	0.831645	0  	0.831645	0.831645
432	16    	0.831645	0  	0.831645	0.831645
433	16    	0.831645	0  	0.831645	0.831645
434	16    	0.831645	0  	0.831645	0.831645
435	16    	0.831645	0  	0.831645	0.831645
436	16    	0.831645	0  	0.831645	0.831645
437	16    	0.831645	0  	0.831645	0.831645
438	16    	0.831645	0  	0.831645	0.831645
439	16    	0.831645	0  	0.831645	0.831645
440	16    	0.831645	0  	0.831645	0.831645
441	16    	0.831645	0  	0.831645	0.831645
442	16    	0.831645	0  	0.831645	0.831645
443	16    	0.831645	0  	0.831645	0.831645
444	16    	0.831645	0  	0.831645	0.831645
445	16    	0.831645	0  	0.831645	0.831645
446	16    	0.831645	0  	0.831645	0.831645
447	16    	0.831645	0  	0.831645	0.831645
448	16    	0.831645	0  	0.831645	0.831645
449	16    	0.831645	0  	0.831645	0.831645
450	16    	0.831645	0  	0.831645	0.831645
451	16    	0.831645	0  	0.831645	0.831645
452	16    	0.831645	0  	0.831645	0.831645
453	16    	0.831645	0  	0.831645	0.831645
454	16    	0.831645	0  	0.831645	0.831645
455	16    	0.831735	0  	0.831735	0.831735
456	16    	0.831735	0  	0.831735	0.831735
457	16    	0.831735	0  	0.831735	0.831735
458	16    	0.831735	0  	0.831735	0.831735
459	16    	0.831735	0  	0.831735	0.831735
460	16    	0.831735	0  	0.831735	0.831735
461	16    	0.831735	0  	0.831735	0.831735
462	16    	0.831735	0  	0.831735	0.831735
463	16    	0.831735	0  	0.831735	0.831735
464	16    	0.831735	0  	0.831735	0.831735
465	16    	0.831735	0  	0.831735	0.831735
466	16    	0.831735	0  	0.831735	0.831735
467	16    	0.831735	0  	0.831735	0.831735
468	16    	0.831735	0  	0.831735	0.831735
469	16    	0.831735	0  	0.831735	0.831735
470	16    	0.831735	0  	0.831735	0.831735
471	16    	0.831735	0  	0.831735	0.831735
472	16    	0.831735	0  	0.831735	0.831735
473	16    	0.831735	0  	0.831735	0.831735
474	16    	0.831735	0  	0.831735	0.831735
475	16    	0.831735	0  	0.831735	0.831735
476	16    	0.831735	0  	0.831735	0.831735
477	16    	0.831735	0  	0.831735	0.831735
478	16    	0.831735	0  	0.831735	0.831735
479	16    	0.832369	0  	0.832369	0.832369
480	16    	0.832369	0  	0.832369	0.832369
481	16    	0.832369	0  	0.832369	0.832369
482	16    	0.832369	0  	0.832369	0.832369
483	16    	0.832369	0  	0.832369	0.832369
484	16    	0.832369	0  	0.832369	0.832369
485	16    	0.832369	0  	0.832369	0.832369
486	16    	0.832369	0  	0.832369	0.832369
487	16    	0.832369	0  	0.832369	0.832369
488	16    	0.832369	0  	0.832369	0.832369
489	16    	0.832369	0  	0.832369	0.832369
490	16    	0.832369	0  	0.832369	0.832369
491	16    	0.832369	0  	0.832369	0.832369
492	16    	0.832369	0  	0.832369	0.832369
493	16    	0.832369	0  	0.832369	0.832369
494	16    	0.832369	0  	0.832369	0.832369
495	16    	0.832369	0  	0.832369	0.832369
496	16    	0.832369	0  	0.832369	0.832369
497	16    	0.832369	0  	0.832369	0.832369
498	16    	0.832369	0  	0.832369	0.832369
499	16    	0.832369	0  	0.832369	0.832369
500	16    	0.832369	0  	0.832369	0.832369
501	16    	0.832369	0  	0.832369	0.832369
502	16    	0.832369	0  	0.832369	0.832369
503	16    	0.832369	0  	0.832369	0.832369
504	16    	0.832369	0  	0.832369	0.832369
505	16    	0.832369	0  	0.832369	0.832369
506	16    	0.832369	0  	0.832369	0.832369
507	16    	0.832369	0  	0.832369	0.832369
508	16    	0.832369	0  	0.832369	0.832369
509	16    	0.832369	0  	0.832369	0.832369
510	16    	0.832369	0  	0.832369	0.832369
511	16    	0.832369	0  	0.832369	0.832369
512	16    	0.832369	0  	0.832369	0.832369
513	16    	0.832369	0  	0.832369	0.832369
514	16    	0.832369	0  	0.832369	0.832369
515	16    	0.832369	0  	0.832369	0.832369
516	16    	0.832369	0  	0.832369	0.832369
517	16    	0.832369	0  	0.832369	0.832369
518	16    	0.832369	0  	0.832369	0.832369
519	16    	0.832369	0  	0.832369	0.832369
520	16    	0.832369	0  	0.832369	0.832369
521	16    	0.832369	0  	0.832369	0.832369
522	16    	0.832369	0  	0.832369	0.832369
523	16    	0.832369	0  	0.832369	0.832369
524	16    	0.832369	0  	0.832369	0.832369
525	16    	0.832369	0  	0.832369	0.832369
526	16    	0.832369	0  	0.832369	0.832369
527	16    	0.832369	0  	0.832369	0.832369
528	16    	0.832369	0  	0.832369	0.832369
529	16    	0.832369	0  	0.832369	0.832369
530	16    	0.832369	0  	0.832369	0.832369
531	16    	0.832369	0  	0.832369	0.832369
532	16    	0.832369	0  	0.832369	0.832369
533	16    	0.832369	0  	0.832369	0.832369
534	16    	0.832369	0  	0.832369	0.832369
535	16    	0.832369	0  	0.832369	0.832369
536	16    	0.832369	0  	0.832369	0.832369
537	16    	0.832369	0  	0.832369	0.832369
538	16    	0.832369	0  	0.832369	0.832369
539	16    	0.832369	0  	0.832369	0.832369
540	16    	0.832369	0  	0.832369	0.832369
541	16    	0.832369	0  	0.832369	0.832369
542	16    	0.832369	0  	0.832369	0.832369
543	16    	0.832369	0  	0.832369	0.832369
544	16    	0.832369	0  	0.832369	0.832369
545	16    	0.832369	0  	0.832369	0.832369
546	16    	0.832369	0  	0.832369	0.832369
547	16    	0.832369	0  	0.832369	0.832369
548	16    	0.832369	0  	0.832369	0.832369
549	16    	0.832369	0  	0.832369	0.832369
550	16    	0.832369	0  	0.832369	0.832369
551	16    	0.832369	0  	0.832369	0.832369
552	16    	0.832369	0  	0.832369	0.832369
553	16    	0.832369	0  	0.832369	0.832369
554	16    	0.832369	0  	0.832369	0.832369
555	16    	0.832369	0  	0.832369	0.832369
556	16    	0.832369	0  	0.832369	0.832369
557	16    	0.832369	0  	0.832369	0.832369
558	16    	0.832369	0  	0.832369	0.832369
559	16    	0.832369	0  	0.832369	0.832369
560	16    	0.832369	0  	0.832369	0.832369
561	16    	0.832369	0  	0.832369	0.832369
562	16    	0.832369	0  	0.832369	0.832369
563	16    	0.832369	0  	0.832369	0.832369
564	16    	0.832369	0  	0.832369	0.832369
565	16    	0.832369	0  	0.832369	0.832369
566	16    	0.832369	0  	0.832369	0.832369
567	16    	0.832369	0  	0.832369	0.832369
568	16    	0.832369	0  	0.832369	0.832369
569	16    	0.832369	0  	0.832369	0.832369
570	16    	0.832369	0  	0.832369	0.832369
571	16    	0.832369	0  	0.832369	0.832369
572	16    	0.832369	0  	0.832369	0.832369
573	16    	0.832369	0  	0.832369	0.832369
574	16    	0.832369	0  	0.832369	0.832369
575	16    	0.832369	0  	0.832369	0.832369
576	16    	0.832369	0  	0.832369	0.832369
577	16    	0.832369	0  	0.832369	0.832369
578	16    	0.832369	0  	0.832369	0.832369
579	16    	0.832369	0  	0.832369	0.832369
580	16    	0.832369	0  	0.832369	0.832369
581	16    	0.832369	0  	0.832369	0.832369
582	16    	0.832369	0  	0.832369	0.832369
583	16    	0.832369	0  	0.832369	0.832369
584	16    	0.832369	0  	0.832369	0.832369
585	16    	0.832369	0  	0.832369	0.832369
586	16    	0.832369	0  	0.832369	0.832369
587	16    	0.832369	0  	0.832369	0.832369
588	16    	0.832369	0  	0.832369	0.832369
589	16    	0.832369	0  	0.832369	0.832369
590	16    	0.832369	0  	0.832369	0.832369
591	16    	0.832369	0  	0.832369	0.832369
592	16    	0.832369	0  	0.832369	0.832369
593	16    	0.832369	0  	0.832369	0.832369
594	16    	0.832369	0  	0.832369	0.832369
595	16    	0.832369	0  	0.832369	0.832369
596	16    	0.832369	0  	0.832369	0.832369
597	16    	0.832369	0  	0.832369	0.832369
598	16    	0.832369	0  	0.832369	0.832369
599	16    	0.832369	0  	0.832369	0.832369
600	16    	0.832369	0  	0.832369	0.832369
601	16    	0.832369	0  	0.832369	0.832369
602	16    	0.832369	0  	0.832369	0.832369
603	16    	0.832369	0  	0.832369	0.832369
604	16    	0.832369	0  	0.832369	0.832369
605	16    	0.832369	0  	0.832369	0.832369
606	16    	0.832369	0  	0.832369	0.832369
607	16    	0.832369	0  	0.832369	0.832369
608	16    	0.836987	0  	0.836987	0.836987
609	16    	0.836987	0  	0.836987	0.836987
610	16    	0.836987	0  	0.836987	0.836987
611	16    	0.836987	0  	0.836987	0.836987
612	16    	0.836987	0  	0.836987	0.836987
613	16    	0.836987	0  	0.836987	0.836987
614	16    	0.842465	0  	0.842465	0.842465
615	16    	0.842465	0  	0.842465	0.842465
616	16    	0.842465	0  	0.842465	0.842465
617	16    	0.842465	0  	0.842465	0.842465
618	16    	0.842465	0  	0.842465	0.842465
619	16    	0.842465	0  	0.842465	0.842465
620	16    	0.842465	0  	0.842465	0.842465
621	16    	0.842465	0  	0.842465	0.842465
622	16    	0.842465	0  	0.842465	0.842465
623	16    	0.842465	0  	0.842465	0.842465
624	16    	0.842465	0  	0.842465	0.842465
625	16    	0.842465	0  	0.842465	0.842465