gen	nevals	avg     	std	min     	max     
0  	1     	0.897452	0  	0.897452	0.897452
1  	16    	0.900582	0  	0.900582	0.900582
2  	16    	0.903884	0  	0.903884	0.903884
3  	16    	0.90642 	0  	0.90642 	0.90642 
4  	16    	0.90642 	0  	0.90642 	0.90642 
5  	16    	0.90642 	0  	0.90642 	0.90642 
6  	16    	0.90642 	0  	0.90642 	0.90642 
7  	16    	0.908021	0  	0.908021	0.908021
8  	16    	0.908877	0  	0.908877	0.908877
9  	16    	0.908877	0  	0.908877	0.908877
10 	16    	0.910804	0  	0.910804	0.910804
11 	16    	0.910804	0  	0.910804	0.910804
12 	16    	0.912199	0  	0.912199	0.912199
13 	16    	0.912199	0  	0.912199	0.912199
14 	16    	0.915554	0  	0.915554	0.915554
15 	16    	0.915554	0  	0.915554	0.915554
16 	16    	0.915554	0  	0.915554	0.915554
17 	16    	0.915554	0  	0.915554	0.915554
18 	16    	0.917202	0  	0.917202	0.917202
19 	16    	0.917202	0  	0.917202	0.917202
20 	16    	0.917202	0  	0.917202	0.917202
21 	16    	0.917202	0  	0.917202	0.917202
22 	16    	0.917202	0  	0.917202	0.917202
23 	16    	0.917202	0  	0.917202	0.917202
24 	16    	0.917202	0  	0.917202	0.917202
25 	16    	0.917202	0  	0.917202	0.917202
26 	16    	0.917838	0  	0.917838	0.917838
27 	16    	0.917838	0  	0.917838	0.917838
28 	16    	0.917838	0  	0.917838	0.917838
29 	16    	0.919183	0  	0.919183	0.919183
30 	16    	0.919183	0  	0.919183	0.919183
31 	16    	0.919183	0  	0.919183	0.919183
32 	16    	0.919183	0  	0.919183	0.919183
33 	16    	0.919183	0  	0.919183	0.919183
34 	16    	0.919183	0  	0.919183	0.919183
35 	16    	0.919183	0  	0.919183	0.919183
36 	16    	0.919183	0  	0.919183	0.919183
37 	16    	0.919183	0  	0.919183	0.919183
38 	16    	0.919183	0  	0.919183	0.919183
39 	16    	0.919183	0  	0.919183	0.919183
40 	16    	0.919183	0  	0.919183	0.919183
41 	16    	0.919183	0  	0.919183	0.919183
42 	16    	0.919183	0  	0.919183	0.919183
43 	16    	0.919183	0  	0.919183	0.919183
44 	16    	0.919183	0  	0.919183	0.919183
45 	16    	0.919183	0  	0.919183	0.919183
46 	16    	0.919183	0  	0.919183	0.919183
47 	16    	0.919529	0  	0.919529	0.919529
48 	16    	0.919998	0  	0.919998	0.919998
49 	16    	0.920115	0  	0.920115	0.920115
50 	16    	0.920115	0  	0.920115	0.920115
51 	16    	0.920115	0  	0.920115	0.920115
52 	16    	0.920115	0  	0.920115	0.920115
53 	16    	0.920681	0  	0.920681	0.920681
54 	16    	0.920681	0  	0.920681	0.920681
55 	16    	0.920681	0  	0.920681	0.920681
56 	16    	0.920681	0  	0.920681	0.920681
57 	16    	0.920681	0  	0.920681	0.920681
58 	16    	0.920681	0  	0.920681	0.920681
59 	16    	0.920681	0  	0.920681	0.920681
60 	16    	0.920681	0  	0.920681	0.920681
61 	16    	0.920681	0  	0.920681	0.920681
62 	16    	0.922425	0  	0.922425	0.922425
63 	16    	0.922425	0  	0.922425	0.922425
64 	16    	0.922425	0  	0.922425	0.922425
65 	16    	0.922425	0  	0.922425	0.922425
66 	16    	0.922515	0  	0.922515	0.922515
67 	16    	0.922515	0  	0.922515	0.922515
68 	16    	0.922515	0  	0.922515	0.922515
69 	16    	0.922515	0  	0.922515	0.922515
70 	16    	0.922515	0  	0.922515	0.922515
71 	16    	0.923723	0  	0.923723	0.923723
72 	16    	0.924802	0  	0.924802	0.924802
73 	16    	0.924802	0  	0.924802	0.924802
74 	16    	0.924802	0  	0.924802	0.924802
75 	16    	0.925321	0  	0.925321	0.925321
76 	16    	0.925604	0  	0.925604	0.925604
77 	16    	0.925604	0  	0.925604	0.925604
78 	16    	0.92624 	0  	0.92624 	0.92624 
79 	16    	0.92624 	0  	0.92624 	0.92624 
80 	16    	0.92624 	0  	0.92624 	0.92624 
81 	16    	0.92624 	0  	0.92624 	0.92624 
82 	16    	0.927621	0  	0.927621	0.927621
83 	16    	0.927621	0  	0.927621	0.927621
84 	16    	0.927621	0  	0.927621	0.927621
85 	16    	0.927804	0  	0.927804	0.927804
86 	16    	0.927804	0  	0.927804	0.927804
87 	16    	0.928174	0  	0.928174	0.928174
88 	16    	0.928174	0  	0.928174	0.928174
89 	16    	0.928174	0  	0.928174	0.928174
90 	16    	0.928174	0  	0.928174	0.928174
91 	16    	0.928174	0  	0.928174	0.928174
92 	16    	0.928174	0  	0.928174	0.928174
93 	16    	0.928174	0  	0.928174	0.928174
94 	16    	0.928174	0  	0.928174	0.928174
95 	16    	0.928174	0  	0.928174	0.928174
96 	16    	0.928174	0  	0.928174	0.928174
97 	16    	0.928174	0  	0.928174	0.928174
98 	16    	0.928174	0  	0.928174	0.928174
99 	16    	0.928174	0  	0.928174	0.928174
100	16    	0.928174	0  	0.928174	0.928174
101	16    	0.928174	0  	0.928174	0.928174
102	16    	0.928174	0  	0.928174	0.928174
103	16    	0.928174	0  	0.928174	0.928174
104	16    	0.928174	0  	0.928174	0.928174
105	16    	0.928174	0  	0.928174	0.928174
106	16    	0.928174	0  	0.928174	0.928174
107	16    	0.928174	0  	0.928174	0.928174
108	16    	0.928174	0  	0.928174	0.928174
109	16    	0.928174	0  	0.928174	0.928174
110	16    	0.928174	0  	0.928174	0.928174
111	16    	0.928174	0  	0.928174	0.928174
112	16    	0.928174	0  	0.928174	0.928174
113	16    	0.928174	0  	0.928174	0.928174
114	16    	0.928174	0  	0.928174	0.928174
115	16    	0.928174	0  	0.928174	0.928174
116	16    	0.928174	0  	0.928174	0.928174
117	16    	0.928174	0  	0.928174	0.928174
118	16    	0.928447	0  	0.928447	0.928447
119	16    	0.928447	0  	0.928447	0.928447
120	16    	0.928447	0  	0.928447	0.928447
121	16    	0.928447	0  	0.928447	0.928447
122	16    	0.928447	0  	0.928447	0.928447
123	16    	0.928447	0  	0.928447	0.928447
124	16    	0.928447	0  	0.928447	0.928447
125	16    	0.928447	0  	0.928447	0.928447
126	16    	0.928447	0  	0.928447	0.928447
127	16    	0.928447	0  	0.928447	0.928447
128	16    	0.928447	0  	0.928447	0.928447
129	16    	0.929062	0  	0.929062	0.929062
130	16    	0.929062	0  	0.929062	0.929062
131	16    	0.93094 	0  	0.93094 	0.93094 
132	16    	0.93094 	0  	0.93094 	0.93094 
133	16    	0.93094 	0  	0.93094 	0.93094 
134	16    	0.93094 	0  	0.93094 	0.93094 
135	16    	0.93094 	0  	0.93094 	0.93094 
136	16    	0.93094 	0  	0.93094 	0.93094 
137	16    	0.93094 	0  	0.93094 	0.93094 
138	16    	0.93094 	0  	0.93094 	0.93094 
139	16    	0.93094 	0  	0.93094 	0.93094 
140	16    	0.93094 	0  	0.93094 	0.93094 
141	16    	0.93094 	0  	0.93094 	0.93094 
142	16    	0.93094 	0  	0.93094 	0.93094 
143	16    	0.93094 	0  	0.93094 	0.93094 
144	16    	0.93094 	0  	0.93094 	0.93094 
145	16    	0.93094 	0  	0.93094 	0.93094 
146	16    	0.93094 	0  	0.93094 	0.93094 
147	16    	0.93094 	0  	0.93094 	0.93094 
148	16    	0.93094 	0  	0.93094 	0.93094 
149	16    	0.93094 	0  	0.93094 	0.93094 
150	16    	0.93094 	0  	0.93094 	0.93094 
151	16    	0.93094 	0  	0.93094 	0.93094 
152	16    	0.931286	0  	0.931286	0.931286
153	16    	0.931286	0  	0.931286	0.931286
154	16    	0.931286	0  	0.931286	0.931286
155	16    	0.931286	0  	0.931286	0.931286
156	16    	0.931286	0  	0.931286	0.931286
157	16    	0.931286	0  	0.931286	0.931286
158	16    	0.931286	0  	0.931286	0.931286
159	16    	0.931286	0  	0.931286	0.931286
160	16    	0.931286	0  	0.931286	0.931286
161	16    	0.931296	0  	0.931296	0.931296
162	16    	0.931296	0  	0.931296	0.931296
163	16    	0.931456	0  	0.931456	0.931456
164	16    	0.931456	0  	0.931456	0.931456
165	16    	0.931456	0  	0.931456	0.931456
166	16    	0.931456	0  	0.931456	0.931456
167	16    	0.931456	0  	0.931456	0.931456
168	16    	0.931456	0  	0.931456	0.931456
169	16    	0.931456	0  	0.931456	0.931456
170	16    	0.931456	0  	0.931456	0.931456
171	16    	0.932178	0  	0.932178	0.932178
172	16    	0.933842	0  	0.933842	0.933842
173	16    	0.933842	0  	0.933842	0.933842
174	16    	0.933842	0  	0.933842	0.933842
175	16    	0.933842	0  	0.933842	0.933842
176	16    	0.933842	0  	0.933842	0.933842
177	16    	0.933842	0  	0.933842	0.933842
178	16    	0.933842	0  	0.933842	0.933842
179	16    	0.933842	0  	0.933842	0.933842
180	16    	0.933842	0  	0.933842	0.933842
181	16    	0.933842	0  	0.933842	0.933842
182	16    	0.933842	0  	0.933842	0.933842
183	16    	0.933842	0  	0.933842	0.933842
184	16    	0.933842	0  	0.933842	0.933842
185	16    	0.933842	0  	0.933842	0.933842
186	16    	0.933842	0  	0.933842	0.933842
187	16    	0.933949	0  	0.933949	0.933949
188	16    	0.933949	0  	0.933949	0.933949
189	16    	0.933949	0  	0.933949	0.933949
190	16    	0.933949	0  	0.933949	0.933949
191	16    	0.933949	0  	0.933949	0.933949
192	16    	0.933949	0  	0.933949	0.933949
193	16    	0.933949	0  	0.933949	0.933949
194	16    	0.933949	0  	0.933949	0.933949
195	16    	0.934375	0  	0.934375	0.934375
196	16    	0.934375	0  	0.934375	0.934375
197	16    	0.934375	0  	0.934375	0.934375
198	16    	0.934375	0  	0.934375	0.934375
199	16    	0.934375	0  	0.934375	0.934375
200	16    	0.934375	0  	0.934375	0.934375
201	16    	0.934375	0  	0.934375	0.934375
202	16    	0.934375	0  	0.934375	0.934375
203	16    	0.934375	0  	0.934375	0.934375
204	16    	0.934375	0  	0.934375	0.934375
205	16    	0.934375	0  	0.934375	0.934375
206	16    	0.934375	0  	0.934375	0.934375
207	16    	0.934375	0  	0.934375	0.934375
208	16    	0.934505	0  	0.934505	0.934505
209	16    	0.934505	0  	0.934505	0.934505
210	16    	0.934505	0  	0.934505	0.934505
211	16    	0.934505	0  	0.934505	0.934505
212	16    	0.934505	0  	0.934505	0.934505
213	16    	0.934505	0  	0.934505	0.934505
214	16    	0.934505	0  	0.934505	0.934505
215	16    	0.934505	0  	0.934505	0.934505
216	16    	0.934505	0  	0.934505	0.934505
217	16    	0.934505	0  	0.934505	0.934505
218	16    	0.934505	0  	0.934505	0.934505
219	16    	0.935603	0  	0.935603	0.935603
220	16    	0.935603	0  	0.935603	0.935603
221	16    	0.935603	0  	0.935603	0.935603
222	16    	0.935603	0  	0.935603	0.935603
223	16    	0.935603	0  	0.935603	0.935603
224	16    	0.935603	0  	0.935603	0.935603
225	16    	0.935603	0  	0.935603	0.935603
226	16    	0.936772	0  	0.936772	0.936772
227	16    	0.936772	0  	0.936772	0.936772
228	16    	0.936772	0  	0.936772	0.936772
229	16    	0.936772	0  	0.936772	0.936772
230	16    	0.936772	0  	0.936772	0.936772
231	16    	0.936772	0  	0.936772	0.936772
232	16    	0.936772	0  	0.936772	0.936772
233	16    	0.936772	0  	0.936772	0.936772
234	16    	0.936772	0  	0.936772	0.936772
235	16    	0.936772	0  	0.936772	0.936772
236	16    	0.936772	0  	0.936772	0.936772
237	16    	0.936772	0  	0.936772	0.936772
238	16    	0.936772	0  	0.936772	0.936772
239	16    	0.936772	0  	0.936772	0.936772
240	16    	0.938147	0  	0.938147	0.938147
241	16    	0.938147	0  	0.938147	0.938147
242	16    	0.938147	0  	0.938147	0.938147
243	16    	0.938147	0  	0.938147	0.938147
244	16    	0.938147	0  	0.938147	0.938147
245	16    	0.938147	0  	0.938147	0.938147
246	16    	0.938147	0  	0.938147	0.938147
247	16    	0.938147	0  	0.938147	0.938147
248	16    	0.938147	0  	0.938147	0.938147
249	16    	0.938147	0  	0.938147	0.938147
250	16    	0.938147	0  	0.938147	0.938147
251	16    	0.938147	0  	0.938147	0.938147
252	16    	0.938147	0  	0.938147	0.938147
253	16    	0.938147	0  	0.938147	0.938147
254	16    	0.938147	0  	0.938147	0.938147
255	16    	0.938147	0  	0.938147	0.938147
256	16    	0.938147	0  	0.938147	0.938147
257	16    	0.938147	0  	0.938147	0.938147
258	16    	0.938147	0  	0.938147	0.938147
259	16    	0.939841	0  	0.939841	0.939841
260	16    	0.939841	0  	0.939841	0.939841
261	16    	0.939841	0  	0.939841	0.939841
262	16    	0.939841	0  	0.939841	0.939841
263	16    	0.939841	0  	0.939841	0.939841
264	16    	0.939841	0  	0.939841	0.939841
265	16    	0.939841	0  	0.939841	0.939841
266	16    	0.939841	0  	0.939841	0.939841
267	16    	0.939841	0  	0.939841	0.939841
268	16    	0.939841	0  	0.939841	0.939841
269	16    	0.939841	0  	0.939841	0.939841
270	16    	0.939841	0  	0.939841	0.939841
271	16    	0.939911	0  	0.939911	0.939911
272	16    	0.940154	0  	0.940154	0.940154
273	16    	0.940154	0  	0.940154	0.940154
274	16    	0.940154	0  	0.940154	0.940154
275	16    	0.940154	0  	0.940154	0.940154
276	16    	0.940154	0  	0.940154	0.940154
277	16    	0.94044 	0  	0.94044 	0.94044 
278	16    	0.94044 	0  	0.94044 	0.94044 
279	16    	0.94044 	0  	0.94044 	0.94044 
280	16    	0.940683	0  	0.940683	0.940683
281	16    	0.940683	0  	0.940683	0.940683
282	16    	0.940683	0  	0.940683	0.940683
283	16    	0.940683	0  	0.940683	0.940683
284	16    	0.940683	0  	0.940683	0.940683
285	16    	0.940683	0  	0.940683	0.940683
286	16    	0.940683	0  	0.940683	0.940683
287	16    	0.940683	0  	0.940683	0.940683
288	16    	0.940683	0  	0.940683	0.940683
289	16    	0.940683	0  	0.940683	0.940683
290	16    	0.940683	0  	0.940683	0.940683
291	16    	0.940683	0  	0.940683	0.940683
292	16    	0.940683	0  	0.940683	0.940683
293	16    	0.940683	0  	0.940683	0.940683
294	16    	0.941269	0  	0.941269	0.941269
295	16    	0.941539	0  	0.941539	0.941539
296	16    	0.941539	0  	0.941539	0.941539
297	16    	0.941539	0  	0.941539	0.941539
298	16    	0.941539	0  	0.941539	0.941539
299	16    	0.941539	0  	0.941539	0.941539
300	16    	0.941539	0  	0.941539	0.941539
301	16    	0.941539	0  	0.941539	0.941539
302	16    	0.941539	0  	0.941539	0.941539
303	16    	0.941539	0  	0.941539	0.941539
304	16    	0.941539	0  	0.941539	0.941539
305	16    	0.941539	0  	0.941539	0.941539
306	16    	0.941539	0  	0.941539	0.941539
307	16    	0.941539	0  	0.941539	0.941539
308	16    	0.941539	0  	0.941539	0.941539
309	16    	0.941539	0  	0.941539	0.941539
310	16    	0.941539	0  	0.941539	0.941539
311	16    	0.941539	0  	0.941539	0.941539
312	16    	0.941539	0  	0.941539	0.941539
313	16    	0.941539	0  	0.941539	0.941539
314	16    	0.941539	0  	0.941539	0.941539
315	16    	0.941539	0  	0.941539	0.941539
316	16    	0.941539	0  	0.941539	0.941539
317	16    	0.941539	0  	0.941539	0.941539
318	16    	0.941539	0  	0.941539	0.941539
319	16    	0.941539	0  	0.941539	0.941539
320	16    	0.941539	0  	0.941539	0.941539
321	16    	0.941539	0  	0.941539	0.941539
322	16    	0.941539	0  	0.941539	0.941539
323	16    	0.941539	0  	0.941539	0.941539
324	16    	0.941539	0  	0.941539	0.941539
325	16    	0.941539	0  	0.941539	0.941539
326	16    	0.941539	0  	0.941539	0.941539
327	16    	0.941539	0  	0.941539	0.941539
328	16    	0.941539	0  	0.941539	0.941539
329	16    	0.941539	0  	0.941539	0.941539
330	16    	0.941539	0  	0.941539	0.941539
331	16    	0.941539	0  	0.941539	0.941539
332	16    	0.941539	0  	0.941539	0.941539
333	16    	0.941539	0  	0.941539	0.941539
334	16    	0.941539	0  	0.941539	0.941539
335	16    	0.941539	0  	0.941539	0.941539
336	16    	0.941539	0  	0.941539	0.941539
337	16    	0.941539	0  	0.941539	0.941539
338	16    	0.941539	0  	0.941539	0.941539
339	16    	0.941539	0  	0.941539	0.941539
340	16    	0.941539	0  	0.941539	0.941539
341	16    	0.941539	0  	0.941539	0.941539
342	16    	0.941539	0  	0.941539	0.941539
343	16    	0.941539	0  	0.941539	0.941539
344	16    	0.941539	0  	0.941539	0.941539
345	16    	0.941539	0  	0.941539	0.941539
346	16    	0.941539	0  	0.941539	0.941539
347	16    	0.941539	0  	0.941539	0.941539
348	16    	0.941539	0  	0.941539	0.941539
349	16    	0.941539	0  	0.941539	0.941539
350	16    	0.941539	0  	0.941539	0.941539
351	16    	0.941539	0  	0.941539	0.941539
352	16    	0.941539	0  	0.941539	0.941539
353	16    	0.941539	0  	0.941539	0.941539
354	16    	0.941539	0  	0.941539	0.941539
355	16    	0.941539	0  	0.941539	0.941539
356	16    	0.941539	0  	0.941539	0.941539
357	16    	0.941539	0  	0.941539	0.941539
358	16    	0.941539	0  	0.941539	0.941539
359	16    	0.941539	0  	0.941539	0.941539
360	16    	0.941539	0  	0.941539	0.941539
361	16    	0.941539	0  	0.941539	0.941539
362	16    	0.941539	0  	0.941539	0.941539
363	16    	0.941539	0  	0.941539	0.941539
364	16    	0.941539	0  	0.941539	0.941539
365	16    	0.941539	0  	0.941539	0.941539
366	16    	0.941539	0  	0.941539	0.941539
367	16    	0.941539	0  	0.941539	0.941539
368	16    	0.941539	0  	0.941539	0.941539
369	16    	0.941539	0  	0.941539	0.941539
370	16    	0.941539	0  	0.941539	0.941539
371	16    	0.941539	0  	0.941539	0.941539
372	16    	0.941539	0  	0.941539	0.941539
373	16    	0.941539	0  	0.941539	0.941539
374	16    	0.941539	0  	0.941539	0.941539
375	16    	0.941539	0  	0.941539	0.941539
376	16    	0.941539	0  	0.941539	0.941539
377	16    	0.941539	0  	0.941539	0.941539
378	16    	0.941539	0  	0.941539	0.941539
379	16    	0.941539	0  	0.941539	0.941539
380	16    	0.941539	0  	0.941539	0.941539
381	16    	0.941539	0  	0.941539	0.941539
382	16    	0.941539	0  	0.941539	0.941539
383	16    	0.941539	0  	0.941539	0.941539
384	16    	0.941539	0  	0.941539	0.941539
385	16    	0.941539	0  	0.941539	0.941539
386	16    	0.941539	0  	0.941539	0.941539
387	16    	0.941539	0  	0.941539	0.941539
388	16    	0.941539	0  	0.941539	0.941539
389	16    	0.941539	0  	0.941539	0.941539
390	16    	0.941539	0  	0.941539	0.941539
391	16    	0.941539	0  	0.941539	0.941539
392	16    	0.941539	0  	0.941539	0.941539
393	16    	0.941539	0  	0.941539	0.941539
394	16    	0.941539	0  	0.941539	0.941539
395	16    	0.941539	0  	0.941539	0.941539
396	16    	0.941539	0  	0.941539	0.941539
397	16    	0.941539	0  	0.941539	0.941539
398	16    	0.941539	0  	0.941539	0.941539
399	16    	0.941539	0  	0.941539	0.941539
400	16    	0.941539	0  	0.941539	0.941539
401	16    	0.941539	0  	0.941539	0.941539
402	16    	0.941539	0  	0.941539	0.941539
403	16    	0.941539	0  	0.941539	0.941539
404	16    	0.941539	0  	0.941539	0.941539
405	16    	0.941539	0  	0.941539	0.941539
406	16    	0.941539	0  	0.941539	0.941539
407	16    	0.941539	0  	0.941539	0.941539
408	16    	0.941539	0  	0.941539	0.941539
409	16    	0.941539	0  	0.941539	0.941539
410	16    	0.941539	0  	0.941539	0.941539
411	16    	0.941539	0  	0.941539	0.941539
412	16    	0.941539	0  	0.941539	0.941539
413	16    	0.941539	0  	0.941539	0.941539
414	16    	0.941539	0  	0.941539	0.941539
415	16    	0.941539	0  	0.941539	0.941539
416	16    	0.941539	0  	0.941539	0.941539
417	16    	0.941539	0  	0.941539	0.941539
418	16    	0.941539	0  	0.941539	0.941539
419	16    	0.941539	0  	0.941539	0.941539
420	16    	0.941539	0  	0.941539	0.941539
421	16    	0.941539	0  	0.941539	0.941539
422	16    	0.941539	0  	0.941539	0.941539
423	16    	0.941539	0  	0.941539	0.941539
424	16    	0.941539	0  	0.941539	0.941539
425	16    	0.941539	0  	0.941539	0.941539
426	16    	0.941539	0  	0.941539	0.941539
427	16    	0.941539	0  	0.941539	0.941539
428	16    	0.941961	0  	0.941961	0.941961
429	16    	0.941961	0  	0.941961	0.941961
430	16    	0.941961	0  	0.941961	0.941961
431	16    	0.941961	0  	0.941961	0.941961
432	16    	0.941961	0  	0.941961	0.941961
433	16    	0.941961	0  	0.941961	0.941961
434	16    	0.941961	0  	0.941961	0.941961
435	16    	0.941961	0  	0.941961	0.941961
436	16    	0.941961	0  	0.941961	0.941961
437	16    	0.941961	0  	0.941961	0.941961
438	16    	0.941961	0  	0.941961	0.941961
439	16    	0.941961	0  	0.941961	0.941961
440	16    	0.941961	0  	0.941961	0.941961
441	16    	0.941961	0  	0.941961	0.941961
442	16    	0.941961	0  	0.941961	0.941961
443	16    	0.941961	0  	0.941961	0.941961
444	16    	0.941961	0  	0.941961	0.941961
445	16    	0.941961	0  	0.941961	0.941961
446	16    	0.941961	0  	0.941961	0.941961
447	16    	0.941961	0  	0.941961	0.941961
448	16    	0.941961	0  	0.941961	0.941961
449	16    	0.941961	0  	0.941961	0.941961
450	16    	0.941961	0  	0.941961	0.941961
451	16    	0.941961	0  	0.941961	0.941961
452	16    	0.941961	0  	0.941961	0.941961
453	16    	0.941961	0  	0.941961	0.941961
454	16    	0.941961	0  	0.941961	0.941961
455	16    	0.941961	0  	0.941961	0.941961
456	16    	0.941961	0  	0.941961	0.941961
457	16    	0.941961	0  	0.941961	0.941961
458	16    	0.941961	0  	0.941961	0.941961
459	16    	0.941961	0  	0.941961	0.941961
460	16    	0.941961	0  	0.941961	0.941961
461	16    	0.941961	0  	0.941961	0.941961
462	16    	0.941961	0  	0.941961	0.941961
463	16    	0.941961	0  	0.941961	0.941961
464	16    	0.941961	0  	0.941961	0.941961
465	16    	0.941961	0  	0.941961	0.941961
466	16    	0.941971	0  	0.941971	0.941971
467	16    	0.942324	0  	0.942324	0.942324
468	16    	0.942324	0  	0.942324	0.942324
469	16    	0.942324	0  	0.942324	0.942324
470	16    	0.942324	0  	0.942324	0.942324
471	16    	0.942324	0  	0.942324	0.942324
472	16    	0.942324	0  	0.942324	0.942324
473	16    	0.942324	0  	0.942324	0.942324
474	16    	0.942494	0  	0.942494	0.942494
475	16    	0.942494	0  	0.942494	0.942494
476	16    	0.942494	0  	0.942494	0.942494
477	16    	0.942494	0  	0.942494	0.942494
478	16    	0.942494	0  	0.942494	0.942494
479	16    	0.942494	0  	0.942494	0.942494
480	16    	0.942494	0  	0.942494	0.942494
481	16    	0.942494	0  	0.942494	0.942494
482	16    	0.942494	0  	0.942494	0.942494
483	16    	0.942494	0  	0.942494	0.942494
484	16    	0.943499	0  	0.943499	0.943499
485	16    	0.943499	0  	0.943499	0.943499
486	16    	0.943499	0  	0.943499	0.943499
487	16    	0.943499	0  	0.943499	0.943499
488	16    	0.943499	0  	0.943499	0.943499
489	16    	0.943499	0  	0.943499	0.943499
490	16    	0.943499	0  	0.943499	0.943499
491	16    	0.943499	0  	0.943499	0.943499
492	16    	0.943499	0  	0.943499	0.943499
493	16    	0.943499	0  	0.943499	0.943499
494	16    	0.943499	0  	0.943499	0.943499
495	16    	0.943499	0  	0.943499	0.943499
496	16    	0.943499	0  	0.943499	0.943499
497	16    	0.943499	0  	0.943499	0.943499
498	16    	0.943499	0  	0.943499	0.943499
499	16    	0.943499	0  	0.943499	0.943499
500	16    	0.943499	0  	0.943499	0.943499
501	16    	0.943499	0  	0.943499	0.943499
502	16    	0.943499	0  	0.943499	0.943499
503	16    	0.943499	0  	0.943499	0.943499
504	16    	0.943499	0  	0.943499	0.943499
505	16    	0.943499	0  	0.943499	0.943499
506	16    	0.943499	0  	0.943499	0.943499
507	16    	0.943499	0  	0.943499	0.943499
508	16    	0.943499	0  	0.943499	0.943499
509	16    	0.943499	0  	0.943499	0.943499
510	16    	0.943499	0  	0.943499	0.943499
511	16    	0.943499	0  	0.943499	0.943499
512	16    	0.943499	0  	0.943499	0.943499
513	16    	0.943499	0  	0.943499	0.943499
514	16    	0.943499	0  	0.943499	0.943499
515	16    	0.943499	0  	0.943499	0.943499
516	16    	0.943499	0  	0.943499	0.943499
517	16    	0.943499	0  	0.943499	0.943499
518	16    	0.943499	0  	0.943499	0.943499
519	16    	0.943499	0  	0.943499	0.943499
520	16    	0.943499	0  	0.943499	0.943499
521	16    	0.943499	0  	0.943499	0.943499
522	16    	0.943499	0  	0.943499	0.943499
523	16    	0.943499	0  	0.943499	0.943499
524	16    	0.943499	0  	0.943499	0.943499
525	16    	0.943499	0  	0.943499	0.943499
526	16    	0.943499	0  	0.943499	0.943499
527	16    	0.943499	0  	0.943499	0.943499
528	16    	0.943499	0  	0.943499	0.943499
529	16    	0.943499	0  	0.943499	0.943499
530	16    	0.943662	0  	0.943662	0.943662
531	16    	0.943662	0  	0.943662	0.943662
532	16    	0.943662	0  	0.943662	0.943662
533	16    	0.943662	0  	0.943662	0.943662
534	16    	0.943662	0  	0.943662	0.943662
535	16    	0.943662	0  	0.943662	0.943662
536	16    	0.943662	0  	0.943662	0.943662
537	16    	0.943662	0  	0.943662	0.943662
538	16    	0.943662	0  	0.943662	0.943662
539	16    	0.943662	0  	0.943662	0.943662
540	16    	0.943662	0  	0.943662	0.943662
541	16    	0.943662	0  	0.943662	0.943662
542	16    	0.943662	0  	0.943662	0.943662
543	16    	0.943662	0  	0.943662	0.943662
544	16    	0.94543 	0  	0.94543 	0.94543 
545	16    	0.94543 	0  	0.94543 	0.94543 
546	16    	0.94543 	0  	0.94543 	0.94543 
547	16    	0.94543 	0  	0.94543 	0.94543 
548	16    	0.94543 	0  	0.94543 	0.94543 
549	16    	0.94543 	0  	0.94543 	0.94543 
550	16    	0.94543 	0  	0.94543 	0.94543 
551	16    	0.94557 	0  	0.94557 	0.94557 
552	16    	0.94557 	0  	0.94557 	0.94557 
553	16    	0.946335	0  	0.946335	0.946335
554	16    	0.946335	0  	0.946335	0.946335
555	16    	0.946335	0  	0.946335	0.946335
556	16    	0.946335	0  	0.946335	0.946335
557	16    	0.946335	0  	0.946335	0.946335
558	16    	0.946335	0  	0.946335	0.946335
559	16    	0.946335	0  	0.946335	0.946335
560	16    	0.946335	0  	0.946335	0.946335
561	16    	0.946335	0  	0.946335	0.946335
562	16    	0.946335	0  	0.946335	0.946335
563	16    	0.946335	0  	0.946335	0.946335
564	16    	0.946335	0  	0.946335	0.946335
565	16    	0.946335	0  	0.946335	0.946335
566	16    	0.946691	0  	0.946691	0.946691
567	16    	0.946691	0  	0.946691	0.946691
568	16    	0.946691	0  	0.946691	0.946691
569	16    	0.946691	0  	0.946691	0.946691
570	16    	0.946691	0  	0.946691	0.946691
571	16    	0.946691	0  	0.946691	0.946691
572	16    	0.946691	0  	0.946691	0.946691
573	16    	0.946691	0  	0.946691	0.946691
574	16    	0.946691	0  	0.946691	0.946691
575	16    	0.946691	0  	0.946691	0.946691
576	16    	0.946691	0  	0.946691	0.946691
577	16    	0.946691	0  	0.946691	0.946691
578	16    	0.946691	0  	0.946691	0.946691
579	16    	0.946691	0  	0.946691	0.946691
580	16    	0.946691	0  	0.946691	0.946691
581	16    	0.946691	0  	0.946691	0.946691
582	16    	0.946691	0  	0.946691	0.946691
583	16    	0.946691	0  	0.946691	0.946691
584	16    	0.946691	0  	0.946691	0.946691
585	16    	0.946691	0  	0.946691	0.946691
586	16    	0.946691	0  	0.946691	0.946691
587	16    	0.946691	0  	0.946691	0.946691
588	16    	0.946691	0  	0.946691	0.946691
589	16    	0.946691	0  	0.946691	0.946691
590	16    	0.946691	0  	0.946691	0.946691
591	16    	0.946691	0  	0.946691	0.946691
592	16    	0.946691	0  	0.946691	0.946691
593	16    	0.946691	0  	0.946691	0.946691
594	16    	0.946691	0  	0.946691	0.946691
595	16    	0.946691	0  	0.946691	0.946691
596	16    	0.946691	0  	0.946691	0.946691
597	16    	0.946691	0  	0.946691	0.946691
598	16    	0.946691	0  	0.946691	0.946691
599	16    	0.946691	0  	0.946691	0.946691
600	16    	0.946691	0  	0.946691	0.946691
601	16    	0.946691	0  	0.946691	0.946691
602	16    	0.946691	0  	0.946691	0.946691
603	16    	0.946691	0  	0.946691	0.946691
604	16    	0.946691	0  	0.946691	0.946691
605	16    	0.946691	0  	0.946691	0.946691
606	16    	0.946691	0  	0.946691	0.946691
607	16    	0.946691	0  	0.946691	0.946691
608	16    	0.946691	0  	0.946691	0.946691
609	16    	0.946691	0  	0.946691	0.946691
610	16    	0.946691	0  	0.946691	0.946691
611	16    	0.946691	0  	0.946691	0.946691
612	16    	0.946691	0  	0.946691	0.946691
613	16    	0.946691	0  	0.946691	0.946691
614	16    	0.946741	0  	0.946741	0.946741
615	16    	0.946741	0  	0.946741	0.946741
616	16    	0.946741	0  	0.946741	0.946741
617	16    	0.946741	0  	0.946741	0.946741
618	16    	0.946741	0  	0.946741	0.946741
619	16    	0.946741	0  	0.946741	0.946741
620	16    	0.946741	0  	0.946741	0.946741
621	16    	0.946741	0  	0.946741	0.946741
622	16    	0.946741	0  	0.946741	0.946741
623	16    	0.947184	0  	0.947184	0.947184
624	16    	0.947184	0  	0.947184	0.947184
625	16    	0.947261	0  	0.947261	0.947261