gen	nevals	avg     	std	min     	max     
0  	1     	0.731112	0  	0.731112	0.731112
1  	16    	0.731112	0  	0.731112	0.731112
2  	16    	0.731112	0  	0.731112	0.731112
3  	16    	0.731112	0  	0.731112	0.731112
4  	16    	0.731112	0  	0.731112	0.731112
5  	16    	0.731112	0  	0.731112	0.731112
6  	16    	0.76968 	0  	0.76968 	0.76968 
7  	16    	0.76968 	0  	0.76968 	0.76968 
8  	16    	0.76968 	0  	0.76968 	0.76968 
9  	16    	0.76968 	0  	0.76968 	0.76968 
10 	16    	0.76968 	0  	0.76968 	0.76968 
11 	16    	0.76968 	0  	0.76968 	0.76968 
12 	16    	0.77183 	0  	0.77183 	0.77183 
13 	16    	0.77183 	0  	0.77183 	0.77183 
14 	16    	0.77183 	0  	0.77183 	0.77183 
15 	16    	0.77183 	0  	0.77183 	0.77183 
16 	16    	0.77183 	0  	0.77183 	0.77183 
17 	16    	0.77183 	0  	0.77183 	0.77183 
18 	16    	0.77183 	0  	0.77183 	0.77183 
19 	16    	0.773305	0  	0.773305	0.773305
20 	16    	0.773305	0  	0.773305	0.773305
21 	16    	0.792105	0  	0.792105	0.792105
22 	16    	0.792105	0  	0.792105	0.792105
23 	16    	0.79358 	0  	0.79358 	0.79358 
24 	16    	0.79358 	0  	0.79358 	0.79358 
25 	16    	0.79358 	0  	0.79358 	0.79358 
26 	16    	0.797374	0  	0.797374	0.797374
27 	16    	0.797374	0  	0.797374	0.797374
28 	16    	0.797374	0  	0.797374	0.797374
29 	16    	0.797374	0  	0.797374	0.797374
30 	16    	0.797374	0  	0.797374	0.797374
31 	16    	0.797374	0  	0.797374	0.797374
32 	16    	0.797374	0  	0.797374	0.797374
33 	16    	0.797374	0  	0.797374	0.797374
34 	16    	0.824055	0  	0.824055	0.824055
35 	16    	0.824055	0  	0.824055	0.824055
36 	16    	0.824055	0  	0.824055	0.824055
37 	16    	0.824055	0  	0.824055	0.824055
38 	16    	0.824055	0  	0.824055	0.824055
39 	16    	0.824055	0  	0.824055	0.824055
40 	16    	0.824055	0  	0.824055	0.824055
41 	16    	0.824055	0  	0.824055	0.824055
42 	16    	0.824055	0  	0.824055	0.824055
43 	16    	0.824055	0  	0.824055	0.824055
44 	16    	0.824055	0  	0.824055	0.824055
45 	16    	0.824055	0  	0.824055	0.824055
46 	16    	0.824055	0  	0.824055	0.824055
47 	16    	0.824055	0  	0.824055	0.824055
48 	16    	0.824055	0  	0.824055	0.824055
49 	16    	0.824055	0  	0.824055	0.824055
50 	16    	0.824055	0  	0.824055	0.824055
51 	16    	0.824055	0  	0.824055	0.824055
52 	16    	0.824055	0  	0.824055	0.824055
53 	16    	0.824055	0  	0.824055	0.824055
54 	16    	0.824055	0  	0.824055	0.824055
55 	16    	0.824055	0  	0.824055	0.824055
56 	16    	0.824055	0  	0.824055	0.824055
57 	16    	0.824055	0  	0.824055	0.824055
58 	16    	0.824055	0  	0.824055	0.824055
59 	16    	0.824055	0  	0.824055	0.824055
60 	16    	0.824055	0  	0.824055	0.824055
61 	16    	0.824055	0  	0.824055	0.824055
62 	16    	0.824055	0  	0.824055	0.824055
63 	16    	0.824055	0  	0.824055	0.824055
64 	16    	0.824055	0  	0.824055	0.824055
65 	16    	0.824055	0  	0.824055	0.824055
66 	16    	0.824055	0  	0.824055	0.824055
67 	16    	0.824055	0  	0.824055	0.824055
68 	16    	0.824055	0  	0.824055	0.824055
69 	16    	0.824055	0  	0.824055	0.824055
70 	16    	0.824055	0  	0.824055	0.824055
71 	16    	0.824055	0  	0.824055	0.824055
72 	16    	0.824055	0  	0.824055	0.824055
73 	16    	0.824055	0  	0.824055	0.824055
74 	16    	0.824055	0  	0.824055	0.824055
75 	16    	0.824055	0  	0.824055	0.824055
76 	16    	0.824055	0  	0.824055	0.824055
77 	16    	0.824055	0  	0.824055	0.824055
78 	16    	0.824055	0  	0.824055	0.824055
79 	16    	0.824055	0  	0.824055	0.824055
80 	16    	0.824055	0  	0.824055	0.824055
81 	16    	0.824055	0  	0.824055	0.824055
82 	16    	0.824055	0  	0.824055	0.824055
83 	16    	0.824055	0  	0.824055	0.824055
84 	16    	0.824055	0  	0.824055	0.824055
85 	16    	0.824055	0  	0.824055	0.824055
86 	16    	0.824055	0  	0.824055	0.824055
87 	16    	0.824055	0  	0.824055	0.824055
88 	16    	0.824055	0  	0.824055	0.824055
89 	16    	0.824055	0  	0.824055	0.824055
90 	16    	0.824055	0  	0.824055	0.824055
91 	16    	0.824055	0  	0.824055	0.824055
92 	16    	0.824055	0  	0.824055	0.824055
93 	16    	0.824055	0  	0.824055	0.824055
94 	16    	0.824055	0  	0.824055	0.824055
95 	16    	0.824055	0  	0.824055	0.824055
96 	16    	0.824055	0  	0.824055	0.824055
97 	16    	0.824055	0  	0.824055	0.824055
98 	16    	0.824055	0  	0.824055	0.824055
99 	16    	0.824055	0  	0.824055	0.824055
100	16    	0.824055	0  	0.824055	0.824055
101	16    	0.824055	0  	0.824055	0.824055
102	16    	0.824055	0  	0.824055	0.824055
103	16    	0.824055	0  	0.824055	0.824055
104	16    	0.824055	0  	0.824055	0.824055
105	16    	0.824055	0  	0.824055	0.824055
106	16    	0.824055	0  	0.824055	0.824055
107	16    	0.824055	0  	0.824055	0.824055
108	16    	0.824055	0  	0.824055	0.824055
109	16    	0.824055	0  	0.824055	0.824055
110	16    	0.824055	0  	0.824055	0.824055
111	16    	0.824055	0  	0.824055	0.824055
112	16    	0.824055	0  	0.824055	0.824055
113	16    	0.824055	0  	0.824055	0.824055
114	16    	0.824055	0  	0.824055	0.824055
115	16    	0.824055	0  	0.824055	0.824055
116	16    	0.824055	0  	0.824055	0.824055
117	16    	0.824055	0  	0.824055	0.824055
118	16    	0.824055	0  	0.824055	0.824055
119	16    	0.824055	0  	0.824055	0.824055
120	16    	0.824055	0  	0.824055	0.824055
121	16    	0.824055	0  	0.824055	0.824055
122	16    	0.824055	0  	0.824055	0.824055
123	16    	0.824055	0  	0.824055	0.824055
124	16    	0.824055	0  	0.824055	0.824055
125	16    	0.824055	0  	0.824055	0.824055
126	16    	0.824055	0  	0.824055	0.824055
127	16    	0.824055	0  	0.824055	0.824055
128	16    	0.824055	0  	0.824055	0.824055
129	16    	0.832233	0  	0.832233	0.832233
130	16    	0.832233	0  	0.832233	0.832233
131	16    	0.832233	0  	0.832233	0.832233
132	16    	0.832233	0  	0.832233	0.832233
133	16    	0.832233	0  	0.832233	0.832233
134	16    	0.832233	0  	0.832233	0.832233
135	16    	0.832233	0  	0.832233	0.832233
136	16    	0.832233	0  	0.832233	0.832233
137	16    	0.832233	0  	0.832233	0.832233
138	16    	0.832233	0  	0.832233	0.832233
139	16    	0.832233	0  	0.832233	0.832233
140	16    	0.832233	0  	0.832233	0.832233
141	16    	0.832233	0  	0.832233	0.832233
142	16    	0.832233	0  	0.832233	0.832233
143	16    	0.832233	0  	0.832233	0.832233
144	16    	0.832233	0  	0.832233	0.832233
145	16    	0.832233	0  	0.832233	0.832233
146	16    	0.832233	0  	0.832233	0.832233
147	16    	0.832233	0  	0.832233	0.832233
148	16    	0.832233	0  	0.832233	0.832233
149	16    	0.842349	0  	0.842349	0.842349
150	16    	0.842349	0  	0.842349	0.842349
151	16    	0.842349	0  	0.842349	0.842349
152	16    	0.842349	0  	0.842349	0.842349
153	16    	0.842349	0  	0.842349	0.842349
154	16    	0.842349	0  	0.842349	0.842349
155	16    	0.842349	0  	0.842349	0.842349
156	16    	0.842349	0  	0.842349	0.842349
157	16    	0.842349	0  	0.842349	0.842349
158	16    	0.842349	0  	0.842349	0.842349
159	16    	0.842349	0  	0.842349	0.842349
160	16    	0.842349	0  	0.842349	0.842349
161	16    	0.842349	0  	0.842349	0.842349
162	16    	0.846859	0  	0.846859	0.846859
163	16    	0.846859	0  	0.846859	0.846859
164	16    	0.846859	0  	0.846859	0.846859
165	16    	0.846859	0  	0.846859	0.846859
166	16    	0.846859	0  	0.846859	0.846859
167	16    	0.853983	0  	0.853983	0.853983
168	16    	0.853983	0  	0.853983	0.853983
169	16    	0.853983	0  	0.853983	0.853983
170	16    	0.853983	0  	0.853983	0.853983
171	16    	0.853983	0  	0.853983	0.853983
172	16    	0.853983	0  	0.853983	0.853983
173	16    	0.853983	0  	0.853983	0.853983
174	16    	0.853983	0  	0.853983	0.853983
175	16    	0.853983	0  	0.853983	0.853983
176	16    	0.853983	0  	0.853983	0.853983
177	16    	0.853983	0  	0.853983	0.853983
178	16    	0.853983	0  	0.853983	0.853983
179	16    	0.853983	0  	0.853983	0.853983
180	16    	0.853983	0  	0.853983	0.853983
181	16    	0.853983	0  	0.853983	0.853983
182	16    	0.853983	0  	0.853983	0.853983
183	16    	0.853983	0  	0.853983	0.853983
184	16    	0.853983	0  	0.853983	0.853983
185	16    	0.853983	0  	0.853983	0.853983
186	16    	0.853983	0  	0.853983	0.853983
187	16    	0.853983	0  	0.853983	0.853983
188	16    	0.853983	0  	0.853983	0.853983
189	16    	0.853983	0  	0.853983	0.853983
190	16    	0.853983	0  	0.853983	0.853983
191	16    	0.853983	0  	0.853983	0.853983
192	16    	0.853983	0  	0.853983	0.853983
193	16    	0.853983	0  	0.853983	0.853983
194	16    	0.853983	0  	0.853983	0.853983
195	16    	0.853983	0  	0.853983	0.853983
196	16    	0.853983	0  	0.853983	0.853983
197	16    	0.853983	0  	0.853983	0.853983
198	16    	0.853983	0  	0.853983	0.853983
199	16    	0.853983	0  	0.853983	0.853983
200	16    	0.853983	0  	0.853983	0.853983
201	16    	0.853983	0  	0.853983	0.853983
202	16    	0.853983	0  	0.853983	0.853983
203	16    	0.853983	0  	0.853983	0.853983
204	16    	0.853983	0  	0.853983	0.853983
205	16    	0.853983	0  	0.853983	0.853983
206	16    	0.853983	0  	0.853983	0.853983
207	16    	0.853983	0  	0.853983	0.853983
208	16    	0.853983	0  	0.853983	0.853983
209	16    	0.853983	0  	0.853983	0.853983
210	16    	0.853983	0  	0.853983	0.853983
211	16    	0.853983	0  	0.853983	0.853983
212	16    	0.853983	0  	0.853983	0.853983
213	16    	0.853983	0  	0.853983	0.853983
214	16    	0.853983	0  	0.853983	0.853983
215	16    	0.853983	0  	0.853983	0.853983
216	16    	0.853983	0  	0.853983	0.853983
217	16    	0.853983	0  	0.853983	0.853983
218	16    	0.853983	0  	0.853983	0.853983
219	16    	0.853983	0  	0.853983	0.853983
220	16    	0.853983	0  	0.853983	0.853983
221	16    	0.853983	0  	0.853983	0.853983
222	16    	0.853983	0  	0.853983	0.853983
223	16    	0.853983	0  	0.853983	0.853983
224	16    	0.853983	0  	0.853983	0.853983
225	16    	0.853983	0  	0.853983	0.853983
226	16    	0.853983	0  	0.853983	0.853983
227	16    	0.853983	0  	0.853983	0.853983
228	16    	0.853983	0  	0.853983	0.853983
229	16    	0.853983	0  	0.853983	0.853983
230	16    	0.853983	0  	0.853983	0.853983
231	16    	0.853983	0  	0.853983	0.853983
232	16    	0.853983	0  	0.853983	0.853983
233	16    	0.853983	0  	0.853983	0.853983
234	16    	0.853983	0  	0.853983	0.853983
235	16    	0.853983	0  	0.853983	0.853983
236	16    	0.853983	0  	0.853983	0.853983
237	16    	0.853983	0  	0.853983	0.853983
238	16    	0.853983	0  	0.853983	0.853983
239	16    	0.853983	0  	0.853983	0.853983
240	16    	0.853983	0  	0.853983	0.853983
241	16    	0.853983	0  	0.853983	0.853983
242	16    	0.853983	0  	0.853983	0.853983
243	16    	0.853983	0  	0.853983	0.853983
244	16    	0.855921	0  	0.855921	0.855921
245	16    	0.855921	0  	0.855921	0.855921
246	16    	0.855921	0  	0.855921	0.855921
247	16    	0.855921	0  	0.855921	0.855921
248	16    	0.855921	0  	0.855921	0.855921
249	16    	0.855921	0  	0.855921	0.855921
250	16    	0.855921	0  	0.855921	0.855921
251	16    	0.855921	0  	0.855921	0.855921
252	16    	0.856217	0  	0.856217	0.856217
253	16    	0.856217	0  	0.856217	0.856217
254	16    	0.856217	0  	0.856217	0.856217
255	16    	0.856217	0  	0.856217	0.856217
256	16    	0.856217	0  	0.856217	0.856217
257	16    	0.856217	0  	0.856217	0.856217
258	16    	0.856217	0  	0.856217	0.856217
259	16    	0.856217	0  	0.856217	0.856217
260	16    	0.861696	0  	0.861696	0.861696
261	16    	0.861696	0  	0.861696	0.861696
262	16    	0.87961 	0  	0.87961 	0.87961 
263	16    	0.87961 	0  	0.87961 	0.87961 
264	16    	0.87961 	0  	0.87961 	0.87961 
265	16    	0.87961 	0  	0.87961 	0.87961 
266	16    	0.87961 	0  	0.87961 	0.87961 
267	16    	0.87961 	0  	0.87961 	0.87961 
268	16    	0.87961 	0  	0.87961 	0.87961 
269	16    	0.87961 	0  	0.87961 	0.87961 
270	16    	0.87961 	0  	0.87961 	0.87961 
271	16    	0.87961 	0  	0.87961 	0.87961 
272	16    	0.87961 	0  	0.87961 	0.87961 
273	16    	0.87961 	0  	0.87961 	0.87961 
274	16    	0.87961 	0  	0.87961 	0.87961 
275	16    	0.87961 	0  	0.87961 	0.87961 
276	16    	0.87961 	0  	0.87961 	0.87961 
277	16    	0.87961 	0  	0.87961 	0.87961 
278	16    	0.87961 	0  	0.87961 	0.87961 
279	16    	0.87961 	0  	0.87961 	0.87961 
280	16    	0.87961 	0  	0.87961 	0.87961 
281	16    	0.87961 	0  	0.87961 	0.87961 
282	16    	0.87961 	0  	0.87961 	0.87961 
283	16    	0.87961 	0  	0.87961 	0.87961 
284	16    	0.87961 	0  	0.87961 	0.87961 
285	16    	0.87961 	0  	0.87961 	0.87961 
286	16    	0.87961 	0  	0.87961 	0.87961 
287	16    	0.87961 	0  	0.87961 	0.87961 
288	16    	0.87961 	0  	0.87961 	0.87961 
289	16    	0.87961 	0  	0.87961 	0.87961 
290	16    	0.87961 	0  	0.87961 	0.87961 
291	16    	0.87961 	0  	0.87961 	0.87961 
292	16    	0.87961 	0  	0.87961 	0.87961 
293	16    	0.87961 	0  	0.87961 	0.87961 
294	16    	0.87961 	0  	0.87961 	0.87961 
295	16    	0.87961 	0  	0.87961 	0.87961 
296	16    	0.87961 	0  	0.87961 	0.87961 
297	16    	0.87961 	0  	0.87961 	0.87961 
298	16    	0.87961 	0  	0.87961 	0.87961 
299	16    	0.87961 	0  	0.87961 	0.87961 
300	16    	0.87961 	0  	0.87961 	0.87961 
301	16    	0.87961 	0  	0.87961 	0.87961 
302	16    	0.87961 	0  	0.87961 	0.87961 
303	16    	0.883657	0  	0.883657	0.883657
304	16    	0.883657	0  	0.883657	0.883657
305	16    	0.883657	0  	0.883657	0.883657
306	16    	0.883657	0  	0.883657	0.883657
307	16    	0.883657	0  	0.883657	0.883657
308	16    	0.883657	0  	0.883657	0.883657
309	16    	0.883657	0  	0.883657	0.883657
310	16    	0.883657	0  	0.883657	0.883657
311	16    	0.883657	0  	0.883657	0.883657
312	16    	0.883657	0  	0.883657	0.883657
313	16    	0.883657	0  	0.883657	0.883657
314	16    	0.883657	0  	0.883657	0.883657
315	16    	0.883657	0  	0.883657	0.883657
316	16    	0.883657	0  	0.883657	0.883657
317	16    	0.883657	0  	0.883657	0.883657
318	16    	0.883657	0  	0.883657	0.883657
319	16    	0.883657	0  	0.883657	0.883657
320	16    	0.883657	0  	0.883657	0.883657
321	16    	0.883657	0  	0.883657	0.883657
322	16    	0.883657	0  	0.883657	0.883657
323	16    	0.883657	0  	0.883657	0.883657
324	16    	0.883657	0  	0.883657	0.883657
325	16    	0.883657	0  	0.883657	0.883657
326	16    	0.883657	0  	0.883657	0.883657
327	16    	0.883657	0  	0.883657	0.883657
328	16    	0.883657	0  	0.883657	0.883657
329	16    	0.883657	0  	0.883657	0.883657
330	16    	0.883657	0  	0.883657	0.883657
331	16    	0.883657	0  	0.883657	0.883657
332	16    	0.883657	0  	0.883657	0.883657
333	16    	0.883657	0  	0.883657	0.883657
334	16    	0.883657	0  	0.883657	0.883657
335	16    	0.883657	0  	0.883657	0.883657
336	16    	0.883657	0  	0.883657	0.883657
337	16    	0.883657	0  	0.883657	0.883657
338	16    	0.883657	0  	0.883657	0.883657
339	16    	0.883657	0  	0.883657	0.883657
340	16    	0.883657	0  	0.883657	0.883657
341	16    	0.883657	0  	0.883657	0.883657
342	16    	0.883657	0  	0.883657	0.883657
343	16    	0.883657	0  	0.883657	0.883657
344	16    	0.883657	0  	0.883657	0.883657
345	16    	0.883657	0  	0.883657	0.883657
346	16    	0.883657	0  	0.883657	0.883657
347	16    	0.883657	0  	0.883657	0.883657
348	16    	0.883657	0  	0.883657	0.883657
349	16    	0.883657	0  	0.883657	0.883657
350	16    	0.883657	0  	0.883657	0.883657
351	16    	0.883657	0  	0.883657	0.883657
352	16    	0.883657	0  	0.883657	0.883657
353	16    	0.883657	0  	0.883657	0.883657
354	16    	0.883657	0  	0.883657	0.883657
355	16    	0.883657	0  	0.883657	0.883657
356	16    	0.883657	0  	0.883657	0.883657
357	16    	0.883657	0  	0.883657	0.883657
358	16    	0.883657	0  	0.883657	0.883657
359	16    	0.883657	0  	0.883657	0.883657
360	16    	0.883657	0  	0.883657	0.883657
361	16    	0.883657	0  	0.883657	0.883657
362	16    	0.883657	0  	0.883657	0.883657
363	16    	0.883657	0  	0.883657	0.883657
364	16    	0.883657	0  	0.883657	0.883657
365	16    	0.883657	0  	0.883657	0.883657
366	16    	0.883657	0  	0.883657	0.883657
367	16    	0.883657	0  	0.883657	0.883657
368	16    	0.883657	0  	0.883657	0.883657
369	16    	0.883657	0  	0.883657	0.883657
370	16    	0.883657	0  	0.883657	0.883657
371	16    	0.883657	0  	0.883657	0.883657
372	16    	0.883657	0  	0.883657	0.883657
373	16    	0.883657	0  	0.883657	0.883657
374	16    	0.883657	0  	0.883657	0.883657
375	16    	0.883657	0  	0.883657	0.883657
376	16    	0.883657	0  	0.883657	0.883657
377	16    	0.883657	0  	0.883657	0.883657
378	16    	0.883657	0  	0.883657	0.883657
379	16    	0.883657	0  	0.883657	0.883657
380	16    	0.883657	0  	0.883657	0.883657
381	16    	0.883657	0  	0.883657	0.883657
382	16    	0.883657	0  	0.883657	0.883657
383	16    	0.883657	0  	0.883657	0.883657
384	16    	0.883657	0  	0.883657	0.883657
385	16    	0.883657	0  	0.883657	0.883657
386	16    	0.883657	0  	0.883657	0.883657
387	16    	0.883657	0  	0.883657	0.883657
388	16    	0.883657	0  	0.883657	0.883657
389	16    	0.883657	0  	0.883657	0.883657
390	16    	0.883657	0  	0.883657	0.883657
391	16    	0.883657	0  	0.883657	0.883657
392	16    	0.883657	0  	0.883657	0.883657
393	16    	0.883657	0  	0.883657	0.883657
394	16    	0.883657	0  	0.883657	0.883657
395	16    	0.883657	0  	0.883657	0.883657
396	16    	0.883657	0  	0.883657	0.883657
397	16    	0.883657	0  	0.883657	0.883657
398	16    	0.883657	0  	0.883657	0.883657
399	16    	0.883657	0  	0.883657	0.883657
400	16    	0.883657	0  	0.883657	0.883657
401	16    	0.897103	0  	0.897103	0.897103
402	16    	0.897103	0  	0.897103	0.897103
403	16    	0.897103	0  	0.897103	0.897103
404	16    	0.897103	0  	0.897103	0.897103
405	16    	0.897103	0  	0.897103	0.897103
406	16    	0.897103	0  	0.897103	0.897103
407	16    	0.897103	0  	0.897103	0.897103
408	16    	0.897103	0  	0.897103	0.897103
409	16    	0.897103	0  	0.897103	0.897103
410	16    	0.897103	0  	0.897103	0.897103
411	16    	0.897103	0  	0.897103	0.897103
412	16    	0.897103	0  	0.897103	0.897103
413	16    	0.897103	0  	0.897103	0.897103
414	16    	0.897103	0  	0.897103	0.897103
415	16    	0.897103	0  	0.897103	0.897103
416	16    	0.897103	0  	0.897103	0.897103
417	16    	0.897103	0  	0.897103	0.897103
418	16    	0.897103	0  	0.897103	0.897103
419	16    	0.897103	0  	0.897103	0.897103
420	16    	0.897103	0  	0.897103	0.897103
421	16    	0.897103	0  	0.897103	0.897103
422	16    	0.897103	0  	0.897103	0.897103
423	16    	0.897103	0  	0.897103	0.897103
424	16    	0.897103	0  	0.897103	0.897103
425	16    	0.897103	0  	0.897103	0.897103
426	16    	0.897103	0  	0.897103	0.897103
427	16    	0.897103	0  	0.897103	0.897103
428	16    	0.897103	0  	0.897103	0.897103
429	16    	0.897103	0  	0.897103	0.897103
430	16    	0.897103	0  	0.897103	0.897103
431	16    	0.897103	0  	0.897103	0.897103
432	16    	0.897103	0  	0.897103	0.897103
433	16    	0.897103	0  	0.897103	0.897103
434	16    	0.897103	0  	0.897103	0.897103
435	16    	0.897103	0  	0.897103	0.897103
436	16    	0.897103	0  	0.897103	0.897103
437	16    	0.897103	0  	0.897103	0.897103
438	16    	0.897103	0  	0.897103	0.897103
439	16    	0.897103	0  	0.897103	0.897103
440	16    	0.897103	0  	0.897103	0.897103
441	16    	0.897103	0  	0.897103	0.897103
442	16    	0.897103	0  	0.897103	0.897103
443	16    	0.897103	0  	0.897103	0.897103
444	16    	0.897103	0  	0.897103	0.897103
445	16    	0.897103	0  	0.897103	0.897103
446	16    	0.897103	0  	0.897103	0.897103
447	16    	0.897103	0  	0.897103	0.897103
448	16    	0.897103	0  	0.897103	0.897103
449	16    	0.897103	0  	0.897103	0.897103
450	16    	0.897103	0  	0.897103	0.897103
451	16    	0.897103	0  	0.897103	0.897103
452	16    	0.897103	0  	0.897103	0.897103
453	16    	0.897103	0  	0.897103	0.897103
454	16    	0.897103	0  	0.897103	0.897103
455	16    	0.897103	0  	0.897103	0.897103
456	16    	0.898368	0  	0.898368	0.898368
457	16    	0.898368	0  	0.898368	0.898368
458	16    	0.898368	0  	0.898368	0.898368
459	16    	0.898368	0  	0.898368	0.898368
460	16    	0.898368	0  	0.898368	0.898368
461	16    	0.898368	0  	0.898368	0.898368
462	16    	0.898368	0  	0.898368	0.898368
463	16    	0.898368	0  	0.898368	0.898368
464	16    	0.898368	0  	0.898368	0.898368
465	16    	0.898368	0  	0.898368	0.898368
466	16    	0.898368	0  	0.898368	0.898368
467	16    	0.898368	0  	0.898368	0.898368
468	16    	0.898368	0  	0.898368	0.898368
469	16    	0.898368	0  	0.898368	0.898368
470	16    	0.898368	0  	0.898368	0.898368
471	16    	0.898368	0  	0.898368	0.898368
472	16    	0.898368	0  	0.898368	0.898368
473	16    	0.898368	0  	0.898368	0.898368
474	16    	0.898368	0  	0.898368	0.898368
475	16    	0.898368	0  	0.898368	0.898368
476	16    	0.898368	0  	0.898368	0.898368
477	16    	0.90077 	0  	0.90077 	0.90077 
478	16    	0.90077 	0  	0.90077 	0.90077 
479	16    	0.90077 	0  	0.90077 	0.90077 
480	16    	0.90077 	0  	0.90077 	0.90077 
481	16    	0.90077 	0  	0.90077 	0.90077 
482	16    	0.90077 	0  	0.90077 	0.90077 
483	16    	0.90077 	0  	0.90077 	0.90077 
484	16    	0.90077 	0  	0.90077 	0.90077 
485	16    	0.90077 	0  	0.90077 	0.90077 
486	16    	0.90077 	0  	0.90077 	0.90077 
487	16    	0.90077 	0  	0.90077 	0.90077 
488	16    	0.90077 	0  	0.90077 	0.90077 
489	16    	0.90077 	0  	0.90077 	0.90077 
490	16    	0.90077 	0  	0.90077 	0.90077 
491	16    	0.90077 	0  	0.90077 	0.90077 
492	16    	0.90077 	0  	0.90077 	0.90077 
493	16    	0.90077 	0  	0.90077 	0.90077 
494	16    	0.90077 	0  	0.90077 	0.90077 
495	16    	0.90077 	0  	0.90077 	0.90077 
496	16    	0.90077 	0  	0.90077 	0.90077 
497	16    	0.90077 	0  	0.90077 	0.90077 
498	16    	0.90077 	0  	0.90077 	0.90077 
499	16    	0.90077 	0  	0.90077 	0.90077 
500	16    	0.90077 	0  	0.90077 	0.90077 
501	16    	0.90077 	0  	0.90077 	0.90077 
502	16    	0.90077 	0  	0.90077 	0.90077 
503	16    	0.90077 	0  	0.90077 	0.90077 
504	16    	0.90077 	0  	0.90077 	0.90077 
505	16    	0.90077 	0  	0.90077 	0.90077 
506	16    	0.90077 	0  	0.90077 	0.90077 
507	16    	0.90077 	0  	0.90077 	0.90077 
508	16    	0.90077 	0  	0.90077 	0.90077 
509	16    	0.90077 	0  	0.90077 	0.90077 
510	16    	0.90077 	0  	0.90077 	0.90077 
511	16    	0.90077 	0  	0.90077 	0.90077 
512	16    	0.90077 	0  	0.90077 	0.90077 
513	16    	0.90077 	0  	0.90077 	0.90077 
514	16    	0.90077 	0  	0.90077 	0.90077 
515	16    	0.90077 	0  	0.90077 	0.90077 
516	16    	0.90077 	0  	0.90077 	0.90077 
517	16    	0.90077 	0  	0.90077 	0.90077 
518	16    	0.90077 	0  	0.90077 	0.90077 
519	16    	0.90077 	0  	0.90077 	0.90077 
520	16    	0.90077 	0  	0.90077 	0.90077 
521	16    	0.90077 	0  	0.90077 	0.90077 
522	16    	0.90077 	0  	0.90077 	0.90077 
523	16    	0.90077 	0  	0.90077 	0.90077 
524	16    	0.90077 	0  	0.90077 	0.90077 
525	16    	0.90077 	0  	0.90077 	0.90077 
526	16    	0.90077 	0  	0.90077 	0.90077 
527	16    	0.90077 	0  	0.90077 	0.90077 
528	16    	0.90077 	0  	0.90077 	0.90077 
529	16    	0.90077 	0  	0.90077 	0.90077 
530	16    	0.90077 	0  	0.90077 	0.90077 
531	16    	0.90077 	0  	0.90077 	0.90077 
532	16    	0.90077 	0  	0.90077 	0.90077 
533	16    	0.90077 	0  	0.90077 	0.90077 
534	16    	0.90077 	0  	0.90077 	0.90077 
535	16    	0.90077 	0  	0.90077 	0.90077 
536	16    	0.90077 	0  	0.90077 	0.90077 
537	16    	0.90077 	0  	0.90077 	0.90077 
538	16    	0.90077 	0  	0.90077 	0.90077 
539	16    	0.90077 	0  	0.90077 	0.90077 
540	16    	0.90077 	0  	0.90077 	0.90077 
541	16    	0.90077 	0  	0.90077 	0.90077 
542	16    	0.90077 	0  	0.90077 	0.90077 
543	16    	0.90077 	0  	0.90077 	0.90077 
544	16    	0.90077 	0  	0.90077 	0.90077 
545	16    	0.90077 	0  	0.90077 	0.90077 
546	16    	0.90077 	0  	0.90077 	0.90077 
547	16    	0.90077 	0  	0.90077 	0.90077 
548	16    	0.90077 	0  	0.90077 	0.90077 
549	16    	0.90077 	0  	0.90077 	0.90077 
550	16    	0.90077 	0  	0.90077 	0.90077 
551	16    	0.90077 	0  	0.90077 	0.90077 
552	16    	0.90077 	0  	0.90077 	0.90077 
553	16    	0.90077 	0  	0.90077 	0.90077 
554	16    	0.90077 	0  	0.90077 	0.90077 
555	16    	0.90077 	0  	0.90077 	0.90077 
556	16    	0.90077 	0  	0.90077 	0.90077 
557	16    	0.90077 	0  	0.90077 	0.90077 
558	16    	0.90077 	0  	0.90077 	0.90077 
559	16    	0.90077 	0  	0.90077 	0.90077 
560	16    	0.90077 	0  	0.90077 	0.90077 
561	16    	0.906208	0  	0.906208	0.906208
562	16    	0.906208	0  	0.906208	0.906208
563	16    	0.906208	0  	0.906208	0.906208
564	16    	0.906208	0  	0.906208	0.906208
565	16    	0.906208	0  	0.906208	0.906208
566	16    	0.906208	0  	0.906208	0.906208
567	16    	0.906208	0  	0.906208	0.906208
568	16    	0.906208	0  	0.906208	0.906208
569	16    	0.906208	0  	0.906208	0.906208
570	16    	0.906208	0  	0.906208	0.906208
571	16    	0.906208	0  	0.906208	0.906208
572	16    	0.906208	0  	0.906208	0.906208
573	16    	0.906208	0  	0.906208	0.906208
574	16    	0.906208	0  	0.906208	0.906208
575	16    	0.906208	0  	0.906208	0.906208
576	16    	0.906208	0  	0.906208	0.906208
577	16    	0.906208	0  	0.906208	0.906208
578	16    	0.906208	0  	0.906208	0.906208
579	16    	0.906208	0  	0.906208	0.906208
580	16    	0.906208	0  	0.906208	0.906208
581	16    	0.906208	0  	0.906208	0.906208
582	16    	0.906208	0  	0.906208	0.906208
583	16    	0.906208	0  	0.906208	0.906208
584	16    	0.906208	0  	0.906208	0.906208
585	16    	0.906208	0  	0.906208	0.906208
586	16    	0.906208	0  	0.906208	0.906208
587	16    	0.906208	0  	0.906208	0.906208
588	16    	0.906208	0  	0.906208	0.906208
589	16    	0.906208	0  	0.906208	0.906208
590	16    	0.906208	0  	0.906208	0.906208
591	16    	0.906208	0  	0.906208	0.906208
592	16    	0.906208	0  	0.906208	0.906208
593	16    	0.906208	0  	0.906208	0.906208
594	16    	0.906208	0  	0.906208	0.906208
595	16    	0.906208	0  	0.906208	0.906208
596	16    	0.906208	0  	0.906208	0.906208
597	16    	0.906208	0  	0.906208	0.906208
598	16    	0.906208	0  	0.906208	0.906208
599	16    	0.906208	0  	0.906208	0.906208
600	16    	0.906208	0  	0.906208	0.906208
601	16    	0.906208	0  	0.906208	0.906208
602	16    	0.906208	0  	0.906208	0.906208
603	16    	0.906208	0  	0.906208	0.906208
604	16    	0.906208	0  	0.906208	0.906208
605	16    	0.906208	0  	0.906208	0.906208
606	16    	0.906208	0  	0.906208	0.906208
607	16    	0.906208	0  	0.906208	0.906208
608	16    	0.906208	0  	0.906208	0.906208
609	16    	0.906208	0  	0.906208	0.906208
610	16    	0.906208	0  	0.906208	0.906208
611	16    	0.906208	0  	0.906208	0.906208
612	16    	0.906208	0  	0.906208	0.906208
613	16    	0.906208	0  	0.906208	0.906208
614	16    	0.906208	0  	0.906208	0.906208
615	16    	0.906208	0  	0.906208	0.906208
616	16    	0.906208	0  	0.906208	0.906208
617	16    	0.906208	0  	0.906208	0.906208
618	16    	0.906208	0  	0.906208	0.906208
619	16    	0.906208	0  	0.906208	0.906208
620	16    	0.906208	0  	0.906208	0.906208
621	16    	0.906208	0  	0.906208	0.906208
622	16    	0.906208	0  	0.906208	0.906208
623	16    	0.906208	0  	0.906208	0.906208
624	16    	0.906208	0  	0.906208	0.906208
625	16    	0.906208	0  	0.906208	0.906208