gen	nevals	avg     	std	min     	max     
0  	1     	0.816769	0  	0.816769	0.816769
1  	16    	0.816769	0  	0.816769	0.816769
2  	16    	0.822683	0  	0.822683	0.822683
3  	16    	0.822683	0  	0.822683	0.822683
4  	16    	0.822683	0  	0.822683	0.822683
5  	16    	0.822683	0  	0.822683	0.822683
6  	16    	0.822683	0  	0.822683	0.822683
7  	16    	0.822683	0  	0.822683	0.822683
8  	16    	0.822683	0  	0.822683	0.822683
9  	16    	0.822683	0  	0.822683	0.822683
10 	16    	0.822683	0  	0.822683	0.822683
11 	16    	0.822683	0  	0.822683	0.822683
12 	16    	0.822683	0  	0.822683	0.822683
13 	16    	0.822683	0  	0.822683	0.822683
14 	16    	0.822683	0  	0.822683	0.822683
15 	16    	0.825107	0  	0.825107	0.825107
16 	16    	0.825107	0  	0.825107	0.825107
17 	16    	0.834033	0  	0.834033	0.834033
18 	16    	0.834033	0  	0.834033	0.834033
19 	16    	0.834033	0  	0.834033	0.834033
20 	16    	0.834033	0  	0.834033	0.834033
21 	16    	0.834033	0  	0.834033	0.834033
22 	16    	0.834033	0  	0.834033	0.834033
23 	16    	0.834033	0  	0.834033	0.834033
24 	16    	0.834033	0  	0.834033	0.834033
25 	16    	0.834033	0  	0.834033	0.834033
26 	16    	0.834033	0  	0.834033	0.834033
27 	16    	0.834033	0  	0.834033	0.834033
28 	16    	0.834033	0  	0.834033	0.834033
29 	16    	0.834033	0  	0.834033	0.834033
30 	16    	0.834033	0  	0.834033	0.834033
31 	16    	0.834253	0  	0.834253	0.834253
32 	16    	0.834253	0  	0.834253	0.834253
33 	16    	0.834253	0  	0.834253	0.834253
34 	16    	0.834253	0  	0.834253	0.834253
35 	16    	0.836237	0  	0.836237	0.836237
36 	16    	0.838339	0  	0.838339	0.838339
37 	16    	0.838339	0  	0.838339	0.838339
38 	16    	0.838339	0  	0.838339	0.838339
39 	16    	0.838339	0  	0.838339	0.838339
40 	16    	0.838339	0  	0.838339	0.838339
41 	16    	0.838854	0  	0.838854	0.838854
42 	16    	0.838854	0  	0.838854	0.838854
43 	16    	0.838854	0  	0.838854	0.838854
44 	16    	0.838854	0  	0.838854	0.838854
45 	16    	0.841397	0  	0.841397	0.841397
46 	16    	0.841397	0  	0.841397	0.841397
47 	16    	0.841397	0  	0.841397	0.841397
48 	16    	0.841397	0  	0.841397	0.841397
49 	16    	0.841397	0  	0.841397	0.841397
50 	16    	0.841397	0  	0.841397	0.841397
51 	16    	0.841397	0  	0.841397	0.841397
52 	16    	0.841397	0  	0.841397	0.841397
53 	16    	0.841397	0  	0.841397	0.841397
54 	16    	0.841397	0  	0.841397	0.841397
55 	16    	0.841397	0  	0.841397	0.841397
56 	16    	0.841397	0  	0.841397	0.841397
57 	16    	0.841397	0  	0.841397	0.841397
58 	16    	0.841397	0  	0.841397	0.841397
59 	16    	0.841397	0  	0.841397	0.841397
60 	16    	0.841397	0  	0.841397	0.841397
61 	16    	0.841397	0  	0.841397	0.841397
62 	16    	0.841397	0  	0.841397	0.841397
63 	16    	0.841397	0  	0.841397	0.841397
64 	16    	0.841397	0  	0.841397	0.841397
65 	16    	0.841397	0  	0.841397	0.841397
66 	16    	0.841397	0  	0.841397	0.841397
67 	16    	0.841397	0  	0.841397	0.841397
68 	16    	0.841397	0  	0.841397	0.841397
69 	16    	0.841397	0  	0.841397	0.841397
70 	16    	0.841397	0  	0.841397	0.841397
71 	16    	0.841765	0  	0.841765	0.841765
72 	16    	0.841765	0  	0.841765	0.841765
73 	16    	0.841765	0  	0.841765	0.841765
74 	16    	0.841765	0  	0.841765	0.841765
75 	16    	0.841893	0  	0.841893	0.841893
76 	16    	0.841893	0  	0.841893	0.841893
77 	16    	0.841893	0  	0.841893	0.841893
78 	16    	0.841893	0  	0.841893	0.841893
79 	16    	0.841893	0  	0.841893	0.841893
80 	16    	0.841893	0  	0.841893	0.841893
81 	16    	0.844685	0  	0.844685	0.844685
82 	16    	0.844685	0  	0.844685	0.844685
83 	16    	0.844685	0  	0.844685	0.844685
84 	16    	0.844685	0  	0.844685	0.844685
85 	16    	0.848367	0  	0.848367	0.848367
86 	16    	0.848367	0  	0.848367	0.848367
87 	16    	0.848367	0  	0.848367	0.848367
88 	16    	0.848367	0  	0.848367	0.848367
89 	16    	0.848367	0  	0.848367	0.848367
90 	16    	0.848367	0  	0.848367	0.848367
91 	16    	0.848486	0  	0.848486	0.848486
92 	16    	0.848486	0  	0.848486	0.848486
93 	16    	0.848486	0  	0.848486	0.848486
94 	16    	0.848486	0  	0.848486	0.848486
95 	16    	0.848486	0  	0.848486	0.848486
96 	16    	0.848486	0  	0.848486	0.848486
97 	16    	0.848486	0  	0.848486	0.848486
98 	16    	0.849809	0  	0.849809	0.849809
99 	16    	0.849809	0  	0.849809	0.849809
100	16    	0.849809	0  	0.849809	0.849809
101	16    	0.849809	0  	0.849809	0.849809
102	16    	0.849809	0  	0.849809	0.849809
103	16    	0.849809	0  	0.849809	0.849809
104	16    	0.849809	0  	0.849809	0.849809
105	16    	0.849809	0  	0.849809	0.849809
106	16    	0.849809	0  	0.849809	0.849809
107	16    	0.849809	0  	0.849809	0.849809
108	16    	0.849809	0  	0.849809	0.849809
109	16    	0.849809	0  	0.849809	0.849809
110	16    	0.849809	0  	0.849809	0.849809
111	16    	0.849809	0  	0.849809	0.849809
112	16    	0.849809	0  	0.849809	0.849809
113	16    	0.849809	0  	0.849809	0.849809
114	16    	0.852031	0  	0.852031	0.852031
115	16    	0.854207	0  	0.854207	0.854207
116	16    	0.854207	0  	0.854207	0.854207
117	16    	0.856714	0  	0.856714	0.856714
118	16    	0.865869	0  	0.865869	0.865869
119	16    	0.865869	0  	0.865869	0.865869
120	16    	0.865869	0  	0.865869	0.865869
121	16    	0.865869	0  	0.865869	0.865869
122	16    	0.865869	0  	0.865869	0.865869
123	16    	0.865869	0  	0.865869	0.865869
124	16    	0.865869	0  	0.865869	0.865869
125	16    	0.865869	0  	0.865869	0.865869
126	16    	0.865869	0  	0.865869	0.865869
127	16    	0.865869	0  	0.865869	0.865869
128	16    	0.865869	0  	0.865869	0.865869
129	16    	0.865869	0  	0.865869	0.865869
130	16    	0.865869	0  	0.865869	0.865869
131	16    	0.865869	0  	0.865869	0.865869
132	16    	0.865869	0  	0.865869	0.865869
133	16    	0.865869	0  	0.865869	0.865869
134	16    	0.865869	0  	0.865869	0.865869
135	16    	0.865869	0  	0.865869	0.865869
136	16    	0.865869	0  	0.865869	0.865869
137	16    	0.865869	0  	0.865869	0.865869
138	16    	0.865869	0  	0.865869	0.865869
139	16    	0.865869	0  	0.865869	0.865869
140	16    	0.865869	0  	0.865869	0.865869
141	16    	0.865869	0  	0.865869	0.865869
142	16    	0.865869	0  	0.865869	0.865869
143	16    	0.865869	0  	0.865869	0.865869
144	16    	0.865869	0  	0.865869	0.865869
145	16    	0.865869	0  	0.865869	0.865869
146	16    	0.865869	0  	0.865869	0.865869
147	16    	0.865869	0  	0.865869	0.865869
148	16    	0.865869	0  	0.865869	0.865869
149	16    	0.865869	0  	0.865869	0.865869
150	16    	0.865869	0  	0.865869	0.865869
151	16    	0.865869	0  	0.865869	0.865869
152	16    	0.865869	0  	0.865869	0.865869
153	16    	0.865869	0  	0.865869	0.865869
154	16    	0.865869	0  	0.865869	0.865869
155	16    	0.865869	0  	0.865869	0.865869
156	16    	0.865869	0  	0.865869	0.865869
157	16    	0.865869	0  	0.865869	0.865869
158	16    	0.865869	0  	0.865869	0.865869
159	16    	0.865869	0  	0.865869	0.865869
160	16    	0.865869	0  	0.865869	0.865869
161	16    	0.865869	0  	0.865869	0.865869
162	16    	0.865869	0  	0.865869	0.865869
163	16    	0.866347	0  	0.866347	0.866347
164	16    	0.866347	0  	0.866347	0.866347
165	16    	0.866347	0  	0.866347	0.866347
166	16    	0.866347	0  	0.866347	0.866347
167	16    	0.866347	0  	0.866347	0.866347
168	16    	0.866347	0  	0.866347	0.866347
169	16    	0.866347	0  	0.866347	0.866347
170	16    	0.866347	0  	0.866347	0.866347
171	16    	0.866347	0  	0.866347	0.866347
172	16    	0.866347	0  	0.866347	0.866347
173	16    	0.866347	0  	0.866347	0.866347
174	16    	0.866347	0  	0.866347	0.866347
175	16    	0.866347	0  	0.866347	0.866347
176	16    	0.866347	0  	0.866347	0.866347
177	16    	0.866347	0  	0.866347	0.866347
178	16    	0.866347	0  	0.866347	0.866347
179	16    	0.866347	0  	0.866347	0.866347
180	16    	0.866347	0  	0.866347	0.866347
181	16    	0.866347	0  	0.866347	0.866347
182	16    	0.866898	0  	0.866898	0.866898
183	16    	0.872233	0  	0.872233	0.872233
184	16    	0.872233	0  	0.872233	0.872233
185	16    	0.872233	0  	0.872233	0.872233
186	16    	0.872233	0  	0.872233	0.872233
187	16    	0.872233	0  	0.872233	0.872233
188	16    	0.872233	0  	0.872233	0.872233
189	16    	0.872233	0  	0.872233	0.872233
190	16    	0.872233	0  	0.872233	0.872233
191	16    	0.872233	0  	0.872233	0.872233
192	16    	0.872233	0  	0.872233	0.872233
193	16    	0.872233	0  	0.872233	0.872233
194	16    	0.872233	0  	0.872233	0.872233
195	16    	0.872233	0  	0.872233	0.872233
196	16    	0.872233	0  	0.872233	0.872233
197	16    	0.872233	0  	0.872233	0.872233
198	16    	0.872233	0  	0.872233	0.872233
199	16    	0.872233	0  	0.872233	0.872233
200	16    	0.872233	0  	0.872233	0.872233
201	16    	0.872233	0  	0.872233	0.872233
202	16    	0.872233	0  	0.872233	0.872233
203	16    	0.872233	0  	0.872233	0.872233
204	16    	0.872233	0  	0.872233	0.872233
205	16    	0.872233	0  	0.872233	0.872233
206	16    	0.872233	0  	0.872233	0.872233
207	16    	0.872233	0  	0.872233	0.872233
208	16    	0.872233	0  	0.872233	0.872233
209	16    	0.872233	0  	0.872233	0.872233
210	16    	0.872233	0  	0.872233	0.872233
211	16    	0.872233	0  	0.872233	0.872233
212	16    	0.872233	0  	0.872233	0.872233
213	16    	0.872233	0  	0.872233	0.872233
214	16    	0.872233	0  	0.872233	0.872233
215	16    	0.872233	0  	0.872233	0.872233
216	16    	0.872233	0  	0.872233	0.872233
217	16    	0.872233	0  	0.872233	0.872233
218	16    	0.872233	0  	0.872233	0.872233
219	16    	0.872233	0  	0.872233	0.872233
220	16    	0.872233	0  	0.872233	0.872233
221	16    	0.872233	0  	0.872233	0.872233
222	16    	0.872233	0  	0.872233	0.872233
223	16    	0.872233	0  	0.872233	0.872233
224	16    	0.872233	0  	0.872233	0.872233
225	16    	0.872233	0  	0.872233	0.872233
226	16    	0.872233	0  	0.872233	0.872233
227	16    	0.872233	0  	0.872233	0.872233
228	16    	0.872233	0  	0.872233	0.872233
229	16    	0.872233	0  	0.872233	0.872233
230	16    	0.872233	0  	0.872233	0.872233
231	16    	0.872233	0  	0.872233	0.872233
232	16    	0.872233	0  	0.872233	0.872233
233	16    	0.872233	0  	0.872233	0.872233
234	16    	0.8735  	0  	0.8735  	0.8735  
235	16    	0.8735  	0  	0.8735  	0.8735  
236	16    	0.8735  	0  	0.8735  	0.8735  
237	16    	0.8735  	0  	0.8735  	0.8735  
238	16    	0.8735  	0  	0.8735  	0.8735  
239	16    	0.8735  	0  	0.8735  	0.8735  
240	16    	0.8735  	0  	0.8735  	0.8735  
241	16    	0.8735  	0  	0.8735  	0.8735  
242	16    	0.8735  	0  	0.8735  	0.8735  
243	16    	0.8735  	0  	0.8735  	0.8735  
244	16    	0.8735  	0  	0.8735  	0.8735  
245	16    	0.8735  	0  	0.8735  	0.8735  
246	16    	0.8735  	0  	0.8735  	0.8735  
247	16    	0.8735  	0  	0.8735  	0.8735  
248	16    	0.8735  	0  	0.8735  	0.8735  
249	16    	0.8735  	0  	0.8735  	0.8735  
250	16    	0.8735  	0  	0.8735  	0.8735  
251	16    	0.8735  	0  	0.8735  	0.8735  
252	16    	0.8735  	0  	0.8735  	0.8735  
253	16    	0.8735  	0  	0.8735  	0.8735  
254	16    	0.8735  	0  	0.8735  	0.8735  
255	16    	0.8735  	0  	0.8735  	0.8735  
256	16    	0.8735  	0  	0.8735  	0.8735  
257	16    	0.8735  	0  	0.8735  	0.8735  
258	16    	0.8735  	0  	0.8735  	0.8735  
259	16    	0.8735  	0  	0.8735  	0.8735  
260	16    	0.8735  	0  	0.8735  	0.8735  
261	16    	0.8735  	0  	0.8735  	0.8735  
262	16    	0.8735  	0  	0.8735  	0.8735  
263	16    	0.8735  	0  	0.8735  	0.8735  
264	16    	0.8735  	0  	0.8735  	0.8735  
265	16    	0.8735  	0  	0.8735  	0.8735  
266	16    	0.8735  	0  	0.8735  	0.8735  
267	16    	0.8735  	0  	0.8735  	0.8735  
268	16    	0.8735  	0  	0.8735  	0.8735  
269	16    	0.8735  	0  	0.8735  	0.8735  
270	16    	0.8735  	0  	0.8735  	0.8735  
271	16    	0.8735  	0  	0.8735  	0.8735  
272	16    	0.8735  	0  	0.8735  	0.8735  
273	16    	0.8735  	0  	0.8735  	0.8735  
274	16    	0.8735  	0  	0.8735  	0.8735  
275	16    	0.8735  	0  	0.8735  	0.8735  
276	16    	0.8735  	0  	0.8735  	0.8735  
277	16    	0.8735  	0  	0.8735  	0.8735  
278	16    	0.874969	0  	0.874969	0.874969
279	16    	0.874969	0  	0.874969	0.874969
280	16    	0.874969	0  	0.874969	0.874969
281	16    	0.874969	0  	0.874969	0.874969
282	16    	0.874969	0  	0.874969	0.874969
283	16    	0.874969	0  	0.874969	0.874969
284	16    	0.874969	0  	0.874969	0.874969
285	16    	0.874969	0  	0.874969	0.874969
286	16    	0.874969	0  	0.874969	0.874969
287	16    	0.874969	0  	0.874969	0.874969
288	16    	0.874969	0  	0.874969	0.874969
289	16    	0.874969	0  	0.874969	0.874969
290	16    	0.874969	0  	0.874969	0.874969
291	16    	0.874969	0  	0.874969	0.874969
292	16    	0.874969	0  	0.874969	0.874969
293	16    	0.874969	0  	0.874969	0.874969
294	16    	0.874969	0  	0.874969	0.874969
295	16    	0.874969	0  	0.874969	0.874969
296	16    	0.874969	0  	0.874969	0.874969
297	16    	0.874969	0  	0.874969	0.874969
298	16    	0.874969	0  	0.874969	0.874969
299	16    	0.874969	0  	0.874969	0.874969
300	16    	0.874969	0  	0.874969	0.874969
301	16    	0.874969	0  	0.874969	0.874969
302	16    	0.874969	0  	0.874969	0.874969
303	16    	0.874969	0  	0.874969	0.874969
304	16    	0.874969	0  	0.874969	0.874969
305	16    	0.874969	0  	0.874969	0.874969
306	16    	0.874969	0  	0.874969	0.874969
307	16    	0.874969	0  	0.874969	0.874969
308	16    	0.875419	0  	0.875419	0.875419
309	16    	0.875419	0  	0.875419	0.875419
310	16    	0.875419	0  	0.875419	0.875419
311	16    	0.875419	0  	0.875419	0.875419
312	16    	0.875419	0  	0.875419	0.875419
313	16    	0.875419	0  	0.875419	0.875419
314	16    	0.875419	0  	0.875419	0.875419
315	16    	0.875419	0  	0.875419	0.875419
316	16    	0.875419	0  	0.875419	0.875419
317	16    	0.875419	0  	0.875419	0.875419
318	16    	0.875419	0  	0.875419	0.875419
319	16    	0.875419	0  	0.875419	0.875419
320	16    	0.875419	0  	0.875419	0.875419
321	16    	0.875419	0  	0.875419	0.875419
322	16    	0.875419	0  	0.875419	0.875419
323	16    	0.875419	0  	0.875419	0.875419
324	16    	0.875419	0  	0.875419	0.875419
325	16    	0.875419	0  	0.875419	0.875419
326	16    	0.875419	0  	0.875419	0.875419
327	16    	0.875419	0  	0.875419	0.875419
328	16    	0.876567	0  	0.876567	0.876567
329	16    	0.876567	0  	0.876567	0.876567
330	16    	0.876567	0  	0.876567	0.876567
331	16    	0.876567	0  	0.876567	0.876567
332	16    	0.876567	0  	0.876567	0.876567
333	16    	0.876567	0  	0.876567	0.876567
334	16    	0.876567	0  	0.876567	0.876567
335	16    	0.876567	0  	0.876567	0.876567
336	16    	0.876567	0  	0.876567	0.876567
337	16    	0.877375	0  	0.877375	0.877375
338	16    	0.877375	0  	0.877375	0.877375
339	16    	0.877375	0  	0.877375	0.877375
340	16    	0.877375	0  	0.877375	0.877375
341	16    	0.877375	0  	0.877375	0.877375
342	16    	0.877375	0  	0.877375	0.877375
343	16    	0.877375	0  	0.877375	0.877375
344	16    	0.877375	0  	0.877375	0.877375
345	16    	0.879001	0  	0.879001	0.879001
346	16    	0.879001	0  	0.879001	0.879001
347	16    	0.879001	0  	0.879001	0.879001
348	16    	0.879001	0  	0.879001	0.879001
349	16    	0.879001	0  	0.879001	0.879001
350	16    	0.886035	0  	0.886035	0.886035
351	16    	0.886035	0  	0.886035	0.886035
352	16    	0.886035	0  	0.886035	0.886035
353	16    	0.886035	0  	0.886035	0.886035
354	16    	0.886035	0  	0.886035	0.886035
355	16    	0.886035	0  	0.886035	0.886035
356	16    	0.886035	0  	0.886035	0.886035
357	16    	0.886035	0  	0.886035	0.886035
358	16    	0.886035	0  	0.886035	0.886035
359	16    	0.886035	0  	0.886035	0.886035
360	16    	0.886035	0  	0.886035	0.886035
361	16    	0.886035	0  	0.886035	0.886035
362	16    	0.886035	0  	0.886035	0.886035
363	16    	0.886035	0  	0.886035	0.886035
364	16    	0.886035	0  	0.886035	0.886035
365	16    	0.886035	0  	0.886035	0.886035
366	16    	0.886035	0  	0.886035	0.886035
367	16    	0.886035	0  	0.886035	0.886035
368	16    	0.886035	0  	0.886035	0.886035
369	16    	0.886035	0  	0.886035	0.886035
370	16    	0.886035	0  	0.886035	0.886035
371	16    	0.886035	0  	0.886035	0.886035
372	16    	0.886035	0  	0.886035	0.886035
373	16    	0.886035	0  	0.886035	0.886035
374	16    	0.886035	0  	0.886035	0.886035
375	16    	0.886035	0  	0.886035	0.886035
376	16    	0.886035	0  	0.886035	0.886035
377	16    	0.886035	0  	0.886035	0.886035
378	16    	0.886035	0  	0.886035	0.886035
379	16    	0.886035	0  	0.886035	0.886035
380	16    	0.886035	0  	0.886035	0.886035
381	16    	0.886035	0  	0.886035	0.886035
382	16    	0.886035	0  	0.886035	0.886035
383	16    	0.886035	0  	0.886035	0.886035
384	16    	0.886035	0  	0.886035	0.886035
385	16    	0.886035	0  	0.886035	0.886035
386	16    	0.886035	0  	0.886035	0.886035
387	16    	0.886035	0  	0.886035	0.886035
388	16    	0.886035	0  	0.886035	0.886035
389	16    	0.886035	0  	0.886035	0.886035
390	16    	0.886035	0  	0.886035	0.886035
391	16    	0.886035	0  	0.886035	0.886035
392	16    	0.886035	0  	0.886035	0.886035
393	16    	0.886035	0  	0.886035	0.886035
394	16    	0.886035	0  	0.886035	0.886035
395	16    	0.886035	0  	0.886035	0.886035
396	16    	0.886035	0  	0.886035	0.886035
397	16    	0.886035	0  	0.886035	0.886035
398	16    	0.886035	0  	0.886035	0.886035
399	16    	0.886035	0  	0.886035	0.886035
400	16    	0.886035	0  	0.886035	0.886035
401	16    	0.886035	0  	0.886035	0.886035
402	16    	0.886035	0  	0.886035	0.886035
403	16    	0.886035	0  	0.886035	0.886035
404	16    	0.886035	0  	0.886035	0.886035
405	16    	0.886035	0  	0.886035	0.886035
406	16    	0.886035	0  	0.886035	0.886035
407	16    	0.886035	0  	0.886035	0.886035
408	16    	0.886035	0  	0.886035	0.886035
409	16    	0.886035	0  	0.886035	0.886035
410	16    	0.886035	0  	0.886035	0.886035
411	16    	0.886035	0  	0.886035	0.886035
412	16    	0.886035	0  	0.886035	0.886035
413	16    	0.886035	0  	0.886035	0.886035
414	16    	0.886035	0  	0.886035	0.886035
415	16    	0.886035	0  	0.886035	0.886035
416	16    	0.886035	0  	0.886035	0.886035
417	16    	0.886035	0  	0.886035	0.886035
418	16    	0.886035	0  	0.886035	0.886035
419	16    	0.886035	0  	0.886035	0.886035
420	16    	0.886035	0  	0.886035	0.886035
421	16    	0.886035	0  	0.886035	0.886035
422	16    	0.886035	0  	0.886035	0.886035
423	16    	0.886035	0  	0.886035	0.886035
424	16    	0.886035	0  	0.886035	0.886035
425	16    	0.886035	0  	0.886035	0.886035
426	16    	0.886035	0  	0.886035	0.886035
427	16    	0.886035	0  	0.886035	0.886035
428	16    	0.886035	0  	0.886035	0.886035
429	16    	0.886035	0  	0.886035	0.886035
430	16    	0.886035	0  	0.886035	0.886035
431	16    	0.886035	0  	0.886035	0.886035
432	16    	0.886035	0  	0.886035	0.886035
433	16    	0.886035	0  	0.886035	0.886035
434	16    	0.886035	0  	0.886035	0.886035
435	16    	0.886035	0  	0.886035	0.886035
436	16    	0.886035	0  	0.886035	0.886035
437	16    	0.886035	0  	0.886035	0.886035
438	16    	0.886035	0  	0.886035	0.886035
439	16    	0.886035	0  	0.886035	0.886035
440	16    	0.886035	0  	0.886035	0.886035
441	16    	0.886035	0  	0.886035	0.886035
442	16    	0.886035	0  	0.886035	0.886035
443	16    	0.886035	0  	0.886035	0.886035
444	16    	0.886035	0  	0.886035	0.886035
445	16    	0.886035	0  	0.886035	0.886035
446	16    	0.886035	0  	0.886035	0.886035
447	16    	0.886035	0  	0.886035	0.886035
448	16    	0.886035	0  	0.886035	0.886035
449	16    	0.886035	0  	0.886035	0.886035
450	16    	0.886035	0  	0.886035	0.886035
451	16    	0.886035	0  	0.886035	0.886035
452	16    	0.886035	0  	0.886035	0.886035
453	16    	0.886035	0  	0.886035	0.886035
454	16    	0.886035	0  	0.886035	0.886035
455	16    	0.886035	0  	0.886035	0.886035
456	16    	0.886035	0  	0.886035	0.886035
457	16    	0.886035	0  	0.886035	0.886035
458	16    	0.886035	0  	0.886035	0.886035
459	16    	0.886035	0  	0.886035	0.886035
460	16    	0.886035	0  	0.886035	0.886035
461	16    	0.886035	0  	0.886035	0.886035
462	16    	0.886035	0  	0.886035	0.886035
463	16    	0.886035	0  	0.886035	0.886035
464	16    	0.886035	0  	0.886035	0.886035
465	16    	0.886035	0  	0.886035	0.886035
466	16    	0.886035	0  	0.886035	0.886035
467	16    	0.886035	0  	0.886035	0.886035
468	16    	0.886035	0  	0.886035	0.886035
469	16    	0.886035	0  	0.886035	0.886035
470	16    	0.886035	0  	0.886035	0.886035
471	16    	0.886035	0  	0.886035	0.886035
472	16    	0.886035	0  	0.886035	0.886035
473	16    	0.886035	0  	0.886035	0.886035
474	16    	0.886035	0  	0.886035	0.886035
475	16    	0.886035	0  	0.886035	0.886035
476	16    	0.886035	0  	0.886035	0.886035
477	16    	0.886035	0  	0.886035	0.886035
478	16    	0.886035	0  	0.886035	0.886035
479	16    	0.886035	0  	0.886035	0.886035
480	16    	0.886035	0  	0.886035	0.886035
481	16    	0.886035	0  	0.886035	0.886035
482	16    	0.886035	0  	0.886035	0.886035
483	16    	0.886035	0  	0.886035	0.886035
484	16    	0.886035	0  	0.886035	0.886035
485	16    	0.886035	0  	0.886035	0.886035
486	16    	0.886035	0  	0.886035	0.886035
487	16    	0.886035	0  	0.886035	0.886035
488	16    	0.886035	0  	0.886035	0.886035
489	16    	0.886035	0  	0.886035	0.886035
490	16    	0.886035	0  	0.886035	0.886035
491	16    	0.886035	0  	0.886035	0.886035
492	16    	0.886035	0  	0.886035	0.886035
493	16    	0.886035	0  	0.886035	0.886035
494	16    	0.886035	0  	0.886035	0.886035
495	16    	0.886035	0  	0.886035	0.886035
496	16    	0.886035	0  	0.886035	0.886035
497	16    	0.886035	0  	0.886035	0.886035
498	16    	0.886035	0  	0.886035	0.886035
499	16    	0.886035	0  	0.886035	0.886035
500	16    	0.886035	0  	0.886035	0.886035
501	16    	0.886035	0  	0.886035	0.886035
502	16    	0.886035	0  	0.886035	0.886035
503	16    	0.886035	0  	0.886035	0.886035
504	16    	0.886035	0  	0.886035	0.886035
505	16    	0.886035	0  	0.886035	0.886035
506	16    	0.886035	0  	0.886035	0.886035
507	16    	0.886035	0  	0.886035	0.886035
508	16    	0.886035	0  	0.886035	0.886035
509	16    	0.886035	0  	0.886035	0.886035
510	16    	0.886035	0  	0.886035	0.886035
511	16    	0.886035	0  	0.886035	0.886035
512	16    	0.886035	0  	0.886035	0.886035
513	16    	0.886035	0  	0.886035	0.886035
514	16    	0.886035	0  	0.886035	0.886035
515	16    	0.886035	0  	0.886035	0.886035
516	16    	0.886035	0  	0.886035	0.886035
517	16    	0.886035	0  	0.886035	0.886035
518	16    	0.886035	0  	0.886035	0.886035
519	16    	0.886035	0  	0.886035	0.886035
520	16    	0.886035	0  	0.886035	0.886035
521	16    	0.886035	0  	0.886035	0.886035
522	16    	0.886035	0  	0.886035	0.886035
523	16    	0.886035	0  	0.886035	0.886035
524	16    	0.886035	0  	0.886035	0.886035
525	16    	0.886035	0  	0.886035	0.886035
526	16    	0.886035	0  	0.886035	0.886035
527	16    	0.886035	0  	0.886035	0.886035
528	16    	0.886035	0  	0.886035	0.886035
529	16    	0.886035	0  	0.886035	0.886035
530	16    	0.886035	0  	0.886035	0.886035
531	16    	0.886035	0  	0.886035	0.886035
532	16    	0.886035	0  	0.886035	0.886035
533	16    	0.886035	0  	0.886035	0.886035
534	16    	0.886035	0  	0.886035	0.886035
535	16    	0.886035	0  	0.886035	0.886035
536	16    	0.886035	0  	0.886035	0.886035
537	16    	0.886035	0  	0.886035	0.886035
538	16    	0.886035	0  	0.886035	0.886035
539	16    	0.886035	0  	0.886035	0.886035
540	16    	0.886035	0  	0.886035	0.886035
541	16    	0.886035	0  	0.886035	0.886035
542	16    	0.886035	0  	0.886035	0.886035
543	16    	0.886035	0  	0.886035	0.886035
544	16    	0.886035	0  	0.886035	0.886035
545	16    	0.886035	0  	0.886035	0.886035
546	16    	0.886035	0  	0.886035	0.886035
547	16    	0.886035	0  	0.886035	0.886035
548	16    	0.886035	0  	0.886035	0.886035
549	16    	0.886035	0  	0.886035	0.886035
550	16    	0.886035	0  	0.886035	0.886035
551	16    	0.886035	0  	0.886035	0.886035
552	16    	0.886035	0  	0.886035	0.886035
553	16    	0.886035	0  	0.886035	0.886035
554	16    	0.886035	0  	0.886035	0.886035
555	16    	0.886035	0  	0.886035	0.886035
556	16    	0.886035	0  	0.886035	0.886035
557	16    	0.886035	0  	0.886035	0.886035
558	16    	0.886035	0  	0.886035	0.886035
559	16    	0.886035	0  	0.886035	0.886035
560	16    	0.886035	0  	0.886035	0.886035
561	16    	0.886035	0  	0.886035	0.886035
562	16    	0.886035	0  	0.886035	0.886035
563	16    	0.886035	0  	0.886035	0.886035
564	16    	0.886035	0  	0.886035	0.886035
565	16    	0.887853	0  	0.887853	0.887853
566	16    	0.887853	0  	0.887853	0.887853
567	16    	0.887853	0  	0.887853	0.887853
568	16    	0.887853	0  	0.887853	0.887853
569	16    	0.887853	0  	0.887853	0.887853
570	16    	0.887853	0  	0.887853	0.887853
571	16    	0.887853	0  	0.887853	0.887853
572	16    	0.887853	0  	0.887853	0.887853
573	16    	0.887853	0  	0.887853	0.887853
574	16    	0.887853	0  	0.887853	0.887853
575	16    	0.887853	0  	0.887853	0.887853
576	16    	0.887853	0  	0.887853	0.887853
577	16    	0.887853	0  	0.887853	0.887853
578	16    	0.887853	0  	0.887853	0.887853
579	16    	0.887853	0  	0.887853	0.887853
580	16    	0.887853	0  	0.887853	0.887853
581	16    	0.887853	0  	0.887853	0.887853
582	16    	0.887853	0  	0.887853	0.887853
583	16    	0.887853	0  	0.887853	0.887853
584	16    	0.887853	0  	0.887853	0.887853
585	16    	0.887853	0  	0.887853	0.887853
586	16    	0.887853	0  	0.887853	0.887853
587	16    	0.887853	0  	0.887853	0.887853
588	16    	0.887853	0  	0.887853	0.887853
589	16    	0.887853	0  	0.887853	0.887853
590	16    	0.887853	0  	0.887853	0.887853
591	16    	0.887853	0  	0.887853	0.887853
592	16    	0.887853	0  	0.887853	0.887853
593	16    	0.887853	0  	0.887853	0.887853
594	16    	0.887853	0  	0.887853	0.887853
595	16    	0.887853	0  	0.887853	0.887853
596	16    	0.887853	0  	0.887853	0.887853
597	16    	0.887853	0  	0.887853	0.887853
598	16    	0.887853	0  	0.887853	0.887853
599	16    	0.887853	0  	0.887853	0.887853
600	16    	0.887853	0  	0.887853	0.887853
601	16    	0.887853	0  	0.887853	0.887853
602	16    	0.887853	0  	0.887853	0.887853
603	16    	0.887853	0  	0.887853	0.887853
604	16    	0.887853	0  	0.887853	0.887853
605	16    	0.887853	0  	0.887853	0.887853
606	16    	0.887853	0  	0.887853	0.887853
607	16    	0.887853	0  	0.887853	0.887853
608	16    	0.887853	0  	0.887853	0.887853
609	16    	0.887853	0  	0.887853	0.887853
610	16    	0.887853	0  	0.887853	0.887853
611	16    	0.887853	0  	0.887853	0.887853
612	16    	0.887853	0  	0.887853	0.887853
613	16    	0.887853	0  	0.887853	0.887853
614	16    	0.887853	0  	0.887853	0.887853
615	16    	0.887853	0  	0.887853	0.887853
616	16    	0.887853	0  	0.887853	0.887853
617	16    	0.887853	0  	0.887853	0.887853
618	16    	0.887853	0  	0.887853	0.887853
619	16    	0.887853	0  	0.887853	0.887853
620	16    	0.887853	0  	0.887853	0.887853
621	16    	0.887853	0  	0.887853	0.887853
622	16    	0.887853	0  	0.887853	0.887853
623	16    	0.887853	0  	0.887853	0.887853
624	16    	0.887853	0  	0.887853	0.887853
625	16    	0.887853	0  	0.887853	0.887853