gen	nevals	avg     	std	min     	max     
0  	1     	0.813638	0  	0.813638	0.813638
1  	16    	0.813638	0  	0.813638	0.813638
2  	16    	0.816999	0  	0.816999	0.816999
3  	16    	0.823021	0  	0.823021	0.823021
4  	16    	0.829951	0  	0.829951	0.829951
5  	16    	0.829951	0  	0.829951	0.829951
6  	16    	0.834456	0  	0.834456	0.834456
7  	16    	0.834456	0  	0.834456	0.834456
8  	16    	0.839316	0  	0.839316	0.839316
9  	16    	0.839316	0  	0.839316	0.839316
10 	16    	0.839316	0  	0.839316	0.839316
11 	16    	0.839316	0  	0.839316	0.839316
12 	16    	0.845719	0  	0.845719	0.845719
13 	16    	0.845719	0  	0.845719	0.845719
14 	16    	0.845719	0  	0.845719	0.845719
15 	16    	0.845719	0  	0.845719	0.845719
16 	16    	0.845719	0  	0.845719	0.845719
17 	16    	0.845719	0  	0.845719	0.845719
18 	16    	0.845719	0  	0.845719	0.845719
19 	16    	0.845719	0  	0.845719	0.845719
20 	16    	0.845719	0  	0.845719	0.845719
21 	16    	0.845719	0  	0.845719	0.845719
22 	16    	0.845719	0  	0.845719	0.845719
23 	16    	0.845719	0  	0.845719	0.845719
24 	16    	0.845719	0  	0.845719	0.845719
25 	16    	0.845719	0  	0.845719	0.845719
26 	16    	0.845719	0  	0.845719	0.845719
27 	16    	0.845719	0  	0.845719	0.845719
28 	16    	0.845719	0  	0.845719	0.845719
29 	16    	0.845719	0  	0.845719	0.845719
30 	16    	0.845719	0  	0.845719	0.845719
31 	16    	0.848244	0  	0.848244	0.848244
32 	16    	0.848244	0  	0.848244	0.848244
33 	16    	0.848244	0  	0.848244	0.848244
34 	16    	0.848244	0  	0.848244	0.848244
35 	16    	0.848244	0  	0.848244	0.848244
36 	16    	0.848244	0  	0.848244	0.848244
37 	16    	0.848244	0  	0.848244	0.848244
38 	16    	0.848244	0  	0.848244	0.848244
39 	16    	0.848244	0  	0.848244	0.848244
40 	16    	0.851959	0  	0.851959	0.851959
41 	16    	0.851959	0  	0.851959	0.851959
42 	16    	0.851959	0  	0.851959	0.851959
43 	16    	0.851959	0  	0.851959	0.851959
44 	16    	0.851959	0  	0.851959	0.851959
45 	16    	0.855329	0  	0.855329	0.855329
46 	16    	0.855329	0  	0.855329	0.855329
47 	16    	0.855329	0  	0.855329	0.855329
48 	16    	0.855329	0  	0.855329	0.855329
49 	16    	0.855329	0  	0.855329	0.855329
50 	16    	0.855329	0  	0.855329	0.855329
51 	16    	0.855329	0  	0.855329	0.855329
52 	16    	0.855329	0  	0.855329	0.855329
53 	16    	0.855329	0  	0.855329	0.855329
54 	16    	0.855329	0  	0.855329	0.855329
55 	16    	0.855329	0  	0.855329	0.855329
56 	16    	0.855329	0  	0.855329	0.855329
57 	16    	0.855329	0  	0.855329	0.855329
58 	16    	0.855329	0  	0.855329	0.855329
59 	16    	0.855329	0  	0.855329	0.855329
60 	16    	0.855329	0  	0.855329	0.855329
61 	16    	0.855329	0  	0.855329	0.855329
62 	16    	0.858372	0  	0.858372	0.858372
63 	16    	0.858372	0  	0.858372	0.858372
64 	16    	0.858372	0  	0.858372	0.858372
65 	16    	0.858372	0  	0.858372	0.858372
66 	16    	0.858372	0  	0.858372	0.858372
67 	16    	0.859644	0  	0.859644	0.859644
68 	16    	0.859644	0  	0.859644	0.859644
69 	16    	0.859644	0  	0.859644	0.859644
70 	16    	0.860797	0  	0.860797	0.860797
71 	16    	0.860797	0  	0.860797	0.860797
72 	16    	0.860797	0  	0.860797	0.860797
73 	16    	0.862232	0  	0.862232	0.862232
74 	16    	0.862232	0  	0.862232	0.862232
75 	16    	0.862232	0  	0.862232	0.862232
76 	16    	0.862232	0  	0.862232	0.862232
77 	16    	0.862232	0  	0.862232	0.862232
78 	16    	0.862232	0  	0.862232	0.862232
79 	16    	0.866056	0  	0.866056	0.866056
80 	16    	0.866056	0  	0.866056	0.866056
81 	16    	0.86662 	0  	0.86662 	0.86662 
82 	16    	0.86662 	0  	0.86662 	0.86662 
83 	16    	0.867056	0  	0.867056	0.867056
84 	16    	0.867056	0  	0.867056	0.867056
85 	16    	0.875385	0  	0.875385	0.875385
86 	16    	0.875385	0  	0.875385	0.875385
87 	16    	0.875984	0  	0.875984	0.875984
88 	16    	0.875984	0  	0.875984	0.875984
89 	16    	0.875984	0  	0.875984	0.875984
90 	16    	0.875984	0  	0.875984	0.875984
91 	16    	0.876629	0  	0.876629	0.876629
92 	16    	0.876629	0  	0.876629	0.876629
93 	16    	0.876629	0  	0.876629	0.876629
94 	16    	0.876629	0  	0.876629	0.876629
95 	16    	0.876629	0  	0.876629	0.876629
96 	16    	0.876629	0  	0.876629	0.876629
97 	16    	0.876629	0  	0.876629	0.876629
98 	16    	0.876629	0  	0.876629	0.876629
99 	16    	0.876629	0  	0.876629	0.876629
100	16    	0.876629	0  	0.876629	0.876629
101	16    	0.876629	0  	0.876629	0.876629
102	16    	0.876629	0  	0.876629	0.876629
103	16    	0.878927	0  	0.878927	0.878927
104	16    	0.878927	0  	0.878927	0.878927
105	16    	0.878927	0  	0.878927	0.878927
106	16    	0.878927	0  	0.878927	0.878927
107	16    	0.878927	0  	0.878927	0.878927
108	16    	0.878927	0  	0.878927	0.878927
109	16    	0.878927	0  	0.878927	0.878927
110	16    	0.878927	0  	0.878927	0.878927
111	16    	0.878927	0  	0.878927	0.878927
112	16    	0.878927	0  	0.878927	0.878927
113	16    	0.878927	0  	0.878927	0.878927
114	16    	0.878927	0  	0.878927	0.878927
115	16    	0.878927	0  	0.878927	0.878927
116	16    	0.878927	0  	0.878927	0.878927
117	16    	0.880535	0  	0.880535	0.880535
118	16    	0.880535	0  	0.880535	0.880535
119	16    	0.880535	0  	0.880535	0.880535
120	16    	0.880535	0  	0.880535	0.880535
121	16    	0.880535	0  	0.880535	0.880535
122	16    	0.880535	0  	0.880535	0.880535
123	16    	0.880535	0  	0.880535	0.880535
124	16    	0.880535	0  	0.880535	0.880535
125	16    	0.880535	0  	0.880535	0.880535
126	16    	0.880535	0  	0.880535	0.880535
127	16    	0.880535	0  	0.880535	0.880535
128	16    	0.880535	0  	0.880535	0.880535
129	16    	0.880535	0  	0.880535	0.880535
130	16    	0.880535	0  	0.880535	0.880535
131	16    	0.880535	0  	0.880535	0.880535
132	16    	0.880535	0  	0.880535	0.880535
133	16    	0.880535	0  	0.880535	0.880535
134	16    	0.881361	0  	0.881361	0.881361
135	16    	0.881361	0  	0.881361	0.881361
136	16    	0.881361	0  	0.881361	0.881361
137	16    	0.881361	0  	0.881361	0.881361
138	16    	0.881361	0  	0.881361	0.881361
139	16    	0.881361	0  	0.881361	0.881361
140	16    	0.881361	0  	0.881361	0.881361
141	16    	0.881361	0  	0.881361	0.881361
142	16    	0.881361	0  	0.881361	0.881361
143	16    	0.881361	0  	0.881361	0.881361
144	16    	0.881361	0  	0.881361	0.881361
145	16    	0.881361	0  	0.881361	0.881361
146	16    	0.881361	0  	0.881361	0.881361
147	16    	0.885903	0  	0.885903	0.885903
148	16    	0.885903	0  	0.885903	0.885903
149	16    	0.885903	0  	0.885903	0.885903
150	16    	0.885903	0  	0.885903	0.885903
151	16    	0.885903	0  	0.885903	0.885903
152	16    	0.885903	0  	0.885903	0.885903
153	16    	0.885903	0  	0.885903	0.885903
154	16    	0.885903	0  	0.885903	0.885903
155	16    	0.885903	0  	0.885903	0.885903
156	16    	0.885903	0  	0.885903	0.885903
157	16    	0.885903	0  	0.885903	0.885903
158	16    	0.885903	0  	0.885903	0.885903
159	16    	0.885903	0  	0.885903	0.885903
160	16    	0.885903	0  	0.885903	0.885903
161	16    	0.885903	0  	0.885903	0.885903
162	16    	0.885903	0  	0.885903	0.885903
163	16    	0.885903	0  	0.885903	0.885903
164	16    	0.885903	0  	0.885903	0.885903
165	16    	0.885903	0  	0.885903	0.885903
166	16    	0.885903	0  	0.885903	0.885903
167	16    	0.885903	0  	0.885903	0.885903
168	16    	0.885903	0  	0.885903	0.885903
169	16    	0.885903	0  	0.885903	0.885903
170	16    	0.885903	0  	0.885903	0.885903
171	16    	0.885903	0  	0.885903	0.885903
172	16    	0.885903	0  	0.885903	0.885903
173	16    	0.885903	0  	0.885903	0.885903
174	16    	0.885903	0  	0.885903	0.885903
175	16    	0.885903	0  	0.885903	0.885903
176	16    	0.885903	0  	0.885903	0.885903
177	16    	0.885903	0  	0.885903	0.885903
178	16    	0.885903	0  	0.885903	0.885903
179	16    	0.885903	0  	0.885903	0.885903
180	16    	0.885903	0  	0.885903	0.885903
181	16    	0.885903	0  	0.885903	0.885903
182	16    	0.885903	0  	0.885903	0.885903
183	16    	0.885903	0  	0.885903	0.885903
184	16    	0.885903	0  	0.885903	0.885903
185	16    	0.885903	0  	0.885903	0.885903
186	16    	0.885903	0  	0.885903	0.885903
187	16    	0.885903	0  	0.885903	0.885903
188	16    	0.885903	0  	0.885903	0.885903
189	16    	0.885903	0  	0.885903	0.885903
190	16    	0.885903	0  	0.885903	0.885903
191	16    	0.885903	0  	0.885903	0.885903
192	16    	0.885903	0  	0.885903	0.885903
193	16    	0.885903	0  	0.885903	0.885903
194	16    	0.885903	0  	0.885903	0.885903
195	16    	0.885903	0  	0.885903	0.885903
196	16    	0.885903	0  	0.885903	0.885903
197	16    	0.885903	0  	0.885903	0.885903
198	16    	0.885903	0  	0.885903	0.885903
199	16    	0.885903	0  	0.885903	0.885903
200	16    	0.885903	0  	0.885903	0.885903
201	16    	0.885903	0  	0.885903	0.885903
202	16    	0.885903	0  	0.885903	0.885903
203	16    	0.885903	0  	0.885903	0.885903
204	16    	0.885903	0  	0.885903	0.885903
205	16    	0.885903	0  	0.885903	0.885903
206	16    	0.885903	0  	0.885903	0.885903
207	16    	0.885903	0  	0.885903	0.885903
208	16    	0.885903	0  	0.885903	0.885903
209	16    	0.885903	0  	0.885903	0.885903
210	16    	0.885903	0  	0.885903	0.885903
211	16    	0.885903	0  	0.885903	0.885903
212	16    	0.885903	0  	0.885903	0.885903
213	16    	0.885903	0  	0.885903	0.885903
214	16    	0.885903	0  	0.885903	0.885903
215	16    	0.885903	0  	0.885903	0.885903
216	16    	0.885903	0  	0.885903	0.885903
217	16    	0.885903	0  	0.885903	0.885903
218	16    	0.885903	0  	0.885903	0.885903
219	16    	0.885903	0  	0.885903	0.885903
220	16    	0.885903	0  	0.885903	0.885903
221	16    	0.885903	0  	0.885903	0.885903
222	16    	0.88782 	0  	0.88782 	0.88782 
223	16    	0.88782 	0  	0.88782 	0.88782 
224	16    	0.88782 	0  	0.88782 	0.88782 
225	16    	0.88782 	0  	0.88782 	0.88782 
226	16    	0.88782 	0  	0.88782 	0.88782 
227	16    	0.88782 	0  	0.88782 	0.88782 
228	16    	0.88782 	0  	0.88782 	0.88782 
229	16    	0.88782 	0  	0.88782 	0.88782 
230	16    	0.88782 	0  	0.88782 	0.88782 
231	16    	0.88782 	0  	0.88782 	0.88782 
232	16    	0.88782 	0  	0.88782 	0.88782 
233	16    	0.88782 	0  	0.88782 	0.88782 
234	16    	0.88782 	0  	0.88782 	0.88782 
235	16    	0.88782 	0  	0.88782 	0.88782 
236	16    	0.88782 	0  	0.88782 	0.88782 
237	16    	0.88782 	0  	0.88782 	0.88782 
238	16    	0.88782 	0  	0.88782 	0.88782 
239	16    	0.88782 	0  	0.88782 	0.88782 
240	16    	0.88782 	0  	0.88782 	0.88782 
241	16    	0.88782 	0  	0.88782 	0.88782 
242	16    	0.88782 	0  	0.88782 	0.88782 
243	16    	0.88782 	0  	0.88782 	0.88782 
244	16    	0.88782 	0  	0.88782 	0.88782 
245	16    	0.88782 	0  	0.88782 	0.88782 
246	16    	0.88782 	0  	0.88782 	0.88782 
247	16    	0.88782 	0  	0.88782 	0.88782 
248	16    	0.88782 	0  	0.88782 	0.88782 
249	16    	0.88782 	0  	0.88782 	0.88782 
250	16    	0.88782 	0  	0.88782 	0.88782 
251	16    	0.88782 	0  	0.88782 	0.88782 
252	16    	0.88782 	0  	0.88782 	0.88782 
253	16    	0.88782 	0  	0.88782 	0.88782 
254	16    	0.88782 	0  	0.88782 	0.88782 
255	16    	0.88782 	0  	0.88782 	0.88782 
256	16    	0.88782 	0  	0.88782 	0.88782 
257	16    	0.88782 	0  	0.88782 	0.88782 
258	16    	0.88782 	0  	0.88782 	0.88782 
259	16    	0.888801	0  	0.888801	0.888801
260	16    	0.888801	0  	0.888801	0.888801
261	16    	0.888801	0  	0.888801	0.888801
262	16    	0.888801	0  	0.888801	0.888801
263	16    	0.888801	0  	0.888801	0.888801
264	16    	0.888801	0  	0.888801	0.888801
265	16    	0.888801	0  	0.888801	0.888801
266	16    	0.888801	0  	0.888801	0.888801
267	16    	0.888801	0  	0.888801	0.888801
268	16    	0.888801	0  	0.888801	0.888801
269	16    	0.888801	0  	0.888801	0.888801
270	16    	0.888801	0  	0.888801	0.888801
271	16    	0.888801	0  	0.888801	0.888801
272	16    	0.888801	0  	0.888801	0.888801
273	16    	0.888801	0  	0.888801	0.888801
274	16    	0.888801	0  	0.888801	0.888801
275	16    	0.888801	0  	0.888801	0.888801
276	16    	0.888801	0  	0.888801	0.888801
277	16    	0.888801	0  	0.888801	0.888801
278	16    	0.888801	0  	0.888801	0.888801
279	16    	0.888801	0  	0.888801	0.888801
280	16    	0.888801	0  	0.888801	0.888801
281	16    	0.888801	0  	0.888801	0.888801
282	16    	0.888801	0  	0.888801	0.888801
283	16    	0.888801	0  	0.888801	0.888801
284	16    	0.888801	0  	0.888801	0.888801
285	16    	0.888801	0  	0.888801	0.888801
286	16    	0.888801	0  	0.888801	0.888801
287	16    	0.888801	0  	0.888801	0.888801
288	16    	0.888801	0  	0.888801	0.888801
289	16    	0.888801	0  	0.888801	0.888801
290	16    	0.888801	0  	0.888801	0.888801
291	16    	0.888801	0  	0.888801	0.888801
292	16    	0.889246	0  	0.889246	0.889246
293	16    	0.889246	0  	0.889246	0.889246
294	16    	0.889246	0  	0.889246	0.889246
295	16    	0.889246	0  	0.889246	0.889246
296	16    	0.891008	0  	0.891008	0.891008
297	16    	0.891008	0  	0.891008	0.891008
298	16    	0.891008	0  	0.891008	0.891008
299	16    	0.891008	0  	0.891008	0.891008
300	16    	0.891008	0  	0.891008	0.891008
301	16    	0.891008	0  	0.891008	0.891008
302	16    	0.891008	0  	0.891008	0.891008
303	16    	0.891008	0  	0.891008	0.891008
304	16    	0.891008	0  	0.891008	0.891008
305	16    	0.891008	0  	0.891008	0.891008
306	16    	0.89178 	0  	0.89178 	0.89178 
307	16    	0.89178 	0  	0.89178 	0.89178 
308	16    	0.89178 	0  	0.89178 	0.89178 
309	16    	0.89178 	0  	0.89178 	0.89178 
310	16    	0.89178 	0  	0.89178 	0.89178 
311	16    	0.89178 	0  	0.89178 	0.89178 
312	16    	0.89178 	0  	0.89178 	0.89178 
313	16    	0.89178 	0  	0.89178 	0.89178 
314	16    	0.89178 	0  	0.89178 	0.89178 
315	16    	0.89178 	0  	0.89178 	0.89178 
316	16    	0.89178 	0  	0.89178 	0.89178 
317	16    	0.89178 	0  	0.89178 	0.89178 
318	16    	0.89178 	0  	0.89178 	0.89178 
319	16    	0.893805	0  	0.893805	0.893805
320	16    	0.893805	0  	0.893805	0.893805
321	16    	0.893805	0  	0.893805	0.893805
322	16    	0.893805	0  	0.893805	0.893805
323	16    	0.893805	0  	0.893805	0.893805
324	16    	0.893805	0  	0.893805	0.893805
325	16    	0.893805	0  	0.893805	0.893805
326	16    	0.893805	0  	0.893805	0.893805
327	16    	0.893805	0  	0.893805	0.893805
328	16    	0.893805	0  	0.893805	0.893805
329	16    	0.893805	0  	0.893805	0.893805
330	16    	0.893805	0  	0.893805	0.893805
331	16    	0.893805	0  	0.893805	0.893805
332	16    	0.893805	0  	0.893805	0.893805
333	16    	0.893805	0  	0.893805	0.893805
334	16    	0.893805	0  	0.893805	0.893805
335	16    	0.893805	0  	0.893805	0.893805
336	16    	0.893805	0  	0.893805	0.893805
337	16    	0.893805	0  	0.893805	0.893805
338	16    	0.893805	0  	0.893805	0.893805
339	16    	0.893805	0  	0.893805	0.893805
340	16    	0.893805	0  	0.893805	0.893805
341	16    	0.893805	0  	0.893805	0.893805
342	16    	0.893805	0  	0.893805	0.893805
343	16    	0.893805	0  	0.893805	0.893805
344	16    	0.893805	0  	0.893805	0.893805
345	16    	0.893805	0  	0.893805	0.893805
346	16    	0.893805	0  	0.893805	0.893805
347	16    	0.893805	0  	0.893805	0.893805
348	16    	0.893805	0  	0.893805	0.893805
349	16    	0.893805	0  	0.893805	0.893805
350	16    	0.893805	0  	0.893805	0.893805
351	16    	0.893805	0  	0.893805	0.893805
352	16    	0.893805	0  	0.893805	0.893805
353	16    	0.893805	0  	0.893805	0.893805
354	16    	0.893805	0  	0.893805	0.893805
355	16    	0.893805	0  	0.893805	0.893805
356	16    	0.893805	0  	0.893805	0.893805
357	16    	0.893805	0  	0.893805	0.893805
358	16    	0.893805	0  	0.893805	0.893805
359	16    	0.893805	0  	0.893805	0.893805
360	16    	0.893805	0  	0.893805	0.893805
361	16    	0.893805	0  	0.893805	0.893805
362	16    	0.893805	0  	0.893805	0.893805
363	16    	0.893805	0  	0.893805	0.893805
364	16    	0.893805	0  	0.893805	0.893805
365	16    	0.893805	0  	0.893805	0.893805
366	16    	0.893805	0  	0.893805	0.893805
367	16    	0.893805	0  	0.893805	0.893805
368	16    	0.893805	0  	0.893805	0.893805
369	16    	0.893805	0  	0.893805	0.893805
370	16    	0.893805	0  	0.893805	0.893805
371	16    	0.893805	0  	0.893805	0.893805
372	16    	0.893805	0  	0.893805	0.893805
373	16    	0.893805	0  	0.893805	0.893805
374	16    	0.893805	0  	0.893805	0.893805
375	16    	0.893805	0  	0.893805	0.893805
376	16    	0.893805	0  	0.893805	0.893805
377	16    	0.893805	0  	0.893805	0.893805
378	16    	0.893805	0  	0.893805	0.893805
379	16    	0.893805	0  	0.893805	0.893805
380	16    	0.893805	0  	0.893805	0.893805
381	16    	0.893805	0  	0.893805	0.893805
382	16    	0.893805	0  	0.893805	0.893805
383	16    	0.894714	0  	0.894714	0.894714
384	16    	0.894714	0  	0.894714	0.894714
385	16    	0.894714	0  	0.894714	0.894714
386	16    	0.894714	0  	0.894714	0.894714
387	16    	0.894714	0  	0.894714	0.894714
388	16    	0.894714	0  	0.894714	0.894714
389	16    	0.894714	0  	0.894714	0.894714
390	16    	0.894714	0  	0.894714	0.894714
391	16    	0.894714	0  	0.894714	0.894714
392	16    	0.894714	0  	0.894714	0.894714
393	16    	0.894714	0  	0.894714	0.894714
394	16    	0.894714	0  	0.894714	0.894714
395	16    	0.894714	0  	0.894714	0.894714
396	16    	0.894714	0  	0.894714	0.894714
397	16    	0.894714	0  	0.894714	0.894714
398	16    	0.894714	0  	0.894714	0.894714
399	16    	0.894714	0  	0.894714	0.894714
400	16    	0.894714	0  	0.894714	0.894714
401	16    	0.894714	0  	0.894714	0.894714
402	16    	0.894714	0  	0.894714	0.894714
403	16    	0.894714	0  	0.894714	0.894714
404	16    	0.894714	0  	0.894714	0.894714
405	16    	0.894714	0  	0.894714	0.894714
406	16    	0.894714	0  	0.894714	0.894714
407	16    	0.894714	0  	0.894714	0.894714
408	16    	0.894714	0  	0.894714	0.894714
409	16    	0.894714	0  	0.894714	0.894714
410	16    	0.894714	0  	0.894714	0.894714
411	16    	0.894714	0  	0.894714	0.894714
412	16    	0.894714	0  	0.894714	0.894714
413	16    	0.894714	0  	0.894714	0.894714
414	16    	0.894714	0  	0.894714	0.894714
415	16    	0.894714	0  	0.894714	0.894714
416	16    	0.894714	0  	0.894714	0.894714
417	16    	0.894714	0  	0.894714	0.894714
418	16    	0.894714	0  	0.894714	0.894714
419	16    	0.894714	0  	0.894714	0.894714
420	16    	0.894714	0  	0.894714	0.894714
421	16    	0.894714	0  	0.894714	0.894714
422	16    	0.894714	0  	0.894714	0.894714
423	16    	0.894714	0  	0.894714	0.894714
424	16    	0.894714	0  	0.894714	0.894714
425	16    	0.894714	0  	0.894714	0.894714
426	16    	0.894714	0  	0.894714	0.894714
427	16    	0.894714	0  	0.894714	0.894714
428	16    	0.894714	0  	0.894714	0.894714
429	16    	0.894714	0  	0.894714	0.894714
430	16    	0.894714	0  	0.894714	0.894714
431	16    	0.894714	0  	0.894714	0.894714
432	16    	0.894714	0  	0.894714	0.894714
433	16    	0.894714	0  	0.894714	0.894714
434	16    	0.894714	0  	0.894714	0.894714
435	16    	0.894714	0  	0.894714	0.894714
436	16    	0.894714	0  	0.894714	0.894714
437	16    	0.894714	0  	0.894714	0.894714
438	16    	0.894714	0  	0.894714	0.894714
439	16    	0.894714	0  	0.894714	0.894714
440	16    	0.894714	0  	0.894714	0.894714
441	16    	0.894714	0  	0.894714	0.894714
442	16    	0.894714	0  	0.894714	0.894714
443	16    	0.894714	0  	0.894714	0.894714
444	16    	0.894714	0  	0.894714	0.894714
445	16    	0.894714	0  	0.894714	0.894714
446	16    	0.894714	0  	0.894714	0.894714
447	16    	0.894714	0  	0.894714	0.894714
448	16    	0.894714	0  	0.894714	0.894714
449	16    	0.894714	0  	0.894714	0.894714
450	16    	0.894714	0  	0.894714	0.894714
451	16    	0.894714	0  	0.894714	0.894714
452	16    	0.894714	0  	0.894714	0.894714
453	16    	0.894714	0  	0.894714	0.894714
454	16    	0.894714	0  	0.894714	0.894714
455	16    	0.894714	0  	0.894714	0.894714
456	16    	0.894714	0  	0.894714	0.894714
457	16    	0.894714	0  	0.894714	0.894714
458	16    	0.894714	0  	0.894714	0.894714
459	16    	0.894714	0  	0.894714	0.894714
460	16    	0.894714	0  	0.894714	0.894714
461	16    	0.894714	0  	0.894714	0.894714
462	16    	0.894714	0  	0.894714	0.894714
463	16    	0.894714	0  	0.894714	0.894714
464	16    	0.894714	0  	0.894714	0.894714
465	16    	0.894714	0  	0.894714	0.894714
466	16    	0.894714	0  	0.894714	0.894714
467	16    	0.894714	0  	0.894714	0.894714
468	16    	0.896303	0  	0.896303	0.896303
469	16    	0.896303	0  	0.896303	0.896303
470	16    	0.896303	0  	0.896303	0.896303
471	16    	0.896303	0  	0.896303	0.896303
472	16    	0.896303	0  	0.896303	0.896303
473	16    	0.896303	0  	0.896303	0.896303
474	16    	0.89633 	0  	0.89633 	0.89633 
475	16    	0.89633 	0  	0.89633 	0.89633 
476	16    	0.89633 	0  	0.89633 	0.89633 
477	16    	0.89633 	0  	0.89633 	0.89633 
478	16    	0.89633 	0  	0.89633 	0.89633 
479	16    	0.89633 	0  	0.89633 	0.89633 
480	16    	0.89633 	0  	0.89633 	0.89633 
481	16    	0.89633 	0  	0.89633 	0.89633 
482	16    	0.89633 	0  	0.89633 	0.89633 
483	16    	0.89633 	0  	0.89633 	0.89633 
484	16    	0.89633 	0  	0.89633 	0.89633 
485	16    	0.89633 	0  	0.89633 	0.89633 
486	16    	0.89633 	0  	0.89633 	0.89633 
487	16    	0.89633 	0  	0.89633 	0.89633 
488	16    	0.89633 	0  	0.89633 	0.89633 
489	16    	0.89633 	0  	0.89633 	0.89633 
490	16    	0.89633 	0  	0.89633 	0.89633 
491	16    	0.89633 	0  	0.89633 	0.89633 
492	16    	0.89633 	0  	0.89633 	0.89633 
493	16    	0.89633 	0  	0.89633 	0.89633 
494	16    	0.89633 	0  	0.89633 	0.89633 
495	16    	0.89633 	0  	0.89633 	0.89633 
496	16    	0.89633 	0  	0.89633 	0.89633 
497	16    	0.89633 	0  	0.89633 	0.89633 
498	16    	0.89633 	0  	0.89633 	0.89633 
499	16    	0.89633 	0  	0.89633 	0.89633 
500	16    	0.89633 	0  	0.89633 	0.89633 
501	16    	0.89633 	0  	0.89633 	0.89633 
502	16    	0.89633 	0  	0.89633 	0.89633 
503	16    	0.89633 	0  	0.89633 	0.89633 
504	16    	0.89633 	0  	0.89633 	0.89633 
505	16    	0.89633 	0  	0.89633 	0.89633 
506	16    	0.89633 	0  	0.89633 	0.89633 
507	16    	0.89633 	0  	0.89633 	0.89633 
508	16    	0.89633 	0  	0.89633 	0.89633 
509	16    	0.89633 	0  	0.89633 	0.89633 
510	16    	0.89633 	0  	0.89633 	0.89633 
511	16    	0.89633 	0  	0.89633 	0.89633 
512	16    	0.89633 	0  	0.89633 	0.89633 
513	16    	0.89633 	0  	0.89633 	0.89633 
514	16    	0.89633 	0  	0.89633 	0.89633 
515	16    	0.89633 	0  	0.89633 	0.89633 
516	16    	0.89633 	0  	0.89633 	0.89633 
517	16    	0.89633 	0  	0.89633 	0.89633 
518	16    	0.89633 	0  	0.89633 	0.89633 
519	16    	0.89633 	0  	0.89633 	0.89633 
520	16    	0.89633 	0  	0.89633 	0.89633 
521	16    	0.89633 	0  	0.89633 	0.89633 
522	16    	0.89633 	0  	0.89633 	0.89633 
523	16    	0.89633 	0  	0.89633 	0.89633 
524	16    	0.89633 	0  	0.89633 	0.89633 
525	16    	0.89633 	0  	0.89633 	0.89633 
526	16    	0.89633 	0  	0.89633 	0.89633 
527	16    	0.89633 	0  	0.89633 	0.89633 
528	16    	0.89633 	0  	0.89633 	0.89633 
529	16    	0.89633 	0  	0.89633 	0.89633 
530	16    	0.89633 	0  	0.89633 	0.89633 
531	16    	0.89633 	0  	0.89633 	0.89633 
532	16    	0.89633 	0  	0.89633 	0.89633 
533	16    	0.89633 	0  	0.89633 	0.89633 
534	16    	0.89633 	0  	0.89633 	0.89633 
535	16    	0.89633 	0  	0.89633 	0.89633 
536	16    	0.89633 	0  	0.89633 	0.89633 
537	16    	0.89633 	0  	0.89633 	0.89633 
538	16    	0.89633 	0  	0.89633 	0.89633 
539	16    	0.89633 	0  	0.89633 	0.89633 
540	16    	0.89633 	0  	0.89633 	0.89633 
541	16    	0.89633 	0  	0.89633 	0.89633 
542	16    	0.89633 	0  	0.89633 	0.89633 
543	16    	0.89633 	0  	0.89633 	0.89633 
544	16    	0.89633 	0  	0.89633 	0.89633 
545	16    	0.89633 	0  	0.89633 	0.89633 
546	16    	0.89633 	0  	0.89633 	0.89633 
547	16    	0.89633 	0  	0.89633 	0.89633 
548	16    	0.89633 	0  	0.89633 	0.89633 
549	16    	0.89633 	0  	0.89633 	0.89633 
550	16    	0.89633 	0  	0.89633 	0.89633 
551	16    	0.89633 	0  	0.89633 	0.89633 
552	16    	0.89633 	0  	0.89633 	0.89633 
553	16    	0.89633 	0  	0.89633 	0.89633 
554	16    	0.89633 	0  	0.89633 	0.89633 
555	16    	0.89633 	0  	0.89633 	0.89633 
556	16    	0.89633 	0  	0.89633 	0.89633 
557	16    	0.89633 	0  	0.89633 	0.89633 
558	16    	0.89633 	0  	0.89633 	0.89633 
559	16    	0.89633 	0  	0.89633 	0.89633 
560	16    	0.89633 	0  	0.89633 	0.89633 
561	16    	0.89633 	0  	0.89633 	0.89633 
562	16    	0.89633 	0  	0.89633 	0.89633 
563	16    	0.89633 	0  	0.89633 	0.89633 
564	16    	0.89633 	0  	0.89633 	0.89633 
565	16    	0.89633 	0  	0.89633 	0.89633 
566	16    	0.89633 	0  	0.89633 	0.89633 
567	16    	0.89633 	0  	0.89633 	0.89633 
568	16    	0.89633 	0  	0.89633 	0.89633 
569	16    	0.89633 	0  	0.89633 	0.89633 
570	16    	0.89633 	0  	0.89633 	0.89633 
571	16    	0.89633 	0  	0.89633 	0.89633 
572	16    	0.89633 	0  	0.89633 	0.89633 
573	16    	0.89633 	0  	0.89633 	0.89633 
574	16    	0.89633 	0  	0.89633 	0.89633 
575	16    	0.89633 	0  	0.89633 	0.89633 
576	16    	0.89633 	0  	0.89633 	0.89633 
577	16    	0.89633 	0  	0.89633 	0.89633 
578	16    	0.89633 	0  	0.89633 	0.89633 
579	16    	0.89633 	0  	0.89633 	0.89633 
580	16    	0.89633 	0  	0.89633 	0.89633 
581	16    	0.89633 	0  	0.89633 	0.89633 
582	16    	0.89633 	0  	0.89633 	0.89633 
583	16    	0.89633 	0  	0.89633 	0.89633 
584	16    	0.89633 	0  	0.89633 	0.89633 
585	16    	0.89633 	0  	0.89633 	0.89633 
586	16    	0.89633 	0  	0.89633 	0.89633 
587	16    	0.89633 	0  	0.89633 	0.89633 
588	16    	0.89633 	0  	0.89633 	0.89633 
589	16    	0.89633 	0  	0.89633 	0.89633 
590	16    	0.89633 	0  	0.89633 	0.89633 
591	16    	0.89633 	0  	0.89633 	0.89633 
592	16    	0.89633 	0  	0.89633 	0.89633 
593	16    	0.89633 	0  	0.89633 	0.89633 
594	16    	0.89633 	0  	0.89633 	0.89633 
595	16    	0.89633 	0  	0.89633 	0.89633 
596	16    	0.89633 	0  	0.89633 	0.89633 
597	16    	0.89633 	0  	0.89633 	0.89633 
598	16    	0.89633 	0  	0.89633 	0.89633 
599	16    	0.89633 	0  	0.89633 	0.89633 
600	16    	0.89633 	0  	0.89633 	0.89633 
601	16    	0.89633 	0  	0.89633 	0.89633 
602	16    	0.89633 	0  	0.89633 	0.89633 
603	16    	0.89633 	0  	0.89633 	0.89633 
604	16    	0.89633 	0  	0.89633 	0.89633 
605	16    	0.89633 	0  	0.89633 	0.89633 
606	16    	0.89633 	0  	0.89633 	0.89633 
607	16    	0.89633 	0  	0.89633 	0.89633 
608	16    	0.89633 	0  	0.89633 	0.89633 
609	16    	0.89633 	0  	0.89633 	0.89633 
610	16    	0.89633 	0  	0.89633 	0.89633 
611	16    	0.89633 	0  	0.89633 	0.89633 
612	16    	0.89633 	0  	0.89633 	0.89633 
613	16    	0.89633 	0  	0.89633 	0.89633 
614	16    	0.89633 	0  	0.89633 	0.89633 
615	16    	0.89633 	0  	0.89633 	0.89633 
616	16    	0.89633 	0  	0.89633 	0.89633 
617	16    	0.89633 	0  	0.89633 	0.89633 
618	16    	0.89633 	0  	0.89633 	0.89633 
619	16    	0.89633 	0  	0.89633 	0.89633 
620	16    	0.89633 	0  	0.89633 	0.89633 
621	16    	0.89633 	0  	0.89633 	0.89633 
622	16    	0.89633 	0  	0.89633 	0.89633 
623	16    	0.89633 	0  	0.89633 	0.89633 
624	16    	0.89633 	0  	0.89633 	0.89633 
625	16    	0.89633 	0  	0.89633 	0.89633 