Best:28.0 Solution:20
Best:28.0 Solution:20
Best:28.0 Solution:20
Best:28.0 Solution:20
Best:28.0 Solution:20
Best:28.0 Solution:20
Best:28.0 Solution:20
Best:28.0 Solution:20
Best:27.0 Solution:20
Best:29.0 Solution:20
Best:27.0 Solution:20
Best:28.0 Solution:20
Best:29.0 Solution:20
Best:28.0 Solution:20
Best:28.0 Solution:20
Best:27.0 Solution:20
Best:28.0 Solution:20
Best:28.0 Solution:20
Best:26.0 Solution:20
Best:28.0 Solution:20
Best:28.0 Solution:20
Best:29.0 Solution:20
Best:28.0 Solution:20
Best:28.0 Solution:20
Best:28.0 Solution:20
Best:28.0 Solution:20
Best:28.0 Solution:20
Best:29.0 Solution:20
Best:28.0 Solution:20
Best:27.0 Solution:20
Best:28.0 Solution:20
Best:29.0 Solution:20
Best:28.0 Solution:20
Best:28.0 Solution:20
Best:27.0 Solution:20
Best:27.0 Solution:20
Best:29.0 Solution:20
Best:28.0 Solution:20
Best:28.0 Solution:20
Best:28.0 Solution:20
Best:28.0 Solution:20
Best:28.0 Solution:20
Best:28.0 Solution:20
Best:28.0 Solution:20
Best:28.0 Solution:20
Best:28.0 Solution:20
Best:28.0 Solution:20
Best:28.0 Solution:20
Best:28.0 Solution:20
Best:27.0 Solution:20

