gen	nevals	avg     	std        	min     	max     
0  	20    	0.581725	0.0200135  	0.555557	0.622803
1  	40    	0.599854	0.0110679  	0.587723	0.622803
2  	40    	0.607602	0.01168    	0.593567	0.637421
3  	40    	0.612865	0.00953656 	0.599411	0.637421
4  	40    	0.620174	0.00756169 	0.608185	0.637421
5  	40    	0.622952	0.00595362 	0.614029	0.637421
6  	40    	0.628946	0.00978044 	0.619888	0.663742
7  	40    	0.632016	0.00921316 	0.622803	0.663742
8  	40    	0.635818	0.00903532 	0.625732	0.663742
9  	40    	0.640788	0.00916678 	0.631577	0.663742
10 	40    	0.647221	0.00843907 	0.637421	0.663742
11 	40    	0.654241	0.00821076 	0.64328 	0.672516
12 	40    	0.655849	0.00692495 	0.646194	0.672516
13 	40    	0.66199 	0.00609168 	0.652054	0.675446
14 	40    	0.666375	0.00412661 	0.660812	0.675446
15 	40    	0.671347	0.0043764  	0.663742	0.68129 
16 	40    	0.673685	0.00312391 	0.669586	0.68129 
17 	40    	0.677927	0.0052506  	0.672516	0.692978
18 	40    	0.682165	0.00577939 	0.675446	0.695908
19 	40    	0.686257	0.00507398 	0.68129 	0.698837
20 	40    	0.691522	0.00467022 	0.687134	0.704681
21 	40    	0.695177	0.00605542 	0.690063	0.713455
22 	40    	0.698978	0.00535204 	0.692978	0.713455
23 	40    	0.703951	0.0057642  	0.698837	0.719299
24 	40    	0.70731 	0.00442536 	0.701752	0.719299
25 	40    	0.712133	0.00543136 	0.704681	0.725143
26 	40    	0.717545	0.00417589 	0.713455	0.728073
27 	40    	0.719883	0.00439647 	0.713455	0.728073
28 	40    	0.721638	0.00365283 	0.71637 	0.728073
29 	40    	0.725001	0.00375163 	0.719299	0.733917
30 	40    	0.727631	0.00384214 	0.722229	0.739761
31 	40    	0.731579	0.00429671 	0.728073	0.742691
32 	40    	0.732163	0.00417589 	0.728073	0.742691
33 	40    	0.735087	0.0035113  	0.730988	0.742691
34 	40    	0.738598	0.00475051 	0.733917	0.748535
35 	40    	0.741959	0.00487958 	0.736847	0.754379
36 	40    	0.741959	0.00487958 	0.736847	0.754379
37 	40    	0.744005	0.00397465 	0.739761	0.754379
38 	40    	0.746931	0.00313013 	0.742691	0.754379
39 	40    	0.746931	0.00313013 	0.742691	0.754379
40 	40    	0.749853	0.00216308 	0.745621	0.754379
41 	40    	0.749853	0.00216308 	0.745621	0.754379
42 	40    	0.752192	0.00223935 	0.748535	0.757309
43 	40    	0.753654	0.00331636 	0.751465	0.766083
44 	40    	0.75526 	0.0040403  	0.751465	0.766083
45 	40    	0.757599	0.00402233 	0.754379	0.766083
46 	40    	0.760088	0.00313245 	0.757309	0.766083
47 	40    	0.762429	0.00356485 	0.757309	0.771927
48 	40    	0.765497	0.00467749 	0.760239	0.777771
49 	40    	0.769298	0.00451981 	0.763153	0.777771
50 	40    	0.77193 	0.00369615 	0.766083	0.777771
51 	40    	0.774706	0.00299227 	0.771927	0.780701
52 	40    	0.777338	0.0023142  	0.774857	0.780701
53 	40    	0.779967	0.0024271  	0.777771	0.786545
54 	40    	0.782018	0.00235356 	0.780701	0.789474
55 	40    	0.783334	0.00275869 	0.780701	0.789474
56 	40    	0.785382	0.00233689 	0.78363 	0.789474
57 	40    	0.785966	0.00237333 	0.78363 	0.789474
58 	40    	0.785966	0.00237333 	0.78363 	0.789474
59 	40    	0.786696	0.00299078 	0.78363 	0.795319
60 	40    	0.789911	0.00310554 	0.786545	0.795319
61 	40    	0.789911	0.00310554 	0.786545	0.795319
62 	40    	0.791961	0.00265939 	0.789474	0.798248
63 	40    	0.794154	0.00283226 	0.789474	0.801163
64 	40    	0.794154	0.00283226 	0.789474	0.801163
65 	40    	0.795615	0.00242679 	0.792404	0.801163
66 	40    	0.796783	0.00253234 	0.792404	0.804092
67 	40    	0.797661	0.00218891 	0.795319	0.804092
68 	40    	0.799855	0.00269068 	0.798248	0.807022
69 	40    	0.799855	0.00269068 	0.798248	0.807022
70 	40    	0.799855	0.00269068 	0.798248	0.807022
71 	40    	0.800001	0.00267861 	0.798248	0.807022
72 	40    	0.800731	0.00281476 	0.798248	0.807022
73 	40    	0.802483	0.0025304  	0.798248	0.807022
74 	40    	0.804824	0.00259834 	0.801163	0.809937
75 	40    	0.804971	0.00246706 	0.801163	0.809937
76 	40    	0.806727	0.00182556 	0.804092	0.809937
77 	40    	0.806727	0.00182556 	0.804092	0.809937
78 	40    	0.807896	0.00133556 	0.807022	0.809937
79 	40    	0.807896	0.00133556 	0.807022	0.809937
80 	40    	0.808918	0.00190871 	0.807022	0.812866
81 	40    	0.810669	0.00224158 	0.807022	0.81871 
82 	40    	0.812133	0.0024271  	0.809937	0.81871 
83 	40    	0.812133	0.0024271  	0.809937	0.81871 
84 	40    	0.813597	0.00259683 	0.809937	0.81871 
85 	40    	0.813597	0.00259683 	0.809937	0.81871 
86 	40    	0.815937	0.00326426 	0.812866	0.824554
87 	40    	0.816522	0.00304713 	0.812866	0.824554
88 	40    	0.818861	0.00284293 	0.815796	0.824554
89 	40    	0.818861	0.00284293 	0.815796	0.824554
90 	40    	0.820466	0.00214851 	0.81871 	0.824554
91 	40    	0.821928	0.00275788 	0.81871 	0.827484
92 	40    	0.821928	0.00275788 	0.81871 	0.827484
93 	40    	0.822806	0.00267861 	0.81871 	0.827484
94 	40    	0.822806	0.00267861 	0.81871 	0.827484
95 	40    	0.824121	0.0023142  	0.82164 	0.827484
96 	40    	0.82456 	0.00261442 	0.82164 	0.830414
97 	40    	0.825291	0.00275492 	0.82164 	0.830414
98 	40    	0.827337	0.00253114 	0.824554	0.833328
99 	40    	0.828947	0.00235915 	0.824554	0.833328
100	40    	0.831288	0.00263062 	0.827484	0.836258
101	40    	0.832312	0.00296308 	0.827484	0.839188
102	40    	0.835235	0.00361472 	0.830414	0.845032
103	40    	0.836843	0.00255159 	0.833328	0.845032
104	40    	0.839476	0.00356964 	0.836258	0.845032
105	40    	0.839476	0.00356964 	0.836258	0.845032
106	40    	0.841962	0.00351618 	0.836258	0.850876
107	40    	0.844883	0.00216349 	0.842102	0.850876
108	40    	0.846053	0.00190941 	0.845032	0.850876
109	40    	0.846199	0.0019369  	0.845032	0.850876
110	40    	0.847513	0.0023142  	0.845032	0.850876
111	40    	0.847513	0.0023142  	0.845032	0.850876
112	40    	0.847513	0.0023142  	0.845032	0.850876
113	40    	0.848243	0.00224488 	0.845032	0.850876
114	40    	0.850143	0.00182372 	0.847946	0.853806
115	40    	0.850143	0.00182372 	0.847946	0.853806
116	40    	0.850143	0.00182372 	0.847946	0.853806
117	40    	0.852046	0.00233975 	0.850876	0.85965 
118	40    	0.853801	0.00358189 	0.850876	0.862579
119	40    	0.853801	0.00358189 	0.850876	0.862579
120	40    	0.857018	0.0031906  	0.850876	0.862579
121	40    	0.859503	0.00253295 	0.85672 	0.862579
122	40    	0.860381	0.00259834 	0.85672 	0.865494
123	40    	0.862284	0.00182556 	0.85965 	0.865494
124	40    	0.8636  	0.00167006 	0.862579	0.868423
125	40    	0.864767	0.00242089 	0.862579	0.871338
126	40    	0.865498	0.0027705  	0.862579	0.871338
127	40    	0.867687	0.00242342 	0.865494	0.871338
128	40    	0.869003	0.00218586 	0.865494	0.871338
129	40    	0.870318	0.00139009 	0.868423	0.871338
130	40    	0.871193	0.0011214  	0.868423	0.874268
131	40    	0.871484	0.000638511	0.871338	0.874268
132	40    	0.871484	0.000638511	0.871338	0.874268
133	40    	0.871484	0.000638511	0.871338	0.874268
134	40    	0.871484	0.000638511	0.871338	0.874268
135	40    	0.871631	0.000878906	0.871338	0.874268
136	40    	0.871631	0.000878906	0.871338	0.874268
137	40    	0.871924	0.00117187 	0.871338	0.874268
138	40    	0.872656	0.00172703 	0.871338	0.877197
139	40    	0.873242	0.00191553 	0.871338	0.877197
140	40    	0.875146	0.00162885 	0.874268	0.880112
141	40    	0.876024	0.00194012 	0.874268	0.880112
142	40    	0.876024	0.00194012 	0.874268	0.880112
143	40    	0.876024	0.00194012 	0.874268	0.880112
144	40    	0.876609	0.00198296 	0.874268	0.880112
145	40    	0.877926	0.00126198 	0.877197	0.880112
146	40    	0.878363	0.00142777 	0.877197	0.880112
147	40    	0.8788  	0.00144991 	0.877197	0.880112
148	40    	0.879383	0.00126198 	0.877197	0.880112
149	40    	0.879383	0.00126198 	0.877197	0.880112
150	40    	0.880258	0.000638511	0.880112	0.883041
151	40    	0.880405	0.000878906	0.880112	0.883041
152	40    	0.880405	0.000878906	0.880112	0.883041
153	40    	0.880844	0.00157087 	0.880112	0.885971
154	40    	0.881137	0.00167659 	0.880112	0.885971
155	40    	0.882162	0.00187592 	0.880112	0.885971
156	40    	0.882162	0.00187592 	0.880112	0.885971
157	40    	0.883334	0.00182959 	0.880112	0.885971
158	40    	0.883334	0.00182959 	0.880112	0.885971
159	40    	0.885091	0.0016294  	0.883041	0.888885
160	40    	0.885677	0.00157457 	0.883041	0.888885
161	40    	0.886262	0.0012723  	0.883041	0.888885
162	40    	0.886554	0.00116577 	0.885971	0.888885
163	40    	0.886554	0.00116577 	0.885971	0.888885
164	40    	0.886845	0.00133556 	0.885971	0.888885
165	40    	0.886845	0.00133556 	0.885971	0.888885
166	40    	0.886845	0.00133556 	0.885971	0.888885
167	40    	0.886845	0.00133556 	0.885971	0.888885
168	40    	0.886991	0.00139009 	0.885971	0.888885
169	40    	0.887137	0.00142777 	0.885971	0.888885
170	40    	0.88772 	0.00170122 	0.885971	0.891815
171	40    	0.888158	0.00181728 	0.885971	0.891815
172	40    	0.888596	0.00157259 	0.885971	0.891815
173	40    	0.888887	0.00130679 	0.885971	0.891815
174	40    	0.889325	0.00104611 	0.888885	0.891815
175	40    	0.889471	0.00117187 	0.888885	0.891815
176	40    	0.889618	0.00126859 	0.888885	0.891815
177	40    	0.890643	0.00143525 	0.888885	0.891815
178	40    	0.89196 	0.0011214  	0.888885	0.89473 
179	40    	0.892835	0.00139009 	0.891815	0.89473 
180	40    	0.892835	0.00139009 	0.891815	0.89473 
181	40    	0.892835	0.00139009 	0.891815	0.89473 
182	40    	0.892835	0.00139009 	0.891815	0.89473 
183	40    	0.892981	0.00142777 	0.891815	0.89473 
184	40    	0.893564	0.00142777 	0.891815	0.89473 
185	40    	0.893855	0.00133556 	0.891815	0.89473 
186	40    	0.893855	0.00133556 	0.891815	0.89473 
187	40    	0.894292	0.00104066 	0.891815	0.89473 
188	40    	0.89473 	0          	0.89473 	0.89473 
189	40    	0.89473 	0          	0.89473 	0.89473 
190	40    	0.89473 	0          	0.89473 	0.89473 
191	40    	0.89473 	0          	0.89473 	0.89473 
192	40    	0.89473 	0          	0.89473 	0.89473 
193	40    	0.89473 	0          	0.89473 	0.89473 
194	40    	0.894876	0.000638511	0.89473 	0.897659
195	40    	0.894876	0.000638511	0.89473 	0.897659
196	40    	0.894876	0.000638511	0.89473 	0.897659
197	40    	0.895023	0.000878906	0.89473 	0.897659
198	40    	0.895023	0.000878906	0.89473 	0.897659
199	40    	0.895169	0.00104611 	0.89473 	0.897659
200	40    	0.895609	0.00134255 	0.89473 	0.897659
201	40    	0.896487	0.00143525 	0.89473 	0.897659
202	40    	0.896487	0.00143525 	0.89473 	0.897659
203	40    	0.897659	0          	0.897659	0.897659
204	40    	0.897659	0          	0.897659	0.897659
205	40    	0.897659	0          	0.897659	0.897659
206	40    	0.897659	0          	0.897659	0.897659
207	40    	0.897659	0          	0.897659	0.897659
208	40    	0.897659	0          	0.897659	0.897659
209	40    	0.897659	0          	0.897659	0.897659
210	40    	0.897659	0          	0.897659	0.897659
211	40    	0.897659	0          	0.897659	0.897659
212	40    	0.897659	0          	0.897659	0.897659
213	40    	0.897659	0          	0.897659	0.897659
214	40    	0.897659	0          	0.897659	0.897659
215	40    	0.897659	0          	0.897659	0.897659
216	40    	0.897659	0          	0.897659	0.897659
217	40    	0.897806	0.000638511	0.897659	0.900589
218	40    	0.898099	0.00104611 	0.897659	0.900589
219	40    	0.898099	0.00104611 	0.897659	0.900589
220	40    	0.898245	0.00117187 	0.897659	0.900589
221	40    	0.898245	0.00117187 	0.897659	0.900589
222	40    	0.898245	0.00117187 	0.897659	0.900589
223	40    	0.898245	0.00117187 	0.897659	0.900589
224	40    	0.898392	0.00126859 	0.897659	0.900589
225	40    	0.898831	0.00143525 	0.897659	0.900589
226	40    	0.898831	0.00143525 	0.897659	0.900589
227	40    	0.898978	0.0014575  	0.897659	0.900589
228	40    	0.898978	0.0014575  	0.897659	0.900589
229	40    	0.899856	0.00156909 	0.897659	0.903503
230	40    	0.900735	0.000635185	0.900589	0.903503
231	40    	0.900735	0.000635185	0.900589	0.903503
232	40    	0.900735	0.000635185	0.900589	0.903503
233	40    	0.90088 	0.000874329	0.900589	0.903503
234	40    	0.901172	0.00116577 	0.900589	0.903503
235	40    	0.901755	0.00142777 	0.900589	0.903503
236	40    	0.901755	0.00142777 	0.900589	0.903503
237	40    	0.901755	0.00142777 	0.900589	0.903503
238	40    	0.901755	0.00142777 	0.900589	0.903503
239	40    	0.902192	0.00144991 	0.900589	0.903503
240	40    	0.902192	0.00144991 	0.900589	0.903503
241	40    	0.902192	0.00144991 	0.900589	0.903503
242	40    	0.902629	0.00133556 	0.900589	0.903503
243	40    	0.902629	0.00133556 	0.900589	0.903503
244	40    	0.902629	0.00133556 	0.900589	0.903503
245	40    	0.902629	0.00133556 	0.900589	0.903503
246	40    	0.902775	0.00126198 	0.900589	0.903503
247	40    	0.903503	0          	0.903503	0.903503
248	40    	0.903503	0          	0.903503	0.903503
249	40    	0.903503	0          	0.903503	0.903503
250	40    	0.903503	0          	0.903503	0.903503
