gen	nevals	avg     	std      	min     	max     
0  	20    	0.629269	0.0777445	0.463409	0.804871
1  	40    	0.678051	0.0447076	0.609756	0.804871
2  	40    	0.70732 	0.0534349	0.658539	0.853653
3  	40    	0.743906	0.0553478	0.658539	0.902435
4  	40    	0.77805 	0.05225  	0.707321	0.902435
5  	40    	0.790244	0.0438976	0.756104	0.902435
6  	40    	0.814632	0.0502192	0.756104	0.902435
7  	40    	0.829264	0.05231  	0.756104	0.951218
8  	40    	0.839019	0.0490244	0.756104	0.951218
9  	40    	0.841457	0.0459565	0.804871	0.951218
10 	40    	0.846336	0.0443759	0.804871	0.951218
11 	40    	0.873166	0.0472962	0.804871	0.951218
12 	40    	0.897557	0.0341476	0.853653	0.951218
13 	40    	0.91707 	0.0223549	0.902435	0.951218
14 	40    	0.919509	0.0232677	0.902435	0.951218
15 	40    	0.921948	0.0238984	0.902435	0.951218
16 	40    	0.931705	0.0238984	0.902435	0.951218
17 	40    	0.946339	0.0146347	0.902435	0.951218
18 	40    	0.946339	0.0146347	0.902435	0.951218
19 	40    	0.946339	0.0146347	0.902435	0.951218
20 	40    	0.951218	0        	0.951218	0.951218
21 	40    	0.951218	0        	0.951218	0.951218
22 	40    	0.951218	0        	0.951218	0.951218
23 	40    	0.951218	0        	0.951218	0.951218
24 	40    	0.951218	0        	0.951218	0.951218
25 	40    	0.951218	0        	0.951218	0.951218
26 	40    	0.951218	0        	0.951218	0.951218
27 	40    	0.951218	0        	0.951218	0.951218
28 	40    	0.951218	0        	0.951218	0.951218
29 	40    	0.951218	0        	0.951218	0.951218
30 	40    	0.951218	0        	0.951218	0.951218
31 	40    	0.951218	0        	0.951218	0.951218
32 	40    	0.951218	0        	0.951218	0.951218
33 	40    	0.951218	0        	0.951218	0.951218
34 	40    	0.951218	0        	0.951218	0.951218
35 	40    	0.951218	0        	0.951218	0.951218
36 	40    	0.951218	0        	0.951218	0.951218
37 	40    	0.951218	0        	0.951218	0.951218
38 	40    	0.951218	0        	0.951218	0.951218
39 	40    	0.951218	0        	0.951218	0.951218
40 	40    	0.951218	0        	0.951218	0.951218
41 	40    	0.951218	0        	0.951218	0.951218
42 	40    	0.951218	0        	0.951218	0.951218
43 	40    	0.951218	0        	0.951218	0.951218
44 	40    	0.951218	0        	0.951218	0.951218
45 	40    	0.951218	0        	0.951218	0.951218
46 	40    	0.951218	0        	0.951218	0.951218
47 	40    	0.951218	0        	0.951218	0.951218
48 	40    	0.951218	0        	0.951218	0.951218
49 	40    	0.951218	0        	0.951218	0.951218
50 	40    	0.951218	0        	0.951218	0.951218
51 	40    	0.951218	0        	0.951218	0.951218
52 	40    	0.951218	0        	0.951218	0.951218
53 	40    	0.951218	0        	0.951218	0.951218
54 	40    	0.951218	0        	0.951218	0.951218
55 	40    	0.951218	0        	0.951218	0.951218
56 	40    	0.951218	0        	0.951218	0.951218
57 	40    	0.951218	0        	0.951218	0.951218
58 	40    	0.951218	0        	0.951218	0.951218
59 	40    	0.951218	0        	0.951218	0.951218
60 	40    	0.951218	0        	0.951218	0.951218
61 	40    	0.951218	0        	0.951218	0.951218
62 	40    	0.951218	0        	0.951218	0.951218
63 	40    	0.951218	0        	0.951218	0.951218
64 	40    	0.951218	0        	0.951218	0.951218
65 	40    	0.951218	0        	0.951218	0.951218
66 	40    	0.951218	0        	0.951218	0.951218
67 	40    	0.951218	0        	0.951218	0.951218
68 	40    	0.951218	0        	0.951218	0.951218
69 	40    	0.951218	0        	0.951218	0.951218
70 	40    	0.951218	0        	0.951218	0.951218
71 	40    	0.951218	0        	0.951218	0.951218
72 	40    	0.951218	0        	0.951218	0.951218
73 	40    	0.951218	0        	0.951218	0.951218
74 	40    	0.951218	0        	0.951218	0.951218
75 	40    	0.951218	0        	0.951218	0.951218
76 	40    	0.951218	0        	0.951218	0.951218
77 	40    	0.951218	0        	0.951218	0.951218
78 	40    	0.951218	0        	0.951218	0.951218
79 	40    	0.951218	0        	0.951218	0.951218
80 	40    	0.951218	0        	0.951218	0.951218
81 	40    	0.951218	0        	0.951218	0.951218
82 	40    	0.951218	0        	0.951218	0.951218
83 	40    	0.951218	0        	0.951218	0.951218
84 	40    	0.951218	0        	0.951218	0.951218
85 	40    	0.951218	0        	0.951218	0.951218
86 	40    	0.951218	0        	0.951218	0.951218
87 	40    	0.951218	0        	0.951218	0.951218
88 	40    	0.951218	0        	0.951218	0.951218
89 	40    	0.951218	0        	0.951218	0.951218
90 	40    	0.951218	0        	0.951218	0.951218
91 	40    	0.951218	0        	0.951218	0.951218
92 	40    	0.951218	0        	0.951218	0.951218
93 	40    	0.951218	0        	0.951218	0.951218
94 	40    	0.951218	0        	0.951218	0.951218
95 	40    	0.951218	0        	0.951218	0.951218
96 	40    	0.951218	0        	0.951218	0.951218
97 	40    	0.951218	0        	0.951218	0.951218
98 	40    	0.951218	0        	0.951218	0.951218
99 	40    	0.951218	0        	0.951218	0.951218
100	40    	0.951218	0        	0.951218	0.951218
101	40    	0.951218	0        	0.951218	0.951218
102	40    	0.951218	0        	0.951218	0.951218
103	40    	0.951218	0        	0.951218	0.951218
104	40    	0.951218	0        	0.951218	0.951218
105	40    	0.951218	0        	0.951218	0.951218
106	40    	0.951218	0        	0.951218	0.951218
107	40    	0.951218	0        	0.951218	0.951218
108	40    	0.951218	0        	0.951218	0.951218
109	40    	0.951218	0        	0.951218	0.951218
110	40    	0.951218	0        	0.951218	0.951218
111	40    	0.951218	0        	0.951218	0.951218
112	40    	0.951218	0        	0.951218	0.951218
113	40    	0.951218	0        	0.951218	0.951218
114	40    	0.951218	0        	0.951218	0.951218
115	40    	0.951218	0        	0.951218	0.951218
116	40    	0.951218	0        	0.951218	0.951218
117	40    	0.951218	0        	0.951218	0.951218
118	40    	0.951218	0        	0.951218	0.951218
119	40    	0.951218	0        	0.951218	0.951218
120	40    	0.951218	0        	0.951218	0.951218
121	40    	0.951218	0        	0.951218	0.951218
122	40    	0.951218	0        	0.951218	0.951218
123	40    	0.951218	0        	0.951218	0.951218
124	40    	0.951218	0        	0.951218	0.951218
125	40    	0.951218	0        	0.951218	0.951218
126	40    	0.951218	0        	0.951218	0.951218
127	40    	0.951218	0        	0.951218	0.951218
128	40    	0.951218	0        	0.951218	0.951218
129	40    	0.951218	0        	0.951218	0.951218
130	40    	0.951218	0        	0.951218	0.951218
131	40    	0.951218	0        	0.951218	0.951218
132	40    	0.951218	0        	0.951218	0.951218
133	40    	0.951218	0        	0.951218	0.951218
134	40    	0.951218	0        	0.951218	0.951218
135	40    	0.951218	0        	0.951218	0.951218
136	40    	0.951218	0        	0.951218	0.951218
137	40    	0.951218	0        	0.951218	0.951218
138	40    	0.951218	0        	0.951218	0.951218
139	40    	0.951218	0        	0.951218	0.951218
140	40    	0.951218	0        	0.951218	0.951218
141	40    	0.951218	0        	0.951218	0.951218
142	40    	0.951218	0        	0.951218	0.951218
143	40    	0.951218	0        	0.951218	0.951218
144	40    	0.951218	0        	0.951218	0.951218
145	40    	0.951218	0        	0.951218	0.951218
146	40    	0.951218	0        	0.951218	0.951218
147	40    	0.951218	0        	0.951218	0.951218
148	40    	0.951218	0        	0.951218	0.951218
149	40    	0.951218	0        	0.951218	0.951218
150	40    	0.951218	0        	0.951218	0.951218
151	40    	0.951218	0        	0.951218	0.951218
152	40    	0.951218	0        	0.951218	0.951218
153	40    	0.951218	0        	0.951218	0.951218
154	40    	0.951218	0        	0.951218	0.951218
155	40    	0.951218	0        	0.951218	0.951218
156	40    	0.951218	0        	0.951218	0.951218
157	40    	0.951218	0        	0.951218	0.951218
158	40    	0.951218	0        	0.951218	0.951218
159	40    	0.951218	0        	0.951218	0.951218
160	40    	0.951218	0        	0.951218	0.951218
161	40    	0.951218	0        	0.951218	0.951218
162	40    	0.951218	0        	0.951218	0.951218
163	40    	0.951218	0        	0.951218	0.951218
164	40    	0.951218	0        	0.951218	0.951218
165	40    	0.951218	0        	0.951218	0.951218
166	40    	0.951218	0        	0.951218	0.951218
167	40    	0.951218	0        	0.951218	0.951218
168	40    	0.951218	0        	0.951218	0.951218
169	40    	0.951218	0        	0.951218	0.951218
170	40    	0.951218	0        	0.951218	0.951218
171	40    	0.951218	0        	0.951218	0.951218
172	40    	0.951218	0        	0.951218	0.951218
173	40    	0.951218	0        	0.951218	0.951218
174	40    	0.951218	0        	0.951218	0.951218
175	40    	0.951218	0        	0.951218	0.951218
176	40    	0.951218	0        	0.951218	0.951218
177	40    	0.951218	0        	0.951218	0.951218
178	40    	0.951218	0        	0.951218	0.951218
179	40    	0.951218	0        	0.951218	0.951218
180	40    	0.951218	0        	0.951218	0.951218
181	40    	0.951218	0        	0.951218	0.951218
182	40    	0.951218	0        	0.951218	0.951218
183	40    	0.951218	0        	0.951218	0.951218
184	40    	0.951218	0        	0.951218	0.951218
185	40    	0.951218	0        	0.951218	0.951218
186	40    	0.951218	0        	0.951218	0.951218
187	40    	0.951218	0        	0.951218	0.951218
188	40    	0.951218	0        	0.951218	0.951218
189	40    	0.951218	0        	0.951218	0.951218
190	40    	0.951218	0        	0.951218	0.951218
191	40    	0.951218	0        	0.951218	0.951218
192	40    	0.951218	0        	0.951218	0.951218
193	40    	0.951218	0        	0.951218	0.951218
194	40    	0.951218	0        	0.951218	0.951218
195	40    	0.951218	0        	0.951218	0.951218
196	40    	0.951218	0        	0.951218	0.951218
197	40    	0.951218	0        	0.951218	0.951218
198	40    	0.951218	0        	0.951218	0.951218
199	40    	0.951218	0        	0.951218	0.951218
200	40    	0.951218	0        	0.951218	0.951218
201	40    	0.951218	0        	0.951218	0.951218
202	40    	0.951218	0        	0.951218	0.951218
203	40    	0.951218	0        	0.951218	0.951218
204	40    	0.951218	0        	0.951218	0.951218
205	40    	0.951218	0        	0.951218	0.951218
206	40    	0.951218	0        	0.951218	0.951218
207	40    	0.951218	0        	0.951218	0.951218
208	40    	0.951218	0        	0.951218	0.951218
209	40    	0.951218	0        	0.951218	0.951218
210	40    	0.951218	0        	0.951218	0.951218
211	40    	0.951218	0        	0.951218	0.951218
212	40    	0.951218	0        	0.951218	0.951218
213	40    	0.951218	0        	0.951218	0.951218
214	40    	0.951218	0        	0.951218	0.951218
215	40    	0.951218	0        	0.951218	0.951218
216	40    	0.951218	0        	0.951218	0.951218
217	40    	0.951218	0        	0.951218	0.951218
218	40    	0.951218	0        	0.951218	0.951218
219	40    	0.951218	0        	0.951218	0.951218
220	40    	0.951218	0        	0.951218	0.951218
221	40    	0.951218	0        	0.951218	0.951218
222	40    	0.951218	0        	0.951218	0.951218
223	40    	0.951218	0        	0.951218	0.951218
224	40    	0.951218	0        	0.951218	0.951218
225	40    	0.951218	0        	0.951218	0.951218
226	40    	0.951218	0        	0.951218	0.951218
227	40    	0.951218	0        	0.951218	0.951218
228	40    	0.951218	0        	0.951218	0.951218
229	40    	0.951218	0        	0.951218	0.951218
230	40    	0.951218	0        	0.951218	0.951218
231	40    	0.951218	0        	0.951218	0.951218
232	40    	0.951218	0        	0.951218	0.951218
233	40    	0.951218	0        	0.951218	0.951218
234	40    	0.951218	0        	0.951218	0.951218
235	40    	0.951218	0        	0.951218	0.951218
236	40    	0.951218	0        	0.951218	0.951218
237	40    	0.951218	0        	0.951218	0.951218
238	40    	0.951218	0        	0.951218	0.951218
239	40    	0.951218	0        	0.951218	0.951218
240	40    	0.951218	0        	0.951218	0.951218
241	40    	0.951218	0        	0.951218	0.951218
242	40    	0.951218	0        	0.951218	0.951218
243	40    	0.951218	0        	0.951218	0.951218
244	40    	0.951218	0        	0.951218	0.951218
245	40    	0.951218	0        	0.951218	0.951218
246	40    	0.951218	0        	0.951218	0.951218
247	40    	0.951218	0        	0.951218	0.951218
248	40    	0.951218	0        	0.951218	0.951218
249	40    	0.951218	0        	0.951218	0.951218
250	40    	0.951218	0        	0.951218	0.951218
