gen	nevals	avg     	std       	min     	max     
0  	20    	0.571979	0.0352502 	0.516907	0.652176
1  	40    	0.606763	0.0214105 	0.574875	0.652176
2  	40    	0.628985	0.020812  	0.594208	0.671494
3  	40    	0.641061	0.0165326 	0.613525	0.671494
4  	40    	0.652174	0.0125959 	0.632843	0.681152
5  	40    	0.659421	0.0149265 	0.642517	0.700485
6  	40    	0.662802	0.0152446 	0.642517	0.700485
7  	40    	0.672463	0.0188094 	0.652176	0.710144
8  	40    	0.682124	0.0234495 	0.652176	0.748795
9  	40    	0.697584	0.020521  	0.671494	0.748795
10 	40    	0.706281	0.0198961 	0.681152	0.748795
11 	40    	0.706281	0.0198961 	0.681152	0.748795
12 	40    	0.706281	0.0198961 	0.681152	0.748795
13 	40    	0.706281	0.0198961 	0.681152	0.748795
14 	40    	0.708698	0.0176239 	0.690826	0.748795
15 	40    	0.708698	0.0176239 	0.690826	0.748795
16 	40    	0.709663	0.0171407 	0.690826	0.748795
17 	40    	0.713044	0.0159051 	0.690826	0.748795
18 	40    	0.715459	0.0144849 	0.700485	0.748795
19 	40    	0.716908	0.0136985 	0.700485	0.748795
20 	40    	0.719323	0.0134847 	0.710144	0.748795
21 	40    	0.720772	0.013284  	0.710144	0.748795
22 	40    	0.725119	0.0127736 	0.710144	0.748795
23 	40    	0.7314  	0.0131792 	0.710144	0.758453
24 	40    	0.73768 	0.0153637 	0.719803	0.787445
25 	40    	0.740578	0.0144234 	0.729462	0.787445
26 	40    	0.748311	0.0163051 	0.729462	0.787445
27 	40    	0.753143	0.0191953 	0.739136	0.806763
28 	40    	0.758939	0.0191946 	0.739136	0.806763
29 	40    	0.776327	0.0159576 	0.748795	0.806763
30 	40    	0.786472	0.0129289 	0.768112	0.816422
31 	40    	0.787438	0.0122236 	0.768112	0.816422
32 	40    	0.793237	0.0134576 	0.777771	0.82608 
33 	40    	0.806281	0.0120173 	0.787445	0.835754
34 	40    	0.806281	0.0120173 	0.787445	0.835754
35 	40    	0.806281	0.0120173 	0.787445	0.835754
36 	40    	0.814008	0.0109634 	0.806763	0.845413
37 	40    	0.818356	0.0108463 	0.806763	0.845413
38 	40    	0.824152	0.00896297	0.816422	0.845413
39 	40    	0.828983	0.00922024	0.816422	0.845413
40 	40    	0.833817	0.00655723	0.82608 	0.845413
41 	40    	0.835268	0.00569871	0.82608 	0.845413
42 	40    	0.835752	0.00529453	0.82608 	0.845413
43 	40    	0.838652	0.0053778 	0.835754	0.855072
44 	40    	0.838652	0.0053778 	0.835754	0.855072
45 	40    	0.840101	0.00646131	0.835754	0.855072
46 	40    	0.843964	0.00701512	0.835754	0.855072
47 	40    	0.847345	0.00655093	0.835754	0.855072
48 	40    	0.847345	0.00655093	0.835754	0.855072
49 	40    	0.847345	0.00655093	0.835754	0.855072
50 	40    	0.850726	0.00569379	0.845413	0.864731
51 	40    	0.85314 	0.00722799	0.845413	0.87439 
52 	40    	0.858453	0.00631527	0.855072	0.87439 
53 	40    	0.86135 	0.00701512	0.855072	0.87439 
54 	40    	0.861833	0.00689777	0.855072	0.87439 
55 	40    	0.867629	0.00689959	0.855072	0.884064
56 	40    	0.870045	0.00646461	0.864731	0.884064
57 	40    	0.870045	0.00646461	0.864731	0.884064
58 	40    	0.871011	0.00631842	0.864731	0.884064
59 	40    	0.871976	0.00601563	0.864731	0.884064
60 	40    	0.875359	0.00520653	0.864731	0.884064
61 	40    	0.878259	0.00563881	0.87439 	0.893723
62 	40    	0.878259	0.00563881	0.87439 	0.893723
63 	40    	0.880676	0.0063221 	0.87439 	0.893723
64 	40    	0.884545	0.00480842	0.87439 	0.893723
65 	40    	0.886961	0.00442622	0.884064	0.893723
66 	40    	0.88841 	0.0048052 	0.884064	0.893723
67 	40    	0.891308	0.00517896	0.884064	0.903381
68 	40    	0.891308	0.00517896	0.884064	0.903381
69 	40    	0.891791	0.00492505	0.884064	0.903381
70 	40    	0.892274	0.00460696	0.884064	0.903381
71 	40    	0.892274	0.00460696	0.884064	0.903381
72 	40    	0.894205	0.00210509	0.893723	0.903381
73 	40    	0.894205	0.00210509	0.893723	0.903381
74 	40    	0.894688	0.00289764	0.893723	0.903381
75 	40    	0.894688	0.00289764	0.893723	0.903381
76 	40    	0.894688	0.00289764	0.893723	0.903381
77 	40    	0.896137	0.00418239	0.893723	0.903381
78 	40    	0.897103	0.00460696	0.893723	0.903381
79 	40    	0.897103	0.00460696	0.893723	0.903381
80 	40    	0.899035	0.0048052 	0.893723	0.903381
81 	40    	0.899518	0.00473183	0.893723	0.903381
82 	40    	0.90145 	0.00386353	0.893723	0.903381
83 	40    	0.903864	0.00210509	0.903381	0.91304 
84 	40    	0.903864	0.00210509	0.903381	0.91304 
85 	40    	0.903864	0.00210509	0.903381	0.91304 
86 	40    	0.903864	0.00210509	0.903381	0.91304 
87 	40    	0.903864	0.00210509	0.903381	0.91304 
88 	40    	0.903864	0.00210509	0.903381	0.91304 
89 	40    	0.903864	0.00210509	0.903381	0.91304 
90 	40    	0.904347	0.00289764	0.903381	0.91304 
91 	40    	0.904347	0.00289764	0.903381	0.91304 
92 	40    	0.904347	0.00289764	0.903381	0.91304 
93 	40    	0.904347	0.00289764	0.903381	0.91304 
94 	40    	0.904347	0.00289764	0.903381	0.91304 
95 	40    	0.90483 	0.00344889	0.903381	0.91304 
96 	40    	0.90483 	0.00344889	0.903381	0.91304 
97 	40    	0.905313	0.00386353	0.903381	0.91304 
98 	40    	0.906279	0.00442622	0.903381	0.91304 
99 	40    	0.906279	0.00442622	0.903381	0.91304 
100	40    	0.908694	0.0048052 	0.903381	0.91304 
101	40    	0.910625	0.00418239	0.903381	0.91304 
102	40    	0.91304 	0         	0.91304 	0.91304 
103	40    	0.91304 	0         	0.91304 	0.91304 
104	40    	0.91304 	0         	0.91304 	0.91304 
105	40    	0.91304 	0         	0.91304 	0.91304 
106	40    	0.91304 	0         	0.91304 	0.91304 
107	40    	0.91304 	0         	0.91304 	0.91304 
108	40    	0.91304 	0         	0.91304 	0.91304 
109	40    	0.91304 	0         	0.91304 	0.91304 
110	40    	0.91304 	0         	0.91304 	0.91304 
111	40    	0.91304 	0         	0.91304 	0.91304 
112	40    	0.91304 	0         	0.91304 	0.91304 
113	40    	0.91304 	0         	0.91304 	0.91304 
114	40    	0.91304 	0         	0.91304 	0.91304 
115	40    	0.91304 	0         	0.91304 	0.91304 
116	40    	0.91304 	0         	0.91304 	0.91304 
117	40    	0.91304 	0         	0.91304 	0.91304 
118	40    	0.91304 	0         	0.91304 	0.91304 
119	40    	0.91304 	0         	0.91304 	0.91304 
120	40    	0.91304 	0         	0.91304 	0.91304 
121	40    	0.91304 	0         	0.91304 	0.91304 
122	40    	0.91304 	0         	0.91304 	0.91304 
123	40    	0.91304 	0         	0.91304 	0.91304 
124	40    	0.91304 	0         	0.91304 	0.91304 
125	40    	0.91304 	0         	0.91304 	0.91304 
126	40    	0.91304 	0         	0.91304 	0.91304 
127	40    	0.91304 	0         	0.91304 	0.91304 
128	40    	0.91304 	0         	0.91304 	0.91304 
129	40    	0.91304 	0         	0.91304 	0.91304 
130	40    	0.91304 	0         	0.91304 	0.91304 
131	40    	0.91304 	0         	0.91304 	0.91304 
132	40    	0.91304 	0         	0.91304 	0.91304 
133	40    	0.91304 	0         	0.91304 	0.91304 
134	40    	0.91304 	0         	0.91304 	0.91304 
135	40    	0.91304 	0         	0.91304 	0.91304 
136	40    	0.91304 	0         	0.91304 	0.91304 
137	40    	0.91304 	0         	0.91304 	0.91304 
138	40    	0.91304 	0         	0.91304 	0.91304 
139	40    	0.91304 	0         	0.91304 	0.91304 
140	40    	0.91304 	0         	0.91304 	0.91304 
141	40    	0.91304 	0         	0.91304 	0.91304 
142	40    	0.91304 	0         	0.91304 	0.91304 
143	40    	0.91304 	0         	0.91304 	0.91304 
144	40    	0.91304 	0         	0.91304 	0.91304 
145	40    	0.91304 	0         	0.91304 	0.91304 
146	40    	0.91304 	0         	0.91304 	0.91304 
147	40    	0.91304 	0         	0.91304 	0.91304 
148	40    	0.91304 	0         	0.91304 	0.91304 
149	40    	0.91304 	0         	0.91304 	0.91304 
150	40    	0.91304 	0         	0.91304 	0.91304 
151	40    	0.91304 	0         	0.91304 	0.91304 
152	40    	0.91304 	0         	0.91304 	0.91304 
153	40    	0.91304 	0         	0.91304 	0.91304 
154	40    	0.91304 	0         	0.91304 	0.91304 
155	40    	0.91304 	0         	0.91304 	0.91304 
156	40    	0.91304 	0         	0.91304 	0.91304 
157	40    	0.91304 	0         	0.91304 	0.91304 
158	40    	0.91304 	0         	0.91304 	0.91304 
159	40    	0.91304 	0         	0.91304 	0.91304 
160	40    	0.91304 	0         	0.91304 	0.91304 
161	40    	0.91304 	0         	0.91304 	0.91304 
162	40    	0.91304 	0         	0.91304 	0.91304 
163	40    	0.91304 	0         	0.91304 	0.91304 
164	40    	0.91304 	0         	0.91304 	0.91304 
165	40    	0.91304 	0         	0.91304 	0.91304 
166	40    	0.91304 	0         	0.91304 	0.91304 
167	40    	0.91304 	0         	0.91304 	0.91304 
168	40    	0.91304 	0         	0.91304 	0.91304 
169	40    	0.91304 	0         	0.91304 	0.91304 
170	40    	0.91304 	0         	0.91304 	0.91304 
171	40    	0.91304 	0         	0.91304 	0.91304 
172	40    	0.91304 	0         	0.91304 	0.91304 
173	40    	0.91304 	0         	0.91304 	0.91304 
174	40    	0.91304 	0         	0.91304 	0.91304 
175	40    	0.91304 	0         	0.91304 	0.91304 
176	40    	0.91304 	0         	0.91304 	0.91304 
177	40    	0.91304 	0         	0.91304 	0.91304 
178	40    	0.91304 	0         	0.91304 	0.91304 
179	40    	0.91304 	0         	0.91304 	0.91304 
180	40    	0.91304 	0         	0.91304 	0.91304 
181	40    	0.91304 	0         	0.91304 	0.91304 
182	40    	0.91304 	0         	0.91304 	0.91304 
183	40    	0.91304 	0         	0.91304 	0.91304 
184	40    	0.91304 	0         	0.91304 	0.91304 
185	40    	0.91304 	0         	0.91304 	0.91304 
186	40    	0.91304 	0         	0.91304 	0.91304 
187	40    	0.91304 	0         	0.91304 	0.91304 
188	40    	0.91304 	0         	0.91304 	0.91304 
189	40    	0.91304 	0         	0.91304 	0.91304 
190	40    	0.91304 	0         	0.91304 	0.91304 
191	40    	0.91304 	0         	0.91304 	0.91304 
192	40    	0.91304 	0         	0.91304 	0.91304 
193	40    	0.91304 	0         	0.91304 	0.91304 
194	40    	0.91304 	0         	0.91304 	0.91304 
195	40    	0.91304 	0         	0.91304 	0.91304 
196	40    	0.91304 	0         	0.91304 	0.91304 
197	40    	0.91304 	0         	0.91304 	0.91304 
198	40    	0.91304 	0         	0.91304 	0.91304 
199	40    	0.91304 	0         	0.91304 	0.91304 
200	40    	0.91304 	0         	0.91304 	0.91304 
201	40    	0.91304 	0         	0.91304 	0.91304 
202	40    	0.91304 	0         	0.91304 	0.91304 
203	40    	0.91304 	0         	0.91304 	0.91304 
204	40    	0.91304 	0         	0.91304 	0.91304 
205	40    	0.91304 	0         	0.91304 	0.91304 
206	40    	0.91304 	0         	0.91304 	0.91304 
207	40    	0.91304 	0         	0.91304 	0.91304 
208	40    	0.91304 	0         	0.91304 	0.91304 
209	40    	0.91304 	0         	0.91304 	0.91304 
210	40    	0.91304 	0         	0.91304 	0.91304 
211	40    	0.91304 	0         	0.91304 	0.91304 
212	40    	0.91304 	0         	0.91304 	0.91304 
213	40    	0.91304 	0         	0.91304 	0.91304 
214	40    	0.91304 	0         	0.91304 	0.91304 
215	40    	0.91304 	0         	0.91304 	0.91304 
216	40    	0.91304 	0         	0.91304 	0.91304 
217	40    	0.91304 	0         	0.91304 	0.91304 
218	40    	0.91304 	0         	0.91304 	0.91304 
219	40    	0.91304 	0         	0.91304 	0.91304 
220	40    	0.91304 	0         	0.91304 	0.91304 
221	40    	0.91304 	0         	0.91304 	0.91304 
222	40    	0.91304 	0         	0.91304 	0.91304 
223	40    	0.91304 	0         	0.91304 	0.91304 
224	40    	0.91304 	0         	0.91304 	0.91304 
225	40    	0.91304 	0         	0.91304 	0.91304 
226	40    	0.91304 	0         	0.91304 	0.91304 
227	40    	0.91304 	0         	0.91304 	0.91304 
228	40    	0.91304 	0         	0.91304 	0.91304 
229	40    	0.91304 	0         	0.91304 	0.91304 
230	40    	0.91304 	0         	0.91304 	0.91304 
231	40    	0.91304 	0         	0.91304 	0.91304 
232	40    	0.91304 	0         	0.91304 	0.91304 
233	40    	0.91304 	0         	0.91304 	0.91304 
234	40    	0.91304 	0         	0.91304 	0.91304 
235	40    	0.91304 	0         	0.91304 	0.91304 
236	40    	0.91304 	0         	0.91304 	0.91304 
237	40    	0.91304 	0         	0.91304 	0.91304 
238	40    	0.91304 	0         	0.91304 	0.91304 
239	40    	0.91304 	0         	0.91304 	0.91304 
240	40    	0.91304 	0         	0.91304 	0.91304 
241	40    	0.91304 	0         	0.91304 	0.91304 
242	40    	0.91304 	0         	0.91304 	0.91304 
243	40    	0.91304 	0         	0.91304 	0.91304 
244	40    	0.91304 	0         	0.91304 	0.91304 
245	40    	0.91304 	0         	0.91304 	0.91304 
246	40    	0.91304 	0         	0.91304 	0.91304 
247	40    	0.91304 	0         	0.91304 	0.91304 
248	40    	0.91304 	0         	0.91304 	0.91304 
249	40    	0.91304 	0         	0.91304 	0.91304 
250	40    	0.91304 	0         	0.91304 	0.91304 
