gen	nevals	avg     	std        	min     	max     
0  	20    	0.590681	0.0191806  	0.553253	0.644974
1  	40    	0.604733	0.0121776  	0.591721	0.644974
2  	40    	0.611982	0.0102637  	0.600586	0.644974
3  	40    	0.622488	0.0091853  	0.612427	0.644974
4  	40    	0.622636	0.00904476 	0.612427	0.644974
5  	40    	0.628849	0.0111653  	0.618347	0.66272 
6  	40    	0.636687	0.0131171  	0.624268	0.66864 
7  	40    	0.645117	0.0140482  	0.633133	0.686386
8  	40    	0.653995	0.0139852  	0.639053	0.686386
9  	40    	0.663315	0.012849   	0.644974	0.686386
10 	40    	0.673376	0.00564595 	0.66272 	0.686386
11 	40    	0.676335	0.00714993 	0.66864 	0.701187
12 	40    	0.679589	0.00794304 	0.6716  	0.701187
13 	40    	0.685209	0.00708565 	0.674561	0.701187
14 	40    	0.69201 	0.00503235 	0.686386	0.701187
15 	40    	0.693935	0.00413105 	0.686386	0.701187
16 	40    	0.698078	0.00616928 	0.692307	0.721893
17 	40    	0.701925	0.00765006 	0.695267	0.721893
18 	40    	0.707102	0.00981145 	0.698227	0.733734
19 	40    	0.713167	0.00904435 	0.701187	0.733734
20 	40    	0.719673	0.00776558 	0.707108	0.739639
21 	40    	0.723964	0.00737324 	0.715973	0.742599
22 	40    	0.724556	0.00699525 	0.715973	0.742599
23 	40    	0.732693	0.00578532 	0.724854	0.742599
24 	40    	0.732989	0.00544219 	0.724854	0.742599
25 	40    	0.739496	0.00524673 	0.733734	0.75148 
26 	40    	0.744228	0.00368245 	0.739639	0.75148 
27 	40    	0.74778 	0.00395772 	0.742599	0.757401
28 	40    	0.74778 	0.00395772 	0.742599	0.757401
29 	40    	0.748372	0.00402359 	0.742599	0.757401
30 	40    	0.752664	0.00471779 	0.74556 	0.760361
31 	40    	0.757548	0.00391148 	0.75148 	0.766266
32 	40    	0.760654	0.0034857  	0.757401	0.769226
33 	40    	0.763611	0.00308382 	0.760361	0.769226
34 	40    	0.763907	0.00289386 	0.760361	0.769226
35 	40    	0.765089	0.00236149 	0.760361	0.769226
36 	40    	0.767599	0.00272276 	0.763321	0.772186
37 	40    	0.769226	0.0028083  	0.766266	0.775146
38 	40    	0.77115 	0.00377644 	0.766266	0.784027
39 	40    	0.773814	0.00379957 	0.769226	0.784027
40 	40    	0.775146	0.00385964 	0.772186	0.784027
41 	40    	0.779143	0.00314326 	0.775146	0.784027
42 	40    	0.781215	0.002382   	0.778107	0.786987
43 	40    	0.781215	0.002382   	0.778107	0.786987
44 	40    	0.781511	0.00214997 	0.778107	0.786987
45 	40    	0.782843	0.0021753  	0.781067	0.786987
46 	40    	0.784618	0.00491391 	0.781067	0.801773
47 	40    	0.789055	0.0056955  	0.784027	0.801773
48 	40    	0.79083 	0.00486667 	0.786987	0.801773
49 	40    	0.790978	0.00479199 	0.786987	0.801773
50 	40    	0.791422	0.00462712 	0.786987	0.801773
51 	40    	0.795413	0.00767122 	0.786987	0.819519
52 	40    	0.801032	0.00759584 	0.792892	0.819519
53 	40    	0.805176	0.00789991 	0.795853	0.822479
54 	40    	0.80784 	0.00684244 	0.798813	0.822479
55 	40    	0.81302 	0.00500228 	0.804733	0.822479
56 	40    	0.816866	0.00384216 	0.810654	0.822479
57 	40    	0.819968	0.00268606 	0.816574	0.822479
58 	40    	0.821887	0.00150941 	0.819519	0.825439
59 	40    	0.822775	0.000888062	0.822479	0.825439
60 	40    	0.822923	0.001057   	0.822479	0.825439
61 	40    	0.823367	0.00135654 	0.822479	0.825439
62 	40    	0.823367	0.00135654 	0.822479	0.825439
63 	40    	0.823367	0.00135654 	0.822479	0.825439
64 	40    	0.823367	0.00135654 	0.822479	0.825439
65 	40    	0.823367	0.00135654 	0.822479	0.825439
66 	40    	0.824403	0.00169405 	0.822479	0.8284  
67 	40    	0.824699	0.00158723 	0.822479	0.8284  
68 	40    	0.82618 	0.00128181 	0.825439	0.8284  
69 	40    	0.827216	0.00196358 	0.825439	0.83136 
70 	40    	0.827808	0.00240488 	0.825439	0.83432 
71 	40    	0.828844	0.00214997 	0.825439	0.83432 
72 	40    	0.829288	0.00164817 	0.8284  	0.83432 
73 	40    	0.831212	0.002382   	0.8284  	0.83432 
74 	40    	0.831212	0.002382   	0.8284  	0.83432 
75 	40    	0.83136 	0.00229296 	0.8284  	0.83432 
76 	40    	0.831508	0.00219035 	0.8284  	0.83432 
77 	40    	0.83284 	0.0014801  	0.83136 	0.83432 
78 	40    	0.83284 	0.0014801  	0.83136 	0.83432 
79 	40    	0.83432 	0.00209318 	0.83136 	0.84024 
80 	40    	0.83506 	0.00262692 	0.83136 	0.843201
81 	40    	0.836984	0.00336215 	0.83432 	0.843201
82 	40    	0.837428	0.0033063  	0.83432 	0.843201
83 	40    	0.839796	0.00252487 	0.83728 	0.846161
84 	40    	0.841868	0.00287953 	0.83728 	0.849106
85 	40    	0.841868	0.00287953 	0.83728 	0.849106
86 	40    	0.843939	0.00262391 	0.84024 	0.849106
87 	40    	0.844087	0.00249124 	0.84024 	0.849106
88 	40    	0.844679	0.00198236 	0.843201	0.849106
89 	40    	0.844679	0.00198236 	0.843201	0.849106
90 	40    	0.844975	0.00196036 	0.843201	0.849106
91 	40    	0.846748	0.0022093  	0.843201	0.852066
92 	40    	0.84734 	0.00171928 	0.846161	0.852066
93 	40    	0.84734 	0.00171928 	0.846161	0.852066
94 	40    	0.84734 	0.00171928 	0.846161	0.852066
95 	40    	0.84734 	0.00171928 	0.846161	0.852066
96 	40    	0.848077	0.00233867 	0.846161	0.855026
97 	40    	0.849553	0.00252076 	0.846161	0.855026
98 	40    	0.850734	0.00255934 	0.849106	0.857986
99 	40    	0.851918	0.00255934 	0.849106	0.857986
100	40    	0.851918	0.00255934 	0.849106	0.857986
101	40    	0.853694	0.00174502 	0.852066	0.857986
102	40    	0.854434	0.00150941 	0.852066	0.857986
103	40    	0.854582	0.00141193 	0.852066	0.857986
104	40    	0.855766	0.00128181 	0.855026	0.857986
105	40    	0.855914	0.00135654 	0.855026	0.857986
106	40    	0.856802	0.0021753  	0.855026	0.863907
107	40    	0.858282	0.00207214 	0.855026	0.863907
108	40    	0.859615	0.00198024 	0.857986	0.863907
109	40    	0.859615	0.00198024 	0.857986	0.863907
110	40    	0.859615	0.00198024 	0.857986	0.863907
111	40    	0.860799	0.00219035 	0.857986	0.863907
112	40    	0.862427	0.0014801  	0.860947	0.863907
113	40    	0.862871	0.00141193 	0.860947	0.863907
114	40    	0.864055	0.00113689 	0.860947	0.866867
115	40    	0.864055	0.00113689 	0.860947	0.866867
116	40    	0.864499	0.00118408 	0.863907	0.866867
117	40    	0.864795	0.00164817 	0.863907	0.869827
118	40    	0.864795	0.00164817 	0.863907	0.869827
119	40    	0.865239	0.00174502 	0.863907	0.869827
120	40    	0.865683	0.00196358 	0.863907	0.869827
121	40    	0.865683	0.00196358 	0.863907	0.869827
122	40    	0.867163	0.00184865 	0.863907	0.869827
123	40    	0.868051	0.0014502  	0.866867	0.869827
124	40    	0.868051	0.0014502  	0.866867	0.869827
125	40    	0.868495	0.00147268 	0.866867	0.869827
126	40    	0.869827	0.000936099	0.866867	0.872787
127	40    	0.869827	0.000936099	0.866867	0.872787
128	40    	0.869827	0.000936099	0.866867	0.872787
129	40    	0.869975	0.000645162	0.869827	0.872787
130	40    	0.870271	0.001057   	0.869827	0.872787
131	40    	0.870419	0.00118408 	0.869827	0.872787
132	40    	0.870863	0.00169186 	0.869827	0.875732
133	40    	0.871306	0.00198236 	0.869827	0.875732
134	40    	0.872193	0.00200366 	0.869827	0.875732
135	40    	0.872193	0.00200366 	0.869827	0.875732
136	40    	0.872193	0.00200366 	0.869827	0.875732
137	40    	0.872193	0.00200366 	0.869827	0.875732
138	40    	0.872932	0.00197483 	0.869827	0.875732
139	40    	0.87426 	0.00147247 	0.872787	0.875732
140	40    	0.87426 	0.00147247 	0.872787	0.875732
141	40    	0.87426 	0.00147247 	0.872787	0.875732
142	40    	0.875439	0.00158902 	0.872787	0.878693
143	40    	0.875439	0.00158902 	0.872787	0.878693
144	40    	0.876472	0.00128181 	0.875732	0.878693
145	40    	0.876472	0.00128181 	0.875732	0.878693
146	40    	0.876917	0.0014502  	0.875732	0.878693
147	40    	0.876917	0.0014502  	0.875732	0.878693
148	40    	0.877805	0.00135654 	0.875732	0.878693
149	40    	0.878693	0          	0.878693	0.878693
150	40    	0.878693	0          	0.878693	0.878693
151	40    	0.878693	0          	0.878693	0.878693
152	40    	0.878693	0          	0.878693	0.878693
153	40    	0.878693	0          	0.878693	0.878693
154	40    	0.878693	0          	0.878693	0.878693
155	40    	0.878841	0.000645162	0.878693	0.881653
156	40    	0.878841	0.000645162	0.878693	0.881653
157	40    	0.878841	0.000645162	0.878693	0.881653
158	40    	0.878841	0.000645162	0.878693	0.881653
159	40    	0.878841	0.000645162	0.878693	0.881653
160	40    	0.878989	0.000888062	0.878693	0.881653
161	40    	0.878989	0.000888062	0.878693	0.881653
162	40    	0.879137	0.001057   	0.878693	0.881653
163	40    	0.879285	0.00118408 	0.878693	0.881653
164	40    	0.879285	0.00118408 	0.878693	0.881653
165	40    	0.879285	0.00118408 	0.878693	0.881653
166	40    	0.879729	0.00169405 	0.878693	0.884613
167	40    	0.880469	0.00172608 	0.878693	0.884613
168	40    	0.880617	0.00169405 	0.878693	0.884613
169	40    	0.880617	0.00169405 	0.878693	0.884613
170	40    	0.880913	0.00158723 	0.878693	0.884613
171	40    	0.880913	0.00158723 	0.878693	0.884613
172	40    	0.881949	0.000888062	0.881653	0.884613
173	40    	0.882097	0.001057   	0.881653	0.884613
174	40    	0.882097	0.001057   	0.881653	0.884613
175	40    	0.882097	0.001057   	0.881653	0.884613
176	40    	0.882097	0.001057   	0.881653	0.884613
177	40    	0.882393	0.00128181 	0.881653	0.884613
178	40    	0.883133	0.0014801  	0.881653	0.884613
179	40    	0.883133	0.0014801  	0.881653	0.884613
180	40    	0.883429	0.0014502  	0.881653	0.884613
181	40    	0.884761	0.00147268 	0.881653	0.887573
182	40    	0.885353	0.00128181 	0.884613	0.887573
183	40    	0.885353	0.00128181 	0.884613	0.887573
184	40    	0.886093	0.00198577 	0.884613	0.890533
185	40    	0.886093	0.00198577 	0.884613	0.890533
186	40    	0.886833	0.00206685 	0.884613	0.890533
187	40    	0.887869	0.00207214 	0.884613	0.893494
188	40    	0.888757	0.00172608 	0.887573	0.893494
189	40    	0.888757	0.00172608 	0.887573	0.893494
190	40    	0.889645	0.00211401 	0.887573	0.893494
191	40    	0.890089	0.00193549 	0.887573	0.893494
192	40    	0.890089	0.00193549 	0.887573	0.893494
193	40    	0.891273	0.00128181 	0.890533	0.893494
194	40    	0.891273	0.00128181 	0.890533	0.893494
195	40    	0.892162	0.00147268 	0.890533	0.893494
196	40    	0.892162	0.00147268 	0.890533	0.893494
197	40    	0.892162	0.00147268 	0.890533	0.893494
198	40    	0.89305 	0.00141193 	0.890533	0.896454
199	40    	0.894234	0.00158723 	0.893494	0.899414
200	40    	0.895418	0.00193549 	0.893494	0.899414
201	40    	0.895418	0.00193549 	0.893494	0.899414
202	40    	0.895862	0.00177612 	0.893494	0.899414
203	40    	0.896306	0.00147268 	0.893494	0.899414
204	40    	0.896898	0.001057   	0.896454	0.899414
205	40    	0.897194	0.00128181 	0.896454	0.899414
206	40    	0.897638	0.0014502  	0.896454	0.899414
207	40    	0.897638	0.0014502  	0.896454	0.899414
208	40    	0.897638	0.0014502  	0.896454	0.899414
209	40    	0.89823 	0.0014502  	0.896454	0.899414
210	40    	0.89823 	0.0014502  	0.896454	0.899414
211	40    	0.89823 	0.0014502  	0.896454	0.899414
212	40    	0.89823 	0.0014502  	0.896454	0.899414
213	40    	0.89897 	0.001057   	0.896454	0.899414
214	40    	0.899562	0.000645162	0.899414	0.902374
215	40    	0.899562	0.000645162	0.899414	0.902374
216	40    	0.900006	0.00118408 	0.899414	0.902374
217	40    	0.900006	0.00118408 	0.899414	0.902374
218	40    	0.900006	0.00118408 	0.899414	0.902374
219	40    	0.900006	0.00118408 	0.899414	0.902374
220	40    	0.90045 	0.00141193 	0.899414	0.902374
221	40    	0.90045 	0.00141193 	0.899414	0.902374
222	40    	0.900894	0.0014801  	0.899414	0.902374
223	40    	0.900894	0.0014801  	0.899414	0.902374
224	40    	0.901338	0.00141193 	0.899414	0.902374
225	40    	0.901338	0.00141193 	0.899414	0.902374
226	40    	0.901338	0.00141193 	0.899414	0.902374
227	40    	0.901338	0.00141193 	0.899414	0.902374
228	40    	0.901338	0.00141193 	0.899414	0.902374
229	40    	0.901338	0.00141193 	0.899414	0.902374
230	40    	0.902225	0.00113481 	0.899414	0.905319
231	40    	0.902225	0.00113481 	0.899414	0.905319
232	40    	0.902522	0.000641836	0.902374	0.905319
233	40    	0.902522	0.000641836	0.902374	0.905319
234	40    	0.902522	0.000641836	0.902374	0.905319
235	40    	0.902669	0.000883484	0.902374	0.905319
236	40    	0.902669	0.000883484	0.902374	0.905319
237	40    	0.902669	0.000883484	0.902374	0.905319
238	40    	0.902669	0.000883484	0.902374	0.905319
239	40    	0.902669	0.000883484	0.902374	0.905319
240	40    	0.902669	0.000883484	0.902374	0.905319
241	40    	0.902816	0.00105156 	0.902374	0.905319
242	40    	0.902816	0.00105156 	0.902374	0.905319
243	40    	0.902963	0.00117798 	0.902374	0.905319
244	40    	0.902963	0.00117798 	0.902374	0.905319
245	40    	0.902963	0.00117798 	0.902374	0.905319
246	40    	0.902963	0.00117798 	0.902374	0.905319
247	40    	0.903111	0.0012752  	0.902374	0.905319
248	40    	0.903111	0.0012752  	0.902374	0.905319
249	40    	0.903111	0.0012752  	0.902374	0.905319
250	40    	0.903111	0.0012752  	0.902374	0.905319
