gen	nevals	avg     	std        	min     	max     
0  	20    	0.589808	0.0157502  	0.566208	0.623688
1  	40    	0.598083	0.0102915  	0.587112	0.623688
2  	40    	0.604877	0.00870298 	0.59407 	0.623688
3  	40    	0.614633	0.00750633 	0.602783	0.625443
4  	40    	0.620296	0.00814454 	0.609756	0.646347
5  	40    	0.626479	0.00657558 	0.618469	0.646347
6  	40    	0.62735 	0.00625671 	0.621948	0.646347
7  	40    	0.630486	0.00690258 	0.623688	0.646347
8  	40    	0.633624	0.0071432  	0.623688	0.648087
9  	40    	0.639199	0.00660909 	0.630661	0.653305
10 	40    	0.641203	0.00754284 	0.63414 	0.662018
11 	40    	0.644861	0.00677515 	0.637634	0.662018
12 	40    	0.649129	0.00816076 	0.639374	0.665512
13 	40    	0.65183 	0.00735609 	0.642853	0.665512
14 	40    	0.654879	0.00564198 	0.648087	0.665512
15 	40    	0.658363	0.00422851 	0.651566	0.665512
16 	40    	0.662109	0.00475264 	0.656799	0.67421 
17 	40    	0.664373	0.00431235 	0.658539	0.67421 
18 	40    	0.665767	0.00394506 	0.660278	0.67421 
19 	40    	0.665767	0.00394506 	0.660278	0.67421 
20 	40    	0.665767	0.00394506 	0.660278	0.67421 
21 	40    	0.66899 	0.00476995 	0.663757	0.681183
22 	40    	0.670559	0.00429715 	0.665512	0.681183
23 	40    	0.674216	0.00635449 	0.667252	0.695129
24 	40    	0.67709 	0.00679941 	0.670731	0.695129
25 	40    	0.680488	0.00693452 	0.67247 	0.696869
26 	40    	0.686149	0.00723168 	0.677704	0.702087
27 	40    	0.686845	0.00705345 	0.679443	0.702087
28 	40    	0.691463	0.00504835 	0.682922	0.702087
29 	40    	0.694948	0.00275118 	0.691635	0.702087
30 	40    	0.697737	0.00359089 	0.693375	0.707321
31 	40    	0.701047	0.00448783 	0.696869	0.7108  
32 	40    	0.705489	0.00552217 	0.698608	0.719513
33 	40    	0.705489	0.00552217 	0.698608	0.719513
34 	40    	0.705489	0.00552217 	0.698608	0.719513
35 	40    	0.705923	0.00512718 	0.698608	0.719513
36 	40    	0.707317	0.00519864 	0.702087	0.719513
37 	40    	0.707317	0.00519864 	0.702087	0.719513
38 	40    	0.711762	0.00546699 	0.705582	0.726486
39 	40    	0.715244	0.00497348 	0.709061	0.726486
40 	40    	0.719947	0.00463706 	0.71254 	0.731705
41 	40    	0.723779	0.00309181 	0.719513	0.731705
42 	40    	0.726392	0.00332799 	0.722992	0.733444
43 	40    	0.726392	0.00332799 	0.722992	0.733444
44 	40    	0.726392	0.00332799 	0.722992	0.733444
45 	40    	0.72988 	0.0037536  	0.726486	0.740417
46 	40    	0.731709	0.00539704 	0.726486	0.745651
47 	40    	0.736497	0.00531022 	0.731705	0.75087 
48 	40    	0.736759	0.0051953  	0.731705	0.75087 
49 	40    	0.737107	0.00489472 	0.733444	0.75087 
50 	40    	0.741465	0.00523542 	0.735199	0.752609
51 	40    	0.744772	0.00355    	0.740417	0.752609
52 	40    	0.747474	0.0027813  	0.743896	0.752609
53 	40    	0.750697	0.00263598 	0.747391	0.757843
54 	40    	0.752177	0.00245652 	0.74913 	0.757843
55 	40    	0.752177	0.00245652 	0.74913 	0.757843
56 	40    	0.754353	0.0019118  	0.752609	0.757843
57 	40    	0.75601 	0.00209889 	0.752609	0.761322
58 	40    	0.756447	0.00187861 	0.754349	0.761322
59 	40    	0.758452	0.00221914 	0.756104	0.763062
60 	40    	0.760104	0.00174818 	0.757843	0.763062
61 	40    	0.76167 	0.00161315 	0.759583	0.764801
62 	40    	0.76167 	0.00161315 	0.759583	0.764801
63 	40    	0.762975	0.00140168 	0.761322	0.766556
64 	40    	0.76341 	0.00118182 	0.761322	0.766556
65 	40    	0.76341 	0.00118182 	0.761322	0.766556
66 	40    	0.764543	0.00126822 	0.763062	0.766556
67 	40    	0.764892	0.00169852 	0.763062	0.770035
68 	40    	0.764892	0.00169852 	0.763062	0.770035
69 	40    	0.766376	0.00164687 	0.764801	0.770035
70 	40    	0.766988	0.00164279 	0.764801	0.770035
71 	40    	0.768383	0.00242969 	0.766556	0.775269
72 	40    	0.770994	0.00299058 	0.766556	0.777008
73 	40    	0.771777	0.00269975 	0.768295	0.777008
74 	40    	0.77378 	0.00168156 	0.771774	0.777008
75 	40    	0.775262	0.00174561 	0.773514	0.778748
76 	40    	0.776746	0.00215217 	0.773514	0.782227
77 	40    	0.777965	0.0022995  	0.775269	0.783966
78 	40    	0.779879	0.00235344 	0.777008	0.785721
79 	40    	0.782056	0.00301291 	0.778748	0.7892  
80 	40    	0.784494	0.00228088 	0.780487	0.7892  
81 	40    	0.787196	0.0031282  	0.783966	0.794418
82 	40    	0.787372	0.00298816 	0.783966	0.794418
83 	40    	0.7892  	0.00291074 	0.785721	0.794418
84 	40    	0.791374	0.0021917  	0.78746 	0.794418
85 	40    	0.791461	0.00206554 	0.7892  	0.794418
86 	40    	0.791635	0.00201362 	0.7892  	0.794418
87 	40    	0.792593	0.00169483 	0.790939	0.796173
88 	40    	0.793812	0.00208283 	0.790939	0.799652
89 	40    	0.794944	0.00240984 	0.792679	0.801392
90 	40    	0.797211	0.00255135 	0.794418	0.801392
91 	40    	0.797648	0.00229168 	0.794418	0.801392
92 	40    	0.800348	0.00215867 	0.797913	0.804871
93 	40    	0.801827	0.00232781 	0.799652	0.808365
94 	40    	0.803829	0.0022317  	0.801392	0.808365
95 	40    	0.805658	0.00230545 	0.803131	0.811844
96 	40    	0.807143	0.00214238 	0.804871	0.811844
97 	40    	0.808452	0.00194288 	0.806625	0.811844
98 	40    	0.809756	0.00179093 	0.808365	0.813583
99 	40    	0.8108  	0.00168651 	0.808365	0.813583
100	40    	0.812193	0.00151962 	0.810104	0.815338
101	40    	0.813936	0.00195857 	0.811844	0.818817
102	40    	0.814807	0.00191998 	0.811844	0.818817
103	40    	0.81638 	0.00168903 	0.813583	0.820557
104	40    	0.81638 	0.00168903 	0.813583	0.820557
105	40    	0.81638 	0.00168903 	0.813583	0.820557
106	40    	0.816817	0.00148368 	0.815338	0.820557
107	40    	0.818121	0.00168651 	0.815338	0.822296
108	40    	0.819688	0.00202342 	0.817078	0.82579 
109	40    	0.819688	0.00202342 	0.817078	0.82579 
110	40    	0.819688	0.00202342 	0.817078	0.82579 
111	40    	0.820123	0.00181639 	0.817078	0.82579 
112	40    	0.821776	0.00166306 	0.820557	0.82579 
113	40    	0.821863	0.00164238 	0.820557	0.82579 
114	40    	0.821863	0.00164238 	0.820557	0.82579 
115	40    	0.822298	0.00174408 	0.820557	0.82579 
116	40    	0.822298	0.00174408 	0.820557	0.82579 
117	40    	0.822298	0.00174408 	0.820557	0.82579 
118	40    	0.823256	0.00140523 	0.822296	0.82579 
119	40    	0.823866	0.001451   	0.822296	0.82579 
120	40    	0.825436	0.00152207 	0.824036	0.829269
121	40    	0.82666 	0.00150645 	0.82579 	0.831009
122	40    	0.82666 	0.00150645 	0.82579 	0.831009
123	40    	0.82666 	0.00150645 	0.82579 	0.831009
124	40    	0.82666 	0.00150645 	0.82579 	0.831009
125	40    	0.827356	0.00197569 	0.82579 	0.831009
126	40    	0.827356	0.00197569 	0.82579 	0.831009
127	40    	0.828835	0.0013333  	0.82753 	0.831009
128	40    	0.829182	0.00128711 	0.82753 	0.831009
129	40    	0.82953 	0.00113735 	0.82753 	0.831009
130	40    	0.82953 	0.00113735 	0.82753 	0.831009
131	40    	0.82953 	0.00113735 	0.82753 	0.831009
132	40    	0.82953 	0.00113735 	0.82753 	0.831009
133	40    	0.830226	0.000865391	0.829269	0.831009
134	40    	0.830574	0.000753226	0.829269	0.831009
135	40    	0.831009	0          	0.831009	0.831009
136	40    	0.831009	0          	0.831009	0.831009
137	40    	0.831009	0          	0.831009	0.831009
138	40    	0.831009	0          	0.831009	0.831009
139	40    	0.831009	0          	0.831009	0.831009
140	40    	0.83127 	0.00082969 	0.831009	0.834488
141	40    	0.831531	0.000968514	0.831009	0.834488
142	40    	0.831531	0.000968514	0.831009	0.834488
143	40    	0.831879	0.00116689 	0.831009	0.834488
144	40    	0.832401	0.00130172 	0.831009	0.834488
145	40    	0.833009	0.00126339 	0.831009	0.834488
146	40    	0.833792	0.000852178	0.832748	0.834488
147	40    	0.834315	0.000760161	0.832748	0.836243
148	40    	0.834315	0.000760161	0.832748	0.836243
149	40    	0.834576	0.000671848	0.832748	0.836243
150	40    	0.835014	0.000974683	0.834488	0.837982
151	40    	0.835014	0.000974683	0.834488	0.837982
152	40    	0.835277	0.00103241 	0.834488	0.837982
153	40    	0.835802	0.0012211  	0.834488	0.837982
154	40    	0.836678	0.000753226	0.836243	0.837982
155	40    	0.836678	0.000753226	0.836243	0.837982
156	40    	0.836938	0.0010143  	0.836243	0.839722
157	40    	0.837982	0.00123001 	0.836243	0.839722
158	40    	0.838591	0.00082969 	0.837982	0.839722
159	40    	0.839722	0.00110016 	0.837982	0.841461
160	40    	0.84007 	0.00151646 	0.837982	0.84494 
161	40    	0.840939	0.00165938 	0.839722	0.84494 
162	40    	0.842331	0.00194482 	0.839722	0.84494 
163	40    	0.843462	0.00215226 	0.841461	0.850174
164	40    	0.84503 	0.00178541 	0.843201	0.850174
165	40    	0.845204	0.00168033 	0.843201	0.850174
166	40    	0.845204	0.00168033 	0.843201	0.850174
167	40    	0.846688	0.00206402 	0.84494 	0.851913
168	40    	0.847999	0.00197496 	0.84494 	0.851913
169	40    	0.849304	0.00178246 	0.846695	0.851913
170	40    	0.850435	0.00137794 	0.848434	0.851913
171	40    	0.851653	0.00126565 	0.850174	0.855408
172	40    	0.85174 	0.00121994 	0.850174	0.855408
173	40    	0.852959	0.00177859 	0.851913	0.858887
174	40    	0.85392 	0.0020107  	0.851913	0.858887
175	40    	0.854269	0.00193379 	0.851913	0.858887
176	40    	0.85584 	0.00144578 	0.853653	0.858887
177	40    	0.85584 	0.00144578 	0.853653	0.858887
178	40    	0.85584 	0.00144578 	0.853653	0.858887
179	40    	0.856364	0.00116365 	0.855408	0.858887
180	40    	0.856538	0.00113735 	0.855408	0.858887
181	40    	0.856538	0.00113735 	0.855408	0.858887
182	40    	0.857408	0.000995475	0.855408	0.858887
183	40    	0.857408	0.000995475	0.855408	0.858887
184	40    	0.857669	0.00079714 	0.857147	0.858887
185	40    	0.857669	0.00079714 	0.857147	0.858887
186	40    	0.85793 	0.00102542 	0.857147	0.860626
187	40    	0.858539	0.000886975	0.857147	0.860626
188	40    	0.858539	0.000886975	0.857147	0.860626
189	40    	0.858539	0.000886975	0.857147	0.860626
190	40    	0.859148	0.000621126	0.858887	0.860626
191	40    	0.859322	0.000753226	0.858887	0.860626
192	40    	0.859322	0.000753226	0.858887	0.860626
193	40    	0.859322	0.000753226	0.858887	0.860626
194	40    	0.859756	0.000869751	0.858887	0.860626
195	40    	0.860365	0.000621126	0.858887	0.860626
196	40    	0.860626	0          	0.860626	0.860626
197	40    	0.860713	0.000379116	0.860626	0.862366
198	40    	0.860887	0.000621126	0.860626	0.862366
199	40    	0.860887	0.000621126	0.860626	0.862366
200	40    	0.860887	0.000621126	0.860626	0.862366
201	40    	0.861061	0.000753226	0.860626	0.862366
202	40    	0.861061	0.000753226	0.860626	0.862366
203	40    	0.861148	0.00079714 	0.860626	0.862366
204	40    	0.861409	0.00102542 	0.860626	0.864105
205	40    	0.861931	0.00121454 	0.860626	0.864105
206	40    	0.862453	0.00116365 	0.860626	0.864105
207	40    	0.863235	0.000869751	0.862366	0.864105
208	40    	0.863496	0.00082969 	0.862366	0.864105
209	40    	0.864105	0          	0.864105	0.864105
210	40    	0.864105	0          	0.864105	0.864105
211	40    	0.864193	0.000382441	0.864105	0.86586 
212	40    	0.864368	0.000626575	0.864105	0.86586 
213	40    	0.864719	0.000836968	0.864105	0.86586 
214	40    	0.864719	0.000836968	0.864105	0.86586 
215	40    	0.864983	0.00087738 	0.864105	0.86586 
216	40    	0.865158	0.000859654	0.864105	0.86586 
217	40    	0.865158	0.000859654	0.864105	0.86586 
218	40    	0.865597	0.000626575	0.864105	0.86586 
219	40    	0.865597	0.000626575	0.864105	0.86586 
220	40    	0.86586 	0          	0.86586 	0.86586 
221	40    	0.86586 	0          	0.86586 	0.86586 
222	40    	0.86586 	0          	0.86586 	0.86586 
223	40    	0.865947	0.000379116	0.86586 	0.867599
224	40    	0.865947	0.000379116	0.86586 	0.867599
225	40    	0.865947	0.000379116	0.86586 	0.867599
226	40    	0.865947	0.000379116	0.86586 	0.867599
227	40    	0.865947	0.000379116	0.86586 	0.867599
228	40    	0.865947	0.000379116	0.86586 	0.867599
229	40    	0.866034	0.000521851	0.86586 	0.867599
230	40    	0.866121	0.000621126	0.86586 	0.867599
231	40    	0.866121	0.000621126	0.86586 	0.867599
232	40    	0.866382	0.00079714 	0.86586 	0.867599
233	40    	0.866469	0.00082969 	0.86586 	0.867599
234	40    	0.866469	0.00082969 	0.86586 	0.867599
235	40    	0.86673 	0.000869751	0.86586 	0.867599
236	40    	0.86673 	0.000869751	0.86586 	0.867599
237	40    	0.867252	0.000695801	0.86586 	0.867599
238	40    	0.867252	0.000695801	0.86586 	0.867599
239	40    	0.867252	0.000695801	0.86586 	0.867599
240	40    	0.867252	0.000695801	0.86586 	0.867599
241	40    	0.867252	0.000695801	0.86586 	0.867599
242	40    	0.867599	0          	0.867599	0.867599
243	40    	0.867599	0          	0.867599	0.867599
244	40    	0.867599	0          	0.867599	0.867599
245	40    	0.867599	0          	0.867599	0.867599
246	40    	0.867599	0          	0.867599	0.867599
247	40    	0.867599	0          	0.867599	0.867599
248	40    	0.867686	0.000379116	0.867599	0.869339
249	40    	0.867686	0.000379116	0.867599	0.869339
250	40    	0.867686	0.000379116	0.867599	0.869339
