gen	nevals	avg     	std        	min     	max     
0  	20    	0.59067 	0.0268423  	0.531921	0.643204
1  	40    	0.610148	0.0175334  	0.587555	0.643204
2  	40    	0.620623	0.0111437  	0.603928	0.643204
3  	40    	0.622096	0.00951353 	0.610474	0.643204
4  	40    	0.622752	0.0088353  	0.610474	0.643204
5  	40    	0.632079	0.00967565 	0.6203  	0.656296
6  	40    	0.63568 	0.0102508  	0.623566	0.662842
7  	40    	0.643045	0.0107791  	0.630112	0.672668
8  	40    	0.6473  	0.00895502 	0.639938	0.672668
9  	40    	0.648772	0.00828615 	0.639938	0.672668
10 	40    	0.652699	0.00877614 	0.643204	0.675934
11 	40    	0.659081	0.0102624  	0.64975 	0.682495
12 	40    	0.663664	0.00889663 	0.65303 	0.682495
13 	40    	0.663664	0.00889663 	0.65303 	0.682495
14 	40    	0.664972	0.0080378  	0.656296	0.682495
15 	40    	0.666774	0.00675645 	0.656296	0.682495
16 	40    	0.66841 	0.00604392 	0.659576	0.682495
17 	40    	0.66972 	0.00516492 	0.662842	0.682495
18 	40    	0.66972 	0.00516492 	0.662842	0.682495
19 	40    	0.672503	0.00625189 	0.666122	0.68576 
20 	40    	0.674139	0.00616671 	0.666122	0.68576 
21 	40    	0.678558	0.00736503 	0.669388	0.698853
22 	40    	0.680851	0.00682787 	0.672668	0.698853
23 	40    	0.68429 	0.00522501 	0.675934	0.698853
24 	40    	0.68642 	0.00480866 	0.682495	0.698853
25 	40    	0.689037	0.00612202 	0.682495	0.705399
26 	40    	0.693947	0.00590029 	0.68576 	0.705399
27 	40    	0.693947	0.00590029 	0.68576 	0.705399
28 	40    	0.701312	0.00766769 	0.692307	0.721771
29 	40    	0.707694	0.00754307 	0.698853	0.725037
30 	40    	0.713913	0.00607152 	0.705399	0.725037
31 	40    	0.720296	0.00432492 	0.715225	0.731583
32 	40    	0.724877	0.0040696  	0.721771	0.738129
33 	40    	0.724877	0.0040696  	0.721771	0.738129
34 	40    	0.726839	0.00674423 	0.721771	0.751221
35 	40    	0.73175 	0.00705643 	0.725037	0.751221
36 	40    	0.73764 	0.0071154  	0.728317	0.751221
37 	40    	0.739277	0.00656821 	0.731583	0.751221
38 	40    	0.743532	0.00509887 	0.738129	0.751221
39 	40    	0.748278	0.00437762 	0.741409	0.757767
40 	40    	0.748278	0.00437762 	0.741409	0.757767
41 	40    	0.753024	0.00335176 	0.747955	0.761047
42 	40    	0.755808	0.0040649  	0.751221	0.764328
43 	40    	0.755808	0.0040649  	0.751221	0.764328
44 	40    	0.759573	0.00490851 	0.754501	0.774139
45 	40    	0.764485	0.00552664 	0.757767	0.77742 
46 	40    	0.767924	0.00495372 	0.761047	0.77742 
47 	40    	0.773488	0.00434203 	0.767593	0.780685
48 	40    	0.777087	0.00385831 	0.770874	0.787231
49 	40    	0.778396	0.0037464  	0.774139	0.787231
50 	40    	0.781506	0.00290354 	0.77742 	0.787231
51 	40    	0.784125	0.00393899 	0.780685	0.797058
52 	40    	0.78838 	0.00454293 	0.783966	0.800323
53 	40    	0.788708	0.00444791 	0.783966	0.800323
54 	40    	0.789198	0.00419126 	0.783966	0.800323
55 	40    	0.793455	0.00412747 	0.787231	0.803604
56 	40    	0.796727	0.00308978 	0.793777	0.803604
57 	40    	0.796727	0.00308978 	0.793777	0.803604
58 	40    	0.796891	0.00301501 	0.793777	0.803604
59 	40    	0.798364	0.00364508 	0.793777	0.80687 
60 	40    	0.798364	0.00364508 	0.793777	0.80687 
61 	40    	0.799674	0.00336933 	0.793777	0.80687 
62 	40    	0.800819	0.00315108 	0.797058	0.80687 
63 	40    	0.80229 	0.00261898 	0.797058	0.80687 
64 	40    	0.802782	0.00228649 	0.800323	0.80687 
65 	40    	0.802782	0.00228649 	0.800323	0.80687 
66 	40    	0.805893	0.00255543 	0.803604	0.81015 
67 	40    	0.809328	0.0034133  	0.803604	0.819962
68 	40    	0.810638	0.00331784 	0.80687 	0.819962
69 	40    	0.812439	0.0029441  	0.81015 	0.819962
70 	40    	0.813094	0.0030867  	0.81015 	0.819962
71 	40    	0.813094	0.0030867  	0.81015 	0.819962
72 	40    	0.815219	0.00350612 	0.81015 	0.823242
73 	40    	0.816692	0.00273931 	0.813416	0.823242
74 	40    	0.818984	0.00233612 	0.816696	0.823242
75 	40    	0.819475	0.00279017 	0.816696	0.826508
76 	40    	0.819475	0.00279017 	0.816696	0.826508
77 	40    	0.819475	0.00279017 	0.816696	0.826508
78 	40    	0.819802	0.0028287  	0.816696	0.826508
79 	40    	0.821601	0.00283451 	0.816696	0.826508
80 	40    	0.824548	0.00261612 	0.819962	0.833054
81 	40    	0.824548	0.00261612 	0.819962	0.833054
82 	40    	0.824548	0.00261612 	0.819962	0.833054
83 	40    	0.824712	0.00241879 	0.823242	0.833054
84 	40    	0.825202	0.00240205 	0.823242	0.833054
85 	40    	0.825856	0.00244706 	0.823242	0.833054
86 	40    	0.827491	0.00275735 	0.823242	0.833054
87 	40    	0.827491	0.00275735 	0.823242	0.833054
88 	40    	0.829128	0.00265957 	0.826508	0.833054
89 	40    	0.829128	0.00265957 	0.826508	0.833054
90 	40    	0.830111	0.00290963 	0.826508	0.836334
91 	40    	0.831586	0.00263316 	0.826508	0.836334
92 	40    	0.833385	0.00271831 	0.829788	0.8396  
93 	40    	0.835839	0.00279317 	0.833054	0.84288 
94 	40    	0.836823	0.00331999 	0.833054	0.846161
95 	40    	0.838297	0.00281573 	0.836334	0.846161
96 	40    	0.838788	0.00325374 	0.836334	0.846161
97 	40    	0.84157 	0.00364824 	0.836334	0.849426
98 	40    	0.843534	0.00337363 	0.8396  	0.849426
99 	40    	0.845174	0.00255718 	0.84288 	0.849426
100	40    	0.846156	0.00253527 	0.84288 	0.849426
101	40    	0.848121	0.00190586 	0.846161	0.852707
102	40    	0.848611	0.00203575 	0.846161	0.852707
103	40    	0.849429	0.00231329 	0.846161	0.855972
104	40    	0.850901	0.00219106 	0.849426	0.855972
105	40    	0.852213	0.00214097 	0.849426	0.855972
106	40    	0.85336 	0.00130615 	0.852707	0.855972
107	40    	0.85385 	0.00155749 	0.852707	0.855972
108	40    	0.854503	0.00162451 	0.852707	0.855972
109	40    	0.854666	0.0015997  	0.852707	0.855972
110	40    	0.855973	0.00179131 	0.852707	0.862518
111	40    	0.855973	0.00179131 	0.852707	0.862518
112	40    	0.856792	0.00175656 	0.855972	0.862518
113	40    	0.856792	0.00175656 	0.855972	0.862518
114	40    	0.856792	0.00175656 	0.855972	0.862518
115	40    	0.857447	0.00219106 	0.855972	0.862518
116	40    	0.857938	0.00240641 	0.855972	0.862518
117	40    	0.857938	0.00240641 	0.855972	0.862518
118	40    	0.858594	0.00245011 	0.855972	0.862518
119	40    	0.860232	0.00181987 	0.855972	0.862518
120	40    	0.861049	0.00162451 	0.859253	0.862518
121	40    	0.861049	0.00162451 	0.859253	0.862518
122	40    	0.862355	0.000711673	0.859253	0.862518
123	40    	0.862355	0.000711673	0.859253	0.862518
124	40    	0.862518	0          	0.862518	0.862518
125	40    	0.862518	0          	0.862518	0.862518
126	40    	0.862518	0          	0.862518	0.862518
127	40    	0.862518	0          	0.862518	0.862518
128	40    	0.862518	0          	0.862518	0.862518
129	40    	0.862518	0          	0.862518	0.862518
130	40    	0.862518	0          	0.862518	0.862518
131	40    	0.862846	0.000984192	0.862518	0.865799
132	40    	0.862846	0.000984192	0.862518	0.865799
133	40    	0.862846	0.000984192	0.862518	0.865799
134	40    	0.862846	0.000984192	0.862518	0.865799
135	40    	0.862846	0.000984192	0.862518	0.865799
136	40    	0.862846	0.000984192	0.862518	0.865799
137	40    	0.86301 	0.00117142 	0.862518	0.865799
138	40    	0.86301 	0.00117142 	0.862518	0.865799
139	40    	0.86301 	0.00117142 	0.862518	0.865799
140	40    	0.86301 	0.00117142 	0.862518	0.865799
141	40    	0.86301 	0.00117142 	0.862518	0.865799
142	40    	0.86301 	0.00117142 	0.862518	0.865799
143	40    	0.863174	0.00131226 	0.862518	0.865799
144	40    	0.863502	0.00182425 	0.862518	0.869064
145	40    	0.863993	0.00219106 	0.862518	0.869064
146	40    	0.864484	0.00240641 	0.862518	0.869064
147	40    	0.864812	0.00255718 	0.862518	0.869064
148	40    	0.864812	0.00255718 	0.862518	0.869064
149	40    	0.86563 	0.00263387 	0.862518	0.869064
150	40    	0.867759	0.00281378 	0.862518	0.87561 
151	40    	0.867923	0.00259023 	0.865799	0.87561 
152	40    	0.868414	0.00265713 	0.865799	0.87561 
153	40    	0.868414	0.00265713 	0.865799	0.87561 
154	40    	0.869067	0.00253428 	0.865799	0.87561 
155	40    	0.870376	0.00191083 	0.869064	0.87561 
156	40    	0.870376	0.00191083 	0.869064	0.87561 
157	40    	0.870868	0.00193203 	0.869064	0.87561 
158	40    	0.871196	0.00187563 	0.869064	0.87561 
159	40    	0.871196	0.00187563 	0.869064	0.87561 
160	40    	0.872672	0.000979614	0.872345	0.87561 
161	40    	0.872672	0.000979614	0.872345	0.87561 
162	40    	0.872835	0.00116597 	0.872345	0.87561 
163	40    	0.872998	0.00130615 	0.872345	0.87561 
164	40    	0.872998	0.00130615 	0.872345	0.87561 
165	40    	0.873325	0.00149639 	0.872345	0.87561 
166	40    	0.874141	0.00162451 	0.872345	0.87561 
167	40    	0.875121	0.00116597 	0.872345	0.87561 
168	40    	0.875774	0.000714999	0.87561 	0.878891
169	40    	0.875938	0.000984192	0.87561 	0.878891
170	40    	0.875938	0.000984192	0.87561 	0.878891
171	40    	0.875938	0.000984192	0.87561 	0.878891
172	40    	0.875938	0.000984192	0.87561 	0.878891
173	40    	0.875938	0.000984192	0.87561 	0.878891
174	40    	0.876431	0.00142056 	0.87561 	0.878891
175	40    	0.876431	0.00142056 	0.87561 	0.878891
176	40    	0.876759	0.00156477 	0.87561 	0.878891
177	40    	0.876759	0.00156477 	0.87561 	0.878891
178	40    	0.876759	0.00156477 	0.87561 	0.878891
179	40    	0.877251	0.00164032 	0.87561 	0.878891
180	40    	0.877907	0.00150338 	0.87561 	0.878891
181	40    	0.878563	0.000984192	0.87561 	0.878891
182	40    	0.878891	0          	0.878891	0.878891
183	40    	0.878891	0          	0.878891	0.878891
184	40    	0.878891	0          	0.878891	0.878891
185	40    	0.878891	0          	0.878891	0.878891
186	40    	0.878891	0          	0.878891	0.878891
187	40    	0.878891	0          	0.878891	0.878891
188	40    	0.878891	0          	0.878891	0.878891
189	40    	0.878891	0          	0.878891	0.878891
190	40    	0.878891	0          	0.878891	0.878891
191	40    	0.878891	0          	0.878891	0.878891
192	40    	0.878891	0          	0.878891	0.878891
193	40    	0.878891	0          	0.878891	0.878891
194	40    	0.878891	0          	0.878891	0.878891
195	40    	0.878891	0          	0.878891	0.878891
196	40    	0.878891	0          	0.878891	0.878891
197	40    	0.878891	0          	0.878891	0.878891
198	40    	0.878891	0          	0.878891	0.878891
199	40    	0.878891	0          	0.878891	0.878891
200	40    	0.878891	0          	0.878891	0.878891
201	40    	0.878891	0          	0.878891	0.878891
202	40    	0.878891	0          	0.878891	0.878891
203	40    	0.878891	0          	0.878891	0.878891
204	40    	0.878891	0          	0.878891	0.878891
205	40    	0.878891	0          	0.878891	0.878891
206	40    	0.878891	0          	0.878891	0.878891
207	40    	0.878891	0          	0.878891	0.878891
208	40    	0.878891	0          	0.878891	0.878891
209	40    	0.878891	0          	0.878891	0.878891
210	40    	0.878891	0          	0.878891	0.878891
211	40    	0.878891	0          	0.878891	0.878891
212	40    	0.878891	0          	0.878891	0.878891
213	40    	0.878891	0          	0.878891	0.878891
214	40    	0.878891	0          	0.878891	0.878891
215	40    	0.878891	0          	0.878891	0.878891
216	40    	0.878891	0          	0.878891	0.878891
217	40    	0.878891	0          	0.878891	0.878891
218	40    	0.878891	0          	0.878891	0.878891
219	40    	0.878891	0          	0.878891	0.878891
220	40    	0.878891	0          	0.878891	0.878891
221	40    	0.878891	0          	0.878891	0.878891
222	40    	0.878891	0          	0.878891	0.878891
223	40    	0.878891	0          	0.878891	0.878891
224	40    	0.878891	0          	0.878891	0.878891
225	40    	0.878891	0          	0.878891	0.878891
226	40    	0.878891	0          	0.878891	0.878891
227	40    	0.878891	0          	0.878891	0.878891
228	40    	0.878891	0          	0.878891	0.878891
229	40    	0.878891	0          	0.878891	0.878891
230	40    	0.878891	0          	0.878891	0.878891
231	40    	0.878891	0          	0.878891	0.878891
232	40    	0.878891	0          	0.878891	0.878891
233	40    	0.879054	0.000711673	0.878891	0.882156
234	40    	0.879054	0.000711673	0.878891	0.882156
235	40    	0.879054	0.000711673	0.878891	0.882156
236	40    	0.879218	0.000979614	0.878891	0.882156
237	40    	0.879218	0.000979614	0.878891	0.882156
238	40    	0.879381	0.00116597 	0.878891	0.882156
239	40    	0.879381	0.00116597 	0.878891	0.882156
240	40    	0.879381	0.00116597 	0.878891	0.882156
241	40    	0.879381	0.00116597 	0.878891	0.882156
242	40    	0.879381	0.00116597 	0.878891	0.882156
243	40    	0.879544	0.00130615 	0.878891	0.882156
244	40    	0.879871	0.00149639 	0.878891	0.882156
245	40    	0.880034	0.00155749 	0.878891	0.882156
246	40    	0.880034	0.00155749 	0.878891	0.882156
247	40    	0.880851	0.00190586 	0.878891	0.885437
248	40    	0.880851	0.00190586 	0.878891	0.885437
249	40    	0.881668	0.00187177 	0.878891	0.885437
250	40    	0.882485	0.00142807 	0.878891	0.885437
