gen	nevals	avg     	std       	min     	max     
0  	20    	0.603535	0.0434014 	0.517654	0.682358
1  	40    	0.628241	0.0221348 	0.600006	0.682358
2  	40    	0.638241	0.0210039 	0.611771	0.682358
3  	40    	0.651182	0.0197823 	0.623535	0.682358
4  	40    	0.658829	0.0157838 	0.6353  	0.682358
5  	40    	0.66824 	0.0195447 	0.647064	0.729416
6  	40    	0.676476	0.0172502 	0.658829	0.729416
7  	40    	0.680593	0.0163332 	0.658829	0.729416
8  	40    	0.684711	0.0156074 	0.670593	0.729416
9  	40    	0.690593	0.012941  	0.670593	0.729416
10 	40    	0.695299	0.0133619 	0.682358	0.729416
11 	40    	0.708828	0.0206718 	0.694122	0.764709
12 	40    	0.721769	0.0217803 	0.694122	0.764709
13 	40    	0.721769	0.0217803 	0.694122	0.764709
14 	40    	0.733533	0.0227135 	0.705887	0.788239
15 	40    	0.740592	0.017637  	0.717651	0.788239
16 	40    	0.745298	0.0159039 	0.729416	0.788239
17 	40    	0.749416	0.0166791 	0.729416	0.788239
18 	40    	0.752945	0.0144085 	0.729416	0.788239
19 	40    	0.760592	0.0135548 	0.74118 	0.788239
20 	40    	0.77118 	0.0136565 	0.752945	0.800003
21 	40    	0.778827	0.0115268 	0.764709	0.800003
22 	40    	0.787062	0.00823517	0.776474	0.800003
23 	40    	0.789415	0.0090365 	0.776474	0.811768
24 	40    	0.792944	0.0078037 	0.788239	0.811768
25 	40    	0.79765 	0.01091   	0.788239	0.823532
26 	40    	0.801768	0.012492  	0.788239	0.835297
27 	40    	0.804121	0.012492  	0.788239	0.835297
28 	40    	0.808238	0.0118232 	0.800003	0.835297
29 	40    	0.810591	0.0128336 	0.800003	0.835297
30 	40    	0.810591	0.0128336 	0.800003	0.835297
31 	40    	0.812944	0.0128336 	0.800003	0.835297
32 	40    	0.819415	0.0107018 	0.800003	0.835297
33 	40    	0.825885	0.0115268 	0.811768	0.858826
34 	40    	0.837061	0.0119252 	0.823532	0.858826
35 	40    	0.845296	0.0107018 	0.835297	0.87059 
36 	40    	0.851179	0.00931926	0.835297	0.87059 
37 	40    	0.85412 	0.0078037 	0.847061	0.87059 
38 	40    	0.854708	0.00769206	0.847061	0.87059 
39 	40    	0.858237	0.00693509	0.847061	0.87059 
40 	40    	0.86412 	0.00585278	0.858826	0.87059 
41 	40    	0.86412 	0.00585278	0.858826	0.87059 
42 	40    	0.86412 	0.00585278	0.858826	0.87059 
43 	40    	0.869414	0.00633539	0.858826	0.882355
44 	40    	0.869414	0.00633539	0.858826	0.882355
45 	40    	0.873531	0.00630802	0.87059 	0.894119
46 	40    	0.87412 	0.00655021	0.87059 	0.894119
47 	40    	0.87412 	0.00655021	0.87059 	0.894119
48 	40    	0.875884	0.00693509	0.87059 	0.894119
49 	40    	0.878237	0.00673256	0.87059 	0.894119
50 	40    	0.884119	0.00420078	0.882355	0.894119
51 	40    	0.884119	0.00420078	0.882355	0.894119
52 	40    	0.884708	0.00470581	0.882355	0.894119
53 	40    	0.885884	0.00539118	0.882355	0.894119
54 	40    	0.885884	0.00539118	0.882355	0.894119
55 	40    	0.889413	0.00685984	0.882355	0.905884
56 	40    	0.892943	0.00734694	0.882355	0.905884
57 	40    	0.89706 	0.00630802	0.894119	0.917648
58 	40    	0.89706 	0.00630802	0.894119	0.917648
59 	40    	0.89706 	0.00630802	0.894119	0.917648
60 	40    	0.89706 	0.00630802	0.894119	0.917648
61 	40    	0.89706 	0.00630802	0.894119	0.917648
62 	40    	0.898825	0.00685984	0.894119	0.917648
63 	40    	0.902354	0.00753297	0.894119	0.917648
64 	40    	0.902354	0.00753297	0.894119	0.917648
65 	40    	0.905296	0.00585278	0.894119	0.917648
66 	40    	0.905296	0.00585278	0.894119	0.917648
67 	40    	0.905296	0.00585278	0.894119	0.917648
68 	40    	0.905296	0.00585278	0.894119	0.917648
69 	40    	0.908237	0.00470581	0.905884	0.917648
70 	40    	0.908237	0.00470581	0.905884	0.917648
71 	40    	0.908237	0.00470581	0.905884	0.917648
72 	40    	0.910001	0.00561132	0.905884	0.917648
73 	40    	0.912943	0.00685984	0.905884	0.929413
74 	40    	0.912943	0.00685984	0.905884	0.929413
75 	40    	0.912943	0.00685984	0.905884	0.929413
76 	40    	0.912943	0.00685984	0.905884	0.929413
77 	40    	0.917648	0.00526126	0.905884	0.929413
78 	40    	0.920001	0.00599875	0.917648	0.941177
79 	40    	0.920001	0.00599875	0.917648	0.941177
80 	40    	0.920001	0.00599875	0.917648	0.941177
81 	40    	0.921766	0.00673256	0.917648	0.941177
82 	40    	0.923531	0.00695999	0.917648	0.941177
83 	40    	0.924707	0.0078037 	0.917648	0.941177
84 	40    	0.924707	0.0078037 	0.917648	0.941177
85 	40    	0.931178	0.00769206	0.917648	0.941177
86 	40    	0.934707	0.00585278	0.929413	0.941177
87 	40    	0.938824	0.00470581	0.929413	0.941177
88 	40    	0.939413	0.00420078	0.929413	0.941177
89 	40    	0.941177	0         	0.941177	0.941177
90 	40    	0.941177	0         	0.941177	0.941177
91 	40    	0.941177	0         	0.941177	0.941177
92 	40    	0.941766	0.00256402	0.941177	0.952942
93 	40    	0.941766	0.00256402	0.941177	0.952942
94 	40    	0.941766	0.00256402	0.941177	0.952942
95 	40    	0.941766	0.00256402	0.941177	0.952942
96 	40    	0.941766	0.00256402	0.941177	0.952942
97 	40    	0.941766	0.00256402	0.941177	0.952942
98 	40    	0.941766	0.00256402	0.941177	0.952942
99 	40    	0.941766	0.00256402	0.941177	0.952942
100	40    	0.941766	0.00256402	0.941177	0.952942
101	40    	0.941766	0.00256402	0.941177	0.952942
102	40    	0.942354	0.00352936	0.941177	0.952942
103	40    	0.942942	0.00420078	0.941177	0.952942
104	40    	0.942942	0.00420078	0.941177	0.952942
105	40    	0.94353 	0.00470581	0.941177	0.952942
106	40    	0.944707	0.00539118	0.941177	0.952942
107	40    	0.944707	0.00539118	0.941177	0.952942
108	40    	0.944707	0.00539118	0.941177	0.952942
109	40    	0.944707	0.00539118	0.941177	0.952942
110	40    	0.944707	0.00539118	0.941177	0.952942
111	40    	0.944707	0.00539118	0.941177	0.952942
112	40    	0.945295	0.00561132	0.941177	0.952942
113	40    	0.945883	0.00576342	0.941177	0.952942
114	40    	0.946471	0.00585278	0.941177	0.952942
115	40    	0.949413	0.00539118	0.941177	0.952942
116	40    	0.949413	0.00539118	0.941177	0.952942
117	40    	0.952942	0         	0.952942	0.952942
118	40    	0.952942	0         	0.952942	0.952942
119	40    	0.952942	0         	0.952942	0.952942
120	40    	0.952942	0         	0.952942	0.952942
121	40    	0.952942	0         	0.952942	0.952942
122	40    	0.952942	0         	0.952942	0.952942
123	40    	0.952942	0         	0.952942	0.952942
124	40    	0.952942	0         	0.952942	0.952942
125	40    	0.952942	0         	0.952942	0.952942
126	40    	0.952942	0         	0.952942	0.952942
127	40    	0.952942	0         	0.952942	0.952942
128	40    	0.952942	0         	0.952942	0.952942
129	40    	0.952942	0         	0.952942	0.952942
130	40    	0.952942	0         	0.952942	0.952942
131	40    	0.952942	0         	0.952942	0.952942
132	40    	0.952942	0         	0.952942	0.952942
133	40    	0.952942	0         	0.952942	0.952942
134	40    	0.952942	0         	0.952942	0.952942
135	40    	0.952942	0         	0.952942	0.952942
136	40    	0.952942	0         	0.952942	0.952942
137	40    	0.952942	0         	0.952942	0.952942
138	40    	0.952942	0         	0.952942	0.952942
139	40    	0.952942	0         	0.952942	0.952942
140	40    	0.952942	0         	0.952942	0.952942
141	40    	0.952942	0         	0.952942	0.952942
142	40    	0.952942	0         	0.952942	0.952942
143	40    	0.952942	0         	0.952942	0.952942
144	40    	0.952942	0         	0.952942	0.952942
145	40    	0.952942	0         	0.952942	0.952942
146	40    	0.952942	0         	0.952942	0.952942
147	40    	0.952942	0         	0.952942	0.952942
148	40    	0.952942	0         	0.952942	0.952942
149	40    	0.952942	0         	0.952942	0.952942
150	40    	0.952942	0         	0.952942	0.952942
151	40    	0.952942	0         	0.952942	0.952942
152	40    	0.952942	0         	0.952942	0.952942
153	40    	0.952942	0         	0.952942	0.952942
154	40    	0.952942	0         	0.952942	0.952942
155	40    	0.952942	0         	0.952942	0.952942
156	40    	0.952942	0         	0.952942	0.952942
157	40    	0.952942	0         	0.952942	0.952942
158	40    	0.952942	0         	0.952942	0.952942
159	40    	0.952942	0         	0.952942	0.952942
160	40    	0.952942	0         	0.952942	0.952942
161	40    	0.952942	0         	0.952942	0.952942
162	40    	0.952942	0         	0.952942	0.952942
163	40    	0.952942	0         	0.952942	0.952942
164	40    	0.952942	0         	0.952942	0.952942
165	40    	0.952942	0         	0.952942	0.952942
166	40    	0.952942	0         	0.952942	0.952942
167	40    	0.952942	0         	0.952942	0.952942
168	40    	0.952942	0         	0.952942	0.952942
169	40    	0.952942	0         	0.952942	0.952942
170	40    	0.952942	0         	0.952942	0.952942
171	40    	0.952942	0         	0.952942	0.952942
172	40    	0.952942	0         	0.952942	0.952942
173	40    	0.952942	0         	0.952942	0.952942
174	40    	0.952942	0         	0.952942	0.952942
175	40    	0.952942	0         	0.952942	0.952942
176	40    	0.952942	0         	0.952942	0.952942
177	40    	0.952942	0         	0.952942	0.952942
178	40    	0.952942	0         	0.952942	0.952942
179	40    	0.952942	0         	0.952942	0.952942
180	40    	0.952942	0         	0.952942	0.952942
181	40    	0.952942	0         	0.952942	0.952942
182	40    	0.952942	0         	0.952942	0.952942
183	40    	0.952942	0         	0.952942	0.952942
184	40    	0.952942	0         	0.952942	0.952942
185	40    	0.952942	0         	0.952942	0.952942
186	40    	0.952942	0         	0.952942	0.952942
187	40    	0.952942	0         	0.952942	0.952942
188	40    	0.952942	0         	0.952942	0.952942
189	40    	0.952942	0         	0.952942	0.952942
190	40    	0.952942	0         	0.952942	0.952942
191	40    	0.952942	0         	0.952942	0.952942
192	40    	0.952942	0         	0.952942	0.952942
193	40    	0.952942	0         	0.952942	0.952942
194	40    	0.952942	0         	0.952942	0.952942
195	40    	0.952942	0         	0.952942	0.952942
196	40    	0.952942	0         	0.952942	0.952942
197	40    	0.952942	0         	0.952942	0.952942
198	40    	0.952942	0         	0.952942	0.952942
199	40    	0.952942	0         	0.952942	0.952942
200	40    	0.952942	0         	0.952942	0.952942
201	40    	0.952942	0         	0.952942	0.952942
202	40    	0.952942	0         	0.952942	0.952942
203	40    	0.952942	0         	0.952942	0.952942
204	40    	0.952942	0         	0.952942	0.952942
205	40    	0.952942	0         	0.952942	0.952942
206	40    	0.952942	0         	0.952942	0.952942
207	40    	0.952942	0         	0.952942	0.952942
208	40    	0.952942	0         	0.952942	0.952942
209	40    	0.952942	0         	0.952942	0.952942
210	40    	0.952942	0         	0.952942	0.952942
211	40    	0.952942	0         	0.952942	0.952942
212	40    	0.952942	0         	0.952942	0.952942
213	40    	0.952942	0         	0.952942	0.952942
214	40    	0.952942	0         	0.952942	0.952942
215	40    	0.952942	0         	0.952942	0.952942
216	40    	0.952942	0         	0.952942	0.952942
217	40    	0.952942	0         	0.952942	0.952942
218	40    	0.952942	0         	0.952942	0.952942
219	40    	0.952942	0         	0.952942	0.952942
220	40    	0.952942	0         	0.952942	0.952942
221	40    	0.952942	0         	0.952942	0.952942
222	40    	0.952942	0         	0.952942	0.952942
223	40    	0.952942	0         	0.952942	0.952942
224	40    	0.952942	0         	0.952942	0.952942
225	40    	0.952942	0         	0.952942	0.952942
226	40    	0.952942	0         	0.952942	0.952942
227	40    	0.952942	0         	0.952942	0.952942
228	40    	0.952942	0         	0.952942	0.952942
229	40    	0.952942	0         	0.952942	0.952942
230	40    	0.952942	0         	0.952942	0.952942
231	40    	0.952942	0         	0.952942	0.952942
232	40    	0.952942	0         	0.952942	0.952942
233	40    	0.952942	0         	0.952942	0.952942
234	40    	0.952942	0         	0.952942	0.952942
235	40    	0.952942	0         	0.952942	0.952942
236	40    	0.952942	0         	0.952942	0.952942
237	40    	0.952942	0         	0.952942	0.952942
238	40    	0.952942	0         	0.952942	0.952942
239	40    	0.952942	0         	0.952942	0.952942
240	40    	0.952942	0         	0.952942	0.952942
241	40    	0.952942	0         	0.952942	0.952942
242	40    	0.952942	0         	0.952942	0.952942
243	40    	0.952942	0         	0.952942	0.952942
244	40    	0.952942	0         	0.952942	0.952942
245	40    	0.952942	0         	0.952942	0.952942
246	40    	0.952942	0         	0.952942	0.952942
247	40    	0.952942	0         	0.952942	0.952942
248	40    	0.952942	0         	0.952942	0.952942
249	40    	0.952942	0         	0.952942	0.952942
250	40    	0.952942	0         	0.952942	0.952942
