Run:170 Evals:10020 MES:10020.0 MAD:0.0 FAILURES:151 Best:0.8912353515625 Solution:1.0
Run:171 Evals:10020 MES:10020.0 MAD:0.0 FAILURES:152 Best:0.8922576904296875 Solution:1.0
Run:172 Evals:10020 MES:10020.0 MAD:0.0 FAILURES:153 Best:0.892730712890625 Solution:1.0
Run:173 Evals:10020 MES:10020.0 MAD:0.0 FAILURES:154 Best:0.8675689697265625 Solution:1.0
Run:174 Evals:10020 MES:10020.0 MAD:0.0 FAILURES:155 Best:0.894256591796875 Solution:1.0
Run:175 Evals:10020 MES:10020.0 MAD:0.0 FAILURES:156 Best:0.888519287109375 Solution:1.0
Run:176 Evals:10020 MES:10020.0 MAD:0.0 FAILURES:157 Best:0.8754119873046875 Solution:1.0
Run:177 Evals:10020 MES:10020.0 MAD:0.0 FAILURES:158 Best:0.8934478759765625 Solution:1.0
Run:178 Evals:10020 MES:10020.0 MAD:0.0 FAILURES:159 Best:0.880126953125 Solution:1.0
Run:179 Evals:10020 MES:10020.0 MAD:0.0 FAILURES:160 Best:0.8976593017578125 Solution:1.0

