gen	nevals	avg     	std        	min     	max     
0  	20    	0.582288	0.0134661  	0.556061	0.599396
1  	40    	0.596712	0.00962345 	0.585953	0.630798
2  	40    	0.603285	0.00860678 	0.59343 	0.630798
3  	40    	0.606274	0.00746783 	0.599396	0.630798
4  	40    	0.609265	0.00631602 	0.602386	0.630798
5  	40    	0.614349	0.00704568 	0.606873	0.630798
6  	40    	0.618686	0.00698031 	0.609863	0.630798
7  	40    	0.62519 	0.00584504 	0.614349	0.63826 
8  	40    	0.630273	0.00522458 	0.623322	0.642746
9  	40    	0.630871	0.00480574 	0.624817	0.642746
10 	40    	0.635055	0.0067523  	0.627808	0.653214
11 	40    	0.635279	0.00658015 	0.627808	0.653214
12 	40    	0.63991 	0.00711761 	0.630798	0.656204
13 	40    	0.645288	0.00698351 	0.63826 	0.662186
14 	40    	0.650447	0.00594911 	0.642746	0.663681
15 	40    	0.654709	0.00468122 	0.648727	0.666672
16 	40    	0.658971	0.00468778 	0.653214	0.669662
17 	40    	0.662335	0.00409248 	0.656204	0.672653
18 	40    	0.666074	0.00367506 	0.66069 	0.672653
19 	40    	0.666074	0.00367506 	0.66069 	0.672653
20 	40    	0.669437	0.00384723 	0.665176	0.68161 
21 	40    	0.672798	0.00330074 	0.669662	0.68161 
22 	40    	0.675484	0.00270713 	0.671158	0.68161 
23 	40    	0.67832 	0.00261581 	0.675629	0.684601
24 	40    	0.680339	0.00280853 	0.677124	0.687592
25 	40    	0.683554	0.00303157 	0.678619	0.689087
26 	40    	0.686171	0.00256728 	0.683105	0.690582
27 	40    	0.686769	0.00252335 	0.683105	0.690582
28 	40    	0.689386	0.00312241 	0.686096	0.70105 
29 	40    	0.692003	0.00342549 	0.689087	0.70105 
30 	40    	0.694022	0.00522521 	0.689087	0.710022
31 	40    	0.698508	0.00436225 	0.692078	0.710022
32 	40    	0.702097	0.0036353  	0.698059	0.710022
33 	40    	0.705685	0.00316861 	0.70105 	0.711517
34 	40    	0.708675	0.00294703 	0.704041	0.717484
35 	40    	0.710319	0.00339197 	0.707031	0.717484
36 	40    	0.713304	0.00318643 	0.708527	0.718979
37 	40    	0.714795	0.00224356 	0.711517	0.718979
38 	40    	0.714795	0.00224356 	0.711517	0.718979
39 	40    	0.717259	0.00190768 	0.714493	0.72197 
40 	40    	0.718381	0.00179443 	0.715988	0.723465
41 	40    	0.719801	0.0017991  	0.717484	0.723465
42 	40    	0.719801	0.0017991  	0.717484	0.723465
43 	40    	0.72182 	0.00210947 	0.718979	0.727951
44 	40    	0.723689	0.00237734 	0.720474	0.730942
45 	40    	0.726007	0.00232143 	0.723465	0.730942
46 	40    	0.728325	0.00205442 	0.72496 	0.732437
47 	40    	0.728325	0.00205442 	0.72496 	0.732437
48 	40    	0.730194	0.00186171 	0.727951	0.735428
49 	40    	0.731989	0.0018974  	0.729446	0.736923
50 	40    	0.733035	0.00185569 	0.730942	0.736923
51 	40    	0.733035	0.00185569 	0.730942	0.736923
52 	40    	0.734306	0.00221167 	0.730942	0.741409
53 	40    	0.73625 	0.00233942 	0.733932	0.741409
54 	40    	0.73812 	0.00304995 	0.735428	0.747391
55 	40    	0.73812 	0.00304995 	0.735428	0.747391
56 	40    	0.738643	0.00280853 	0.735428	0.747391
57 	40    	0.740961	0.0025509  	0.738419	0.747391
58 	40    	0.742979	0.00265082 	0.739914	0.750366
59 	40    	0.744997	0.00351636 	0.741409	0.754852
60 	40    	0.747687	0.00364558 	0.7444  	0.757843
61 	40    	0.750002	0.00374321 	0.745895	0.757843
62 	40    	0.752613	0.0030416  	0.748886	0.757843
63 	40    	0.753207	0.00249775 	0.750366	0.757843
64 	40    	0.754628	0.00178663 	0.751862	0.757843
65 	40    	0.756647	0.00138674 	0.754852	0.759338
66 	40    	0.756871	0.00144013 	0.754852	0.759338
67 	40    	0.757993	0.00182532 	0.756348	0.763824
68 	40    	0.757993	0.00182532 	0.756348	0.763824
69 	40    	0.759338	0.00194971 	0.757843	0.763824
70 	40    	0.760983	0.00240656 	0.757843	0.76532 
71 	40    	0.762404	0.00261047 	0.759338	0.768311
72 	40    	0.764796	0.00202151 	0.762329	0.768311
73 	40    	0.766815	0.00170497 	0.76532 	0.772797
74 	40    	0.768236	0.00167019 	0.766815	0.772797
75 	40    	0.76846 	0.00163125 	0.766815	0.772797
76 	40    	0.770329	0.00184815 	0.768311	0.774292
77 	40    	0.771002	0.00153957 	0.768311	0.774292
78 	40    	0.771002	0.00153957 	0.768311	0.774292
79 	40    	0.771451	0.00194397 	0.769806	0.777283
80 	40    	0.772871	0.00173584 	0.771301	0.777283
81 	40    	0.773544	0.00173745 	0.771301	0.777283
82 	40    	0.774591	0.00186771 	0.772797	0.778778
83 	40    	0.776236	0.00272057 	0.774292	0.786255
84 	40    	0.778329	0.00291883 	0.775787	0.786255
85 	40    	0.780498	0.00268645 	0.777283	0.786255
86 	40    	0.782442	0.00238673 	0.780273	0.78775 
87 	40    	0.78461 	0.00210947 	0.781769	0.78775 
88 	40    	0.786179	0.00145398 	0.783264	0.78923 
89 	40    	0.787076	0.00119958 	0.786255	0.790726
90 	40    	0.787374	0.00123552 	0.786255	0.790726
91 	40    	0.788046	0.00120921 	0.786255	0.790726
92 	40    	0.789014	0.00158173 	0.78775 	0.793716
93 	40    	0.789014	0.00158173 	0.78775 	0.793716
94 	40    	0.789534	0.00160546 	0.78775 	0.793716
95 	40    	0.789831	0.00144651 	0.78775 	0.793716
96 	40    	0.790726	0.00170497 	0.78923 	0.795212
97 	40    	0.790726	0.00170497 	0.78923 	0.795212
98 	40    	0.790726	0.00170497 	0.78923 	0.795212
99 	40    	0.791473	0.00167186 	0.78923 	0.795212
100	40    	0.79267 	0.00195544 	0.790726	0.796707
101	40    	0.793567	0.00163125 	0.790726	0.796707
102	40    	0.79424 	0.00136029 	0.792221	0.796707
103	40    	0.795212	0.00149536 	0.793716	0.798203
104	40    	0.795212	0.00149536 	0.793716	0.798203
105	40    	0.795287	0.00145558 	0.793716	0.798203
106	40    	0.796707	0.00156835 	0.795212	0.801193
107	40    	0.797305	0.00179443 	0.795212	0.801193
108	40    	0.798203	0.00183144 	0.796707	0.802689
109	40    	0.799474	0.00172291 	0.796707	0.802689
110	40    	0.800221	0.00136029 	0.798203	0.802689
111	40    	0.801418	0.00108607 	0.799698	0.804184
112	40    	0.801866	0.00120328 	0.801193	0.805679
113	40    	0.802614	0.00145558 	0.801193	0.805679
114	40    	0.802689	0.00141862 	0.801193	0.805679
115	40    	0.804109	0.00145558 	0.802689	0.807175
116	40    	0.805978	0.00219772 	0.804184	0.811661
117	40    	0.807623	0.00217214 	0.805679	0.813156
118	40    	0.809119	0.00227275 	0.805679	0.814651
119	40    	0.809717	0.0025509  	0.807175	0.816147
120	40    	0.811137	0.00228135 	0.80867 	0.816147
121	40    	0.811137	0.00228135 	0.80867 	0.816147
122	40    	0.812633	0.00218113 	0.810165	0.816147
123	40    	0.81338 	0.00184815 	0.811661	0.816147
124	40    	0.814427	0.00172291 	0.811661	0.819138
125	40    	0.8151  	0.00150282 	0.813156	0.819138
126	40    	0.8151  	0.00150282 	0.813156	0.819138
127	40    	0.815773	0.00123989 	0.813156	0.819138
128	40    	0.815997	0.00104675 	0.814651	0.819138
129	40    	0.816222	0.000881503	0.814651	0.819138
130	40    	0.816895	0.00129502 	0.816147	0.820633
131	40    	0.817642	0.00216698 	0.816147	0.825119
132	40    	0.818539	0.0020828  	0.816147	0.825119
133	40    	0.820035	0.00228746 	0.817642	0.825119
134	40    	0.821306	0.0022418  	0.819138	0.825119
135	40    	0.823026	0.00159661 	0.820633	0.825119
136	40    	0.824147	0.00108607 	0.822128	0.826614
137	40    	0.824297	0.00100033 	0.822128	0.826614
138	40    	0.825044	0.000881503	0.823624	0.826614
139	40    	0.825642	0.000853564	0.825119	0.828094
140	40    	0.825642	0.000853564	0.825119	0.828094
141	40    	0.826312	0.00153453 	0.825119	0.831085
142	40    	0.827356	0.00152634 	0.825119	0.831085
143	40    	0.828025	0.00145038 	0.826614	0.831085
144	40    	0.829066	0.00108607 	0.828094	0.831085
145	40    	0.829889	0.00130363 	0.828094	0.832581
146	40    	0.83116 	0.00145558 	0.82959 	0.834076
147	40    	0.831833	0.00100312 	0.831085	0.834076
148	40    	0.831833	0.00100312 	0.831085	0.834076
149	40    	0.832805	0.00151578 	0.831085	0.837067
150	40    	0.833702	0.00155941 	0.831085	0.837067
151	40    	0.834749	0.00120328 	0.832581	0.837067
152	40    	0.835571	0.00125111 	0.834076	0.837067
153	40    	0.836319	0.000884668	0.835571	0.838562
154	40    	0.836917	0.000805277	0.835571	0.838562
155	40    	0.836917	0.000805277	0.835571	0.838562
156	40    	0.836917	0.000805277	0.835571	0.838562
157	40    	0.836917	0.000805277	0.835571	0.838562
158	40    	0.837366	0.000598145	0.837067	0.838562
159	40    	0.837665	0.000871938	0.837067	0.840057
160	40    	0.837964	0.00099191 	0.837067	0.840057
161	40    	0.838487	0.000881503	0.837067	0.840057
162	40    	0.838861	0.000598145	0.838562	0.840057
163	40    	0.838861	0.000598145	0.838562	0.840057
164	40    	0.83931 	0.000884668	0.838562	0.841553
165	40    	0.840207	0.00148787 	0.838562	0.844543
166	40    	0.841104	0.00142648 	0.840057	0.844543
167	40    	0.841328	0.00144013 	0.840057	0.844543
168	40    	0.842001	0.00116791 	0.840057	0.844543
169	40    	0.842674	0.00123989 	0.841553	0.844543
170	40    	0.842674	0.00123989 	0.841553	0.844543
171	40    	0.842674	0.00123989 	0.841553	0.844543
172	40    	0.842674	0.00123989 	0.841553	0.844543
173	40    	0.842674	0.00123989 	0.841553	0.844543
174	40    	0.842674	0.00123989 	0.841553	0.844543
175	40    	0.843048	0.00125111 	0.841553	0.844543
176	40    	0.844095	0.0010679  	0.843048	0.847534
177	40    	0.844244	0.00111903 	0.843048	0.847534
178	40    	0.844244	0.00111903 	0.843048	0.847534
179	40    	0.844244	0.00111903 	0.843048	0.847534
180	40    	0.844992	0.000832582	0.844543	0.847534
181	40    	0.845515	0.00108607 	0.844543	0.847534
182	40    	0.846562	0.00085576 	0.846039	0.84903 
183	40    	0.847235	0.00121484 	0.846039	0.850525
184	40    	0.847235	0.00121484 	0.846039	0.850525
185	40    	0.847235	0.00121484 	0.846039	0.850525
186	40    	0.848282	0.0012056  	0.847534	0.85202 
187	40    	0.849329	0.0010142  	0.847534	0.85202 
188	40    	0.850151	0.00114617 	0.84903 	0.85202 
189	40    	0.851048	0.00085576 	0.84903 	0.85202 
190	40    	0.85202 	0.00105738 	0.850525	0.855011
191	40    	0.852245	0.00085576 	0.850525	0.855011
192	40    	0.852618	0.00099191 	0.85202 	0.855011
193	40    	0.852618	0.00099191 	0.85202 	0.855011
194	40    	0.852618	0.00099191 	0.85202 	0.855011
195	40    	0.853441	0.0017991  	0.85202 	0.859497
196	40    	0.854712	0.00161055 	0.853516	0.859497
197	40    	0.85546 	0.00142648 	0.853516	0.859497
198	40    	0.85546 	0.00142648 	0.853516	0.859497
199	40    	0.856656	0.0016984  	0.855011	0.860992
200	40    	0.856656	0.0016984  	0.855011	0.860992
201	40    	0.857777	0.00158783 	0.856506	0.860992
202	40    	0.858301	0.00146515 	0.856506	0.860992
203	40    	0.859422	0.00110647 	0.858002	0.862488
204	40    	0.859422	0.00110647 	0.858002	0.862488
205	40    	0.859422	0.00110647 	0.858002	0.862488
206	40    	0.86017 	0.000881503	0.859497	0.862488
207	40    	0.86017 	0.000881503	0.859497	0.862488
208	40    	0.86017 	0.000881503	0.859497	0.862488
209	40    	0.860544	0.000957498	0.859497	0.862488
210	40    	0.860544	0.000957498	0.859497	0.862488
211	40    	0.860693	0.000897217	0.859497	0.862488
212	40    	0.860843	0.000933853	0.859497	0.862488
213	40    	0.861067	0.000881503	0.859497	0.862488
214	40    	0.861366	0.000801798	0.859497	0.862488
215	40    	0.861441	0.000685261	0.860992	0.862488
216	40    	0.861964	0.00085576 	0.860992	0.863983
217	40    	0.862563	0.000743933	0.860992	0.863983
218	40    	0.86301 	0.00108329 	0.862488	0.866959
219	40    	0.863533	0.00134193 	0.862488	0.866959
220	40    	0.863533	0.00134193 	0.862488	0.866959
221	40    	0.863832	0.00123829 	0.862488	0.866959
222	40    	0.86495 	0.00150943 	0.863983	0.868454
223	40    	0.86495 	0.00150943 	0.863983	0.868454
224	40    	0.86584 	0.00132271 	0.863983	0.868454
225	40    	0.86584 	0.00132271 	0.863983	0.868454
226	40    	0.866884	0.00110647 	0.865463	0.868454
227	40    	0.866884	0.00110647 	0.865463	0.868454
228	40    	0.866884	0.00110647 	0.865463	0.868454
229	40    	0.867856	0.000732574	0.866959	0.868454
230	40    	0.868005	0.000685261	0.866959	0.868454
231	40    	0.868005	0.000685261	0.866959	0.868454
232	40    	0.868005	0.000685261	0.866959	0.868454
233	40    	0.868005	0.000685261	0.866959	0.868454
234	40    	0.868604	0.000448608	0.868454	0.869949
235	40    	0.868604	0.000448608	0.868454	0.869949
236	40    	0.868604	0.000448608	0.868454	0.869949
237	40    	0.868604	0.000448608	0.868454	0.869949
238	40    	0.868753	0.000762488	0.868454	0.871445
239	40    	0.868753	0.000762488	0.868454	0.871445
240	40    	0.868753	0.000762488	0.868454	0.871445
241	40    	0.868753	0.000762488	0.868454	0.871445
242	40    	0.868753	0.000762488	0.868454	0.871445
243	40    	0.868903	0.000832582	0.868454	0.871445
244	40    	0.869351	0.00099191 	0.868454	0.871445
245	40    	0.869875	0.000881503	0.868454	0.871445
246	40    	0.870248	0.000598145	0.869949	0.871445
247	40    	0.870248	0.000598145	0.869949	0.871445
248	40    	0.870622	0.000743933	0.869949	0.871445
249	40    	0.870622	0.000743933	0.869949	0.871445
250	40    	0.870622	0.000743933	0.869949	0.871445
