gen	nevals	avg     	std       	min     	max     
0  	20    	0.60125 	0.0253159 	0.566666	0.666672
1  	40    	0.623752	0.0194128 	0.600006	0.666672
2  	40    	0.637084	0.0181587 	0.616669	0.666672
3  	40    	0.65125 	0.0127172 	0.633331	0.675003
4  	40    	0.662084	0.0154745 	0.641663	0.699997
5  	40    	0.673753	0.012152  	0.65834 	0.699997
6  	40    	0.674586	0.0116266 	0.65834 	0.699997
7  	40    	0.682085	0.0112627 	0.666672	0.699997
8  	40    	0.689583	0.0120372 	0.675003	0.71666 
9  	40    	0.690833	0.0111465 	0.675003	0.71666 
10 	40    	0.699581	0.0103665 	0.691666	0.733337
11 	40    	0.701664	0.0104081 	0.691666	0.733337
12 	40    	0.704997	0.015899  	0.691666	0.758331
13 	40    	0.708747	0.0150183 	0.691666	0.758331
14 	40    	0.709997	0.0143383 	0.699997	0.758331
15 	40    	0.718331	0.0155035 	0.699997	0.758331
16 	40    	0.723331	0.0148168 	0.708328	0.758331
17 	40    	0.728749	0.0150199 	0.708328	0.758331
18 	40    	0.734586	0.0109527 	0.71666 	0.758331
19 	40    	0.745834	0.0130405 	0.733337	0.774994
20 	40    	0.749167	0.0114536 	0.733337	0.774994
21 	40    	0.753333	0.0116042 	0.741669	0.774994
22 	40    	0.753333	0.0116042 	0.741669	0.774994
23 	40    	0.759998	0.00935186	0.75    	0.774994
24 	40    	0.761247	0.00884649	0.75    	0.774994
25 	40    	0.765413	0.00659963	0.758331	0.774994
26 	40    	0.771664	0.00928159	0.758331	0.791672
27 	40    	0.779582	0.00967809	0.766663	0.791672
28 	40    	0.779999	0.00928433	0.766663	0.791672
29 	40    	0.785837	0.00651203	0.774994	0.791672
30 	40    	0.794171	0.00749817	0.78334 	0.808334
31 	40    	0.797087	0.00659963	0.791672	0.808334
32 	40    	0.797087	0.00659963	0.791672	0.808334
33 	40    	0.802086	0.00784868	0.791672	0.816666
34 	40    	0.803752	0.00670398	0.791672	0.816666
35 	40    	0.807085	0.00605096	0.800003	0.816666
36 	40    	0.810417	0.00518619	0.800003	0.816666
37 	40    	0.814583	0.00581701	0.808334	0.824997
38 	40    	0.818748	0.00581701	0.808334	0.824997
39 	40    	0.823331	0.00726306	0.816666	0.84166 
40 	40    	0.829163	0.00931638	0.816666	0.850006
41 	40    	0.836246	0.0115711 	0.824997	0.866669
42 	40    	0.845415	0.0103704 	0.833328	0.866669
43 	40    	0.845415	0.0103704 	0.833328	0.866669
44 	40    	0.853336	0.00850048	0.84166 	0.866669
45 	40    	0.853336	0.00850048	0.84166 	0.866669
46 	40    	0.856671	0.00676838	0.850006	0.866669
47 	40    	0.864169	0.00594974	0.858337	0.875   
48 	40    	0.865002	0.00565056	0.858337	0.875   
49 	40    	0.868752	0.00360756	0.866669	0.875   
50 	40    	0.871667	0.00666504	0.866669	0.891663
51 	40    	0.872501	0.00650695	0.866669	0.891663
52 	40    	0.872501	0.00650695	0.866669	0.891663
53 	40    	0.87375 	0.00659963	0.866669	0.891663
54 	40    	0.87375 	0.00659963	0.866669	0.891663
55 	40    	0.875   	0.0064534 	0.866669	0.891663
56 	40    	0.875   	0.0064534 	0.866669	0.891663
57 	40    	0.875   	0.0064534 	0.866669	0.891663
58 	40    	0.875   	0.0064534 	0.866669	0.891663
59 	40    	0.875833	0.00583191	0.866669	0.891663
60 	40    	0.877083	0.00518619	0.866669	0.891663
61 	40    	0.878749	0.00491123	0.875   	0.891663
62 	40    	0.879582	0.00491123	0.875   	0.891663
63 	40    	0.880415	0.0047678 	0.875   	0.891663
64 	40    	0.882082	0.0047678 	0.875   	0.891663
65 	40    	0.882915	0.00414477	0.875   	0.891663
66 	40    	0.882915	0.00414477	0.875   	0.891663
67 	40    	0.882915	0.00414477	0.875   	0.891663
68 	40    	0.882915	0.00414477	0.875   	0.891663
69 	40    	0.884998	0.00333252	0.883331	0.891663
70 	40    	0.884998	0.00333252	0.883331	0.891663
71 	40    	0.886664	0.00408149	0.883331	0.891663
72 	40    	0.88708 	0.00414477	0.883331	0.891663
73 	40    	0.88708 	0.00414477	0.883331	0.891663
74 	40    	0.887914	0.00414477	0.883331	0.891663
75 	40    	0.887914	0.00414477	0.883331	0.891663
76 	40    	0.88958 	0.00360756	0.883331	0.891663
77 	40    	0.889996	0.00333252	0.883331	0.891663
78 	40    	0.891663	0         	0.891663	0.891663
79 	40    	0.891663	0         	0.891663	0.891663
80 	40    	0.892079	0.00181576	0.891663	0.899994
81 	40    	0.892079	0.00181576	0.891663	0.899994
82 	40    	0.892079	0.00181576	0.891663	0.899994
83 	40    	0.892496	0.00249939	0.891663	0.899994
84 	40    	0.892496	0.00249939	0.891663	0.899994
85 	40    	0.892496	0.00249939	0.891663	0.899994
86 	40    	0.892912	0.00297487	0.891663	0.899994
87 	40    	0.892912	0.00297487	0.891663	0.899994
88 	40    	0.892912	0.00297487	0.891663	0.899994
89 	40    	0.892912	0.00297487	0.891663	0.899994
90 	40    	0.892912	0.00297487	0.891663	0.899994
91 	40    	0.892912	0.00297487	0.891663	0.899994
92 	40    	0.892912	0.00297487	0.891663	0.899994
93 	40    	0.893329	0.00333252	0.891663	0.899994
94 	40    	0.893745	0.00360756	0.891663	0.899994
95 	40    	0.894579	0.00397378	0.891663	0.899994
96 	40    	0.895412	0.00414477	0.891663	0.899994
97 	40    	0.895412	0.00414477	0.891663	0.899994
98 	40    	0.896661	0.00408149	0.891663	0.899994
99 	40    	0.897911	0.00360756	0.891663	0.899994
100	40    	0.900829	0.00250397	0.899994	0.90834 
101	40    	0.901663	0.00333862	0.899994	0.90834 
102	40    	0.901663	0.00333862	0.899994	0.90834 
103	40    	0.901663	0.00333862	0.899994	0.90834 
104	40    	0.901663	0.00333862	0.899994	0.90834 
105	40    	0.902915	0.00398105	0.899994	0.90834 
106	40    	0.904167	0.00417328	0.899994	0.90834 
107	40    	0.904585	0.00415236	0.899994	0.90834 
108	40    	0.904585	0.00415236	0.899994	0.90834 
109	40    	0.904585	0.00415236	0.899994	0.90834 
110	40    	0.905836	0.00382487	0.899994	0.90834 
111	40    	0.905836	0.00382487	0.899994	0.90834 
112	40    	0.907923	0.00181909	0.899994	0.90834 
113	40    	0.90834 	0         	0.90834 	0.90834 
114	40    	0.90834 	0         	0.90834 	0.90834 
115	40    	0.90834 	0         	0.90834 	0.90834 
116	40    	0.90834 	0         	0.90834 	0.90834 
117	40    	0.90834 	0         	0.90834 	0.90834 
118	40    	0.90834 	0         	0.90834 	0.90834 
119	40    	0.90834 	0         	0.90834 	0.90834 
120	40    	0.90834 	0         	0.90834 	0.90834 
121	40    	0.90834 	0         	0.90834 	0.90834 
122	40    	0.90834 	0         	0.90834 	0.90834 
123	40    	0.90834 	0         	0.90834 	0.90834 
124	40    	0.90834 	0         	0.90834 	0.90834 
125	40    	0.90834 	0         	0.90834 	0.90834 
126	40    	0.90834 	0         	0.90834 	0.90834 
127	40    	0.90834 	0         	0.90834 	0.90834 
128	40    	0.90834 	0         	0.90834 	0.90834 
129	40    	0.90834 	0         	0.90834 	0.90834 
130	40    	0.90834 	0         	0.90834 	0.90834 
131	40    	0.90834 	0         	0.90834 	0.90834 
132	40    	0.90834 	0         	0.90834 	0.90834 
133	40    	0.90834 	0         	0.90834 	0.90834 
134	40    	0.90834 	0         	0.90834 	0.90834 
135	40    	0.90834 	0         	0.90834 	0.90834 
136	40    	0.90834 	0         	0.90834 	0.90834 
137	40    	0.90834 	0         	0.90834 	0.90834 
138	40    	0.90834 	0         	0.90834 	0.90834 
139	40    	0.90834 	0         	0.90834 	0.90834 
140	40    	0.90834 	0         	0.90834 	0.90834 
141	40    	0.90834 	0         	0.90834 	0.90834 
142	40    	0.90834 	0         	0.90834 	0.90834 
143	40    	0.90834 	0         	0.90834 	0.90834 
144	40    	0.90834 	0         	0.90834 	0.90834 
145	40    	0.90834 	0         	0.90834 	0.90834 
146	40    	0.90834 	0         	0.90834 	0.90834 
147	40    	0.90834 	0         	0.90834 	0.90834 
148	40    	0.90834 	0         	0.90834 	0.90834 
149	40    	0.90834 	0         	0.90834 	0.90834 
150	40    	0.90834 	0         	0.90834 	0.90834 
151	40    	0.90834 	0         	0.90834 	0.90834 
152	40    	0.90834 	0         	0.90834 	0.90834 
153	40    	0.90834 	0         	0.90834 	0.90834 
154	40    	0.90834 	0         	0.90834 	0.90834 
155	40    	0.90834 	0         	0.90834 	0.90834 
156	40    	0.90834 	0         	0.90834 	0.90834 
157	40    	0.90834 	0         	0.90834 	0.90834 
158	40    	0.90834 	0         	0.90834 	0.90834 
159	40    	0.90834 	0         	0.90834 	0.90834 
160	40    	0.90834 	0         	0.90834 	0.90834 
161	40    	0.90834 	0         	0.90834 	0.90834 
162	40    	0.90834 	0         	0.90834 	0.90834 
163	40    	0.90834 	0         	0.90834 	0.90834 
164	40    	0.90834 	0         	0.90834 	0.90834 
165	40    	0.90834 	0         	0.90834 	0.90834 
166	40    	0.90834 	0         	0.90834 	0.90834 
167	40    	0.90834 	0         	0.90834 	0.90834 
168	40    	0.90834 	0         	0.90834 	0.90834 
169	40    	0.90834 	0         	0.90834 	0.90834 
170	40    	0.90834 	0         	0.90834 	0.90834 
171	40    	0.90834 	0         	0.90834 	0.90834 
172	40    	0.90834 	0         	0.90834 	0.90834 
173	40    	0.90834 	0         	0.90834 	0.90834 
174	40    	0.90834 	0         	0.90834 	0.90834 
175	40    	0.90834 	0         	0.90834 	0.90834 
176	40    	0.90834 	0         	0.90834 	0.90834 
177	40    	0.90834 	0         	0.90834 	0.90834 
178	40    	0.90834 	0         	0.90834 	0.90834 
179	40    	0.90834 	0         	0.90834 	0.90834 
180	40    	0.90834 	0         	0.90834 	0.90834 
181	40    	0.90834 	0         	0.90834 	0.90834 
182	40    	0.90834 	0         	0.90834 	0.90834 
183	40    	0.90834 	0         	0.90834 	0.90834 
184	40    	0.90834 	0         	0.90834 	0.90834 
185	40    	0.90834 	0         	0.90834 	0.90834 
186	40    	0.90834 	0         	0.90834 	0.90834 
187	40    	0.90834 	0         	0.90834 	0.90834 
188	40    	0.90834 	0         	0.90834 	0.90834 
189	40    	0.90834 	0         	0.90834 	0.90834 
190	40    	0.90834 	0         	0.90834 	0.90834 
191	40    	0.90834 	0         	0.90834 	0.90834 
192	40    	0.90834 	0         	0.90834 	0.90834 
193	40    	0.90834 	0         	0.90834 	0.90834 
194	40    	0.90834 	0         	0.90834 	0.90834 
195	40    	0.90834 	0         	0.90834 	0.90834 
196	40    	0.90834 	0         	0.90834 	0.90834 
197	40    	0.90834 	0         	0.90834 	0.90834 
198	40    	0.90834 	0         	0.90834 	0.90834 
199	40    	0.90834 	0         	0.90834 	0.90834 
200	40    	0.90834 	0         	0.90834 	0.90834 
201	40    	0.90834 	0         	0.90834 	0.90834 
202	40    	0.90834 	0         	0.90834 	0.90834 
203	40    	0.90834 	0         	0.90834 	0.90834 
204	40    	0.90834 	0         	0.90834 	0.90834 
205	40    	0.90834 	0         	0.90834 	0.90834 
206	40    	0.90834 	0         	0.90834 	0.90834 
207	40    	0.90834 	0         	0.90834 	0.90834 
208	40    	0.90834 	0         	0.90834 	0.90834 
209	40    	0.90834 	0         	0.90834 	0.90834 
210	40    	0.90834 	0         	0.90834 	0.90834 
211	40    	0.90834 	0         	0.90834 	0.90834 
212	40    	0.90834 	0         	0.90834 	0.90834 
213	40    	0.90834 	0         	0.90834 	0.90834 
214	40    	0.90834 	0         	0.90834 	0.90834 
215	40    	0.90834 	0         	0.90834 	0.90834 
216	40    	0.90834 	0         	0.90834 	0.90834 
217	40    	0.90834 	0         	0.90834 	0.90834 
218	40    	0.90834 	0         	0.90834 	0.90834 
219	40    	0.90834 	0         	0.90834 	0.90834 
220	40    	0.90834 	0         	0.90834 	0.90834 
221	40    	0.90834 	0         	0.90834 	0.90834 
222	40    	0.90834 	0         	0.90834 	0.90834 
223	40    	0.90834 	0         	0.90834 	0.90834 
224	40    	0.90834 	0         	0.90834 	0.90834 
225	40    	0.90834 	0         	0.90834 	0.90834 
226	40    	0.90834 	0         	0.90834 	0.90834 
227	40    	0.90834 	0         	0.90834 	0.90834 
228	40    	0.90834 	0         	0.90834 	0.90834 
229	40    	0.90834 	0         	0.90834 	0.90834 
230	40    	0.90834 	0         	0.90834 	0.90834 
231	40    	0.90834 	0         	0.90834 	0.90834 
232	40    	0.90834 	0         	0.90834 	0.90834 
233	40    	0.90834 	0         	0.90834 	0.90834 
234	40    	0.90834 	0         	0.90834 	0.90834 
235	40    	0.90834 	0         	0.90834 	0.90834 
236	40    	0.90834 	0         	0.90834 	0.90834 
237	40    	0.90834 	0         	0.90834 	0.90834 
238	40    	0.90834 	0         	0.90834 	0.90834 
239	40    	0.90834 	0         	0.90834 	0.90834 
240	40    	0.90834 	0         	0.90834 	0.90834 
241	40    	0.90834 	0         	0.90834 	0.90834 
242	40    	0.90834 	0         	0.90834 	0.90834 
243	40    	0.90834 	0         	0.90834 	0.90834 
244	40    	0.90834 	0         	0.90834 	0.90834 
245	40    	0.90834 	0         	0.90834 	0.90834 
246	40    	0.90834 	0         	0.90834 	0.90834 
247	40    	0.90834 	0         	0.90834 	0.90834 
248	40    	0.90834 	0         	0.90834 	0.90834 
249	40    	0.90834 	0         	0.90834 	0.90834 
250	40    	0.90834 	0         	0.90834 	0.90834 
