gen	nevals	avg     	std       	min     	max     
0  	20    	0.604218	0.0341366 	0.518066	0.674698
1  	40    	0.63494 	0.0244222 	0.602417	0.674698
2  	40    	0.649998	0.0188468 	0.626511	0.698792
3  	40    	0.653612	0.015651  	0.63855 	0.698792
4  	40    	0.660841	0.0171548 	0.63855 	0.698792
5  	40    	0.66807 	0.0163756 	0.650604	0.698792
6  	40    	0.677106	0.0217558 	0.650604	0.746994
7  	40    	0.682528	0.0202618 	0.662643	0.746994
8  	40    	0.689156	0.0181137 	0.662643	0.746994
9  	40    	0.693373	0.0163767 	0.674698	0.746994
10 	40    	0.701205	0.0177072 	0.674698	0.746994
11 	40    	0.709035	0.017156  	0.686752	0.746994
12 	40    	0.714456	0.0183128 	0.698792	0.759033
13 	40    	0.715059	0.0179827 	0.698792	0.759033
14 	40    	0.725301	0.0164309 	0.710846	0.759033
15 	40    	0.730119	0.0144582 	0.710846	0.759033
16 	40    	0.730119	0.0144582 	0.710846	0.759033
17 	40    	0.734335	0.0117305 	0.722885	0.759033
18 	40    	0.742169	0.0122882 	0.722885	0.771088
19 	40    	0.742169	0.0122882 	0.722885	0.771088
20 	40    	0.748797	0.011603  	0.73494 	0.771088
21 	40    	0.756026	0.00923284	0.746994	0.771088
22 	40    	0.756026	0.00923284	0.746994	0.771088
23 	40    	0.758435	0.0104144 	0.746994	0.783127
24 	40    	0.760242	0.0113637 	0.746994	0.783127
25 	40    	0.766867	0.0183806 	0.746994	0.831329
26 	40    	0.770481	0.0163773 	0.759033	0.831329
27 	40    	0.77289 	0.0162879 	0.759033	0.831329
28 	40    	0.775301	0.0153704 	0.759033	0.831329
29 	40    	0.775301	0.0153704 	0.759033	0.831329
30 	40    	0.780121	0.0146942 	0.771088	0.831329
31 	40    	0.781927	0.0147067 	0.771088	0.831329
32 	40    	0.781927	0.0147067 	0.771088	0.831329
33 	40    	0.785542	0.015985  	0.771088	0.831329
34 	40    	0.790964	0.016729  	0.771088	0.831329
35 	40    	0.794577	0.0139897 	0.783127	0.831329
36 	40    	0.8     	0.0154322 	0.783127	0.831329
37 	40    	0.804218	0.0136724 	0.783127	0.831329
38 	40    	0.807231	0.0131987 	0.795181	0.831329
39 	40    	0.807231	0.0131987 	0.795181	0.831329
40 	40    	0.818677	0.0104144 	0.807236	0.843369
41 	40    	0.824699	0.0104154 	0.807236	0.843369
42 	40    	0.824699	0.0104154 	0.807236	0.843369
43 	40    	0.829517	0.00954338	0.819275	0.843369
44 	40    	0.83494 	0.0121086 	0.819275	0.867477
45 	40    	0.843977	0.0159274 	0.831329	0.891571
46 	40    	0.854819	0.0139897 	0.843369	0.891571
47 	40    	0.859639	0.0143976 	0.843369	0.891571
48 	40    	0.868677	0.0125785 	0.855423	0.891571
49 	40    	0.875304	0.0102752 	0.855423	0.891571
50 	40    	0.881327	0.0109593 	0.867477	0.915665
51 	40    	0.881327	0.0109593 	0.867477	0.915665
52 	40    	0.881327	0.0109593 	0.867477	0.915665
53 	40    	0.88735 	0.0102772 	0.879517	0.915665
54 	40    	0.890965	0.0104165 	0.879517	0.915665
55 	40    	0.890965	0.0104165 	0.879517	0.915665
56 	40    	0.890965	0.0104165 	0.879517	0.915665
57 	40    	0.890965	0.0104165 	0.879517	0.915665
58 	40    	0.894579	0.00998858	0.879517	0.915665
59 	40    	0.902409	0.00925174	0.891571	0.927704
60 	40    	0.902409	0.00925174	0.891571	0.927704
61 	40    	0.907227	0.00771504	0.891571	0.927704
62 	40    	0.907227	0.00771504	0.891571	0.927704
63 	40    	0.910841	0.00885381	0.90361 	0.927704
64 	40    	0.910841	0.00885381	0.90361 	0.927704
65 	40    	0.911443	0.00875079	0.90361 	0.927704
66 	40    	0.911443	0.00875079	0.90361 	0.927704
67 	40    	0.911443	0.00875079	0.90361 	0.927704
68 	40    	0.916264	0.00805846	0.90361 	0.927704
69 	40    	0.916264	0.00805846	0.90361 	0.927704
70 	40    	0.917469	0.00689281	0.90361 	0.927704
71 	40    	0.92289 	0.00798911	0.915665	0.939758
72 	40    	0.92289 	0.00798911	0.915665	0.939758
73 	40    	0.924696	0.00841   	0.915665	0.939758
74 	40    	0.927706	0.00659831	0.915665	0.939758
75 	40    	0.927706	0.00659831	0.915665	0.939758
76 	40    	0.930115	0.00482178	0.927704	0.939758
77 	40    	0.930115	0.00482178	0.927704	0.939758
78 	40    	0.93132 	0.00552404	0.927704	0.939758
79 	40    	0.934334	0.00599701	0.927704	0.939758
80 	40    	0.93795 	0.0043043 	0.927704	0.939758
81 	40    	0.940964	0.00361633	0.939758	0.951813
82 	40    	0.942169	0.00482178	0.939758	0.951813
83 	40    	0.94458 	0.00590545	0.939758	0.951813
84 	40    	0.946388	0.00599701	0.939758	0.951813
85 	40    	0.948798	0.0064617 	0.939758	0.963852
86 	40    	0.952414	0.00462582	0.939758	0.963852
87 	40    	0.954221	0.00481567	0.951813	0.963852
88 	40    	0.954823	0.00521312	0.951813	0.963852
89 	40    	0.954823	0.00521312	0.951813	0.963852
90 	40    	0.955424	0.00551705	0.951813	0.963852
91 	40    	0.95723 	0.00598942	0.951813	0.963852
92 	40    	0.95723 	0.00598942	0.951813	0.963852
93 	40    	0.958434	0.00598942	0.951813	0.963852
94 	40    	0.962648	0.00361176	0.951813	0.963852
95 	40    	0.963852	0         	0.963852	0.963852
96 	40    	0.963852	0         	0.963852	0.963852
97 	40    	0.963852	0         	0.963852	0.963852
98 	40    	0.963852	0         	0.963852	0.963852
99 	40    	0.963852	0         	0.963852	0.963852
100	40    	0.963852	0         	0.963852	0.963852
101	40    	0.963852	0         	0.963852	0.963852
102	40    	0.963852	0         	0.963852	0.963852
103	40    	0.963852	0         	0.963852	0.963852
104	40    	0.963852	0         	0.963852	0.963852
105	40    	0.963852	0         	0.963852	0.963852
106	40    	0.963852	0         	0.963852	0.963852
107	40    	0.963852	0         	0.963852	0.963852
108	40    	0.963852	0         	0.963852	0.963852
109	40    	0.963852	0         	0.963852	0.963852
110	40    	0.963852	0         	0.963852	0.963852
111	40    	0.963852	0         	0.963852	0.963852
112	40    	0.963852	0         	0.963852	0.963852
113	40    	0.963852	0         	0.963852	0.963852
114	40    	0.963852	0         	0.963852	0.963852
115	40    	0.963852	0         	0.963852	0.963852
116	40    	0.964455	0.00262721	0.963852	0.975906
117	40    	0.964455	0.00262721	0.963852	0.975906
118	40    	0.964455	0.00262721	0.963852	0.975906
119	40    	0.964455	0.00262721	0.963852	0.975906
120	40    	0.964455	0.00262721	0.963852	0.975906
121	40    	0.964455	0.00262721	0.963852	0.975906
122	40    	0.964455	0.00262721	0.963852	0.975906
123	40    	0.965057	0.00361633	0.963852	0.975906
124	40    	0.965057	0.00361633	0.963852	0.975906
125	40    	0.96566 	0.0043043 	0.963852	0.975906
126	40    	0.96566 	0.0043043 	0.963852	0.975906
127	40    	0.96566 	0.0043043 	0.963852	0.975906
128	40    	0.966263	0.00482178	0.963852	0.975906
129	40    	0.968071	0.0057496 	0.963852	0.975906
130	40    	0.968071	0.0057496 	0.963852	0.975906
131	40    	0.970482	0.00599701	0.963852	0.975906
132	40    	0.973495	0.00482178	0.963852	0.975906
133	40    	0.973495	0.00482178	0.963852	0.975906
134	40    	0.975304	0.00262721	0.963852	0.975906
135	40    	0.975906	0         	0.975906	0.975906
136	40    	0.975906	0         	0.975906	0.975906
137	40    	0.975906	0         	0.975906	0.975906
138	40    	0.975906	0         	0.975906	0.975906
139	40    	0.975906	0         	0.975906	0.975906
140	40    	0.975906	0         	0.975906	0.975906
141	40    	0.975906	0         	0.975906	0.975906
142	40    	0.975906	0         	0.975906	0.975906
143	40    	0.975906	0         	0.975906	0.975906
144	40    	0.975906	0         	0.975906	0.975906
145	40    	0.975906	0         	0.975906	0.975906
146	40    	0.975906	0         	0.975906	0.975906
147	40    	0.975906	0         	0.975906	0.975906
148	40    	0.975906	0         	0.975906	0.975906
149	40    	0.975906	0         	0.975906	0.975906
150	40    	0.975906	0         	0.975906	0.975906
151	40    	0.975906	0         	0.975906	0.975906
152	40    	0.975906	0         	0.975906	0.975906
153	40    	0.975906	0         	0.975906	0.975906
154	40    	0.975906	0         	0.975906	0.975906
155	40    	0.975906	0         	0.975906	0.975906
156	40    	0.975906	0         	0.975906	0.975906
157	40    	0.975906	0         	0.975906	0.975906
158	40    	0.975906	0         	0.975906	0.975906
159	40    	0.975906	0         	0.975906	0.975906
160	40    	0.975906	0         	0.975906	0.975906
161	40    	0.975906	0         	0.975906	0.975906
162	40    	0.975906	0         	0.975906	0.975906
163	40    	0.975906	0         	0.975906	0.975906
164	40    	0.975906	0         	0.975906	0.975906
165	40    	0.975906	0         	0.975906	0.975906
166	40    	0.975906	0         	0.975906	0.975906
167	40    	0.975906	0         	0.975906	0.975906
168	40    	0.975906	0         	0.975906	0.975906
169	40    	0.975906	0         	0.975906	0.975906
170	40    	0.975906	0         	0.975906	0.975906
171	40    	0.975906	0         	0.975906	0.975906
172	40    	0.975906	0         	0.975906	0.975906
173	40    	0.975906	0         	0.975906	0.975906
174	40    	0.975906	0         	0.975906	0.975906
175	40    	0.975906	0         	0.975906	0.975906
176	40    	0.975906	0         	0.975906	0.975906
177	40    	0.975906	0         	0.975906	0.975906
178	40    	0.975906	0         	0.975906	0.975906
179	40    	0.975906	0         	0.975906	0.975906
180	40    	0.975906	0         	0.975906	0.975906
181	40    	0.975906	0         	0.975906	0.975906
182	40    	0.975906	0         	0.975906	0.975906
183	40    	0.975906	0         	0.975906	0.975906
184	40    	0.975906	0         	0.975906	0.975906
185	40    	0.975906	0         	0.975906	0.975906
186	40    	0.975906	0         	0.975906	0.975906
187	40    	0.975906	0         	0.975906	0.975906
188	40    	0.975906	0         	0.975906	0.975906
189	40    	0.975906	0         	0.975906	0.975906
190	40    	0.975906	0         	0.975906	0.975906
191	40    	0.975906	0         	0.975906	0.975906
192	40    	0.975906	0         	0.975906	0.975906
193	40    	0.975906	0         	0.975906	0.975906
194	40    	0.975906	0         	0.975906	0.975906
195	40    	0.975906	0         	0.975906	0.975906
196	40    	0.975906	0         	0.975906	0.975906
197	40    	0.975906	0         	0.975906	0.975906
198	40    	0.975906	0         	0.975906	0.975906
199	40    	0.975906	0         	0.975906	0.975906
200	40    	0.975906	0         	0.975906	0.975906
201	40    	0.975906	0         	0.975906	0.975906
202	40    	0.975906	0         	0.975906	0.975906
203	40    	0.975906	0         	0.975906	0.975906
204	40    	0.975906	0         	0.975906	0.975906
205	40    	0.975906	0         	0.975906	0.975906
206	40    	0.975906	0         	0.975906	0.975906
207	40    	0.975906	0         	0.975906	0.975906
208	40    	0.975906	0         	0.975906	0.975906
209	40    	0.975906	0         	0.975906	0.975906
210	40    	0.975906	0         	0.975906	0.975906
211	40    	0.975906	0         	0.975906	0.975906
212	40    	0.975906	0         	0.975906	0.975906
213	40    	0.975906	0         	0.975906	0.975906
214	40    	0.975906	0         	0.975906	0.975906
215	40    	0.975906	0         	0.975906	0.975906
216	40    	0.975906	0         	0.975906	0.975906
217	40    	0.975906	0         	0.975906	0.975906
218	40    	0.975906	0         	0.975906	0.975906
219	40    	0.975906	0         	0.975906	0.975906
220	40    	0.975906	0         	0.975906	0.975906
221	40    	0.975906	0         	0.975906	0.975906
222	40    	0.975906	0         	0.975906	0.975906
223	40    	0.975906	0         	0.975906	0.975906
224	40    	0.975906	0         	0.975906	0.975906
225	40    	0.975906	0         	0.975906	0.975906
226	40    	0.975906	0         	0.975906	0.975906
227	40    	0.975906	0         	0.975906	0.975906
228	40    	0.975906	0         	0.975906	0.975906
229	40    	0.975906	0         	0.975906	0.975906
230	40    	0.975906	0         	0.975906	0.975906
231	40    	0.975906	0         	0.975906	0.975906
232	40    	0.975906	0         	0.975906	0.975906
233	40    	0.975906	0         	0.975906	0.975906
234	40    	0.975906	0         	0.975906	0.975906
235	40    	0.975906	0         	0.975906	0.975906
236	40    	0.975906	0         	0.975906	0.975906
237	40    	0.975906	0         	0.975906	0.975906
238	40    	0.975906	0         	0.975906	0.975906
239	40    	0.975906	0         	0.975906	0.975906
240	40    	0.975906	0         	0.975906	0.975906
241	40    	0.975906	0         	0.975906	0.975906
242	40    	0.975906	0         	0.975906	0.975906
243	40    	0.975906	0         	0.975906	0.975906
244	40    	0.975906	0         	0.975906	0.975906
245	40    	0.975906	0         	0.975906	0.975906
246	40    	0.975906	0         	0.975906	0.975906
247	40    	0.975906	0         	0.975906	0.975906
248	40    	0.975906	0         	0.975906	0.975906
249	40    	0.975906	0         	0.975906	0.975906
250	40    	0.975906	0         	0.975906	0.975906
