Run:130 Evals:10020 MES:10020.0 MAD:0.0 FAILURES:113 Best:0.8914947509765625 Solution:1.0
Run:131 Evals:10020 MES:10020.0 MAD:0.0 FAILURES:114 Best:0.9136962890625 Solution:1.0
Run:132 Evals:10020 MES:10020.0 MAD:0.0 FAILURES:115 Best:0.9198760986328125 Solution:1.0
Run:133 Evals:10020 MES:10020.0 MAD:0.0 FAILURES:116 Best:0.9053192138671875 Solution:1.0
Run:134 Evals:10020 MES:10020.0 MAD:0.0 FAILURES:117 Best:0.89910888671875 Solution:1.0
Run:135 Evals:10020 MES:10020.0 MAD:0.0 FAILURES:118 Best:0.8976593017578125 Solution:1.0
Run:136 Evals:10020 MES:10020.0 MAD:0.0 FAILURES:119 Best:0.90350341796875 Solution:1.0
Run:137 Evals:10020 MES:10020.0 MAD:0.0 FAILURES:120 Best:0.8760986328125 Solution:1.0
Run:138 Evals:10020 MES:10020.0 MAD:0.0 FAILURES:121 Best:0.903228759765625 Solution:1.0
Run:139 Evals:10020 MES:10020.0 MAD:0.0 FAILURES:122 Best:0.886962890625 Solution:1.0

