gen	nevals	avg     	std        	min     	max     
0  	20    	0.594863	0.0188027  	0.560822	0.631027
1  	40    	0.607843	0.0107013  	0.593475	0.631027
2  	40    	0.613231	0.00829143 	0.601639	0.631027
3  	40    	0.617966	0.00508499 	0.611435	0.631027
4  	40    	0.620986	0.00438933 	0.6147  	0.631027
5  	40    	0.624823	0.00480466 	0.617966	0.637558
6  	40    	0.626619	0.0047348  	0.621231	0.637558
7  	40    	0.629068	0.00530562 	0.622864	0.642456
8  	40    	0.631354	0.00664407 	0.624496	0.652252
9  	40    	0.632415	0.0063502  	0.626129	0.652252
10 	40    	0.633803	0.00546647 	0.627762	0.652252
11 	40    	0.634782	0.00503494 	0.631027	0.652252
12 	40    	0.635925	0.00546403 	0.631027	0.652252
13 	40    	0.63617 	0.00534753 	0.631027	0.652252
14 	40    	0.638374	0.00578397 	0.63266 	0.652252
15 	40    	0.642211	0.00702768 	0.635925	0.65715 
16 	40    	0.645803	0.00695524 	0.637558	0.65715 
17 	40    	0.64964 	0.00675942 	0.640823	0.665314
18 	40    	0.654537	0.00600557 	0.647354	0.671829
19 	40    	0.658374	0.00526015 	0.652252	0.671829
20 	40    	0.662046	0.00497504 	0.655518	0.671829
21 	40    	0.667185	0.00447288 	0.662048	0.67836 
22 	40    	0.670444	0.00386908 	0.665314	0.67836 
23 	40    	0.674197	0.00265657 	0.670197	0.679993
24 	40    	0.676564	0.00291608 	0.673462	0.684891
25 	40    	0.679013	0.00284669 	0.676727	0.686523
26 	40    	0.679095	0.00280305 	0.676727	0.686523
27 	40    	0.679095	0.00280305 	0.676727	0.686523
28 	40    	0.681625	0.0028279  	0.67836 	0.686523
29 	40    	0.684074	0.00270751 	0.679993	0.691422
30 	40    	0.686932	0.00296031 	0.683258	0.694687
31 	40    	0.688156	0.00353959 	0.684891	0.697952
32 	40    	0.688156	0.00353959 	0.684891	0.697952
33 	40    	0.691013	0.00378964 	0.686523	0.701218
34 	40    	0.693789	0.0039142  	0.689789	0.704483
35 	40    	0.698524	0.00462588 	0.693054	0.709381
36 	40    	0.703177	0.00370876 	0.697952	0.709381
37 	40    	0.706442	0.00299277 	0.70285 	0.712646
38 	40    	0.70734 	0.0036095  	0.70285 	0.717545
39 	40    	0.710279	0.00355743 	0.706116	0.72081 
40 	40    	0.712402	0.00306646 	0.709381	0.72081 
41 	40    	0.71583 	0.00332504 	0.711014	0.722443
42 	40    	0.717136	0.0037543  	0.712646	0.725708
43 	40    	0.720157	0.00275146 	0.715912	0.725708
44 	40    	0.722606	0.00364715 	0.719177	0.732239
45 	40    	0.725055	0.00284669 	0.72081 	0.732239
46 	40    	0.727586	0.00269641 	0.724075	0.733871
47 	40    	0.727586	0.00269641 	0.724075	0.733871
48 	40    	0.7293  	0.00197279 	0.725708	0.733871
49 	40    	0.7293  	0.00197279 	0.725708	0.733871
50 	40    	0.731014	0.00162245 	0.728973	0.733871
51 	40    	0.732565	0.00245447 	0.730606	0.740402
52 	40    	0.734035	0.00192491 	0.732239	0.740402
53 	40    	0.735667	0.00230319 	0.733871	0.742035
54 	40    	0.738361	0.00296031 	0.735504	0.7453  
55 	40    	0.739749	0.00270258 	0.735504	0.7453  
56 	40    	0.742361	0.00234335 	0.73877 	0.746933
57 	40    	0.744402	0.00174896 	0.742035	0.746933
58 	40    	0.746688	0.00351218 	0.743668	0.758362
59 	40    	0.746688	0.00351218 	0.743668	0.758362
60 	40    	0.748811	0.00441959 	0.7453  	0.759995
61 	40    	0.75077 	0.00459697 	0.746933	0.759995
62 	40    	0.753872	0.00437716 	0.748566	0.76326 
63 	40    	0.757301	0.00306646 	0.753464	0.76326 
64 	40    	0.759668	0.00228577 	0.756729	0.76326 
65 	40    	0.760648	0.00181809 	0.758362	0.76326 
66 	40    	0.761709	0.00141159 	0.759995	0.76326 
67 	40    	0.761709	0.00141159 	0.759995	0.76326 
68 	40    	0.763097	0.00101961 	0.761627	0.764893
69 	40    	0.764484	0.00192318 	0.76326 	0.769791
70 	40    	0.766444	0.00280305 	0.76326 	0.773056
71 	40    	0.768974	0.0026072  	0.764893	0.776321
72 	40    	0.771342	0.0022192  	0.768158	0.776321
73 	40    	0.773627	0.0018089  	0.769791	0.776321
74 	40    	0.775423	0.00182358 	0.773056	0.781219
75 	40    	0.776403	0.00233623 	0.774689	0.782852
76 	40    	0.776893	0.00220715 	0.774689	0.782852
77 	40    	0.778281	0.00222669 	0.776321	0.784485
78 	40    	0.77975 	0.00218439 	0.777954	0.784485
79 	40    	0.781056	0.00205874 	0.777954	0.784485
80 	40    	0.783015	0.00185438 	0.779587	0.786118
81 	40    	0.784811	0.00175846 	0.782852	0.789383
82 	40    	0.786199	0.00189526 	0.784485	0.792648
83 	40    	0.786689	0.0018089  	0.784485	0.792648
84 	40    	0.788158	0.00218286 	0.786118	0.792648
85 	40    	0.788158	0.00218286 	0.786118	0.792648
86 	40    	0.788158	0.00218286 	0.786118	0.792648
87 	40    	0.790036	0.00181809 	0.78775 	0.792648
88 	40    	0.791179	0.00135621 	0.789383	0.792648
89 	40    	0.792159	0.00137573 	0.789383	0.795914
90 	40    	0.793056	0.00162245 	0.791016	0.797546
91 	40    	0.794281	0.00146032 	0.792648	0.797546
92 	40    	0.795506	0.00113996 	0.794281	0.797546
93 	40    	0.796485	0.00148521 	0.794281	0.800812
94 	40    	0.796567	0.00140449 	0.794281	0.800812
95 	40    	0.797383	0.00145117 	0.795914	0.800812
96 	40    	0.797383	0.00145117 	0.795914	0.800812
97 	40    	0.798281	0.00182358 	0.795914	0.804077
98 	40    	0.799506	0.00183269 	0.797546	0.804077
99 	40    	0.80122 	0.00162245 	0.799179	0.804077
100	40    	0.80122 	0.00162245 	0.799179	0.804077
101	40    	0.802689	0.00139258 	0.800812	0.804077
102	40    	0.803587	0.000909044	0.802444	0.80571 
103	40    	0.803751	0.000832512	0.802444	0.80571 
104	40    	0.803996	0.0010922  	0.802444	0.807343
105	40    	0.804893	0.00141395 	0.804077	0.808975
106	40    	0.804893	0.00141395 	0.804077	0.808975
107	40    	0.804893	0.00141395 	0.804077	0.808975
108	40    	0.804975	0.00141159 	0.804077	0.808975
109	40    	0.805302	0.00185258 	0.804077	0.810608
110	40    	0.806771	0.00195071 	0.804077	0.810608
111	40    	0.808485	0.00179596 	0.80571 	0.812241
112	40    	0.80922 	0.00157239 	0.807343	0.812241
113	40    	0.80922 	0.00157239 	0.807343	0.812241
114	40    	0.80922 	0.00157239 	0.807343	0.812241
115	40    	0.810118	0.00116597 	0.808975	0.812241
116	40    	0.810118	0.00116597 	0.808975	0.812241
117	40    	0.811179	0.00093435 	0.810608	0.813873
118	40    	0.812077	0.00154028 	0.810608	0.815506
119	40    	0.812159	0.00150305 	0.810608	0.815506
120	40    	0.813302	0.00129333 	0.812241	0.815506
121	40    	0.814363	0.00127517 	0.812241	0.817139
122	40    	0.815588	0.000962457	0.813873	0.817139
123	40    	0.816241	0.000812253	0.815506	0.817139
124	40    	0.81722 	0.000962457	0.815506	0.820404
125	40    	0.81722 	0.000962457	0.815506	0.820404
126	40    	0.81722 	0.000962457	0.815506	0.820404
127	40    	0.817465	0.000832512	0.817139	0.820404
128	40    	0.817465	0.000832512	0.817139	0.820404
129	40    	0.817873	0.00120808 	0.817139	0.820404
130	40    	0.817873	0.00120808 	0.817139	0.820404
131	40    	0.818445	0.0015997  	0.817139	0.822037
132	40    	0.818445	0.0015997  	0.817139	0.822037
133	40    	0.819261	0.00155749 	0.817139	0.822037
134	40    	0.819343	0.00148521 	0.817139	0.822037
135	40    	0.819996	0.00144887 	0.817139	0.823669
136	40    	0.820975	0.00139258 	0.818771	0.823669
137	40    	0.8222  	0.00162451 	0.820404	0.825302
138	40    	0.823016	0.00130615 	0.820404	0.825302
139	40    	0.824567	0.00150305 	0.822037	0.828568
140	40    	0.824567	0.00150305 	0.822037	0.828568
141	40    	0.824567	0.00150305 	0.822037	0.828568
142	40    	0.82522 	0.00158925 	0.823669	0.828568
143	40    	0.826118	0.00159135 	0.823669	0.828568
144	40    	0.826853	0.00150305 	0.825302	0.8302  
145	40    	0.82767 	0.00174896 	0.825302	0.831833
146	40    	0.82767 	0.00174896 	0.825302	0.831833
147	40    	0.828078	0.00164083 	0.825302	0.831833
148	40    	0.829221	0.00181809 	0.826935	0.835098
149	40    	0.829955	0.00157239 	0.828568	0.835098
150	40    	0.831098	0.00182358 	0.828568	0.835098
151	40    	0.832241	0.00153811 	0.8302  	0.835098
152	40    	0.832894	0.00188114 	0.8302  	0.836731
153	40    	0.833302	0.00162451 	0.831833	0.836731
154	40    	0.834282	0.00141395 	0.831833	0.836731
155	40    	0.835262	0.00154028 	0.833466	0.839996
156	40    	0.836486	0.00195071 	0.835098	0.843262
157	40    	0.838119	0.00302268 	0.835098	0.846527
158	40    	0.840078	0.00311818 	0.836731	0.84816 
159	40    	0.840078	0.00311818 	0.836731	0.84816 
160	40    	0.840241	0.00302268 	0.836731	0.84816 
161	40    	0.842609	0.00279948 	0.839996	0.84816 
162	40    	0.843996	0.0022192  	0.839996	0.84816 
163	40    	0.845466	0.00165499 	0.843262	0.84816 
164	40    	0.846609	0.00120808 	0.844894	0.84816 
165	40    	0.847752	0.00101634 	0.846527	0.849792
166	40    	0.84816 	0.000894261	0.846527	0.849792
167	40    	0.84816 	0.000894261	0.846527	0.849792
168	40    	0.848323	0.000711673	0.846527	0.849792
169	40    	0.848486	0.000653076	0.84816 	0.849792
170	40    	0.848568	0.000706976	0.84816 	0.849792
171	40    	0.848895	0.00120808 	0.84816 	0.853058
172	40    	0.849466	0.00151409 	0.84816 	0.853058
173	40    	0.850364	0.00188114 	0.84816 	0.856323
174	40    	0.850854	0.00173365 	0.849792	0.856323
175	40    	0.851833	0.00230175 	0.849792	0.857956
176	40    	0.851915	0.00225642 	0.849792	0.857956
177	40    	0.851915	0.00225642 	0.849792	0.857956
178	40    	0.851915	0.00225642 	0.849792	0.857956
179	40    	0.853629	0.00208288 	0.851425	0.857956
180	40    	0.853629	0.00208288 	0.851425	0.857956
181	40    	0.854935	0.00165499 	0.853058	0.857956
182	40    	0.855262	0.00148521 	0.853058	0.857956
183	40    	0.855915	0.00125143 	0.854691	0.857956
184	40    	0.855915	0.00125143 	0.854691	0.857956
185	40    	0.856731	0.00101634 	0.854691	0.857956
186	40    	0.856731	0.00101634 	0.854691	0.857956
187	40    	0.857466	0.000909044	0.856323	0.859589
188	40    	0.857466	0.000909044	0.856323	0.859589
189	40    	0.857629	0.000832512	0.856323	0.859589
190	40    	0.858119	0.000711673	0.856323	0.859589
191	40    	0.858446	0.000748193	0.857956	0.859589
192	40    	0.858854	0.000962457	0.857956	0.861221
193	40    	0.858854	0.000962457	0.857956	0.861221
194	40    	0.859589	0.000730161	0.857956	0.861221
195	40    	0.859589	0.000730161	0.857956	0.861221
196	40    	0.859752	0.000489807	0.859589	0.861221
197	40    	0.859915	0.000653076	0.859589	0.861221
198	40    	0.86016 	0.000778744	0.859589	0.861221
199	40    	0.860242	0.000799852	0.859589	0.861221
200	40    	0.860487	0.000812253	0.859589	0.861221
201	40    	0.860487	0.000812253	0.859589	0.861221
202	40    	0.86114 	0.000355837	0.859589	0.861221
203	40    	0.861221	0          	0.861221	0.861221
204	40    	0.861221	0          	0.861221	0.861221
205	40    	0.861303	0.000355837	0.861221	0.862854
206	40    	0.861303	0.000355837	0.861221	0.862854
207	40    	0.861466	0.000582987	0.861221	0.862854
208	40    	0.861466	0.000582987	0.861221	0.862854
209	40    	0.861466	0.000582987	0.861221	0.862854
210	40    	0.861466	0.000582987	0.861221	0.862854
211	40    	0.861466	0.000582987	0.861221	0.862854
212	40    	0.861629	0.000706976	0.861221	0.862854
213	40    	0.861711	0.000748193	0.861221	0.862854
214	40    	0.862038	0.000965913	0.861221	0.864487
215	40    	0.862854	0.00136601 	0.861221	0.866119
216	40    	0.863099	0.00118581 	0.861221	0.866119
217	40    	0.863099	0.00118581 	0.861221	0.866119
218	40    	0.863752	0.00131378 	0.862854	0.867752
219	40    	0.864487	0.00146032 	0.862854	0.867752
220	40    	0.865221	0.00120808 	0.864487	0.867752
221	40    	0.866038	0.00158925 	0.864487	0.869385
222	40    	0.866038	0.00158925 	0.864487	0.869385
223	40    	0.866038	0.00158925 	0.864487	0.869385
224	40    	0.866038	0.00158925 	0.864487	0.869385
225	40    	0.867017	0.000962457	0.866119	0.869385
226	40    	0.867017	0.000962457	0.866119	0.869385
227	40    	0.86767 	0.0010922  	0.866119	0.871017
228	40    	0.867997	0.000778744	0.867752	0.871017
229	40    	0.86816 	0.000875433	0.867752	0.871017
230	40    	0.86816 	0.000875433	0.867752	0.871017
231	40    	0.86816 	0.000875433	0.867752	0.871017
232	40    	0.868405	0.001083   	0.867752	0.871017
233	40    	0.868732	0.00119978 	0.867752	0.871017
234	40    	0.868977	0.00113996 	0.867752	0.871017
235	40    	0.869956	0.00093435 	0.869385	0.87265 
236	40    	0.870446	0.00106751 	0.869385	0.87265 
237	40    	0.870446	0.00106751 	0.869385	0.87265 
238	40    	0.870528	0.00104543 	0.869385	0.87265 
239	40    	0.870528	0.00104543 	0.869385	0.87265 
240	40    	0.870773	0.00093435 	0.869385	0.87265 
241	40    	0.870773	0.00093435 	0.869385	0.87265 
242	40    	0.870773	0.00093435 	0.869385	0.87265 
243	40    	0.871262	0.000582987	0.871017	0.87265 
244	40    	0.871262	0.000582987	0.871017	0.87265 
245	40    	0.871752	0.000962457	0.871017	0.874283
246	40    	0.871997	0.001083   	0.871017	0.874283
247	40    	0.871997	0.001083   	0.871017	0.874283
248	40    	0.872324	0.0013264  	0.871017	0.875916
249	40    	0.872324	0.0013264  	0.871017	0.875916
250	40    	0.872324	0.0013264  	0.871017	0.875916
