gen	nevals	avg     	std       	min     	max     
0  	20    	0.598194	0.0526912 	0.481934	0.686752
1  	40    	0.639156	0.0251178 	0.602417	0.686752
2  	40    	0.654817	0.0167268 	0.626511	0.686752
3  	40    	0.669878	0.0188212 	0.650604	0.73494 
4  	40    	0.673491	0.0165665 	0.662643	0.73494 
5  	40    	0.68494 	0.0179819 	0.662643	0.73494 
6  	40    	0.686145	0.0172396 	0.674698	0.73494 
7  	40    	0.694579	0.0216443 	0.674698	0.73494 
8  	40    	0.701809	0.0221743 	0.674698	0.746994
9  	40    	0.707834	0.0215093 	0.686752	0.746994
10 	40    	0.711447	0.01923   	0.686752	0.746994
11 	40    	0.71506 	0.0162893 	0.698792	0.746994
12 	40    	0.718674	0.0143959 	0.698792	0.746994
13 	40    	0.721085	0.0122127 	0.710846	0.746994
14 	40    	0.724699	0.0127941 	0.710846	0.746994
15 	40    	0.728313	0.0123331 	0.710846	0.746994
16 	40    	0.729517	0.0110947 	0.710846	0.746994
17 	40    	0.736143	0.0113691 	0.722885	0.759033
18 	40    	0.736143	0.0113691 	0.722885	0.759033
19 	40    	0.744579	0.0129751 	0.73494 	0.783127
20 	40    	0.753012	0.014506  	0.73494 	0.783127
21 	40    	0.76265 	0.0137874 	0.746994	0.795181
22 	40    	0.769878	0.0125789 	0.759033	0.795181
23 	40    	0.780722	0.00978707	0.771088	0.807236
24 	40    	0.790359	0.0103675 	0.783127	0.819275
25 	40    	0.796385	0.0113691 	0.783127	0.819275
26 	40    	0.803616	0.0121076 	0.795181	0.843369
27 	40    	0.808436	0.0131419 	0.795181	0.843369
28 	40    	0.816269	0.0113477 	0.807236	0.843369
29 	40    	0.816269	0.0113477 	0.807236	0.843369
30 	40    	0.821689	0.0140481 	0.807236	0.855423
31 	40    	0.833131	0.0133487 	0.819275	0.855423
32 	40    	0.84277 	0.0089136 	0.831329	0.855423
33 	40    	0.843974	0.00805908	0.831329	0.855423
34 	40    	0.845179	0.00787759	0.831329	0.855423
35 	40    	0.849396	0.00602722	0.843369	0.855423
36 	40    	0.849998	0.00599701	0.843369	0.855423
37 	40    	0.854819	0.00710334	0.843369	0.879517
38 	40    	0.857833	0.00614389	0.855423	0.879517
39 	40    	0.860243	0.00799233	0.855423	0.879517
40 	40    	0.861449	0.00808296	0.855423	0.879517
41 	40    	0.868678	0.0125776 	0.855423	0.90361 
42 	40    	0.871691	0.0122111 	0.855423	0.90361 
43 	40    	0.87952 	0.011427  	0.867477	0.90361 
44 	40    	0.881929	0.011802  	0.867477	0.90361 
45 	40    	0.88494 	0.0110898 	0.867477	0.90361 
46 	40    	0.887951	0.0101514 	0.879517	0.90361 
47 	40    	0.889759	0.00954338	0.879517	0.90361 
48 	40    	0.893977	0.00816942	0.879517	0.90361 
49 	40    	0.893977	0.00816942	0.879517	0.90361 
50 	40    	0.893977	0.00816942	0.879517	0.90361 
51 	40    	0.893977	0.00816942	0.879517	0.90361 
52 	40    	0.896387	0.00589797	0.891571	0.90361 
53 	40    	0.897591	0.00601959	0.891571	0.90361 
54 	40    	0.897591	0.00601959	0.891571	0.90361 
55 	40    	0.898795	0.00702182	0.891571	0.915665
56 	40    	0.903011	0.00710107	0.891571	0.915665
57 	40    	0.908432	0.00590545	0.90361 	0.915665
58 	40    	0.909637	0.00602722	0.90361 	0.915665
59 	40    	0.910843	0.00590545	0.90361 	0.915665
60 	40    	0.914459	0.00361633	0.90361 	0.915665
61 	40    	0.915665	0         	0.915665	0.915665
62 	40    	0.915665	0         	0.915665	0.915665
63 	40    	0.915665	0         	0.915665	0.915665
64 	40    	0.916267	0.00262388	0.915665	0.927704
65 	40    	0.917471	0.00429885	0.915665	0.927704
66 	40    	0.917471	0.00429885	0.915665	0.927704
67 	40    	0.919276	0.00551705	0.915665	0.927704
68 	40    	0.921685	0.00712441	0.915665	0.939758
69 	40    	0.921685	0.00712441	0.915665	0.939758
70 	40    	0.923491	0.00689154	0.915665	0.939758
71 	40    	0.926501	0.00648642	0.915665	0.939758
72 	40    	0.930717	0.00521973	0.927704	0.939758
73 	40    	0.930717	0.00521973	0.927704	0.939758
74 	40    	0.930717	0.00521973	0.927704	0.939758
75 	40    	0.930717	0.00521973	0.927704	0.939758
76 	40    	0.930717	0.00521973	0.927704	0.939758
77 	40    	0.93132 	0.00552404	0.927704	0.939758
78 	40    	0.931923	0.0057496 	0.927704	0.939758
79 	40    	0.933731	0.0071315 	0.927704	0.951813
80 	40    	0.933731	0.0071315 	0.927704	0.951813
81 	40    	0.93795 	0.00788162	0.927704	0.951813
82 	40    	0.943375	0.00552404	0.939758	0.951813
83 	40    	0.943375	0.00552404	0.939758	0.951813
84 	40    	0.945786	0.00602722	0.939758	0.951813
85 	40    	0.946388	0.00599701	0.939758	0.951813
86 	40    	0.946991	0.00590545	0.939758	0.951813
87 	40    	0.946991	0.00590545	0.939758	0.951813
88 	40    	0.946991	0.00590545	0.939758	0.951813
89 	40    	0.946991	0.00590545	0.939758	0.951813
90 	40    	0.948196	0.00552404	0.939758	0.951813
91 	40    	0.948196	0.00552404	0.939758	0.951813
92 	40    	0.951813	0         	0.951813	0.951813
93 	40    	0.951813	0         	0.951813	0.951813
94 	40    	0.951813	0         	0.951813	0.951813
95 	40    	0.951813	0         	0.951813	0.951813
96 	40    	0.951813	0         	0.951813	0.951813
97 	40    	0.951813	0         	0.951813	0.951813
98 	40    	0.951813	0         	0.951813	0.951813
99 	40    	0.951813	0         	0.951813	0.951813
100	40    	0.951813	0         	0.951813	0.951813
101	40    	0.951813	0         	0.951813	0.951813
102	40    	0.951813	0         	0.951813	0.951813
103	40    	0.951813	0         	0.951813	0.951813
104	40    	0.951813	0         	0.951813	0.951813
105	40    	0.951813	0         	0.951813	0.951813
106	40    	0.951813	0         	0.951813	0.951813
107	40    	0.951813	0         	0.951813	0.951813
108	40    	0.951813	0         	0.951813	0.951813
109	40    	0.951813	0         	0.951813	0.951813
110	40    	0.951813	0         	0.951813	0.951813
111	40    	0.951813	0         	0.951813	0.951813
112	40    	0.951813	0         	0.951813	0.951813
113	40    	0.951813	0         	0.951813	0.951813
114	40    	0.951813	0         	0.951813	0.951813
115	40    	0.951813	0         	0.951813	0.951813
116	40    	0.951813	0         	0.951813	0.951813
117	40    	0.951813	0         	0.951813	0.951813
118	40    	0.951813	0         	0.951813	0.951813
119	40    	0.951813	0         	0.951813	0.951813
120	40    	0.951813	0         	0.951813	0.951813
121	40    	0.951813	0         	0.951813	0.951813
122	40    	0.951813	0         	0.951813	0.951813
123	40    	0.951813	0         	0.951813	0.951813
124	40    	0.951813	0         	0.951813	0.951813
125	40    	0.951813	0         	0.951813	0.951813
126	40    	0.951813	0         	0.951813	0.951813
127	40    	0.951813	0         	0.951813	0.951813
128	40    	0.951813	0         	0.951813	0.951813
129	40    	0.951813	0         	0.951813	0.951813
130	40    	0.951813	0         	0.951813	0.951813
131	40    	0.951813	0         	0.951813	0.951813
132	40    	0.951813	0         	0.951813	0.951813
133	40    	0.951813	0         	0.951813	0.951813
134	40    	0.951813	0         	0.951813	0.951813
135	40    	0.951813	0         	0.951813	0.951813
136	40    	0.951813	0         	0.951813	0.951813
137	40    	0.951813	0         	0.951813	0.951813
138	40    	0.951813	0         	0.951813	0.951813
139	40    	0.951813	0         	0.951813	0.951813
140	40    	0.951813	0         	0.951813	0.951813
141	40    	0.951813	0         	0.951813	0.951813
142	40    	0.951813	0         	0.951813	0.951813
143	40    	0.951813	0         	0.951813	0.951813
144	40    	0.951813	0         	0.951813	0.951813
145	40    	0.951813	0         	0.951813	0.951813
146	40    	0.951813	0         	0.951813	0.951813
147	40    	0.951813	0         	0.951813	0.951813
148	40    	0.951813	0         	0.951813	0.951813
149	40    	0.951813	0         	0.951813	0.951813
150	40    	0.951813	0         	0.951813	0.951813
151	40    	0.951813	0         	0.951813	0.951813
152	40    	0.951813	0         	0.951813	0.951813
153	40    	0.951813	0         	0.951813	0.951813
154	40    	0.951813	0         	0.951813	0.951813
155	40    	0.951813	0         	0.951813	0.951813
156	40    	0.951813	0         	0.951813	0.951813
157	40    	0.951813	0         	0.951813	0.951813
158	40    	0.951813	0         	0.951813	0.951813
159	40    	0.951813	0         	0.951813	0.951813
160	40    	0.951813	0         	0.951813	0.951813
161	40    	0.951813	0         	0.951813	0.951813
162	40    	0.951813	0         	0.951813	0.951813
163	40    	0.951813	0         	0.951813	0.951813
164	40    	0.951813	0         	0.951813	0.951813
165	40    	0.951813	0         	0.951813	0.951813
166	40    	0.951813	0         	0.951813	0.951813
167	40    	0.951813	0         	0.951813	0.951813
168	40    	0.951813	0         	0.951813	0.951813
169	40    	0.951813	0         	0.951813	0.951813
170	40    	0.951813	0         	0.951813	0.951813
171	40    	0.951813	0         	0.951813	0.951813
172	40    	0.951813	0         	0.951813	0.951813
173	40    	0.951813	0         	0.951813	0.951813
174	40    	0.951813	0         	0.951813	0.951813
175	40    	0.951813	0         	0.951813	0.951813
176	40    	0.951813	0         	0.951813	0.951813
177	40    	0.951813	0         	0.951813	0.951813
178	40    	0.951813	0         	0.951813	0.951813
179	40    	0.951813	0         	0.951813	0.951813
180	40    	0.951813	0         	0.951813	0.951813
181	40    	0.951813	0         	0.951813	0.951813
182	40    	0.951813	0         	0.951813	0.951813
183	40    	0.951813	0         	0.951813	0.951813
184	40    	0.951813	0         	0.951813	0.951813
185	40    	0.951813	0         	0.951813	0.951813
186	40    	0.951813	0         	0.951813	0.951813
187	40    	0.951813	0         	0.951813	0.951813
188	40    	0.951813	0         	0.951813	0.951813
189	40    	0.951813	0         	0.951813	0.951813
190	40    	0.951813	0         	0.951813	0.951813
191	40    	0.951813	0         	0.951813	0.951813
192	40    	0.951813	0         	0.951813	0.951813
193	40    	0.951813	0         	0.951813	0.951813
194	40    	0.951813	0         	0.951813	0.951813
195	40    	0.951813	0         	0.951813	0.951813
196	40    	0.951813	0         	0.951813	0.951813
197	40    	0.951813	0         	0.951813	0.951813
198	40    	0.951813	0         	0.951813	0.951813
199	40    	0.951813	0         	0.951813	0.951813
200	40    	0.951813	0         	0.951813	0.951813
201	40    	0.951813	0         	0.951813	0.951813
202	40    	0.951813	0         	0.951813	0.951813
203	40    	0.951813	0         	0.951813	0.951813
204	40    	0.951813	0         	0.951813	0.951813
205	40    	0.951813	0         	0.951813	0.951813
206	40    	0.951813	0         	0.951813	0.951813
207	40    	0.951813	0         	0.951813	0.951813
208	40    	0.951813	0         	0.951813	0.951813
209	40    	0.951813	0         	0.951813	0.951813
210	40    	0.951813	0         	0.951813	0.951813
211	40    	0.951813	0         	0.951813	0.951813
212	40    	0.951813	0         	0.951813	0.951813
213	40    	0.951813	0         	0.951813	0.951813
214	40    	0.951813	0         	0.951813	0.951813
215	40    	0.951813	0         	0.951813	0.951813
216	40    	0.951813	0         	0.951813	0.951813
217	40    	0.951813	0         	0.951813	0.951813
218	40    	0.951813	0         	0.951813	0.951813
219	40    	0.951813	0         	0.951813	0.951813
220	40    	0.951813	0         	0.951813	0.951813
221	40    	0.951813	0         	0.951813	0.951813
222	40    	0.951813	0         	0.951813	0.951813
223	40    	0.951813	0         	0.951813	0.951813
224	40    	0.951813	0         	0.951813	0.951813
225	40    	0.951813	0         	0.951813	0.951813
226	40    	0.951813	0         	0.951813	0.951813
227	40    	0.951813	0         	0.951813	0.951813
228	40    	0.951813	0         	0.951813	0.951813
229	40    	0.951813	0         	0.951813	0.951813
230	40    	0.951813	0         	0.951813	0.951813
231	40    	0.951813	0         	0.951813	0.951813
232	40    	0.951813	0         	0.951813	0.951813
233	40    	0.951813	0         	0.951813	0.951813
234	40    	0.951813	0         	0.951813	0.951813
235	40    	0.951813	0         	0.951813	0.951813
236	40    	0.951813	0         	0.951813	0.951813
237	40    	0.951813	0         	0.951813	0.951813
238	40    	0.951813	0         	0.951813	0.951813
239	40    	0.951813	0         	0.951813	0.951813
240	40    	0.951813	0         	0.951813	0.951813
241	40    	0.951813	0         	0.951813	0.951813
242	40    	0.951813	0         	0.951813	0.951813
243	40    	0.951813	0         	0.951813	0.951813
244	40    	0.951813	0         	0.951813	0.951813
245	40    	0.951813	0         	0.951813	0.951813
246	40    	0.951813	0         	0.951813	0.951813
247	40    	0.951813	0         	0.951813	0.951813
248	40    	0.951813	0         	0.951813	0.951813
249	40    	0.951813	0         	0.951813	0.951813
250	40    	0.951813	0         	0.951813	0.951813
