Run:0 Evals:10020 MES:10020.0 MAD:0.0 FAILURES:1 Best:0.9647064208984375 Solution:1.0
Run:1 Evals:10020 MES:10020.0 MAD:0.0 FAILURES:2 Best:0.927703857421875 Solution:1.0
Run:2 Evals:10020 MES:10020.0 MAD:0.0 FAILURES:3 Best:0.9642791748046875 Solution:1.0
Run:3 Evals:10020 MES:10020.0 MAD:0.0 FAILURES:4 Best:0.95294189453125 Solution:1.0
Run:4 Evals:10020 MES:10020.0 MAD:0.0 FAILURES:5 Best:0.951812744140625 Solution:1.0
Run:5 Evals:10020 MES:10020.0 MAD:0.0 FAILURES:6 Best:0.9285736083984375 Solution:1.0
Run:6 Evals:10020 MES:10020.0 MAD:0.0 FAILURES:7 Best:0.9759063720703125 Solution:1.0
Run:7 Evals:10020 MES:10020.0 MAD:0.0 FAILURES:8 Best:0.941864013671875 Solution:1.0
Run:8 Evals:10020 MES:10020.0 MAD:0.0 FAILURES:9 Best:0.9195404052734375 Solution:1.0
Run:9 Evals:10020 MES:10020.0 MAD:0.0 FAILURES:10 Best:0.93975830078125 Solution:1.0

