gen	nevals	avg     	std        	min     	max     
0  	20    	0.592038	0.0252355  	0.551956	0.619431
1  	40    	0.609311	0.00743346 	0.595139	0.619431
2  	40    	0.616869	0.00779704 	0.608643	0.638321
3  	40    	0.6224  	0.00708616 	0.614029	0.638321
4  	40    	0.6278  	0.00632279 	0.622131	0.643723
5  	40    	0.633604	0.0085715  	0.624832	0.654526
6  	40    	0.637653	0.0107232  	0.627533	0.665314
7  	40    	0.639945	0.00951914 	0.627533	0.665314
8  	40    	0.643183	0.00885563 	0.632935	0.665314
9  	40    	0.647637	0.00821003 	0.638321	0.665314
10 	40    	0.651148	0.00608859 	0.641022	0.665314
11 	40    	0.655333	0.0068854  	0.649124	0.673416
12 	40    	0.656278	0.00634412 	0.651825	0.673416
13 	40    	0.656818	0.00640092 	0.651825	0.673416
14 	40    	0.658842	0.00646405 	0.651825	0.673416
15 	40    	0.662079	0.0064192  	0.654526	0.676117
16 	40    	0.666935	0.0065225  	0.657227	0.684204
17 	40    	0.671254	0.00669935 	0.665314	0.692307
18 	40    	0.676114	0.00748921 	0.668015	0.692307
19 	40    	0.683672	0.00881131 	0.673416	0.70311 
20 	40    	0.686237	0.008443   	0.676117	0.70311 
21 	40    	0.692981	0.0091095  	0.681519	0.713898
22 	40    	0.697436	0.00786471 	0.689606	0.713898
23 	40    	0.701082	0.0067138  	0.692307	0.713898
24 	40    	0.704051	0.0062278  	0.697708	0.713898
25 	40    	0.710529	0.00748181 	0.700409	0.727402
26 	40    	0.710529	0.00748181 	0.700409	0.727402
27 	40    	0.720242	0.00806564 	0.708496	0.735489
28 	40    	0.725777	0.00731134 	0.713898	0.740891
29 	40    	0.732659	0.00581619 	0.724701	0.743591
30 	40    	0.736974	0.00431073 	0.732788	0.748993
31 	40    	0.736974	0.00431073 	0.732788	0.748993
32 	40    	0.739405	0.00463682 	0.735489	0.748993
33 	40    	0.74332 	0.00466832 	0.73819 	0.754379
34 	40    	0.74467 	0.00500588 	0.73819 	0.75708 
35 	40    	0.745345	0.00469595 	0.740891	0.75708 
36 	40    	0.7498  	0.00547056 	0.743591	0.767883
37 	40    	0.754792	0.00586582 	0.748993	0.767883
38 	40    	0.760053	0.00728644 	0.748993	0.778671
39 	40    	0.760458	0.00687417 	0.751694	0.778671
40 	40    	0.764507	0.00489475 	0.75708 	0.778671
41 	40    	0.768827	0.00548391 	0.762482	0.781372
42 	40    	0.774361	0.00574874 	0.767883	0.786774
43 	40    	0.779082	0.0039336  	0.773285	0.786774
44 	40    	0.782722	0.00377147 	0.778671	0.794876
45 	40    	0.785423	0.00346925 	0.781372	0.794876
46 	40    	0.785423	0.00346925 	0.781372	0.794876
47 	40    	0.787584	0.00363356 	0.784073	0.797577
48 	40    	0.788799	0.00294313 	0.786774	0.797577
49 	40    	0.788799	0.00294313 	0.786774	0.797577
50 	40    	0.790959	0.00376717 	0.786774	0.800262
51 	40    	0.794738	0.00470993 	0.789474	0.805664
52 	40    	0.797977	0.00461484 	0.792175	0.808365
53 	40    	0.803642	0.0057815  	0.797577	0.821869
54 	40    	0.808095	0.00451123 	0.802963	0.821869
55 	40    	0.811201	0.00386461 	0.805664	0.821869
56 	40    	0.814846	0.00421704 	0.811066	0.824554
57 	40    	0.818491	0.00360706 	0.813766	0.824554
58 	40    	0.818491	0.00360706 	0.813766	0.824554
59 	40    	0.819031	0.00335599 	0.813766	0.824554
60 	40    	0.821324	0.00290305 	0.816467	0.827255
61 	40    	0.822133	0.00254131 	0.819168	0.827255
62 	40    	0.822133	0.00254131 	0.819168	0.827255
63 	40    	0.824558	0.00208711 	0.821869	0.829956
64 	40    	0.825635	0.00157483 	0.824554	0.829956
65 	40    	0.826445	0.00172936 	0.824554	0.829956
66 	40    	0.826445	0.00172936 	0.824554	0.829956
67 	40    	0.828336	0.00132312 	0.827255	0.829956
68 	40    	0.828336	0.00132312 	0.827255	0.829956
69 	40    	0.828741	0.0015921  	0.827255	0.832657
70 	40    	0.829146	0.00172936 	0.827255	0.832657
71 	40    	0.829146	0.00172936 	0.827255	0.832657
72 	40    	0.829821	0.00180672 	0.827255	0.832657
73 	40    	0.831441	0.0015921  	0.829956	0.835358
74 	40    	0.831441	0.0015921  	0.829956	0.835358
75 	40    	0.831982	0.00144815 	0.829956	0.835358
76 	40    	0.833197	0.00108032 	0.832657	0.835358
77 	40    	0.833197	0.00108032 	0.832657	0.835358
78 	40    	0.833737	0.00157483 	0.832657	0.838058
79 	40    	0.834142	0.00217327 	0.832657	0.840759
80 	40    	0.834142	0.00217327 	0.832657	0.840759
81 	40    	0.835898	0.00337331 	0.832657	0.84346 
82 	40    	0.835898	0.00337331 	0.832657	0.84346 
83 	40    	0.837518	0.00250462 	0.835358	0.84346 
84 	40    	0.838464	0.00286782 	0.835358	0.846161
85 	40    	0.840219	0.00264624 	0.838058	0.846161
86 	40    	0.841029	0.00268727 	0.838058	0.846161
87 	40    	0.841029	0.00268727 	0.838058	0.846161
88 	40    	0.843325	0.0015921  	0.840759	0.846161
89 	40    	0.84454 	0.00132312 	0.84346 	0.846161
90 	40    	0.84508 	0.001573   	0.84346 	0.848846
91 	40    	0.84508 	0.001573   	0.84346 	0.848846
92 	40    	0.845484	0.00206665 	0.84346 	0.851547
93 	40    	0.846832	0.00206441 	0.84346 	0.851547
94 	40    	0.847775	0.00197783 	0.846161	0.851547
95 	40    	0.848313	0.00218739 	0.846161	0.851547
96 	40    	0.848987	0.00248027 	0.846161	0.854248
97 	40    	0.848987	0.00248027 	0.846161	0.854248
98 	40    	0.849121	0.00239487 	0.846161	0.854248
99 	40    	0.851277	0.00145443 	0.848846	0.854248
100	40    	0.852222	0.00144815 	0.851547	0.856949
101	40    	0.853033	0.00217327 	0.851547	0.85965 
102	40    	0.853033	0.00217327 	0.851547	0.85965 
103	40    	0.854248	0.00241567 	0.851547	0.85965 
104	40    	0.855598	0.00200297 	0.854248	0.85965 
105	40    	0.855598	0.00200297 	0.854248	0.85965 
106	40    	0.856949	0.00209204 	0.854248	0.85965 
107	40    	0.857489	0.00183178 	0.854248	0.85965 
108	40    	0.858434	0.0015921  	0.856949	0.86235 
109	40    	0.85938 	0.00145443 	0.856949	0.86235 
110	40    	0.85938 	0.00145443 	0.856949	0.86235 
111	40    	0.860325	0.00116948 	0.85965 	0.86235 
112	40    	0.860325	0.00116948 	0.85965 	0.86235 
113	40    	0.86073 	0.00132312 	0.85965 	0.86235 
114	40    	0.86127 	0.00132312 	0.85965 	0.86235 
115	40    	0.862215	0.00103726 	0.85965 	0.865051
116	40    	0.862621	0.000810242	0.86235 	0.865051
117	40    	0.863161	0.00150374 	0.86235 	0.867752
118	40    	0.864376	0.00188573 	0.86235 	0.867752
119	40    	0.865186	0.0015921  	0.86235 	0.867752
120	40    	0.866132	0.00132312 	0.865051	0.867752
121	40    	0.866267	0.00134363 	0.865051	0.867752
122	40    	0.867212	0.00162048 	0.865051	0.870453
123	40    	0.867212	0.00162048 	0.865051	0.870453
124	40    	0.867482	0.00145443 	0.865051	0.870453
125	40    	0.867482	0.00145443 	0.865051	0.870453
126	40    	0.867482	0.00145443 	0.865051	0.870453
127	40    	0.868562	0.00150142 	0.867752	0.873138
128	40    	0.868697	0.00154341 	0.867752	0.873138
129	40    	0.869101	0.00180835 	0.867752	0.873138
130	40    	0.869101	0.00180835 	0.867752	0.873138
131	40    	0.870315	0.00180193 	0.867752	0.873138
132	40    	0.871393	0.00128092 	0.870453	0.873138
133	40    	0.872198	0.00128092 	0.870453	0.873138
134	40    	0.872198	0.00128092 	0.870453	0.873138
135	40    	0.872198	0.00128092 	0.870453	0.873138
136	40    	0.872333	0.00123067 	0.870453	0.873138
137	40    	0.872601	0.00107422 	0.870453	0.873138
138	40    	0.872601	0.00107422 	0.870453	0.873138
139	40    	0.872601	0.00107422 	0.870453	0.873138
140	40    	0.873138	0          	0.873138	0.873138
141	40    	0.873138	0          	0.873138	0.873138
142	40    	0.873138	0          	0.873138	0.873138
143	40    	0.873138	0          	0.873138	0.873138
144	40    	0.873138	0          	0.873138	0.873138
145	40    	0.873138	0          	0.873138	0.873138
146	40    	0.873138	0          	0.873138	0.873138
147	40    	0.873138	0          	0.873138	0.873138
148	40    	0.873138	0          	0.873138	0.873138
149	40    	0.873138	0          	0.873138	0.873138
150	40    	0.873138	0          	0.873138	0.873138
151	40    	0.873138	0          	0.873138	0.873138
152	40    	0.873273	0.000588627	0.873138	0.875839
153	40    	0.873273	0.000588627	0.873138	0.875839
154	40    	0.873273	0.000588627	0.873138	0.875839
155	40    	0.873273	0.000588627	0.873138	0.875839
156	40    	0.873409	0.000810242	0.873138	0.875839
157	40    	0.873409	0.000810242	0.873138	0.875839
158	40    	0.873409	0.000810242	0.873138	0.875839
159	40    	0.873409	0.000810242	0.873138	0.875839
160	40    	0.873544	0.000964381	0.873138	0.875839
161	40    	0.873679	0.00108032 	0.873138	0.875839
162	40    	0.873949	0.00123766 	0.873138	0.875839
163	40    	0.874354	0.00134363 	0.873138	0.875839
164	40    	0.875029	0.00123766 	0.873138	0.875839
165	40    	0.875434	0.000964381	0.873138	0.875839
166	40    	0.875974	0.000588627	0.875839	0.87854 
167	40    	0.876109	0.000810242	0.875839	0.87854 
168	40    	0.876379	0.00137715 	0.875839	0.881241
169	40    	0.876785	0.00154561 	0.875839	0.881241
170	40    	0.877325	0.00199841 	0.875839	0.881241
171	40    	0.87854 	0.00209204 	0.875839	0.881241
172	40    	0.87854 	0.00209204 	0.875839	0.881241
173	40    	0.880161	0.00132312 	0.87854 	0.881241
174	40    	0.881241	0          	0.881241	0.881241
175	40    	0.881241	0          	0.881241	0.881241
176	40    	0.881241	0          	0.881241	0.881241
177	40    	0.881241	0          	0.881241	0.881241
178	40    	0.881241	0          	0.881241	0.881241
179	40    	0.881241	0          	0.881241	0.881241
180	40    	0.881241	0          	0.881241	0.881241
181	40    	0.881241	0          	0.881241	0.881241
182	40    	0.881376	0.000588627	0.881241	0.883942
183	40    	0.881376	0.000588627	0.881241	0.883942
184	40    	0.881376	0.000588627	0.881241	0.883942
185	40    	0.881376	0.000588627	0.881241	0.883942
186	40    	0.881511	0.000810242	0.881241	0.883942
187	40    	0.881916	0.00116948 	0.881241	0.883942
188	40    	0.882321	0.00132312 	0.881241	0.883942
189	40    	0.882321	0.00132312 	0.881241	0.883942
190	40    	0.882861	0.00132312 	0.881241	0.883942
191	40    	0.884077	0.00103726 	0.881241	0.886642
192	40    	0.884077	0.00103726 	0.881241	0.886642
193	40    	0.884482	0.00108032 	0.883942	0.886642
194	40    	0.884482	0.00108032 	0.883942	0.886642
195	40    	0.884617	0.00116948 	0.883942	0.886642
196	40    	0.884887	0.0012882  	0.883942	0.886642
197	40    	0.885427	0.0015921  	0.883942	0.889343
198	40    	0.885427	0.0015921  	0.883942	0.889343
199	40    	0.886507	0.00134363 	0.883942	0.889343
200	40    	0.886507	0.00134363 	0.883942	0.889343
201	40    	0.886913	0.00117725 	0.883942	0.889343
202	40    	0.886913	0.00117725 	0.883942	0.889343
203	40    	0.887048	0.000964381	0.886642	0.889343
204	40    	0.887048	0.000964381	0.886642	0.889343
205	40    	0.887048	0.000964381	0.886642	0.889343
206	40    	0.887183	0.00108032 	0.886642	0.889343
207	40    	0.887183	0.00108032 	0.886642	0.889343
208	40    	0.887588	0.0012882  	0.886642	0.889343
209	40    	0.887588	0.0012882  	0.886642	0.889343
210	40    	0.888263	0.00132312 	0.886642	0.889343
211	40    	0.888263	0.00132312 	0.886642	0.889343
212	40    	0.889343	0          	0.889343	0.889343
213	40    	0.889343	0          	0.889343	0.889343
214	40    	0.889343	0          	0.889343	0.889343
215	40    	0.889343	0          	0.889343	0.889343
216	40    	0.889343	0          	0.889343	0.889343
217	40    	0.889478	0.000588627	0.889343	0.892044
218	40    	0.889478	0.000588627	0.889343	0.892044
219	40    	0.889478	0.000588627	0.889343	0.892044
220	40    	0.889478	0.000588627	0.889343	0.892044
221	40    	0.889613	0.000810242	0.889343	0.892044
222	40    	0.889613	0.000810242	0.889343	0.892044
223	40    	0.889883	0.00108032 	0.889343	0.892044
224	40    	0.889883	0.00108032 	0.889343	0.892044
225	40    	0.890018	0.00116948 	0.889343	0.892044
226	40    	0.890018	0.00116948 	0.889343	0.892044
227	40    	0.890018	0.00116948 	0.889343	0.892044
228	40    	0.890154	0.00123766 	0.889343	0.892044
229	40    	0.890154	0.00123766 	0.889343	0.892044
230	40    	0.890424	0.00132312 	0.889343	0.892044
231	40    	0.890424	0.00132312 	0.889343	0.892044
232	40    	0.890694	0.0013504  	0.889343	0.892044
233	40    	0.890694	0.0013504  	0.889343	0.892044
234	40    	0.891234	0.00123766 	0.889343	0.892044
235	40    	0.891234	0.00123766 	0.889343	0.892044
236	40    	0.891369	0.00116948 	0.889343	0.892044
237	40    	0.891369	0.00116948 	0.889343	0.892044
238	40    	0.891369	0.00116948 	0.889343	0.892044
239	40    	0.892044	0          	0.892044	0.892044
240	40    	0.892044	0          	0.892044	0.892044
241	40    	0.892044	0          	0.892044	0.892044
242	40    	0.892044	0          	0.892044	0.892044
243	40    	0.892044	0          	0.892044	0.892044
244	40    	0.892044	0          	0.892044	0.892044
245	40    	0.892044	0          	0.892044	0.892044
246	40    	0.892178	0.000585301	0.892044	0.89473 
247	40    	0.892178	0.000585301	0.892044	0.89473 
248	40    	0.892313	0.000805664	0.892044	0.89473 
249	40    	0.892313	0.000805664	0.892044	0.89473 
250	40    	0.892581	0.00107422 	0.892044	0.89473 
