gen	nevals	avg     	std      	min     	max     
0  	20    	0.565117	0.0694192	0.441864	0.720932
1  	40    	0.637212	0.0522109	0.58139 	0.767441
2  	40    	0.672098	0.0452715	0.627914	0.767441
3  	40    	0.6814  	0.039669 	0.627914	0.767441
4  	40    	0.704654	0.033779 	0.674423	0.767441
5  	40    	0.725583	0.0413379	0.674423	0.81395 
6  	40    	0.730234	0.0377839	0.674423	0.81395 
7  	40    	0.744186	0.027515 	0.720932	0.81395 
8  	40    	0.751163	0.0304091	0.720932	0.81395 
9  	40    	0.760464	0.0304091	0.720932	0.81395 
10 	40    	0.76279 	0.0290447	0.720932	0.81395 
11 	40    	0.765115	0.0274165	0.720932	0.81395 
12 	40    	0.772092	0.0202727	0.720932	0.81395 
13 	40    	0.772092	0.0202727	0.720932	0.81395 
14 	40    	0.776743	0.0186035	0.767441	0.81395 
15 	40    	0.776743	0.0186035	0.767441	0.81395 
16 	40    	0.781393	0.021313 	0.767441	0.81395 
17 	40    	0.783719	0.0221833	0.767441	0.81395 
18 	40    	0.783719	0.0221833	0.767441	0.81395 
19 	40    	0.786044	0.0227846	0.767441	0.81395 
20 	40    	0.78837 	0.0231378	0.767441	0.81395 
21 	40    	0.790695	0.0232544	0.767441	0.81395 
22 	40    	0.797672	0.0337814	0.767441	0.906982
23 	40    	0.797672	0.0337814	0.767441	0.906982
24 	40    	0.804649	0.0348062	0.767441	0.906982
25 	40    	0.809299	0.0325584	0.767441	0.906982
26 	40    	0.820927	0.0337828	0.767441	0.906982
27 	40    	0.823253	0.0315478	0.767441	0.906982
28 	40    	0.823253	0.0315478	0.767441	0.906982
29 	40    	0.839532	0.0374299	0.81395 	0.906982
30 	40    	0.848835	0.0385688	0.81395 	0.906982
31 	40    	0.848835	0.0385688	0.81395 	0.906982
32 	40    	0.86279 	0.0402173	0.81395 	0.906982
33 	40    	0.872092	0.035655 	0.81395 	0.906982
34 	40    	0.87907 	0.0308573	0.81395 	0.906982
35 	40    	0.895351	0.0201455	0.860458	0.906982
36 	40    	0.906982	0        	0.906982	0.906982
37 	40    	0.906982	0        	0.906982	0.906982
38 	40    	0.906982	0        	0.906982	0.906982
39 	40    	0.906982	0        	0.906982	0.906982
40 	40    	0.906982	0        	0.906982	0.906982
41 	40    	0.906982	0        	0.906982	0.906982
42 	40    	0.906982	0        	0.906982	0.906982
43 	40    	0.906982	0        	0.906982	0.906982
44 	40    	0.906982	0        	0.906982	0.906982
45 	40    	0.906982	0        	0.906982	0.906982
46 	40    	0.906982	0        	0.906982	0.906982
47 	40    	0.906982	0        	0.906982	0.906982
48 	40    	0.906982	0        	0.906982	0.906982
49 	40    	0.906982	0        	0.906982	0.906982
50 	40    	0.906982	0        	0.906982	0.906982
51 	40    	0.906982	0        	0.906982	0.906982
52 	40    	0.906982	0        	0.906982	0.906982
53 	40    	0.906982	0        	0.906982	0.906982
54 	40    	0.906982	0        	0.906982	0.906982
55 	40    	0.906982	0        	0.906982	0.906982
56 	40    	0.906982	0        	0.906982	0.906982
57 	40    	0.906982	0        	0.906982	0.906982
58 	40    	0.906982	0        	0.906982	0.906982
59 	40    	0.906982	0        	0.906982	0.906982
60 	40    	0.906982	0        	0.906982	0.906982
61 	40    	0.906982	0        	0.906982	0.906982
62 	40    	0.906982	0        	0.906982	0.906982
63 	40    	0.906982	0        	0.906982	0.906982
64 	40    	0.906982	0        	0.906982	0.906982
65 	40    	0.906982	0        	0.906982	0.906982
66 	40    	0.906982	0        	0.906982	0.906982
67 	40    	0.906982	0        	0.906982	0.906982
68 	40    	0.906982	0        	0.906982	0.906982
69 	40    	0.906982	0        	0.906982	0.906982
70 	40    	0.906982	0        	0.906982	0.906982
71 	40    	0.906982	0        	0.906982	0.906982
72 	40    	0.906982	0        	0.906982	0.906982
73 	40    	0.906982	0        	0.906982	0.906982
74 	40    	0.906982	0        	0.906982	0.906982
75 	40    	0.906982	0        	0.906982	0.906982
76 	40    	0.906982	0        	0.906982	0.906982
77 	40    	0.906982	0        	0.906982	0.906982
78 	40    	0.906982	0        	0.906982	0.906982
79 	40    	0.906982	0        	0.906982	0.906982
80 	40    	0.906982	0        	0.906982	0.906982
81 	40    	0.906982	0        	0.906982	0.906982
82 	40    	0.906982	0        	0.906982	0.906982
83 	40    	0.906982	0        	0.906982	0.906982
84 	40    	0.906982	0        	0.906982	0.906982
85 	40    	0.906982	0        	0.906982	0.906982
86 	40    	0.906982	0        	0.906982	0.906982
87 	40    	0.906982	0        	0.906982	0.906982
88 	40    	0.906982	0        	0.906982	0.906982
89 	40    	0.906982	0        	0.906982	0.906982
90 	40    	0.906982	0        	0.906982	0.906982
91 	40    	0.906982	0        	0.906982	0.906982
92 	40    	0.906982	0        	0.906982	0.906982
93 	40    	0.906982	0        	0.906982	0.906982
94 	40    	0.906982	0        	0.906982	0.906982
95 	40    	0.906982	0        	0.906982	0.906982
96 	40    	0.906982	0        	0.906982	0.906982
97 	40    	0.906982	0        	0.906982	0.906982
98 	40    	0.906982	0        	0.906982	0.906982
99 	40    	0.906982	0        	0.906982	0.906982
100	40    	0.906982	0        	0.906982	0.906982
101	40    	0.906982	0        	0.906982	0.906982
102	40    	0.906982	0        	0.906982	0.906982
103	40    	0.906982	0        	0.906982	0.906982
104	40    	0.906982	0        	0.906982	0.906982
105	40    	0.906982	0        	0.906982	0.906982
106	40    	0.906982	0        	0.906982	0.906982
107	40    	0.906982	0        	0.906982	0.906982
108	40    	0.906982	0        	0.906982	0.906982
109	40    	0.906982	0        	0.906982	0.906982
110	40    	0.906982	0        	0.906982	0.906982
111	40    	0.906982	0        	0.906982	0.906982
112	40    	0.906982	0        	0.906982	0.906982
113	40    	0.906982	0        	0.906982	0.906982
114	40    	0.906982	0        	0.906982	0.906982
115	40    	0.906982	0        	0.906982	0.906982
116	40    	0.906982	0        	0.906982	0.906982
117	40    	0.906982	0        	0.906982	0.906982
118	40    	0.909308	0.0101364	0.906982	0.953491
119	40    	0.909308	0.0101364	0.906982	0.953491
120	40    	0.909308	0.0101364	0.906982	0.953491
121	40    	0.909308	0.0101364	0.906982	0.953491
122	40    	0.909308	0.0101364	0.906982	0.953491
123	40    	0.909308	0.0101364	0.906982	0.953491
124	40    	0.909308	0.0101364	0.906982	0.953491
125	40    	0.911633	0.0139526	0.906982	0.953491
126	40    	0.913959	0.016607 	0.906982	0.953491
127	40    	0.913959	0.016607 	0.906982	0.953491
128	40    	0.913959	0.016607 	0.906982	0.953491
129	40    	0.916284	0.0186035	0.906982	0.953491
130	40    	0.916284	0.0186035	0.906982	0.953491
131	40    	0.92326 	0.0221833	0.906982	0.953491
132	40    	0.927911	0.0231378	0.906982	0.953491
133	40    	0.941864	0.0201389	0.906982	0.953491
134	40    	0.946515	0.016607 	0.906982	0.953491
135	40    	0.94884 	0.0139526	0.906982	0.953491
136	40    	0.94884 	0.0139526	0.906982	0.953491
137	40    	0.953491	0        	0.953491	0.953491
138	40    	0.953491	0        	0.953491	0.953491
139	40    	0.953491	0        	0.953491	0.953491
140	40    	0.953491	0        	0.953491	0.953491
141	40    	0.953491	0        	0.953491	0.953491
142	40    	0.953491	0        	0.953491	0.953491
143	40    	0.953491	0        	0.953491	0.953491
144	40    	0.953491	0        	0.953491	0.953491
145	40    	0.953491	0        	0.953491	0.953491
146	40    	0.953491	0        	0.953491	0.953491
147	40    	0.953491	0        	0.953491	0.953491
148	40    	0.953491	0        	0.953491	0.953491
149	40    	0.953491	0        	0.953491	0.953491
150	40    	0.953491	0        	0.953491	0.953491
151	40    	0.953491	0        	0.953491	0.953491
152	40    	0.953491	0        	0.953491	0.953491
153	40    	0.953491	0        	0.953491	0.953491
154	40    	0.953491	0        	0.953491	0.953491
155	40    	0.953491	0        	0.953491	0.953491
156	40    	0.953491	0        	0.953491	0.953491
157	40    	0.953491	0        	0.953491	0.953491
158	40    	0.953491	0        	0.953491	0.953491
159	40    	0.953491	0        	0.953491	0.953491
160	40    	0.953491	0        	0.953491	0.953491
161	40    	0.953491	0        	0.953491	0.953491
162	40    	0.953491	0        	0.953491	0.953491
163	40    	0.953491	0        	0.953491	0.953491
164	40    	0.953491	0        	0.953491	0.953491
165	40    	0.953491	0        	0.953491	0.953491
166	40    	0.953491	0        	0.953491	0.953491
167	40    	0.953491	0        	0.953491	0.953491
168	40    	0.953491	0        	0.953491	0.953491
169	40    	0.953491	0        	0.953491	0.953491
170	40    	0.953491	0        	0.953491	0.953491
171	40    	0.953491	0        	0.953491	0.953491
172	40    	0.953491	0        	0.953491	0.953491
173	40    	0.955817	0.0101364	0.953491	1       
174	40    	0.955817	0.0101364	0.953491	1       
175	40    	0.955817	0.0101364	0.953491	1       
176	40    	0.958142	0.0139526	0.953491	1       
177	40    	0.962793	0.0186035	0.953491	1       
178	40    	0.962793	0.0186035	0.953491	1       
179	40    	0.967444	0.021313 	0.953491	1       
180	40    	0.969769	0.0221833	0.953491	1       
181	40    	0.97442 	0.0231378	0.953491	1       
182	40    	0.976746	0.0232544	0.953491	1       
183	40    	0.976746	0.0232544	0.953491	1       
184	40    	0.976746	0.0232544	0.953491	1       
185	40    	0.981396	0.0227846	0.953491	1       
186	40    	0.981396	0.0227846	0.953491	1       
187	40    	0.981396	0.0227846	0.953491	1       
188	40    	0.990698	0.0186035	0.953491	1       
189	40    	1       	0        	1       	1       
190	40    	1       	0        	1       	1       
191	40    	1       	0        	1       	1       
192	40    	1       	0        	1       	1       
193	40    	1       	0        	1       	1       
194	40    	1       	0        	1       	1       
195	40    	1       	0        	1       	1       
196	40    	1       	0        	1       	1       
197	40    	1       	0        	1       	1       
198	40    	1       	0        	1       	1       
199	40    	1       	0        	1       	1       
200	40    	1       	0        	1       	1       
201	40    	1       	0        	1       	1       
202	40    	1       	0        	1       	1       
203	40    	1       	0        	1       	1       
204	40    	1       	0        	1       	1       
205	40    	1       	0        	1       	1       
206	40    	1       	0        	1       	1       
207	40    	1       	0        	1       	1       
208	40    	1       	0        	1       	1       
209	40    	1       	0        	1       	1       
210	40    	1       	0        	1       	1       
211	40    	1       	0        	1       	1       
212	40    	1       	0        	1       	1       
213	40    	1       	0        	1       	1       
214	40    	1       	0        	1       	1       
215	40    	1       	0        	1       	1       
216	40    	1       	0        	1       	1       
217	40    	1       	0        	1       	1       
218	40    	1       	0        	1       	1       
219	40    	1       	0        	1       	1       
220	40    	1       	0        	1       	1       
221	40    	1       	0        	1       	1       
222	40    	1       	0        	1       	1       
223	40    	1       	0        	1       	1       
224	40    	1       	0        	1       	1       
225	40    	1       	0        	1       	1       
226	40    	1       	0        	1       	1       
227	40    	1       	0        	1       	1       
228	40    	1       	0        	1       	1       
229	40    	1       	0        	1       	1       
230	40    	1       	0        	1       	1       
231	40    	1       	0        	1       	1       
232	40    	1       	0        	1       	1       
233	40    	1       	0        	1       	1       
234	40    	1       	0        	1       	1       
235	40    	1       	0        	1       	1       
236	40    	1       	0        	1       	1       
237	40    	1       	0        	1       	1       
238	40    	1       	0        	1       	1       
239	40    	1       	0        	1       	1       
240	40    	1       	0        	1       	1       
241	40    	1       	0        	1       	1       
242	40    	1       	0        	1       	1       
243	40    	1       	0        	1       	1       
244	40    	1       	0        	1       	1       
245	40    	1       	0        	1       	1       
246	40    	1       	0        	1       	1       
247	40    	1       	0        	1       	1       
248	40    	1       	0        	1       	1       
249	40    	1       	0        	1       	1       
250	40    	1       	0        	1       	1       
