gen	nevals	avg     	std       	min     	max     
0  	20    	0.580363	0.0210283 	0.555557	0.617569
1  	40    	0.595607	0.0136583 	0.576233	0.617569
2  	40    	0.611111	0.0159188 	0.591736	0.65892 
3  	40    	0.61447 	0.014655  	0.596893	0.65892 
4  	40    	0.621188	0.0116845 	0.607239	0.65892 
5  	40    	0.625323	0.011266  	0.612396	0.65892 
6  	40    	0.633076	0.0107165 	0.617569	0.65892 
7  	40    	0.639536	0.0108231 	0.627914	0.664078
8  	40    	0.645995	0.00917123	0.633072	0.664078
9  	40    	0.652454	0.00951179	0.638245	0.674423
10 	40    	0.65323 	0.0089365 	0.638245	0.674423
11 	40    	0.658913	0.011557  	0.648575	0.689926
12 	40    	0.66615 	0.0125943 	0.653748	0.695084
13 	40    	0.668734	0.0119967 	0.653748	0.695084
14 	40    	0.677518	0.0134167 	0.65892 	0.715759
15 	40    	0.684238	0.0108265 	0.66925 	0.715759
16 	40    	0.691213	0.00951262	0.679581	0.715759
17 	40    	0.696382	0.0081512 	0.684753	0.715759
18 	40    	0.70155 	0.0131657 	0.689926	0.741608
19 	40    	0.702583	0.0126065 	0.689926	0.741608
20 	40    	0.712145	0.0128798 	0.700256	0.741608
21 	40    	0.713179	0.0127127 	0.700256	0.741608
22 	40    	0.723515	0.0128153 	0.710602	0.751938
23 	40    	0.735661	0.0136995 	0.720932	0.767441
24 	40    	0.749095	0.0142906 	0.731262	0.777771
25 	40    	0.75943 	0.0108972 	0.746765	0.777771
26 	40    	0.766925	0.00992585	0.757111	0.793289
27 	40    	0.774417	0.00659314	0.762268	0.793289
28 	40    	0.78036 	0.00622499	0.772614	0.793289
29 	40    	0.780618	0.00600155	0.772614	0.793289
30 	40    	0.780618	0.00600155	0.772614	0.793289
31 	40    	0.787339	0.00717862	0.777771	0.803619
32 	40    	0.787339	0.00717862	0.777771	0.803619
33 	40    	0.793027	0.00553597	0.788116	0.808792
34 	40    	0.796904	0.0063499 	0.788116	0.808792
35 	40    	0.801038	0.0105275 	0.793289	0.839798
36 	40    	0.801038	0.0105275 	0.793289	0.839798
37 	40    	0.806461	0.0105259 	0.793289	0.839798
38 	40    	0.809563	0.00899209	0.803619	0.839798
39 	40    	0.815507	0.00940169	0.803619	0.839798
40 	40    	0.823256	0.00777013	0.81395 	0.839798
41 	40    	0.828168	0.00671297	0.819122	0.839798
42 	40    	0.833075	0.00568487	0.824295	0.844955
43 	40    	0.837469	0.00553761	0.829453	0.855301
44 	40    	0.840829	0.00506277	0.834625	0.855301
45 	40    	0.842896	0.00500901	0.839798	0.855301
46 	40    	0.845221	0.00599839	0.839798	0.855301
47 	40    	0.845479	0.00586918	0.839798	0.855301
48 	40    	0.849094	0.00450948	0.844955	0.855301
49 	40    	0.852714	0.00346827	0.844955	0.860458
50 	40    	0.852714	0.00346827	0.844955	0.860458
51 	40    	0.85349 	0.00295843	0.850128	0.860458
52 	40    	0.856332	0.00206299	0.855301	0.860458
53 	40    	0.85659 	0.00223325	0.855301	0.860458
54 	40    	0.85659 	0.00223325	0.855301	0.860458
55 	40    	0.857623	0.00304229	0.855301	0.865631
56 	40    	0.857623	0.00304229	0.855301	0.865631
57 	40    	0.857623	0.00304229	0.855301	0.865631
58 	40    	0.860463	0.00432235	0.855301	0.870804
59 	40    	0.861237	0.00375329	0.855301	0.870804
60 	40    	0.861753	0.00360893	0.855301	0.870804
61 	40    	0.863045	0.00306023	0.860458	0.870804
62 	40    	0.863562	0.00301619	0.860458	0.870804
63 	40    	0.864855	0.00409757	0.860458	0.875977
64 	40    	0.868217	0.0038362 	0.865631	0.875977
65 	40    	0.869511	0.004289  	0.865631	0.875977
66 	40    	0.870028	0.00409757	0.865631	0.875977
67 	40    	0.873648	0.0030474 	0.870804	0.881134
68 	40    	0.873648	0.0030474 	0.870804	0.881134
69 	40    	0.875457	0.00322634	0.870804	0.881134
70 	40    	0.875457	0.00322634	0.870804	0.881134
71 	40    	0.877266	0.00223325	0.875977	0.881134
72 	40    	0.877524	0.00236345	0.875977	0.881134
73 	40    	0.879071	0.00252663	0.875977	0.881134
74 	40    	0.880618	0.00154724	0.875977	0.881134
75 	40    	0.880618	0.00154724	0.875977	0.881134
76 	40    	0.881134	0         	0.881134	0.881134
77 	40    	0.881134	0         	0.881134	0.881134
78 	40    	0.881134	0         	0.881134	0.881134
79 	40    	0.881134	0         	0.881134	0.881134
80 	40    	0.881134	0         	0.881134	0.881134
81 	40    	0.881134	0         	0.881134	0.881134
82 	40    	0.881134	0         	0.881134	0.881134
83 	40    	0.881134	0         	0.881134	0.881134
84 	40    	0.881134	0         	0.881134	0.881134
85 	40    	0.881134	0         	0.881134	0.881134
86 	40    	0.881134	0         	0.881134	0.881134
87 	40    	0.881134	0         	0.881134	0.881134
88 	40    	0.881134	0         	0.881134	0.881134
89 	40    	0.881134	0         	0.881134	0.881134
90 	40    	0.881134	0         	0.881134	0.881134
91 	40    	0.881393	0.00112737	0.881134	0.886307
92 	40    	0.881393	0.00112737	0.881134	0.886307
93 	40    	0.881393	0.00112737	0.881134	0.886307
94 	40    	0.881393	0.00112737	0.881134	0.886307
95 	40    	0.881393	0.00112737	0.881134	0.886307
96 	40    	0.881651	0.00155182	0.881134	0.886307
97 	40    	0.881651	0.00155182	0.881134	0.886307
98 	40    	0.881651	0.00155182	0.881134	0.886307
99 	40    	0.881651	0.00155182	0.881134	0.886307
100	40    	0.881651	0.00155182	0.881134	0.886307
101	40    	0.881651	0.00155182	0.881134	0.886307
102	40    	0.881651	0.00155182	0.881134	0.886307
103	40    	0.88191 	0.00184703	0.881134	0.886307
104	40    	0.88191 	0.00184703	0.881134	0.886307
105	40    	0.882169	0.00206909	0.881134	0.886307
106	40    	0.882944	0.00246723	0.881134	0.886307
107	40    	0.882944	0.00246723	0.881134	0.886307
108	40    	0.882944	0.00246723	0.881134	0.886307
109	40    	0.882944	0.00246723	0.881134	0.886307
110	40    	0.88372 	0.00258636	0.881134	0.886307
111	40    	0.884496	0.00296023	0.881134	0.891479
112	40    	0.884496	0.00296023	0.881134	0.891479
113	40    	0.885272	0.00263758	0.881134	0.891479
114	40    	0.885272	0.00263758	0.881134	0.891479
115	40    	0.886048	0.0025734 	0.881134	0.891479
116	40    	0.886307	0.00231331	0.881134	0.891479
117	40    	0.887083	0.00184703	0.886307	0.891479
118	40    	0.8876  	0.00223986	0.886307	0.891479
119	40    	0.8876  	0.00223986	0.886307	0.891479
120	40    	0.8876  	0.00223986	0.886307	0.891479
121	40    	0.888893	0.00258636	0.886307	0.891479
122	40    	0.890186	0.00223986	0.886307	0.891479
123	40    	0.892253	0.00184159	0.891479	0.896637
124	40    	0.892769	0.00223325	0.891479	0.896637
125	40    	0.8938  	0.00256581	0.891479	0.896637
126	40    	0.8938  	0.00256581	0.891479	0.896637
127	40    	0.894833	0.0029533 	0.891479	0.90181 
128	40    	0.894833	0.0029533 	0.891479	0.90181 
129	40    	0.896123	0.0027805 	0.891479	0.90181 
130	40    	0.897672	0.00206909	0.896637	0.90181 
131	40    	0.897672	0.00206909	0.896637	0.90181 
132	40    	0.897672	0.00206909	0.896637	0.90181 
133	40    	0.897672	0.00206909	0.896637	0.90181 
134	40    	0.897672	0.00206909	0.896637	0.90181 
135	40    	0.897672	0.00206909	0.896637	0.90181 
136	40    	0.898189	0.00237044	0.896637	0.90181 
137	40    	0.898965	0.0025734 	0.896637	0.90181 
138	40    	0.898965	0.0025734 	0.896637	0.90181 
139	40    	0.899482	0.0025734 	0.896637	0.90181 
140	40    	0.901292	0.00225474	0.896637	0.906982
141	40    	0.902068	0.00112737	0.90181 	0.906982
142	40    	0.902327	0.00155182	0.90181 	0.906982
143	40    	0.902327	0.00155182	0.90181 	0.906982
144	40    	0.902327	0.00155182	0.90181 	0.906982
145	40    	0.902327	0.00155182	0.90181 	0.906982
146	40    	0.902327	0.00155182	0.90181 	0.906982
147	40    	0.902327	0.00155182	0.90181 	0.906982
148	40    	0.903102	0.00277108	0.90181 	0.91214 
149	40    	0.903361	0.00287773	0.90181 	0.91214 
150	40    	0.904136	0.00345679	0.90181 	0.91214 
151	40    	0.904395	0.00346656	0.90181 	0.91214 
152	40    	0.904911	0.00379681	0.90181 	0.91214 
153	40    	0.905945	0.00386602	0.90181 	0.91214 
154	40    	0.907754	0.00337616	0.90181 	0.91214 
155	40    	0.907754	0.00337616	0.90181 	0.91214 
156	40    	0.909045	0.00252663	0.906982	0.91214 
157	40    	0.910335	0.00245996	0.906982	0.91214 
158	40    	0.910335	0.00245996	0.906982	0.91214 
159	40    	0.91214 	0         	0.91214 	0.91214 
160	40    	0.91214 	0         	0.91214 	0.91214 
161	40    	0.91214 	0         	0.91214 	0.91214 
162	40    	0.91214 	0         	0.91214 	0.91214 
163	40    	0.912399	0.00112737	0.91214 	0.917313
164	40    	0.912399	0.00112737	0.91214 	0.917313
165	40    	0.912399	0.00112737	0.91214 	0.917313
166	40    	0.912399	0.00112737	0.91214 	0.917313
167	40    	0.912657	0.00155182	0.91214 	0.917313
168	40    	0.912916	0.00184703	0.91214 	0.917313
169	40    	0.913433	0.00223986	0.91214 	0.917313
170	40    	0.913433	0.00223986	0.91214 	0.917313
171	40    	0.914209	0.00253411	0.91214 	0.917313
172	40    	0.915244	0.00253411	0.91214 	0.917313
173	40    	0.917054	0.00112737	0.91214 	0.917313
174	40    	0.917313	0         	0.917313	0.917313
175	40    	0.917313	0         	0.917313	0.917313
176	40    	0.917313	0         	0.917313	0.917313
177	40    	0.917313	0         	0.917313	0.917313
178	40    	0.917313	0         	0.917313	0.917313
179	40    	0.917313	0         	0.917313	0.917313
180	40    	0.917313	0         	0.917313	0.917313
181	40    	0.917313	0         	0.917313	0.917313
182	40    	0.917313	0         	0.917313	0.917313
183	40    	0.917313	0         	0.917313	0.917313
184	40    	0.917313	0         	0.917313	0.917313
185	40    	0.917313	0         	0.917313	0.917313
186	40    	0.917313	0         	0.917313	0.917313
187	40    	0.917313	0         	0.917313	0.917313
188	40    	0.917313	0         	0.917313	0.917313
189	40    	0.917313	0         	0.917313	0.917313
190	40    	0.917313	0         	0.917313	0.917313
191	40    	0.917313	0         	0.917313	0.917313
192	40    	0.917313	0         	0.917313	0.917313
193	40    	0.917313	0         	0.917313	0.917313
194	40    	0.917313	0         	0.917313	0.917313
195	40    	0.917313	0         	0.917313	0.917313
196	40    	0.917313	0         	0.917313	0.917313
197	40    	0.917313	0         	0.917313	0.917313
198	40    	0.917313	0         	0.917313	0.917313
199	40    	0.917313	0         	0.917313	0.917313
200	40    	0.917313	0         	0.917313	0.917313
201	40    	0.917313	0         	0.917313	0.917313
202	40    	0.917313	0         	0.917313	0.917313
203	40    	0.917313	0         	0.917313	0.917313
204	40    	0.917313	0         	0.917313	0.917313
205	40    	0.917313	0         	0.917313	0.917313
206	40    	0.917313	0         	0.917313	0.917313
207	40    	0.917313	0         	0.917313	0.917313
208	40    	0.917313	0         	0.917313	0.917313
209	40    	0.917313	0         	0.917313	0.917313
210	40    	0.917313	0         	0.917313	0.917313
211	40    	0.917313	0         	0.917313	0.917313
212	40    	0.917313	0         	0.917313	0.917313
213	40    	0.917313	0         	0.917313	0.917313
214	40    	0.917313	0         	0.917313	0.917313
215	40    	0.917313	0         	0.917313	0.917313
216	40    	0.917313	0         	0.917313	0.917313
217	40    	0.917313	0         	0.917313	0.917313
218	40    	0.917313	0         	0.917313	0.917313
219	40    	0.917313	0         	0.917313	0.917313
220	40    	0.917313	0         	0.917313	0.917313
221	40    	0.917313	0         	0.917313	0.917313
222	40    	0.917313	0         	0.917313	0.917313
223	40    	0.917313	0         	0.917313	0.917313
224	40    	0.917313	0         	0.917313	0.917313
225	40    	0.917313	0         	0.917313	0.917313
226	40    	0.917313	0         	0.917313	0.917313
227	40    	0.917313	0         	0.917313	0.917313
228	40    	0.917313	0         	0.917313	0.917313
229	40    	0.917313	0         	0.917313	0.917313
230	40    	0.917313	0         	0.917313	0.917313
231	40    	0.917313	0         	0.917313	0.917313
232	40    	0.917313	0         	0.917313	0.917313
233	40    	0.917313	0         	0.917313	0.917313
234	40    	0.917313	0         	0.917313	0.917313
235	40    	0.917313	0         	0.917313	0.917313
236	40    	0.917313	0         	0.917313	0.917313
237	40    	0.917313	0         	0.917313	0.917313
238	40    	0.917313	0         	0.917313	0.917313
239	40    	0.917313	0         	0.917313	0.917313
240	40    	0.917313	0         	0.917313	0.917313
241	40    	0.917313	0         	0.917313	0.917313
242	40    	0.917313	0         	0.917313	0.917313
243	40    	0.917313	0         	0.917313	0.917313
244	40    	0.917313	0         	0.917313	0.917313
245	40    	0.917313	0         	0.917313	0.917313
246	40    	0.917313	0         	0.917313	0.917313
247	40    	0.917313	0         	0.917313	0.917313
248	40    	0.917313	0         	0.917313	0.917313
249	40    	0.917313	0         	0.917313	0.917313
250	40    	0.917313	0         	0.917313	0.917313
