gen	nevals	avg     	std        	min     	max     
0  	20    	0.589143	0.0126093  	0.562164	0.611206
1  	40    	0.604116	0.0117549  	0.590195	0.639236
2  	40    	0.614537	0.0127129  	0.600708	0.653244
3  	40    	0.622768	0.014178   	0.611206	0.656738
4  	40    	0.631087	0.0145921  	0.612961	0.660248
5  	40    	0.642645	0.0100528  	0.630478	0.667252
6  	40    	0.650964	0.00806641 	0.639236	0.667252
7  	40    	0.658759	0.00433339 	0.651489	0.667252
8  	40    	0.662873	0.00284834 	0.660248	0.670746
9  	40    	0.666812	0.00362747 	0.662003	0.67601 
10 	40    	0.670053	0.00373097 	0.665497	0.679504
11 	40    	0.673554	0.00444389 	0.669006	0.683014
12 	40    	0.677846	0.00389641 	0.672501	0.684769
13 	40    	0.681786	0.00288314 	0.677765	0.688263
14 	40    	0.684413	0.003351   	0.681259	0.693527
15 	40    	0.684413	0.003351   	0.681259	0.693527
16 	40    	0.686166	0.00306356 	0.683014	0.693527
17 	40    	0.688355	0.00320542 	0.684769	0.693527
18 	40    	0.691156	0.00508778 	0.686508	0.707535
19 	40    	0.695275	0.00601603 	0.690018	0.714539
20 	40    	0.69939 	0.00651106 	0.693527	0.714539
21 	40    	0.703503	0.00562477 	0.695267	0.714539
22 	40    	0.708845	0.00452988 	0.704025	0.718033
23 	40    	0.713049	0.00333473 	0.707535	0.719788
24 	40    	0.714887	0.00263423 	0.711029	0.719788
25 	40    	0.717515	0.00228782 	0.714539	0.721542
26 	40    	0.717515	0.00228782 	0.714539	0.721542
27 	40    	0.719527	0.00194033 	0.716293	0.723297
28 	40    	0.721104	0.00109233 	0.719788	0.723297
29 	40    	0.723292	0.00199405 	0.721542	0.726791
30 	40    	0.725393	0.00290816 	0.721542	0.733795
31 	40    	0.728017	0.00372191 	0.725037	0.737305
32 	40    	0.730383	0.00441292 	0.725037	0.740799
33 	40    	0.733538	0.00376669 	0.728546	0.740799
34 	40    	0.736952	0.00296198 	0.732056	0.744308
35 	40    	0.739055	0.00265469 	0.737305	0.744308
36 	40    	0.740456	0.00238646 	0.737305	0.744308
37 	40    	0.742642	0.00210989 	0.739059	0.747818
38 	40    	0.742905	0.00196971 	0.740799	0.747818
39 	40    	0.742905	0.00196971 	0.740799	0.747818
40 	40    	0.744659	0.00204456 	0.742554	0.749557
41 	40    	0.744659	0.00204456 	0.742554	0.749557
42 	40    	0.746762	0.00250128 	0.744308	0.753067
43 	40    	0.749476	0.00237917 	0.746063	0.754822
44 	40    	0.750001	0.00198606 	0.747818	0.754822
45 	40    	0.752451	0.00194091 	0.749557	0.756561
46 	40    	0.754466	0.00171292 	0.753067	0.758316
47 	40    	0.756654	0.00268143 	0.753067	0.76532 
48 	40    	0.759366	0.00315365 	0.756561	0.76532 
49 	40    	0.762345	0.00337385 	0.758316	0.770584
50 	40    	0.76287 	0.00310368 	0.758316	0.770584
51 	40    	0.76287 	0.00310368 	0.758316	0.770584
52 	40    	0.765408	0.00320554 	0.761826	0.772324
53 	40    	0.765408	0.00320554 	0.761826	0.772324
54 	40    	0.76681 	0.0031498  	0.763565	0.772324
55 	40    	0.768828	0.00221721 	0.76532 	0.772324
56 	40    	0.770755	0.00190835 	0.768829	0.775833
57 	40    	0.772768	0.00252805 	0.770584	0.779327
58 	40    	0.773991	0.00250557 	0.770584	0.779327
59 	40    	0.776357	0.00248307 	0.772324	0.782837
60 	40    	0.778809	0.00248151 	0.775833	0.784592
61 	40    	0.781607	0.00288481 	0.779327	0.789841
62 	40    	0.783624	0.00295556 	0.781082	0.789841
63 	40    	0.786428	0.00279426 	0.782837	0.791595
64 	40    	0.788618	0.00260295 	0.784592	0.79335 
65 	40    	0.79063 	0.00218134 	0.788086	0.79509 
66 	40    	0.791156	0.00174203 	0.788086	0.79509 
67 	40    	0.792296	0.00140076 	0.789841	0.79509 
68 	40    	0.793608	0.00149049 	0.791595	0.796844
69 	40    	0.795359	0.00230102 	0.79335 	0.800354
70 	40    	0.795359	0.00230102 	0.79335 	0.800354
71 	40    	0.797195	0.00212029 	0.79509 	0.800354
72 	40    	0.797283	0.00206697 	0.79509 	0.800354
73 	40    	0.797722	0.00196188 	0.79509 	0.800354
74 	40    	0.799477	0.00141473 	0.796844	0.802109
75 	40    	0.801405	0.00217404 	0.798599	0.809113
76 	40    	0.802981	0.00231528 	0.800354	0.809113
77 	40    	0.804555	0.00249915 	0.802109	0.810852
78 	40    	0.806742	0.00289446 	0.803848	0.816116
79 	40    	0.80797 	0.00309853 	0.805603	0.816116
80 	40    	0.809108	0.00298243 	0.805603	0.816116
81 	40    	0.811647	0.00256621 	0.809113	0.816116
82 	40    	0.813659	0.00224576 	0.810852	0.817856
83 	40    	0.815937	0.00145257 	0.812607	0.817856
84 	40    	0.816637	0.00124685 	0.814362	0.819611
85 	40    	0.817336	0.00111693 	0.816116	0.819611
86 	40    	0.818383	0.00136925 	0.816116	0.82312 
87 	40    	0.818383	0.00136925 	0.816116	0.82312 
88 	40    	0.818996	0.0014967  	0.817856	0.82312 
89 	40    	0.820225	0.00159625 	0.817856	0.82312 
90 	40    	0.821014	0.00152976 	0.819611	0.824875
91 	40    	0.821979	0.00194232 	0.819611	0.826614
92 	40    	0.82347 	0.00171651 	0.821365	0.826614
93 	40    	0.825134	0.00177327 	0.82312 	0.830124
94 	40    	0.82662 	0.0018346  	0.824875	0.830124
95 	40    	0.827931	0.00227554 	0.824875	0.833618
96 	40    	0.828719	0.00232473 	0.826614	0.833618
97 	40    	0.828719	0.00232473 	0.826614	0.833618
98 	40    	0.830035	0.0017929  	0.826614	0.833618
99 	40    	0.831524	0.00162154 	0.830124	0.835373
100	40    	0.832661	0.00160884 	0.830124	0.835373
101	40    	0.83336 	0.00126822 	0.831879	0.835373
102	40    	0.83336 	0.00126822 	0.831879	0.835373
103	40    	0.833884	0.0011433  	0.831879	0.835373
104	40    	0.834759	0.00139003 	0.833618	0.838882
105	40    	0.835724	0.00152976 	0.833618	0.838882
106	40    	0.836426	0.00128948 	0.835373	0.838882
107	40    	0.836426	0.00128948 	0.835373	0.838882
108	40    	0.837391	0.00127447 	0.835373	0.840637
109	40    	0.838093	0.00103442 	0.837128	0.840637
110	40    	0.838444	0.000940886	0.837128	0.840637
111	40    	0.83932 	0.000938398	0.838882	0.842377
112	40    	0.83932 	0.000938398	0.838882	0.842377
113	40    	0.839934	0.00116076 	0.838882	0.842377
114	40    	0.840547	0.00103035 	0.838882	0.842377
115	40    	0.841595	0.00116696 	0.840637	0.844131
116	40    	0.842729	0.00104981 	0.840637	0.844131
117	40    	0.843079	0.000859654	0.842377	0.844131
118	40    	0.843079	0.000859654	0.842377	0.844131
119	40    	0.844044	0.00117385 	0.842377	0.847641
120	40    	0.844833	0.00116398 	0.844131	0.847641
121	40    	0.845097	0.00117385 	0.844131	0.847641
122	40    	0.845447	0.0014529  	0.844131	0.84938 
123	40    	0.845447	0.0014529  	0.844131	0.84938 
124	40    	0.846499	0.00138686 	0.844131	0.84938 
125	40    	0.847462	0.0013424  	0.845886	0.84938 
126	40    	0.848598	0.000865391	0.847641	0.84938 
127	40    	0.849033	0.000888775	0.847641	0.851135
128	40    	0.849644	0.000626575	0.84938 	0.851135
129	40    	0.849907	0.000804132	0.84938 	0.851135
130	40    	0.849907	0.000804132	0.84938 	0.851135
131	40    	0.850697	0.0012252  	0.84938 	0.85289 
132	40    	0.851311	0.00134786 	0.84938 	0.854645
133	40    	0.852188	0.00140381 	0.851135	0.8564  
134	40    	0.852802	0.0012984  	0.851135	0.8564  
135	40    	0.853504	0.00100421 	0.85289 	0.8564  
136	40    	0.853504	0.00100421 	0.85289 	0.8564  
137	40    	0.853504	0.00100421 	0.85289 	0.8564  
138	40    	0.853504	0.00100421 	0.85289 	0.8564  
139	40    	0.854031	0.00127447 	0.85289 	0.8564  
140	40    	0.854819	0.00155641 	0.85289 	0.858139
141	40    	0.855695	0.00160277 	0.854645	0.859894
142	40    	0.856133	0.00177289 	0.854645	0.859894
143	40    	0.857095	0.00160178 	0.854645	0.859894
144	40    	0.857969	0.0013416  	0.8564  	0.859894
145	40    	0.858056	0.00129253 	0.8564  	0.859894
146	40    	0.858056	0.00129253 	0.8564  	0.859894
147	40    	0.859192	0.00116398 	0.858139	0.861649
148	40    	0.859192	0.00116398 	0.858139	0.861649
149	40    	0.860069	0.000944968	0.858139	0.861649
150	40    	0.860332	0.000759834	0.859894	0.861649
151	40    	0.860332	0.000759834	0.859894	0.861649
152	40    	0.860859	0.000872982	0.859894	0.861649
153	40    	0.860859	0.000872982	0.859894	0.861649
154	40    	0.861385	0.00100421 	0.859894	0.863403
155	40    	0.862261	0.00114348 	0.861649	0.865143
156	40    	0.862611	0.00129392 	0.861649	0.865143
157	40    	0.863399	0.00135333 	0.861649	0.865143
158	40    	0.863837	0.0010859  	0.861649	0.865143
159	40    	0.864099	0.000852178	0.863403	0.865143
160	40    	0.864534	0.00082969 	0.863403	0.865143
161	40    	0.864534	0.00082969 	0.863403	0.865143
162	40    	0.864534	0.00082969 	0.863403	0.865143
163	40    	0.864534	0.00082969 	0.863403	0.865143
164	40    	0.865057	0.000670159	0.863403	0.866898
165	40    	0.865057	0.000670159	0.863403	0.866898
166	40    	0.865057	0.000670159	0.863403	0.866898
167	40    	0.865231	0.000382441	0.865143	0.866898
168	40    	0.865231	0.000382441	0.865143	0.866898
169	40    	0.865318	0.000526428	0.865143	0.866898
170	40    	0.865318	0.000526428	0.865143	0.866898
171	40    	0.865582	0.000759834	0.865143	0.866898
172	40    	0.86602 	0.00087738 	0.865143	0.866898
173	40    	0.86602 	0.00087738 	0.865143	0.866898
174	40    	0.866634	0.000626575	0.865143	0.866898
175	40    	0.866634	0.000626575	0.865143	0.866898
176	40    	0.866634	0.000626575	0.865143	0.866898
177	40    	0.866898	0          	0.866898	0.866898
178	40    	0.866898	0          	0.866898	0.866898
179	40    	0.866898	0          	0.866898	0.866898
180	40    	0.866985	0.000382441	0.866898	0.868652
181	40    	0.867073	0.000526428	0.866898	0.868652
182	40    	0.867249	0.000701904	0.866898	0.868652
183	40    	0.867249	0.000701904	0.866898	0.868652
184	40    	0.867336	0.000759834	0.866898	0.868652
185	40    	0.867424	0.000804132	0.866898	0.868652
186	40    	0.867424	0.000804132	0.866898	0.868652
187	40    	0.867424	0.000804132	0.866898	0.868652
188	40    	0.867863	0.000872982	0.866898	0.868652
189	40    	0.868565	0.000673929	0.866898	0.870407
190	40    	0.86874 	0.000382441	0.868652	0.870407
191	40    	0.86874 	0.000382441	0.868652	0.870407
192	40    	0.868828	0.000526428	0.868652	0.870407
193	40    	0.868916	0.000626575	0.868652	0.870407
194	40    	0.868916	0.000626575	0.868652	0.870407
195	40    	0.869003	0.000701904	0.868652	0.870407
196	40    	0.869003	0.000701904	0.868652	0.870407
197	40    	0.869003	0.000701904	0.868652	0.870407
198	40    	0.869091	0.000759834	0.868652	0.870407
199	40    	0.869442	0.000872982	0.868652	0.870407
200	40    	0.869793	0.000836968	0.868652	0.870407
201	40    	0.870144	0.000626575	0.868652	0.870407
202	40    	0.870144	0.000626575	0.868652	0.870407
203	40    	0.870407	0          	0.870407	0.870407
204	40    	0.870407	0          	0.870407	0.870407
205	40    	0.870407	0          	0.870407	0.870407
206	40    	0.870407	0          	0.870407	0.870407
207	40    	0.870407	0          	0.870407	0.870407
208	40    	0.870494	0.000379116	0.870407	0.872147
209	40    	0.870494	0.000379116	0.870407	0.872147
210	40    	0.870494	0.000379116	0.870407	0.872147
211	40    	0.870581	0.000521851	0.870407	0.872147
212	40    	0.870581	0.000521851	0.870407	0.872147
213	40    	0.870581	0.000521851	0.870407	0.872147
214	40    	0.870581	0.000521851	0.870407	0.872147
215	40    	0.870842	0.000753226	0.870407	0.872147
216	40    	0.870842	0.000753226	0.870407	0.872147
217	40    	0.871364	0.000865391	0.870407	0.872147
218	40    	0.871364	0.000865391	0.870407	0.872147
219	40    	0.871712	0.000753226	0.870407	0.872147
220	40    	0.872147	0          	0.872147	0.872147
221	40    	0.872234	0.000382441	0.872147	0.873901
222	40    	0.872322	0.000526428	0.872147	0.873901
223	40    	0.872322	0.000526428	0.872147	0.873901
224	40    	0.872322	0.000526428	0.872147	0.873901
225	40    	0.872322	0.000526428	0.872147	0.873901
226	40    	0.87241 	0.000626575	0.872147	0.873901
227	40    	0.87241 	0.000626575	0.872147	0.873901
228	40    	0.872849	0.00116398 	0.872147	0.875656
229	40    	0.872849	0.00116398 	0.872147	0.875656
230	40    	0.872849	0.00116398 	0.872147	0.875656
231	40    	0.872849	0.00116398 	0.872147	0.875656
232	40    	0.87355 	0.00119014 	0.872147	0.875656
233	40    	0.874428	0.000977009	0.873901	0.877411
234	40    	0.874603	0.00102319 	0.873901	0.877411
235	40    	0.874603	0.00102319 	0.873901	0.877411
236	40    	0.874603	0.00102319 	0.873901	0.877411
237	40    	0.874603	0.00102319 	0.873901	0.877411
238	40    	0.874603	0.00102319 	0.873901	0.877411
239	40    	0.874954	0.00128948 	0.873901	0.877411
240	40    	0.874954	0.00128948 	0.873901	0.877411
241	40    	0.874954	0.00128948 	0.873901	0.877411
242	40    	0.875832	0.00122833 	0.873901	0.877411
243	40    	0.876007	0.00119014 	0.873901	0.877411
244	40    	0.876358	0.000859654	0.875656	0.877411
245	40    	0.876972	0.00109233 	0.875656	0.879166
246	40    	0.877411	0.000961122	0.875656	0.879166
247	40    	0.877411	0.000961122	0.875656	0.879166
248	40    	0.877674	0.000626575	0.877411	0.879166
249	40    	0.877674	0.000626575	0.877411	0.879166
250	40    	0.87785 	0.000759834	0.877411	0.879166
