gen	nevals	avg     	std       	min     	max     
0  	20    	0.596113	0.0352143 	0.540634	0.653717
1  	40    	0.61802 	0.0206636 	0.590103	0.653717
2  	40    	0.635336	0.0158654 	0.611313	0.674911
3  	40    	0.646289	0.015561  	0.632507	0.681976
4  	40    	0.654063	0.0131235 	0.639572	0.681976
5  	40    	0.659719	0.0110109 	0.646637	0.681976
6  	40    	0.666787	0.0107782 	0.653717	0.681976
7  	40    	0.679858	0.0120545 	0.667847	0.72438 
8  	40    	0.689045	0.0132228 	0.674911	0.72438 
9  	40    	0.692578	0.0121404 	0.681976	0.72438 
10 	40    	0.705301	0.012057  	0.689041	0.731445
11 	40    	0.71661 	0.0135731 	0.703186	0.752655
12 	40    	0.726855	0.0138259 	0.710251	0.752655
13 	40    	0.735336	0.0108307 	0.72438 	0.752655
14 	40    	0.748411	0.0119116 	0.731445	0.780914
15 	40    	0.753712	0.0107814 	0.73851 	0.780914
16 	40    	0.762193	0.0092856 	0.752655	0.780914
17 	40    	0.769258	0.00928772	0.75972 	0.795059
18 	40    	0.769258	0.00928772	0.75972 	0.795059
19 	40    	0.772084	0.00832391	0.75972 	0.795059
20 	40    	0.772084	0.00832391	0.75972 	0.795059
21 	40    	0.772084	0.00832391	0.75972 	0.795059
22 	40    	0.772791	0.00750396	0.766785	0.795059
23 	40    	0.780564	0.00879356	0.766785	0.795059
24 	40    	0.787632	0.00651082	0.780914	0.795059
25 	40    	0.787632	0.00651082	0.780914	0.795059
26 	40    	0.790813	0.00877336	0.780914	0.816254
27 	40    	0.797529	0.00783102	0.787979	0.816254
28 	40    	0.800005	0.00744325	0.795059	0.816254
29 	40    	0.804597	0.00901284	0.795059	0.823318
30 	40    	0.811662	0.00813989	0.802124	0.830383
31 	40    	0.818373	0.00673941	0.809189	0.830383
32 	40    	0.819433	0.00568488	0.809189	0.830383
33 	40    	0.821552	0.00493274	0.816254	0.830383
34 	40    	0.822259	0.00513112	0.816254	0.830383
35 	40    	0.822259	0.00513112	0.816254	0.830383
36 	40    	0.827913	0.00603036	0.823318	0.844528
37 	40    	0.831094	0.00738137	0.823318	0.851593
38 	40    	0.837103	0.00789665	0.830383	0.858658
39 	40    	0.841702	0.00565186	0.837463	0.858658
40 	40    	0.844175	0.00610811	0.837463	0.858658
41 	40    	0.848061	0.00523941	0.837463	0.858658
42 	40    	0.85124 	0.00416465	0.844528	0.858658
43 	40    	0.853359	0.00305916	0.851593	0.858658
44 	40    	0.853359	0.00305916	0.851593	0.858658
45 	40    	0.855479	0.0035147 	0.851593	0.858658
46 	40    	0.857598	0.0033697 	0.851593	0.865723
47 	40    	0.860777	0.00323751	0.858658	0.865723
48 	40    	0.862543	0.00416465	0.858658	0.872787
49 	40    	0.866782	0.00559639	0.858658	0.879852
50 	40    	0.870668	0.00452369	0.865723	0.879852
51 	40    	0.872081	0.00380452	0.865723	0.879852
52 	40    	0.873494	0.00211945	0.872787	0.879852
53 	40    	0.873494	0.00211945	0.872787	0.879852
54 	40    	0.875967	0.00416666	0.872787	0.886932
55 	40    	0.875967	0.00416666	0.872787	0.886932
56 	40    	0.875967	0.00416666	0.872787	0.886932
57 	40    	0.878088	0.00440088	0.872787	0.886932
58 	40    	0.880562	0.00380962	0.872787	0.886932
59 	40    	0.880562	0.00380962	0.872787	0.886932
60 	40    	0.881622	0.00306576	0.879852	0.886932
61 	40    	0.882684	0.00346852	0.879852	0.886932
62 	40    	0.882684	0.00346852	0.879852	0.886932
63 	40    	0.885162	0.00306576	0.879852	0.886932
64 	40    	0.886932	0         	0.886932	0.886932
65 	40    	0.886932	0         	0.886932	0.886932
66 	40    	0.886932	0         	0.886932	0.886932
67 	40    	0.886932	0         	0.886932	0.886932
68 	40    	0.886932	0         	0.886932	0.886932
69 	40    	0.886932	0         	0.886932	0.886932
70 	40    	0.886932	0         	0.886932	0.886932
71 	40    	0.886932	0         	0.886932	0.886932
72 	40    	0.886932	0         	0.886932	0.886932
73 	40    	0.886932	0         	0.886932	0.886932
74 	40    	0.886932	0         	0.886932	0.886932
75 	40    	0.886932	0         	0.886932	0.886932
76 	40    	0.886932	0         	0.886932	0.886932
77 	40    	0.886932	0         	0.886932	0.886932
78 	40    	0.886932	0         	0.886932	0.886932
79 	40    	0.887286	0.00153974	0.886932	0.893997
80 	40    	0.887286	0.00153974	0.886932	0.893997
81 	40    	0.887286	0.00153974	0.886932	0.893997
82 	40    	0.887286	0.00153974	0.886932	0.893997
83 	40    	0.887286	0.00153974	0.886932	0.893997
84 	40    	0.887286	0.00153974	0.886932	0.893997
85 	40    	0.887286	0.00153974	0.886932	0.893997
86 	40    	0.887992	0.00252265	0.886932	0.893997
87 	40    	0.889052	0.00323751	0.886932	0.893997
88 	40    	0.889758	0.00346104	0.886932	0.893997
89 	40    	0.890112	0.0035147 	0.886932	0.893997
90 	40    	0.890112	0.0035147 	0.886932	0.893997
91 	40    	0.890112	0.0035147 	0.886932	0.893997
92 	40    	0.890112	0.0035147 	0.886932	0.893997
93 	40    	0.890112	0.0035147 	0.886932	0.893997
94 	40    	0.890112	0.0035147 	0.886932	0.893997
95 	40    	0.891525	0.0033697 	0.886932	0.893997
96 	40    	0.892937	0.0033697 	0.886932	0.901062
97 	40    	0.894704	0.00211945	0.893997	0.901062
98 	40    	0.895057	0.00252265	0.893997	0.901062
99 	40    	0.895057	0.00252265	0.893997	0.901062
100	40    	0.895057	0.00252265	0.893997	0.901062
101	40    	0.895057	0.00252265	0.893997	0.901062
102	40    	0.896117	0.00323751	0.893997	0.901062
103	40    	0.896117	0.00323751	0.893997	0.901062
104	40    	0.896823	0.00346104	0.893997	0.901062
105	40    	0.896823	0.00346104	0.893997	0.901062
106	40    	0.897176	0.0035147 	0.893997	0.901062
107	40    	0.897883	0.0035147 	0.893997	0.901062
108	40    	0.897883	0.0035147 	0.893997	0.901062
109	40    	0.898943	0.00323751	0.893997	0.901062
110	40    	0.898943	0.00323751	0.893997	0.901062
111	40    	0.898943	0.00323751	0.893997	0.901062
112	40    	0.901062	0         	0.901062	0.901062
113	40    	0.901062	0         	0.901062	0.901062
114	40    	0.901062	0         	0.901062	0.901062
115	40    	0.901062	0         	0.901062	0.901062
116	40    	0.901062	0         	0.901062	0.901062
117	40    	0.901062	0         	0.901062	0.901062
118	40    	0.901062	0         	0.901062	0.901062
119	40    	0.901062	0         	0.901062	0.901062
120	40    	0.901062	0         	0.901062	0.901062
121	40    	0.901062	0         	0.901062	0.901062
122	40    	0.901062	0         	0.901062	0.901062
123	40    	0.901062	0         	0.901062	0.901062
124	40    	0.901062	0         	0.901062	0.901062
125	40    	0.901062	0         	0.901062	0.901062
126	40    	0.901062	0         	0.901062	0.901062
127	40    	0.901062	0         	0.901062	0.901062
128	40    	0.901062	0         	0.901062	0.901062
129	40    	0.901062	0         	0.901062	0.901062
130	40    	0.901062	0         	0.901062	0.901062
131	40    	0.901062	0         	0.901062	0.901062
132	40    	0.901062	0         	0.901062	0.901062
133	40    	0.901062	0         	0.901062	0.901062
134	40    	0.901062	0         	0.901062	0.901062
135	40    	0.901062	0         	0.901062	0.901062
136	40    	0.901062	0         	0.901062	0.901062
137	40    	0.901062	0         	0.901062	0.901062
138	40    	0.901062	0         	0.901062	0.901062
139	40    	0.901062	0         	0.901062	0.901062
140	40    	0.901062	0         	0.901062	0.901062
141	40    	0.901062	0         	0.901062	0.901062
142	40    	0.901062	0         	0.901062	0.901062
143	40    	0.901062	0         	0.901062	0.901062
144	40    	0.901062	0         	0.901062	0.901062
145	40    	0.901062	0         	0.901062	0.901062
146	40    	0.901062	0         	0.901062	0.901062
147	40    	0.901062	0         	0.901062	0.901062
148	40    	0.901062	0         	0.901062	0.901062
149	40    	0.901062	0         	0.901062	0.901062
150	40    	0.901062	0         	0.901062	0.901062
151	40    	0.901062	0         	0.901062	0.901062
152	40    	0.901062	0         	0.901062	0.901062
153	40    	0.901062	0         	0.901062	0.901062
154	40    	0.901062	0         	0.901062	0.901062
155	40    	0.901415	0.00153974	0.901062	0.908127
156	40    	0.901415	0.00153974	0.901062	0.908127
157	40    	0.901768	0.00211945	0.901062	0.908127
158	40    	0.901768	0.00211945	0.901062	0.908127
159	40    	0.901768	0.00211945	0.901062	0.908127
160	40    	0.901768	0.00211945	0.901062	0.908127
161	40    	0.902122	0.00252265	0.901062	0.908127
162	40    	0.902475	0.00282593	0.901062	0.908127
163	40    	0.903181	0.00323751	0.901062	0.908127
164	40    	0.903181	0.00323751	0.901062	0.908127
165	40    	0.904241	0.00416465	0.901062	0.915192
166	40    	0.904241	0.00416465	0.901062	0.915192
167	40    	0.906361	0.00439781	0.901062	0.915192
168	40    	0.906361	0.00439781	0.901062	0.915192
169	40    	0.907067	0.00404303	0.901062	0.915192
170	40    	0.9106  	0.00404303	0.908127	0.922256
171	40    	0.9106  	0.00404303	0.908127	0.922256
172	40    	0.9106  	0.00404303	0.908127	0.922256
173	40    	0.910953	0.00411946	0.908127	0.922256
174	40    	0.910953	0.00411946	0.908127	0.922256
175	40    	0.912366	0.00411946	0.908127	0.922256
176	40    	0.915192	0.00386956	0.908127	0.922256
177	40    	0.915192	0.00386956	0.908127	0.922256
178	40    	0.916251	0.0033697 	0.908127	0.922256
179	40    	0.916251	0.0033697 	0.908127	0.922256
180	40    	0.917311	0.00323751	0.915192	0.922256
181	40    	0.917311	0.00323751	0.915192	0.922256
182	40    	0.918371	0.0035147 	0.915192	0.922256
183	40    	0.918371	0.0035147 	0.915192	0.922256
184	40    	0.918371	0.0035147 	0.915192	0.922256
185	40    	0.918371	0.0035147 	0.915192	0.922256
186	40    	0.919077	0.0035147 	0.915192	0.922256
187	40    	0.921197	0.00252265	0.915192	0.922256
188	40    	0.921197	0.00252265	0.915192	0.922256
189	40    	0.92155 	0.00211945	0.915192	0.922256
190	40    	0.922256	0         	0.922256	0.922256
191	40    	0.922256	0         	0.922256	0.922256
192	40    	0.922256	0         	0.922256	0.922256
193	40    	0.922256	0         	0.922256	0.922256
194	40    	0.922256	0         	0.922256	0.922256
195	40    	0.922256	0         	0.922256	0.922256
196	40    	0.922256	0         	0.922256	0.922256
197	40    	0.922256	0         	0.922256	0.922256
198	40    	0.922256	0         	0.922256	0.922256
199	40    	0.922256	0         	0.922256	0.922256
200	40    	0.922256	0         	0.922256	0.922256
201	40    	0.922256	0         	0.922256	0.922256
202	40    	0.922256	0         	0.922256	0.922256
203	40    	0.922256	0         	0.922256	0.922256
204	40    	0.922256	0         	0.922256	0.922256
205	40    	0.922256	0         	0.922256	0.922256
206	40    	0.922256	0         	0.922256	0.922256
207	40    	0.922256	0         	0.922256	0.922256
208	40    	0.922256	0         	0.922256	0.922256
209	40    	0.922256	0         	0.922256	0.922256
210	40    	0.922256	0         	0.922256	0.922256
211	40    	0.922256	0         	0.922256	0.922256
212	40    	0.92261 	0.00153974	0.922256	0.929321
213	40    	0.92261 	0.00153974	0.922256	0.929321
214	40    	0.922963	0.00211945	0.922256	0.929321
215	40    	0.922963	0.00211945	0.922256	0.929321
216	40    	0.922963	0.00211945	0.922256	0.929321
217	40    	0.923316	0.00252265	0.922256	0.929321
218	40    	0.923316	0.00252265	0.922256	0.929321
219	40    	0.923316	0.00252265	0.922256	0.929321
220	40    	0.923316	0.00252265	0.922256	0.929321
221	40    	0.923669	0.00282593	0.922256	0.929321
222	40    	0.923669	0.00282593	0.922256	0.929321
223	40    	0.924376	0.00323751	0.922256	0.929321
224	40    	0.924376	0.00323751	0.922256	0.929321
225	40    	0.924376	0.00323751	0.922256	0.929321
226	40    	0.925789	0.00353241	0.922256	0.929321
227	40    	0.925789	0.00353241	0.922256	0.929321
228	40    	0.925789	0.00353241	0.922256	0.929321
229	40    	0.925789	0.00353241	0.922256	0.929321
230	40    	0.927202	0.00323751	0.922256	0.929321
231	40    	0.927202	0.00323751	0.922256	0.929321
232	40    	0.928262	0.00252265	0.922256	0.929321
233	40    	0.929321	0         	0.929321	0.929321
234	40    	0.929321	0         	0.929321	0.929321
235	40    	0.929321	0         	0.929321	0.929321
236	40    	0.929321	0         	0.929321	0.929321
237	40    	0.929321	0         	0.929321	0.929321
238	40    	0.929321	0         	0.929321	0.929321
239	40    	0.929321	0         	0.929321	0.929321
240	40    	0.929321	0         	0.929321	0.929321
241	40    	0.929321	0         	0.929321	0.929321
242	40    	0.929321	0         	0.929321	0.929321
243	40    	0.929321	0         	0.929321	0.929321
244	40    	0.929321	0         	0.929321	0.929321
245	40    	0.929321	0         	0.929321	0.929321
246	40    	0.929321	0         	0.929321	0.929321
247	40    	0.929321	0         	0.929321	0.929321
248	40    	0.929321	0         	0.929321	0.929321
249	40    	0.929321	0         	0.929321	0.929321
250	40    	0.929321	0         	0.929321	0.929321
