gen	nevals	avg     	std       	min     	max     
0  	20    	0.582144	0.0378136 	0.5     	0.654755
1  	40    	0.613096	0.0236573 	0.583328	0.654755
2  	40    	0.631547	0.017032  	0.607147	0.666672
3  	40    	0.645235	0.0174964 	0.619049	0.690475
4  	40    	0.658331	0.014139  	0.642853	0.690475
5  	40    	0.660117	0.0132998 	0.642853	0.690475
6  	40    	0.673215	0.0170361 	0.654755	0.726196
7  	40    	0.684525	0.0178546 	0.666672	0.726196
8  	40    	0.691072	0.0170336 	0.666672	0.726196
9  	40    	0.701189	0.0198843 	0.678574	0.761902
10 	40    	0.710712	0.0213297 	0.690475	0.761902
11 	40    	0.720236	0.0230541 	0.690475	0.773804
12 	40    	0.735714	0.0174968 	0.714279	0.773804
13 	40    	0.74881 	0.0150077 	0.726196	0.773804
14 	40    	0.760117	0.0147111 	0.738098	0.785721
15 	40    	0.77083 	0.00912608	0.761902	0.797623
16 	40    	0.77083 	0.00912608	0.761902	0.797623
17 	40    	0.777973	0.00778797	0.773804	0.797623
18 	40    	0.782736	0.012976  	0.773804	0.821426
19 	40    	0.794646	0.014998  	0.773804	0.833328
20 	40    	0.804169	0.0152766 	0.785721	0.833328
21 	40    	0.804169	0.0152766 	0.785721	0.833328
22 	40    	0.804169	0.0152766 	0.785721	0.833328
23 	40    	0.814286	0.0165793 	0.797623	0.857147
24 	40    	0.821428	0.0150578 	0.797623	0.857147
25 	40    	0.825594	0.0137169 	0.809525	0.857147
26 	40    	0.835713	0.0103817 	0.821426	0.857147
27 	40    	0.844048	0.0145337 	0.833328	0.892853
28 	40    	0.854765	0.01867   	0.833328	0.904755
29 	40    	0.868454	0.019728  	0.845245	0.904755
30 	40    	0.879166	0.0156431 	0.857147	0.904755
31 	40    	0.890472	0.0103758 	0.869049	0.904755
32 	40    	0.891068	0.00942804	0.869049	0.904755
33 	40    	0.895829	0.00831193	0.880951	0.916672
34 	40    	0.898805	0.00798742	0.892853	0.916672
35 	40    	0.898805	0.00798742	0.892853	0.916672
36 	40    	0.902376	0.00714417	0.892853	0.916672
37 	40    	0.902376	0.00714417	0.892853	0.916672
38 	40    	0.907138	0.00476685	0.904755	0.916672
39 	40    	0.908926	0.0056841 	0.904755	0.916672
40 	40    	0.910713	0.00595856	0.904755	0.916672
41 	40    	0.910713	0.00595856	0.904755	0.916672
42 	40    	0.915479	0.00519263	0.904755	0.928574
43 	40    	0.917862	0.00357056	0.916672	0.928574
44 	40    	0.917862	0.00357056	0.916672	0.928574
45 	40    	0.917862	0.00357056	0.916672	0.928574
46 	40    	0.917862	0.00357056	0.916672	0.928574
47 	40    	0.919647	0.00515365	0.916672	0.928574
48 	40    	0.919647	0.00515365	0.916672	0.928574
49 	40    	0.922028	0.0059211 	0.916672	0.928574
50 	40    	0.923218	0.0059211 	0.916672	0.928574
51 	40    	0.927383	0.00357056	0.916672	0.928574
52 	40    	0.928574	0         	0.928574	0.928574
53 	40    	0.928574	0         	0.928574	0.928574
54 	40    	0.928574	0         	0.928574	0.928574
55 	40    	0.928574	0         	0.928574	0.928574
56 	40    	0.928574	0         	0.928574	0.928574
57 	40    	0.928574	0         	0.928574	0.928574
58 	40    	0.928574	0         	0.928574	0.928574
59 	40    	0.928574	0         	0.928574	0.928574
60 	40    	0.928574	0         	0.928574	0.928574
61 	40    	0.929169	0.00259395	0.928574	0.940475
62 	40    	0.929169	0.00259395	0.928574	0.940475
63 	40    	0.929169	0.00259395	0.928574	0.940475
64 	40    	0.929169	0.00259395	0.928574	0.940475
65 	40    	0.929169	0.00259395	0.928574	0.940475
66 	40    	0.929169	0.00259395	0.928574	0.940475
67 	40    	0.929169	0.00259395	0.928574	0.940475
68 	40    	0.929764	0.00357056	0.928574	0.940475
69 	40    	0.931549	0.00515365	0.928574	0.940475
70 	40    	0.931549	0.00515365	0.928574	0.940475
71 	40    	0.931549	0.00515365	0.928574	0.940475
72 	40    	0.931549	0.00515365	0.928574	0.940475
73 	40    	0.931549	0.00515365	0.928574	0.940475
74 	40    	0.931549	0.00515365	0.928574	0.940475
75 	40    	0.932144	0.00545412	0.928574	0.940475
76 	40    	0.933334	0.00583069	0.928574	0.940475
77 	40    	0.933334	0.00583069	0.928574	0.940475
78 	40    	0.933334	0.00583069	0.928574	0.940475
79 	40    	0.93512 	0.0059211 	0.928574	0.940475
80 	40    	0.936905	0.00545412	0.928574	0.940475
81 	40    	0.940475	0         	0.940475	0.940475
82 	40    	0.940475	0         	0.940475	0.940475
83 	40    	0.940475	0         	0.940475	0.940475
84 	40    	0.940475	0         	0.940475	0.940475
85 	40    	0.940475	0         	0.940475	0.940475
86 	40    	0.940475	0         	0.940475	0.940475
87 	40    	0.942261	0.00424981	0.940475	0.952377
88 	40    	0.943451	0.00515365	0.940475	0.952377
89 	40    	0.943451	0.00515365	0.940475	0.952377
90 	40    	0.944046	0.00545412	0.940475	0.952377
91 	40    	0.944046	0.00545412	0.940475	0.952377
92 	40    	0.944046	0.00545412	0.940475	0.952377
93 	40    	0.945831	0.0059211 	0.940475	0.952377
94 	40    	0.947021	0.0059211 	0.940475	0.952377
95 	40    	0.947021	0.0059211 	0.940475	0.952377
96 	40    	0.948807	0.00662667	0.940475	0.964279
97 	40    	0.952972	0.00259395	0.952377	0.964279
98 	40    	0.952972	0.00259395	0.952377	0.964279
99 	40    	0.953568	0.00357056	0.952377	0.964279
100	40    	0.955353	0.00515365	0.952377	0.964279
101	40    	0.956543	0.00567682	0.952377	0.964279
102	40    	0.956543	0.00567682	0.952377	0.964279
103	40    	0.956543	0.00567682	0.952377	0.964279
104	40    	0.956543	0.00567682	0.952377	0.964279
105	40    	0.957733	0.0059211 	0.952377	0.964279
106	40    	0.957733	0.0059211 	0.952377	0.964279
107	40    	0.958328	0.00595093	0.952377	0.964279
108	40    	0.960709	0.00545412	0.952377	0.964279
109	40    	0.963089	0.00357056	0.952377	0.964279
110	40    	0.964279	0         	0.964279	0.964279
111	40    	0.964279	0         	0.964279	0.964279
112	40    	0.964279	0         	0.964279	0.964279
113	40    	0.964279	0         	0.964279	0.964279
114	40    	0.964279	0         	0.964279	0.964279
115	40    	0.964279	0         	0.964279	0.964279
116	40    	0.964279	0         	0.964279	0.964279
117	40    	0.964279	0         	0.964279	0.964279
118	40    	0.964279	0         	0.964279	0.964279
119	40    	0.964279	0         	0.964279	0.964279
120	40    	0.964279	0         	0.964279	0.964279
121	40    	0.964279	0         	0.964279	0.964279
122	40    	0.964279	0         	0.964279	0.964279
123	40    	0.964279	0         	0.964279	0.964279
124	40    	0.964279	0         	0.964279	0.964279
125	40    	0.964279	0         	0.964279	0.964279
126	40    	0.964279	0         	0.964279	0.964279
127	40    	0.964279	0         	0.964279	0.964279
128	40    	0.964279	0         	0.964279	0.964279
129	40    	0.964279	0         	0.964279	0.964279
130	40    	0.964279	0         	0.964279	0.964279
131	40    	0.964279	0         	0.964279	0.964279
132	40    	0.964279	0         	0.964279	0.964279
133	40    	0.964279	0         	0.964279	0.964279
134	40    	0.964279	0         	0.964279	0.964279
135	40    	0.964279	0         	0.964279	0.964279
136	40    	0.964279	0         	0.964279	0.964279
137	40    	0.964279	0         	0.964279	0.964279
138	40    	0.964279	0         	0.964279	0.964279
139	40    	0.964279	0         	0.964279	0.964279
140	40    	0.964279	0         	0.964279	0.964279
141	40    	0.964279	0         	0.964279	0.964279
142	40    	0.964279	0         	0.964279	0.964279
143	40    	0.964279	0         	0.964279	0.964279
144	40    	0.964279	0         	0.964279	0.964279
145	40    	0.964279	0         	0.964279	0.964279
146	40    	0.964279	0         	0.964279	0.964279
147	40    	0.964279	0         	0.964279	0.964279
148	40    	0.964279	0         	0.964279	0.964279
149	40    	0.964279	0         	0.964279	0.964279
150	40    	0.964279	0         	0.964279	0.964279
151	40    	0.964279	0         	0.964279	0.964279
152	40    	0.964279	0         	0.964279	0.964279
153	40    	0.964279	0         	0.964279	0.964279
154	40    	0.964279	0         	0.964279	0.964279
155	40    	0.964279	0         	0.964279	0.964279
156	40    	0.964279	0         	0.964279	0.964279
157	40    	0.964279	0         	0.964279	0.964279
158	40    	0.964279	0         	0.964279	0.964279
159	40    	0.964279	0         	0.964279	0.964279
160	40    	0.964279	0         	0.964279	0.964279
161	40    	0.964279	0         	0.964279	0.964279
162	40    	0.964279	0         	0.964279	0.964279
163	40    	0.964279	0         	0.964279	0.964279
164	40    	0.964279	0         	0.964279	0.964279
165	40    	0.964279	0         	0.964279	0.964279
166	40    	0.964279	0         	0.964279	0.964279
167	40    	0.964279	0         	0.964279	0.964279
168	40    	0.964279	0         	0.964279	0.964279
169	40    	0.964279	0         	0.964279	0.964279
170	40    	0.964279	0         	0.964279	0.964279
171	40    	0.964279	0         	0.964279	0.964279
172	40    	0.964279	0         	0.964279	0.964279
173	40    	0.964279	0         	0.964279	0.964279
174	40    	0.964279	0         	0.964279	0.964279
175	40    	0.964279	0         	0.964279	0.964279
176	40    	0.964279	0         	0.964279	0.964279
177	40    	0.964279	0         	0.964279	0.964279
178	40    	0.964279	0         	0.964279	0.964279
179	40    	0.964279	0         	0.964279	0.964279
180	40    	0.964279	0         	0.964279	0.964279
181	40    	0.964279	0         	0.964279	0.964279
182	40    	0.964279	0         	0.964279	0.964279
183	40    	0.964279	0         	0.964279	0.964279
184	40    	0.964279	0         	0.964279	0.964279
185	40    	0.964279	0         	0.964279	0.964279
186	40    	0.964279	0         	0.964279	0.964279
187	40    	0.964279	0         	0.964279	0.964279
188	40    	0.964279	0         	0.964279	0.964279
189	40    	0.964279	0         	0.964279	0.964279
190	40    	0.964279	0         	0.964279	0.964279
191	40    	0.964279	0         	0.964279	0.964279
192	40    	0.964279	0         	0.964279	0.964279
193	40    	0.964279	0         	0.964279	0.964279
194	40    	0.964279	0         	0.964279	0.964279
195	40    	0.964279	0         	0.964279	0.964279
196	40    	0.964279	0         	0.964279	0.964279
197	40    	0.964279	0         	0.964279	0.964279
198	40    	0.964279	0         	0.964279	0.964279
199	40    	0.964279	0         	0.964279	0.964279
200	40    	0.964279	0         	0.964279	0.964279
201	40    	0.964279	0         	0.964279	0.964279
202	40    	0.964279	0         	0.964279	0.964279
203	40    	0.964279	0         	0.964279	0.964279
204	40    	0.964279	0         	0.964279	0.964279
205	40    	0.964279	0         	0.964279	0.964279
206	40    	0.964279	0         	0.964279	0.964279
207	40    	0.964279	0         	0.964279	0.964279
208	40    	0.964279	0         	0.964279	0.964279
209	40    	0.964279	0         	0.964279	0.964279
210	40    	0.964279	0         	0.964279	0.964279
211	40    	0.964279	0         	0.964279	0.964279
212	40    	0.964279	0         	0.964279	0.964279
213	40    	0.964279	0         	0.964279	0.964279
214	40    	0.964279	0         	0.964279	0.964279
215	40    	0.964279	0         	0.964279	0.964279
216	40    	0.964279	0         	0.964279	0.964279
217	40    	0.964279	0         	0.964279	0.964279
218	40    	0.964279	0         	0.964279	0.964279
219	40    	0.964279	0         	0.964279	0.964279
220	40    	0.964279	0         	0.964279	0.964279
221	40    	0.964279	0         	0.964279	0.964279
222	40    	0.964279	0         	0.964279	0.964279
223	40    	0.964279	0         	0.964279	0.964279
224	40    	0.964279	0         	0.964279	0.964279
225	40    	0.964279	0         	0.964279	0.964279
226	40    	0.964279	0         	0.964279	0.964279
227	40    	0.964279	0         	0.964279	0.964279
228	40    	0.964279	0         	0.964279	0.964279
229	40    	0.964279	0         	0.964279	0.964279
230	40    	0.964279	0         	0.964279	0.964279
231	40    	0.964279	0         	0.964279	0.964279
232	40    	0.964279	0         	0.964279	0.964279
233	40    	0.964279	0         	0.964279	0.964279
234	40    	0.964279	0         	0.964279	0.964279
235	40    	0.964279	0         	0.964279	0.964279
236	40    	0.964279	0         	0.964279	0.964279
237	40    	0.964279	0         	0.964279	0.964279
238	40    	0.964279	0         	0.964279	0.964279
239	40    	0.964279	0         	0.964279	0.964279
240	40    	0.964279	0         	0.964279	0.964279
241	40    	0.964279	0         	0.964279	0.964279
242	40    	0.964279	0         	0.964279	0.964279
243	40    	0.964279	0         	0.964279	0.964279
244	40    	0.964279	0         	0.964279	0.964279
245	40    	0.964279	0         	0.964279	0.964279
246	40    	0.964279	0         	0.964279	0.964279
247	40    	0.964279	0         	0.964279	0.964279
248	40    	0.964279	0         	0.964279	0.964279
249	40    	0.964279	0         	0.964279	0.964279
250	40    	0.964279	0         	0.964279	0.964279
