gen	nevals	avg     	std        	min     	max     
0  	20    	0.590633	0.0177767  	0.554749	0.637466
1  	40    	0.602189	0.0113717  	0.588806	0.637466
2  	40    	0.612164	0.0092461  	0.598541	0.637466
3  	40    	0.619952	0.0087591  	0.610703	0.644775
4  	40    	0.623722	0.00874859 	0.61557 	0.644775
5  	40    	0.630898	0.00853662 	0.618011	0.649628
6  	40    	0.639415	0.00879225 	0.630173	0.66423 
7  	40    	0.647445	0.0107129  	0.637466	0.678833
8  	40    	0.654499	0.0108259  	0.644775	0.686127
9  	40    	0.661798	0.0114914  	0.649628	0.686127
10 	40    	0.668735	0.00989126 	0.654495	0.686127
11 	40    	0.676886	0.00885949 	0.66423 	0.695862
12 	40    	0.683088	0.0090689  	0.673965	0.715332
13 	40    	0.690268	0.00874245 	0.681259	0.715332
14 	40    	0.695013	0.0077047  	0.686127	0.715332
15 	40    	0.698906	0.00633903 	0.690994	0.715332
16 	40    	0.704138	0.00607719 	0.698303	0.7202  
17 	40    	0.709367	0.0055231  	0.703156	0.725067
18 	40    	0.713869	0.00572785 	0.708023	0.727493
19 	40    	0.717153	0.00554273 	0.710464	0.727493
20 	40    	0.717153	0.00554273 	0.710464	0.727493
21 	40    	0.719222	0.0041735  	0.712891	0.727493
22 	40    	0.720074	0.00451776 	0.712891	0.729919
23 	40    	0.722507	0.0031219  	0.717758	0.729919
24 	40    	0.725668	0.00306457 	0.722626	0.732361
25 	40    	0.727617	0.00260309 	0.725067	0.732361
26 	40    	0.730533	0.0032544  	0.727493	0.737228
27 	40    	0.730533	0.0032544  	0.727493	0.737228
28 	40    	0.733817	0.00410265 	0.729919	0.744522
29 	40    	0.733817	0.00410265 	0.729919	0.744522
30 	40    	0.738321	0.00471105 	0.732361	0.746964
31 	40    	0.742336	0.0044804  	0.737228	0.751831
32 	40    	0.745379	0.0030081  	0.742096	0.751831
33 	40    	0.749393	0.00486679 	0.744522	0.761551
34 	40    	0.750977	0.00430117 	0.746964	0.761551
35 	40    	0.751828	0.00428251 	0.746964	0.761551
36 	40    	0.756206	0.00365542 	0.751831	0.763992
37 	40    	0.757787	0.00330625 	0.754257	0.763992
38 	40    	0.757787	0.00330625 	0.754257	0.763992
39 	40    	0.761436	0.00380358 	0.756699	0.76886 
40 	40    	0.762529	0.00338745 	0.756699	0.76886 
41 	40    	0.764353	0.00258451 	0.759125	0.76886 
42 	40    	0.765084	0.00195795 	0.761551	0.76886 
43 	40    	0.766908	0.00165112 	0.763992	0.771286
44 	40    	0.768368	0.00225831 	0.766418	0.773727
45 	40    	0.770074	0.00210772 	0.766418	0.773727
46 	40    	0.77275 	0.00372296 	0.76886 	0.783463
47 	40    	0.774818	0.00403504 	0.771286	0.783463
48 	40    	0.778956	0.00423222 	0.773727	0.788315
49 	40    	0.781876	0.00300628 	0.776154	0.788315
50 	40    	0.781876	0.00300628 	0.776154	0.788315
51 	40    	0.78443 	0.00235665 	0.781021	0.788315
52 	40    	0.787104	0.0028232  	0.783463	0.793182
53 	40    	0.789656	0.00292723 	0.785889	0.79805 
54 	40    	0.789899	0.00269636 	0.785889	0.79805 
55 	40    	0.790264	0.00250617 	0.788315	0.79805 
56 	40    	0.791726	0.00302024 	0.788315	0.79805 
57 	40    	0.793309	0.00271639 	0.790756	0.79805 
58 	40    	0.793309	0.00271639 	0.790756	0.79805 
59 	40    	0.793674	0.0026197  	0.790756	0.79805 
60 	40    	0.795377	0.00306924 	0.790756	0.800491
61 	40    	0.795377	0.00306924 	0.790756	0.800491
62 	40    	0.798177	0.00260719 	0.795624	0.805359
63 	40    	0.8     	0.0021233  	0.79805 	0.805359
64 	40    	0.8     	0.0021233  	0.79805 	0.805359
65 	40    	0.801583	0.00223931 	0.79805 	0.807785
66 	40    	0.803043	0.00236764 	0.800491	0.807785
67 	40    	0.804259	0.00195895 	0.800491	0.807785
68 	40    	0.806208	0.00192572 	0.802917	0.812653
69 	40    	0.808276	0.00261914 	0.805359	0.815079
70 	40    	0.808276	0.00261914 	0.805359	0.815079
71 	40    	0.80864 	0.00234253 	0.805359	0.815079
72 	40    	0.809856	0.00207544 	0.807785	0.815079
73 	40    	0.810222	0.00203534 	0.807785	0.815079
74 	40    	0.812048	0.00286332 	0.810226	0.822388
75 	40    	0.813747	0.00292542 	0.810226	0.822388
76 	40    	0.815691	0.00316106 	0.812653	0.822388
77 	40    	0.818002	0.00313712 	0.815079	0.824814
78 	40    	0.820559	0.00253665 	0.81752 	0.824814
79 	40    	0.82068 	0.00244478 	0.81752 	0.824814
80 	40    	0.82068 	0.00244478 	0.81752 	0.824814
81 	40    	0.823235	0.00310391 	0.819946	0.834549
82 	40    	0.82506 	0.00306803 	0.822388	0.834549
83 	40    	0.82725 	0.00352846 	0.824814	0.83699 
84 	40    	0.82725 	0.00352846 	0.824814	0.83699 
85 	40    	0.828467	0.00396261 	0.824814	0.83699 
86 	40    	0.828467	0.00396261 	0.824814	0.83699 
87 	40    	0.828467	0.00396261 	0.824814	0.83699 
88 	40    	0.831632	0.00349153 	0.827255	0.83699 
89 	40    	0.831632	0.00349153 	0.827255	0.83699 
90 	40    	0.832119	0.00352583 	0.827255	0.83699 
91 	40    	0.834309	0.00242189 	0.829681	0.839417
92 	40    	0.836254	0.00256458 	0.834549	0.844284
93 	40    	0.836497	0.00262154 	0.834549	0.844284
94 	40    	0.838931	0.00322659 	0.834549	0.844284
95 	40    	0.840997	0.0031962  	0.83699 	0.851578
96 	40    	0.840997	0.0031962  	0.83699 	0.851578
97 	40    	0.842211	0.00290644 	0.839417	0.851578
98 	40    	0.843184	0.00292849 	0.839417	0.851578
99 	40    	0.843549	0.00267847 	0.841843	0.851578
100	40    	0.845254	0.00281664 	0.841843	0.851578
101	40    	0.845254	0.00281664 	0.841843	0.851578
102	40    	0.845254	0.00281664 	0.841843	0.851578
103	40    	0.845254	0.00281664 	0.841843	0.851578
104	40    	0.8472  	0.00283707 	0.844284	0.854019
105	40    	0.8472  	0.00283707 	0.844284	0.854019
106	40    	0.849023	0.00249171 	0.84671 	0.854019
107	40    	0.849512	0.00221434 	0.84671 	0.854019
108	40    	0.850852	0.00173679 	0.849152	0.854019
109	40    	0.852311	0.00135754 	0.849152	0.854019
110	40    	0.852432	0.00116448 	0.851578	0.854019
111	40    	0.85292 	0.00143731 	0.851578	0.856445
112	40    	0.85292 	0.00143731 	0.851578	0.856445
113	40    	0.853773	0.00152063 	0.851578	0.856445
114	40    	0.855112	0.00179782 	0.854019	0.861313
115	40    	0.855112	0.00179782 	0.854019	0.861313
116	40    	0.855233	0.00180185 	0.854019	0.861313
117	40    	0.856205	0.00216096 	0.854019	0.861313
118	40    	0.856205	0.00216096 	0.854019	0.861313
119	40    	0.857055	0.00169943 	0.854019	0.861313
120	40    	0.857907	0.00194779 	0.856445	0.861313
121	40    	0.858029	0.00192876 	0.856445	0.861313
122	40    	0.858029	0.00192876 	0.856445	0.861313
123	40    	0.858029	0.00192876 	0.856445	0.861313
124	40    	0.858029	0.00192876 	0.856445	0.861313
125	40    	0.859004	0.0018006  	0.856445	0.861313
126	40    	0.859004	0.0018006  	0.856445	0.861313
127	40    	0.859734	0.00158945 	0.856445	0.861313
128	40    	0.859856	0.00141651 	0.856445	0.861313
129	40    	0.860221	0.00120699 	0.858887	0.861313
130	40    	0.860221	0.00120699 	0.858887	0.861313
131	40    	0.860464	0.0011572  	0.858887	0.861313
132	40    	0.861192	0.000933869	0.858887	0.863754
133	40    	0.861557	0.000732422	0.861313	0.863754
134	40    	0.862165	0.00192727 	0.861313	0.868607
135	40    	0.862287	0.00194664 	0.861313	0.868607
136	40    	0.863018	0.00219006 	0.861313	0.868607
137	40    	0.863018	0.00219006 	0.861313	0.868607
138	40    	0.863749	0.00230728 	0.861313	0.868607
139	40    	0.863749	0.00230728 	0.861313	0.868607
140	40    	0.865211	0.00208918 	0.863754	0.871048
141	40    	0.865696	0.00211699 	0.863754	0.871048
142	40    	0.865696	0.00211699 	0.863754	0.871048
143	40    	0.866303	0.00223674 	0.863754	0.871048
144	40    	0.868003	0.00186459 	0.86618 	0.871048
145	40    	0.869096	0.0014618  	0.86618 	0.871048
146	40    	0.870679	0.00269839 	0.868607	0.880783
147	40    	0.872385	0.00302751 	0.868607	0.880783
148	40    	0.8736  	0.00302711 	0.871048	0.880783
149	40    	0.874451	0.00292079 	0.871048	0.880783
150	40    	0.874451	0.00292079 	0.871048	0.880783
151	40    	0.876033	0.00260907 	0.873474	0.880783
152	40    	0.877616	0.002564   	0.873474	0.883209
153	40    	0.877616	0.002564   	0.873474	0.883209
154	40    	0.878954	0.00241727 	0.875916	0.883209
155	40    	0.879561	0.00196265 	0.875916	0.883209
156	40    	0.879561	0.00196265 	0.875916	0.883209
157	40    	0.879804	0.0017897  	0.878342	0.883209
158	40    	0.879804	0.0017897  	0.878342	0.883209
159	40    	0.880659	0.00143512 	0.878342	0.883209
160	40    	0.880659	0.00143512 	0.878342	0.883209
161	40    	0.881633	0.00139063 	0.880783	0.885651
162	40    	0.882484	0.00189996 	0.880783	0.885651
163	40    	0.882484	0.00189996 	0.880783	0.885651
164	40    	0.882484	0.00189996 	0.880783	0.885651
165	40    	0.882848	0.00176693 	0.880783	0.885651
166	40    	0.882848	0.00176693 	0.880783	0.885651
167	40    	0.884064	0.00116448 	0.883209	0.885651
168	40    	0.884064	0.00116448 	0.883209	0.885651
169	40    	0.884064	0.00116448 	0.883209	0.885651
170	40    	0.884673	0.00142174 	0.883209	0.888077
171	40    	0.885892	0.00130964 	0.883209	0.888077
172	40    	0.886136	0.000970459	0.885651	0.888077
173	40    	0.8865  	0.0011572  	0.885651	0.888077
174	40    	0.886621	0.00118856 	0.885651	0.888077
175	40    	0.886621	0.00118856 	0.885651	0.888077
176	40    	0.886986	0.00143207 	0.885651	0.890518
177	40    	0.886986	0.00143207 	0.885651	0.890518
178	40    	0.887836	0.00130964 	0.885651	0.890518
179	40    	0.888565	0.000976562	0.888077	0.890518
180	40    	0.889175	0.00143718 	0.888077	0.892944
181	40    	0.889175	0.00143718 	0.888077	0.892944
182	40    	0.889175	0.00143718 	0.888077	0.892944
183	40    	0.889297	0.00144242 	0.888077	0.892944
184	40    	0.89015 	0.0013941  	0.888077	0.892944
185	40    	0.891367	0.0015863  	0.890518	0.89537 
186	40    	0.891974	0.00178285 	0.890518	0.89537 
187	40    	0.89258 	0.00176209 	0.890518	0.89537 
188	40    	0.893916	0.00141677 	0.892944	0.897812
189	40    	0.894037	0.0014322  	0.892944	0.897812
190	40    	0.894037	0.0014322  	0.892944	0.897812
191	40    	0.894037	0.0014322  	0.892944	0.897812
192	40    	0.89501 	0.00176693 	0.892944	0.897812
193	40    	0.89501 	0.00176693 	0.892944	0.897812
194	40    	0.89501 	0.00176693 	0.892944	0.897812
195	40    	0.895981	0.00105716 	0.89537 	0.897812
196	40    	0.896591	0.0012207  	0.89537 	0.897812
197	40    	0.896591	0.0012207  	0.89537 	0.897812
198	40    	0.897324	0.000976562	0.89537 	0.897812
199	40    	0.897324	0.000976562	0.89537 	0.897812
200	40    	0.897568	0.000732422	0.89537 	0.897812
201	40    	0.897812	0          	0.897812	0.897812
202	40    	0.897812	0          	0.897812	0.897812
203	40    	0.897812	0          	0.897812	0.897812
204	40    	0.897812	0          	0.897812	0.897812
205	40    	0.897812	0          	0.897812	0.897812
206	40    	0.897812	0          	0.897812	0.897812
207	40    	0.897812	0          	0.897812	0.897812
208	40    	0.897812	0          	0.897812	0.897812
209	40    	0.897812	0          	0.897812	0.897812
210	40    	0.897933	0.000528767	0.897812	0.900238
211	40    	0.897933	0.000528767	0.897812	0.900238
212	40    	0.897933	0.000528767	0.897812	0.900238
213	40    	0.897933	0.000528767	0.897812	0.900238
214	40    	0.897933	0.000528767	0.897812	0.900238
215	40    	0.897933	0.000528767	0.897812	0.900238
216	40    	0.897933	0.000528767	0.897812	0.900238
217	40    	0.898176	0.000866308	0.897812	0.900238
218	40    	0.898176	0.000866308	0.897812	0.900238
219	40    	0.898176	0.000866308	0.897812	0.900238
220	40    	0.89854 	0.0011118  	0.897812	0.900238
221	40    	0.89854 	0.0011118  	0.897812	0.900238
222	40    	0.89854 	0.0011118  	0.897812	0.900238
223	40    	0.898782	0.00118856 	0.897812	0.900238
224	40    	0.899268	0.00141651 	0.897812	0.902679
225	40    	0.900604	0.00176687 	0.897812	0.905106
226	40    	0.901335	0.00162966 	0.900238	0.905106
227	40    	0.90231 	0.00176835 	0.900238	0.905106
228	40    	0.903043	0.00115904 	0.900238	0.905106
229	40    	0.903407	0.0011118  	0.902679	0.905106
230	40    	0.903407	0.0011118  	0.902679	0.905106
231	40    	0.903771	0.00120699 	0.902679	0.905106
232	40    	0.904378	0.0011118  	0.902679	0.905106
233	40    	0.90535 	0.000732422	0.905106	0.907547
234	40    	0.90535 	0.000732422	0.905106	0.907547
235	40    	0.905472	0.000871756	0.905106	0.907547
236	40    	0.905594	0.000976562	0.905106	0.907547
237	40    	0.905594	0.000976562	0.905106	0.907547
238	40    	0.905594	0.000976562	0.905106	0.907547
239	40    	0.905594	0.000976562	0.905106	0.907547
240	40    	0.90596 	0.00116448 	0.905106	0.907547
241	40    	0.906692	0.00139536 	0.905106	0.909973
242	40    	0.906692	0.00139536 	0.905106	0.909973
243	40    	0.906692	0.00139536 	0.905106	0.909973
244	40    	0.906692	0.00139536 	0.905106	0.909973
245	40    	0.907545	0.00108842 	0.905106	0.909973
246	40    	0.907911	0.000866308	0.907547	0.909973
247	40    	0.908396	0.0011572  	0.907547	0.909973
248	40    	0.908396	0.0011572  	0.907547	0.909973
249	40    	0.908517	0.00118856 	0.907547	0.909973
250	40    	0.909246	0.00135261 	0.907547	0.912415
