gen	nevals	avg     	std       	min     	max     
0  	20    	0.605392	0.0304771 	0.552567	0.665771
1  	40    	0.640971	0.0209077 	0.611862	0.681946
2  	40    	0.650137	0.0137336 	0.628036	0.681946
3  	40    	0.658492	0.0115955 	0.644211	0.681946
4  	40    	0.668462	0.0116266 	0.649597	0.69812 
5  	40    	0.67008 	0.0111291 	0.654984	0.69812 
6  	40    	0.673045	0.00890548	0.66037 	0.69812 
7  	40    	0.680323	0.0173102 	0.665771	0.741241
8  	40    	0.686792	0.0168687 	0.671158	0.741241
9  	40    	0.686792	0.0168687 	0.671158	0.741241
10 	40    	0.687061	0.0166586 	0.671158	0.741241
11 	40    	0.689219	0.0158355 	0.676544	0.741241
12 	40    	0.690568	0.0154753 	0.676544	0.741241
13 	40    	0.691647	0.0148223 	0.676544	0.741241
14 	40    	0.691647	0.0148223 	0.676544	0.741241
15 	40    	0.695689	0.0135811 	0.681946	0.741241
16 	40    	0.70593 	0.0183183 	0.687332	0.762802
17 	40    	0.717251	0.0171716 	0.69812 	0.762802
18 	40    	0.726144	0.0143254 	0.708893	0.762802
19 	40    	0.726683	0.0138613 	0.708893	0.762802
20 	40    	0.732884	0.0108444 	0.719681	0.762802
21 	40    	0.740161	0.0100271 	0.730453	0.762802
22 	40    	0.745015	0.00887225	0.735855	0.762802
23 	40    	0.747978	0.00778798	0.741241	0.762802
24 	40    	0.752829	0.00857128	0.741241	0.77359 
25 	40    	0.754984	0.00790142	0.741241	0.77359 
26 	40    	0.755254	0.00751054	0.746628	0.77359 
27 	40    	0.76361 	0.0101262 	0.752014	0.789764
28 	40    	0.768732	0.00932151	0.757416	0.789764
29 	40    	0.768732	0.00932151	0.757416	0.789764
30 	40    	0.776009	0.00752455	0.768188	0.789764
31 	40    	0.776818	0.00711203	0.768188	0.789764
32 	40    	0.776818	0.00711203	0.768188	0.789764
33 	40    	0.779245	0.00732748	0.768188	0.795151
34 	40    	0.784637	0.00752211	0.77359 	0.805923
35 	40    	0.792991	0.0114855 	0.784363	0.822098
36 	40    	0.801348	0.0109481 	0.789764	0.822098
37 	40    	0.81105 	0.00843431	0.795151	0.827499
38 	40    	0.816174	0.00536403	0.805923	0.827499
39 	40    	0.816174	0.00536403	0.805923	0.827499
40 	40    	0.820486	0.00662476	0.811325	0.832886
41 	40    	0.822372	0.00625895	0.816711	0.832886
42 	40    	0.824258	0.00669093	0.816711	0.838272
43 	40    	0.826146	0.00611835	0.816711	0.838272
44 	40    	0.831   	0.00546116	0.822098	0.843658
45 	40    	0.83558 	0.00626166	0.827499	0.84906 
46 	40    	0.837466	0.00597212	0.832886	0.84906 
47 	40    	0.838274	0.00590463	0.832886	0.84906 
48 	40    	0.841508	0.00549826	0.832886	0.84906 
49 	40    	0.845551	0.00460092	0.838272	0.854446
50 	40    	0.849326	0.00398987	0.843658	0.859833
51 	40    	0.850945	0.00352178	0.84906 	0.859833
52 	40    	0.852023	0.00398554	0.84906 	0.859833
53 	40    	0.853369	0.00437589	0.84906 	0.859833
54 	40    	0.853369	0.00437589	0.84906 	0.859833
55 	40    	0.854716	0.00398554	0.84906 	0.859833
56 	40    	0.854716	0.00398554	0.84906 	0.859833
57 	40    	0.855254	0.00352178	0.84906 	0.859833
58 	40    	0.85741 	0.00360653	0.854446	0.865234
59 	40    	0.85741 	0.00360653	0.854446	0.865234
60 	40    	0.859567	0.00466245	0.854446	0.870621
61 	40    	0.859837	0.00451202	0.854446	0.870621
62 	40    	0.860375	0.0041428 	0.854446	0.870621
63 	40    	0.863881	0.00413528	0.859833	0.870621
64 	40    	0.863881	0.00413528	0.859833	0.870621
65 	40    	0.86469 	0.0041436 	0.859833	0.870621
66 	40    	0.865231	0.00381412	0.859833	0.870621
67 	40    	0.867658	0.00267968	0.865234	0.870621
68 	40    	0.867658	0.00267968	0.865234	0.870621
69 	40    	0.867658	0.00267968	0.865234	0.870621
70 	40    	0.868197	0.00267968	0.865234	0.870621
71 	40    	0.868736	0.00308248	0.865234	0.876007
72 	40    	0.870082	0.00234786	0.865234	0.876007
73 	40    	0.870082	0.00234786	0.865234	0.876007
74 	40    	0.871429	0.00192331	0.870621	0.876007
75 	40    	0.872507	0.00308468	0.870621	0.881409
76 	40    	0.872507	0.00308468	0.870621	0.881409
77 	40    	0.873855	0.00396251	0.870621	0.881409
78 	40    	0.874394	0.00421196	0.870621	0.881409
79 	40    	0.877089	0.00403669	0.870621	0.886795
80 	40    	0.877089	0.00403669	0.870621	0.886795
81 	40    	0.877089	0.00403669	0.870621	0.886795
82 	40    	0.879785	0.00454496	0.876007	0.892181
83 	40    	0.879785	0.00454496	0.876007	0.892181
84 	40    	0.881134	0.00466281	0.876007	0.892181
85 	40    	0.883293	0.00352336	0.876007	0.892181
86 	40    	0.883563	0.00314076	0.881409	0.892181
87 	40    	0.883563	0.00314076	0.881409	0.892181
88 	40    	0.885179	0.00344895	0.881409	0.892181
89 	40    	0.885179	0.00344895	0.881409	0.892181
90 	40    	0.885179	0.00344895	0.881409	0.892181
91 	40    	0.886795	0.00240885	0.881409	0.892181
92 	40    	0.887334	0.00161591	0.886795	0.892181
93 	40    	0.887334	0.00161591	0.886795	0.892181
94 	40    	0.887334	0.00161591	0.886795	0.892181
95 	40    	0.888142	0.00233236	0.886795	0.892181
96 	40    	0.888142	0.00233236	0.886795	0.892181
97 	40    	0.88868 	0.00256913	0.886795	0.892181
98 	40    	0.88895 	0.00263876	0.886795	0.892181
99 	40    	0.889758	0.00267968	0.886795	0.892181
100	40    	0.890027	0.00263876	0.886795	0.892181
101	40    	0.890296	0.00256913	0.886795	0.892181
102	40    	0.891643	0.00234786	0.886795	0.897568
103	40    	0.892989	0.00192331	0.892181	0.897568
104	40    	0.892989	0.00192331	0.892181	0.897568
105	40    	0.893528	0.00233236	0.892181	0.897568
106	40    	0.893528	0.00233236	0.892181	0.897568
107	40    	0.893797	0.00246834	0.892181	0.897568
108	40    	0.894336	0.00263876	0.892181	0.897568
109	40    	0.894336	0.00263876	0.892181	0.897568
110	40    	0.894875	0.00269318	0.892181	0.897568
111	40    	0.895683	0.00308428	0.892181	0.902969
112	40    	0.895953	0.00300078	0.892181	0.902969
113	40    	0.898108	0.00162048	0.897568	0.902969
114	40    	0.898108	0.00162048	0.897568	0.902969
115	40    	0.898378	0.00192876	0.897568	0.902969
116	40    	0.898378	0.00192876	0.897568	0.902969
117	40    	0.898648	0.00216064	0.897568	0.902969
118	40    	0.898918	0.00233897	0.897568	0.902969
119	40    	0.899728	0.00264624	0.897568	0.902969
120	40    	0.901079	0.0025764 	0.897568	0.902969
121	40    	0.902159	0.00192876	0.897568	0.902969
122	40    	0.902969	0         	0.902969	0.902969
123	40    	0.902969	0         	0.902969	0.902969
124	40    	0.902969	0         	0.902969	0.902969
125	40    	0.902969	0         	0.902969	0.902969
126	40    	0.902969	0         	0.902969	0.902969
127	40    	0.902969	0         	0.902969	0.902969
128	40    	0.902969	0         	0.902969	0.902969
129	40    	0.902969	0         	0.902969	0.902969
130	40    	0.902969	0         	0.902969	0.902969
131	40    	0.902969	0         	0.902969	0.902969
132	40    	0.903239	0.00117393	0.902969	0.908356
133	40    	0.903239	0.00117393	0.902969	0.908356
134	40    	0.903508	0.00161591	0.902969	0.908356
135	40    	0.903508	0.00161591	0.902969	0.908356
136	40    	0.903508	0.00161591	0.902969	0.908356
137	40    	0.903777	0.00192331	0.902969	0.908356
138	40    	0.903777	0.00192331	0.902969	0.908356
139	40    	0.903777	0.00192331	0.902969	0.908356
140	40    	0.904047	0.00215454	0.902969	0.908356
141	40    	0.904047	0.00215454	0.902969	0.908356
142	40    	0.904585	0.00246834	0.902969	0.908356
143	40    	0.904585	0.00246834	0.902969	0.908356
144	40    	0.905932	0.00317521	0.902969	0.913742
145	40    	0.905932	0.00317521	0.902969	0.913742
146	40    	0.906201	0.00314076	0.902969	0.913742
147	40    	0.906201	0.00314076	0.902969	0.913742
148	40    	0.907278	0.00274651	0.902969	0.913742
149	40    	0.907548	0.00256913	0.902969	0.913742
150	40    	0.908356	0.00170331	0.902969	0.913742
151	40    	0.908625	0.00117393	0.908356	0.913742
152	40    	0.908625	0.00117393	0.908356	0.913742
153	40    	0.909164	0.00192331	0.908356	0.913742
154	40    	0.909972	0.00246834	0.908356	0.913742
155	40    	0.910241	0.00256913	0.908356	0.913742
156	40    	0.910241	0.00256913	0.908356	0.913742
157	40    	0.91051 	0.00263876	0.908356	0.913742
158	40    	0.911857	0.00256913	0.908356	0.913742
159	40    	0.911857	0.00256913	0.908356	0.913742
160	40    	0.912665	0.00215454	0.908356	0.913742
161	40    	0.912934	0.00192331	0.908356	0.913742
162	40    	0.913742	0         	0.913742	0.913742
163	40    	0.913742	0         	0.913742	0.913742
164	40    	0.913742	0         	0.913742	0.913742
165	40    	0.913742	0         	0.913742	0.913742
166	40    	0.914012	0.00117725	0.913742	0.919144
167	40    	0.914012	0.00117725	0.913742	0.919144
168	40    	0.914282	0.00162048	0.913742	0.919144
169	40    	0.914552	0.00192876	0.913742	0.919144
170	40    	0.914822	0.00216064	0.913742	0.919144
171	40    	0.915092	0.00233897	0.913742	0.919144
172	40    	0.915633	0.0025764 	0.913742	0.919144
173	40    	0.915903	0.00264624	0.913742	0.919144
174	40    	0.915903	0.00264624	0.913742	0.919144
175	40    	0.916443	0.00270081	0.913742	0.919144
176	40    	0.917523	0.00247533	0.913742	0.919144
177	40    	0.917523	0.00247533	0.913742	0.919144
178	40    	0.917523	0.00247533	0.913742	0.919144
179	40    	0.917523	0.00247533	0.913742	0.919144
180	40    	0.917523	0.00247533	0.913742	0.919144
181	40    	0.919144	0         	0.919144	0.919144
182	40    	0.919144	0         	0.919144	0.919144
183	40    	0.919144	0         	0.919144	0.919144
184	40    	0.919144	0         	0.919144	0.919144
185	40    	0.919144	0         	0.919144	0.919144
186	40    	0.919144	0         	0.919144	0.919144
187	40    	0.919144	0         	0.919144	0.919144
188	40    	0.919144	0         	0.919144	0.919144
189	40    	0.919144	0         	0.919144	0.919144
190	40    	0.919144	0         	0.919144	0.919144
191	40    	0.919144	0         	0.919144	0.919144
192	40    	0.919144	0         	0.919144	0.919144
193	40    	0.919144	0         	0.919144	0.919144
194	40    	0.919144	0         	0.919144	0.919144
195	40    	0.919144	0         	0.919144	0.919144
196	40    	0.919144	0         	0.919144	0.919144
197	40    	0.919144	0         	0.919144	0.919144
198	40    	0.919144	0         	0.919144	0.919144
199	40    	0.919144	0         	0.919144	0.919144
200	40    	0.919144	0         	0.919144	0.919144
201	40    	0.919144	0         	0.919144	0.919144
202	40    	0.919144	0         	0.919144	0.919144
203	40    	0.919144	0         	0.919144	0.919144
204	40    	0.919144	0         	0.919144	0.919144
205	40    	0.919144	0         	0.919144	0.919144
206	40    	0.919144	0         	0.919144	0.919144
207	40    	0.919144	0         	0.919144	0.919144
208	40    	0.919144	0         	0.919144	0.919144
209	40    	0.919144	0         	0.919144	0.919144
210	40    	0.919144	0         	0.919144	0.919144
211	40    	0.919144	0         	0.919144	0.919144
212	40    	0.919144	0         	0.919144	0.919144
213	40    	0.919144	0         	0.919144	0.919144
214	40    	0.919144	0         	0.919144	0.919144
215	40    	0.919144	0         	0.919144	0.919144
216	40    	0.919144	0         	0.919144	0.919144
217	40    	0.919144	0         	0.919144	0.919144
218	40    	0.919144	0         	0.919144	0.919144
219	40    	0.919144	0         	0.919144	0.919144
220	40    	0.919144	0         	0.919144	0.919144
221	40    	0.919144	0         	0.919144	0.919144
222	40    	0.919144	0         	0.919144	0.919144
223	40    	0.919144	0         	0.919144	0.919144
224	40    	0.919144	0         	0.919144	0.919144
225	40    	0.919144	0         	0.919144	0.919144
226	40    	0.919144	0         	0.919144	0.919144
227	40    	0.919144	0         	0.919144	0.919144
228	40    	0.919144	0         	0.919144	0.919144
229	40    	0.919144	0         	0.919144	0.919144
230	40    	0.919144	0         	0.919144	0.919144
231	40    	0.919144	0         	0.919144	0.919144
232	40    	0.919144	0         	0.919144	0.919144
233	40    	0.919144	0         	0.919144	0.919144
234	40    	0.919144	0         	0.919144	0.919144
235	40    	0.919144	0         	0.919144	0.919144
236	40    	0.919144	0         	0.919144	0.919144
237	40    	0.919144	0         	0.919144	0.919144
238	40    	0.919144	0         	0.919144	0.919144
239	40    	0.919144	0         	0.919144	0.919144
240	40    	0.919144	0         	0.919144	0.919144
241	40    	0.919144	0         	0.919144	0.919144
242	40    	0.919144	0         	0.919144	0.919144
243	40    	0.919144	0         	0.919144	0.919144
244	40    	0.919144	0         	0.919144	0.919144
245	40    	0.919144	0         	0.919144	0.919144
246	40    	0.919144	0         	0.919144	0.919144
247	40    	0.919144	0         	0.919144	0.919144
248	40    	0.919144	0         	0.919144	0.919144
249	40    	0.919144	0         	0.919144	0.919144
250	40    	0.919144	0         	0.919144	0.919144
