gen	nevals	avg     	std        	min     	max     
0  	20    	0.593561	0.015393   	0.551514	0.616669
1  	40    	0.605002	0.00799056 	0.593933	0.61969 
2  	40    	0.608714	0.00550235 	0.601517	0.61969 
3  	40    	0.613107	0.00666054 	0.606064	0.631821
4  	40    	0.617956	0.00739536 	0.607574	0.637878
5  	40    	0.622273	0.00771212 	0.615158	0.640915
6  	40    	0.629317	0.00948995 	0.616669	0.654541
7  	40    	0.630074	0.00894246 	0.618179	0.654541
8  	40    	0.635531	0.00844304 	0.624237	0.656067
9  	40    	0.637576	0.00789577 	0.628784	0.656067
10 	40    	0.642347	0.00671618 	0.634842	0.656067
11 	40    	0.645757	0.00627482 	0.637878	0.656067
12 	40    	0.647576	0.00563407 	0.640915	0.656067
13 	40    	0.649014	0.00442356 	0.640915	0.656067
14 	40    	0.651968	0.00271664 	0.648483	0.656067
15 	40    	0.654243	0.00379238 	0.649994	0.666672
16 	40    	0.654243	0.00379238 	0.649994	0.666672
17 	40    	0.656895	0.00563862 	0.65152 	0.671219
18 	40    	0.663561	0.00643671 	0.654541	0.677277
19 	40    	0.66841 	0.00415706 	0.662125	0.677277
20 	40    	0.672652	0.00712972 	0.666672	0.693939
21 	40    	0.677046	0.0071738  	0.669693	0.693939
22 	40    	0.681287	0.00717529 	0.67424 	0.699997
23 	40    	0.685303	0.00677687 	0.677277	0.699997
24 	40    	0.690228	0.00563749 	0.681824	0.701508
25 	40    	0.694243	0.00541076 	0.686371	0.704544
26 	40    	0.698938	0.00342345 	0.692429	0.704544
27 	40    	0.700681	0.00250935 	0.696976	0.704544
28 	40    	0.702876	0.00367787 	0.698486	0.715149
29 	40    	0.705302	0.0032681  	0.701508	0.715149
30 	40    	0.708483	0.00369266 	0.704544	0.71666 
31 	40    	0.712121	0.00374053 	0.707581	0.721207
32 	40    	0.716439	0.0038413  	0.710602	0.724243
33 	40    	0.718635	0.00284013 	0.715149	0.724243
34 	40    	0.721364	0.00234336 	0.718185	0.72728 
35 	40    	0.721364	0.00234336 	0.718185	0.72728 
36 	40    	0.722956	0.00146165 	0.721207	0.72728 
37 	40    	0.724245	0.00158872 	0.722733	0.72728 
38 	40    	0.724245	0.00158872 	0.722733	0.72728 
39 	40    	0.726061	0.00176795 	0.724243	0.730301
40 	40    	0.728561	0.00284757 	0.725754	0.733337
41 	40    	0.730759	0.00225232 	0.72728 	0.734848
42 	40    	0.733258	0.00264705 	0.730301	0.742432
43 	40    	0.735684	0.00297248 	0.733337	0.742432
44 	40    	0.738258	0.00291205 	0.734848	0.743942
45 	40    	0.741062	0.00270587 	0.737885	0.748489
46 	40    	0.743107	0.00281335 	0.739395	0.748489
47 	40    	0.743107	0.00281335 	0.739395	0.748489
48 	40    	0.743107	0.00281335 	0.739395	0.748489
49 	40    	0.743107	0.00281335 	0.739395	0.748489
50 	40    	0.746288	0.00264202 	0.742432	0.751511
51 	40    	0.748559	0.00217084 	0.745453	0.753036
52 	40    	0.750378	0.00238869 	0.746964	0.757568
53 	40    	0.750909	0.00205316 	0.748489	0.757568
54 	40    	0.753408	0.00262029 	0.75    	0.759094
55 	40    	0.755984	0.00216484 	0.753036	0.759094
56 	40    	0.758178	0.00211183 	0.756058	0.765152
57 	40    	0.759391	0.00222919 	0.757568	0.765152
58 	40    	0.76015 	0.002542   	0.757568	0.765152
59 	40    	0.762424	0.00237584 	0.759094	0.766663
60 	40    	0.764773	0.0031377  	0.762115	0.775757
61 	40    	0.766515	0.0030998  	0.763641	0.775757
62 	40    	0.768106	0.00301078 	0.765152	0.775757
63 	40    	0.769772	0.00343745 	0.766663	0.777267
64 	40    	0.772424	0.00256074 	0.768188	0.777267
65 	40    	0.774316	0.00227401 	0.77121 	0.778793
66 	40    	0.77591 	0.00197009 	0.77272 	0.780304
67 	40    	0.777122	0.00150972 	0.775757	0.780304
68 	40    	0.777122	0.00150972 	0.775757	0.780304
69 	40    	0.77788 	0.00147137 	0.775757	0.780304
70 	40    	0.77788 	0.00147137 	0.775757	0.780304
71 	40    	0.779245	0.00118238 	0.777267	0.781815
72 	40    	0.780003	0.0012293  	0.778793	0.78334 
73 	40    	0.780683	0.00142676 	0.778793	0.784851
74 	40    	0.781515	0.0014055  	0.780304	0.784851
75 	40    	0.781515	0.0014055  	0.780304	0.784851
76 	40    	0.782423	0.00139084 	0.780304	0.784851
77 	40    	0.783408	0.0019452  	0.781815	0.787872
78 	40    	0.783485	0.00191082 	0.781815	0.787872
79 	40    	0.783485	0.00191082 	0.781815	0.787872
80 	40    	0.78523 	0.00196559 	0.78334 	0.789398
81 	40    	0.786289	0.00226986 	0.78334 	0.792419
82 	40    	0.786591	0.00215602 	0.784851	0.792419
83 	40    	0.788634	0.00216954 	0.786362	0.792419
84 	40    	0.790227	0.00175925 	0.787872	0.793945
85 	40    	0.790607	0.00155825 	0.787872	0.793945
86 	40    	0.790607	0.00155825 	0.787872	0.793945
87 	40    	0.791363	0.00108062 	0.789398	0.793945
88 	40    	0.792802	0.00185022 	0.790909	0.798492
89 	40    	0.79318 	0.00162814 	0.790909	0.798492
90 	40    	0.793332	0.00154892 	0.792419	0.798492
91 	40    	0.794092	0.00158488 	0.792419	0.798492
92 	40    	0.794092	0.00158488 	0.792419	0.798492
93 	40    	0.795458	0.00158872 	0.793945	0.798492
94 	40    	0.796669	0.00148649 	0.795456	0.800003
95 	40    	0.796745	0.00146109 	0.795456	0.800003
96 	40    	0.797881	0.000887905	0.796967	0.800003
97 	40    	0.798946	0.000841078	0.798492	0.801514
98 	40    	0.798946	0.000841078	0.798492	0.801514
99 	40    	0.799852	0.00134267 	0.798492	0.803024
100	40    	0.801212	0.00148259 	0.800003	0.806061
101	40    	0.802348	0.00221957 	0.800003	0.807571
102	40    	0.803786	0.0020628  	0.801514	0.809097
103	40    	0.803786	0.0020628  	0.801514	0.809097
104	40    	0.805302	0.00176175 	0.803024	0.809097
105	40    	0.805302	0.00176175 	0.803024	0.809097
106	40    	0.805759	0.00140419 	0.803024	0.809097
107	40    	0.806742	0.00112096 	0.80455 	0.809097
108	40    	0.807802	0.00181013 	0.806061	0.813629
109	40    	0.808408	0.00169312 	0.806061	0.813629
110	40    	0.808408	0.00169312 	0.806061	0.813629
111	40    	0.809547	0.00173332 	0.807571	0.813629
112	40    	0.809927	0.00162041 	0.807571	0.813629
113	40    	0.811288	0.00154608 	0.809097	0.813629
114	40    	0.811893	0.00137597 	0.809097	0.815155
115	40    	0.811893	0.00137597 	0.809097	0.815155
116	40    	0.811893	0.00137597 	0.809097	0.815155
117	40    	0.811968	0.00125675 	0.810608	0.815155
118	40    	0.813027	0.00154518 	0.812119	0.818176
119	40    	0.81333 	0.00189214 	0.812119	0.818176
120	40    	0.814088	0.00214808 	0.812119	0.818176
121	40    	0.815755	0.00199959 	0.813629	0.821213
122	40    	0.817046	0.00171828 	0.815155	0.821213
123	40    	0.817348	0.00188422 	0.815155	0.821213
124	40    	0.818635	0.00180013 	0.816666	0.822723
125	40    	0.818862	0.00182406 	0.816666	0.822723
126	40    	0.818938	0.00176175 	0.816666	0.822723
127	40    	0.818938	0.00176175 	0.816666	0.822723
128	40    	0.819544	0.00143167 	0.818176	0.822723
129	40    	0.820533	0.00101054 	0.819702	0.822723
130	40    	0.821364	0.00116033 	0.819702	0.822723
131	40    	0.822575	0.00125978 	0.821213	0.82576 
132	40    	0.823939	0.0015618  	0.822723	0.827271
133	40    	0.824242	0.00166108 	0.822723	0.827271
134	40    	0.824242	0.00166108 	0.822723	0.827271
135	40    	0.824546	0.00163294 	0.822723	0.827271
136	40    	0.824546	0.00163294 	0.822723	0.827271
137	40    	0.826215	0.00173259 	0.824249	0.830307
138	40    	0.826215	0.00173259 	0.824249	0.830307
139	40    	0.826441	0.00154988 	0.824249	0.830307
140	40    	0.826743	0.00137811 	0.82576 	0.830307
141	40    	0.827499	0.00137882 	0.82576 	0.830307
142	40    	0.827726	0.00127749 	0.82576 	0.830307
143	40    	0.828483	0.00123287 	0.827271	0.830307
144	40    	0.828483	0.00123287 	0.827271	0.830307
145	40    	0.828861	0.00112364 	0.827271	0.830307
146	40    	0.830075	0.00120238 	0.828781	0.833328
147	40    	0.830075	0.00120238 	0.828781	0.833328
148	40    	0.830151	0.0011657  	0.828781	0.833328
149	40    	0.830987	0.00101054 	0.830307	0.833328
150	40    	0.831516	0.0012293  	0.830307	0.834854
151	40    	0.832348	0.00099155 	0.831818	0.834854
152	40    	0.832423	0.00100572 	0.831818	0.834854
153	40    	0.833182	0.00126088 	0.831818	0.834854
154	40    	0.834167	0.00122173 	0.831818	0.837875
155	40    	0.834242	0.00111631 	0.833328	0.837875
156	40    	0.834851	0.00143954 	0.833328	0.839401
157	40    	0.835686	0.00169127 	0.834854	0.840912
158	40    	0.836064	0.00176521 	0.834854	0.840912
159	40    	0.836972	0.00193955 	0.834854	0.840912
160	40    	0.838258	0.00150749 	0.836365	0.840912
161	40    	0.838258	0.00150749 	0.836365	0.840912
162	40    	0.83932 	0.00131276 	0.837875	0.840912
163	40    	0.840231	0.00101231 	0.837875	0.842422
164	40    	0.840231	0.00101231 	0.837875	0.842422
165	40    	0.841214	0.000604248	0.840912	0.842422
166	40    	0.841592	0.00101054 	0.840912	0.843933
167	40    	0.841894	0.000987696	0.840912	0.843933
168	40    	0.842196	0.000864492	0.840912	0.843933
169	40    	0.842876	0.000843411	0.842422	0.845459
170	40    	0.843027	0.000882933	0.842422	0.845459
171	40    	0.844089	0.00150873 	0.842422	0.84848 
172	40    	0.84515 	0.00140682 	0.843933	0.84848 
173	40    	0.84515 	0.00140682 	0.843933	0.84848 
174	40    	0.845606	0.0013474  	0.843933	0.84848 
175	40    	0.846667	0.00113044 	0.845459	0.84848 
176	40    	0.846667	0.00113044 	0.845459	0.84848 
177	40    	0.847121	0.00105743 	0.845459	0.84848 
178	40    	0.847121	0.00105743 	0.845459	0.84848 
179	40    	0.847121	0.00105743 	0.845459	0.84848 
180	40    	0.847574	0.00074005 	0.84697 	0.84848 
181	40    	0.847649	0.000751524	0.84697 	0.84848 
182	40    	0.848103	0.000654118	0.84697 	0.84848 
183	40    	0.848557	0.000332558	0.84848 	0.850006
184	40    	0.848633	0.000457764	0.84848 	0.850006
185	40    	0.848633	0.000457764	0.84848 	0.850006
186	40    	0.848862	0.000660725	0.84848 	0.850006
187	40    	0.849167	0.000759115	0.84848 	0.850006
188	40    	0.849624	0.000816388	0.84848 	0.851517
189	40    	0.850082	0.000329232	0.850006	0.851517
190	40    	0.850082	0.000329232	0.850006	0.851517
191	40    	0.850157	0.000453186	0.850006	0.851517
192	40    	0.850157	0.000453186	0.850006	0.851517
193	40    	0.850157	0.000453186	0.850006	0.851517
194	40    	0.850157	0.000453186	0.850006	0.851517
195	40    	0.850233	0.000539399	0.850006	0.851517
196	40    	0.850308	0.000604248	0.850006	0.851517
197	40    	0.850384	0.000654118	0.850006	0.851517
198	40    	0.850384	0.000654118	0.850006	0.851517
199	40    	0.850761	0.000893695	0.850006	0.853027
200	40    	0.850761	0.000893695	0.850006	0.853027
201	40    	0.850761	0.000893695	0.850006	0.853027
202	40    	0.850761	0.000893695	0.850006	0.853027
203	40    	0.851139	0.00125254 	0.850006	0.854538
204	40    	0.85129 	0.00128846 	0.850006	0.854538
205	40    	0.85197 	0.0010788  	0.850006	0.854538
206	40    	0.852423	0.00111007 	0.851517	0.854538
207	40    	0.853103	0.00101054 	0.851517	0.854538
208	40    	0.853103	0.00101054 	0.851517	0.854538
209	40    	0.853103	0.00101054 	0.851517	0.854538
210	40    	0.853783	0.000895633	0.853027	0.856064
211	40    	0.854237	0.00113391 	0.853027	0.857574
212	40    	0.854237	0.00113391 	0.853027	0.857574
213	40    	0.85507 	0.00138025 	0.853027	0.857574
214	40    	0.856133	0.00162493 	0.854538	0.859085
215	40    	0.857121	0.00152249 	0.854538	0.860611
216	40    	0.858482	0.00121212 	0.857574	0.862122
217	40    	0.858482	0.00121212 	0.857574	0.862122
218	40    	0.858709	0.00116136 	0.857574	0.862122
219	40    	0.859162	0.000894255	0.857574	0.862122
220	40    	0.859618	0.000871028	0.859085	0.862122
221	40    	0.85977 	0.00101721 	0.859085	0.862122
222	40    	0.860075	0.00110398 	0.859085	0.862122
223	40    	0.860606	0.00143874 	0.859085	0.863632
224	40    	0.860986	0.00142717 	0.859085	0.863632
225	40    	0.861819	0.00131693 	0.860611	0.863632
226	40    	0.862046	0.00130605 	0.860611	0.863632
227	40    	0.863105	0.000990852	0.862122	0.865158
228	40    	0.863635	0.000960233	0.862122	0.865158
229	40    	0.863635	0.000960233	0.862122	0.865158
230	40    	0.864243	0.000747525	0.863632	0.865158
231	40    	0.864395	0.000762939	0.863632	0.865158
232	40    	0.865004	0.000818601	0.863632	0.866669
233	40    	0.865156	0.000831587	0.863632	0.866669
234	40    	0.86546 	0.000604248	0.865158	0.866669
235	40    	0.86546 	0.000604248	0.865158	0.866669
236	40    	0.865611	0.000841078	0.865158	0.868179
237	40    	0.865611	0.000841078	0.865158	0.868179
238	40    	0.865989	0.00121556 	0.865158	0.86969 
239	40    	0.866669	0.0014331  	0.865158	0.86969 
240	40    	0.867197	0.00153125 	0.865158	0.86969 
241	40    	0.867197	0.00153125 	0.865158	0.86969 
242	40    	0.867197	0.00153125 	0.865158	0.86969 
243	40    	0.867726	0.00127287 	0.866669	0.86969 
244	40    	0.867726	0.00127287 	0.866669	0.86969 
245	40    	0.867877	0.00122723 	0.866669	0.86969 
246	40    	0.868784	0.00074005 	0.868179	0.86969 
247	40    	0.868784	0.00074005 	0.868179	0.86969 
248	40    	0.868784	0.00074005 	0.868179	0.86969 
249	40    	0.868859	0.000751524	0.868179	0.86969 
250	40    	0.868859	0.000751524	0.868179	0.86969 
