gen	nevals	avg     	std       	min     	max     
0  	20    	0.579649	0.0429264 	0.488373	0.651169
1  	40    	0.60523 	0.0261278 	0.569763	0.662796
2  	40    	0.626163	0.0275874 	0.593018	0.720932
3  	40    	0.649425	0.033351  	0.627914	0.732559
4  	40    	0.662796	0.0363989 	0.627914	0.744186
5  	40    	0.666284	0.0345114 	0.627914	0.744186
6  	40    	0.666866	0.0339536 	0.639542	0.744186
7  	40    	0.684888	0.0311774 	0.651169	0.744186
8  	40    	0.699422	0.0265841 	0.674423	0.744186
9  	40    	0.699422	0.0265841 	0.674423	0.744186
10 	40    	0.705235	0.0239065 	0.674423	0.744186
11 	40    	0.723257	0.0162781 	0.697678	0.744186
12 	40    	0.735466	0.0126704 	0.720932	0.767441
13 	40    	0.74593 	0.0123462 	0.732559	0.779068
14 	40    	0.747675	0.0127899 	0.732559	0.779068
15 	40    	0.748837	0.0124144 	0.732559	0.779068
16 	40    	0.756395	0.010704  	0.744186	0.779068
17 	40    	0.763371	0.00991726	0.755814	0.779068
18 	40    	0.773254	0.0107197 	0.755814	0.790695
19 	40    	0.786626	0.0173534 	0.767441	0.848831
20 	40    	0.786626	0.0173534 	0.767441	0.848831
21 	40    	0.791277	0.0181902 	0.779068	0.848831
22 	40    	0.797672	0.020929  	0.779068	0.848831
23 	40    	0.812787	0.0164022 	0.790695	0.848831
24 	40    	0.8186  	0.0148901 	0.802322	0.848831
25 	40    	0.82674 	0.0121392 	0.81395 	0.848831
26 	40    	0.836041	0.0109691 	0.825577	0.860458
27 	40    	0.843018	0.00687874	0.837204	0.860458
28 	40    	0.847087	0.00844474	0.837204	0.860458
29 	40    	0.852319	0.00532825	0.848831	0.860458
30 	40    	0.852901	0.00554582	0.848831	0.860458
31 	40    	0.857552	0.00723787	0.848831	0.872086
32 	40    	0.863366	0.00724002	0.848831	0.883728
33 	40    	0.863366	0.00724002	0.848831	0.883728
34 	40    	0.863366	0.00724002	0.848831	0.883728
35 	40    	0.864529	0.00665617	0.860458	0.883728
36 	40    	0.864529	0.00665617	0.860458	0.883728
37 	40    	0.868599	0.00744814	0.860458	0.883728
38 	40    	0.875578	0.00647992	0.872086	0.895355
39 	40    	0.880234	0.00745171	0.872086	0.895355
40 	40    	0.880816	0.00724431	0.872086	0.895355
41 	40    	0.886635	0.00623439	0.883728	0.906982
42 	40    	0.886635	0.00623439	0.883728	0.906982
43 	40    	0.886635	0.00623439	0.883728	0.906982
44 	40    	0.886635	0.00623439	0.883728	0.906982
45 	40    	0.886635	0.00623439	0.883728	0.906982
46 	40    	0.886635	0.00623439	0.883728	0.906982
47 	40    	0.887216	0.00647375	0.883728	0.906982
48 	40    	0.887216	0.00647375	0.883728	0.906982
49 	40    	0.88896 	0.00777806	0.883728	0.906982
50 	40    	0.891867	0.00744504	0.883728	0.906982
51 	40    	0.897099	0.00760227	0.883728	0.906982
52 	40    	0.897099	0.00760227	0.883728	0.906982
53 	40    	0.902913	0.00665397	0.895355	0.91861 
54 	40    	0.908145	0.00506818	0.895355	0.91861 
55 	40    	0.911633	0.00677976	0.906982	0.930237
56 	40    	0.915703	0.00723787	0.906982	0.930237
57 	40    	0.915703	0.00723787	0.906982	0.930237
58 	40    	0.917447	0.00726118	0.906982	0.930237
59 	40    	0.917447	0.00726118	0.906982	0.930237
60 	40    	0.920354	0.00415174	0.91861 	0.930237
61 	40    	0.922679	0.00554582	0.91861 	0.930237
62 	40    	0.92326 	0.00569614	0.91861 	0.930237
63 	40    	0.92326 	0.00569614	0.91861 	0.930237
64 	40    	0.92326 	0.00569614	0.91861 	0.930237
65 	40    	0.925005	0.00578446	0.91861 	0.930237
66 	40    	0.929655	0.00446551	0.91861 	0.941864
67 	40    	0.930818	0.00253409	0.930237	0.941864
68 	40    	0.930818	0.00253409	0.930237	0.941864
69 	40    	0.930818	0.00253409	0.930237	0.941864
70 	40    	0.930818	0.00253409	0.930237	0.941864
71 	40    	0.930818	0.00253409	0.930237	0.941864
72 	40    	0.930818	0.00253409	0.930237	0.941864
73 	40    	0.9314  	0.00348816	0.930237	0.941864
74 	40    	0.9314  	0.00348816	0.930237	0.941864
75 	40    	0.931981	0.00415174	0.930237	0.941864
76 	40    	0.931981	0.00415174	0.930237	0.941864
77 	40    	0.931981	0.00415174	0.930237	0.941864
78 	40    	0.933144	0.00503472	0.930237	0.941864
79 	40    	0.933725	0.00532825	0.930237	0.941864
80 	40    	0.935469	0.00578446	0.930237	0.941864
81 	40    	0.938376	0.00532825	0.930237	0.941864
82 	40    	0.940701	0.00348816	0.930237	0.941864
83 	40    	0.941864	0         	0.941864	0.941864
84 	40    	0.941864	0         	0.941864	0.941864
85 	40    	0.941864	0         	0.941864	0.941864
86 	40    	0.941864	0         	0.941864	0.941864
87 	40    	0.941864	0         	0.941864	0.941864
88 	40    	0.941864	0         	0.941864	0.941864
89 	40    	0.941864	0         	0.941864	0.941864
90 	40    	0.941864	0         	0.941864	0.941864
91 	40    	0.941864	0         	0.941864	0.941864
92 	40    	0.941864	0         	0.941864	0.941864
93 	40    	0.941864	0         	0.941864	0.941864
94 	40    	0.941864	0         	0.941864	0.941864
95 	40    	0.941864	0         	0.941864	0.941864
96 	40    	0.941864	0         	0.941864	0.941864
97 	40    	0.941864	0         	0.941864	0.941864
98 	40    	0.941864	0         	0.941864	0.941864
99 	40    	0.941864	0         	0.941864	0.941864
100	40    	0.941864	0         	0.941864	0.941864
101	40    	0.941864	0         	0.941864	0.941864
102	40    	0.941864	0         	0.941864	0.941864
103	40    	0.941864	0         	0.941864	0.941864
104	40    	0.941864	0         	0.941864	0.941864
105	40    	0.941864	0         	0.941864	0.941864
106	40    	0.941864	0         	0.941864	0.941864
107	40    	0.941864	0         	0.941864	0.941864
108	40    	0.941864	0         	0.941864	0.941864
109	40    	0.941864	0         	0.941864	0.941864
110	40    	0.941864	0         	0.941864	0.941864
111	40    	0.941864	0         	0.941864	0.941864
112	40    	0.941864	0         	0.941864	0.941864
113	40    	0.941864	0         	0.941864	0.941864
114	40    	0.941864	0         	0.941864	0.941864
115	40    	0.941864	0         	0.941864	0.941864
116	40    	0.941864	0         	0.941864	0.941864
117	40    	0.941864	0         	0.941864	0.941864
118	40    	0.941864	0         	0.941864	0.941864
119	40    	0.941864	0         	0.941864	0.941864
120	40    	0.941864	0         	0.941864	0.941864
121	40    	0.941864	0         	0.941864	0.941864
122	40    	0.941864	0         	0.941864	0.941864
123	40    	0.941864	0         	0.941864	0.941864
124	40    	0.941864	0         	0.941864	0.941864
125	40    	0.941864	0         	0.941864	0.941864
126	40    	0.941864	0         	0.941864	0.941864
127	40    	0.941864	0         	0.941864	0.941864
128	40    	0.941864	0         	0.941864	0.941864
129	40    	0.941864	0         	0.941864	0.941864
130	40    	0.941864	0         	0.941864	0.941864
131	40    	0.941864	0         	0.941864	0.941864
132	40    	0.941864	0         	0.941864	0.941864
133	40    	0.941864	0         	0.941864	0.941864
134	40    	0.941864	0         	0.941864	0.941864
135	40    	0.941864	0         	0.941864	0.941864
136	40    	0.941864	0         	0.941864	0.941864
137	40    	0.941864	0         	0.941864	0.941864
138	40    	0.941864	0         	0.941864	0.941864
139	40    	0.941864	0         	0.941864	0.941864
140	40    	0.941864	0         	0.941864	0.941864
141	40    	0.941864	0         	0.941864	0.941864
142	40    	0.941864	0         	0.941864	0.941864
143	40    	0.941864	0         	0.941864	0.941864
144	40    	0.941864	0         	0.941864	0.941864
145	40    	0.941864	0         	0.941864	0.941864
146	40    	0.941864	0         	0.941864	0.941864
147	40    	0.941864	0         	0.941864	0.941864
148	40    	0.941864	0         	0.941864	0.941864
149	40    	0.941864	0         	0.941864	0.941864
150	40    	0.941864	0         	0.941864	0.941864
151	40    	0.941864	0         	0.941864	0.941864
152	40    	0.941864	0         	0.941864	0.941864
153	40    	0.941864	0         	0.941864	0.941864
154	40    	0.941864	0         	0.941864	0.941864
155	40    	0.941864	0         	0.941864	0.941864
156	40    	0.941864	0         	0.941864	0.941864
157	40    	0.941864	0         	0.941864	0.941864
158	40    	0.941864	0         	0.941864	0.941864
159	40    	0.941864	0         	0.941864	0.941864
160	40    	0.941864	0         	0.941864	0.941864
161	40    	0.941864	0         	0.941864	0.941864
162	40    	0.941864	0         	0.941864	0.941864
163	40    	0.941864	0         	0.941864	0.941864
164	40    	0.941864	0         	0.941864	0.941864
165	40    	0.941864	0         	0.941864	0.941864
166	40    	0.941864	0         	0.941864	0.941864
167	40    	0.941864	0         	0.941864	0.941864
168	40    	0.941864	0         	0.941864	0.941864
169	40    	0.941864	0         	0.941864	0.941864
170	40    	0.941864	0         	0.941864	0.941864
171	40    	0.941864	0         	0.941864	0.941864
172	40    	0.941864	0         	0.941864	0.941864
173	40    	0.941864	0         	0.941864	0.941864
174	40    	0.941864	0         	0.941864	0.941864
175	40    	0.941864	0         	0.941864	0.941864
176	40    	0.941864	0         	0.941864	0.941864
177	40    	0.941864	0         	0.941864	0.941864
178	40    	0.941864	0         	0.941864	0.941864
179	40    	0.941864	0         	0.941864	0.941864
180	40    	0.941864	0         	0.941864	0.941864
181	40    	0.941864	0         	0.941864	0.941864
182	40    	0.941864	0         	0.941864	0.941864
183	40    	0.941864	0         	0.941864	0.941864
184	40    	0.941864	0         	0.941864	0.941864
185	40    	0.941864	0         	0.941864	0.941864
186	40    	0.941864	0         	0.941864	0.941864
187	40    	0.941864	0         	0.941864	0.941864
188	40    	0.941864	0         	0.941864	0.941864
189	40    	0.941864	0         	0.941864	0.941864
190	40    	0.941864	0         	0.941864	0.941864
191	40    	0.941864	0         	0.941864	0.941864
192	40    	0.941864	0         	0.941864	0.941864
193	40    	0.941864	0         	0.941864	0.941864
194	40    	0.941864	0         	0.941864	0.941864
195	40    	0.941864	0         	0.941864	0.941864
196	40    	0.941864	0         	0.941864	0.941864
197	40    	0.941864	0         	0.941864	0.941864
198	40    	0.941864	0         	0.941864	0.941864
199	40    	0.941864	0         	0.941864	0.941864
200	40    	0.941864	0         	0.941864	0.941864
201	40    	0.941864	0         	0.941864	0.941864
202	40    	0.941864	0         	0.941864	0.941864
203	40    	0.941864	0         	0.941864	0.941864
204	40    	0.941864	0         	0.941864	0.941864
205	40    	0.941864	0         	0.941864	0.941864
206	40    	0.941864	0         	0.941864	0.941864
207	40    	0.941864	0         	0.941864	0.941864
208	40    	0.941864	0         	0.941864	0.941864
209	40    	0.941864	0         	0.941864	0.941864
210	40    	0.941864	0         	0.941864	0.941864
211	40    	0.941864	0         	0.941864	0.941864
212	40    	0.941864	0         	0.941864	0.941864
213	40    	0.941864	0         	0.941864	0.941864
214	40    	0.941864	0         	0.941864	0.941864
215	40    	0.941864	0         	0.941864	0.941864
216	40    	0.941864	0         	0.941864	0.941864
217	40    	0.941864	0         	0.941864	0.941864
218	40    	0.941864	0         	0.941864	0.941864
219	40    	0.941864	0         	0.941864	0.941864
220	40    	0.941864	0         	0.941864	0.941864
221	40    	0.941864	0         	0.941864	0.941864
222	40    	0.941864	0         	0.941864	0.941864
223	40    	0.941864	0         	0.941864	0.941864
224	40    	0.941864	0         	0.941864	0.941864
225	40    	0.941864	0         	0.941864	0.941864
226	40    	0.941864	0         	0.941864	0.941864
227	40    	0.941864	0         	0.941864	0.941864
228	40    	0.941864	0         	0.941864	0.941864
229	40    	0.941864	0         	0.941864	0.941864
230	40    	0.941864	0         	0.941864	0.941864
231	40    	0.941864	0         	0.941864	0.941864
232	40    	0.941864	0         	0.941864	0.941864
233	40    	0.941864	0         	0.941864	0.941864
234	40    	0.941864	0         	0.941864	0.941864
235	40    	0.941864	0         	0.941864	0.941864
236	40    	0.941864	0         	0.941864	0.941864
237	40    	0.941864	0         	0.941864	0.941864
238	40    	0.941864	0         	0.941864	0.941864
239	40    	0.941864	0         	0.941864	0.941864
240	40    	0.941864	0         	0.941864	0.941864
241	40    	0.941864	0         	0.941864	0.941864
242	40    	0.941864	0         	0.941864	0.941864
243	40    	0.941864	0         	0.941864	0.941864
244	40    	0.941864	0         	0.941864	0.941864
245	40    	0.941864	0         	0.941864	0.941864
246	40    	0.941864	0         	0.941864	0.941864
247	40    	0.941864	0         	0.941864	0.941864
248	40    	0.941864	0         	0.941864	0.941864
249	40    	0.941864	0         	0.941864	0.941864
250	40    	0.941864	0         	0.941864	0.941864
