gen	nevals	avg     	std        	min     	max     
0  	20    	0.591515	0.0145571  	0.568512	0.631897
1  	40    	0.605214	0.00806223 	0.595093	0.631897
2  	40    	0.611655	0.00791636 	0.603271	0.633942
3  	40    	0.615642	0.00727155 	0.609406	0.633942
4  	40    	0.617993	0.00601705 	0.61145 	0.633942
5  	40    	0.620038	0.00527669 	0.61554 	0.633942
6  	40    	0.623207	0.00680835 	0.61554 	0.640076
7  	40    	0.626785	0.00806288 	0.617584	0.648254
8  	40    	0.631489	0.0105198  	0.621674	0.660538
9  	40    	0.638443	0.0104027  	0.627808	0.660538
10 	40    	0.647034	0.00837182 	0.635986	0.666672
11 	40    	0.648875	0.00685185 	0.640076	0.666672
12 	40    	0.656549	0.00697998 	0.648254	0.672806
13 	40    	0.662378	0.00652698 	0.652359	0.672806
14 	40    	0.668512	0.00504584 	0.660538	0.676895
15 	40    	0.672704	0.00406243 	0.668716	0.683029
16 	40    	0.674339	0.00397925 	0.668716	0.683029
17 	40    	0.678224	0.00372979 	0.672806	0.687119
18 	40    	0.680882	0.00351036 	0.676895	0.691208
19 	40    	0.683029	0.00408936 	0.67894 	0.695297
20 	40    	0.683847	0.00445158 	0.67894 	0.695297
21 	40    	0.687936	0.00463561 	0.680984	0.695297
22 	40    	0.690594	0.00360583 	0.685074	0.697342
23 	40    	0.694684	0.00371997 	0.689163	0.705521
24 	40    	0.697853	0.00408296 	0.693253	0.707565
25 	40    	0.697853	0.00408296 	0.693253	0.707565
26 	40    	0.700307	0.00395818 	0.695297	0.70961 
27 	40    	0.700307	0.00395818 	0.695297	0.70961 
28 	40    	0.703885	0.00406886 	0.699387	0.70961 
29 	40    	0.708894	0.00252706 	0.705521	0.715744
30 	40    	0.710939	0.0031857  	0.707565	0.719833
31 	40    	0.714619	0.00406243 	0.70961 	0.721878
32 	40    	0.717482	0.00298236 	0.713699	0.723923
33 	40    	0.719424	0.00278857 	0.715744	0.728012
34 	40    	0.721776	0.00319879 	0.717789	0.728012
35 	40    	0.724945	0.00299809 	0.719833	0.730057
36 	40    	0.726479	0.00273368 	0.721878	0.732101
37 	40    	0.728523	0.00397925 	0.723923	0.742325
38 	40    	0.731386	0.0049359  	0.728012	0.746414
39 	40    	0.73476 	0.00529647 	0.728012	0.746414
40 	40    	0.738542	0.00489336 	0.732101	0.748459
41 	40    	0.742939	0.00383221 	0.736191	0.750519
42 	40    	0.742939	0.00383221 	0.736191	0.750519
43 	40    	0.746313	0.00228654 	0.742325	0.750519
44 	40    	0.747541	0.00151741 	0.746414	0.750519
45 	40    	0.74959 	0.00228961 	0.746414	0.756653
46 	40    	0.752049	0.00288635 	0.748459	0.758698
47 	40    	0.752049	0.00288635 	0.748459	0.758698
48 	40    	0.753279	0.00260847 	0.750519	0.758698
49 	40    	0.754506	0.00245999 	0.752563	0.760742
50 	40    	0.755835	0.00236689 	0.752563	0.760742
51 	40    	0.756346	0.00217112 	0.754608	0.760742
52 	40    	0.758186	0.00280911 	0.754608	0.764832
53 	40    	0.760538	0.00223048 	0.756653	0.764832
54 	40    	0.762787	0.00303275 	0.760742	0.77301 
55 	40    	0.762787	0.00303275 	0.760742	0.77301 
56 	40    	0.7634  	0.0028258  	0.760742	0.77301 
57 	40    	0.765547	0.0027641  	0.762787	0.77301 
58 	40    	0.767183	0.00252706 	0.764832	0.77301 
59 	40    	0.769432	0.00273368 	0.766876	0.775055
60 	40    	0.771988	0.00270485 	0.768921	0.779144
61 	40    	0.774339	0.00252706 	0.770966	0.779144
62 	40    	0.774646	0.00247059 	0.770966	0.779144
63 	40    	0.776588	0.00181447 	0.775055	0.781189
64 	40    	0.777815	0.00185998 	0.775055	0.781189
65 	40    	0.77894 	0.0012769  	0.7771  	0.781189
66 	40    	0.779758	0.00113843 	0.779144	0.783234
67 	40    	0.780269	0.0013678  	0.779144	0.783234
68 	40    	0.780269	0.0013678  	0.779144	0.783234
69 	40    	0.781291	0.00219029 	0.779144	0.787323
70 	40    	0.782825	0.00178251 	0.781189	0.787323
71 	40    	0.784052	0.00150253 	0.781189	0.787323
72 	40    	0.784972	0.00148503 	0.783234	0.787323
73 	40    	0.786301	0.00137161 	0.785278	0.789368
74 	40    	0.787119	0.0012769  	0.785278	0.789368
75 	40    	0.788652	0.00174398 	0.787323	0.793457
76 	40    	0.789879	0.00257621 	0.787323	0.795502
77 	40    	0.792332	0.00299634 	0.789368	0.799591
78 	40    	0.794275	0.00277354 	0.791412	0.801636
79 	40    	0.796524	0.00219267 	0.793457	0.801636
80 	40    	0.797649	0.00209268 	0.795502	0.801636
81 	40    	0.799182	0.00178251 	0.795502	0.801636
82 	40    	0.799182	0.00178251 	0.795502	0.801636
83 	40    	0.799182	0.00178251 	0.795502	0.801636
84 	40    	0.799796	0.00169844 	0.797546	0.80368 
85 	40    	0.800307	0.00133688 	0.797546	0.80368 
86 	40    	0.800307	0.00133688 	0.797546	0.80368 
87 	40    	0.800613	0.00120965 	0.799591	0.80368 
88 	40    	0.800613	0.00120965 	0.799591	0.80368 
89 	40    	0.801022	0.00113843 	0.799591	0.80368 
90 	40    	0.801022	0.00113843 	0.799591	0.80368 
91 	40    	0.801738	0.000445627	0.801636	0.80368 
92 	40    	0.801738	0.000445627	0.801636	0.80368 
93 	40    	0.802045	0.000817871	0.801636	0.80368 
94 	40    	0.802454	0.00119224 	0.801636	0.805725
95 	40    	0.803169	0.00156722 	0.801636	0.805725
96 	40    	0.803169	0.00156722 	0.801636	0.805725
97 	40    	0.803169	0.00156722 	0.801636	0.805725
98 	40    	0.803169	0.00156722 	0.801636	0.805725
99 	40    	0.803783	0.00176779 	0.801636	0.80777 
100	40    	0.804805	0.00209268 	0.801636	0.811859
101	40    	0.804805	0.00209268 	0.801636	0.811859
102	40    	0.806134	0.00229515 	0.80368 	0.811859
103	40    	0.80777 	0.00223983 	0.805725	0.811859
104	40    	0.809201	0.00184021 	0.80777 	0.813904
105	40    	0.810223	0.00189616 	0.80777 	0.813904
106	40    	0.812064	0.00223048 	0.809814	0.817993
107	40    	0.813802	0.00188233 	0.811859	0.817993
108	40    	0.815846	0.00245999 	0.813904	0.822083
109	40    	0.817584	0.00200337 	0.815948	0.822083
110	40    	0.817584	0.00200337 	0.815948	0.822083
111	40    	0.819424	0.00130923 	0.817993	0.822083
112	40    	0.819629	0.00138677 	0.817993	0.822083
113	40    	0.819629	0.00138677 	0.817993	0.822083
114	40    	0.820549	0.00109634 	0.820038	0.824127
115	40    	0.821469	0.0019505  	0.820038	0.826172
116	40    	0.822287	0.00241064 	0.820038	0.828217
117	40    	0.823923	0.00203443 	0.822083	0.828217
118	40    	0.823923	0.00203443 	0.822083	0.828217
119	40    	0.824025	0.00199028 	0.822083	0.828217
120	40    	0.824025	0.00199028 	0.822083	0.828217
121	40    	0.824434	0.00235582 	0.822083	0.830261
122	40    	0.825661	0.00203186 	0.822083	0.830261
123	40    	0.827296	0.00176779 	0.824127	0.830261
124	40    	0.827296	0.00176779 	0.824127	0.830261
125	40    	0.828625	0.0015301  	0.826172	0.832306
126	40    	0.829955	0.00217112 	0.828217	0.836395
127	40    	0.831284	0.00228602 	0.828217	0.836395
128	40    	0.831284	0.00228602 	0.828217	0.836395
129	40    	0.832101	0.00192895 	0.830261	0.836395
130	40    	0.83343 	0.00151292 	0.832306	0.836395
131	40    	0.83343 	0.00151292 	0.832306	0.836395
132	40    	0.83343 	0.00151292 	0.832306	0.836395
133	40    	0.83343 	0.00151292 	0.832306	0.836395
134	40    	0.834555	0.0012769  	0.832306	0.836395
135	40    	0.835066	0.000975249	0.834351	0.836395
136	40    	0.835475	0.00101721 	0.834351	0.836395
137	40    	0.835475	0.00101721 	0.834351	0.836395
138	40    	0.835884	0.00109634 	0.834351	0.83844 
139	40    	0.836497	0.00101721 	0.834351	0.83844 
140	40    	0.836906	0.00109634 	0.836395	0.840485
141	40    	0.837315	0.0013678  	0.836395	0.840485
142	40    	0.837315	0.0013678  	0.836395	0.840485
143	40    	0.838031	0.00138677 	0.836395	0.840485
144	40    	0.838031	0.00138677 	0.836395	0.840485
145	40    	0.838031	0.00138677 	0.836395	0.840485
146	40    	0.838133	0.00133688 	0.836395	0.840485
147	40    	0.838849	0.000817871	0.83844 	0.840485
148	40    	0.839258	0.00119224 	0.83844 	0.842529
149	40    	0.839871	0.00130923 	0.83844 	0.842529
150	40    	0.840996	0.000885371	0.840485	0.842529
151	40    	0.840996	0.000885371	0.840485	0.842529
152	40    	0.841098	0.000936989	0.840485	0.842529
153	40    	0.841609	0.0013678  	0.840485	0.844574
154	40    	0.841711	0.00135629 	0.840485	0.844574
155	40    	0.842632	0.00101721 	0.840485	0.844574
156	40    	0.843347	0.00119224 	0.842529	0.846619
157	40    	0.844165	0.00138677 	0.842529	0.846619
158	40    	0.844165	0.00138677 	0.842529	0.846619
159	40    	0.844676	0.00120532 	0.842529	0.846619
160	40    	0.844676	0.00120532 	0.842529	0.846619
161	40    	0.844676	0.00120532 	0.842529	0.846619
162	40    	0.844676	0.00120532 	0.842529	0.846619
163	40    	0.845699	0.0013678  	0.844574	0.848663
164	40    	0.84621 	0.0015301  	0.844574	0.848663
165	40    	0.846414	0.00143127 	0.844574	0.848663
166	40    	0.847745	0.00137111 	0.846619	0.850723
167	40    	0.849078	0.00139307 	0.846619	0.850723
168	40    	0.849899	0.00119931 	0.848663	0.852768
169	40    	0.850515	0.0012824  	0.848663	0.852768
170	40    	0.850515	0.0012824  	0.848663	0.852768
171	40    	0.850618	0.00121024 	0.848663	0.852768
172	40    	0.85103 	0.000730096	0.850723	0.852768
173	40    	0.85103 	0.000730096	0.850723	0.852768
174	40    	0.85103 	0.000730096	0.850723	0.852768
175	40    	0.851439	0.00117012 	0.850723	0.854813
176	40    	0.851848	0.00151292 	0.850723	0.854813
177	40    	0.852052	0.00161969 	0.850723	0.854813
178	40    	0.853279	0.00156722 	0.850723	0.856857
179	40    	0.853279	0.00156722 	0.850723	0.856857
180	40    	0.854301	0.00142762 	0.852768	0.856857
181	40    	0.85563 	0.00119224 	0.854813	0.858902
182	40    	0.855733	0.00120532 	0.854813	0.858902
183	40    	0.856039	0.00135629 	0.854813	0.858902
184	40    	0.856448	0.00122681 	0.854813	0.858902
185	40    	0.857266	0.00104259 	0.854813	0.858902
186	40    	0.857368	0.000885371	0.856857	0.858902
187	40    	0.857471	0.000936989	0.856857	0.858902
188	40    	0.857471	0.000936989	0.856857	0.858902
189	40    	0.857777	0.00101721 	0.856857	0.858902
190	40    	0.858595	0.00117012 	0.856857	0.860947
191	40    	0.859311	0.000817871	0.858902	0.860947
192	40    	0.859311	0.000817871	0.858902	0.860947
193	40    	0.859311	0.000817871	0.858902	0.860947
194	40    	0.859311	0.000817871	0.858902	0.860947
195	40    	0.859618	0.000975249	0.858902	0.860947
196	40    	0.859924	0.00102234 	0.858902	0.860947
197	40    	0.860027	0.00101721 	0.858902	0.860947
198	40    	0.860844	0.00120532 	0.858902	0.865036
199	40    	0.861253	0.000975249	0.860947	0.865036
200	40    	0.861765	0.00119224 	0.860947	0.865036
201	40    	0.862378	0.00130923 	0.860947	0.865036
202	40    	0.863196	0.00110109 	0.860947	0.865036
203	40    	0.863196	0.00110109 	0.860947	0.865036
204	40    	0.863196	0.00110109 	0.860947	0.865036
205	40    	0.863503	0.000885371	0.862991	0.865036
206	40    	0.863503	0.000885371	0.862991	0.865036
207	40    	0.863809	0.00119224 	0.862991	0.867081
208	40    	0.863809	0.00119224 	0.862991	0.867081
209	40    	0.86432 	0.00148503 	0.862991	0.867081
210	40    	0.86432 	0.00148503 	0.862991	0.867081
211	40    	0.864627	0.00138677 	0.862991	0.867081
212	40    	0.864832	0.0012769  	0.862991	0.867081
213	40    	0.864832	0.0012769  	0.862991	0.867081
214	40    	0.865036	0.00129317 	0.862991	0.867081
215	40    	0.865854	0.00100168 	0.865036	0.867081
216	40    	0.866263	0.00119224 	0.865036	0.869125
217	40    	0.866365	0.00117012 	0.865036	0.869125
218	40    	0.866774	0.000975249	0.865036	0.869125
219	40    	0.867387	0.000730096	0.867081	0.869125
220	40    	0.867387	0.000730096	0.867081	0.869125
221	40    	0.867387	0.000730096	0.867081	0.869125
222	40    	0.867387	0.000730096	0.867081	0.869125
223	40    	0.867592	0.000885371	0.867081	0.869125
224	40    	0.867592	0.000885371	0.867081	0.869125
225	40    	0.867899	0.00100168 	0.867081	0.869125
226	40    	0.868307	0.00100168 	0.867081	0.869125
227	40    	0.868512	0.000936989	0.867081	0.869125
228	40    	0.868716	0.000817871	0.867081	0.869125
229	40    	0.868716	0.000817871	0.867081	0.869125
230	40    	0.868716	0.000817871	0.867081	0.869125
231	40    	0.868716	0.000817871	0.867081	0.869125
232	40    	0.868716	0.000817871	0.867081	0.869125
233	40    	0.868819	0.000730096	0.867081	0.869125
234	40    	0.869228	0.000445627	0.869125	0.87117 
235	40    	0.86933 	0.000613403	0.869125	0.87117 
236	40    	0.86933 	0.000613403	0.869125	0.87117 
237	40    	0.86933 	0.000613403	0.869125	0.87117 
238	40    	0.869432	0.000730096	0.869125	0.87117 
239	40    	0.869432	0.000730096	0.869125	0.87117 
240	40    	0.869739	0.000936989	0.869125	0.87117 
241	40    	0.870045	0.00101721 	0.869125	0.87117 
242	40    	0.870454	0.000975249	0.869125	0.87117 
243	40    	0.870557	0.000936989	0.869125	0.87117 
244	40    	0.87117 	0.000646584	0.869125	0.873215
245	40    	0.87117 	0.000646584	0.869125	0.873215
246	40    	0.871375	0.000613403	0.87117 	0.873215
247	40    	0.871375	0.000613403	0.87117 	0.873215
248	40    	0.871375	0.000613403	0.87117 	0.873215
249	40    	0.871477	0.000730096	0.87117 	0.873215
250	40    	0.871477	0.000730096	0.87117 	0.873215
