0.602448	1
0.604202	2
0.607712	5
0.609451	8
0.611206	13
0.612961	14
0.614716	15
0.61821	17
0.619965	21
0.623474	36
0.625214	37
0.628723	38
0.630478	40
0.632217	43
0.633972	44
0.637482	46
0.640976	49
0.644485	53
0.64624	54
0.649734	57
0.651489	71
0.653244	75
0.654999	79
0.656738	84
0.658493	90
0.660248	92
0.662003	100
0.663742	104
0.667252	105
0.669006	109
0.672501	110
0.674255	112
0.67601	113
0.677765	116
0.679504	121
0.681259	122
0.683014	125
0.684769	136
0.686508	138
0.690018	143
0.691772	144
0.693527	147
0.697021	151
0.700531	155
0.704025	159
0.70578	169
0.707535	172
0.70929	174
0.711029	175
0.712784	195
0.714539	197
0.716293	198
0.718033	212
0.719788	217
0.721542	231
0.725037	232
0.726791	233
0.730301	237
0.732056	239
0.733795	241
0.73555	244
0.737305	247
0.739059	248
0.740799	251
0.742554	257
0.744308	262
0.746063	263
0.749557	264
0.751312	266
0.754822	267
0.756561	273
0.758316	281
0.760071	282
0.761826	284
0.76358	288
0.76532	293
0.767075	296
0.768829	298
0.770584	304
0.772324	307
0.774078	311
0.775833	319
0.779327	324
0.781082	326
0.782837	329
0.784592	332
0.788086	336
0.789841	339
0.791595	346
0.79509	357
0.796844	358
0.798599	377
0.800354	379
0.802109	403
0.803848	408
0.805603	415
0.807358	420
0.809113	421
0.810852	429
0.812607	434
0.814362	435
0.816116	447
0.817856	451
0.819611	457
0.821365	486
0.82312	500
0.824875	503
0.826614	517
0.828369	518
0.830124	533
0.831879	534
0.833618	539
0.835373	566
0.838882	568
0.842377	576
0.844131	582
0.845886	594
0.847641	597
0.84938	599
0.851135	603
0.85289	604
0.854645	608
0.8564	638
0.858139	645
0.859894	647
0.861649	653
0.863403	656
0.865143	673
0.866898	828
0.868652	881
0.870407	1057
0.872147	1140
0.873901	1230
0.875656	1298
0.877411	1300
0.879166	1348
0.880905	1971
0.88266	1993
0 0 1
0.88266 1993
