0.597168	1
0.604233	2
0.611313	3
0.618378	6
0.632507	20
0.639572	21
0.646637	25
0.653717	29
0.660782	30
0.667847	36
0.674911	37
0.681976	41
0.689041	43
0.696106	51
0.703186	56
0.710251	57
0.717316	60
0.731445	66
0.73851	68
0.74559	72
0.752655	75
0.766785	78
0.773849	86
0.780914	87
0.787979	97
0.795059	100
0.809189	104
0.816254	106
0.823318	109
0.830383	126
0.837463	132
0.844528	138
0.851593	145
0.858658	148
0.865723	164
0.872787	169
0.879852	223
0.886932	341
0.893997	666
0.901062	704
0.908127	1031
0.915192	3404
0.922256	3607
0.929321	3691
0.936401	8739
0.950531	8742
0.957596	8776
0.964661	8935
0 0 1
0.964661 8935
