Run:0 Evals:1529 MES:1529 MAD:0 Failure:0 Best:1 Solution:1
Run:0 Evals:3270 MES:3270 MAD:0 Failure:0 Best:1 Solution:1
Run:0 Evals:4373 MES:4373 MAD:0 Failure:0 Best:1 Solution:1
Run:0 Evals:1742 MES:1742 MAD:0 Failure:0 Best:1 Solution:1
Run:0 Evals:909 MES:909 MAD:0 Failure:0 Best:1 Solution:1
Run:0 Evals:2587 MES:2587 MAD:0 Failure:0 Best:1 Solution:1
Run:0 Evals:1383 MES:1383 MAD:0 Failure:0 Best:1 Solution:1
Run:0 Evals:1367 MES:1367 MAD:0 Failure:0 Best:1 Solution:1
Run:0 Evals:196 MES:196 MAD:0 Failure:0 Best:1 Solution:1
Run:0 Evals:1096 MES:1096 MAD:0 Failure:0 Best:1 Solution:1
