0.623535	1
0.6353	2
0.647064	4
0.670593	5
0.694122	8
0.705887	10
0.717651	21
0.729416	29
0.752945	31
0.776474	33
0.788239	42
0.800003	50
0.811768	63
0.823532	67
0.835297	75
0.847061	82
0.858826	88
0.87059	100
0.882355	140
0.894119	152
0.905884	171
0.917648	183
0.929413	231
0.941177	1616
0.952942	2267
0.964706	2387
0.976471	5237
0.988235	6311
1	6316
6316 0 0
1 6316
