0.552841	1
0.560974	5
0.57724	8
0.585373	9
0.593491	10
0.609756	12
0.617889	13
0.626022	16
0.642273	19
0.650406	25
0.666672	28
0.674789	30
0.682922	36
0.691055	41
0.699188	48
0.707321	49
0.723572	53
0.731705	56
0.739838	73
0.747971	79
0.756104	81
0.764221	87
0.780487	94
0.78862	96
0.796753	99
0.804871	109
0.813004	112
0.821136	113
0.829269	124
0.845535	135
0.853653	137
0.861786	194
0.869919	196
0.878052	215
0.886185	252
0.894302	256
0.902435	2732
0.910568	3548
0.918701	3727
0.926834	3778
0.934952	3827
0.951218	8811
0.959351	8840
0.967484	10767
0 0 1
0.967484 10767
