0.604935	1
0.629623	4
0.654327	13
0.679016	15
0.703705	19
0.728394	20
0.753082	34
0.777771	35
0.802475	39
0.827164	42
0.851852	46
0.876541	48
0.90123	63
0.925919	267
0.950623	629
0.975311	863
1	864
864 0 0
1 864
