0.585373	1
0.601624	2
0.609756	4
0.617889	5
0.626022	6
0.63414	8
0.642273	15
0.650406	16
0.658539	22
0.666672	24
0.674789	25
0.682922	27
0.691055	29
0.699188	30
0.707321	33
0.715454	35
0.723572	38
0.731705	51
0.739838	58
0.747971	59
0.756104	65
0.764221	71
0.772354	78
0.780487	79
0.78862	84
0.796753	85
0.804871	107
0.813004	117
0.821136	118
0.829269	123
0.837402	128
0.845535	130
0.853653	135
0.861786	145
0.869919	169
0.878052	171
0.886185	185
0.894302	244
0.902435	318
0.910568	3606
0.918701	3802
0.926834	3849
0.934952	4513
0.943085	4521
0.959351	7801
0.967484	7830
0.975616	7958
0.983734	8747
0 0 1
0.983734 8747
