0.603775	1
0.622635	2
0.64151	3
0.66037	9
0.679245	15
0.69812	21
0.71698	28
0.735855	29
0.754715	40
0.77359	41
0.79245	45
0.811325	46
0.830185	50
0.84906	52
0.86792	54
0.886795	61
0.905655	723
0.92453	877
0.94339	907
0.962265	922
0.981125	2510
1	4872
4872 0 0
1 4872
