0.571594	1
0.573807	4
0.576019	7
0.578247	8
0.58046	20
0.5849	22
0.587128	32
0.591568	33
0.593781	40
0.596008	44
0.600449	50
0.602661	57
0.607101	58
0.609329	63
0.611542	66
0.61377	68
0.615982	70
0.618195	73
0.620422	75
0.624863	83
0.627075	89
0.629303	92
0.633743	93
0.635956	98
0.638184	103
0.642624	110
0.644836	111
0.647064	120
0.649277	121
0.651505	126
0.653717	128
0.655945	138
0.658157	141
0.66037	142
0.662598	148
0.66481	151
0.667038	152
0.671478	161
0.673691	163
0.675919	164
0.678131	166
0.680359	168
0.682571	171
0.684799	175
0.687012	179
0.691452	184
0.695892	187
0.69812	199
0.700333	207
0.704773	208
0.709213	212
0.711426	217
0.713654	224
0.718094	229
0.720306	230
0.722534	232
0.724747	236
0.729187	240
0.731415	243
0.735855	245
0.738068	249
0.740295	255
0.742508	256
0.744736	259
0.746948	261
0.749161	263
0.751389	269
0.753601	270
0.755829	273
0.758041	286
0.762482	293
0.766922	295
0.76915	306
0.771362	312
0.77359	318
0.775803	322
0.77803	324
0.780243	328
0.782471	330
0.784683	337
0.786911	338
0.791336	351
0.795776	358
0.798004	360
0.800217	361
0.802444	362
0.804657	372
0.806885	373
0.809097	382
0.811325	399
0.813538	401
0.815765	415
0.817978	421
0.822418	428
0.824646	429
0.826859	438
0.829086	448
0.831299	467
0.833511	469
0.835739	477
0.840179	484
0.842392	497
0.84462	500
0.846832	502
0.851273	503
0.8535	506
0.855713	515
0.860153	517
0.862381	523
0.866821	526
0.869034	527
0.871262	529
0.875687	629
0.877914	733
0.880127	786
0.882355	795
0.884567	801
0.886795	926
0.889008	4494
0 0 1
0.889008 4494
