0.614456	1
0.63855	2
0.650604	5
0.662643	7
0.674698	12
0.686752	15
0.710846	20
0.722885	22
0.73494	26
0.746994	28
0.759033	32
0.771088	34
0.783127	38
0.807236	41
0.819275	50
0.831329	54
0.843369	56
0.855423	60
0.867477	83
0.891571	92
0.90361	526
0.915665	539
0.927704	984
0.939758	2529
0.951813	2570
0.963852	2866
0.975906	4178
0.987946	4784
1	7397
7397 0 0
1 7397
