0.580139	1
0.581879	4
0.585373	5
0.587112	16
0.588852	20
0.592331	21
0.59407	24
0.595825	30
0.597565	32
0.599304	33
0.601044	34
0.602783	37
0.604523	41
0.608017	48
0.609756	49
0.611496	52
0.613235	55
0.61499	57
0.618469	59
0.620209	61
0.621948	63
0.623688	67
0.625443	76
0.628922	80
0.630661	81
0.632401	83
0.635895	85
0.637634	86
0.639374	88
0.641113	89
0.644592	91
0.648087	92
0.651566	93
0.653305	96
0.65506	100
0.656799	105
0.658539	106
0.660278	112
0.663757	117
0.665512	119
0.667252	120
0.670731	121
0.67247	131
0.67421	139
0.677704	140
0.679443	144
0.681183	145
0.682922	149
0.684662	150
0.686417	151
0.688156	152
0.689896	154
0.691635	155
0.695129	158
0.696869	166
0.698608	169
0.700348	170
0.702087	174
0.705582	179
0.707321	183
0.709061	185
0.7108	191
0.71254	195
0.714279	196
0.716034	197
0.717773	200
0.719513	218
0.721252	224
0.724731	225
0.726486	229
0.728226	231
0.729965	233
0.731705	238
0.733444	239
0.735199	245
0.738678	247
0.740417	254
0.743896	256
0.745651	257
0.747391	258
0.74913	269
0.75087	270
0.752609	271
0.754349	280
0.756104	283
0.757843	285
0.761322	288
0.763062	289
0.764801	290
0.766556	296
0.768295	302
0.770035	307
0.771774	308
0.773514	311
0.775269	313
0.778748	322
0.780487	326
0.782227	335
0.783966	340
0.78746	343
0.7892	355
0.790939	356
0.792679	367
0.794418	376
0.797913	377
0.799652	383
0.801392	389
0.804871	390
0.806625	394
0.808365	396
0.810104	401
0.811844	407
0.813583	416
0.815338	428
0.818817	442
0.822296	444
0.824036	452
0.82579	454
0.82753	456
0.831009	466
0.832748	467
0.834488	474
0.836243	480
0.837982	481
0.839722	482
0.841461	483
0.84494	490
0.846695	492
0.848434	493
0.850174	507
0.851913	511
0.853653	512
0.855408	519
0.857147	523
0.858887	560
0.860626	570
0.862366	578
0.864105	599
0.86586	604
0.867599	611
0.869339	622
0.871078	629
0.872818	632
0.874557	644
0.876312	646
0.878052	696
0.879791	775
0.881531	991
0.88327	994
0.885025	1223
0.886765	1244
0.890244	1295
0.891983	3240
0.893723	3250
0.895477	3813
0.897217	8088
0 0 1
0.897217 8088
