0.600449	1
0.602661	4
0.607101	7
0.609329	8
0.611542	15
0.615982	17
0.618195	18
0.620422	33
0.624863	36
0.627075	37
0.631516	41
0.633743	46
0.635956	47
0.638184	58
0.640396	59
0.644836	64
0.649277	66
0.653717	68
0.655945	72
0.658157	80
0.662598	84
0.66481	96
0.667038	100
0.671478	101
0.673691	104
0.675919	108
0.678131	111
0.682571	119
0.684799	124
0.687012	131
0.68924	135
0.691452	136
0.69368	138
0.695892	140
0.69812	141
0.702545	142
0.704773	151
0.709213	154
0.711426	156
0.713654	159
0.715866	160
0.718094	175
0.720306	177
0.724747	178
0.729187	181
0.731415	182
0.733627	183
0.738068	187
0.740295	195
0.742508	228
0.744736	231
0.746948	232
0.749161	233
0.751389	237
0.753601	241
0.755829	246
0.758041	252
0.760269	255
0.762482	259
0.764709	262
0.766922	263
0.76915	279
0.771362	289
0.77359	290
0.77803	293
0.780243	298
0.782471	302
0.784683	304
0.789124	308
0.791336	313
0.793564	324
0.795776	334
0.798004	348
0.802444	352
0.804657	353
0.806885	358
0.809097	364
0.811325	370
0.813538	377
0.815765	378
0.817978	380
0.820206	388
0.822418	394
0.824646	403
0.826859	417
0.829086	421
0.831299	424
0.835739	428
0.837952	438
0.840179	439
0.842392	451
0.84462	478
0.846832	482
0.84906	502
0.851273	509
0.8535	520
0.857941	525
0.860153	570
0.862381	591
0.864594	599
0.866821	782
0.871262	2010
0.873474	2033
0.875687	2063
0.877914	2074
0.880127	2100
0.882355	2198
0.884567	2257
0.886795	2315
0.889008	2348
0.891235	3914
0.893448	3932
0.895676	7184
0.897888	7255
0.900116	7637
0 0 1
0.900116 7637
