0.5849	1
0.622635	2
0.64151	3
0.66037	15
0.679245	18
0.69812	22
0.735855	25
0.754715	36
0.77359	38
0.79245	40
0.830185	47
0.84906	53
0.86792	91
0.886795	327
0.905655	568
0.92453	573
0.94339	639
0.962265	1143
0.981125	1144
1	4303
4303 0 0
1 4303
