0.605698	1
0.607727	7
0.609756	8
0.611786	12
0.61586	13
0.617889	14
0.619919	15
0.623978	18
0.626022	32
0.628052	35
0.632111	36
0.63414	40
0.636185	43
0.638214	47
0.640244	57
0.642273	67
0.644302	75
0.646347	76
0.650406	78
0.652435	81
0.656509	82
0.658539	84
0.660568	89
0.662598	90
0.664627	96
0.666672	97
0.668701	99
0.67276	100
0.674789	102
0.676834	111
0.678864	112
0.680893	113
0.682922	115
0.684952	116
0.686996	124
0.689026	135
0.693085	138
0.695129	142
0.699188	147
0.701218	149
0.703247	154
0.705292	155
0.707321	176
0.71138	190
0.713409	192
0.715454	197
0.717484	198
0.719513	202
0.721542	206
0.725616	215
0.729675	216
0.731705	225
0.733734	229
0.735779	230
0.737808	231
0.741867	233
0.743896	238
0.747971	239
0.75	252
0.752029	254
0.754059	257
0.758133	261
0.760162	264
0.764221	265
0.766266	269
0.770325	273
0.772354	275
0.774384	281
0.776428	282
0.778458	291
0.780487	292
0.782516	295
0.784546	304
0.786591	305
0.78862	314
0.790649	320
0.792679	329
0.794708	331
0.796753	334
0.798782	335
0.800812	337
0.802841	340
0.804871	342
0.808945	351
0.810974	371
0.813004	372
0.815048	392
0.817078	396
0.819107	409
0.821136	420
0.823166	425
0.825211	429
0.82724	437
0.829269	446
0.831299	449
0.833328	477
0.835373	481
0.837402	497
0.839432	500
0.841461	502
0.843491	515
0.845535	527
0.847565	541
0.849594	549
0.853653	556
0.855698	558
0.857727	616
0.859756	778
0.861786	812
0.863815	887
0.867889	1054
0.869919	1094
0.871948	2549
0.873978	2600
0.876022	2713
0.878052	2910
0.880081	3403
0.882111	11180
0 0 1
0.882111 11180
