0.566574	1
0.577026	6
0.582245	10
0.587463	11
0.592682	22
0.597916	32
0.603134	36
0.608353	37
0.613571	38
0.618805	44
0.624023	56
0.629242	58
0.63446	60
0.644913	63
0.650131	72
0.65535	75
0.660568	82
0.665802	83
0.671021	87
0.676239	91
0.681458	94
0.686691	95
0.697128	101
0.702347	106
0.707565	108
0.712799	110
0.718018	114
0.723236	119
0.728455	122
0.738907	123
0.744125	127
0.754562	132
0.759796	134
0.770233	135
0.775452	136
0.780685	142
0.785904	151
0.791122	158
0.796341	160
0.801559	163
0.806793	166
0.812012	169
0.81723	191
0.827682	193
0.832901	206
0.843338	219
0.848557	222
0.85379	224
0.859009	229
0.869446	233
0.87468	255
0.879898	286
0.885117	346
0.890335	348
0.895569	384
0.900787	427
0.906006	1640
0.911224	1688
0.916443	1700
0.921677	1705
0.926895	1763
0.932114	9582
0 0 1
0.932114 9582
