0.483871	1
0.516129	2
0.548386	7
0.580643	9
0.6129	10
0.645157	13
0.677414	14
0.709671	16
0.741928	20
0.7742	25
0.806458	26
0.838715	33
0.870972	117
0.903229	138
0.935486	243
0.967743	911
1	1383
1383 0 0
1 1383
