0.600647	1
0.602264	3
0.605499	12
0.608734	13
0.611969	20
0.613586	39
0.616821	41
0.618439	48
0.620056	52
0.621658	55
0.623276	65
0.624893	76
0.626511	80
0.628128	86
0.629745	87
0.631363	91
0.63298	94
0.634598	97
0.637833	99
0.641068	100
0.642685	102
0.64592	104
0.649155	105
0.65239	110
0.654007	113
0.655624	130
0.657242	132
0.658859	141
0.660461	143
0.662079	146
0.663696	154
0.665314	160
0.666931	162
0.670166	164
0.673401	168
0.675018	170
0.676636	175
0.678253	188
0.681488	191
0.683105	192
0.684723	194
0.68634	197
0.687958	200
0.689575	201
0.691193	203
0.694427	208
0.696045	214
0.69928	217
0.700882	219
0.702499	220
0.704117	221
0.705734	222
0.707352	230
0.708969	235
0.710587	239
0.712204	253
0.715439	257
0.717056	265
0.718674	270
0.720291	272
0.721909	274
0.723526	281
0.726761	291
0.728378	296
0.731613	299
0.733231	301
0.734848	308
0.736465	309
0.738083	314
0.7397	316
0.741302	317
0.74292	325
0.744537	327
0.746155	328
0.747772	329
0.74939	330
0.751007	338
0.752625	343
0.754242	347
0.755859	348
0.757477	350
0.759094	352
0.760712	356
0.763947	371
0.767181	373
0.770416	374
0.772034	380
0.775269	382
0.776886	390
0.778503	396
0.780106	424
0.781723	429
0.78334	431
0.784958	438
0.788193	442
0.791428	454
0.793045	457
0.79628	466
0.797897	473
0.799515	475
0.801132	480
0.804367	487
0.805984	499
0.809219	500
0.810837	504
0.812454	515
0.814072	518
0.815689	524
0.817307	525
0.818924	527
0.822144	531
0.823761	534
0.825378	536
0.828613	539
0.830231	542
0.831848	543
0.833466	552
0.835083	559
0.8367	560
0.838318	564
0.841553	576
0.84317	592
0.844788	606
0.846405	618
0.848022	629
0.851257	638
0.852875	640
0.854492	650
0.85611	651
0.857727	655
0.860947	670
0.862564	673
0.864182	678
0.865799	714
0.867416	716
0.869034	744
0.870651	974
0.872269	1031
0.873886	1121
0.875504	1130
0.877121	1221
0.878738	1235
0.880356	1249
0.881973	1358
0.883591	1454
0.885208	1645
0.886826	1815
0.888443	1833
0.89006	1935
0.891678	1997
0.893295	6709
0.894913	6716
0.89653	6816
0 0 1
0.89653 6816
