0.642853	1
0.654755	2
0.666672	3
0.678574	11
0.690475	15
0.714279	23
0.726196	26
0.75	31
0.761902	38
0.773804	39
0.785721	44
0.797623	55
0.821426	71
0.833328	95
0.857147	98
0.869049	850
0.880951	851
0.892853	855
0.916672	871
0.928574	2217
0.940475	2344
0.952377	4452
0.964279	4513
0.976196	4568
0 0 1
0.976196 4568
