Run:0 Evals:2412 MES:2412 MAD:0 Failure:0 Best:1 Solution:1
Run:0 Evals:1102 MES:1102 MAD:0 Failure:0 Best:1 Solution:1
Run:0 Evals:1944 MES:1944 MAD:0 Failure:0 Best:1 Solution:1
Run:0 Evals:3156 MES:3156 MAD:0 Failure:0 Best:1 Solution:1
Run:0 Evals:1685 MES:1685 MAD:0 Failure:0 Best:1 Solution:1
Run:0 Evals:864 MES:864 MAD:0 Failure:0 Best:1 Solution:1
Run:0 Evals:2075 MES:2075 MAD:0 Failure:0 Best:1 Solution:1
Run:0 Evals:1251 MES:1251 MAD:0 Failure:0 Best:1 Solution:1
Run:0 Evals:1044 MES:1044 MAD:0 Failure:0 Best:1 Solution:1
Run:0 Evals:986 MES:986 MAD:0 Failure:0 Best:1 Solution:1
