0.583038	1
0.597168	3
0.604233	10
0.611313	11
0.618378	17
0.625443	20
0.632507	21
0.639572	22
0.653717	23
0.660782	25
0.667847	27
0.674911	32
0.681976	33
0.689041	34
0.696106	46
0.703186	50
0.710251	51
0.717316	68
0.72438	71
0.731445	73
0.73851	75
0.74559	83
0.752655	85
0.75972	90
0.766785	91
0.773849	96
0.780914	98
0.787979	110
0.795059	111
0.802124	116
0.809189	118
0.816254	121
0.823318	125
0.837463	132
0.844528	133
0.851593	135
0.865723	143
0.879852	148
0.886932	155
0.893997	194
0.901062	246
0.908127	271
0.915192	296
0.922256	297
0.929321	4498
0.936401	4548
0.943466	4555
0.950531	4695
0.957596	4875
0.964661	7028
0.971725	7118
0 0 1
0.971725 7118
