0.6259	1
0.629501	4
0.633087	5
0.636688	6
0.640289	7
0.64389	10
0.651077	12
0.654678	17
0.658279	20
0.661865	23
0.669067	27
0.672668	32
0.679855	46
0.683456	48
0.687057	50
0.694244	56
0.697845	58
0.701431	64
0.708633	71
0.712234	91
0.71582	92
0.719421	94
0.723022	96
0.726624	116
0.730209	118
0.73381	119
0.737411	122
0.741013	124
0.744598	135
0.748199	143
0.751801	152
0.755402	166
0.758987	168
0.762589	170
0.76619	171
0.769791	173
0.773376	183
0.780579	185
0.78418	193
0.787766	200
0.791367	205
0.794968	210
0.798569	212
0.802155	215
0.805756	216
0.812943	231
0.816544	237
0.820145	255
0.823746	259
0.827332	265
0.830933	267
0.838135	276
0.841721	284
0.845322	289
0.848923	300
0.852524	307
0.85611	311
0.859711	318
0.863312	423
0.866913	435
0.870499	444
0.8741	486
0.877701	504
0.881302	574
0.884888	2590
0.888489	2729
0.89209	9755
0.895691	10588
0.899277	11018
0.902878	11019
0.906479	11046
0.910065	11077
0.913666	11106
0.917267	11138
0.920868	11157
0.924454	11165
0 0 1
0.924454 11165
