Run:0 Evals:2687 MES:2687 MAD:0 Failure:0 Best:1 Solution:1
Run:0 Evals:3592 MES:0 MAD:0 Failure:1 Best:0.981125 Solution:1
Run:0 Evals:3638 MES:3638 MAD:0 Failure:0 Best:1 Solution:1
Run:0 Evals:3124 MES:3124 MAD:0 Failure:0 Best:1 Solution:1
Run:0 Evals:4303 MES:4303 MAD:0 Failure:0 Best:1 Solution:1
Run:0 Evals:9736 MES:9736 MAD:0 Failure:0 Best:1 Solution:1
Run:0 Evals:4535 MES:4535 MAD:0 Failure:0 Best:1 Solution:1
Run:0 Evals:4684 MES:4684 MAD:0 Failure:0 Best:1 Solution:1
Run:0 Evals:5225 MES:5225 MAD:0 Failure:0 Best:1 Solution:1
Run:0 Evals:4872 MES:4872 MAD:0 Failure:0 Best:1 Solution:1
