0.540237	1
0.551727	2
0.563217	9
0.574707	11
0.586212	13
0.609192	14
0.620697	16
0.632187	20
0.643677	21
0.655167	30
0.666672	40
0.678162	43
0.689651	51
0.701157	54
0.712646	60
0.724136	61
0.735626	62
0.747131	66
0.770111	77
0.781616	80
0.793106	86
0.816086	87
0.839081	95
0.850571	107
0.862076	111
0.873566	180
0.885056	1022
0.896545	1810
0.908051	1978
0.91954	2735
0.93103	2739
0.942535	3159
0.954025	4093
0.965515	4099
0.977005	4111
0.98851	6374
1	7420
7420 0 0
1 7420
