gen	nevals	avg     	std       	min     	max     
0  	20    	0.873992	0.0199752 	0.835159	0.908432
1  	20    	0.892307	0.0128164 	0.871796	0.912094
2  	20    	0.901462	0.00644157	0.890106	0.912094
3  	20    	0.910805	0.00991831	0.901093	0.934067
4  	20    	0.915388	0.00968462	0.904755	0.934067
5  	20    	0.921432	0.00854732	0.912094	0.934067
6  	20    	0.925278	0.00689022	0.912094	0.934067
7  	20    	0.928574	0.00440976	0.919418	0.934067
8  	20    	0.93187 	0.00355055	0.926743	0.941391
9  	20    	0.932053	0.00337133	0.926743	0.941391
10 	20    	0.93425 	0.00374808	0.930405	0.941391
11 	20    	0.934982	0.00344997	0.930405	0.941391
12 	20    	0.936264	0.00560195	0.930405	0.956039
13 	20    	0.937363	0.00541943	0.934067	0.956039
14 	20    	0.937912	0.00561092	0.934067	0.956039
15 	20    	0.938095	0.00554178	0.934067	0.956039
16 	20    	0.939011	0.00534154	0.934067	0.956039
17 	20    	0.940842	0.00716455	0.934067	0.963364
18 	20    	0.943771	0.00906511	0.934067	0.967026
19 	20    	0.943954	0.00890277	0.937729	0.967026
20 	20    	0.945969	0.00925543	0.937729	0.967026
21 	20    	0.948532	0.00822753	0.937729	0.967026
22 	20    	0.950546	0.00763793	0.941391	0.967026
23 	20    	0.952744	0.00684138	0.945053	0.967026
24 	20    	0.953293	0.00632973	0.945053	0.967026
25 	20    	0.955124	0.00565852	0.948715	0.967026
26 	20    	0.955307	0.00550536	0.948715	0.967026
27 	20    	0.956772	0.00512695	0.948715	0.967026
28 	20    	0.957687	0.00440596	0.952377	0.967026
29 	20    	0.957687	0.00440596	0.952377	0.967026
30 	20    	0.95787 	0.00425499	0.952377	0.967026
31 	20    	0.958054	0.00409027	0.952377	0.967026
32 	20    	0.95842 	0.00371212	0.952377	0.967026
33 	20    	0.95842 	0.00371212	0.952377	0.967026
34 	20    	0.958603	0.00349343	0.956039	0.967026
35 	20    	0.959518	0.00337133	0.956039	0.967026
36 	20    	0.960068	0.00364375	0.956039	0.967026
37 	20    	0.9608  	0.00349343	0.956039	0.967026
38 	20    	0.961349	0.00316619	0.956039	0.967026
39 	20    	0.961533	0.00295249	0.956039	0.967026
40 	20    	0.962082	0.00239441	0.959702	0.967026
41 	20    	0.962082	0.00239441	0.959702	0.967026
42 	20    	0.962265	0.00234489	0.959702	0.967026
43 	20    	0.962265	0.00234489	0.959702	0.967026
44 	20    	0.962631	0.00248376	0.959702	0.967026
45 	20    	0.962631	0.00248376	0.959702	0.967026
46 	20    	0.962631	0.00248376	0.959702	0.967026
47 	20    	0.962631	0.00248376	0.959702	0.967026
48 	20    	0.962631	0.00248376	0.959702	0.967026
49 	20    	0.962631	0.00248376	0.959702	0.967026
50 	20    	0.962631	0.00248376	0.959702	0.967026
51 	20    	0.962631	0.00248376	0.959702	0.967026
52 	20    	0.962631	0.00248376	0.959702	0.967026
53 	20    	0.962631	0.00248376	0.959702	0.967026
54 	20    	0.962631	0.00248376	0.959702	0.967026
55 	20    	0.962814	0.00239441	0.959702	0.967026
56 	20    	0.962814	0.00239441	0.959702	0.967026
57 	20    	0.962814	0.00239441	0.959702	0.967026
58 	20    	0.962814	0.00239441	0.959702	0.967026
59 	20    	0.963364	0.00283863	0.959702	0.970703
60 	20    	0.963914	0.00312686	0.959702	0.970703
61 	20    	0.964098	0.00297849	0.959702	0.970703
62 	20    	0.964647	0.00266323	0.959702	0.970703
63 	20    	0.964647	0.00266323	0.959702	0.970703
64 	20    	0.965929	0.00435295	0.963364	0.981689
65 	20    	0.966113	0.00431805	0.963364	0.981689
66 	20    	0.966113	0.00431805	0.963364	0.981689
67 	20    	0.966113	0.00431805	0.963364	0.981689
68 	20    	0.966113	0.00431805	0.963364	0.981689
69 	20    	0.966113	0.00431805	0.963364	0.981689
70 	20    	0.966113	0.00431805	0.963364	0.981689
71 	20    	0.966113	0.00431805	0.963364	0.981689
72 	20    	0.966479	0.00438027	0.963364	0.981689
73 	20    	0.966663	0.00432235	0.963364	0.981689
74 	20    	0.966663	0.00432235	0.963364	0.981689
75 	20    	0.966846	0.00425578	0.963364	0.981689
76 	20    	0.966846	0.00425578	0.963364	0.981689
77 	20    	0.966846	0.00425578	0.963364	0.981689
78 	20    	0.967396	0.00447549	0.963364	0.981689
79 	20    	0.967762	0.00427595	0.963364	0.981689
80 	20    	0.967945	0.00416054	0.963364	0.981689
81 	20    	0.968495	0.0039155 	0.963364	0.981689
82 	20    	0.969229	0.00355622	0.967026	0.981689
83 	20    	0.969413	0.00353253	0.967026	0.981689
84 	20    	0.969413	0.00353253	0.967026	0.981689
85 	20    	0.969413	0.00353253	0.967026	0.981689
86 	20    	0.969597	0.00349903	0.967026	0.981689
87 	20    	0.969781	0.00345544	0.967026	0.981689
88 	20    	0.970148	0.00333631	0.967026	0.981689
89 	20    	0.970148	0.00333631	0.967026	0.981689
90 	20    	0.970148	0.00333631	0.967026	0.981689
91 	20    	0.970699	0.00366669	0.967026	0.981689
92 	20    	0.970699	0.00366669	0.967026	0.981689
93 	20    	0.970699	0.00366669	0.967026	0.981689
94 	20    	0.970882	0.0035688 	0.967026	0.981689
95 	20    	0.970882	0.0035688 	0.967026	0.981689
96 	20    	0.970882	0.0035688 	0.967026	0.981689
97 	20    	0.971249	0.00353051	0.967026	0.981689
98 	20    	0.971616	0.00345301	0.967026	0.981689
99 	20    	0.971616	0.00345301	0.967026	0.981689
100	20    	0.971616	0.00345301	0.967026	0.981689
101	20    	0.972166	0.00355275	0.967026	0.981689
102	20    	0.972166	0.00355275	0.967026	0.981689
103	20    	0.972166	0.00355275	0.967026	0.981689
104	20    	0.972166	0.00355275	0.967026	0.981689
105	20    	0.972166	0.00355275	0.967026	0.981689
106	20    	0.972166	0.00355275	0.967026	0.981689
107	20    	0.972166	0.00355275	0.967026	0.981689
108	20    	0.972166	0.00355275	0.967026	0.981689
109	20    	0.972166	0.00355275	0.967026	0.981689
110	20    	0.972166	0.00355275	0.967026	0.981689
111	20    	0.972533	0.00337754	0.967026	0.981689
112	20    	0.972717	0.00316619	0.970703	0.981689
113	20    	0.972717	0.00316619	0.970703	0.981689
114	20    	0.972717	0.00316619	0.970703	0.981689
115	20    	0.972717	0.00316619	0.970703	0.981689
116	20    	0.972717	0.00316619	0.970703	0.981689
117	20    	0.972717	0.00316619	0.970703	0.981689
118	20    	0.972717	0.00316619	0.970703	0.981689
119	20    	0.972717	0.00316619	0.970703	0.981689
120	20    	0.972717	0.00316619	0.970703	0.981689
121	20    	0.972717	0.00316619	0.970703	0.981689
122	20    	0.972717	0.00316619	0.970703	0.981689
123	20    	0.972717	0.00316619	0.970703	0.981689
124	20    	0.972717	0.00316619	0.970703	0.981689
125	20    	0.972717	0.00316619	0.970703	0.981689
126	20    	0.972717	0.00316619	0.970703	0.981689
127	20    	0.9729  	0.00315027	0.970703	0.981689
128	20    	0.9729  	0.00315027	0.970703	0.981689
129	20    	0.9729  	0.00315027	0.970703	0.981689
130	20    	0.973083	0.00312355	0.970703	0.981689
131	20    	0.973083	0.00312355	0.970703	0.981689
132	20    	0.973083	0.00312355	0.970703	0.981689
133	20    	0.973267	0.00308575	0.970703	0.981689
134	20    	0.973267	0.00308575	0.970703	0.981689
135	20    	0.973267	0.00308575	0.970703	0.981689
136	20    	0.973267	0.00308575	0.970703	0.981689
137	20    	0.973633	0.00319255	0.970703	0.981689
138	20    	0.973816	0.00312355	0.970703	0.981689
139	20    	0.973816	0.00312355	0.970703	0.981689
140	20    	0.973816	0.00312355	0.970703	0.981689
141	20    	0.973999	0.00304198	0.970703	0.981689
142	20    	0.973999	0.00304198	0.970703	0.981689
143	20    	0.973999	0.00304198	0.970703	0.981689
144	20    	0.974182	0.0029468 	0.970703	0.981689
145	20    	0.974182	0.0029468 	0.970703	0.981689
146	20    	0.974548	0.0029468 	0.970703	0.981689
147	20    	0.974548	0.0029468 	0.970703	0.981689
148	20    	0.974548	0.0029468 	0.970703	0.981689
149	20    	0.974548	0.0029468 	0.970703	0.981689
150	20    	0.974548	0.0029468 	0.970703	0.981689
151	20    	0.974548	0.0029468 	0.970703	0.981689
152	20    	0.974548	0.0029468 	0.970703	0.981689
153	20    	0.974548	0.0029468 	0.970703	0.981689
154	20    	0.974548	0.0029468 	0.970703	0.981689
155	20    	0.974548	0.0029468 	0.970703	0.981689
156	20    	0.974548	0.0029468 	0.970703	0.981689
157	20    	0.974548	0.0029468 	0.970703	0.981689
158	20    	0.974548	0.0029468 	0.970703	0.981689
159	20    	0.974731	0.00281292	0.970703	0.981689
160	20    	0.974731	0.00281292	0.970703	0.981689
161	20    	0.974731	0.00281292	0.970703	0.981689
162	20    	0.974731	0.00281292	0.970703	0.981689
163	20    	0.974731	0.00281292	0.970703	0.981689
164	20    	0.974731	0.00281292	0.970703	0.981689
165	20    	0.974731	0.00281292	0.970703	0.981689
166	20    	0.974731	0.00281292	0.970703	0.981689
167	20    	0.974731	0.00281292	0.970703	0.981689
168	20    	0.974731	0.00281292	0.970703	0.981689
169	20    	0.975098	0.00274047	0.970703	0.981689
170	20    	0.975098	0.00274047	0.970703	0.981689
171	20    	0.975098	0.00274047	0.970703	0.981689
172	20    	0.975098	0.00274047	0.970703	0.981689
173	20    	0.975098	0.00274047	0.970703	0.981689
174	20    	0.975098	0.00274047	0.970703	0.981689
175	20    	0.975098	0.00274047	0.970703	0.981689
176	20    	0.975281	0.00255693	0.970703	0.981689
177	20    	0.975464	0.00234489	0.970703	0.981689
178	20    	0.975464	0.00234489	0.970703	0.981689
179	20    	0.975464	0.00234489	0.970703	0.981689
180	20    	0.975464	0.00234489	0.970703	0.981689
181	20    	0.975464	0.00234489	0.970703	0.981689
182	20    	0.975464	0.00234489	0.970703	0.981689
183	20    	0.975464	0.00234489	0.970703	0.981689
184	20    	0.975647	0.00209574	0.974365	0.981689
185	20    	0.975647	0.00209574	0.974365	0.981689
186	20    	0.975647	0.00209574	0.974365	0.981689
187	20    	0.975647	0.00209574	0.974365	0.981689
188	20    	0.975647	0.00209574	0.974365	0.981689
189	20    	0.975647	0.00209574	0.974365	0.981689
190	20    	0.975647	0.00209574	0.974365	0.981689
191	20    	0.975647	0.00209574	0.974365	0.981689
192	20    	0.975647	0.00209574	0.974365	0.981689
193	20    	0.975647	0.00209574	0.974365	0.981689
194	20    	0.975647	0.00209574	0.974365	0.981689
195	20    	0.975647	0.00209574	0.974365	0.981689
196	20    	0.975647	0.00209574	0.974365	0.981689
197	20    	0.975647	0.00209574	0.974365	0.981689
198	20    	0.975647	0.00209574	0.974365	0.981689
199	20    	0.975647	0.00209574	0.974365	0.981689
200	20    	0.975647	0.00209574	0.974365	0.981689
201	20    	0.97583 	0.00213536	0.974365	0.981689
202	20    	0.97583 	0.00213536	0.974365	0.981689
203	20    	0.97583 	0.00213536	0.974365	0.981689
204	20    	0.97583 	0.00213536	0.974365	0.981689
205	20    	0.97583 	0.00213536	0.974365	0.981689
206	20    	0.97583 	0.00213536	0.974365	0.981689
207	20    	0.97583 	0.00213536	0.974365	0.981689
208	20    	0.97583 	0.00213536	0.974365	0.981689
209	20    	0.976013	0.00215878	0.974365	0.981689
210	20    	0.976013	0.00215878	0.974365	0.981689
211	20    	0.976013	0.00215878	0.974365	0.981689
212	20    	0.976013	0.00215878	0.974365	0.981689
213	20    	0.976196	0.00216653	0.974365	0.981689
214	20    	0.976196	0.00216653	0.974365	0.981689
215	20    	0.976196	0.00216653	0.974365	0.981689
216	20    	0.976196	0.00216653	0.974365	0.981689
217	20    	0.976196	0.00216653	0.974365	0.981689
218	20    	0.976196	0.00216653	0.974365	0.981689
219	20    	0.976196	0.00216653	0.974365	0.981689
220	20    	0.976196	0.00216653	0.974365	0.981689
221	20    	0.976196	0.00216653	0.974365	0.981689
222	20    	0.976196	0.00216653	0.974365	0.981689
223	20    	0.976196	0.00216653	0.974365	0.981689
224	20    	0.976196	0.00216653	0.974365	0.981689
225	20    	0.976196	0.00216653	0.974365	0.981689
226	20    	0.976196	0.00216653	0.974365	0.981689
227	20    	0.976196	0.00216653	0.974365	0.981689
228	20    	0.976379	0.00215878	0.974365	0.981689
229	20    	0.976379	0.00215878	0.974365	0.981689
230	20    	0.976379	0.00215878	0.974365	0.981689
231	20    	0.976379	0.00215878	0.974365	0.981689
232	20    	0.976379	0.00215878	0.974365	0.981689
233	20    	0.976379	0.00215878	0.974365	0.981689
234	20    	0.976379	0.00215878	0.974365	0.981689
235	20    	0.976379	0.00215878	0.974365	0.981689
236	20    	0.976379	0.00215878	0.974365	0.981689
237	20    	0.976379	0.00215878	0.974365	0.981689
238	20    	0.976379	0.00215878	0.974365	0.981689
239	20    	0.976379	0.00215878	0.974365	0.981689
240	20    	0.976379	0.00215878	0.974365	0.981689
241	20    	0.976379	0.00215878	0.974365	0.981689
242	20    	0.976746	0.00239441	0.974365	0.981689
243	20    	0.976746	0.00239441	0.974365	0.981689
244	20    	0.976746	0.00239441	0.974365	0.981689
245	20    	0.976746	0.00239441	0.974365	0.981689
246	20    	0.976746	0.00239441	0.974365	0.981689
247	20    	0.976746	0.00239441	0.974365	0.981689
248	20    	0.976746	0.00239441	0.974365	0.981689
249	20    	0.976746	0.00239441	0.974365	0.981689
250	20    	0.976746	0.00239441	0.974365	0.981689
251	20    	0.976746	0.00239441	0.974365	0.981689
252	20    	0.976746	0.00239441	0.974365	0.981689
253	20    	0.976746	0.00239441	0.974365	0.981689
254	20    	0.977112	0.00255693	0.974365	0.981689
255	20    	0.977112	0.00255693	0.974365	0.981689
256	20    	0.977112	0.00255693	0.974365	0.981689
257	20    	0.977295	0.00248376	0.974365	0.981689
258	20    	0.977295	0.00248376	0.974365	0.981689
259	20    	0.977295	0.00248376	0.974365	0.981689
260	20    	0.977478	0.00239441	0.974365	0.981689
261	20    	0.977478	0.00239441	0.974365	0.981689
262	20    	0.977661	0.00228699	0.974365	0.981689
263	20    	0.977661	0.00228699	0.974365	0.981689
264	20    	0.977661	0.00228699	0.974365	0.981689
265	20    	0.977661	0.00228699	0.974365	0.981689
266	20    	0.977661	0.00228699	0.974365	0.981689
267	20    	0.977661	0.00228699	0.974365	0.981689
268	20    	0.977661	0.00228699	0.974365	0.981689
269	20    	0.978027	0.00231612	0.974365	0.981689
270	20    	0.978027	0.00231612	0.974365	0.981689
271	20    	0.97821 	0.00215878	0.974365	0.981689
272	20    	0.97821 	0.00215878	0.974365	0.981689
273	20    	0.97821 	0.00215878	0.974365	0.981689
274	20    	0.97821 	0.00215878	0.974365	0.981689
275	20    	0.97821 	0.00215878	0.974365	0.981689
276	20    	0.97821 	0.00215878	0.974365	0.981689
277	20    	0.97821 	0.00215878	0.974365	0.981689
278	20    	0.97821 	0.00215878	0.974365	0.981689
279	20    	0.978943	0.00303646	0.974365	0.989014
280	20    	0.979126	0.0028602 	0.974365	0.989014
281	20    	0.979309	0.00265976	0.978027	0.989014
282	20    	0.979492	0.00269109	0.978027	0.989014
283	20    	0.979492	0.00269109	0.978027	0.989014
284	20    	0.979492	0.00269109	0.978027	0.989014
285	20    	0.979492	0.00269109	0.978027	0.989014
286	20    	0.979492	0.00269109	0.978027	0.989014
287	20    	0.979492	0.00269109	0.978027	0.989014
288	20    	0.979492	0.00269109	0.978027	0.989014
289	20    	0.979492	0.00269109	0.978027	0.989014
290	20    	0.979492	0.00269109	0.978027	0.989014
291	20    	0.979675	0.00270971	0.978027	0.989014
292	20    	0.979675	0.00270971	0.978027	0.989014
293	20    	0.980225	0.00335638	0.978027	0.989014
294	20    	0.980225	0.00335638	0.978027	0.989014
295	20    	0.980225	0.00335638	0.978027	0.989014
296	20    	0.980225	0.00335638	0.978027	0.989014
297	20    	0.980225	0.00335638	0.978027	0.989014
298	20    	0.980225	0.00335638	0.978027	0.989014
299	20    	0.980225	0.00335638	0.978027	0.989014
300	20    	0.980225	0.00335638	0.978027	0.989014
301	20    	0.980225	0.00335638	0.978027	0.989014
302	20    	0.980225	0.00335638	0.978027	0.989014
303	20    	0.980225	0.00335638	0.978027	0.989014
304	20    	0.980408	0.00333131	0.978027	0.989014
305	20    	0.980408	0.00333131	0.978027	0.989014
306	20    	0.980408	0.00333131	0.978027	0.989014
307	20    	0.980408	0.00333131	0.978027	0.989014
308	20    	0.980957	0.00377037	0.978027	0.989014
309	20    	0.98114 	0.00371212	0.978027	0.989014
310	20    	0.98114 	0.00371212	0.978027	0.989014
311	20    	0.98114 	0.00371212	0.978027	0.989014
312	20    	0.98114 	0.00371212	0.978027	0.989014
313	20    	0.98114 	0.00371212	0.978027	0.989014
314	20    	0.98114 	0.00371212	0.978027	0.989014
315	20    	0.98114 	0.00371212	0.978027	0.989014
316	20    	0.98114 	0.00371212	0.978027	0.989014
317	20    	0.98114 	0.00371212	0.978027	0.989014
318	20    	0.98114 	0.00371212	0.978027	0.989014
319	20    	0.98114 	0.00371212	0.978027	0.989014
320	20    	0.98114 	0.00371212	0.978027	0.989014
321	20    	0.98114 	0.00371212	0.978027	0.989014
322	20    	0.98114 	0.00371212	0.978027	0.989014
323	20    	0.98114 	0.00371212	0.978027	0.989014
324	20    	0.98114 	0.00371212	0.978027	0.989014
325	20    	0.98114 	0.00371212	0.978027	0.989014
326	20    	0.98114 	0.00371212	0.978027	0.989014
327	20    	0.98114 	0.00371212	0.978027	0.989014
328	20    	0.98114 	0.00371212	0.978027	0.989014
329	20    	0.98114 	0.00371212	0.978027	0.989014
330	20    	0.98114 	0.00371212	0.978027	0.989014
331	20    	0.98114 	0.00371212	0.978027	0.989014
332	20    	0.98114 	0.00371212	0.978027	0.989014
333	20    	0.98114 	0.00371212	0.978027	0.989014
334	20    	0.98114 	0.00371212	0.978027	0.989014
335	20    	0.98114 	0.00371212	0.978027	0.989014
336	20    	0.981323	0.00364375	0.978027	0.989014
337	20    	0.981323	0.00364375	0.978027	0.989014
338	20    	0.981323	0.00364375	0.978027	0.989014
339	20    	0.981323	0.00364375	0.978027	0.989014
340	20    	0.981323	0.00364375	0.978027	0.989014
341	20    	0.981323	0.00364375	0.978027	0.989014
342	20    	0.981323	0.00364375	0.978027	0.989014
343	20    	0.981323	0.00364375	0.978027	0.989014
344	20    	0.981323	0.00364375	0.978027	0.989014
345	20    	0.981323	0.00364375	0.978027	0.989014
346	20    	0.981323	0.00364375	0.978027	0.989014
347	20    	0.981323	0.00364375	0.978027	0.989014
348	20    	0.981323	0.00364375	0.978027	0.989014
349	20    	0.981323	0.00364375	0.978027	0.989014
350	20    	0.981323	0.00364375	0.978027	0.989014
351	20    	0.981323	0.00364375	0.978027	0.989014
352	20    	0.981323	0.00364375	0.978027	0.989014
353	20    	0.981323	0.00364375	0.978027	0.989014
354	20    	0.981506	0.00356468	0.978027	0.989014
355	20    	0.981506	0.00356468	0.978027	0.989014
356	20    	0.981506	0.00356468	0.978027	0.989014
357	20    	0.981873	0.00356468	0.978027	0.989014
358	20    	0.981873	0.00356468	0.978027	0.989014
359	20    	0.982056	0.00345483	0.978027	0.989014
360	20    	0.982056	0.00345483	0.978027	0.989014
361	20    	0.982422	0.0033961 	0.978027	0.989014
362	20    	0.982422	0.0033961 	0.978027	0.989014
363	20    	0.982422	0.0033961 	0.978027	0.989014
364	20    	0.982422	0.0033961 	0.978027	0.989014
365	20    	0.982422	0.0033961 	0.978027	0.989014
366	20    	0.982605	0.0032498 	0.978027	0.989014
367	20    	0.982605	0.0032498 	0.978027	0.989014
368	20    	0.982605	0.0032498 	0.978027	0.989014
369	20    	0.982605	0.0032498 	0.978027	0.989014
370	20    	0.982971	0.00312355	0.978027	0.989014
371	20    	0.983154	0.00292969	0.978027	0.989014
372	20    	0.983154	0.00292969	0.978027	0.989014
373	20    	0.983154	0.00292969	0.978027	0.989014
374	20    	0.983154	0.00292969	0.978027	0.989014
375	20    	0.983154	0.00292969	0.978027	0.989014
376	20    	0.983154	0.00292969	0.978027	0.989014
377	20    	0.983337	0.00270971	0.981689	0.989014
378	20    	0.983337	0.00270971	0.981689	0.989014
379	20    	0.983337	0.00270971	0.981689	0.989014
380	20    	0.983337	0.00270971	0.981689	0.989014
381	20    	0.983337	0.00270971	0.981689	0.989014
382	20    	0.983337	0.00270971	0.981689	0.989014
383	20    	0.983337	0.00270971	0.981689	0.989014
384	20    	0.983337	0.00270971	0.981689	0.989014
385	20    	0.983521	0.00271589	0.981689	0.989014
386	20    	0.983521	0.00271589	0.981689	0.989014
387	20    	0.983521	0.00271589	0.981689	0.989014
388	20    	0.983521	0.00271589	0.981689	0.989014
389	20    	0.983521	0.00271589	0.981689	0.989014
390	20    	0.983521	0.00271589	0.981689	0.989014
391	20    	0.983521	0.00271589	0.981689	0.989014
392	20    	0.983704	0.00270971	0.981689	0.989014
393	20    	0.983704	0.00270971	0.981689	0.989014
394	20    	0.983704	0.00270971	0.981689	0.989014
395	20    	0.983704	0.00270971	0.981689	0.989014
396	20    	0.983704	0.00270971	0.981689	0.989014
397	20    	0.983704	0.00270971	0.981689	0.989014
398	20    	0.983704	0.00270971	0.981689	0.989014
399	20    	0.983704	0.00270971	0.981689	0.989014
400	20    	0.983704	0.00270971	0.981689	0.989014
401	20    	0.983704	0.00270971	0.981689	0.989014
402	20    	0.983704	0.00270971	0.981689	0.989014
403	20    	0.983704	0.00270971	0.981689	0.989014
404	20    	0.983704	0.00270971	0.981689	0.989014
405	20    	0.983704	0.00270971	0.981689	0.989014
406	20    	0.983704	0.00270971	0.981689	0.989014
407	20    	0.983704	0.00270971	0.981689	0.989014
408	20    	0.983704	0.00270971	0.981689	0.989014
409	20    	0.983704	0.00270971	0.981689	0.989014
410	20    	0.983704	0.00270971	0.981689	0.989014
411	20    	0.983704	0.00270971	0.981689	0.989014
412	20    	0.983704	0.00270971	0.981689	0.989014
413	20    	0.983704	0.00270971	0.981689	0.989014
414	20    	0.983704	0.00270971	0.981689	0.989014
415	20    	0.983704	0.00270971	0.981689	0.989014
416	20    	0.983704	0.00270971	0.981689	0.989014
417	20    	0.983704	0.00270971	0.981689	0.989014
418	20    	0.983704	0.00270971	0.981689	0.989014
419	20    	0.983704	0.00270971	0.981689	0.989014
420	20    	0.98407 	0.00290094	0.981689	0.989014
421	20    	0.98407 	0.00290094	0.981689	0.989014
422	20    	0.98407 	0.00290094	0.981689	0.989014
423	20    	0.98407 	0.00290094	0.981689	0.989014
424	20    	0.98407 	0.00290094	0.981689	0.989014
425	20    	0.98407 	0.00290094	0.981689	0.989014
426	20    	0.98407 	0.00290094	0.981689	0.989014
427	20    	0.98407 	0.00290094	0.981689	0.989014
428	20    	0.98407 	0.00290094	0.981689	0.989014
429	20    	0.98407 	0.00290094	0.981689	0.989014
430	20    	0.98407 	0.00290094	0.981689	0.989014
431	20    	0.98407 	0.00290094	0.981689	0.989014
432	20    	0.98407 	0.00290094	0.981689	0.989014
433	20    	0.98407 	0.00290094	0.981689	0.989014
434	20    	0.98407 	0.00290094	0.981689	0.989014
435	20    	0.98407 	0.00290094	0.981689	0.989014
436	20    	0.98407 	0.00290094	0.981689	0.989014
437	20    	0.98407 	0.00290094	0.981689	0.989014
438	20    	0.98407 	0.00290094	0.981689	0.989014
439	20    	0.98407 	0.00290094	0.981689	0.989014
440	20    	0.98407 	0.00290094	0.981689	0.989014
441	20    	0.98407 	0.00290094	0.981689	0.989014
442	20    	0.98407 	0.00290094	0.981689	0.989014
443	20    	0.98407 	0.00290094	0.981689	0.989014
444	20    	0.98407 	0.00290094	0.981689	0.989014
445	20    	0.98407 	0.00290094	0.981689	0.989014
446	20    	0.98407 	0.00290094	0.981689	0.989014
447	20    	0.98407 	0.00290094	0.981689	0.989014
448	20    	0.98407 	0.00290094	0.981689	0.989014
449	20    	0.98407 	0.00290094	0.981689	0.989014
450	20    	0.98407 	0.00290094	0.981689	0.989014
451	20    	0.98407 	0.00290094	0.981689	0.989014
452	20    	0.98407 	0.00290094	0.981689	0.989014
453	20    	0.98407 	0.00290094	0.981689	0.989014
454	20    	0.98407 	0.00290094	0.981689	0.989014
455	20    	0.98407 	0.00290094	0.981689	0.989014
456	20    	0.98407 	0.00290094	0.981689	0.989014
457	20    	0.98407 	0.00290094	0.981689	0.989014
458	20    	0.98407 	0.00290094	0.981689	0.989014
459	20    	0.98407 	0.00290094	0.981689	0.989014
460	20    	0.98407 	0.00290094	0.981689	0.989014
461	20    	0.98407 	0.00290094	0.981689	0.989014
462	20    	0.98407 	0.00290094	0.981689	0.989014
463	20    	0.984253	0.0028602 	0.981689	0.989014
464	20    	0.984253	0.0028602 	0.981689	0.989014
465	20    	0.984253	0.0028602 	0.981689	0.989014
466	20    	0.984253	0.0028602 	0.981689	0.989014
467	20    	0.984253	0.0028602 	0.981689	0.989014
468	20    	0.984253	0.0028602 	0.981689	0.989014
469	20    	0.984253	0.0028602 	0.981689	0.989014
470	20    	0.984253	0.0028602 	0.981689	0.989014
471	20    	0.984253	0.0028602 	0.981689	0.989014
472	20    	0.984253	0.0028602 	0.981689	0.989014
473	20    	0.984253	0.0028602 	0.981689	0.989014
474	20    	0.984253	0.0028602 	0.981689	0.989014
475	20    	0.984436	0.00280695	0.981689	0.989014
476	20    	0.984436	0.00280695	0.981689	0.989014
477	20    	0.984436	0.00280695	0.981689	0.989014
478	20    	0.984436	0.00280695	0.981689	0.989014
479	20    	0.984436	0.00280695	0.981689	0.989014
480	20    	0.984436	0.00280695	0.981689	0.989014
481	20    	0.984436	0.00280695	0.981689	0.989014
482	20    	0.984436	0.00280695	0.981689	0.989014
483	20    	0.984436	0.00280695	0.981689	0.989014
484	20    	0.984436	0.00280695	0.981689	0.989014
485	20    	0.984436	0.00280695	0.981689	0.989014
486	20    	0.984436	0.00280695	0.981689	0.989014
487	20    	0.984436	0.00280695	0.981689	0.989014
488	20    	0.984436	0.00280695	0.981689	0.989014
489	20    	0.984436	0.00280695	0.981689	0.989014
490	20    	0.984436	0.00280695	0.981689	0.989014
491	20    	0.984436	0.00280695	0.981689	0.989014
492	20    	0.984436	0.00280695	0.981689	0.989014
493	20    	0.984436	0.00280695	0.981689	0.989014
494	20    	0.984436	0.00280695	0.981689	0.989014
495	20    	0.984436	0.00280695	0.981689	0.989014
496	20    	0.984436	0.00280695	0.981689	0.989014
497	20    	0.984436	0.00280695	0.981689	0.989014
498	20    	0.984436	0.00280695	0.981689	0.989014
499	20    	0.984436	0.00280695	0.981689	0.989014
