Run:19 Evals:10000 MES:10000.0 MAD:0.0 FAILURES:20 Best:0.957366943359375 Solution:(
Run:20 Evals:10000 MES:10000.0 MAD:0.0 FAILURES:21 Best:0.96417236328125 Solution:(
Run:21 Evals:10000 MES:10000.0 MAD:0.0 FAILURES:22 Best:0.956024169921875 Solution:(
Run:22 Evals:10000 MES:10000.0 MAD:0.0 FAILURES:23 Best:0.956024169921875 Solution:(
Run:23 Evals:10000 MES:10000.0 MAD:0.0 FAILURES:24 Best:0.95928955078125 Solution:(
Run:24 Evals:10000 MES:10000.0 MAD:0.0 FAILURES:25 Best:0.956024169921875 Solution:(
Run:25 Evals:10000 MES:10000.0 MAD:0.0 FAILURES:26 Best:0.9543914794921875 Solution:(
Run:26 Evals:10000 MES:10000.0 MAD:0.0 FAILURES:27 Best:0.956024169921875 Solution:(
Run:27 Evals:10000 MES:10000.0 MAD:0.0 FAILURES:28 Best:0.95928955078125 Solution:(
Run:28 Evals:10000 MES:10000.0 MAD:0.0 FAILURES:29 Best:0.95928955078125 Solution:(

