gen	nevals	avg     	std       	min     	max     
0  	20    	0.869706	0.0147669 	0.837128	0.908798
1  	20    	0.88306 	0.00833023	0.872971	0.908798
2  	20    	0.888843	0.00704204	0.881104	0.908798
3  	20    	0.894952	0.00820108	0.887619	0.913681
4  	20    	0.900244	0.00681259	0.892502	0.913681
5  	20    	0.903665	0.00697325	0.894135	0.921829
6  	20    	0.907085	0.00572346	0.899017	0.921829
7  	20    	0.909772	0.00518581	0.903915	0.921829
8  	20    	0.910423	0.00491358	0.905533	0.921829
9  	20    	0.911889	0.004574  	0.905533	0.921829
10 	20    	0.913599	0.00376433	0.908798	0.921829
11 	20    	0.915146	0.00384904	0.908798	0.925079
12 	20    	0.915716	0.00337149	0.910431	0.925079
13 	20    	0.915878	0.00318607	0.912048	0.925079
14 	20    	0.916449	0.0030507 	0.913681	0.925079
15 	20    	0.916937	0.00295795	0.913681	0.925079
16 	20    	0.917426	0.00317798	0.913681	0.925079
17 	20    	0.917833	0.0028881 	0.913681	0.925079
18 	20    	0.918484	0.00331611	0.915314	0.926712
19 	20    	0.918484	0.00331611	0.915314	0.926712
20 	20    	0.920356	0.00317283	0.916931	0.926712
21 	20    	0.920927	0.00327853	0.916931	0.926712
22 	20    	0.921416	0.00290874	0.918564	0.926712
23 	20    	0.922884	0.00288084	0.918564	0.928345
24 	20    	0.923454	0.00308977	0.918564	0.929962
25 	20    	0.924757	0.00377007	0.920197	0.933228
26 	20    	0.925733	0.00372694	0.920197	0.933228
27 	20    	0.927116	0.00360096	0.921829	0.933228
28 	20    	0.927686	0.00306548	0.923447	0.933228
29 	20    	0.927768	0.0029718 	0.923447	0.933228
30 	20    	0.928013	0.0028026 	0.923447	0.933228
31 	20    	0.928258	0.00259954	0.925079	0.933228
32 	20    	0.928502	0.00251757	0.925079	0.933228
33 	20    	0.928828	0.0024748 	0.925079	0.933228
34 	20    	0.928828	0.0024748 	0.925079	0.933228
35 	20    	0.929072	0.00232957	0.925079	0.933228
36 	20    	0.929235	0.00215167	0.926712	0.933228
37 	20    	0.929723	0.00213965	0.926712	0.933228
38 	20    	0.930619	0.0020861 	0.926712	0.93486 
39 	20    	0.931107	0.0018653 	0.928345	0.93486 
40 	20    	0.93127 	0.00175592	0.928345	0.93486 
41 	20    	0.931432	0.00162305	0.928345	0.93486 
42 	20    	0.931432	0.00162305	0.928345	0.93486 
43 	20    	0.931513	0.00150305	0.929962	0.93486 
44 	20    	0.932002	0.00177726	0.929962	0.936478
45 	20    	0.932328	0.00196109	0.929962	0.936478
46 	20    	0.932328	0.00196109	0.929962	0.936478
47 	20    	0.93241 	0.00189373	0.929962	0.936478
48 	20    	0.932491	0.00182023	0.929962	0.936478
49 	20    	0.933144	0.00202666	0.929962	0.93811 
50 	20    	0.933389	0.00192058	0.931595	0.93811 
51 	20    	0.933389	0.00192058	0.931595	0.93811 
52 	20    	0.93347 	0.00187681	0.931595	0.93811 
53 	20    	0.93347 	0.00187681	0.931595	0.93811 
54 	20    	0.93347 	0.00187681	0.931595	0.93811 
55 	20    	0.93404 	0.00209159	0.931595	0.93811 
56 	20    	0.934447	0.00198534	0.931595	0.93811 
57 	20    	0.935018	0.00177455	0.933228	0.93811 
58 	20    	0.935425	0.00164833	0.933228	0.93811 
59 	20    	0.935831	0.00201788	0.933228	0.94136 
60 	20    	0.935994	0.00193062	0.933228	0.94136 
61 	20    	0.935994	0.00193062	0.933228	0.94136 
62 	20    	0.936076	0.00184452	0.933228	0.94136 
63 	20    	0.936401	0.00188761	0.933228	0.94136 
64 	20    	0.936401	0.00188761	0.933228	0.94136 
65 	20    	0.936401	0.00188761	0.933228	0.94136 
66 	20    	0.936646	0.00177365	0.93486 	0.94136 
67 	20    	0.936646	0.00177365	0.93486 	0.94136 
68 	20    	0.936646	0.00177365	0.93486 	0.94136 
69 	20    	0.936646	0.00177365	0.93486 	0.94136 
70 	20    	0.936646	0.00177365	0.93486 	0.94136 
71 	20    	0.936646	0.00177365	0.93486 	0.94136 
72 	20    	0.937296	0.00238645	0.93486 	0.944626
73 	20    	0.937296	0.00238645	0.93486 	0.944626
74 	20    	0.937296	0.00238645	0.93486 	0.944626
75 	20    	0.937296	0.00238645	0.93486 	0.944626
76 	20    	0.93811 	0.00317331	0.93486 	0.947876
77 	20    	0.938353	0.00301463	0.93486 	0.947876
78 	20    	0.938678	0.00297063	0.936478	0.947876
79 	20    	0.938678	0.00297063	0.936478	0.947876
80 	20    	0.938678	0.00297063	0.936478	0.947876
81 	20    	0.938678	0.00297063	0.936478	0.947876
82 	20    	0.938678	0.00297063	0.936478	0.947876
83 	20    	0.938678	0.00297063	0.936478	0.947876
84 	20    	0.938841	0.00293473	0.936478	0.947876
85 	20    	0.938841	0.00293473	0.936478	0.947876
86 	20    	0.938841	0.00293473	0.936478	0.947876
87 	20    	0.939249	0.00287158	0.936478	0.947876
88 	20    	0.939249	0.00287158	0.936478	0.947876
89 	20    	0.939249	0.00287158	0.936478	0.947876
90 	20    	0.939656	0.00302354	0.936478	0.947876
91 	20    	0.939819	0.00293435	0.936478	0.947876
92 	20    	0.940308	0.00278541	0.936478	0.947876
93 	20    	0.940308	0.00278541	0.936478	0.947876
94 	20    	0.940308	0.00278541	0.936478	0.947876
95 	20    	0.940308	0.00278541	0.936478	0.947876
96 	20    	0.940308	0.00278541	0.936478	0.947876
97 	20    	0.94039 	0.00269438	0.93811 	0.947876
98 	20    	0.94039 	0.00269438	0.93811 	0.947876
99 	20    	0.94039 	0.00269438	0.93811 	0.947876
100	20    	0.94039 	0.00269438	0.93811 	0.947876
101	20    	0.94096 	0.00329128	0.93811 	0.949509
102	20    	0.941286	0.00331547	0.93811 	0.949509
103	20    	0.941286	0.00331547	0.93811 	0.949509
104	20    	0.941286	0.00331547	0.93811 	0.949509
105	20    	0.941286	0.00331547	0.93811 	0.949509
106	20    	0.941286	0.00331547	0.93811 	0.949509
107	20    	0.941856	0.00330091	0.93811 	0.949509
108	20    	0.941856	0.00330091	0.93811 	0.949509
109	20    	0.941856	0.00330091	0.93811 	0.949509
110	20    	0.941937	0.00322663	0.93811 	0.949509
111	20    	0.942426	0.00334722	0.93811 	0.949509
112	20    	0.94267 	0.00319833	0.93811 	0.949509
113	20    	0.942751	0.00310025	0.939743	0.949509
114	20    	0.942995	0.00304552	0.939743	0.949509
115	20    	0.942995	0.00304552	0.939743	0.949509
116	20    	0.943157	0.00290835	0.939743	0.949509
117	20    	0.943157	0.00290835	0.939743	0.949509
118	20    	0.943157	0.00290835	0.939743	0.949509
119	20    	0.943401	0.00281495	0.939743	0.949509
120	20    	0.943401	0.00281495	0.939743	0.949509
121	20    	0.943401	0.00281495	0.939743	0.949509
122	20    	0.943645	0.00269632	0.939743	0.949509
123	20    	0.943645	0.00269632	0.939743	0.949509
124	20    	0.943645	0.00269632	0.939743	0.949509
125	20    	0.943645	0.00269632	0.939743	0.949509
126	20    	0.943645	0.00269632	0.939743	0.949509
127	20    	0.944215	0.00272088	0.94136 	0.949509
128	20    	0.944378	0.00264153	0.94136 	0.949509
129	20    	0.94446 	0.00257132	0.94136 	0.949509
130	20    	0.944704	0.00249666	0.94136 	0.949509
131	20    	0.944868	0.00237652	0.94136 	0.949509
132	20    	0.944868	0.00237652	0.94136 	0.949509
133	20    	0.944868	0.00237652	0.94136 	0.949509
134	20    	0.944868	0.00237652	0.94136 	0.949509
135	20    	0.944868	0.00237652	0.94136 	0.949509
136	20    	0.944868	0.00237652	0.94136 	0.949509
137	20    	0.945275	0.00243798	0.94136 	0.949509
138	20    	0.945275	0.00243798	0.94136 	0.949509
139	20    	0.945357	0.0023305 	0.94136 	0.949509
140	20    	0.945357	0.0023305 	0.94136 	0.949509
141	20    	0.94552 	0.00215239	0.942993	0.949509
142	20    	0.94552 	0.00215239	0.942993	0.949509
143	20    	0.94552 	0.00215239	0.942993	0.949509
144	20    	0.94552 	0.00215239	0.942993	0.949509
145	20    	0.94552 	0.00215239	0.942993	0.949509
146	20    	0.945683	0.00207705	0.942993	0.949509
147	20    	0.945683	0.00207705	0.942993	0.949509
148	20    	0.945683	0.00207705	0.942993	0.949509
149	20    	0.945683	0.00207705	0.942993	0.949509
150	20    	0.945765	0.00200039	0.942993	0.949509
151	20    	0.946091	0.00205233	0.942993	0.949509
152	20    	0.946091	0.00205233	0.942993	0.949509
153	20    	0.946091	0.00205233	0.942993	0.949509
154	20    	0.946091	0.00205233	0.942993	0.949509
155	20    	0.946091	0.00205233	0.942993	0.949509
156	20    	0.946091	0.00205233	0.942993	0.949509
157	20    	0.946091	0.00205233	0.942993	0.949509
158	20    	0.946091	0.00205233	0.942993	0.949509
159	20    	0.946091	0.00205233	0.942993	0.949509
160	20    	0.946091	0.00205233	0.942993	0.949509
161	20    	0.946091	0.00205233	0.942993	0.949509
162	20    	0.946091	0.00205233	0.942993	0.949509
163	20    	0.946091	0.00205233	0.942993	0.949509
164	20    	0.946254	0.00192538	0.944626	0.949509
165	20    	0.946254	0.00192538	0.944626	0.949509
166	20    	0.946336	0.00188888	0.944626	0.949509
167	20    	0.946336	0.00188888	0.944626	0.949509
168	20    	0.946336	0.00188888	0.944626	0.949509
169	20    	0.946743	0.00230834	0.944626	0.952774
170	20    	0.946906	0.00226761	0.944626	0.952774
171	20    	0.947068	0.00221425	0.944626	0.952774
172	20    	0.947312	0.00220067	0.944626	0.952774
173	20    	0.947556	0.00215957	0.944626	0.952774
174	20    	0.947556	0.00215957	0.944626	0.952774
175	20    	0.947556	0.00215957	0.944626	0.952774
176	20    	0.947556	0.00215957	0.944626	0.952774
177	20    	0.947719	0.00205258	0.944626	0.952774
178	20    	0.947719	0.00205258	0.944626	0.952774
179	20    	0.947719	0.00205258	0.944626	0.952774
180	20    	0.947719	0.00205258	0.944626	0.952774
181	20    	0.947719	0.00205258	0.944626	0.952774
182	20    	0.947719	0.00205258	0.944626	0.952774
183	20    	0.9478  	0.00195824	0.944626	0.952774
184	20    	0.9478  	0.00195824	0.944626	0.952774
185	20    	0.9478  	0.00195824	0.944626	0.952774
186	20    	0.9478  	0.00195824	0.944626	0.952774
187	20    	0.947882	0.00185554	0.944626	0.952774
188	20    	0.948045	0.00169896	0.946259	0.952774
189	20    	0.948045	0.00169896	0.946259	0.952774
190	20    	0.948533	0.00238164	0.946259	0.956024
191	20    	0.948533	0.00238164	0.946259	0.956024
192	20    	0.948533	0.00238164	0.946259	0.956024
193	20    	0.948533	0.00238164	0.946259	0.956024
194	20    	0.948777	0.00238625	0.946259	0.956024
195	20    	0.948777	0.00238625	0.946259	0.956024
196	20    	0.949103	0.00246369	0.946259	0.956024
197	20    	0.949103	0.00246369	0.946259	0.956024
198	20    	0.949103	0.00246369	0.946259	0.956024
199	20    	0.949184	0.00239458	0.946259	0.956024
200	20    	0.949346	0.00229892	0.946259	0.956024
201	20    	0.949509	0.00218707	0.946259	0.956024
202	20    	0.94959 	0.00209329	0.947876	0.956024
203	20    	0.94959 	0.00209329	0.947876	0.956024
204	20    	0.94959 	0.00209329	0.947876	0.956024
205	20    	0.94959 	0.00209329	0.947876	0.956024
206	20    	0.94959 	0.00209329	0.947876	0.956024
207	20    	0.94959 	0.00209329	0.947876	0.956024
208	20    	0.94959 	0.00209329	0.947876	0.956024
209	20    	0.94959 	0.00209329	0.947876	0.956024
210	20    	0.949834	0.00216382	0.947876	0.956024
211	20    	0.949834	0.00216382	0.947876	0.956024
212	20    	0.949834	0.00216382	0.947876	0.956024
213	20    	0.949834	0.00216382	0.947876	0.956024
214	20    	0.949834	0.00216382	0.947876	0.956024
215	20    	0.949834	0.00216382	0.947876	0.956024
216	20    	0.949834	0.00216382	0.947876	0.956024
217	20    	0.949834	0.00216382	0.947876	0.956024
218	20    	0.949834	0.00216382	0.947876	0.956024
219	20    	0.949834	0.00216382	0.947876	0.956024
220	20    	0.949834	0.00216382	0.947876	0.956024
221	20    	0.949834	0.00216382	0.947876	0.956024
222	20    	0.949834	0.00216382	0.947876	0.956024
223	20    	0.949834	0.00216382	0.947876	0.956024
224	20    	0.949834	0.00216382	0.947876	0.956024
225	20    	0.949834	0.00216382	0.947876	0.956024
226	20    	0.949834	0.00216382	0.947876	0.956024
227	20    	0.949834	0.00216382	0.947876	0.956024
228	20    	0.949834	0.00216382	0.947876	0.956024
229	20    	0.949834	0.00216382	0.947876	0.956024
230	20    	0.949834	0.00216382	0.947876	0.956024
231	20    	0.949834	0.00216382	0.947876	0.956024
232	20    	0.949834	0.00216382	0.947876	0.956024
233	20    	0.949834	0.00216382	0.947876	0.956024
234	20    	0.949916	0.00211873	0.947876	0.956024
235	20    	0.949916	0.00211873	0.947876	0.956024
236	20    	0.949916	0.00211873	0.947876	0.956024
237	20    	0.949916	0.00211873	0.947876	0.956024
238	20    	0.950242	0.00227513	0.947876	0.956024
239	20    	0.950242	0.00227513	0.947876	0.956024
240	20    	0.950242	0.00227513	0.947876	0.956024
241	20    	0.950242	0.00227513	0.947876	0.956024
242	20    	0.950242	0.00227513	0.947876	0.956024
243	20    	0.950568	0.00237723	0.947876	0.956024
244	20    	0.950568	0.00237723	0.947876	0.956024
245	20    	0.950568	0.00237723	0.947876	0.956024
246	20    	0.950976	0.00224053	0.947876	0.956024
247	20    	0.950976	0.00224053	0.947876	0.956024
248	20    	0.950976	0.00224053	0.947876	0.956024
249	20    	0.951057	0.00215418	0.947876	0.956024
250	20    	0.951057	0.00215418	0.947876	0.956024
251	20    	0.951383	0.00214104	0.949509	0.956024
252	20    	0.951383	0.00214104	0.949509	0.956024
253	20    	0.951383	0.00214104	0.949509	0.956024
254	20    	0.951383	0.00214104	0.949509	0.956024
255	20    	0.951383	0.00214104	0.949509	0.956024
256	20    	0.951383	0.00214104	0.949509	0.956024
257	20    	0.951383	0.00214104	0.949509	0.956024
258	20    	0.951383	0.00214104	0.949509	0.956024
259	20    	0.951383	0.00214104	0.949509	0.956024
260	20    	0.951383	0.00214104	0.949509	0.956024
261	20    	0.951709	0.0023193 	0.949509	0.956024
262	20    	0.951709	0.0023193 	0.949509	0.956024
263	20    	0.951709	0.0023193 	0.949509	0.956024
264	20    	0.952036	0.00221401	0.949509	0.956024
265	20    	0.952036	0.00221401	0.949509	0.956024
266	20    	0.952199	0.00214084	0.949509	0.956024
267	20    	0.95228 	0.00206655	0.949509	0.956024
268	20    	0.95228 	0.00206655	0.949509	0.956024
269	20    	0.95228 	0.00206655	0.949509	0.956024
270	20    	0.95228 	0.00206655	0.949509	0.956024
271	20    	0.952362	0.00198612	0.949509	0.956024
272	20    	0.952362	0.00198612	0.949509	0.956024
273	20    	0.952362	0.00198612	0.949509	0.956024
274	20    	0.952362	0.00198612	0.949509	0.956024
275	20    	0.952362	0.00198612	0.949509	0.956024
276	20    	0.952362	0.00198612	0.949509	0.956024
277	20    	0.952362	0.00198612	0.949509	0.956024
278	20    	0.952362	0.00198612	0.949509	0.956024
279	20    	0.952362	0.00198612	0.949509	0.956024
280	20    	0.952362	0.00198612	0.949509	0.956024
281	20    	0.952362	0.00198612	0.949509	0.956024
282	20    	0.952362	0.00198612	0.949509	0.956024
283	20    	0.952362	0.00198612	0.949509	0.956024
284	20    	0.952362	0.00198612	0.949509	0.956024
285	20    	0.952362	0.00198612	0.949509	0.956024
286	20    	0.952362	0.00198612	0.949509	0.956024
287	20    	0.952362	0.00198612	0.949509	0.956024
288	20    	0.952362	0.00198612	0.949509	0.956024
289	20    	0.952362	0.00198612	0.949509	0.956024
290	20    	0.952362	0.00198612	0.949509	0.956024
291	20    	0.952362	0.00198612	0.949509	0.956024
292	20    	0.952362	0.00198612	0.949509	0.956024
293	20    	0.952362	0.00198612	0.949509	0.956024
294	20    	0.952362	0.00198612	0.949509	0.956024
295	20    	0.952525	0.00187601	0.949509	0.956024
296	20    	0.952525	0.00187601	0.949509	0.956024
297	20    	0.952525	0.00187601	0.949509	0.956024
298	20    	0.952525	0.00187601	0.949509	0.956024
299	20    	0.952851	0.00166528	0.949509	0.956024
300	20    	0.952851	0.00166528	0.949509	0.956024
301	20    	0.953014	0.00147926	0.951141	0.956024
302	20    	0.953014	0.00147926	0.951141	0.956024
303	20    	0.953096	0.0014174 	0.951141	0.956024
304	20    	0.953178	0.00134778	0.951141	0.956024
305	20    	0.953178	0.00134778	0.951141	0.956024
306	20    	0.953178	0.00134778	0.951141	0.956024
307	20    	0.953178	0.00134778	0.951141	0.956024
308	20    	0.953178	0.00134778	0.951141	0.956024
309	20    	0.953178	0.00134778	0.951141	0.956024
310	20    	0.953178	0.00134778	0.951141	0.956024
311	20    	0.95334 	0.00128703	0.951141	0.956024
312	20    	0.953422	0.00119335	0.951141	0.956024
313	20    	0.953422	0.00119335	0.951141	0.956024
314	20    	0.953503	0.00108553	0.952774	0.956024
315	20    	0.953503	0.00108553	0.952774	0.956024
316	20    	0.953503	0.00108553	0.952774	0.956024
317	20    	0.953503	0.00108553	0.952774	0.956024
318	20    	0.953503	0.00108553	0.952774	0.956024
319	20    	0.953503	0.00108553	0.952774	0.956024
320	20    	0.953503	0.00108553	0.952774	0.956024
321	20    	0.953503	0.00108553	0.952774	0.956024
322	20    	0.953503	0.00108553	0.952774	0.956024
323	20    	0.953503	0.00108553	0.952774	0.956024
324	20    	0.953503	0.00108553	0.952774	0.956024
325	20    	0.953503	0.00108553	0.952774	0.956024
326	20    	0.953503	0.00108553	0.952774	0.956024
327	20    	0.953503	0.00108553	0.952774	0.956024
328	20    	0.953503	0.00108553	0.952774	0.956024
329	20    	0.953503	0.00108553	0.952774	0.956024
330	20    	0.953503	0.00108553	0.952774	0.956024
331	20    	0.953503	0.00108553	0.952774	0.956024
332	20    	0.953503	0.00108553	0.952774	0.956024
333	20    	0.953503	0.00108553	0.952774	0.956024
334	20    	0.953503	0.00108553	0.952774	0.956024
335	20    	0.953503	0.00108553	0.952774	0.956024
336	20    	0.953829	0.00164912	0.952774	0.95929 
337	20    	0.953829	0.00164912	0.952774	0.95929 
338	20    	0.953829	0.00164912	0.952774	0.95929 
339	20    	0.953829	0.00164912	0.952774	0.95929 
340	20    	0.953829	0.00164912	0.952774	0.95929 
341	20    	0.953992	0.00169659	0.952774	0.95929 
342	20    	0.953992	0.00169659	0.952774	0.95929 
343	20    	0.953992	0.00169659	0.952774	0.95929 
344	20    	0.953992	0.00169659	0.952774	0.95929 
345	20    	0.953992	0.00169659	0.952774	0.95929 
346	20    	0.953992	0.00169659	0.952774	0.95929 
347	20    	0.953992	0.00169659	0.952774	0.95929 
348	20    	0.953992	0.00169659	0.952774	0.95929 
349	20    	0.954073	0.00167504	0.952774	0.95929 
350	20    	0.954073	0.00167504	0.952774	0.95929 
351	20    	0.954073	0.00167504	0.952774	0.95929 
352	20    	0.954073	0.00167504	0.952774	0.95929 
353	20    	0.954317	0.00181774	0.952774	0.95929 
354	20    	0.954317	0.00181774	0.952774	0.95929 
355	20    	0.954317	0.00181774	0.952774	0.95929 
356	20    	0.954398	0.00178296	0.952774	0.95929 
357	20    	0.954398	0.00178296	0.952774	0.95929 
358	20    	0.954478	0.00174373	0.952774	0.95929 
359	20    	0.954478	0.00174373	0.952774	0.95929 
360	20    	0.954478	0.00174373	0.952774	0.95929 
361	20    	0.954478	0.00174373	0.952774	0.95929 
362	20    	0.954478	0.00174373	0.952774	0.95929 
363	20    	0.954478	0.00174373	0.952774	0.95929 
364	20    	0.954478	0.00174373	0.952774	0.95929 
365	20    	0.954478	0.00174373	0.952774	0.95929 
366	20    	0.954478	0.00174373	0.952774	0.95929 
367	20    	0.954967	0.00243025	0.952774	0.96254 
368	20    	0.954967	0.00243025	0.952774	0.96254 
369	20    	0.955128	0.00233072	0.952774	0.96254 
370	20    	0.955209	0.00227502	0.952774	0.96254 
371	20    	0.955209	0.00227502	0.952774	0.96254 
372	20    	0.955209	0.00227502	0.952774	0.96254 
373	20    	0.955209	0.00227502	0.952774	0.96254 
374	20    	0.95529 	0.00221496	0.952774	0.96254 
375	20    	0.955453	0.00214244	0.952774	0.96254 
376	20    	0.955453	0.00214244	0.952774	0.96254 
377	20    	0.955453	0.00214244	0.952774	0.96254 
378	20    	0.955453	0.00214244	0.952774	0.96254 
379	20    	0.955453	0.00214244	0.952774	0.96254 
380	20    	0.955453	0.00214244	0.952774	0.96254 
381	20    	0.955779	0.0020804 	0.954391	0.96254 
382	20    	0.955779	0.0020804 	0.954391	0.96254 
383	20    	0.955779	0.0020804 	0.954391	0.96254 
384	20    	0.955779	0.0020804 	0.954391	0.96254 
385	20    	0.955779	0.0020804 	0.954391	0.96254 
386	20    	0.95586 	0.00205626	0.954391	0.96254 
387	20    	0.95586 	0.00205626	0.954391	0.96254 
388	20    	0.95586 	0.00205626	0.954391	0.96254 
389	20    	0.95586 	0.00205626	0.954391	0.96254 
390	20    	0.95586 	0.00205626	0.954391	0.96254 
391	20    	0.95586 	0.00205626	0.954391	0.96254 
392	20    	0.956268	0.00248701	0.954391	0.96254 
393	20    	0.956268	0.00248701	0.954391	0.96254 
394	20    	0.956268	0.00248701	0.954391	0.96254 
395	20    	0.956349	0.00245062	0.954391	0.96254 
396	20    	0.956349	0.00245062	0.954391	0.96254 
397	20    	0.956349	0.00245062	0.954391	0.96254 
398	20    	0.956349	0.00245062	0.954391	0.96254 
399	20    	0.956349	0.00245062	0.954391	0.96254 
400	20    	0.956349	0.00245062	0.954391	0.96254 
401	20    	0.956349	0.00245062	0.954391	0.96254 
402	20    	0.956349	0.00245062	0.954391	0.96254 
403	20    	0.956349	0.00245062	0.954391	0.96254 
404	20    	0.956349	0.00245062	0.954391	0.96254 
405	20    	0.956349	0.00245062	0.954391	0.96254 
406	20    	0.956349	0.00245062	0.954391	0.96254 
407	20    	0.956349	0.00245062	0.954391	0.96254 
408	20    	0.956349	0.00245062	0.954391	0.96254 
409	20    	0.956349	0.00245062	0.954391	0.96254 
410	20    	0.956431	0.00241091	0.954391	0.96254 
411	20    	0.956431	0.00241091	0.954391	0.96254 
412	20    	0.956431	0.00241091	0.954391	0.96254 
413	20    	0.956512	0.00236773	0.954391	0.96254 
414	20    	0.956512	0.00236773	0.954391	0.96254 
415	20    	0.956512	0.00236773	0.954391	0.96254 
416	20    	0.956676	0.00227013	0.954391	0.96254 
417	20    	0.956757	0.00221521	0.954391	0.96254 
418	20    	0.956757	0.00221521	0.954391	0.96254 
419	20    	0.956757	0.00221521	0.954391	0.96254 
420	20    	0.956757	0.00221521	0.954391	0.96254 
421	20    	0.956757	0.00221521	0.954391	0.96254 
422	20    	0.956757	0.00221521	0.954391	0.96254 
423	20    	0.957246	0.00267156	0.954391	0.964172
424	20    	0.957246	0.00267156	0.954391	0.964172
425	20    	0.957246	0.00267156	0.954391	0.964172
426	20    	0.957246	0.00267156	0.954391	0.964172
427	20    	0.957246	0.00267156	0.954391	0.964172
428	20    	0.957491	0.00262268	0.954391	0.964172
429	20    	0.957491	0.00262268	0.954391	0.964172
430	20    	0.957491	0.00262268	0.954391	0.964172
431	20    	0.957491	0.00262268	0.954391	0.964172
432	20    	0.957491	0.00262268	0.954391	0.964172
433	20    	0.957491	0.00262268	0.954391	0.964172
434	20    	0.957491	0.00262268	0.954391	0.964172
435	20    	0.957491	0.00262268	0.954391	0.964172
436	20    	0.957491	0.00262268	0.954391	0.964172
437	20    	0.957491	0.00262268	0.954391	0.964172
438	20    	0.957573	0.00254931	0.956024	0.964172
439	20    	0.957573	0.00254931	0.956024	0.964172
440	20    	0.957573	0.00254931	0.956024	0.964172
441	20    	0.957573	0.00254931	0.956024	0.964172
442	20    	0.957573	0.00254931	0.956024	0.964172
443	20    	0.957573	0.00254931	0.956024	0.964172
444	20    	0.957573	0.00254931	0.956024	0.964172
445	20    	0.957573	0.00254931	0.956024	0.964172
446	20    	0.957573	0.00254931	0.956024	0.964172
447	20    	0.957573	0.00254931	0.956024	0.964172
448	20    	0.957573	0.00254931	0.956024	0.964172
449	20    	0.957573	0.00254931	0.956024	0.964172
450	20    	0.957573	0.00254931	0.956024	0.964172
451	20    	0.957573	0.00254931	0.956024	0.964172
452	20    	0.957573	0.00254931	0.956024	0.964172
453	20    	0.957573	0.00254931	0.956024	0.964172
454	20    	0.957573	0.00254931	0.956024	0.964172
455	20    	0.957573	0.00254931	0.956024	0.964172
456	20    	0.957655	0.00252443	0.956024	0.964172
457	20    	0.957655	0.00252443	0.956024	0.964172
458	20    	0.957655	0.00252443	0.956024	0.964172
459	20    	0.957655	0.00252443	0.956024	0.964172
460	20    	0.957736	0.00249663	0.956024	0.964172
461	20    	0.957736	0.00249663	0.956024	0.964172
462	20    	0.957736	0.00249663	0.956024	0.964172
463	20    	0.957736	0.00249663	0.956024	0.964172
464	20    	0.957736	0.00249663	0.956024	0.964172
465	20    	0.957736	0.00249663	0.956024	0.964172
466	20    	0.957736	0.00249663	0.956024	0.964172
467	20    	0.957736	0.00249663	0.956024	0.964172
468	20    	0.957736	0.00249663	0.956024	0.964172
469	20    	0.957818	0.00246582	0.956024	0.964172
470	20    	0.957818	0.00246582	0.956024	0.964172
471	20    	0.957818	0.00246582	0.956024	0.964172
472	20    	0.957818	0.00246582	0.956024	0.964172
473	20    	0.957818	0.00246582	0.956024	0.964172
474	20    	0.957818	0.00246582	0.956024	0.964172
475	20    	0.957818	0.00246582	0.956024	0.964172
476	20    	0.957818	0.00246582	0.956024	0.964172
477	20    	0.957818	0.00246582	0.956024	0.964172
478	20    	0.957818	0.00246582	0.956024	0.964172
479	20    	0.957818	0.00246582	0.956024	0.964172
480	20    	0.957818	0.00246582	0.956024	0.964172
481	20    	0.957818	0.00246582	0.956024	0.964172
482	20    	0.957818	0.00246582	0.956024	0.964172
483	20    	0.957818	0.00246582	0.956024	0.964172
484	20    	0.957818	0.00246582	0.956024	0.964172
485	20    	0.957818	0.00246582	0.956024	0.964172
486	20    	0.957818	0.00246582	0.956024	0.964172
487	20    	0.957818	0.00246582	0.956024	0.964172
488	20    	0.958144	0.00263212	0.956024	0.964172
489	20    	0.958144	0.00263212	0.956024	0.964172
490	20    	0.958144	0.00263212	0.956024	0.964172
491	20    	0.958144	0.00263212	0.956024	0.964172
492	20    	0.958144	0.00263212	0.956024	0.964172
493	20    	0.958144	0.00263212	0.956024	0.964172
494	20    	0.958144	0.00263212	0.956024	0.964172
495	20    	0.958144	0.00263212	0.956024	0.964172
496	20    	0.958144	0.00263212	0.956024	0.964172
497	20    	0.958225	0.0025901 	0.956024	0.964172
498	20    	0.958225	0.0025901 	0.956024	0.964172
499	20    	0.958225	0.0025901 	0.956024	0.964172
