gen	nevals	avg     	std        	min     	max     
0  	20    	0.876064	0.0141997  	0.854645	0.90892 
1  	20    	0.886732	0.0104263  	0.875977	0.910858
2  	20    	0.895161	0.00945194 	0.883728	0.910858
3  	20    	0.901556	0.00583295 	0.891479	0.912796
4  	20    	0.903979	0.0054631  	0.899231	0.91861 
5  	20    	0.906304	0.00506354 	0.901169	0.91861 
6  	20    	0.909502	0.00498224 	0.903107	0.91861 
7  	20    	0.912408	0.00422792 	0.906982	0.91861 
8  	20    	0.914637	0.00332698 	0.90892 	0.920547
9  	20    	0.915412	0.00269043 	0.910858	0.920547
10 	20    	0.916769	0.002634   	0.912796	0.922485
11 	20    	0.917641	0.00241262 	0.914734	0.922485
12 	20    	0.9189  	0.00254702 	0.914734	0.924423
13 	20    	0.919385	0.00240483 	0.916672	0.924423
14 	20    	0.920063	0.00293092 	0.916672	0.928299
15 	20    	0.920063	0.00293092 	0.916672	0.928299
16 	20    	0.921129	0.00319013 	0.916672	0.928299
17 	20    	0.922098	0.00355217 	0.91861 	0.930237
18 	20    	0.923357	0.00343801 	0.91861 	0.930237
19 	20    	0.923357	0.00343801 	0.91861 	0.930237
20 	20    	0.924036	0.00310059 	0.920547	0.930237
21 	20    	0.924908	0.00286614 	0.920547	0.930237
22 	20    	0.92578 	0.00288085 	0.922485	0.932175
23 	20    	0.926264	0.00270435 	0.922485	0.932175
24 	20    	0.926652	0.00269043 	0.922485	0.932175
25 	20    	0.928008	0.0024722  	0.924423	0.932175
26 	20    	0.928687	0.00234153 	0.924423	0.932175
27 	20    	0.929365	0.00198336 	0.926361	0.932175
28 	20    	0.929559	0.0018663  	0.926361	0.932175
29 	20    	0.929655	0.00174408 	0.926361	0.932175
30 	20    	0.930043	0.00182818 	0.926361	0.934113
31 	20    	0.930721	0.00192572 	0.928299	0.934113
32 	20    	0.930721	0.00192572 	0.928299	0.934113
33 	20    	0.930818	0.00184861 	0.928299	0.934113
34 	20    	0.930915	0.00176282 	0.928299	0.934113
35 	20    	0.930915	0.00176282 	0.928299	0.934113
36 	20    	0.930915	0.00176282 	0.928299	0.934113
37 	20    	0.930915	0.00176282 	0.928299	0.934113
38 	20    	0.931012	0.00166702 	0.928299	0.934113
39 	20    	0.931303	0.00143389 	0.930237	0.934113
40 	20    	0.931496	0.00153508 	0.930237	0.934113
41 	20    	0.931593	0.00151352 	0.930237	0.934113
42 	20    	0.931884	0.00140746 	0.930237	0.934113
43 	20    	0.932078	0.00143389 	0.930237	0.934113
44 	20    	0.932078	0.00143389 	0.930237	0.934113
45 	20    	0.932368	0.0012102  	0.930237	0.934113
46 	20    	0.932562	0.00116272 	0.930237	0.934113
47 	20    	0.932853	0.000924303	0.932175	0.934113
48 	20    	0.932853	0.000924303	0.932175	0.934113
49 	20    	0.933725	0.00375766 	0.932175	0.949615
50 	20    	0.933725	0.00375766 	0.932175	0.949615
51 	20    	0.933725	0.00375766 	0.932175	0.949615
52 	20    	0.933725	0.00375766 	0.932175	0.949615
53 	20    	0.933725	0.00375766 	0.932175	0.949615
54 	20    	0.934113	0.00397144 	0.932175	0.949615
55 	20    	0.934113	0.00397144 	0.932175	0.949615
56 	20    	0.934694	0.00406952 	0.932175	0.949615
57 	20    	0.934791	0.00403127 	0.932175	0.949615
58 	20    	0.936826	0.00566308 	0.932175	0.953491
59 	20    	0.938376	0.00573556 	0.932175	0.953491
60 	20    	0.939248	0.00528135 	0.934113	0.953491
61 	20    	0.939829	0.00492062 	0.934113	0.953491
62 	20    	0.940411	0.00445604 	0.93605 	0.953491
63 	20    	0.941089	0.00476258 	0.93605 	0.953491
64 	20    	0.94138 	0.00453953 	0.937988	0.953491
65 	20    	0.94138 	0.00453953 	0.937988	0.953491
66 	20    	0.941573	0.00447286 	0.937988	0.953491
67 	20    	0.941573	0.00447286 	0.937988	0.953491
68 	20    	0.942155	0.0043451  	0.937988	0.953491
69 	20    	0.943027	0.00430712 	0.937988	0.953491
70 	20    	0.943221	0.00416078 	0.937988	0.953491
71 	20    	0.943221	0.00416078 	0.937988	0.953491
72 	20    	0.944771	0.00354688 	0.939926	0.953491
73 	20    	0.944771	0.00354688 	0.939926	0.953491
74 	20    	0.944771	0.00354688 	0.939926	0.953491
75 	20    	0.945061	0.00337183 	0.939926	0.953491
76 	20    	0.945061	0.00337183 	0.939926	0.953491
77 	20    	0.945352	0.00310059 	0.941864	0.953491
78 	20    	0.945352	0.00310059 	0.941864	0.953491
79 	20    	0.94603 	0.0031412  	0.941864	0.953491
80 	20    	0.946224	0.0029943  	0.941864	0.953491
81 	20    	0.946612	0.00270435 	0.943802	0.953491
82 	20    	0.946612	0.00270435 	0.943802	0.953491
83 	20    	0.946612	0.00270435 	0.943802	0.953491
84 	20    	0.946709	0.00263578 	0.943802	0.953491
85 	20    	0.946709	0.00263578 	0.943802	0.953491
86 	20    	0.946902	0.00255622 	0.943802	0.953491
87 	20    	0.946902	0.00255622 	0.943802	0.953491
88 	20    	0.947484	0.00244356 	0.943802	0.953491
89 	20    	0.948356	0.00254702 	0.94574 	0.953491
90 	20    	0.948356	0.00254702 	0.94574 	0.953491
91 	20    	0.94855 	0.00248735 	0.94574 	0.953491
92 	20    	0.94855 	0.00248735 	0.94574 	0.953491
93 	20    	0.94855 	0.00248735 	0.94574 	0.953491
94 	20    	0.94855 	0.00248735 	0.94574 	0.953491
95 	20    	0.94855 	0.00248735 	0.94574 	0.953491
96 	20    	0.94855 	0.00248735 	0.94574 	0.953491
97 	20    	0.94855 	0.00248735 	0.94574 	0.953491
98 	20    	0.94884 	0.00232544 	0.94574 	0.953491
99 	20    	0.949131	0.00228266 	0.94574 	0.953491
100	20    	0.949131	0.00228266 	0.94574 	0.953491
101	20    	0.949228	0.00217525 	0.94574 	0.953491
102	20    	0.949712	0.00188631 	0.947678	0.953491
103	20    	0.950197	0.00174408 	0.947678	0.953491
104	20    	0.950197	0.00174408 	0.947678	0.953491
105	20    	0.950197	0.00174408 	0.947678	0.953491
106	20    	0.950197	0.00174408 	0.947678	0.953491
107	20    	0.950197	0.00174408 	0.947678	0.953491
108	20    	0.950197	0.00174408 	0.947678	0.953491
109	20    	0.950197	0.00174408 	0.947678	0.953491
110	20    	0.950488	0.00155935 	0.947678	0.953491
111	20    	0.950488	0.00155935 	0.947678	0.953491
112	20    	0.950778	0.00128544 	0.949615	0.953491
113	20    	0.950778	0.00128544 	0.949615	0.953491
114	20    	0.950778	0.00128544 	0.949615	0.953491
115	20    	0.950875	0.00126704 	0.949615	0.953491
116	20    	0.950875	0.00126704 	0.949615	0.953491
117	20    	0.951263	0.00153508 	0.949615	0.955429
118	20    	0.95165 	0.00198336 	0.949615	0.957367
119	20    	0.95165 	0.00198336 	0.949615	0.957367
120	20    	0.95165 	0.00198336 	0.949615	0.957367
121	20    	0.951844	0.00196433 	0.949615	0.957367
122	20    	0.951941	0.00189871 	0.949615	0.957367
123	20    	0.951941	0.00189871 	0.949615	0.957367
124	20    	0.952522	0.00270608 	0.949615	0.961243
125	20    	0.952522	0.00270608 	0.949615	0.961243
126	20    	0.952522	0.00270608 	0.949615	0.961243
127	20    	0.952522	0.00270608 	0.949615	0.961243
128	20    	0.952522	0.00270608 	0.949615	0.961243
129	20    	0.952619	0.002634   	0.949615	0.961243
130	20    	0.952619	0.002634   	0.949615	0.961243
131	20    	0.952619	0.002634   	0.949615	0.961243
132	20    	0.952619	0.002634   	0.949615	0.961243
133	20    	0.953007	0.00273198 	0.949615	0.961243
134	20    	0.953685	0.00340646 	0.951553	0.963181
135	20    	0.953976	0.00345978 	0.951553	0.963181
136	20    	0.953976	0.00345978 	0.951553	0.963181
137	20    	0.953976	0.00345978 	0.951553	0.963181
138	20    	0.953976	0.00345978 	0.951553	0.963181
139	20    	0.953976	0.00345978 	0.951553	0.963181
140	20    	0.953976	0.00345978 	0.951553	0.963181
141	20    	0.953976	0.00345978 	0.951553	0.963181
142	20    	0.953976	0.00345978 	0.951553	0.963181
143	20    	0.953976	0.00345978 	0.951553	0.963181
144	20    	0.953976	0.00345978 	0.951553	0.963181
145	20    	0.954073	0.00341746 	0.951553	0.963181
146	20    	0.954073	0.00341746 	0.951553	0.963181
147	20    	0.954169	0.00337183 	0.951553	0.963181
148	20    	0.954169	0.00337183 	0.951553	0.963181
149	20    	0.954169	0.00337183 	0.951553	0.963181
150	20    	0.954169	0.00337183 	0.951553	0.963181
151	20    	0.954169	0.00337183 	0.951553	0.963181
152	20    	0.954654	0.00332275 	0.951553	0.963181
153	20    	0.954751	0.00325856 	0.951553	0.963181
154	20    	0.954945	0.00317686 	0.951553	0.963181
155	20    	0.955138	0.00308084 	0.951553	0.963181
156	20    	0.955138	0.00308084 	0.951553	0.963181
157	20    	0.955332	0.00296911 	0.951553	0.963181
158	20    	0.955332	0.00296911 	0.951553	0.963181
159	20    	0.955429	0.00287432 	0.951553	0.963181
160	20    	0.955429	0.00287432 	0.951553	0.963181
161	20    	0.955429	0.00287432 	0.951553	0.963181
162	20    	0.955623	0.0027337  	0.951553	0.963181
163	20    	0.955623	0.0027337  	0.951553	0.963181
164	20    	0.955623	0.0027337  	0.951553	0.963181
165	20    	0.95572 	0.00261971 	0.953491	0.963181
166	20    	0.95572 	0.00261971 	0.953491	0.963181
167	20    	0.95572 	0.00261971 	0.953491	0.963181
168	20    	0.95572 	0.00261971 	0.953491	0.963181
169	20    	0.95572 	0.00261971 	0.953491	0.963181
170	20    	0.95572 	0.00261971 	0.953491	0.963181
171	20    	0.95572 	0.00261971 	0.953491	0.963181
172	20    	0.95572 	0.00261971 	0.953491	0.963181
173	20    	0.95572 	0.00261971 	0.953491	0.963181
174	20    	0.95572 	0.00261971 	0.953491	0.963181
175	20    	0.95572 	0.00261971 	0.953491	0.963181
176	20    	0.95572 	0.00261971 	0.953491	0.963181
177	20    	0.955817	0.00257087 	0.953491	0.963181
178	20    	0.955817	0.00257087 	0.953491	0.963181
179	20    	0.956107	0.00261971 	0.953491	0.963181
180	20    	0.956107	0.00261971 	0.953491	0.963181
181	20    	0.956107	0.00261971 	0.953491	0.963181
182	20    	0.956107	0.00261971 	0.953491	0.963181
183	20    	0.956107	0.00261971 	0.953491	0.963181
184	20    	0.956301	0.00256172 	0.953491	0.963181
185	20    	0.956301	0.00256172 	0.953491	0.963181
186	20    	0.956301	0.00256172 	0.953491	0.963181
187	20    	0.956495	0.00248735 	0.953491	0.963181
188	20    	0.956495	0.00248735 	0.953491	0.963181
189	20    	0.956495	0.00248735 	0.953491	0.963181
190	20    	0.956495	0.00248735 	0.953491	0.963181
191	20    	0.956495	0.00248735 	0.953491	0.963181
192	20    	0.956495	0.00248735 	0.953491	0.963181
193	20    	0.956495	0.00248735 	0.953491	0.963181
194	20    	0.956495	0.00248735 	0.953491	0.963181
195	20    	0.956495	0.00248735 	0.953491	0.963181
196	20    	0.956495	0.00248735 	0.953491	0.963181
197	20    	0.956495	0.00248735 	0.953491	0.963181
198	20    	0.956495	0.00248735 	0.953491	0.963181
199	20    	0.956495	0.00248735 	0.953491	0.963181
200	20    	0.956495	0.00248735 	0.953491	0.963181
201	20    	0.956495	0.00248735 	0.953491	0.963181
202	20    	0.956689	0.00239505 	0.953491	0.963181
203	20    	0.956689	0.00239505 	0.953491	0.963181
204	20    	0.956689	0.00239505 	0.953491	0.963181
205	20    	0.956689	0.00239505 	0.953491	0.963181
206	20    	0.956689	0.00239505 	0.953491	0.963181
207	20    	0.956689	0.00239505 	0.953491	0.963181
208	20    	0.956689	0.00239505 	0.953491	0.963181
209	20    	0.956689	0.00239505 	0.953491	0.963181
210	20    	0.956689	0.00239505 	0.953491	0.963181
211	20    	0.956689	0.00239505 	0.953491	0.963181
212	20    	0.956786	0.00230109 	0.953491	0.963181
213	20    	0.956786	0.00230109 	0.953491	0.963181
214	20    	0.956786	0.00230109 	0.953491	0.963181
215	20    	0.956786	0.00230109 	0.953491	0.963181
216	20    	0.957367	0.00220951 	0.955429	0.963181
217	20    	0.957367	0.00220951 	0.955429	0.963181
218	20    	0.957367	0.00220951 	0.955429	0.963181
219	20    	0.957367	0.00220951 	0.955429	0.963181
220	20    	0.957367	0.00220951 	0.955429	0.963181
221	20    	0.957367	0.00220951 	0.955429	0.963181
222	20    	0.957464	0.00216443 	0.955429	0.963181
223	20    	0.957464	0.00216443 	0.955429	0.963181
224	20    	0.957755	0.00225992 	0.955429	0.963181
225	20    	0.957755	0.00225992 	0.955429	0.963181
226	20    	0.957851	0.00219886 	0.955429	0.963181
227	20    	0.957851	0.00219886 	0.955429	0.963181
228	20    	0.957851	0.00219886 	0.955429	0.963181
229	20    	0.957851	0.00219886 	0.955429	0.963181
230	20    	0.957851	0.00219886 	0.955429	0.963181
231	20    	0.957851	0.00219886 	0.955429	0.963181
232	20    	0.957851	0.00219886 	0.955429	0.963181
233	20    	0.957851	0.00219886 	0.955429	0.963181
234	20    	0.957851	0.00219886 	0.955429	0.963181
235	20    	0.957851	0.00219886 	0.955429	0.963181
236	20    	0.958045	0.00214701 	0.955429	0.963181
237	20    	0.958045	0.00214701 	0.955429	0.963181
238	20    	0.958045	0.00214701 	0.955429	0.963181
239	20    	0.958142	0.00206907 	0.955429	0.963181
240	20    	0.958336	0.00198572 	0.955429	0.963181
241	20    	0.958336	0.00198572 	0.955429	0.963181
242	20    	0.958336	0.00198572 	0.955429	0.963181
243	20    	0.958336	0.00198572 	0.955429	0.963181
244	20    	0.958336	0.00198572 	0.955429	0.963181
245	20    	0.958336	0.00198572 	0.955429	0.963181
246	20    	0.958336	0.00198572 	0.955429	0.963181
247	20    	0.958336	0.00198572 	0.955429	0.963181
248	20    	0.958336	0.00198572 	0.955429	0.963181
249	20    	0.95882 	0.00202087 	0.957367	0.963181
250	20    	0.95882 	0.00202087 	0.957367	0.963181
251	20    	0.95882 	0.00202087 	0.957367	0.963181
252	20    	0.95882 	0.00202087 	0.957367	0.963181
253	20    	0.959402	0.00241068 	0.957367	0.965118
254	20    	0.959402	0.00241068 	0.957367	0.965118
255	20    	0.959402	0.00241068 	0.957367	0.965118
256	20    	0.959402	0.00241068 	0.957367	0.965118
257	20    	0.959402	0.00241068 	0.957367	0.965118
258	20    	0.959402	0.00241068 	0.957367	0.965118
259	20    	0.959402	0.00241068 	0.957367	0.965118
260	20    	0.959595	0.00239505 	0.957367	0.965118
261	20    	0.959595	0.00239505 	0.957367	0.965118
262	20    	0.959595	0.00239505 	0.957367	0.965118
263	20    	0.959595	0.00239505 	0.957367	0.965118
264	20    	0.959595	0.00239505 	0.957367	0.965118
265	20    	0.959595	0.00239505 	0.957367	0.965118
266	20    	0.959595	0.00239505 	0.957367	0.965118
267	20    	0.959595	0.00239505 	0.957367	0.965118
268	20    	0.959595	0.00239505 	0.957367	0.965118
269	20    	0.959595	0.00239505 	0.957367	0.965118
270	20    	0.959595	0.00239505 	0.957367	0.965118
271	20    	0.959595	0.00239505 	0.957367	0.965118
272	20    	0.959595	0.00239505 	0.957367	0.965118
273	20    	0.959595	0.00239505 	0.957367	0.965118
274	20    	0.959595	0.00239505 	0.957367	0.965118
275	20    	0.959886	0.00245888 	0.957367	0.965118
276	20    	0.96008 	0.00240483 	0.957367	0.965118
277	20    	0.96008 	0.00240483 	0.957367	0.965118
278	20    	0.960177	0.00233149 	0.957367	0.965118
279	20    	0.960177	0.00233149 	0.957367	0.965118
280	20    	0.960177	0.00233149 	0.957367	0.965118
281	20    	0.960177	0.00233149 	0.957367	0.965118
282	20    	0.960177	0.00233149 	0.957367	0.965118
283	20    	0.960177	0.00233149 	0.957367	0.965118
284	20    	0.960274	0.0022516  	0.957367	0.965118
285	20    	0.960274	0.0022516  	0.957367	0.965118
286	20    	0.960274	0.0022516  	0.957367	0.965118
287	20    	0.960274	0.0022516  	0.957367	0.965118
288	20    	0.960274	0.0022516  	0.957367	0.965118
289	20    	0.960274	0.0022516  	0.957367	0.965118
290	20    	0.960564	0.00223275 	0.957367	0.965118
291	20    	0.960564	0.00223275 	0.957367	0.965118
292	20    	0.960564	0.00223275 	0.957367	0.965118
293	20    	0.960564	0.00223275 	0.957367	0.965118
294	20    	0.960564	0.00223275 	0.957367	0.965118
295	20    	0.960564	0.00223275 	0.957367	0.965118
296	20    	0.960758	0.00211174 	0.957367	0.965118
297	20    	0.960855	0.00199516 	0.957367	0.965118
298	20    	0.960855	0.00199516 	0.957367	0.965118
299	20    	0.960855	0.00199516 	0.957367	0.965118
300	20    	0.960855	0.00199516 	0.957367	0.965118
301	20    	0.960855	0.00199516 	0.957367	0.965118
302	20    	0.960855	0.00199516 	0.957367	0.965118
303	20    	0.960952	0.0018663  	0.957367	0.965118
304	20    	0.960952	0.0018663  	0.957367	0.965118
305	20    	0.961146	0.00167544 	0.959305	0.965118
306	20    	0.961146	0.00167544 	0.959305	0.965118
307	20    	0.961146	0.00167544 	0.959305	0.965118
308	20    	0.961146	0.00167544 	0.959305	0.965118
309	20    	0.961146	0.00167544 	0.959305	0.965118
310	20    	0.961146	0.00167544 	0.959305	0.965118
311	20    	0.961146	0.00167544 	0.959305	0.965118
312	20    	0.96134 	0.00167544 	0.959305	0.965118
313	20    	0.96134 	0.00167544 	0.959305	0.965118
314	20    	0.96134 	0.00167544 	0.959305	0.965118
315	20    	0.96134 	0.00167544 	0.959305	0.965118
316	20    	0.96163 	0.0017971  	0.959305	0.965118
317	20    	0.96163 	0.0017971  	0.959305	0.965118
318	20    	0.96163 	0.0017971  	0.959305	0.965118
319	20    	0.96163 	0.0017971  	0.959305	0.965118
320	20    	0.96163 	0.0017971  	0.959305	0.965118
321	20    	0.96163 	0.0017971  	0.959305	0.965118
322	20    	0.96163 	0.0017971  	0.959305	0.965118
323	20    	0.96163 	0.0017971  	0.959305	0.965118
324	20    	0.96163 	0.0017971  	0.959305	0.965118
325	20    	0.96163 	0.0017971  	0.959305	0.965118
326	20    	0.96163 	0.0017971  	0.959305	0.965118
327	20    	0.96163 	0.0017971  	0.959305	0.965118
328	20    	0.96163 	0.0017971  	0.959305	0.965118
329	20    	0.96163 	0.0017971  	0.959305	0.965118
330	20    	0.96163 	0.0017971  	0.959305	0.965118
331	20    	0.96163 	0.0017971  	0.959305	0.965118
332	20    	0.96163 	0.0017971  	0.959305	0.965118
333	20    	0.96163 	0.0017971  	0.959305	0.965118
334	20    	0.96163 	0.0017971  	0.959305	0.965118
335	20    	0.96163 	0.0017971  	0.959305	0.965118
336	20    	0.96163 	0.0017971  	0.959305	0.965118
337	20    	0.96163 	0.0017971  	0.959305	0.965118
338	20    	0.96163 	0.0017971  	0.959305	0.965118
339	20    	0.96163 	0.0017971  	0.959305	0.965118
340	20    	0.961824	0.00174408 	0.959305	0.965118
341	20    	0.962018	0.00166702 	0.959305	0.965118
342	20    	0.962018	0.00166702 	0.959305	0.965118
343	20    	0.962018	0.00166702 	0.959305	0.965118
344	20    	0.962018	0.00166702 	0.959305	0.965118
345	20    	0.962405	0.00142404 	0.959305	0.965118
346	20    	0.962405	0.00142404 	0.959305	0.965118
347	20    	0.962405	0.00142404 	0.959305	0.965118
348	20    	0.962405	0.00142404 	0.959305	0.965118
349	20    	0.962405	0.00142404 	0.959305	0.965118
350	20    	0.962405	0.00142404 	0.959305	0.965118
351	20    	0.962405	0.00142404 	0.959305	0.965118
352	20    	0.962405	0.00142404 	0.959305	0.965118
353	20    	0.962405	0.00142404 	0.959305	0.965118
354	20    	0.962405	0.00142404 	0.959305	0.965118
355	20    	0.962405	0.00142404 	0.959305	0.965118
356	20    	0.962405	0.00142404 	0.959305	0.965118
357	20    	0.962405	0.00142404 	0.959305	0.965118
358	20    	0.962405	0.00142404 	0.959305	0.965118
359	20    	0.962405	0.00142404 	0.959305	0.965118
360	20    	0.962599	0.00124084 	0.961243	0.965118
361	20    	0.962599	0.00124084 	0.961243	0.965118
362	20    	0.962599	0.00124084 	0.961243	0.965118
363	20    	0.962599	0.00124084 	0.961243	0.965118
364	20    	0.962599	0.00124084 	0.961243	0.965118
365	20    	0.962599	0.00124084 	0.961243	0.965118
366	20    	0.962599	0.00124084 	0.961243	0.965118
367	20    	0.962599	0.00124084 	0.961243	0.965118
368	20    	0.962599	0.00124084 	0.961243	0.965118
369	20    	0.962599	0.00124084 	0.961243	0.965118
370	20    	0.962599	0.00124084 	0.961243	0.965118
371	20    	0.962599	0.00124084 	0.961243	0.965118
372	20    	0.962599	0.00124084 	0.961243	0.965118
373	20    	0.962599	0.00124084 	0.961243	0.965118
374	20    	0.962599	0.00124084 	0.961243	0.965118
375	20    	0.962599	0.00124084 	0.961243	0.965118
376	20    	0.962599	0.00124084 	0.961243	0.965118
377	20    	0.962599	0.00124084 	0.961243	0.965118
378	20    	0.962599	0.00124084 	0.961243	0.965118
379	20    	0.962599	0.00124084 	0.961243	0.965118
380	20    	0.962599	0.00124084 	0.961243	0.965118
381	20    	0.962599	0.00124084 	0.961243	0.965118
382	20    	0.962599	0.00124084 	0.961243	0.965118
383	20    	0.962599	0.00124084 	0.961243	0.965118
384	20    	0.962599	0.00124084 	0.961243	0.965118
385	20    	0.962793	0.00131432 	0.961243	0.965118
386	20    	0.962793	0.00131432 	0.961243	0.965118
387	20    	0.962793	0.00131432 	0.961243	0.965118
388	20    	0.962793	0.00131432 	0.961243	0.965118
389	20    	0.962793	0.00131432 	0.961243	0.965118
390	20    	0.962793	0.00131432 	0.961243	0.965118
391	20    	0.962793	0.00131432 	0.961243	0.965118
392	20    	0.962793	0.00131432 	0.961243	0.965118
393	20    	0.962793	0.00131432 	0.961243	0.965118
394	20    	0.962793	0.00131432 	0.961243	0.965118
395	20    	0.962793	0.00131432 	0.961243	0.965118
396	20    	0.962793	0.00131432 	0.961243	0.965118
397	20    	0.962793	0.00131432 	0.961243	0.965118
398	20    	0.962793	0.00131432 	0.961243	0.965118
399	20    	0.962793	0.00131432 	0.961243	0.965118
400	20    	0.962793	0.00131432 	0.961243	0.965118
401	20    	0.962793	0.00131432 	0.961243	0.965118
402	20    	0.962793	0.00131432 	0.961243	0.965118
403	20    	0.962793	0.00131432 	0.961243	0.965118
404	20    	0.962793	0.00131432 	0.961243	0.965118
405	20    	0.962793	0.00131432 	0.961243	0.965118
406	20    	0.962793	0.00131432 	0.961243	0.965118
407	20    	0.962793	0.00131432 	0.961243	0.965118
408	20    	0.962793	0.00131432 	0.961243	0.965118
409	20    	0.962793	0.00131432 	0.961243	0.965118
410	20    	0.962793	0.00131432 	0.961243	0.965118
411	20    	0.962793	0.00131432 	0.961243	0.965118
412	20    	0.962793	0.00131432 	0.961243	0.965118
413	20    	0.962793	0.00131432 	0.961243	0.965118
414	20    	0.962793	0.00131432 	0.961243	0.965118
415	20    	0.962793	0.00131432 	0.961243	0.965118
416	20    	0.962793	0.00131432 	0.961243	0.965118
417	20    	0.963084	0.00155935 	0.961243	0.967056
418	20    	0.963084	0.00155935 	0.961243	0.967056
419	20    	0.963084	0.00155935 	0.961243	0.967056
420	20    	0.963084	0.00155935 	0.961243	0.967056
421	20    	0.963084	0.00155935 	0.961243	0.967056
422	20    	0.963084	0.00155935 	0.961243	0.967056
423	20    	0.963084	0.00155935 	0.961243	0.967056
424	20    	0.963084	0.00155935 	0.961243	0.967056
425	20    	0.963084	0.00155935 	0.961243	0.967056
426	20    	0.963181	0.00150106 	0.961243	0.967056
427	20    	0.963181	0.00150106 	0.961243	0.967056
428	20    	0.963181	0.00150106 	0.961243	0.967056
429	20    	0.963181	0.00150106 	0.961243	0.967056
430	20    	0.963181	0.00150106 	0.961243	0.967056
431	20    	0.963181	0.00150106 	0.961243	0.967056
432	20    	0.963181	0.00150106 	0.961243	0.967056
433	20    	0.963181	0.00150106 	0.961243	0.967056
434	20    	0.963181	0.00150106 	0.961243	0.967056
435	20    	0.963181	0.00150106 	0.961243	0.967056
436	20    	0.963181	0.00150106 	0.961243	0.967056
437	20    	0.963181	0.00150106 	0.961243	0.967056
438	20    	0.963277	0.00143389 	0.961243	0.967056
439	20    	0.963277	0.00143389 	0.961243	0.967056
440	20    	0.963277	0.00143389 	0.961243	0.967056
441	20    	0.963277	0.00143389 	0.961243	0.967056
442	20    	0.963277	0.00143389 	0.961243	0.967056
443	20    	0.963277	0.00143389 	0.961243	0.967056
444	20    	0.963277	0.00143389 	0.961243	0.967056
445	20    	0.963277	0.00143389 	0.961243	0.967056
446	20    	0.963277	0.00143389 	0.961243	0.967056
447	20    	0.963277	0.00143389 	0.961243	0.967056
448	20    	0.963374	0.00135651 	0.961243	0.967056
449	20    	0.963374	0.00135651 	0.961243	0.967056
450	20    	0.963374	0.00135651 	0.961243	0.967056
451	20    	0.963374	0.00135651 	0.961243	0.967056
452	20    	0.963374	0.00135651 	0.961243	0.967056
453	20    	0.963374	0.00135651 	0.961243	0.967056
454	20    	0.963374	0.00135651 	0.961243	0.967056
455	20    	0.963374	0.00135651 	0.961243	0.967056
456	20    	0.963374	0.00135651 	0.961243	0.967056
457	20    	0.963374	0.00135651 	0.961243	0.967056
458	20    	0.963762	0.00138391 	0.961243	0.967056
459	20    	0.963762	0.00138391 	0.961243	0.967056
460	20    	0.963762	0.00138391 	0.961243	0.967056
461	20    	0.963762	0.00138391 	0.961243	0.967056
462	20    	0.963762	0.00138391 	0.961243	0.967056
463	20    	0.963956	0.00128544 	0.963181	0.967056
464	20    	0.963956	0.00128544 	0.963181	0.967056
465	20    	0.963956	0.00128544 	0.963181	0.967056
466	20    	0.963956	0.00128544 	0.963181	0.967056
467	20    	0.963956	0.00128544 	0.963181	0.967056
468	20    	0.963956	0.00128544 	0.963181	0.967056
469	20    	0.963956	0.00128544 	0.963181	0.967056
470	20    	0.963956	0.00128544 	0.963181	0.967056
471	20    	0.963956	0.00128544 	0.963181	0.967056
472	20    	0.963956	0.00128544 	0.963181	0.967056
473	20    	0.963956	0.00128544 	0.963181	0.967056
474	20    	0.964149	0.00143716 	0.963181	0.967056
475	20    	0.964149	0.00143716 	0.963181	0.967056
476	20    	0.964149	0.00143716 	0.963181	0.967056
477	20    	0.964149	0.00143716 	0.963181	0.967056
478	20    	0.964149	0.00143716 	0.963181	0.967056
479	20    	0.964149	0.00143716 	0.963181	0.967056
480	20    	0.964149	0.00143716 	0.963181	0.967056
481	20    	0.964149	0.00143716 	0.963181	0.967056
482	20    	0.964149	0.00143716 	0.963181	0.967056
483	20    	0.964149	0.00143716 	0.963181	0.967056
484	20    	0.964149	0.00143716 	0.963181	0.967056
485	20    	0.964149	0.00143716 	0.963181	0.967056
486	20    	0.964149	0.00143716 	0.963181	0.967056
487	20    	0.964149	0.00143716 	0.963181	0.967056
488	20    	0.964343	0.00155029 	0.963181	0.967056
489	20    	0.964343	0.00155029 	0.963181	0.967056
490	20    	0.964343	0.00155029 	0.963181	0.967056
491	20    	0.964343	0.00155029 	0.963181	0.967056
492	20    	0.964343	0.00155029 	0.963181	0.967056
493	20    	0.964343	0.00155029 	0.963181	0.967056
494	20    	0.964343	0.00155029 	0.963181	0.967056
495	20    	0.964343	0.00155029 	0.963181	0.967056
496	20    	0.964343	0.00155029 	0.963181	0.967056
497	20    	0.964343	0.00155029 	0.963181	0.967056
498	20    	0.964343	0.00155029 	0.963181	0.967056
499	20    	0.964343	0.00155029 	0.963181	0.967056
