gen	nevals	avg     	std        	min     	max     
0  	20    	0.87562 	0.00496474 	0.860916	0.883698
1  	20    	0.879077	0.00355187 	0.875565	0.888168
2  	20    	0.881965	0.00323841 	0.877594	0.888168
3  	20    	0.883305	0.00251697 	0.880432	0.888168
4  	20    	0.88544 	0.00305205 	0.881653	0.893448
5  	20    	0.886337	0.00267271 	0.882874	0.893448
6  	20    	0.887515	0.00309152 	0.884506	0.895889
7  	20    	0.887901	0.00288941 	0.884918	0.895889
8  	20    	0.888815	0.00252355 	0.885315	0.895889
9  	20    	0.889994	0.00224306 	0.88736 	0.895889
10 	20    	0.890462	0.0021868  	0.888168	0.895889
11 	20    	0.891315	0.00223781 	0.888565	0.895889
12 	20    	0.89219 	0.00194922 	0.889389	0.895889
13 	20    	0.893492	0.00181788 	0.89061 	0.89711 
14 	20    	0.893858	0.00160752 	0.89183 	0.89711 
15 	20    	0.894183	0.00180927 	0.892227	0.898331
16 	20    	0.89457 	0.00162196 	0.892227	0.898331
17 	20    	0.894896	0.00141273 	0.892639	0.898331
18 	20    	0.895527	0.00153228 	0.893448	0.898743
19 	20    	0.89693 	0.00179616 	0.895081	0.900772
20 	20    	0.897642	0.00196647 	0.895081	0.901184
21 	20    	0.897804	0.00182727 	0.895493	0.901184
22 	20    	0.89878 	0.00212926 	0.895889	0.904846
23 	20    	0.899329	0.00201225 	0.896713	0.904846
24 	20    	0.899776	0.00176727 	0.897522	0.904846
25 	20    	0.899898	0.00169001 	0.897522	0.904846
26 	20    	0.900285	0.00148175 	0.898331	0.904846
27 	20    	0.900285	0.00148175 	0.898331	0.904846
28 	20    	0.900508	0.00141726 	0.898743	0.904846
29 	20    	0.900671	0.00131877 	0.898743	0.904846
30 	20    	0.900915	0.00119628 	0.899551	0.904846
31 	20    	0.900915	0.00119628 	0.899551	0.904846
32 	20    	0.900915	0.00119628 	0.899551	0.904846
33 	20    	0.900976	0.00115561 	0.899551	0.904846
34 	20    	0.900976	0.00115561 	0.899551	0.904846
35 	20    	0.90128 	0.00101415 	0.90036 	0.904846
36 	20    	0.901688	0.00142801 	0.90036 	0.906067
37 	20    	0.90183 	0.00143079 	0.90036 	0.906067
38 	20    	0.901913	0.00136601 	0.900772	0.906067
39 	20    	0.901913	0.00136601 	0.900772	0.906067
40 	20    	0.90236 	0.00215496 	0.900772	0.909714
41 	20    	0.902421	0.00212623 	0.900772	0.909714
42 	20    	0.902645	0.00206671 	0.901184	0.909714
43 	20    	0.903011	0.00193963 	0.901184	0.909714
44 	20    	0.90303 	0.0019228  	0.901184	0.909714
45 	20    	0.903295	0.00186221 	0.901581	0.909714
46 	20    	0.903683	0.00189948 	0.901993	0.909714
47 	20    	0.903947	0.00200993 	0.901993	0.909714
48 	20    	0.90417 	0.00202872 	0.901993	0.909714
49 	20    	0.904333	0.00197731 	0.901993	0.909714
50 	20    	0.904617	0.00202896 	0.902405	0.909714
51 	20    	0.904658	0.00199219 	0.902405	0.909714
52 	20    	0.904658	0.00199219 	0.902405	0.909714
53 	20    	0.905044	0.00224965 	0.902405	0.910126
54 	20    	0.905044	0.00224965 	0.902405	0.910126
55 	20    	0.905044	0.00224965 	0.902405	0.910126
56 	20    	0.905471	0.0020451  	0.903214	0.910126
57 	20    	0.905634	0.00191968 	0.903214	0.910126
58 	20    	0.905695	0.00186022 	0.903625	0.910126
59 	20    	0.905898	0.00184468 	0.903625	0.910126
60 	20    	0.906122	0.00182651 	0.903625	0.910126
61 	20    	0.906122	0.00182651 	0.903625	0.910126
62 	20    	0.906223	0.00172101 	0.904022	0.910126
63 	20    	0.906385	0.00165786 	0.904434	0.910126
64 	20    	0.906385	0.00165786 	0.904434	0.910126
65 	20    	0.906628	0.00153244 	0.904434	0.910126
66 	20    	0.90671 	0.0014549  	0.904846	0.910126
67 	20    	0.906811	0.00136743 	0.904846	0.910126
68 	20    	0.906892	0.00128132 	0.905243	0.910126
69 	20    	0.906892	0.00128132 	0.905243	0.910126
70 	20    	0.906974	0.00122437 	0.905243	0.910126
71 	20    	0.906974	0.00122437 	0.905243	0.910126
72 	20    	0.906974	0.00122437 	0.905243	0.910126
73 	20    	0.907035	0.00116557 	0.905655	0.910126
74 	20    	0.907035	0.00116557 	0.905655	0.910126
75 	20    	0.907035	0.00116557 	0.905655	0.910126
76 	20    	0.907035	0.00116557 	0.905655	0.910126
77 	20    	0.907035	0.00116557 	0.905655	0.910126
78 	20    	0.907035	0.00116557 	0.905655	0.910126
79 	20    	0.907035	0.00116557 	0.905655	0.910126
80 	20    	0.907096	0.00112288 	0.905655	0.910126
81 	20    	0.907259	0.00113763 	0.906067	0.910126
82 	20    	0.907583	0.00131594 	0.906067	0.910934
83 	20    	0.907583	0.00131594 	0.906067	0.910934
84 	20    	0.907583	0.00131594 	0.906067	0.910934
85 	20    	0.907928	0.00138145 	0.906464	0.910934
86 	20    	0.907928	0.00138145 	0.906464	0.910934
87 	20    	0.908315	0.0016191  	0.906464	0.912567
88 	20    	0.908315	0.0016191  	0.906464	0.912567
89 	20    	0.908315	0.0016191  	0.906464	0.912567
90 	20    	0.908315	0.0016191  	0.906464	0.912567
91 	20    	0.908315	0.0016191  	0.906464	0.912567
92 	20    	0.908417	0.00156247 	0.906464	0.912567
93 	20    	0.90862 	0.00148377 	0.906876	0.912567
94 	20    	0.90862 	0.00148377 	0.906876	0.912567
95 	20    	0.908681	0.00143508 	0.906876	0.912567
96 	20    	0.908803	0.00137909 	0.907272	0.912567
97 	20    	0.908803	0.00137909 	0.907272	0.912567
98 	20    	0.908844	0.00134463 	0.907272	0.912567
99 	20    	0.909271	0.00146464 	0.907684	0.912567
100	20    	0.909271	0.00146464 	0.907684	0.912567
101	20    	0.909271	0.00146464 	0.907684	0.912567
102	20    	0.909271	0.00146464 	0.907684	0.912567
103	20    	0.909271	0.00146464 	0.907684	0.912567
104	20    	0.909271	0.00146464 	0.907684	0.912567
105	20    	0.909393	0.00142858 	0.907684	0.912567
106	20    	0.909393	0.00142858 	0.907684	0.912567
107	20    	0.909475	0.00135579 	0.907684	0.912567
108	20    	0.909475	0.00135579 	0.907684	0.912567
109	20    	0.909475	0.00135579 	0.907684	0.912567
110	20    	0.909475	0.00135579 	0.907684	0.912567
111	20    	0.909475	0.00135579 	0.907684	0.912567
112	20    	0.909475	0.00135579 	0.907684	0.912567
113	20    	0.909475	0.00135579 	0.907684	0.912567
114	20    	0.909679	0.00137734 	0.908096	0.912567
115	20    	0.909679	0.00137734 	0.908096	0.912567
116	20    	0.90976 	0.00132868 	0.908096	0.912567
117	20    	0.90976 	0.00132868 	0.908096	0.912567
118	20    	0.90976 	0.00132868 	0.908096	0.912567
119	20    	0.90976 	0.00132868 	0.908096	0.912567
120	20    	0.90976 	0.00132868 	0.908096	0.912567
121	20    	0.90976 	0.00132868 	0.908096	0.912567
122	20    	0.90976 	0.00132868 	0.908096	0.912567
123	20    	0.909962	0.00121572 	0.908096	0.912567
124	20    	0.910247	0.00139805 	0.908096	0.913788
125	20    	0.910267	0.00136992 	0.908493	0.913788
126	20    	0.910287	0.00134598 	0.908493	0.913788
127	20    	0.910287	0.00134598 	0.908493	0.913788
128	20    	0.910369	0.0012827  	0.908905	0.913788
129	20    	0.910369	0.0012827  	0.908905	0.913788
130	20    	0.910369	0.0012827  	0.908905	0.913788
131	20    	0.910369	0.0012827  	0.908905	0.913788
132	20    	0.910369	0.0012827  	0.908905	0.913788
133	20    	0.91043 	0.00123991 	0.908905	0.913788
134	20    	0.91043 	0.00123991 	0.908905	0.913788
135	20    	0.91043 	0.00123991 	0.908905	0.913788
136	20    	0.910451	0.00121762 	0.908905	0.913788
137	20    	0.910451	0.00121762 	0.908905	0.913788
138	20    	0.910491	0.00117841 	0.909317	0.913788
139	20    	0.910491	0.00117841 	0.909317	0.913788
140	20    	0.910491	0.00117841 	0.909317	0.913788
141	20    	0.910491	0.00117841 	0.909317	0.913788
142	20    	0.910491	0.00117841 	0.909317	0.913788
143	20    	0.910491	0.00117841 	0.909317	0.913788
144	20    	0.910511	0.0011617  	0.909317	0.913788
145	20    	0.910511	0.0011617  	0.909317	0.913788
146	20    	0.910511	0.0011617  	0.909317	0.913788
147	20    	0.910714	0.00114061 	0.909714	0.913788
148	20    	0.910857	0.0011842  	0.909714	0.913788
149	20    	0.910857	0.0011842  	0.909714	0.913788
150	20    	0.910857	0.0011842  	0.909714	0.913788
151	20    	0.910959	0.00116929 	0.909714	0.913788
152	20    	0.911081	0.00116033 	0.909714	0.913788
153	20    	0.911081	0.00116033 	0.909714	0.913788
154	20    	0.911081	0.00116033 	0.909714	0.913788
155	20    	0.911081	0.00116033 	0.909714	0.913788
156	20    	0.911081	0.00116033 	0.909714	0.913788
157	20    	0.911081	0.00116033 	0.909714	0.913788
158	20    	0.911081	0.00116033 	0.909714	0.913788
159	20    	0.911081	0.00116033 	0.909714	0.913788
160	20    	0.911122	0.00112515 	0.909714	0.913788
161	20    	0.911122	0.00112515 	0.909714	0.913788
162	20    	0.911122	0.00112515 	0.909714	0.913788
163	20    	0.911122	0.00112515 	0.909714	0.913788
164	20    	0.911143	0.00110273 	0.909714	0.913788
165	20    	0.911143	0.00110273 	0.909714	0.913788
166	20    	0.911224	0.00105324 	0.910126	0.913788
167	20    	0.911245	0.00103543 	0.910126	0.913788
168	20    	0.911306	0.00100313 	0.910126	0.913788
169	20    	0.911306	0.00100313 	0.910126	0.913788
170	20    	0.911388	0.000969637	0.910126	0.913788
171	20    	0.911388	0.000969637	0.910126	0.913788
172	20    	0.911388	0.000969637	0.910126	0.913788
173	20    	0.911388	0.000969637	0.910126	0.913788
174	20    	0.911388	0.000969637	0.910126	0.913788
175	20    	0.91155 	0.00101578 	0.910126	0.913788
176	20    	0.911774	0.0011595  	0.910126	0.914597
177	20    	0.911774	0.0011595  	0.910126	0.914597
178	20    	0.911774	0.0011595  	0.910126	0.914597
179	20    	0.911774	0.0011595  	0.910126	0.914597
180	20    	0.911774	0.0011595  	0.910126	0.914597
181	20    	0.911774	0.0011595  	0.910126	0.914597
182	20    	0.911774	0.0011595  	0.910126	0.914597
183	20    	0.911774	0.0011595  	0.910126	0.914597
184	20    	0.911774	0.0011595  	0.910126	0.914597
185	20    	0.911774	0.0011595  	0.910126	0.914597
186	20    	0.911977	0.00120891 	0.910538	0.914597
187	20    	0.912099	0.0011803  	0.910538	0.914597
188	20    	0.91218 	0.00112462 	0.910538	0.914597
189	20    	0.91218 	0.00112462 	0.910538	0.914597
190	20    	0.91218 	0.00112462 	0.910538	0.914597
191	20    	0.91218 	0.00112462 	0.910538	0.914597
192	20    	0.91218 	0.00112462 	0.910538	0.914597
193	20    	0.91218 	0.00112462 	0.910538	0.914597
194	20    	0.912302	0.00107092 	0.910538	0.914597
195	20    	0.912648	0.00148208 	0.910934	0.91745 
196	20    	0.912648	0.00148208 	0.910934	0.91745 
197	20    	0.912648	0.00148208 	0.910934	0.91745 
198	20    	0.912648	0.00148208 	0.910934	0.91745 
199	20    	0.912648	0.00148208 	0.910934	0.91745 
200	20    	0.912648	0.00148208 	0.910934	0.91745 
201	20    	0.912669	0.00146084 	0.910934	0.91745 
202	20    	0.912669	0.00146084 	0.910934	0.91745 
203	20    	0.912669	0.00146084 	0.910934	0.91745 
204	20    	0.912669	0.00146084 	0.910934	0.91745 
205	20    	0.912669	0.00146084 	0.910934	0.91745 
206	20    	0.912689	0.00143898 	0.911346	0.91745 
207	20    	0.912689	0.00143898 	0.911346	0.91745 
208	20    	0.912689	0.00143898 	0.911346	0.91745 
209	20    	0.91271 	0.00142246 	0.911346	0.91745 
210	20    	0.91271 	0.00142246 	0.911346	0.91745 
211	20    	0.91271 	0.00142246 	0.911346	0.91745 
212	20    	0.912791	0.00138832 	0.911346	0.91745 
213	20    	0.912791	0.00138832 	0.911346	0.91745 
214	20    	0.912812	0.00136965 	0.911346	0.91745 
215	20    	0.912812	0.00136965 	0.911346	0.91745 
216	20    	0.912833	0.00135042 	0.911758	0.91745 
217	20    	0.912833	0.00135042 	0.911758	0.91745 
218	20    	0.912833	0.00135042 	0.911758	0.91745 
219	20    	0.912833	0.00135042 	0.911758	0.91745 
220	20    	0.912833	0.00135042 	0.911758	0.91745 
221	20    	0.912893	0.0013157  	0.911758	0.91745 
222	20    	0.912893	0.0013157  	0.911758	0.91745 
223	20    	0.912893	0.0013157  	0.911758	0.91745 
224	20    	0.912893	0.0013157  	0.911758	0.91745 
225	20    	0.912893	0.0013157  	0.911758	0.91745 
226	20    	0.912893	0.0013157  	0.911758	0.91745 
227	20    	0.912893	0.0013157  	0.911758	0.91745 
228	20    	0.912893	0.0013157  	0.911758	0.91745 
229	20    	0.912893	0.0013157  	0.911758	0.91745 
230	20    	0.912893	0.0013157  	0.911758	0.91745 
231	20    	0.912893	0.0013157  	0.911758	0.91745 
232	20    	0.912893	0.0013157  	0.911758	0.91745 
233	20    	0.912893	0.0013157  	0.911758	0.91745 
234	20    	0.912893	0.0013157  	0.911758	0.91745 
235	20    	0.912994	0.00130249 	0.911758	0.91745 
236	20    	0.912994	0.00130249 	0.911758	0.91745 
237	20    	0.912994	0.00130249 	0.911758	0.91745 
238	20    	0.912994	0.00130249 	0.911758	0.91745 
239	20    	0.912994	0.00130249 	0.911758	0.91745 
240	20    	0.913055	0.00127137 	0.911758	0.91745 
241	20    	0.913055	0.00127137 	0.911758	0.91745 
242	20    	0.913055	0.00127137 	0.911758	0.91745 
243	20    	0.913258	0.00131297 	0.912155	0.91745 
244	20    	0.913258	0.00131297 	0.912155	0.91745 
245	20    	0.913258	0.00131297 	0.912155	0.91745 
246	20    	0.913258	0.00131297 	0.912155	0.91745 
247	20    	0.913258	0.00131297 	0.912155	0.91745 
248	20    	0.913258	0.00131297 	0.912155	0.91745 
249	20    	0.913258	0.00131297 	0.912155	0.91745 
250	20    	0.913258	0.00131297 	0.912155	0.91745 
251	20    	0.913258	0.00131297 	0.912155	0.91745 
252	20    	0.913258	0.00131297 	0.912155	0.91745 
253	20    	0.913258	0.00131297 	0.912155	0.91745 
254	20    	0.913258	0.00131297 	0.912155	0.91745 
255	20    	0.913258	0.00131297 	0.912155	0.91745 
256	20    	0.913258	0.00131297 	0.912155	0.91745 
257	20    	0.913258	0.00131297 	0.912155	0.91745 
258	20    	0.913258	0.00131297 	0.912155	0.91745 
259	20    	0.913258	0.00131297 	0.912155	0.91745 
260	20    	0.913258	0.00131297 	0.912155	0.91745 
261	20    	0.913258	0.00131297 	0.912155	0.91745 
262	20    	0.913299	0.00129047 	0.912155	0.91745 
263	20    	0.913299	0.00129047 	0.912155	0.91745 
264	20    	0.913299	0.00129047 	0.912155	0.91745 
265	20    	0.913299	0.00129047 	0.912155	0.91745 
266	20    	0.91334 	0.00126622 	0.912155	0.91745 
267	20    	0.91334 	0.00126622 	0.912155	0.91745 
268	20    	0.91334 	0.00126622 	0.912155	0.91745 
269	20    	0.91334 	0.00126622 	0.912155	0.91745 
270	20    	0.91334 	0.00126622 	0.912155	0.91745 
271	20    	0.91334 	0.00126622 	0.912155	0.91745 
272	20    	0.913483	0.00128529 	0.912155	0.91745 
273	20    	0.913503	0.00126702 	0.912155	0.91745 
274	20    	0.913503	0.00126702 	0.912155	0.91745 
275	20    	0.913503	0.00126702 	0.912155	0.91745 
276	20    	0.913503	0.00126702 	0.912155	0.91745 
277	20    	0.913646	0.00126784 	0.912155	0.91745 
278	20    	0.913748	0.00122523 	0.912567	0.91745 
279	20    	0.913748	0.00122523 	0.912567	0.91745 
280	20    	0.913748	0.00122523 	0.912567	0.91745 
281	20    	0.913748	0.00122523 	0.912567	0.91745 
282	20    	0.913748	0.00122523 	0.912567	0.91745 
283	20    	0.913748	0.00122523 	0.912567	0.91745 
284	20    	0.913748	0.00122523 	0.912567	0.91745 
285	20    	0.913748	0.00122523 	0.912567	0.91745 
286	20    	0.913748	0.00122523 	0.912567	0.91745 
287	20    	0.913748	0.00122523 	0.912567	0.91745 
288	20    	0.913748	0.00122523 	0.912567	0.91745 
289	20    	0.913748	0.00122523 	0.912567	0.91745 
290	20    	0.913748	0.00122523 	0.912567	0.91745 
291	20    	0.913748	0.00122523 	0.912567	0.91745 
292	20    	0.913769	0.00120855 	0.912567	0.91745 
293	20    	0.913769	0.00120855 	0.912567	0.91745 
294	20    	0.913789	0.00119128 	0.912567	0.91745 
295	20    	0.913789	0.00119128 	0.912567	0.91745 
296	20    	0.913789	0.00119128 	0.912567	0.91745 
297	20    	0.91381 	0.00117339 	0.912567	0.91745 
298	20    	0.91381 	0.00117339 	0.912567	0.91745 
299	20    	0.91381 	0.00117339 	0.912567	0.91745 
300	20    	0.91381 	0.00117339 	0.912567	0.91745 
301	20    	0.91381 	0.00117339 	0.912567	0.91745 
302	20    	0.91381 	0.00117339 	0.912567	0.91745 
303	20    	0.91381 	0.00117339 	0.912567	0.91745 
304	20    	0.91381 	0.00117339 	0.912567	0.91745 
305	20    	0.91381 	0.00117339 	0.912567	0.91745 
306	20    	0.91381 	0.00117339 	0.912567	0.91745 
307	20    	0.91381 	0.00117339 	0.912567	0.91745 
308	20    	0.913831	0.00115487 	0.912979	0.91745 
309	20    	0.913831	0.00115487 	0.912979	0.91745 
310	20    	0.913871	0.00113839 	0.912979	0.91745 
311	20    	0.913871	0.00113839 	0.912979	0.91745 
312	20    	0.913871	0.00113839 	0.912979	0.91745 
313	20    	0.913871	0.00113839 	0.912979	0.91745 
314	20    	0.913871	0.00113839 	0.912979	0.91745 
315	20    	0.913871	0.00113839 	0.912979	0.91745 
316	20    	0.913871	0.00113839 	0.912979	0.91745 
317	20    	0.913911	0.00112021 	0.912979	0.91745 
318	20    	0.913911	0.00112021 	0.912979	0.91745 
319	20    	0.913911	0.00112021 	0.912979	0.91745 
320	20    	0.913911	0.00112021 	0.912979	0.91745 
321	20    	0.913911	0.00112021 	0.912979	0.91745 
322	20    	0.913911	0.00112021 	0.912979	0.91745 
323	20    	0.913911	0.00112021 	0.912979	0.91745 
324	20    	0.913911	0.00112021 	0.912979	0.91745 
325	20    	0.913911	0.00112021 	0.912979	0.91745 
326	20    	0.913911	0.00112021 	0.912979	0.91745 
327	20    	0.913911	0.00112021 	0.912979	0.91745 
328	20    	0.913911	0.00112021 	0.912979	0.91745 
329	20    	0.913972	0.00110083 	0.912979	0.91745 
330	20    	0.914074	0.00109812 	0.912979	0.91745 
331	20    	0.914074	0.00109812 	0.912979	0.91745 
332	20    	0.914074	0.00109812 	0.912979	0.91745 
333	20    	0.914175	0.00105541 	0.912979	0.91745 
334	20    	0.914175	0.00105541 	0.912979	0.91745 
335	20    	0.9145  	0.00153095 	0.912979	0.919479
336	20    	0.9145  	0.00153095 	0.912979	0.919479
337	20    	0.9145  	0.00153095 	0.912979	0.919479
338	20    	0.9145  	0.00153095 	0.912979	0.919479
339	20    	0.9145  	0.00153095 	0.912979	0.919479
340	20    	0.9145  	0.00153095 	0.912979	0.919479
341	20    	0.914601	0.0014936  	0.912979	0.919479
342	20    	0.914601	0.0014936  	0.912979	0.919479
343	20    	0.914601	0.0014936  	0.912979	0.919479
344	20    	0.914601	0.0014936  	0.912979	0.919479
345	20    	0.914601	0.0014936  	0.912979	0.919479
346	20    	0.914601	0.0014936  	0.912979	0.919479
347	20    	0.914601	0.0014936  	0.912979	0.919479
348	20    	0.914601	0.0014936  	0.912979	0.919479
349	20    	0.914601	0.0014936  	0.912979	0.919479
350	20    	0.914601	0.0014936  	0.912979	0.919479
351	20    	0.914783	0.001507   	0.912979	0.919479
352	20    	0.914783	0.001507   	0.912979	0.919479
353	20    	0.914783	0.001507   	0.912979	0.919479
354	20    	0.914783	0.001507   	0.912979	0.919479
355	20    	0.914845	0.00145656 	0.913376	0.919479
356	20    	0.914845	0.00145656 	0.913376	0.919479
357	20    	0.914845	0.00145656 	0.913376	0.919479
358	20    	0.914845	0.00145656 	0.913376	0.919479
359	20    	0.914845	0.00145656 	0.913376	0.919479
360	20    	0.914845	0.00145656 	0.913376	0.919479
361	20    	0.914845	0.00145656 	0.913376	0.919479
362	20    	0.914845	0.00145656 	0.913376	0.919479
363	20    	0.914845	0.00145656 	0.913376	0.919479
364	20    	0.914845	0.00145656 	0.913376	0.919479
365	20    	0.914845	0.00145656 	0.913376	0.919479
366	20    	0.914845	0.00145656 	0.913376	0.919479
367	20    	0.914845	0.00145656 	0.913376	0.919479
368	20    	0.914845	0.00145656 	0.913376	0.919479
369	20    	0.914845	0.00145656 	0.913376	0.919479
370	20    	0.915129	0.00168059 	0.913376	0.919479
371	20    	0.915129	0.00168059 	0.913376	0.919479
372	20    	0.915129	0.00168059 	0.913376	0.919479
373	20    	0.915129	0.00168059 	0.913376	0.919479
374	20    	0.915129	0.00168059 	0.913376	0.919479
375	20    	0.915129	0.00168059 	0.913376	0.919479
376	20    	0.915129	0.00168059 	0.913376	0.919479
377	20    	0.915211	0.0016324  	0.913788	0.919479
378	20    	0.915211	0.0016324  	0.913788	0.919479
379	20    	0.915211	0.0016324  	0.913788	0.919479
380	20    	0.915211	0.0016324  	0.913788	0.919479
381	20    	0.915272	0.00159013 	0.913788	0.919479
382	20    	0.915272	0.00159013 	0.913788	0.919479
383	20    	0.915272	0.00159013 	0.913788	0.919479
384	20    	0.915272	0.00159013 	0.913788	0.919479
385	20    	0.915272	0.00159013 	0.913788	0.919479
386	20    	0.915272	0.00159013 	0.913788	0.919479
387	20    	0.915373	0.0015566  	0.913788	0.919479
388	20    	0.915394	0.0015381  	0.9142  	0.919479
389	20    	0.915394	0.0015381  	0.9142  	0.919479
390	20    	0.915394	0.0015381  	0.9142  	0.919479
391	20    	0.915394	0.0015381  	0.9142  	0.919479
392	20    	0.915394	0.0015381  	0.9142  	0.919479
393	20    	0.915515	0.00153481 	0.9142  	0.919479
394	20    	0.915515	0.00153481 	0.9142  	0.919479
395	20    	0.915515	0.00153481 	0.9142  	0.919479
396	20    	0.915515	0.00153481 	0.9142  	0.919479
397	20    	0.915515	0.00153481 	0.9142  	0.919479
398	20    	0.915515	0.00153481 	0.9142  	0.919479
399	20    	0.915515	0.00153481 	0.9142  	0.919479
400	20    	0.915515	0.00153481 	0.9142  	0.919479
401	20    	0.915515	0.00153481 	0.9142  	0.919479
402	20    	0.915515	0.00153481 	0.9142  	0.919479
403	20    	0.915515	0.00153481 	0.9142  	0.919479
404	20    	0.915515	0.00153481 	0.9142  	0.919479
405	20    	0.915515	0.00153481 	0.9142  	0.919479
406	20    	0.915515	0.00153481 	0.9142  	0.919479
407	20    	0.91582 	0.00154697 	0.9142  	0.919479
408	20    	0.91582 	0.00154697 	0.9142  	0.919479
409	20    	0.91582 	0.00154697 	0.9142  	0.919479
410	20    	0.91582 	0.00154697 	0.9142  	0.919479
411	20    	0.91582 	0.00154697 	0.9142  	0.919479
412	20    	0.91582 	0.00154697 	0.9142  	0.919479
413	20    	0.91582 	0.00154697 	0.9142  	0.919479
414	20    	0.91582 	0.00154697 	0.9142  	0.919479
415	20    	0.91582 	0.00154697 	0.9142  	0.919479
416	20    	0.91582 	0.00154697 	0.9142  	0.919479
417	20    	0.91582 	0.00154697 	0.9142  	0.919479
418	20    	0.91582 	0.00154697 	0.9142  	0.919479
419	20    	0.91582 	0.00154697 	0.9142  	0.919479
420	20    	0.91582 	0.00154697 	0.9142  	0.919479
421	20    	0.91582 	0.00154697 	0.9142  	0.919479
422	20    	0.91582 	0.00154697 	0.9142  	0.919479
423	20    	0.91582 	0.00154697 	0.9142  	0.919479
424	20    	0.91582 	0.00154697 	0.9142  	0.919479
425	20    	0.91582 	0.00154697 	0.9142  	0.919479
426	20    	0.91588 	0.00150562 	0.9142  	0.919479
427	20    	0.91588 	0.00150562 	0.9142  	0.919479
428	20    	0.91588 	0.00150562 	0.9142  	0.919479
429	20    	0.91588 	0.00150562 	0.9142  	0.919479
430	20    	0.91588 	0.00150562 	0.9142  	0.919479
431	20    	0.91588 	0.00150562 	0.9142  	0.919479
432	20    	0.91588 	0.00150562 	0.9142  	0.919479
433	20    	0.91588 	0.00150562 	0.9142  	0.919479
434	20    	0.91588 	0.00150562 	0.9142  	0.919479
435	20    	0.91588 	0.00150562 	0.9142  	0.919479
436	20    	0.91588 	0.00150562 	0.9142  	0.919479
437	20    	0.91588 	0.00150562 	0.9142  	0.919479
438	20    	0.91588 	0.00150562 	0.9142  	0.919479
439	20    	0.91588 	0.00150562 	0.9142  	0.919479
440	20    	0.91588 	0.00150562 	0.9142  	0.919479
441	20    	0.91588 	0.00150562 	0.9142  	0.919479
442	20    	0.91588 	0.00150562 	0.9142  	0.919479
443	20    	0.91588 	0.00150562 	0.9142  	0.919479
444	20    	0.91588 	0.00150562 	0.9142  	0.919479
445	20    	0.91588 	0.00150562 	0.9142  	0.919479
446	20    	0.915961	0.00145582 	0.9142  	0.919479
447	20    	0.915961	0.00145582 	0.9142  	0.919479
448	20    	0.915961	0.00145582 	0.9142  	0.919479
449	20    	0.916123	0.00143139 	0.914597	0.919479
450	20    	0.916123	0.00143139 	0.914597	0.919479
451	20    	0.916123	0.00143139 	0.914597	0.919479
452	20    	0.916123	0.00143139 	0.914597	0.919479
453	20    	0.916123	0.00143139 	0.914597	0.919479
454	20    	0.916123	0.00143139 	0.914597	0.919479
455	20    	0.916123	0.00143139 	0.914597	0.919479
456	20    	0.916123	0.00143139 	0.914597	0.919479
457	20    	0.916123	0.00143139 	0.914597	0.919479
458	20    	0.916123	0.00143139 	0.914597	0.919479
459	20    	0.916144	0.00141211 	0.914597	0.919479
460	20    	0.916144	0.00141211 	0.914597	0.919479
461	20    	0.916205	0.00136965 	0.914597	0.919479
462	20    	0.916205	0.00136965 	0.914597	0.919479
463	20    	0.916306	0.00132106 	0.915009	0.919479
464	20    	0.916306	0.00132106 	0.915009	0.919479
465	20    	0.916306	0.00132106 	0.915009	0.919479
466	20    	0.916306	0.00132106 	0.915009	0.919479
467	20    	0.916306	0.00132106 	0.915009	0.919479
468	20    	0.916306	0.00132106 	0.915009	0.919479
469	20    	0.916306	0.00132106 	0.915009	0.919479
470	20    	0.916306	0.00132106 	0.915009	0.919479
471	20    	0.916306	0.00132106 	0.915009	0.919479
472	20    	0.916306	0.00132106 	0.915009	0.919479
473	20    	0.916306	0.00132106 	0.915009	0.919479
474	20    	0.916306	0.00132106 	0.915009	0.919479
475	20    	0.916306	0.00132106 	0.915009	0.919479
476	20    	0.916306	0.00132106 	0.915009	0.919479
477	20    	0.916306	0.00132106 	0.915009	0.919479
478	20    	0.916306	0.00132106 	0.915009	0.919479
479	20    	0.916367	0.00128746 	0.915009	0.919479
480	20    	0.916367	0.00128746 	0.915009	0.919479
481	20    	0.916448	0.00124982 	0.915009	0.919479
482	20    	0.916448	0.00124982 	0.915009	0.919479
483	20    	0.916468	0.0012298  	0.915009	0.919479
484	20    	0.916468	0.0012298  	0.915009	0.919479
485	20    	0.916468	0.0012298  	0.915009	0.919479
486	20    	0.916488	0.00120912 	0.915009	0.919479
487	20    	0.916488	0.00120912 	0.915009	0.919479
488	20    	0.916488	0.00120912 	0.915009	0.919479
489	20    	0.916711	0.00120577 	0.915405	0.919479
490	20    	0.916711	0.00120577 	0.915405	0.919479
491	20    	0.916711	0.00120577 	0.915405	0.919479
492	20    	0.916711	0.00120577 	0.915405	0.919479
493	20    	0.916711	0.00120577 	0.915405	0.919479
494	20    	0.916711	0.00120577 	0.915405	0.919479
495	20    	0.916732	0.00118664 	0.915405	0.919479
496	20    	0.916732	0.00118664 	0.915405	0.919479
497	20    	0.916732	0.00118664 	0.915405	0.919479
498	20    	0.916773	0.00115371 	0.915405	0.919479
499	20    	0.916773	0.00115371 	0.915405	0.919479
