gen	nevals	avg     	std       	min     	max     
0  	20    	0.878699	0.0112374 	0.846375	0.898544
1  	20    	0.887685	0.00646985	0.878265	0.898544
2  	20    	0.896957	0.00676073	0.889862	0.91304 
3  	20    	0.901443	0.0057254 	0.895645	0.91304 
4  	20    	0.904633	0.00501313	0.898544	0.91304 
5  	20    	0.909416	0.00620957	0.901443	0.930435
6  	20    	0.911736	0.00497738	0.907242	0.930435
7  	20    	0.912895	0.00522454	0.907242	0.930435
8  	20    	0.916519	0.00683614	0.910141	0.930435
9  	20    	0.917679	0.00631194	0.910141	0.930435
10 	20    	0.921158	0.00639134	0.91304 	0.936234
11 	20    	0.924202	0.00536738	0.915939	0.936234
12 	20    	0.926376	0.00513734	0.918839	0.939133
13 	20    	0.927246	0.00525862	0.921738	0.939133
14 	20    	0.92942 	0.00520843	0.921738	0.939133
15 	20    	0.93203 	0.00611409	0.924637	0.944931
16 	20    	0.934204	0.00527458	0.927536	0.944931
17 	20    	0.935799	0.00496046	0.927536	0.944931
18 	20    	0.936089	0.00462733	0.930435	0.944931
19 	20    	0.936668	0.00412814	0.930435	0.944931
20 	20    	0.937683	0.0039433 	0.933334	0.944931
21 	20    	0.937683	0.0039433 	0.933334	0.944931
22 	20    	0.937973	0.00382427	0.933334	0.944931
23 	20    	0.937973	0.00382427	0.933334	0.944931
24 	20    	0.938118	0.00369857	0.933334	0.944931
25 	20    	0.938263	0.00356256	0.933334	0.944931
26 	20    	0.938843	0.00316262	0.936234	0.944931
27 	20    	0.939133	0.00304068	0.936234	0.944931
28 	20    	0.939133	0.00304068	0.936234	0.944931
29 	20    	0.939133	0.00304068	0.936234	0.944931
30 	20    	0.939278	0.00296723	0.936234	0.944931
31 	20    	0.939713	0.00284059	0.936234	0.944931
32 	20    	0.940582	0.0026729 	0.936234	0.944931
33 	20    	0.940582	0.0026729 	0.936234	0.944931
34 	20    	0.941017	0.00229657	0.939133	0.944931
35 	20    	0.941307	0.00240386	0.939133	0.944931
36 	20    	0.941307	0.00240386	0.939133	0.944931
37 	20    	0.941452	0.0023553 	0.939133	0.944931
38 	20    	0.941452	0.0023553 	0.939133	0.944931
39 	20    	0.941597	0.00229657	0.939133	0.944931
40 	20    	0.942177	0.00296723	0.939133	0.950729
41 	20    	0.942177	0.00296723	0.939133	0.950729
42 	20    	0.942177	0.00296723	0.939133	0.950729
43 	20    	0.942177	0.00296723	0.939133	0.950729
44 	20    	0.942757	0.003415  	0.939133	0.950729
45 	20    	0.943481	0.00336853	0.939133	0.950729
46 	20    	0.943771	0.00309547	0.939133	0.950729
47 	20    	0.944641	0.0039857 	0.939133	0.956528
48 	20    	0.944931	0.00378006	0.942032	0.956528
49 	20    	0.945076	0.00372123	0.942032	0.956528
50 	20    	0.945076	0.00372123	0.942032	0.956528
51 	20    	0.945946	0.00402505	0.942032	0.956528
52 	20    	0.946091	0.00393263	0.942032	0.956528
53 	20    	0.947395	0.0055193 	0.942032	0.96521 
54 	20    	0.947395	0.0055193 	0.942032	0.96521 
55 	20    	0.947684	0.00538053	0.942032	0.96521 
56 	20    	0.947829	0.00526408	0.942032	0.96521 
57 	20    	0.948264	0.00512458	0.944931	0.96521 
58 	20    	0.948409	0.00506895	0.944931	0.96521 
59 	20    	0.948989	0.00529609	0.944931	0.96521 
60 	20    	0.948989	0.00529609	0.944931	0.96521 
61 	20    	0.949134	0.00522219	0.944931	0.96521 
62 	20    	0.949279	0.00514315	0.944931	0.96521 
63 	20    	0.949279	0.00514315	0.944931	0.96521 
64 	20    	0.950294	0.00520624	0.944931	0.96521 
65 	20    	0.950729	0.00510235	0.944931	0.96521 
66 	20    	0.950729	0.00510235	0.944931	0.96521 
67 	20    	0.951019	0.00492639	0.944931	0.96521 
68 	20    	0.952178	0.0044421 	0.94783 	0.96521 
69 	20    	0.952613	0.00422644	0.94783 	0.96521 
70 	20    	0.952613	0.00422644	0.94783 	0.96521 
71 	20    	0.953193	0.0038081 	0.94783 	0.96521 
72 	20    	0.953628	0.00342777	0.950729	0.96521 
73 	20    	0.953918	0.00341555	0.950729	0.96521 
74 	20    	0.953918	0.00341555	0.950729	0.96521 
75 	20    	0.953918	0.00341555	0.950729	0.96521 
76 	20    	0.953918	0.00341555	0.950729	0.96521 
77 	20    	0.953918	0.00341555	0.950729	0.96521 
78 	20    	0.953918	0.00341555	0.950729	0.96521 
79 	20    	0.954498	0.0034402 	0.950729	0.96521 
80 	20    	0.954787	0.00335366	0.950729	0.96521 
81 	20    	0.954787	0.00335366	0.950729	0.96521 
82 	20    	0.954787	0.00335366	0.950729	0.96521 
83 	20    	0.954787	0.00335366	0.950729	0.96521 
84 	20    	0.954787	0.00335366	0.950729	0.96521 
85 	20    	0.955077	0.00310652	0.950729	0.96521 
86 	20    	0.955077	0.00310652	0.950729	0.96521 
87 	20    	0.955657	0.00331605	0.950729	0.96521 
88 	20    	0.955657	0.00331605	0.950729	0.96521 
89 	20    	0.955947	0.00312024	0.953629	0.96521 
90 	20    	0.955947	0.00312024	0.953629	0.96521 
91 	20    	0.955947	0.00312024	0.953629	0.96521 
92 	20    	0.956092	0.00307619	0.953629	0.96521 
93 	20    	0.956092	0.00307619	0.953629	0.96521 
94 	20    	0.956092	0.00307619	0.953629	0.96521 
95 	20    	0.956092	0.00307619	0.953629	0.96521 
96 	20    	0.956092	0.00307619	0.953629	0.96521 
97 	20    	0.956092	0.00307619	0.953629	0.96521 
98 	20    	0.956092	0.00307619	0.953629	0.96521 
99 	20    	0.956237	0.00302456	0.953629	0.96521 
100	20    	0.956237	0.00302456	0.953629	0.96521 
101	20    	0.956237	0.00302456	0.953629	0.96521 
102	20    	0.956237	0.00302456	0.953629	0.96521 
103	20    	0.956237	0.00302456	0.953629	0.96521 
104	20    	0.956237	0.00302456	0.953629	0.96521 
105	20    	0.956237	0.00302456	0.953629	0.96521 
106	20    	0.956237	0.00302456	0.953629	0.96521 
107	20    	0.956237	0.00302456	0.953629	0.96521 
108	20    	0.956382	0.00296495	0.953629	0.96521 
109	20    	0.956382	0.00296495	0.953629	0.96521 
110	20    	0.956382	0.00296495	0.953629	0.96521 
111	20    	0.956672	0.00281973	0.953629	0.96521 
112	20    	0.956672	0.00281973	0.953629	0.96521 
113	20    	0.956962	0.00278984	0.953629	0.96521 
114	20    	0.956962	0.00278984	0.953629	0.96521 
115	20    	0.956962	0.00278984	0.953629	0.96521 
116	20    	0.957107	0.00268628	0.953629	0.96521 
117	20    	0.957542	0.00279   	0.953629	0.96521 
118	20    	0.957832	0.00266686	0.953629	0.96521 
119	20    	0.957832	0.00266686	0.953629	0.96521 
120	20    	0.958121	0.00250441	0.956528	0.96521 
121	20    	0.958121	0.00250441	0.956528	0.96521 
122	20    	0.958121	0.00250441	0.956528	0.96521 
123	20    	0.958121	0.00250441	0.956528	0.96521 
124	20    	0.958121	0.00250441	0.956528	0.96521 
125	20    	0.958121	0.00250441	0.956528	0.96521 
126	20    	0.958121	0.00250441	0.956528	0.96521 
127	20    	0.958121	0.00250441	0.956528	0.96521 
128	20    	0.958411	0.00263532	0.956528	0.96521 
129	20    	0.958556	0.0026073 	0.956528	0.96521 
130	20    	0.958556	0.0026073 	0.956528	0.96521 
131	20    	0.958556	0.0026073 	0.956528	0.96521 
132	20    	0.958556	0.0026073 	0.956528	0.96521 
133	20    	0.958556	0.0026073 	0.956528	0.96521 
134	20    	0.958556	0.0026073 	0.956528	0.96521 
135	20    	0.958556	0.0026073 	0.956528	0.96521 
136	20    	0.958846	0.00268677	0.956528	0.96521 
137	20    	0.958846	0.00268677	0.956528	0.96521 
138	20    	0.958846	0.00268677	0.956528	0.96521 
139	20    	0.958846	0.00268677	0.956528	0.96521 
140	20    	0.958846	0.00268677	0.956528	0.96521 
141	20    	0.958846	0.00268677	0.956528	0.96521 
142	20    	0.959281	0.00266727	0.956528	0.96521 
143	20    	0.959426	0.00259139	0.956528	0.96521 
144	20    	0.959426	0.00259139	0.956528	0.96521 
145	20    	0.959571	0.00250485	0.956528	0.96521 
146	20    	0.959571	0.00250485	0.956528	0.96521 
147	20    	0.959861	0.00247115	0.956528	0.96521 
148	20    	0.960006	0.00235361	0.956528	0.96521 
149	20    	0.960151	0.00222043	0.956528	0.96521 
150	20    	0.960296	0.00206861	0.956528	0.96521 
151	20    	0.960296	0.00206861	0.956528	0.96521 
152	20    	0.960441	0.00189365	0.956528	0.96521 
153	20    	0.960586	0.0016884 	0.959427	0.96521 
154	20    	0.960731	0.00170703	0.959427	0.96521 
155	20    	0.960731	0.00170703	0.959427	0.96521 
156	20    	0.960731	0.00170703	0.959427	0.96521 
157	20    	0.960876	0.00171324	0.959427	0.96521 
158	20    	0.961165	0.00191987	0.959427	0.96521 
159	20    	0.962033	0.00287973	0.959427	0.971008
160	20    	0.962033	0.00287973	0.959427	0.971008
161	20    	0.962178	0.00281718	0.959427	0.971008
162	20    	0.962178	0.00281718	0.959427	0.971008
163	20    	0.962178	0.00281718	0.959427	0.971008
164	20    	0.962178	0.00281718	0.959427	0.971008
165	20    	0.962178	0.00281718	0.959427	0.971008
166	20    	0.962178	0.00281718	0.959427	0.971008
167	20    	0.962467	0.00281675	0.959427	0.971008
168	20    	0.962756	0.00278648	0.959427	0.971008
169	20    	0.962756	0.00278648	0.959427	0.971008
170	20    	0.962756	0.00278648	0.959427	0.971008
171	20    	0.962756	0.00278648	0.959427	0.971008
172	20    	0.962756	0.00278648	0.959427	0.971008
173	20    	0.962756	0.00278648	0.959427	0.971008
174	20    	0.962756	0.00278648	0.959427	0.971008
175	20    	0.962756	0.00278648	0.959427	0.971008
176	20    	0.962756	0.00278648	0.959427	0.971008
177	20    	0.962756	0.00278648	0.959427	0.971008
178	20    	0.962901	0.00268299	0.959427	0.971008
179	20    	0.962901	0.00268299	0.959427	0.971008
180	20    	0.963046	0.00256717	0.959427	0.971008
181	20    	0.963046	0.00256717	0.959427	0.971008
182	20    	0.963046	0.00256717	0.959427	0.971008
183	20    	0.963046	0.00256717	0.959427	0.971008
184	20    	0.963046	0.00256717	0.959427	0.971008
185	20    	0.963336	0.0022909 	0.959427	0.971008
186	20    	0.963336	0.0022909 	0.959427	0.971008
187	20    	0.963336	0.0022909 	0.959427	0.971008
188	20    	0.963336	0.0022909 	0.959427	0.971008
189	20    	0.963336	0.0022909 	0.959427	0.971008
190	20    	0.963336	0.0022909 	0.959427	0.971008
191	20    	0.963336	0.0022909 	0.959427	0.971008
192	20    	0.963336	0.0022909 	0.959427	0.971008
193	20    	0.963336	0.0022909 	0.959427	0.971008
194	20    	0.963336	0.0022909 	0.959427	0.971008
195	20    	0.963481	0.00212464	0.962326	0.971008
196	20    	0.96377 	0.00233124	0.962326	0.971008
197	20    	0.96377 	0.00233124	0.962326	0.971008
198	20    	0.963914	0.00232663	0.962326	0.971008
199	20    	0.963914	0.00232663	0.962326	0.971008
200	20    	0.964204	0.00246641	0.962326	0.971008
201	20    	0.964204	0.00246641	0.962326	0.971008
202	20    	0.964204	0.00246641	0.962326	0.971008
203	20    	0.964204	0.00246641	0.962326	0.971008
204	20    	0.964782	0.00278604	0.962326	0.971008
205	20    	0.964782	0.00278604	0.962326	0.971008
206	20    	0.964782	0.00278604	0.962326	0.971008
207	20    	0.964782	0.00278604	0.962326	0.971008
208	20    	0.964782	0.00278604	0.962326	0.971008
209	20    	0.964926	0.00272925	0.962326	0.971008
210	20    	0.964926	0.00272925	0.962326	0.971008
211	20    	0.964926	0.00272925	0.962326	0.971008
212	20    	0.964926	0.00272925	0.962326	0.971008
213	20    	0.964926	0.00272925	0.962326	0.971008
214	20    	0.964926	0.00272925	0.962326	0.971008
215	20    	0.96507 	0.00266346	0.962326	0.971008
216	20    	0.96507 	0.00266346	0.962326	0.971008
217	20    	0.96507 	0.00266346	0.962326	0.971008
218	20    	0.96507 	0.00266346	0.962326	0.971008
219	20    	0.96507 	0.00266346	0.962326	0.971008
220	20    	0.96507 	0.00266346	0.962326	0.971008
221	20    	0.96507 	0.00266346	0.962326	0.971008
222	20    	0.96507 	0.00266346	0.962326	0.971008
223	20    	0.965359	0.00266375	0.962326	0.971008
224	20    	0.965359	0.00266375	0.962326	0.971008
225	20    	0.965359	0.00266375	0.962326	0.971008
226	20    	0.965359	0.00266375	0.962326	0.971008
227	20    	0.965359	0.00266375	0.962326	0.971008
228	20    	0.965359	0.00266375	0.962326	0.971008
229	20    	0.965359	0.00266375	0.962326	0.971008
230	20    	0.965504	0.00257212	0.962326	0.971008
231	20    	0.965504	0.00257212	0.962326	0.971008
232	20    	0.966807	0.00434397	0.962326	0.982605
233	20    	0.966951	0.00423945	0.962326	0.982605
234	20    	0.966951	0.00423945	0.962326	0.982605
235	20    	0.966951	0.00423945	0.962326	0.982605
236	20    	0.966951	0.00423945	0.962326	0.982605
237	20    	0.966951	0.00423945	0.962326	0.982605
238	20    	0.966951	0.00423945	0.962326	0.982605
239	20    	0.966951	0.00423945	0.962326	0.982605
240	20    	0.966951	0.00423945	0.962326	0.982605
241	20    	0.966951	0.00423945	0.962326	0.982605
242	20    	0.966951	0.00423945	0.962326	0.982605
243	20    	0.966951	0.00423945	0.962326	0.982605
244	20    	0.967239	0.00400673	0.96521 	0.982605
245	20    	0.967384	0.00398306	0.96521 	0.982605
246	20    	0.967674	0.00402505	0.96521 	0.982605
247	20    	0.967674	0.00402505	0.96521 	0.982605
248	20    	0.967819	0.0039857 	0.96521 	0.982605
249	20    	0.967819	0.0039857 	0.96521 	0.982605
250	20    	0.968109	0.00399623	0.96521 	0.982605
251	20    	0.968399	0.0039857 	0.96521 	0.982605
252	20    	0.968399	0.0039857 	0.96521 	0.982605
253	20    	0.968399	0.0039857 	0.96521 	0.982605
254	20    	0.968399	0.0039857 	0.96521 	0.982605
255	20    	0.968399	0.0039857 	0.96521 	0.982605
256	20    	0.968544	0.00391924	0.96521 	0.982605
257	20    	0.968544	0.00391924	0.96521 	0.982605
258	20    	0.968544	0.00391924	0.96521 	0.982605
259	20    	0.968544	0.00391924	0.96521 	0.982605
260	20    	0.968544	0.00391924	0.96521 	0.982605
261	20    	0.968544	0.00391924	0.96521 	0.982605
262	20    	0.968544	0.00391924	0.96521 	0.982605
263	20    	0.968544	0.00391924	0.96521 	0.982605
264	20    	0.968544	0.00391924	0.96521 	0.982605
265	20    	0.968544	0.00391924	0.96521 	0.982605
266	20    	0.968689	0.00384618	0.96521 	0.982605
267	20    	0.968979	0.00379116	0.96521 	0.982605
268	20    	0.968979	0.00379116	0.96521 	0.982605
269	20    	0.969124	0.00369857	0.96521 	0.982605
270	20    	0.969124	0.00369857	0.96521 	0.982605
271	20    	0.969124	0.00369857	0.96521 	0.982605
272	20    	0.969559	0.00349106	0.96521 	0.982605
273	20    	0.969559	0.00349106	0.96521 	0.982605
274	20    	0.969559	0.00349106	0.96521 	0.982605
275	20    	0.969559	0.00349106	0.96521 	0.982605
276	20    	0.970284	0.00398306	0.96521 	0.982605
277	20    	0.970284	0.00398306	0.96521 	0.982605
278	20    	0.970284	0.00398306	0.96521 	0.982605
279	20    	0.970428	0.00384618	0.968109	0.982605
280	20    	0.971008	0.00430016	0.968109	0.982605
281	20    	0.971008	0.00430016	0.968109	0.982605
282	20    	0.971008	0.00430016	0.968109	0.982605
283	20    	0.971008	0.00430016	0.968109	0.982605
284	20    	0.971008	0.00430016	0.968109	0.982605
285	20    	0.971008	0.00430016	0.968109	0.982605
286	20    	0.971008	0.00430016	0.968109	0.982605
287	20    	0.971008	0.00430016	0.968109	0.982605
288	20    	0.971008	0.00430016	0.968109	0.982605
289	20    	0.971298	0.00429038	0.968109	0.982605
290	20    	0.971588	0.00426089	0.968109	0.982605
291	20    	0.971588	0.00426089	0.968109	0.982605
292	20    	0.971588	0.00426089	0.968109	0.982605
293	20    	0.971733	0.00418877	0.968109	0.982605
294	20    	0.972168	0.00424112	0.968109	0.982605
295	20    	0.972168	0.00424112	0.968109	0.982605
296	20    	0.972313	0.00414845	0.968109	0.982605
297	20    	0.972313	0.00414845	0.968109	0.982605
298	20    	0.972458	0.00404847	0.968109	0.982605
299	20    	0.972748	0.00382427	0.968109	0.982605
300	20    	0.972748	0.00382427	0.968109	0.982605
301	20    	0.972748	0.00382427	0.968109	0.982605
302	20    	0.972748	0.00382427	0.968109	0.982605
303	20    	0.972748	0.00382427	0.968109	0.982605
304	20    	0.973038	0.00367863	0.968109	0.982605
305	20    	0.973038	0.00367863	0.968109	0.982605
306	20    	0.973038	0.00367863	0.968109	0.982605
307	20    	0.973038	0.00367863	0.968109	0.982605
308	20    	0.973328	0.00350308	0.971008	0.982605
309	20    	0.973328	0.00350308	0.971008	0.982605
310	20    	0.973328	0.00350308	0.971008	0.982605
311	20    	0.973328	0.00350308	0.971008	0.982605
312	20    	0.973328	0.00350308	0.971008	0.982605
313	20    	0.973328	0.00350308	0.971008	0.982605
314	20    	0.973328	0.00350308	0.971008	0.982605
315	20    	0.973328	0.00350308	0.971008	0.982605
316	20    	0.973328	0.00350308	0.971008	0.982605
317	20    	0.973328	0.00350308	0.971008	0.982605
318	20    	0.973328	0.00350308	0.971008	0.982605
319	20    	0.973328	0.00350308	0.971008	0.982605
320	20    	0.973328	0.00350308	0.971008	0.982605
321	20    	0.973328	0.00350308	0.971008	0.982605
322	20    	0.973328	0.00350308	0.971008	0.982605
323	20    	0.973328	0.00350308	0.971008	0.982605
324	20    	0.973328	0.00350308	0.971008	0.982605
325	20    	0.973328	0.00350308	0.971008	0.982605
326	20    	0.973328	0.00350308	0.971008	0.982605
327	20    	0.973328	0.00350308	0.971008	0.982605
328	20    	0.973328	0.00350308	0.971008	0.982605
329	20    	0.973328	0.00350308	0.971008	0.982605
330	20    	0.973328	0.00350308	0.971008	0.982605
331	20    	0.973328	0.00350308	0.971008	0.982605
332	20    	0.973328	0.00350308	0.971008	0.982605
333	20    	0.973328	0.00350308	0.971008	0.982605
334	20    	0.973473	0.00346387	0.971008	0.982605
335	20    	0.973473	0.00346387	0.971008	0.982605
336	20    	0.973473	0.00346387	0.971008	0.982605
337	20    	0.973473	0.00346387	0.971008	0.982605
338	20    	0.973473	0.00346387	0.971008	0.982605
339	20    	0.973473	0.00346387	0.971008	0.982605
340	20    	0.973473	0.00346387	0.971008	0.982605
341	20    	0.973473	0.00346387	0.971008	0.982605
342	20    	0.973473	0.00346387	0.971008	0.982605
343	20    	0.973473	0.00346387	0.971008	0.982605
344	20    	0.973473	0.00346387	0.971008	0.982605
345	20    	0.973473	0.00346387	0.971008	0.982605
346	20    	0.973473	0.00346387	0.971008	0.982605
347	20    	0.973763	0.00348805	0.971008	0.982605
348	20    	0.973763	0.00348805	0.971008	0.982605
349	20    	0.973907	0.00343034	0.971008	0.982605
350	20    	0.974052	0.00336541	0.971008	0.982605
351	20    	0.974052	0.00336541	0.971008	0.982605
352	20    	0.974052	0.00336541	0.971008	0.982605
353	20    	0.974487	0.00350308	0.971008	0.982605
354	20    	0.974632	0.003415  	0.971008	0.982605
355	20    	0.975067	0.003479  	0.971008	0.982605
356	20    	0.975212	0.00336541	0.971008	0.982605
357	20    	0.975212	0.00336541	0.971008	0.982605
358	20    	0.975212	0.00336541	0.971008	0.982605
359	20    	0.975212	0.00336541	0.971008	0.982605
360	20    	0.975212	0.00336541	0.971008	0.982605
361	20    	0.975212	0.00336541	0.971008	0.982605
362	20    	0.975647	0.00335603	0.971008	0.982605
363	20    	0.975647	0.00335603	0.971008	0.982605
364	20    	0.975647	0.00335603	0.971008	0.982605
365	20    	0.975647	0.00335603	0.971008	0.982605
366	20    	0.975647	0.00335603	0.971008	0.982605
367	20    	0.976082	0.00328963	0.971008	0.982605
368	20    	0.976082	0.00328963	0.971008	0.982605
369	20    	0.976227	0.0031225 	0.971008	0.982605
370	20    	0.976517	0.00288464	0.973907	0.982605
371	20    	0.976517	0.00288464	0.973907	0.982605
372	20    	0.976517	0.00288464	0.973907	0.982605
373	20    	0.976517	0.00288464	0.973907	0.982605
374	20    	0.976517	0.00288464	0.973907	0.982605
375	20    	0.976517	0.00288464	0.973907	0.982605
376	20    	0.976517	0.00288464	0.973907	0.982605
377	20    	0.976517	0.00288464	0.973907	0.982605
378	20    	0.976517	0.00288464	0.973907	0.982605
379	20    	0.976517	0.00288464	0.973907	0.982605
380	20    	0.976517	0.00288464	0.973907	0.982605
381	20    	0.976517	0.00288464	0.973907	0.982605
382	20    	0.976662	0.00282204	0.973907	0.982605
383	20    	0.976662	0.00282204	0.973907	0.982605
384	20    	0.976662	0.00282204	0.973907	0.982605
385	20    	0.976662	0.00282204	0.973907	0.982605
386	20    	0.976662	0.00282204	0.973907	0.982605
387	20    	0.976662	0.00282204	0.973907	0.982605
388	20    	0.976662	0.00282204	0.973907	0.982605
389	20    	0.976662	0.00282204	0.973907	0.982605
390	20    	0.976952	0.00282204	0.973907	0.982605
391	20    	0.977097	0.00273507	0.973907	0.982605
392	20    	0.977097	0.00273507	0.973907	0.982605
393	20    	0.977097	0.00273507	0.973907	0.982605
394	20    	0.977097	0.00273507	0.973907	0.982605
395	20    	0.977097	0.00273507	0.973907	0.982605
396	20    	0.977097	0.00273507	0.973907	0.982605
397	20    	0.977097	0.00273507	0.973907	0.982605
398	20    	0.977097	0.00273507	0.973907	0.982605
399	20    	0.977242	0.00263729	0.973907	0.982605
400	20    	0.977242	0.00263729	0.973907	0.982605
401	20    	0.977242	0.00263729	0.973907	0.982605
402	20    	0.977386	0.00252744	0.973907	0.982605
403	20    	0.977386	0.00252744	0.973907	0.982605
404	20    	0.977386	0.00252744	0.973907	0.982605
405	20    	0.977386	0.00252744	0.973907	0.982605
406	20    	0.977386	0.00252744	0.973907	0.982605
407	20    	0.977386	0.00252744	0.973907	0.982605
408	20    	0.977386	0.00252744	0.973907	0.982605
409	20    	0.977531	0.00240386	0.973907	0.982605
410	20    	0.977531	0.00240386	0.973907	0.982605
411	20    	0.977531	0.00240386	0.973907	0.982605
412	20    	0.977531	0.00240386	0.973907	0.982605
413	20    	0.977531	0.00240386	0.973907	0.982605
414	20    	0.977531	0.00240386	0.973907	0.982605
415	20    	0.977531	0.00240386	0.973907	0.982605
416	20    	0.977531	0.00240386	0.973907	0.982605
417	20    	0.977531	0.00240386	0.973907	0.982605
418	20    	0.977821	0.00229657	0.973907	0.982605
419	20    	0.977821	0.00229657	0.973907	0.982605
420	20    	0.977821	0.00229657	0.973907	0.982605
421	20    	0.977821	0.00229657	0.973907	0.982605
422	20    	0.977821	0.00229657	0.973907	0.982605
423	20    	0.977821	0.00229657	0.973907	0.982605
424	20    	0.977821	0.00229657	0.973907	0.982605
425	20    	0.977821	0.00229657	0.973907	0.982605
426	20    	0.977821	0.00229657	0.973907	0.982605
427	20    	0.977821	0.00229657	0.973907	0.982605
428	20    	0.977821	0.00229657	0.973907	0.982605
429	20    	0.977821	0.00229657	0.973907	0.982605
430	20    	0.977821	0.00229657	0.973907	0.982605
431	20    	0.977966	0.00213045	0.973907	0.982605
432	20    	0.977966	0.00213045	0.973907	0.982605
433	20    	0.977966	0.00213045	0.973907	0.982605
434	20    	0.978111	0.00193941	0.973907	0.982605
435	20    	0.978111	0.00193941	0.973907	0.982605
436	20    	0.978111	0.00193941	0.973907	0.982605
437	20    	0.978111	0.00193941	0.973907	0.982605
438	20    	0.978111	0.00193941	0.973907	0.982605
439	20    	0.978111	0.00193941	0.973907	0.982605
440	20    	0.978111	0.00193941	0.973907	0.982605
441	20    	0.978111	0.00193941	0.973907	0.982605
442	20    	0.978111	0.00193941	0.973907	0.982605
443	20    	0.978256	0.00171517	0.976807	0.982605
444	20    	0.978256	0.00171517	0.976807	0.982605
445	20    	0.978256	0.00171517	0.976807	0.982605
446	20    	0.978256	0.00171517	0.976807	0.982605
447	20    	0.978256	0.00171517	0.976807	0.982605
448	20    	0.978256	0.00171517	0.976807	0.982605
449	20    	0.978256	0.00171517	0.976807	0.982605
450	20    	0.978256	0.00171517	0.976807	0.982605
451	20    	0.978256	0.00171517	0.976807	0.982605
452	20    	0.978256	0.00171517	0.976807	0.982605
453	20    	0.978256	0.00171517	0.976807	0.982605
454	20    	0.978256	0.00171517	0.976807	0.982605
455	20    	0.978256	0.00171517	0.976807	0.982605
456	20    	0.978256	0.00171517	0.976807	0.982605
457	20    	0.978256	0.00171517	0.976807	0.982605
458	20    	0.978256	0.00171517	0.976807	0.982605
459	20    	0.978256	0.00171517	0.976807	0.982605
460	20    	0.978256	0.00171517	0.976807	0.982605
461	20    	0.978256	0.00171517	0.976807	0.982605
462	20    	0.978256	0.00171517	0.976807	0.982605
463	20    	0.978256	0.00171517	0.976807	0.982605
464	20    	0.978256	0.00171517	0.976807	0.982605
465	20    	0.978256	0.00171517	0.976807	0.982605
466	20    	0.978256	0.00171517	0.976807	0.982605
467	20    	0.978256	0.00171517	0.976807	0.982605
468	20    	0.978256	0.00171517	0.976807	0.982605
469	20    	0.978256	0.00171517	0.976807	0.982605
470	20    	0.978256	0.00171517	0.976807	0.982605
471	20    	0.978256	0.00171517	0.976807	0.982605
472	20    	0.978256	0.00171517	0.976807	0.982605
473	20    	0.978256	0.00171517	0.976807	0.982605
474	20    	0.978256	0.00171517	0.976807	0.982605
475	20    	0.978256	0.00171517	0.976807	0.982605
476	20    	0.978256	0.00171517	0.976807	0.982605
477	20    	0.978256	0.00171517	0.976807	0.982605
478	20    	0.978256	0.00171517	0.976807	0.982605
479	20    	0.978256	0.00171517	0.976807	0.982605
480	20    	0.978256	0.00171517	0.976807	0.982605
481	20    	0.978256	0.00171517	0.976807	0.982605
482	20    	0.978256	0.00171517	0.976807	0.982605
483	20    	0.978256	0.00171517	0.976807	0.982605
484	20    	0.978256	0.00171517	0.976807	0.982605
485	20    	0.978256	0.00171517	0.976807	0.982605
486	20    	0.978256	0.00171517	0.976807	0.982605
487	20    	0.978256	0.00171517	0.976807	0.982605
488	20    	0.978256	0.00171517	0.976807	0.982605
489	20    	0.978256	0.00171517	0.976807	0.982605
490	20    	0.978256	0.00171517	0.976807	0.982605
491	20    	0.978256	0.00171517	0.976807	0.982605
492	20    	0.978256	0.00171517	0.976807	0.982605
493	20    	0.978256	0.00171517	0.976807	0.982605
494	20    	0.978256	0.00171517	0.976807	0.982605
495	20    	0.978256	0.00171517	0.976807	0.982605
496	20    	0.978256	0.00171517	0.976807	0.982605
497	20    	0.978256	0.00171517	0.976807	0.982605
498	20    	0.978256	0.00171517	0.976807	0.982605
499	20    	0.978256	0.00171517	0.976807	0.982605
