gen	nevals	avg     	std       	min     	max     
0  	20    	0.872949	0.0166719 	0.840744	0.899292
1  	20    	0.885243	0.00755108	0.873535	0.901642
2  	20    	0.891097	0.00551921	0.885239	0.901642
3  	20    	0.89625 	0.00529474	0.889923	0.908661
4  	20    	0.900348	0.0058545 	0.894608	0.91803 
5  	20    	0.905034	0.00647762	0.899292	0.92038 
6  	20    	0.9089  	0.00807605	0.901642	0.934433
7  	20    	0.914053	0.00662946	0.906326	0.934433
8  	20    	0.915576	0.00566399	0.911011	0.934433
9  	20    	0.916982	0.00531469	0.911011	0.934433
10 	20    	0.919323	0.0057127 	0.913345	0.934433
11 	20    	0.921899	0.00616383	0.915695	0.934433
12 	20    	0.924475	0.00533513	0.91803 	0.934433
13 	20    	0.925413	0.00452129	0.92038 	0.934433
14 	20    	0.926466	0.00394737	0.92038 	0.934433
15 	20    	0.927871	0.00352114	0.922714	0.934433
16 	20    	0.929862	0.00395137	0.925064	0.941452
17 	20    	0.931384	0.00480491	0.925064	0.946136
18 	20    	0.93279 	0.00438661	0.927399	0.946136
19 	20    	0.933142	0.00421901	0.929749	0.946136
20 	20    	0.933961	0.00429179	0.929749	0.946136
21 	20    	0.934898	0.00453938	0.929749	0.946136
22 	20    	0.935951	0.00420662	0.929749	0.946136
23 	20    	0.936302	0.00396007	0.932083	0.946136
24 	20    	0.936536	0.00384033	0.932083	0.946136
25 	20    	0.936888	0.0035868 	0.932083	0.946136
26 	20    	0.937591	0.0035698 	0.934433	0.946136
27 	20    	0.937708	0.00350216	0.934433	0.946136
28 	20    	0.937824	0.00342922	0.934433	0.946136
29 	20    	0.938175	0.00342336	0.934433	0.946136
30 	20    	0.938643	0.00310524	0.934433	0.946136
31 	20    	0.939345	0.00361848	0.934433	0.948471
32 	20    	0.939696	0.00346207	0.936768	0.948471
33 	20    	0.93993 	0.00341418	0.936768	0.948471
34 	20    	0.940867	0.00346143	0.936768	0.948471
35 	20    	0.940984	0.00335864	0.936768	0.948471
36 	20    	0.941219	0.00321675	0.936768	0.948471
37 	20    	0.941804	0.00289075	0.936768	0.948471
38 	20    	0.942272	0.00279418	0.939117	0.948471
39 	20    	0.942272	0.00279418	0.939117	0.948471
40 	20    	0.942506	0.00271478	0.939117	0.948471
41 	20    	0.942506	0.00271478	0.939117	0.948471
42 	20    	0.942506	0.00271478	0.939117	0.948471
43 	20    	0.942739	0.00261219	0.939117	0.948471
44 	20    	0.942739	0.00261219	0.939117	0.948471
45 	20    	0.943206	0.00232457	0.939117	0.948471
46 	20    	0.943439	0.00212841	0.939117	0.948471
47 	20    	0.943439	0.00212841	0.939117	0.948471
48 	20    	0.943439	0.00212841	0.939117	0.948471
49 	20    	0.94379 	0.00195874	0.941452	0.948471
50 	20    	0.944259	0.00241147	0.941452	0.950821
51 	20    	0.944259	0.00241147	0.941452	0.950821
52 	20    	0.944962	0.00261971	0.941452	0.950821
53 	20    	0.945781	0.00289584	0.941452	0.953156
54 	20    	0.945781	0.00289584	0.941452	0.953156
55 	20    	0.946484	0.0034181 	0.943787	0.955505
56 	20    	0.946601	0.00336332	0.943787	0.955505
57 	20    	0.946601	0.00336332	0.943787	0.955505
58 	20    	0.946835	0.00332202	0.943787	0.955505
59 	20    	0.946953	0.00325296	0.943787	0.955505
60 	20    	0.946953	0.00325296	0.943787	0.955505
61 	20    	0.947187	0.00318447	0.943787	0.955505
62 	20    	0.947305	0.00309905	0.943787	0.955505
63 	20    	0.947422	0.00300662	0.943787	0.955505
64 	20    	0.947422	0.00300662	0.943787	0.955505
65 	20    	0.947656	0.00289467	0.943787	0.955505
66 	20    	0.948242	0.00321986	0.943787	0.955505
67 	20    	0.948242	0.00321986	0.943787	0.955505
68 	20    	0.948476	0.0030533 	0.946136	0.955505
69 	20    	0.948593	0.00300587	0.946136	0.955505
70 	20    	0.948593	0.00300587	0.946136	0.955505
71 	20    	0.94871 	0.00295307	0.946136	0.955505
72 	20    	0.948827	0.00289461	0.946136	0.955505
73 	20    	0.948827	0.00289461	0.946136	0.955505
74 	20    	0.948827	0.00289461	0.946136	0.955505
75 	20    	0.948943	0.00283012	0.946136	0.955505
76 	20    	0.948943	0.00283012	0.946136	0.955505
77 	20    	0.949645	0.00327074	0.946136	0.95784 
78 	20    	0.949645	0.00327074	0.946136	0.95784 
79 	20    	0.950347	0.00352144	0.946136	0.95784 
80 	20    	0.950347	0.00352144	0.946136	0.95784 
81 	20    	0.950347	0.00352144	0.946136	0.95784 
82 	20    	0.950816	0.00322964	0.948471	0.95784 
83 	20    	0.950933	0.00318464	0.948471	0.95784 
84 	20    	0.950933	0.00318464	0.948471	0.95784 
85 	20    	0.950933	0.00318464	0.948471	0.95784 
86 	20    	0.950933	0.00318464	0.948471	0.95784 
87 	20    	0.950933	0.00318464	0.948471	0.95784 
88 	20    	0.950933	0.00318464	0.948471	0.95784 
89 	20    	0.951402	0.00321894	0.948471	0.95784 
90 	20    	0.95152 	0.00315199	0.948471	0.95784 
91 	20    	0.952106	0.00358964	0.948471	0.96019 
92 	20    	0.952223	0.00350624	0.948471	0.96019 
93 	20    	0.952223	0.00350624	0.948471	0.96019 
94 	20    	0.952927	0.00369631	0.948471	0.96019 
95 	20    	0.952927	0.00369631	0.948471	0.96019 
96 	20    	0.952927	0.00369631	0.948471	0.96019 
97 	20    	0.952927	0.00369631	0.948471	0.96019 
98 	20    	0.953278	0.00358871	0.948471	0.96019 
99 	20    	0.954098	0.00326136	0.950821	0.96019 
100	20    	0.954098	0.00326136	0.950821	0.96019 
101	20    	0.954098	0.00326136	0.950821	0.96019 
102	20    	0.954214	0.00318282	0.950821	0.96019 
103	20    	0.954214	0.00318282	0.950821	0.96019 
104	20    	0.954214	0.00318282	0.950821	0.96019 
105	20    	0.954214	0.00318282	0.950821	0.96019 
106	20    	0.954214	0.00318282	0.950821	0.96019 
107	20    	0.954683	0.00298763	0.950821	0.96019 
108	20    	0.954683	0.00298763	0.950821	0.96019 
109	20    	0.954683	0.00298763	0.950821	0.96019 
110	20    	0.955151	0.00279833	0.950821	0.96019 
111	20    	0.95597 	0.00241295	0.953156	0.96019 
112	20    	0.95597 	0.00241295	0.953156	0.96019 
113	20    	0.95597 	0.00241295	0.953156	0.96019 
114	20    	0.95597 	0.00241295	0.953156	0.96019 
115	20    	0.956673	0.00335382	0.953156	0.967209
116	20    	0.956673	0.00335382	0.953156	0.967209
117	20    	0.956673	0.00335382	0.953156	0.967209
118	20    	0.956673	0.00335382	0.953156	0.967209
119	20    	0.95679 	0.00326863	0.953156	0.967209
120	20    	0.95679 	0.00326863	0.953156	0.967209
121	20    	0.957024	0.00316601	0.953156	0.967209
122	20    	0.957259	0.00304198	0.953156	0.967209
123	20    	0.957259	0.00304198	0.953156	0.967209
124	20    	0.957259	0.00304198	0.953156	0.967209
125	20    	0.957259	0.00304198	0.953156	0.967209
126	20    	0.957259	0.00304198	0.953156	0.967209
127	20    	0.957259	0.00304198	0.953156	0.967209
128	20    	0.957259	0.00304198	0.953156	0.967209
129	20    	0.957259	0.00304198	0.953156	0.967209
130	20    	0.957259	0.00304198	0.953156	0.967209
131	20    	0.957376	0.00292434	0.953156	0.967209
132	20    	0.957494	0.00279683	0.955505	0.967209
133	20    	0.957494	0.00279683	0.955505	0.967209
134	20    	0.957494	0.00279683	0.955505	0.967209
135	20    	0.957494	0.00279683	0.955505	0.967209
136	20    	0.95761 	0.00275989	0.955505	0.967209
137	20    	0.95761 	0.00275989	0.955505	0.967209
138	20    	0.95761 	0.00275989	0.955505	0.967209
139	20    	0.95761 	0.00275989	0.955505	0.967209
140	20    	0.957727	0.00271744	0.955505	0.967209
141	20    	0.957727	0.00271744	0.955505	0.967209
142	20    	0.957727	0.00271744	0.955505	0.967209
143	20    	0.957727	0.00271744	0.955505	0.967209
144	20    	0.957727	0.00271744	0.955505	0.967209
145	20    	0.957727	0.00271744	0.955505	0.967209
146	20    	0.957844	0.00266921	0.955505	0.967209
147	20    	0.957844	0.00266921	0.955505	0.967209
148	20    	0.957844	0.00266921	0.955505	0.967209
149	20    	0.957844	0.00266921	0.955505	0.967209
150	20    	0.957844	0.00266921	0.955505	0.967209
151	20    	0.957844	0.00266921	0.955505	0.967209
152	20    	0.958195	0.0025942 	0.955505	0.967209
153	20    	0.958311	0.00252209	0.955505	0.967209
154	20    	0.958311	0.00252209	0.955505	0.967209
155	20    	0.958428	0.00244228	0.955505	0.967209
156	20    	0.958428	0.00244228	0.955505	0.967209
157	20    	0.958428	0.00244228	0.955505	0.967209
158	20    	0.958428	0.00244228	0.955505	0.967209
159	20    	0.958428	0.00244228	0.955505	0.967209
160	20    	0.958428	0.00244228	0.955505	0.967209
161	20    	0.958428	0.00244228	0.955505	0.967209
162	20    	0.958428	0.00244228	0.955505	0.967209
163	20    	0.958428	0.00244228	0.955505	0.967209
164	20    	0.958428	0.00244228	0.955505	0.967209
165	20    	0.958779	0.00250067	0.955505	0.967209
166	20    	0.958779	0.00250067	0.955505	0.967209
167	20    	0.958779	0.00250067	0.955505	0.967209
168	20    	0.958779	0.00250067	0.955505	0.967209
169	20    	0.958779	0.00250067	0.955505	0.967209
170	20    	0.958896	0.00239749	0.955505	0.967209
171	20    	0.958896	0.00239749	0.955505	0.967209
172	20    	0.958896	0.00239749	0.955505	0.967209
173	20    	0.958896	0.00239749	0.955505	0.967209
174	20    	0.958896	0.00239749	0.955505	0.967209
175	20    	0.958896	0.00239749	0.955505	0.967209
176	20    	0.958896	0.00239749	0.955505	0.967209
177	20    	0.958896	0.00239749	0.955505	0.967209
178	20    	0.958896	0.00239749	0.955505	0.967209
179	20    	0.959013	0.0022837 	0.95784 	0.967209
180	20    	0.959013	0.0022837 	0.95784 	0.967209
181	20    	0.959013	0.0022837 	0.95784 	0.967209
182	20    	0.959013	0.0022837 	0.95784 	0.967209
183	20    	0.959013	0.0022837 	0.95784 	0.967209
184	20    	0.959013	0.0022837 	0.95784 	0.967209
185	20    	0.959013	0.0022837 	0.95784 	0.967209
186	20    	0.959013	0.0022837 	0.95784 	0.967209
187	20    	0.959013	0.0022837 	0.95784 	0.967209
188	20    	0.959013	0.0022837 	0.95784 	0.967209
189	20    	0.959013	0.0022837 	0.95784 	0.967209
190	20    	0.959013	0.0022837 	0.95784 	0.967209
191	20    	0.959013	0.0022837 	0.95784 	0.967209
192	20    	0.959013	0.0022837 	0.95784 	0.967209
193	20    	0.959013	0.0022837 	0.95784 	0.967209
194	20    	0.959013	0.0022837 	0.95784 	0.967209
195	20    	0.959013	0.0022837 	0.95784 	0.967209
196	20    	0.959013	0.0022837 	0.95784 	0.967209
197	20    	0.959013	0.0022837 	0.95784 	0.967209
198	20    	0.959013	0.0022837 	0.95784 	0.967209
199	20    	0.959013	0.0022837 	0.95784 	0.967209
200	20    	0.959013	0.0022837 	0.95784 	0.967209
201	20    	0.959013	0.0022837 	0.95784 	0.967209
202	20    	0.959013	0.0022837 	0.95784 	0.967209
203	20    	0.959013	0.0022837 	0.95784 	0.967209
204	20    	0.959013	0.0022837 	0.95784 	0.967209
205	20    	0.959247	0.00238921	0.95784 	0.967209
206	20    	0.959599	0.00265877	0.95784 	0.967209
207	20    	0.959599	0.00265877	0.95784 	0.967209
208	20    	0.959599	0.00265877	0.95784 	0.967209
209	20    	0.959599	0.00265877	0.95784 	0.967209
210	20    	0.959716	0.00263023	0.95784 	0.967209
211	20    	0.959716	0.00263023	0.95784 	0.967209
212	20    	0.959716	0.00263023	0.95784 	0.967209
213	20    	0.959716	0.00263023	0.95784 	0.967209
214	20    	0.959716	0.00263023	0.95784 	0.967209
215	20    	0.959716	0.00263023	0.95784 	0.967209
216	20    	0.959716	0.00263023	0.95784 	0.967209
217	20    	0.959716	0.00263023	0.95784 	0.967209
218	20    	0.959716	0.00263023	0.95784 	0.967209
219	20    	0.959716	0.00263023	0.95784 	0.967209
220	20    	0.959716	0.00263023	0.95784 	0.967209
221	20    	0.960068	0.00281936	0.95784 	0.967209
222	20    	0.960068	0.00281936	0.95784 	0.967209
223	20    	0.960068	0.00281936	0.95784 	0.967209
224	20    	0.960302	0.00281914	0.95784 	0.967209
225	20    	0.960302	0.00281914	0.95784 	0.967209
226	20    	0.960302	0.00281914	0.95784 	0.967209
227	20    	0.960302	0.00281914	0.95784 	0.967209
228	20    	0.960302	0.00281914	0.95784 	0.967209
229	20    	0.960302	0.00281914	0.95784 	0.967209
230	20    	0.960888	0.00287929	0.95784 	0.967209
231	20    	0.960888	0.00287929	0.95784 	0.967209
232	20    	0.960888	0.00287929	0.95784 	0.967209
233	20    	0.960888	0.00287929	0.95784 	0.967209
234	20    	0.960888	0.00287929	0.95784 	0.967209
235	20    	0.960888	0.00287929	0.95784 	0.967209
236	20    	0.960888	0.00287929	0.95784 	0.967209
237	20    	0.961122	0.00281156	0.95784 	0.967209
238	20    	0.961122	0.00281156	0.95784 	0.967209
239	20    	0.961122	0.00281156	0.95784 	0.967209
240	20    	0.961122	0.00281156	0.95784 	0.967209
241	20    	0.961122	0.00281156	0.95784 	0.967209
242	20    	0.961122	0.00281156	0.95784 	0.967209
243	20    	0.961122	0.00281156	0.95784 	0.967209
244	20    	0.96124 	0.00271954	0.95784 	0.967209
245	20    	0.96124 	0.00271954	0.95784 	0.967209
246	20    	0.961357	0.00261903	0.95784 	0.967209
247	20    	0.961709	0.00237378	0.95784 	0.967209
248	20    	0.961709	0.00237378	0.95784 	0.967209
249	20    	0.961709	0.00237378	0.95784 	0.967209
250	20    	0.961709	0.00237378	0.95784 	0.967209
251	20    	0.961709	0.00237378	0.95784 	0.967209
252	20    	0.961944	0.00207691	0.96019 	0.967209
253	20    	0.961944	0.00207691	0.96019 	0.967209
254	20    	0.961944	0.00207691	0.96019 	0.967209
255	20    	0.961944	0.00207691	0.96019 	0.967209
256	20    	0.961944	0.00207691	0.96019 	0.967209
257	20    	0.961944	0.00207691	0.96019 	0.967209
258	20    	0.962061	0.00204033	0.96019 	0.967209
259	20    	0.962061	0.00204033	0.96019 	0.967209
260	20    	0.962061	0.00204033	0.96019 	0.967209
261	20    	0.962061	0.00204033	0.96019 	0.967209
262	20    	0.962529	0.00256508	0.96019 	0.969559
263	20    	0.962529	0.00256508	0.96019 	0.969559
264	20    	0.962762	0.00244499	0.96019 	0.969559
265	20    	0.962762	0.00244499	0.96019 	0.969559
266	20    	0.962762	0.00244499	0.96019 	0.969559
267	20    	0.962762	0.00244499	0.96019 	0.969559
268	20    	0.962762	0.00244499	0.96019 	0.969559
269	20    	0.962762	0.00244499	0.96019 	0.969559
270	20    	0.962762	0.00244499	0.96019 	0.969559
271	20    	0.962762	0.00244499	0.96019 	0.969559
272	20    	0.962762	0.00244499	0.96019 	0.969559
273	20    	0.963231	0.00278156	0.96019 	0.969559
274	20    	0.963231	0.00278156	0.96019 	0.969559
275	20    	0.963231	0.00278156	0.96019 	0.969559
276	20    	0.963231	0.00278156	0.96019 	0.969559
277	20    	0.963231	0.00278156	0.96019 	0.969559
278	20    	0.963231	0.00278156	0.96019 	0.969559
279	20    	0.963231	0.00278156	0.96019 	0.969559
280	20    	0.963231	0.00278156	0.96019 	0.969559
281	20    	0.963348	0.00269926	0.96019 	0.969559
282	20    	0.963348	0.00269926	0.96019 	0.969559
283	20    	0.963464	0.00260915	0.96019 	0.969559
284	20    	0.963464	0.00260915	0.96019 	0.969559
285	20    	0.963464	0.00260915	0.96019 	0.969559
286	20    	0.963464	0.00260915	0.96019 	0.969559
287	20    	0.963581	0.0025104 	0.96019 	0.969559
288	20    	0.963581	0.0025104 	0.96019 	0.969559
289	20    	0.963581	0.0025104 	0.96019 	0.969559
290	20    	0.963581	0.0025104 	0.96019 	0.969559
291	20    	0.963581	0.0025104 	0.96019 	0.969559
292	20    	0.963581	0.0025104 	0.96019 	0.969559
293	20    	0.963698	0.00240193	0.96019 	0.969559
294	20    	0.963815	0.00228236	0.962524	0.969559
295	20    	0.963815	0.00228236	0.962524	0.969559
296	20    	0.963815	0.00228236	0.962524	0.969559
297	20    	0.963815	0.00228236	0.962524	0.969559
298	20    	0.963815	0.00228236	0.962524	0.969559
299	20    	0.963815	0.00228236	0.962524	0.969559
300	20    	0.963815	0.00228236	0.962524	0.969559
301	20    	0.963815	0.00228236	0.962524	0.969559
302	20    	0.963815	0.00228236	0.962524	0.969559
303	20    	0.963815	0.00228236	0.962524	0.969559
304	20    	0.963815	0.00228236	0.962524	0.969559
305	20    	0.963815	0.00228236	0.962524	0.969559
306	20    	0.963815	0.00228236	0.962524	0.969559
307	20    	0.963815	0.00228236	0.962524	0.969559
308	20    	0.963815	0.00228236	0.962524	0.969559
309	20    	0.963815	0.00228236	0.962524	0.969559
310	20    	0.963815	0.00228236	0.962524	0.969559
311	20    	0.963815	0.00228236	0.962524	0.969559
312	20    	0.963815	0.00228236	0.962524	0.969559
313	20    	0.963815	0.00228236	0.962524	0.969559
314	20    	0.963815	0.00228236	0.962524	0.969559
315	20    	0.963815	0.00228236	0.962524	0.969559
316	20    	0.963815	0.00228236	0.962524	0.969559
317	20    	0.963815	0.00228236	0.962524	0.969559
318	20    	0.963815	0.00228236	0.962524	0.969559
319	20    	0.963815	0.00228236	0.962524	0.969559
320	20    	0.963815	0.00228236	0.962524	0.969559
321	20    	0.963815	0.00228236	0.962524	0.969559
322	20    	0.963815	0.00228236	0.962524	0.969559
323	20    	0.963815	0.00228236	0.962524	0.969559
324	20    	0.964049	0.00237638	0.962524	0.969559
325	20    	0.964049	0.00237638	0.962524	0.969559
326	20    	0.964049	0.00237638	0.962524	0.969559
327	20    	0.9644  	0.0024134 	0.962524	0.969559
328	20    	0.9644  	0.0024134 	0.962524	0.969559
329	20    	0.9644  	0.0024134 	0.962524	0.969559
330	20    	0.9644  	0.0024134 	0.962524	0.969559
331	20    	0.9644  	0.0024134 	0.962524	0.969559
332	20    	0.9644  	0.0024134 	0.962524	0.969559
333	20    	0.9644  	0.0024134 	0.962524	0.969559
334	20    	0.9644  	0.0024134 	0.962524	0.969559
335	20    	0.9644  	0.0024134 	0.962524	0.969559
336	20    	0.9644  	0.0024134 	0.962524	0.969559
337	20    	0.964518	0.00237611	0.962524	0.969559
338	20    	0.964518	0.00237611	0.962524	0.969559
339	20    	0.964518	0.00237611	0.962524	0.969559
340	20    	0.964518	0.00237611	0.962524	0.969559
341	20    	0.964635	0.00233233	0.962524	0.969559
342	20    	0.964635	0.00233233	0.962524	0.969559
343	20    	0.964635	0.00233233	0.962524	0.969559
344	20    	0.964635	0.00233233	0.962524	0.969559
345	20    	0.964987	0.002511  	0.962524	0.969559
346	20    	0.964987	0.002511  	0.962524	0.969559
347	20    	0.964987	0.002511  	0.962524	0.969559
348	20    	0.964987	0.002511  	0.962524	0.969559
349	20    	0.964987	0.002511  	0.962524	0.969559
350	20    	0.964987	0.002511  	0.962524	0.969559
351	20    	0.964987	0.002511  	0.962524	0.969559
352	20    	0.964987	0.002511  	0.962524	0.969559
353	20    	0.964987	0.002511  	0.962524	0.969559
354	20    	0.964987	0.002511  	0.962524	0.969559
355	20    	0.964987	0.002511  	0.962524	0.969559
356	20    	0.964987	0.002511  	0.962524	0.969559
357	20    	0.964987	0.002511  	0.962524	0.969559
358	20    	0.965105	0.00244718	0.962524	0.969559
359	20    	0.965105	0.00244718	0.962524	0.969559
360	20    	0.965105	0.00244718	0.962524	0.969559
361	20    	0.965105	0.00244718	0.962524	0.969559
362	20    	0.965105	0.00244718	0.962524	0.969559
363	20    	0.965105	0.00244718	0.962524	0.969559
364	20    	0.965105	0.00244718	0.962524	0.969559
365	20    	0.965105	0.00244718	0.962524	0.969559
366	20    	0.965222	0.00237585	0.962524	0.969559
367	20    	0.965222	0.00237585	0.962524	0.969559
368	20    	0.965222	0.00237585	0.962524	0.969559
369	20    	0.965222	0.00237585	0.962524	0.969559
370	20    	0.965222	0.00237585	0.962524	0.969559
371	20    	0.965222	0.00237585	0.962524	0.969559
372	20    	0.965222	0.00237585	0.962524	0.969559
373	20    	0.965222	0.00237585	0.962524	0.969559
374	20    	0.965222	0.00237585	0.962524	0.969559
375	20    	0.965222	0.00237585	0.962524	0.969559
376	20    	0.965222	0.00237585	0.962524	0.969559
377	20    	0.965222	0.00237585	0.962524	0.969559
378	20    	0.965222	0.00237585	0.962524	0.969559
379	20    	0.96534 	0.00229631	0.962524	0.969559
380	20    	0.965457	0.00220766	0.962524	0.969559
381	20    	0.965457	0.00220766	0.962524	0.969559
382	20    	0.965457	0.00220766	0.962524	0.969559
383	20    	0.965457	0.00220766	0.962524	0.969559
384	20    	0.965457	0.00220766	0.962524	0.969559
385	20    	0.965457	0.00220766	0.962524	0.969559
386	20    	0.965457	0.00220766	0.962524	0.969559
387	20    	0.965457	0.00220766	0.962524	0.969559
388	20    	0.965457	0.00220766	0.962524	0.969559
389	20    	0.965457	0.00220766	0.962524	0.969559
390	20    	0.965457	0.00220766	0.962524	0.969559
391	20    	0.965575	0.00210877	0.962524	0.969559
392	20    	0.965575	0.00210877	0.962524	0.969559
393	20    	0.965809	0.00201504	0.962524	0.969559
394	20    	0.965926	0.00188437	0.962524	0.969559
395	20    	0.966161	0.00173193	0.964874	0.969559
396	20    	0.966277	0.00171993	0.964874	0.969559
397	20    	0.966277	0.00171993	0.964874	0.969559
398	20    	0.966277	0.00171993	0.964874	0.969559
399	20    	0.966277	0.00171993	0.964874	0.969559
400	20    	0.966277	0.00171993	0.964874	0.969559
401	20    	0.966277	0.00171993	0.964874	0.969559
402	20    	0.966277	0.00171993	0.964874	0.969559
403	20    	0.966277	0.00171993	0.964874	0.969559
404	20    	0.966277	0.00171993	0.964874	0.969559
405	20    	0.966277	0.00171993	0.964874	0.969559
406	20    	0.966277	0.00171993	0.964874	0.969559
407	20    	0.966277	0.00171993	0.964874	0.969559
408	20    	0.966277	0.00171993	0.964874	0.969559
409	20    	0.966277	0.00171993	0.964874	0.969559
410	20    	0.966277	0.00171993	0.964874	0.969559
411	20    	0.966277	0.00171993	0.964874	0.969559
412	20    	0.966277	0.00171993	0.964874	0.969559
413	20    	0.966277	0.00171993	0.964874	0.969559
414	20    	0.966277	0.00171993	0.964874	0.969559
415	20    	0.966277	0.00171993	0.964874	0.969559
416	20    	0.966277	0.00171993	0.964874	0.969559
417	20    	0.966277	0.00171993	0.964874	0.969559
418	20    	0.966277	0.00171993	0.964874	0.969559
419	20    	0.966277	0.00171993	0.964874	0.969559
420	20    	0.966277	0.00171993	0.964874	0.969559
421	20    	0.966277	0.00171993	0.964874	0.969559
422	20    	0.96698 	0.00321986	0.964874	0.978928
423	20    	0.96698 	0.00321986	0.964874	0.978928
424	20    	0.96698 	0.00321986	0.964874	0.978928
425	20    	0.96698 	0.00321986	0.964874	0.978928
426	20    	0.96698 	0.00321986	0.964874	0.978928
427	20    	0.96698 	0.00321986	0.964874	0.978928
428	20    	0.96698 	0.00321986	0.964874	0.978928
429	20    	0.96698 	0.00321986	0.964874	0.978928
430	20    	0.967214	0.00322854	0.964874	0.978928
431	20    	0.967214	0.00322854	0.964874	0.978928
432	20    	0.967214	0.00322854	0.964874	0.978928
433	20    	0.967214	0.00322854	0.964874	0.978928
434	20    	0.967214	0.00322854	0.964874	0.978928
435	20    	0.967214	0.00322854	0.964874	0.978928
436	20    	0.967214	0.00322854	0.964874	0.978928
437	20    	0.967214	0.00322854	0.964874	0.978928
438	20    	0.967214	0.00322854	0.964874	0.978928
439	20    	0.967331	0.00318372	0.964874	0.978928
440	20    	0.967682	0.00327901	0.964874	0.978928
441	20    	0.967682	0.00327901	0.964874	0.978928
442	20    	0.968033	0.00333487	0.964874	0.978928
443	20    	0.968033	0.00333487	0.964874	0.978928
444	20    	0.968033	0.00333487	0.964874	0.978928
445	20    	0.968267	0.00326866	0.964874	0.978928
446	20    	0.968267	0.00326866	0.964874	0.978928
447	20    	0.968267	0.00326866	0.964874	0.978928
448	20    	0.968267	0.00326866	0.964874	0.978928
449	20    	0.968267	0.00326866	0.964874	0.978928
450	20    	0.968267	0.00326866	0.964874	0.978928
451	20    	0.968267	0.00326866	0.964874	0.978928
452	20    	0.968267	0.00326866	0.964874	0.978928
453	20    	0.968267	0.00326866	0.964874	0.978928
454	20    	0.968267	0.00326866	0.964874	0.978928
455	20    	0.968267	0.00326866	0.964874	0.978928
456	20    	0.968267	0.00326866	0.964874	0.978928
457	20    	0.968267	0.00326866	0.964874	0.978928
458	20    	0.968267	0.00326866	0.964874	0.978928
459	20    	0.968267	0.00326866	0.964874	0.978928
460	20    	0.968267	0.00326866	0.964874	0.978928
461	20    	0.968267	0.00326866	0.964874	0.978928
462	20    	0.968267	0.00326866	0.964874	0.978928
463	20    	0.968267	0.00326866	0.964874	0.978928
464	20    	0.968267	0.00326866	0.964874	0.978928
465	20    	0.968267	0.00326866	0.964874	0.978928
466	20    	0.968267	0.00326866	0.964874	0.978928
467	20    	0.968267	0.00326866	0.964874	0.978928
468	20    	0.968267	0.00326866	0.964874	0.978928
469	20    	0.968267	0.00326866	0.964874	0.978928
470	20    	0.968267	0.00326866	0.964874	0.978928
471	20    	0.968267	0.00326866	0.964874	0.978928
472	20    	0.968267	0.00326866	0.964874	0.978928
473	20    	0.968501	0.00318388	0.964874	0.978928
474	20    	0.968501	0.00318388	0.964874	0.978928
475	20    	0.968501	0.00318388	0.964874	0.978928
476	20    	0.968501	0.00318388	0.964874	0.978928
477	20    	0.968736	0.00307903	0.964874	0.978928
478	20    	0.968736	0.00307903	0.964874	0.978928
479	20    	0.96897 	0.00295194	0.964874	0.978928
480	20    	0.96897 	0.00295194	0.964874	0.978928
481	20    	0.96897 	0.00295194	0.964874	0.978928
482	20    	0.96897 	0.00295194	0.964874	0.978928
483	20    	0.96897 	0.00295194	0.964874	0.978928
484	20    	0.96897 	0.00295194	0.964874	0.978928
485	20    	0.96897 	0.00295194	0.964874	0.978928
486	20    	0.96897 	0.00295194	0.964874	0.978928
487	20    	0.969204	0.00279961	0.964874	0.978928
488	20    	0.969204	0.00279961	0.964874	0.978928
489	20    	0.969204	0.00279961	0.964874	0.978928
490	20    	0.969204	0.00279961	0.964874	0.978928
491	20    	0.969204	0.00279961	0.964874	0.978928
492	20    	0.969204	0.00279961	0.964874	0.978928
493	20    	0.969204	0.00279961	0.964874	0.978928
494	20    	0.969204	0.00279961	0.964874	0.978928
495	20    	0.969204	0.00279961	0.964874	0.978928
496	20    	0.969672	0.00281971	0.967209	0.978928
497	20    	0.969672	0.00281971	0.967209	0.978928
498	20    	0.969672	0.00281971	0.967209	0.978928
499	20    	0.969672	0.00281971	0.967209	0.978928
