gen	nevals	avg     	std       	min     	max     
0  	20    	0.873904	0.00775004	0.860611	0.889786
1  	20    	0.87978 	0.00467198	0.875198	0.889786
2  	20    	0.884846	0.0043699 	0.878448	0.897079
3  	20    	0.888573	0.00426105	0.883301	0.901138
4  	20    	0.891449	0.00422299	0.88736 	0.901138
5  	20    	0.893434	0.0032793 	0.889786	0.901138
6  	20    	0.89603 	0.00399568	0.891403	0.905182
7  	20    	0.897002	0.00332928	0.893036	0.905182
8  	20    	0.899432	0.00327237	0.895462	0.906815
9  	20    	0.901176	0.00274236	0.897079	0.906815
10 	20    	0.902352	0.00214887	0.899521	0.906815
11 	20    	0.902878	0.00183289	0.90033 	0.906815
12 	20    	0.903607	0.00210479	0.901138	0.907623
13 	20    	0.903769	0.00203188	0.901138	0.907623
14 	20    	0.904741	0.00309189	0.901947	0.915726
15 	20    	0.905834	0.00319789	0.902756	0.915726
16 	20    	0.906239	0.00296933	0.903564	0.915726
17 	20    	0.906969	0.00305109	0.904373	0.915726
18 	20    	0.90782 	0.00335181	0.905182	0.915726
19 	20    	0.908144	0.003326  	0.905182	0.915726
20 	20    	0.90928 	0.00324729	0.905182	0.915726
21 	20    	0.910011	0.0029153 	0.905991	0.915726
22 	20    	0.910699	0.00270567	0.907623	0.915726
23 	20    	0.911469	0.00281699	0.907623	0.915726
24 	20    	0.911711	0.00268105	0.907623	0.915726
25 	20    	0.912156	0.00224086	0.908432	0.915726
26 	20    	0.912358	0.00207179	0.909241	0.915726
27 	20    	0.912358	0.00207179	0.909241	0.915726
28 	20    	0.912641	0.00175179	0.910049	0.915726
29 	20    	0.912803	0.0016515 	0.910858	0.915726
30 	20    	0.912843	0.00161283	0.910858	0.915726
31 	20    	0.912843	0.00161283	0.910858	0.915726
32 	20    	0.91337 	0.00208212	0.911667	0.919769
33 	20    	0.91337 	0.00208212	0.911667	0.919769
34 	20    	0.913451	0.00202945	0.911667	0.919769
35 	20    	0.91418 	0.00262547	0.911667	0.921387
36 	20    	0.914301	0.00253617	0.911667	0.921387
37 	20    	0.915234	0.00321628	0.912476	0.923019
38 	20    	0.915517	0.00314893	0.912476	0.923019
39 	20    	0.915965	0.00285532	0.912476	0.923019
40 	20    	0.916167	0.00274213	0.913284	0.923019
41 	20    	0.91633 	0.00266158	0.913284	0.923019
42 	20    	0.916695	0.0024914 	0.913284	0.923019
43 	20    	0.916776	0.00239044	0.914093	0.923019
44 	20    	0.91698 	0.00226752	0.914917	0.923019
45 	20    	0.91698 	0.00226752	0.914917	0.923019
46 	20    	0.917303	0.00231027	0.914917	0.923019
47 	20    	0.917303	0.00231027	0.914917	0.923019
48 	20    	0.918032	0.00268884	0.914917	0.924637
49 	20    	0.918073	0.00264746	0.915726	0.924637
50 	20    	0.918113	0.00261731	0.915726	0.924637
51 	20    	0.918437	0.00270181	0.915726	0.924637
52 	20    	0.918437	0.00270181	0.915726	0.924637
53 	20    	0.918639	0.00256664	0.915726	0.924637
54 	20    	0.91872 	0.00249812	0.915726	0.924637
55 	20    	0.919206	0.00279599	0.915726	0.925446
56 	20    	0.919206	0.00279599	0.915726	0.925446
57 	20    	0.919247	0.00275085	0.916534	0.925446
58 	20    	0.919287	0.00271641	0.916534	0.925446
59 	20    	0.919571	0.0027105 	0.916534	0.925446
60 	20    	0.919571	0.0027105 	0.916534	0.925446
61 	20    	0.919976	0.00254891	0.917343	0.925446
62 	20    	0.920138	0.00242501	0.917343	0.925446
63 	20    	0.920138	0.00242501	0.917343	0.925446
64 	20    	0.920138	0.00242501	0.917343	0.925446
65 	20    	0.920138	0.00242501	0.917343	0.925446
66 	20    	0.920259	0.00234142	0.917343	0.925446
67 	20    	0.920259	0.00234142	0.917343	0.925446
68 	20    	0.920421	0.00219996	0.917343	0.925446
69 	20    	0.920947	0.00213795	0.918152	0.925446
70 	20    	0.920947	0.00213795	0.918152	0.925446
71 	20    	0.920947	0.00213795	0.918152	0.925446
72 	20    	0.920947	0.00213795	0.918152	0.925446
73 	20    	0.920947	0.00213795	0.918152	0.925446
74 	20    	0.920947	0.00213795	0.918152	0.925446
75 	20    	0.920947	0.00213795	0.918152	0.925446
76 	20    	0.921109	0.00204049	0.918152	0.925446
77 	20    	0.921311	0.00188369	0.918961	0.925446
78 	20    	0.921311	0.00188369	0.918961	0.925446
79 	20    	0.921514	0.00176463	0.919769	0.925446
80 	20    	0.921514	0.00176463	0.919769	0.925446
81 	20    	0.921555	0.00173317	0.919769	0.925446
82 	20    	0.921595	0.00170016	0.919769	0.925446
83 	20    	0.921635	0.00166552	0.919769	0.925446
84 	20    	0.921716	0.00161133	0.919769	0.925446
85 	20    	0.921716	0.00161133	0.919769	0.925446
86 	20    	0.921797	0.00155105	0.919769	0.925446
87 	20    	0.921797	0.00155105	0.919769	0.925446
88 	20    	0.921797	0.00155105	0.919769	0.925446
89 	20    	0.922203	0.00151909	0.920578	0.925446
90 	20    	0.922203	0.00151909	0.920578	0.925446
91 	20    	0.922203	0.00151909	0.920578	0.925446
92 	20    	0.922203	0.00151909	0.920578	0.925446
93 	20    	0.922203	0.00151909	0.920578	0.925446
94 	20    	0.922285	0.00147273	0.920578	0.925446
95 	20    	0.922325	0.00143596	0.920578	0.925446
96 	20    	0.92273 	0.00178182	0.920578	0.927872
97 	20    	0.92273 	0.00178182	0.920578	0.927872
98 	20    	0.92273 	0.00178182	0.920578	0.927872
99 	20    	0.923014	0.00186645	0.921387	0.927872
100	20    	0.923014	0.00186645	0.921387	0.927872
101	20    	0.923014	0.00186645	0.921387	0.927872
102	20    	0.923014	0.00186645	0.921387	0.927872
103	20    	0.923136	0.00183561	0.921387	0.927872
104	20    	0.923136	0.00183561	0.921387	0.927872
105	20    	0.923136	0.00183561	0.921387	0.927872
106	20    	0.923136	0.00183561	0.921387	0.927872
107	20    	0.923259	0.00175836	0.921387	0.927872
108	20    	0.923341	0.00170668	0.921387	0.927872
109	20    	0.923341	0.00170668	0.921387	0.927872
110	20    	0.923544	0.0017036 	0.921387	0.927872
111	20    	0.923625	0.00163607	0.921387	0.927872
112	20    	0.923625	0.00163607	0.921387	0.927872
113	20    	0.92399 	0.0018897 	0.922211	0.92868 
114	20    	0.924192	0.00190478	0.922211	0.92868 
115	20    	0.924273	0.00185256	0.922211	0.92868 
116	20    	0.924313	0.00181556	0.922211	0.92868 
117	20    	0.924313	0.00181556	0.922211	0.92868 
118	20    	0.924313	0.00181556	0.922211	0.92868 
119	20    	0.924313	0.00181556	0.922211	0.92868 
120	20    	0.924354	0.00177688	0.922211	0.92868 
121	20    	0.924354	0.00177688	0.922211	0.92868 
122	20    	0.924435	0.00171316	0.922211	0.92868 
123	20    	0.924435	0.00171316	0.922211	0.92868 
124	20    	0.924435	0.00171316	0.922211	0.92868 
125	20    	0.924435	0.00171316	0.922211	0.92868 
126	20    	0.924516	0.00164301	0.923019	0.92868 
127	20    	0.924516	0.00164301	0.923019	0.92868 
128	20    	0.924516	0.00164301	0.923019	0.92868 
129	20    	0.924516	0.00164301	0.923019	0.92868 
130	20    	0.924596	0.00160678	0.923019	0.92868 
131	20    	0.924799	0.00156816	0.923019	0.92868 
132	20    	0.924799	0.00156816	0.923019	0.92868 
133	20    	0.924799	0.00156816	0.923019	0.92868 
134	20    	0.924799	0.00156816	0.923019	0.92868 
135	20    	0.924799	0.00156816	0.923019	0.92868 
136	20    	0.924799	0.00156816	0.923019	0.92868 
137	20    	0.924799	0.00156816	0.923019	0.92868 
138	20    	0.924879	0.00151513	0.923019	0.92868 
139	20    	0.924879	0.00151513	0.923019	0.92868 
140	20    	0.924879	0.00151513	0.923019	0.92868 
141	20    	0.925041	0.00148019	0.923019	0.92868 
142	20    	0.925041	0.00148019	0.923019	0.92868 
143	20    	0.925041	0.00148019	0.923019	0.92868 
144	20    	0.925203	0.00142619	0.923019	0.92868 
145	20    	0.925446	0.00144667	0.923828	0.92868 
146	20    	0.925446	0.00144667	0.923828	0.92868 
147	20    	0.925446	0.00144667	0.923828	0.92868 
148	20    	0.925486	0.00141178	0.923828	0.92868 
149	20    	0.925486	0.00141178	0.923828	0.92868 
150	20    	0.925567	0.00133561	0.923828	0.92868 
151	20    	0.925567	0.00133561	0.923828	0.92868 
152	20    	0.925607	0.00129395	0.923828	0.92868 
153	20    	0.925607	0.00129395	0.923828	0.92868 
154	20    	0.925607	0.00129395	0.923828	0.92868 
155	20    	0.925607	0.00129395	0.923828	0.92868 
156	20    	0.925607	0.00129395	0.923828	0.92868 
157	20    	0.925648	0.00124959	0.924637	0.92868 
158	20    	0.925648	0.00124959	0.924637	0.92868 
159	20    	0.925648	0.00124959	0.924637	0.92868 
160	20    	0.925648	0.00124959	0.924637	0.92868 
161	20    	0.925648	0.00124959	0.924637	0.92868 
162	20    	0.925648	0.00124959	0.924637	0.92868 
163	20    	0.925648	0.00124959	0.924637	0.92868 
164	20    	0.925648	0.00124959	0.924637	0.92868 
165	20    	0.925648	0.00124959	0.924637	0.92868 
166	20    	0.925648	0.00124959	0.924637	0.92868 
167	20    	0.925648	0.00124959	0.924637	0.92868 
168	20    	0.925648	0.00124959	0.924637	0.92868 
169	20    	0.925648	0.00124959	0.924637	0.92868 
170	20    	0.925648	0.00124959	0.924637	0.92868 
171	20    	0.925648	0.00124959	0.924637	0.92868 
172	20    	0.925648	0.00124959	0.924637	0.92868 
173	20    	0.925648	0.00124959	0.924637	0.92868 
174	20    	0.925648	0.00124959	0.924637	0.92868 
175	20    	0.925648	0.00124959	0.924637	0.92868 
176	20    	0.925648	0.00124959	0.924637	0.92868 
177	20    	0.925688	0.00122914	0.924637	0.92868 
178	20    	0.92589 	0.00136467	0.924637	0.92868 
179	20    	0.92589 	0.00136467	0.924637	0.92868 
180	20    	0.92589 	0.00136467	0.924637	0.92868 
181	20    	0.92589 	0.00136467	0.924637	0.92868 
182	20    	0.92589 	0.00136467	0.924637	0.92868 
183	20    	0.92589 	0.00136467	0.924637	0.92868 
184	20    	0.926255	0.0015146 	0.924637	0.929504
185	20    	0.926336	0.00146852	0.924637	0.929504
186	20    	0.926336	0.00146852	0.924637	0.929504
187	20    	0.926336	0.00146852	0.924637	0.929504
188	20    	0.926376	0.00143186	0.924637	0.929504
189	20    	0.926376	0.00143186	0.924637	0.929504
190	20    	0.926376	0.00143186	0.924637	0.929504
191	20    	0.926376	0.00143186	0.924637	0.929504
192	20    	0.926376	0.00143186	0.924637	0.929504
193	20    	0.926376	0.00143186	0.924637	0.929504
194	20    	0.926376	0.00143186	0.924637	0.929504
195	20    	0.926376	0.00143186	0.924637	0.929504
196	20    	0.926376	0.00143186	0.924637	0.929504
197	20    	0.926376	0.00143186	0.924637	0.929504
198	20    	0.926376	0.00143186	0.924637	0.929504
199	20    	0.926538	0.00140875	0.924637	0.929504
200	20    	0.926619	0.00134213	0.924637	0.929504
201	20    	0.926659	0.00129309	0.924637	0.929504
202	20    	0.926659	0.00129309	0.924637	0.929504
203	20    	0.926659	0.00129309	0.924637	0.929504
204	20    	0.926659	0.00129309	0.924637	0.929504
205	20    	0.926659	0.00129309	0.924637	0.929504
206	20    	0.926659	0.00129309	0.924637	0.929504
207	20    	0.926659	0.00129309	0.924637	0.929504
208	20    	0.926659	0.00129309	0.924637	0.929504
209	20    	0.92674 	0.00121211	0.925446	0.929504
210	20    	0.926821	0.00117646	0.925446	0.929504
211	20    	0.926821	0.00117646	0.925446	0.929504
212	20    	0.926821	0.00117646	0.925446	0.929504
213	20    	0.926821	0.00117646	0.925446	0.929504
214	20    	0.926821	0.00117646	0.925446	0.929504
215	20    	0.926821	0.00117646	0.925446	0.929504
216	20    	0.926821	0.00117646	0.925446	0.929504
217	20    	0.926821	0.00117646	0.925446	0.929504
218	20    	0.926821	0.00117646	0.925446	0.929504
219	20    	0.926942	0.00115322	0.925446	0.929504
220	20    	0.926942	0.00115322	0.925446	0.929504
221	20    	0.926942	0.00115322	0.925446	0.929504
222	20    	0.926942	0.00115322	0.925446	0.929504
223	20    	0.926942	0.00115322	0.925446	0.929504
224	20    	0.927064	0.0011164 	0.925446	0.929504
225	20    	0.927064	0.0011164 	0.925446	0.929504
226	20    	0.927145	0.00105304	0.925446	0.929504
227	20    	0.927145	0.00105304	0.925446	0.929504
228	20    	0.927145	0.00105304	0.925446	0.929504
229	20    	0.927145	0.00105304	0.925446	0.929504
230	20    	0.927145	0.00105304	0.925446	0.929504
231	20    	0.927145	0.00105304	0.925446	0.929504
232	20    	0.927145	0.00105304	0.925446	0.929504
233	20    	0.927145	0.00105304	0.925446	0.929504
234	20    	0.927388	0.00118629	0.926254	0.930313
235	20    	0.927388	0.00118629	0.926254	0.930313
236	20    	0.927388	0.00118629	0.926254	0.930313
237	20    	0.927388	0.00118629	0.926254	0.930313
238	20    	0.927388	0.00118629	0.926254	0.930313
239	20    	0.927388	0.00118629	0.926254	0.930313
240	20    	0.927388	0.00118629	0.926254	0.930313
241	20    	0.927469	0.00116111	0.926254	0.930313
242	20    	0.927469	0.00116111	0.926254	0.930313
243	20    	0.927469	0.00116111	0.926254	0.930313
244	20    	0.927469	0.00116111	0.926254	0.930313
245	20    	0.927469	0.00116111	0.926254	0.930313
246	20    	0.927469	0.00116111	0.926254	0.930313
247	20    	0.927469	0.00116111	0.926254	0.930313
248	20    	0.927469	0.00116111	0.926254	0.930313
249	20    	0.927469	0.00116111	0.926254	0.930313
250	20    	0.927469	0.00116111	0.926254	0.930313
251	20    	0.927469	0.00116111	0.926254	0.930313
252	20    	0.927469	0.00116111	0.926254	0.930313
253	20    	0.927469	0.00116111	0.926254	0.930313
254	20    	0.927469	0.00116111	0.926254	0.930313
255	20    	0.927469	0.00116111	0.926254	0.930313
256	20    	0.927469	0.00116111	0.926254	0.930313
257	20    	0.927469	0.00116111	0.926254	0.930313
258	20    	0.927469	0.00116111	0.926254	0.930313
259	20    	0.927469	0.00116111	0.926254	0.930313
260	20    	0.927793	0.00120107	0.926254	0.930313
261	20    	0.927793	0.00120107	0.926254	0.930313
262	20    	0.927793	0.00120107	0.926254	0.930313
263	20    	0.927793	0.00120107	0.926254	0.930313
264	20    	0.927996	0.00126511	0.926254	0.930313
265	20    	0.927996	0.00126511	0.926254	0.930313
266	20    	0.92832 	0.00141758	0.926254	0.931931
267	20    	0.92832 	0.00141758	0.926254	0.931931
268	20    	0.92832 	0.00141758	0.926254	0.931931
269	20    	0.92832 	0.00141758	0.926254	0.931931
270	20    	0.92832 	0.00141758	0.926254	0.931931
271	20    	0.92832 	0.00141758	0.926254	0.931931
272	20    	0.92832 	0.00141758	0.926254	0.931931
273	20    	0.92832 	0.00141758	0.926254	0.931931
274	20    	0.928564	0.00145921	0.927063	0.931931
275	20    	0.928604	0.00142793	0.927063	0.931931
276	20    	0.928604	0.00142793	0.927063	0.931931
277	20    	0.928604	0.00142793	0.927063	0.931931
278	20    	0.929091	0.00180546	0.927063	0.934357
279	20    	0.929091	0.00180546	0.927063	0.934357
280	20    	0.929091	0.00180546	0.927063	0.934357
281	20    	0.929131	0.00176826	0.927063	0.934357
282	20    	0.929131	0.00176826	0.927063	0.934357
283	20    	0.929131	0.00176826	0.927063	0.934357
284	20    	0.929131	0.00176826	0.927063	0.934357
285	20    	0.929131	0.00176826	0.927063	0.934357
286	20    	0.929131	0.00176826	0.927063	0.934357
287	20    	0.929131	0.00176826	0.927063	0.934357
288	20    	0.929131	0.00176826	0.927063	0.934357
289	20    	0.929131	0.00176826	0.927063	0.934357
290	20    	0.929131	0.00176826	0.927063	0.934357
291	20    	0.929131	0.00176826	0.927063	0.934357
292	20    	0.929131	0.00176826	0.927063	0.934357
293	20    	0.929131	0.00176826	0.927063	0.934357
294	20    	0.929294	0.00171938	0.927872	0.934357
295	20    	0.929294	0.00171938	0.927872	0.934357
296	20    	0.929294	0.00171938	0.927872	0.934357
297	20    	0.929334	0.00169479	0.927872	0.934357
298	20    	0.929334	0.00169479	0.927872	0.934357
299	20    	0.929416	0.00166137	0.927872	0.934357
300	20    	0.929416	0.00166137	0.927872	0.934357
301	20    	0.929416	0.00166137	0.927872	0.934357
302	20    	0.929416	0.00166137	0.927872	0.934357
303	20    	0.929416	0.00166137	0.927872	0.934357
304	20    	0.929416	0.00166137	0.927872	0.934357
305	20    	0.929416	0.00166137	0.927872	0.934357
306	20    	0.929416	0.00166137	0.927872	0.934357
307	20    	0.929416	0.00166137	0.927872	0.934357
308	20    	0.929456	0.00163289	0.927872	0.934357
309	20    	0.929659	0.00167502	0.927872	0.934357
310	20    	0.929659	0.00167502	0.927872	0.934357
311	20    	0.929659	0.00167502	0.927872	0.934357
312	20    	0.929659	0.00167502	0.927872	0.934357
313	20    	0.929659	0.00167502	0.927872	0.934357
314	20    	0.9297  	0.00164079	0.927872	0.934357
315	20    	0.9297  	0.00164079	0.927872	0.934357
316	20    	0.9297  	0.00164079	0.927872	0.934357
317	20    	0.9297  	0.00164079	0.927872	0.934357
318	20    	0.9297  	0.00164079	0.927872	0.934357
319	20    	0.9297  	0.00164079	0.927872	0.934357
320	20    	0.929781	0.00158756	0.927872	0.934357
321	20    	0.929781	0.00158756	0.927872	0.934357
322	20    	0.929781	0.00158756	0.927872	0.934357
323	20    	0.929822	0.00154822	0.927872	0.934357
324	20    	0.929822	0.00154822	0.927872	0.934357
325	20    	0.929822	0.00154822	0.927872	0.934357
326	20    	0.929822	0.00154822	0.927872	0.934357
327	20    	0.929822	0.00154822	0.927872	0.934357
328	20    	0.929822	0.00154822	0.927872	0.934357
329	20    	0.929822	0.00154822	0.927872	0.934357
330	20    	0.929822	0.00154822	0.927872	0.934357
331	20    	0.929822	0.00154822	0.927872	0.934357
332	20    	0.929944	0.00143944	0.92868 	0.934357
333	20    	0.929944	0.00143944	0.92868 	0.934357
334	20    	0.929944	0.00143944	0.92868 	0.934357
335	20    	0.929944	0.00143944	0.92868 	0.934357
336	20    	0.929944	0.00143944	0.92868 	0.934357
337	20    	0.929944	0.00143944	0.92868 	0.934357
338	20    	0.929944	0.00143944	0.92868 	0.934357
339	20    	0.929944	0.00143944	0.92868 	0.934357
340	20    	0.930066	0.00143061	0.92868 	0.934357
341	20    	0.930066	0.00143061	0.92868 	0.934357
342	20    	0.930066	0.00143061	0.92868 	0.934357
343	20    	0.930066	0.00143061	0.92868 	0.934357
344	20    	0.930309	0.0015804 	0.92868 	0.934357
345	20    	0.930309	0.0015804 	0.92868 	0.934357
346	20    	0.930309	0.0015804 	0.92868 	0.934357
347	20    	0.930432	0.00149988	0.92868 	0.934357
348	20    	0.930432	0.00149988	0.92868 	0.934357
349	20    	0.930432	0.00149988	0.92868 	0.934357
350	20    	0.930432	0.00149988	0.92868 	0.934357
351	20    	0.930432	0.00149988	0.92868 	0.934357
352	20    	0.930432	0.00149988	0.92868 	0.934357
353	20    	0.930432	0.00149988	0.92868 	0.934357
354	20    	0.930432	0.00149988	0.92868 	0.934357
355	20    	0.930432	0.00149988	0.92868 	0.934357
356	20    	0.930432	0.00149988	0.92868 	0.934357
357	20    	0.930432	0.00149988	0.92868 	0.934357
358	20    	0.930432	0.00149988	0.92868 	0.934357
359	20    	0.930432	0.00149988	0.92868 	0.934357
360	20    	0.930432	0.00149988	0.92868 	0.934357
361	20    	0.930878	0.00211443	0.92868 	0.937607
362	20    	0.930878	0.00211443	0.92868 	0.937607
363	20    	0.93096 	0.00205878	0.92868 	0.937607
364	20    	0.93096 	0.00205878	0.92868 	0.937607
365	20    	0.931001	0.00202064	0.929504	0.937607
366	20    	0.931001	0.00202064	0.929504	0.937607
367	20    	0.931001	0.00202064	0.929504	0.937607
368	20    	0.931082	0.00199127	0.929504	0.937607
369	20    	0.931082	0.00199127	0.929504	0.937607
370	20    	0.931082	0.00199127	0.929504	0.937607
371	20    	0.931082	0.00199127	0.929504	0.937607
372	20    	0.931082	0.00199127	0.929504	0.937607
373	20    	0.931082	0.00199127	0.929504	0.937607
374	20    	0.931082	0.00199127	0.929504	0.937607
375	20    	0.931163	0.00195811	0.929504	0.937607
376	20    	0.931163	0.00195811	0.929504	0.937607
377	20    	0.931163	0.00195811	0.929504	0.937607
378	20    	0.931163	0.00195811	0.929504	0.937607
379	20    	0.931163	0.00195811	0.929504	0.937607
380	20    	0.931163	0.00195811	0.929504	0.937607
381	20    	0.931163	0.00195811	0.929504	0.937607
382	20    	0.931163	0.00195811	0.929504	0.937607
383	20    	0.931487	0.0021793 	0.929504	0.937607
384	20    	0.931851	0.00241466	0.929504	0.937607
385	20    	0.931851	0.00241466	0.929504	0.937607
386	20    	0.931851	0.00241466	0.929504	0.937607
387	20    	0.931851	0.00241466	0.929504	0.937607
388	20    	0.931973	0.00235389	0.929504	0.937607
389	20    	0.931973	0.00235389	0.929504	0.937607
390	20    	0.931973	0.00235389	0.929504	0.937607
391	20    	0.931973	0.00235389	0.929504	0.937607
392	20    	0.931973	0.00235389	0.929504	0.937607
393	20    	0.931973	0.00235389	0.929504	0.937607
394	20    	0.932053	0.00229474	0.929504	0.937607
395	20    	0.932053	0.00229474	0.929504	0.937607
396	20    	0.932134	0.00223111	0.930313	0.937607
397	20    	0.932134	0.00223111	0.930313	0.937607
398	20    	0.932134	0.00223111	0.930313	0.937607
399	20    	0.932134	0.00223111	0.930313	0.937607
400	20    	0.932296	0.00221038	0.930313	0.937607
401	20    	0.932417	0.00216432	0.930313	0.937607
402	20    	0.932417	0.00216432	0.930313	0.937607
403	20    	0.932417	0.00216432	0.930313	0.937607
404	20    	0.932579	0.00212148	0.930313	0.937607
405	20    	0.932579	0.00212148	0.930313	0.937607
406	20    	0.932579	0.00212148	0.930313	0.937607
407	20    	0.932579	0.00212148	0.930313	0.937607
408	20    	0.932579	0.00212148	0.930313	0.937607
409	20    	0.932579	0.00212148	0.930313	0.937607
410	20    	0.932579	0.00212148	0.930313	0.937607
411	20    	0.932781	0.00199215	0.930313	0.937607
412	20    	0.932862	0.00192191	0.931122	0.937607
413	20    	0.932862	0.00192191	0.931122	0.937607
414	20    	0.932862	0.00192191	0.931122	0.937607
415	20    	0.932862	0.00192191	0.931122	0.937607
416	20    	0.932862	0.00192191	0.931122	0.937607
417	20    	0.932862	0.00192191	0.931122	0.937607
418	20    	0.932862	0.00192191	0.931122	0.937607
419	20    	0.932862	0.00192191	0.931122	0.937607
420	20    	0.932862	0.00192191	0.931122	0.937607
421	20    	0.932862	0.00192191	0.931122	0.937607
422	20    	0.933024	0.00190469	0.931122	0.937607
423	20    	0.933024	0.00190469	0.931122	0.937607
424	20    	0.933024	0.00190469	0.931122	0.937607
425	20    	0.933024	0.00190469	0.931122	0.937607
426	20    	0.93351 	0.00250334	0.931122	0.940842
427	20    	0.93351 	0.00250334	0.931122	0.940842
428	20    	0.93351 	0.00250334	0.931122	0.940842
429	20    	0.93351 	0.00250334	0.931122	0.940842
430	20    	0.93355 	0.00247076	0.931122	0.940842
431	20    	0.93355 	0.00247076	0.931122	0.940842
432	20    	0.93355 	0.00247076	0.931122	0.940842
433	20    	0.93355 	0.00247076	0.931122	0.940842
434	20    	0.93355 	0.00247076	0.931122	0.940842
435	20    	0.93355 	0.00247076	0.931122	0.940842
436	20    	0.93355 	0.00247076	0.931122	0.940842
437	20    	0.93355 	0.00247076	0.931122	0.940842
438	20    	0.933752	0.00242885	0.931122	0.940842
439	20    	0.933752	0.00242885	0.931122	0.940842
440	20    	0.933752	0.00242885	0.931122	0.940842
441	20    	0.933914	0.00235487	0.931122	0.940842
442	20    	0.933914	0.00235487	0.931122	0.940842
443	20    	0.933914	0.00235487	0.931122	0.940842
444	20    	0.933914	0.00235487	0.931122	0.940842
445	20    	0.933914	0.00235487	0.931122	0.940842
446	20    	0.933914	0.00235487	0.931122	0.940842
447	20    	0.933914	0.00235487	0.931122	0.940842
448	20    	0.933914	0.00235487	0.931122	0.940842
449	20    	0.934035	0.00226882	0.931931	0.940842
450	20    	0.934035	0.00226882	0.931931	0.940842
451	20    	0.934157	0.00221731	0.931931	0.940842
452	20    	0.934157	0.00221731	0.931931	0.940842
453	20    	0.934157	0.00221731	0.931931	0.940842
454	20    	0.934157	0.00221731	0.931931	0.940842
455	20    	0.934157	0.00221731	0.931931	0.940842
456	20    	0.934157	0.00221731	0.931931	0.940842
457	20    	0.934157	0.00221731	0.931931	0.940842
458	20    	0.934157	0.00221731	0.931931	0.940842
459	20    	0.934157	0.00221731	0.931931	0.940842
460	20    	0.934157	0.00221731	0.931931	0.940842
461	20    	0.934157	0.00221731	0.931931	0.940842
462	20    	0.934238	0.00216348	0.931931	0.940842
463	20    	0.934238	0.00216348	0.931931	0.940842
464	20    	0.934238	0.00216348	0.931931	0.940842
465	20    	0.934238	0.00216348	0.931931	0.940842
466	20    	0.934238	0.00216348	0.931931	0.940842
467	20    	0.934238	0.00216348	0.931931	0.940842
468	20    	0.934238	0.00216348	0.931931	0.940842
469	20    	0.934319	0.00210517	0.931931	0.940842
470	20    	0.934319	0.00210517	0.931931	0.940842
471	20    	0.934319	0.00210517	0.931931	0.940842
472	20    	0.934319	0.00210517	0.931931	0.940842
473	20    	0.934319	0.00210517	0.931931	0.940842
474	20    	0.934319	0.00210517	0.931931	0.940842
475	20    	0.934319	0.00210517	0.931931	0.940842
476	20    	0.934319	0.00210517	0.931931	0.940842
477	20    	0.934319	0.00210517	0.931931	0.940842
478	20    	0.934319	0.00210517	0.931931	0.940842
479	20    	0.934602	0.00195379	0.931931	0.940842
480	20    	0.934804	0.00187454	0.932739	0.940842
481	20    	0.934804	0.00187454	0.932739	0.940842
482	20    	0.934804	0.00187454	0.932739	0.940842
483	20    	0.934885	0.00181775	0.932739	0.940842
484	20    	0.934885	0.00181775	0.932739	0.940842
485	20    	0.934885	0.00181775	0.932739	0.940842
486	20    	0.934885	0.00181775	0.932739	0.940842
487	20    	0.934885	0.00181775	0.932739	0.940842
488	20    	0.934885	0.00181775	0.932739	0.940842
489	20    	0.935088	0.00179331	0.933548	0.940842
490	20    	0.935088	0.00179331	0.933548	0.940842
491	20    	0.935088	0.00179331	0.933548	0.940842
492	20    	0.935128	0.00176707	0.933548	0.940842
493	20    	0.935128	0.00176707	0.933548	0.940842
494	20    	0.935128	0.00176707	0.933548	0.940842
495	20    	0.935128	0.00176707	0.933548	0.940842
496	20    	0.935128	0.00176707	0.933548	0.940842
497	20    	0.935128	0.00176707	0.933548	0.940842
498	20    	0.935128	0.00176707	0.933548	0.940842
499	20    	0.935128	0.00176707	0.933548	0.940842
