gen	nevals	avg     	std        	min     	max     
0  	20    	0.872451	0.00638244 	0.856445	0.88681 
1  	20    	0.878467	0.00445564 	0.873688	0.889435
2  	20    	0.881148	0.00385066 	0.87706 	0.889435
3  	20    	0.883583	0.00304575 	0.879684	0.890549
4  	20    	0.886301	0.00307136 	0.882309	0.893173
5  	20    	0.887913	0.00263601 	0.884186	0.893173
6  	20    	0.88913 	0.00212772 	0.886429	0.893173
7  	20    	0.889767	0.00221579 	0.88681 	0.89505 
8  	20    	0.890517	0.00186497 	0.888306	0.89505 
9  	20    	0.891604	0.00265777 	0.889053	0.900681
10 	20    	0.892241	0.00283724 	0.889435	0.900681
11 	20    	0.892877	0.00284113 	0.889801	0.900681
12 	20    	0.893553	0.00241588 	0.890549	0.900681
13 	20    	0.89447 	0.00222703 	0.892059	0.900681
14 	20    	0.894901	0.0020767  	0.892426	0.900681
15 	20    	0.895819	0.00256432 	0.893173	0.901794
16 	20    	0.896477	0.00225381 	0.894302	0.901794
17 	20    	0.896945	0.00203366 	0.894302	0.901794
18 	20    	0.897263	0.00185858 	0.89505 	0.901794
19 	20    	0.897751	0.00154358 	0.896179	0.901794
20 	20    	0.897919	0.00154686 	0.896179	0.901794
21 	20    	0.897919	0.00154686 	0.896179	0.901794
22 	20    	0.898088	0.00144666 	0.896545	0.901794
23 	20    	0.898351	0.00132705 	0.896927	0.901794
24 	20    	0.89837 	0.00130906 	0.896927	0.901794
25 	20    	0.898782	0.0013575  	0.897308	0.901794
26 	20    	0.898857	0.00131476 	0.897308	0.901794
27 	20    	0.899007	0.00121105 	0.897308	0.901794
28 	20    	0.899324	0.00106234 	0.898056	0.901794
29 	20    	0.899324	0.00106234 	0.898056	0.901794
30 	20    	0.899811	0.00177868 	0.898422	0.906296
31 	20    	0.90058 	0.00202049 	0.898804	0.906296
32 	20    	0.901067	0.00205444 	0.898804	0.906296
33 	20    	0.901217	0.00195243 	0.899551	0.906296
34 	20    	0.901423	0.00188138 	0.899551	0.906296
35 	20    	0.901554	0.00183728 	0.899551	0.906296
36 	20    	0.90238 	0.00148619 	0.900681	0.906296
37 	20    	0.902679	0.00137848 	0.901047	0.906296
38 	20    	0.902792	0.00133189 	0.901047	0.906296
39 	20    	0.902923	0.00128186 	0.901428	0.906296
40 	20    	0.902923	0.00128186 	0.901428	0.906296
41 	20    	0.902979	0.0012392  	0.901428	0.906296
42 	20    	0.903016	0.00120261 	0.901428	0.906296
43 	20    	0.90311 	0.00111535 	0.901794	0.906296
44 	20    	0.903297	0.00119145 	0.902176	0.906296
45 	20    	0.903297	0.00119145 	0.902176	0.906296
46 	20    	0.903297	0.00119145 	0.902176	0.906296
47 	20    	0.903335	0.00116716 	0.902176	0.906296
48 	20    	0.903391	0.00113664 	0.902176	0.906296
49 	20    	0.903616	0.00130665 	0.902176	0.906677
50 	20    	0.903654	0.00127522 	0.902176	0.906677
51 	20    	0.903691	0.00124187 	0.902542	0.906677
52 	20    	0.903786	0.00118691 	0.902542	0.906677
53 	20    	0.903786	0.00118691 	0.902542	0.906677
54 	20    	0.903786	0.00118691 	0.902542	0.906677
55 	20    	0.90403 	0.00115816 	0.902542	0.906677
56 	20    	0.904049	0.00113644 	0.902924	0.906677
57 	20    	0.904068	0.00112048 	0.902924	0.906677
58 	20    	0.904368	0.00114312 	0.902924	0.906677
59 	20    	0.904368	0.00114312 	0.902924	0.906677
60 	20    	0.904368	0.00114312 	0.902924	0.906677
61 	20    	0.904368	0.00114312 	0.902924	0.906677
62 	20    	0.904536	0.00116613 	0.903305	0.906677
63 	20    	0.904574	0.00113769 	0.903305	0.906677
64 	20    	0.904574	0.00113769 	0.903305	0.906677
65 	20    	0.904667	0.00110578 	0.903305	0.906677
66 	20    	0.904667	0.00110578 	0.903305	0.906677
67 	20    	0.904667	0.00110578 	0.903305	0.906677
68 	20    	0.904967	0.00145403 	0.903305	0.909302
69 	20    	0.905042	0.00138421 	0.903671	0.909302
70 	20    	0.905079	0.00135652 	0.903671	0.909302
71 	20    	0.905135	0.00131976 	0.903671	0.909302
72 	20    	0.905135	0.00131976 	0.903671	0.909302
73 	20    	0.905154	0.00130109 	0.903671	0.909302
74 	20    	0.905154	0.00130109 	0.903671	0.909302
75 	20    	0.905154	0.00130109 	0.903671	0.909302
76 	20    	0.905398	0.00139479 	0.904053	0.909302
77 	20    	0.905398	0.00139479 	0.904053	0.909302
78 	20    	0.905547	0.00140287 	0.904053	0.909302
79 	20    	0.905547	0.00140287 	0.904053	0.909302
80 	20    	0.905547	0.00140287 	0.904053	0.909302
81 	20    	0.905547	0.00140287 	0.904053	0.909302
82 	20    	0.905547	0.00140287 	0.904053	0.909302
83 	20    	0.905641	0.00136193 	0.904053	0.909302
84 	20    	0.905641	0.00136193 	0.904053	0.909302
85 	20    	0.905959	0.00166351 	0.904053	0.910416
86 	20    	0.906071	0.00158425 	0.904419	0.910416
87 	20    	0.906184	0.00151898 	0.904419	0.910416
88 	20    	0.906259	0.00145676 	0.9048  	0.910416
89 	20    	0.906522	0.00163254 	0.9048  	0.910416
90 	20    	0.906522	0.00163254 	0.9048  	0.910416
91 	20    	0.906672	0.00156007 	0.905167	0.910416
92 	20    	0.906803	0.00153816 	0.905167	0.910416
93 	20    	0.906803	0.00153816 	0.905167	0.910416
94 	20    	0.906991	0.00151403 	0.905167	0.910416
95 	20    	0.907178	0.00150891 	0.905548	0.910416
96 	20    	0.907646	0.00142959 	0.90593 	0.910416
97 	20    	0.907646	0.00142959 	0.90593 	0.910416
98 	20    	0.907646	0.00142959 	0.90593 	0.910416
99 	20    	0.907646	0.00142959 	0.90593 	0.910416
100	20    	0.907721	0.00137595 	0.906296	0.910416
101	20    	0.907721	0.00137595 	0.906296	0.910416
102	20    	0.90787 	0.00131308 	0.906296	0.910416
103	20    	0.90787 	0.00131308 	0.906296	0.910416
104	20    	0.90787 	0.00131308 	0.906296	0.910416
105	20    	0.907983	0.00121791 	0.906296	0.910416
106	20    	0.908077	0.00112997 	0.906677	0.910416
107	20    	0.908152	0.00108338 	0.906677	0.910416
108	20    	0.908152	0.00108338 	0.906677	0.910416
109	20    	0.908264	0.00104014 	0.907043	0.910416
110	20    	0.908264	0.00104014 	0.907043	0.910416
111	20    	0.908302	0.00100855 	0.907043	0.910416
112	20    	0.908339	0.000974509	0.907043	0.910416
113	20    	0.908339	0.000974509	0.907043	0.910416
114	20    	0.908339	0.000974509	0.907043	0.910416
115	20    	0.908339	0.000974509	0.907043	0.910416
116	20    	0.908358	0.00095245 	0.907043	0.910416
117	20    	0.908358	0.00095245 	0.907043	0.910416
118	20    	0.908358	0.00095245 	0.907043	0.910416
119	20    	0.908358	0.00095245 	0.907043	0.910416
120	20    	0.908358	0.00095245 	0.907043	0.910416
121	20    	0.908358	0.00095245 	0.907043	0.910416
122	20    	0.90847 	0.000892483	0.907425	0.910416
123	20    	0.90862 	0.000953303	0.907425	0.910416
124	20    	0.90862 	0.000953303	0.907425	0.910416
125	20    	0.90862 	0.000953303	0.907425	0.910416
126	20    	0.90862 	0.000953303	0.907425	0.910416
127	20    	0.908657	0.000919788	0.907425	0.910416
128	20    	0.908657	0.000919788	0.907425	0.910416
129	20    	0.908657	0.000919788	0.907425	0.910416
130	20    	0.908657	0.000919788	0.907425	0.910416
131	20    	0.908657	0.000919788	0.907425	0.910416
132	20    	0.9089  	0.00117119 	0.907791	0.912292
133	20    	0.9089  	0.00117119 	0.907791	0.912292
134	20    	0.9089  	0.00117119 	0.907791	0.912292
135	20    	0.9089  	0.00117119 	0.907791	0.912292
136	20    	0.909126	0.00129688 	0.907791	0.912292
137	20    	0.909126	0.00129688 	0.907791	0.912292
138	20    	0.90922 	0.00126437 	0.907791	0.912292
139	20    	0.90922 	0.00126437 	0.907791	0.912292
140	20    	0.909258	0.00123221 	0.907791	0.912292
141	20    	0.909258	0.00123221 	0.907791	0.912292
142	20    	0.909501	0.00133384 	0.908173	0.912292
143	20    	0.909501	0.00133384 	0.908173	0.912292
144	20    	0.909501	0.00133384 	0.908173	0.912292
145	20    	0.909501	0.00133384 	0.908173	0.912292
146	20    	0.909501	0.00133384 	0.908173	0.912292
147	20    	0.909613	0.00131155 	0.908173	0.912292
148	20    	0.909613	0.00131155 	0.908173	0.912292
149	20    	0.909744	0.00129201 	0.908173	0.912292
150	20    	0.909744	0.00129201 	0.908173	0.912292
151	20    	0.909782	0.00125632 	0.908173	0.912292
152	20    	0.9098  	0.00123523 	0.908539	0.912292
153	20    	0.910007	0.00134778 	0.908539	0.912674
154	20    	0.910026	0.00132945 	0.908539	0.912674
155	20    	0.910026	0.00132945 	0.908539	0.912674
156	20    	0.910026	0.00132945 	0.908539	0.912674
157	20    	0.910271	0.00129111 	0.908539	0.912674
158	20    	0.910271	0.00129111 	0.908539	0.912674
159	20    	0.910271	0.00129111 	0.908539	0.912674
160	20    	0.910271	0.00129111 	0.908539	0.912674
161	20    	0.910346	0.00123034 	0.90892 	0.912674
162	20    	0.910534	0.00123253 	0.90892 	0.912674
163	20    	0.910534	0.00123253 	0.90892 	0.912674
164	20    	0.910534	0.00123253 	0.90892 	0.912674
165	20    	0.910665	0.00119282 	0.90892 	0.912674
166	20    	0.911171	0.00130883 	0.909302	0.914917
167	20    	0.911171	0.00130883 	0.909302	0.914917
168	20    	0.911208	0.00126485 	0.909668	0.914917
169	20    	0.911265	0.00121921 	0.910049	0.914917
170	20    	0.911358	0.00115825 	0.910049	0.914917
171	20    	0.911358	0.00115825 	0.910049	0.914917
172	20    	0.911376	0.00114017 	0.910049	0.914917
173	20    	0.91147 	0.00110377 	0.910049	0.914917
174	20    	0.91147 	0.00110377 	0.910049	0.914917
175	20    	0.91147 	0.00110377 	0.910049	0.914917
176	20    	0.91147 	0.00110377 	0.910049	0.914917
177	20    	0.911526	0.00105783 	0.910416	0.914917
178	20    	0.911545	0.00104095 	0.910416	0.914917
179	20    	0.911545	0.00104095 	0.910416	0.914917
180	20    	0.911545	0.00104095 	0.910416	0.914917
181	20    	0.911545	0.00104095 	0.910416	0.914917
182	20    	0.911601	0.00100828 	0.910416	0.914917
183	20    	0.91162 	0.0009891  	0.910416	0.914917
184	20    	0.911658	0.000956452	0.910797	0.914917
185	20    	0.911658	0.000956452	0.910797	0.914917
186	20    	0.911658	0.000956452	0.910797	0.914917
187	20    	0.911658	0.000956452	0.910797	0.914917
188	20    	0.911658	0.000956452	0.910797	0.914917
189	20    	0.911658	0.000956452	0.910797	0.914917
190	20    	0.911658	0.000956452	0.910797	0.914917
191	20    	0.911658	0.000956452	0.910797	0.914917
192	20    	0.911658	0.000956452	0.910797	0.914917
193	20    	0.91177 	0.000980178	0.910797	0.914917
194	20    	0.911807	0.000956333	0.910797	0.914917
195	20    	0.911807	0.000956333	0.910797	0.914917
196	20    	0.911807	0.000956333	0.910797	0.914917
197	20    	0.911807	0.000956333	0.910797	0.914917
198	20    	0.911807	0.000956333	0.910797	0.914917
199	20    	0.911807	0.000956333	0.910797	0.914917
200	20    	0.911826	0.000940187	0.910797	0.914917
201	20    	0.911826	0.000940187	0.910797	0.914917
202	20    	0.912106	0.00109    	0.910797	0.914917
203	20    	0.912106	0.00109    	0.910797	0.914917
204	20    	0.912106	0.00109    	0.910797	0.914917
205	20    	0.912106	0.00109    	0.910797	0.914917
206	20    	0.912106	0.00109    	0.910797	0.914917
207	20    	0.912106	0.00109    	0.910797	0.914917
208	20    	0.912106	0.00109    	0.910797	0.914917
209	20    	0.912106	0.00109    	0.910797	0.914917
210	20    	0.912106	0.00109    	0.910797	0.914917
211	20    	0.912106	0.00109    	0.910797	0.914917
212	20    	0.912106	0.00109    	0.910797	0.914917
213	20    	0.912313	0.00105726 	0.911163	0.914917
214	20    	0.912313	0.00105726 	0.911163	0.914917
215	20    	0.912426	0.001049   	0.911163	0.914917
216	20    	0.912426	0.001049   	0.911163	0.914917
217	20    	0.912502	0.000979858	0.911545	0.914917
218	20    	0.912502	0.000979858	0.911545	0.914917
219	20    	0.912502	0.000979858	0.911545	0.914917
220	20    	0.912502	0.000979858	0.911545	0.914917
221	20    	0.912652	0.00104815 	0.911545	0.914917
222	20    	0.912652	0.00104815 	0.911545	0.914917
223	20    	0.912652	0.00104815 	0.911545	0.914917
224	20    	0.912652	0.00104815 	0.911545	0.914917
225	20    	0.912727	0.000998355	0.911545	0.914917
226	20    	0.912971	0.00124359 	0.911926	0.916412
227	20    	0.912971	0.00124359 	0.911926	0.916412
228	20    	0.912971	0.00124359 	0.911926	0.916412
229	20    	0.912971	0.00124359 	0.911926	0.916412
230	20    	0.912989	0.00123071 	0.911926	0.916412
231	20    	0.912989	0.00123071 	0.911926	0.916412
232	20    	0.912989	0.00123071 	0.911926	0.916412
233	20    	0.912989	0.00123071 	0.911926	0.916412
234	20    	0.912989	0.00123071 	0.911926	0.916412
235	20    	0.912989	0.00123071 	0.911926	0.916412
236	20    	0.913158	0.00130246 	0.911926	0.916412
237	20    	0.913158	0.00130246 	0.911926	0.916412
238	20    	0.913158	0.00130246 	0.911926	0.916412
239	20    	0.913158	0.00130246 	0.911926	0.916412
240	20    	0.913158	0.00130246 	0.911926	0.916412
241	20    	0.913158	0.00130246 	0.911926	0.916412
242	20    	0.913158	0.00130246 	0.911926	0.916412
243	20    	0.913158	0.00130246 	0.911926	0.916412
244	20    	0.913158	0.00130246 	0.911926	0.916412
245	20    	0.913158	0.00130246 	0.911926	0.916412
246	20    	0.913158	0.00130246 	0.911926	0.916412
247	20    	0.913158	0.00130246 	0.911926	0.916412
248	20    	0.913158	0.00130246 	0.911926	0.916412
249	20    	0.91327 	0.00128809 	0.911926	0.916412
250	20    	0.91327 	0.00128809 	0.911926	0.916412
251	20    	0.91327 	0.00128809 	0.911926	0.916412
252	20    	0.91327 	0.00128809 	0.911926	0.916412
253	20    	0.91327 	0.00128809 	0.911926	0.916412
254	20    	0.913476	0.00138271 	0.911926	0.916412
255	20    	0.913476	0.00138271 	0.911926	0.916412
256	20    	0.913476	0.00138271 	0.911926	0.916412
257	20    	0.913476	0.00138271 	0.911926	0.916412
258	20    	0.913513	0.00135004 	0.911926	0.916412
259	20    	0.913513	0.00135004 	0.911926	0.916412
260	20    	0.913588	0.00130058 	0.912292	0.916412
261	20    	0.913776	0.00136913 	0.912292	0.916412
262	20    	0.913795	0.00135087 	0.912292	0.916412
263	20    	0.913795	0.00135087 	0.912292	0.916412
264	20    	0.913907	0.00131411 	0.912292	0.916412
265	20    	0.914038	0.00127686 	0.912292	0.916412
266	20    	0.914225	0.00123778 	0.912674	0.916412
267	20    	0.914225	0.00123778 	0.912674	0.916412
268	20    	0.914225	0.00123778 	0.912674	0.916412
269	20    	0.914225	0.00123778 	0.912674	0.916412
270	20    	0.914225	0.00123778 	0.912674	0.916412
271	20    	0.914225	0.00123778 	0.912674	0.916412
272	20    	0.914225	0.00123778 	0.912674	0.916412
273	20    	0.914225	0.00123778 	0.912674	0.916412
274	20    	0.914225	0.00123778 	0.912674	0.916412
275	20    	0.914375	0.00122192 	0.912674	0.916412
276	20    	0.914375	0.00122192 	0.912674	0.916412
277	20    	0.914375	0.00122192 	0.912674	0.916412
278	20    	0.914375	0.00122192 	0.912674	0.916412
279	20    	0.914375	0.00122192 	0.912674	0.916412
280	20    	0.914468	0.00115807 	0.912674	0.916412
281	20    	0.914468	0.00115807 	0.912674	0.916412
282	20    	0.914468	0.00115807 	0.912674	0.916412
283	20    	0.914468	0.00115807 	0.912674	0.916412
284	20    	0.914468	0.00115807 	0.912674	0.916412
285	20    	0.914486	0.00113217 	0.912674	0.916412
286	20    	0.914486	0.00113217 	0.912674	0.916412
287	20    	0.914486	0.00113217 	0.912674	0.916412
288	20    	0.914486	0.00113217 	0.912674	0.916412
289	20    	0.914523	0.00108299 	0.91304 	0.916412
290	20    	0.914523	0.00108299 	0.91304 	0.916412
291	20    	0.914523	0.00108299 	0.91304 	0.916412
292	20    	0.914561	0.00104333 	0.91304 	0.916412
293	20    	0.914561	0.00104333 	0.91304 	0.916412
294	20    	0.914561	0.00104333 	0.91304 	0.916412
295	20    	0.914561	0.00104333 	0.91304 	0.916412
296	20    	0.914561	0.00104333 	0.91304 	0.916412
297	20    	0.914786	0.00116899 	0.91304 	0.917542
298	20    	0.91488 	0.00109829 	0.913422	0.917542
299	20    	0.91488 	0.00109829 	0.913422	0.917542
300	20    	0.91488 	0.00109829 	0.913422	0.917542
301	20    	0.91488 	0.00109829 	0.913422	0.917542
302	20    	0.91488 	0.00109829 	0.913422	0.917542
303	20    	0.91488 	0.00109829 	0.913422	0.917542
304	20    	0.91488 	0.00109829 	0.913422	0.917542
305	20    	0.91488 	0.00109829 	0.913422	0.917542
306	20    	0.91488 	0.00109829 	0.913422	0.917542
307	20    	0.91488 	0.00109829 	0.913422	0.917542
308	20    	0.91488 	0.00109829 	0.913422	0.917542
309	20    	0.91488 	0.00109829 	0.913422	0.917542
310	20    	0.91488 	0.00109829 	0.913422	0.917542
311	20    	0.915067	0.0011511  	0.913422	0.917542
312	20    	0.91516 	0.00108795 	0.913422	0.917542
313	20    	0.91516 	0.00108795 	0.913422	0.917542
314	20    	0.91516 	0.00108795 	0.913422	0.917542
315	20    	0.91516 	0.00108795 	0.913422	0.917542
316	20    	0.91516 	0.00108795 	0.913422	0.917542
317	20    	0.91516 	0.00108795 	0.913422	0.917542
318	20    	0.91516 	0.00108795 	0.913422	0.917542
319	20    	0.91516 	0.00108795 	0.913422	0.917542
320	20    	0.91516 	0.00108795 	0.913422	0.917542
321	20    	0.91516 	0.00108795 	0.913422	0.917542
322	20    	0.91516 	0.00108795 	0.913422	0.917542
323	20    	0.91516 	0.00108795 	0.913422	0.917542
324	20    	0.91516 	0.00108795 	0.913422	0.917542
325	20    	0.915273	0.00101617 	0.913422	0.917542
326	20    	0.915273	0.00101617 	0.913422	0.917542
327	20    	0.915273	0.00101617 	0.913422	0.917542
328	20    	0.915273	0.00101617 	0.913422	0.917542
329	20    	0.915404	0.000872396	0.914169	0.917542
330	20    	0.915404	0.000872396	0.914169	0.917542
331	20    	0.915441	0.000833866	0.914536	0.917542
332	20    	0.915441	0.000833866	0.914536	0.917542
333	20    	0.915441	0.000833866	0.914536	0.917542
334	20    	0.915441	0.000833866	0.914536	0.917542
335	20    	0.915441	0.000833866	0.914536	0.917542
336	20    	0.915441	0.000833866	0.914536	0.917542
337	20    	0.915441	0.000833866	0.914536	0.917542
338	20    	0.915441	0.000833866	0.914536	0.917542
339	20    	0.915441	0.000833866	0.914536	0.917542
340	20    	0.915441	0.000833866	0.914536	0.917542
341	20    	0.915517	0.000816653	0.914536	0.917542
342	20    	0.915517	0.000816653	0.914536	0.917542
343	20    	0.915536	0.000797751	0.914536	0.917542
344	20    	0.915574	0.000766646	0.914536	0.917542
345	20    	0.915668	0.000748453	0.914917	0.917542
346	20    	0.915668	0.000748453	0.914917	0.917542
347	20    	0.915668	0.000748453	0.914917	0.917542
348	20    	0.915668	0.000748453	0.914917	0.917542
349	20    	0.915668	0.000748453	0.914917	0.917542
350	20    	0.915668	0.000748453	0.914917	0.917542
351	20    	0.915668	0.000748453	0.914917	0.917542
352	20    	0.915668	0.000748453	0.914917	0.917542
353	20    	0.915668	0.000748453	0.914917	0.917542
354	20    	0.915668	0.000748453	0.914917	0.917542
355	20    	0.915668	0.000748453	0.914917	0.917542
356	20    	0.915668	0.000748453	0.914917	0.917542
357	20    	0.915668	0.000748453	0.914917	0.917542
358	20    	0.915668	0.000748453	0.914917	0.917542
359	20    	0.915668	0.000748453	0.914917	0.917542
360	20    	0.915668	0.000748453	0.914917	0.917542
361	20    	0.915668	0.000748453	0.914917	0.917542
362	20    	0.915818	0.00087391 	0.914917	0.917923
363	20    	0.915818	0.00087391 	0.914917	0.917923
364	20    	0.915818	0.00087391 	0.914917	0.917923
365	20    	0.915818	0.00087391 	0.914917	0.917923
366	20    	0.915837	0.000858056	0.914917	0.917923
367	20    	0.915837	0.000858056	0.914917	0.917923
368	20    	0.915874	0.000833078	0.914917	0.917923
369	20    	0.915874	0.000833078	0.914917	0.917923
370	20    	0.915874	0.000833078	0.914917	0.917923
371	20    	0.915874	0.000833078	0.914917	0.917923
372	20    	0.915874	0.000833078	0.914917	0.917923
373	20    	0.915874	0.000833078	0.914917	0.917923
374	20    	0.915874	0.000833078	0.914917	0.917923
375	20    	0.915874	0.000833078	0.914917	0.917923
376	20    	0.915874	0.000833078	0.914917	0.917923
377	20    	0.915874	0.000833078	0.914917	0.917923
378	20    	0.915874	0.000833078	0.914917	0.917923
379	20    	0.915874	0.000833078	0.914917	0.917923
380	20    	0.915874	0.000833078	0.914917	0.917923
381	20    	0.915874	0.000833078	0.914917	0.917923
382	20    	0.915874	0.000833078	0.914917	0.917923
383	20    	0.915874	0.000833078	0.914917	0.917923
384	20    	0.915874	0.000833078	0.914917	0.917923
385	20    	0.915874	0.000833078	0.914917	0.917923
386	20    	0.915874	0.000833078	0.914917	0.917923
387	20    	0.915874	0.000833078	0.914917	0.917923
388	20    	0.915874	0.000833078	0.914917	0.917923
389	20    	0.915874	0.000833078	0.914917	0.917923
390	20    	0.915912	0.000805595	0.914917	0.917923
391	20    	0.915912	0.000805595	0.914917	0.917923
392	20    	0.915912	0.000805595	0.914917	0.917923
393	20    	0.915949	0.00077534 	0.914917	0.917923
394	20    	0.915949	0.00077534 	0.914917	0.917923
395	20    	0.915949	0.00077534 	0.914917	0.917923
396	20    	0.915949	0.00077534 	0.914917	0.917923
397	20    	0.916061	0.000780126	0.915298	0.917923
398	20    	0.916061	0.000780126	0.915298	0.917923
399	20    	0.916061	0.000780126	0.915298	0.917923
400	20    	0.916061	0.000780126	0.915298	0.917923
401	20    	0.916061	0.000780126	0.915298	0.917923
402	20    	0.916061	0.000780126	0.915298	0.917923
403	20    	0.916061	0.000780126	0.915298	0.917923
404	20    	0.916061	0.000780126	0.915298	0.917923
405	20    	0.916061	0.000780126	0.915298	0.917923
406	20    	0.916061	0.000780126	0.915298	0.917923
407	20    	0.916061	0.000780126	0.915298	0.917923
408	20    	0.916061	0.000780126	0.915298	0.917923
409	20    	0.91608 	0.000766177	0.915298	0.917923
410	20    	0.91608 	0.000766177	0.915298	0.917923
411	20    	0.91608 	0.000766177	0.915298	0.917923
412	20    	0.91608 	0.000766177	0.915298	0.917923
413	20    	0.91608 	0.000766177	0.915298	0.917923
414	20    	0.91608 	0.000766177	0.915298	0.917923
415	20    	0.91608 	0.000766177	0.915298	0.917923
416	20    	0.91608 	0.000766177	0.915298	0.917923
417	20    	0.91608 	0.000766177	0.915298	0.917923
418	20    	0.91608 	0.000766177	0.915298	0.917923
419	20    	0.91608 	0.000766177	0.915298	0.917923
420	20    	0.91608 	0.000766177	0.915298	0.917923
421	20    	0.91608 	0.000766177	0.915298	0.917923
422	20    	0.91608 	0.000766177	0.915298	0.917923
423	20    	0.91608 	0.000766177	0.915298	0.917923
424	20    	0.91608 	0.000766177	0.915298	0.917923
425	20    	0.91608 	0.000766177	0.915298	0.917923
426	20    	0.91608 	0.000766177	0.915298	0.917923
427	20    	0.91608 	0.000766177	0.915298	0.917923
428	20    	0.91608 	0.000766177	0.915298	0.917923
429	20    	0.91608 	0.000766177	0.915298	0.917923
430	20    	0.91608 	0.000766177	0.915298	0.917923
431	20    	0.91608 	0.000766177	0.915298	0.917923
432	20    	0.91608 	0.000766177	0.915298	0.917923
433	20    	0.91608 	0.000766177	0.915298	0.917923
434	20    	0.91608 	0.000766177	0.915298	0.917923
435	20    	0.916098	0.000751523	0.915298	0.917923
436	20    	0.916135	0.000729081	0.915298	0.917923
437	20    	0.916135	0.000729081	0.915298	0.917923
438	20    	0.916248	0.000763421	0.915298	0.917923
439	20    	0.916248	0.000763421	0.915298	0.917923
440	20    	0.916248	0.000763421	0.915298	0.917923
441	20    	0.916248	0.000763421	0.915298	0.917923
442	20    	0.916248	0.000763421	0.915298	0.917923
443	20    	0.916248	0.000763421	0.915298	0.917923
444	20    	0.916248	0.000763421	0.915298	0.917923
445	20    	0.916322	0.000739664	0.915665	0.917923
446	20    	0.916322	0.000739664	0.915665	0.917923
447	20    	0.916435	0.000800519	0.915665	0.917923
448	20    	0.916435	0.000800519	0.915665	0.917923
449	20    	0.91666 	0.00104846 	0.915665	0.919785
450	20    	0.91666 	0.00104846 	0.915665	0.919785
451	20    	0.91666 	0.00104846 	0.915665	0.919785
452	20    	0.91666 	0.00104846 	0.915665	0.919785
453	20    	0.91666 	0.00104846 	0.915665	0.919785
454	20    	0.91666 	0.00104846 	0.915665	0.919785
455	20    	0.916698	0.00102536 	0.915665	0.919785
456	20    	0.916698	0.00102536 	0.915665	0.919785
457	20    	0.916698	0.00102536 	0.915665	0.919785
458	20    	0.916772	0.00100156 	0.915665	0.919785
459	20    	0.916772	0.00100156 	0.915665	0.919785
460	20    	0.916772	0.00100156 	0.915665	0.919785
461	20    	0.916772	0.00100156 	0.915665	0.919785
462	20    	0.916772	0.00100156 	0.915665	0.919785
463	20    	0.916772	0.00100156 	0.915665	0.919785
464	20    	0.916772	0.00100156 	0.915665	0.919785
465	20    	0.916772	0.00100156 	0.915665	0.919785
466	20    	0.916772	0.00100156 	0.915665	0.919785
467	20    	0.916772	0.00100156 	0.915665	0.919785
468	20    	0.916772	0.00100156 	0.915665	0.919785
469	20    	0.916772	0.00100156 	0.915665	0.919785
470	20    	0.916792	0.000983751	0.915665	0.919785
471	20    	0.916792	0.000983751	0.915665	0.919785
472	20    	0.916792	0.000983751	0.915665	0.919785
473	20    	0.916792	0.000983751	0.915665	0.919785
474	20    	0.916792	0.000983751	0.915665	0.919785
475	20    	0.916792	0.000983751	0.915665	0.919785
476	20    	0.916792	0.000983751	0.915665	0.919785
477	20    	0.916829	0.000953975	0.915665	0.919785
478	20    	0.916829	0.000953975	0.915665	0.919785
479	20    	0.916829	0.000953975	0.915665	0.919785
480	20    	0.916829	0.000953975	0.915665	0.919785
481	20    	0.916829	0.000953975	0.915665	0.919785
482	20    	0.916904	0.000917707	0.916046	0.919785
483	20    	0.916904	0.000917707	0.916046	0.919785
484	20    	0.916904	0.000917707	0.916046	0.919785
485	20    	0.916904	0.000917707	0.916046	0.919785
486	20    	0.916904	0.000917707	0.916046	0.919785
487	20    	0.916904	0.000917707	0.916046	0.919785
488	20    	0.916904	0.000917707	0.916046	0.919785
489	20    	0.916904	0.000917707	0.916046	0.919785
490	20    	0.916904	0.000917707	0.916046	0.919785
491	20    	0.916904	0.000917707	0.916046	0.919785
492	20    	0.916904	0.000917707	0.916046	0.919785
493	20    	0.916904	0.000917707	0.916046	0.919785
494	20    	0.916904	0.000917707	0.916046	0.919785
495	20    	0.916904	0.000917707	0.916046	0.919785
496	20    	0.917035	0.000971754	0.916046	0.919785
497	20    	0.917035	0.000971754	0.916046	0.919785
498	20    	0.917035	0.000971754	0.916046	0.919785
499	20    	0.917147	0.000980563	0.916046	0.919785
