gen	nevals	avg     	std       	min     	max     
0  	20    	0.876007	0.0176911 	0.831497	0.915756
1  	20    	0.890474	0.00904097	0.882782	0.915756
2  	20    	0.899265	0.00870987	0.890106	0.919418
3  	20    	0.904209	0.00771138	0.893768	0.92308 
4  	20    	0.905309	0.00707631	0.89743 	0.92308 
5  	20    	0.90769 	0.00816187	0.901093	0.930405
6  	20    	0.910806	0.0090703 	0.901093	0.934067
7  	20    	0.914657	0.00786384	0.904755	0.934067
8  	20    	0.918137	0.00716455	0.908432	0.934067
9  	20    	0.920517	0.00635352	0.912094	0.934067
10 	20    	0.9207  	0.0061579 	0.912094	0.934067
11 	20    	0.92363 	0.00452608	0.919418	0.934067
12 	20    	0.924911	0.00470406	0.919418	0.934067
13 	20    	0.92601 	0.00427072	0.919418	0.934067
14 	20    	0.926743	0.00366211	0.92308 	0.934067
15 	20    	0.927841	0.0046467 	0.92308 	0.941391
16 	20    	0.928574	0.00425499	0.92308 	0.941391
17 	20    	0.929855	0.00352686	0.926743	0.941391
18 	20    	0.930588	0.00374808	0.926743	0.941391
19 	20    	0.932053	0.0039229 	0.926743	0.941391
20 	20    	0.932968	0.00402832	0.930405	0.941391
21 	20    	0.933701	0.00476074	0.930405	0.945053
22 	20    	0.934799	0.00512695	0.930405	0.945053
23 	20    	0.935715	0.00511058	0.930405	0.945053
24 	20    	0.93718 	0.00495062	0.930405	0.945053
25 	20    	0.938644	0.00415532	0.934067	0.945053
26 	20    	0.939011	0.00405735	0.934067	0.945053
27 	20    	0.939743	0.0039229 	0.934067	0.945053
28 	20    	0.939926	0.00373463	0.934067	0.945053
29 	20    	0.940475	0.00303646	0.937729	0.945053
30 	20    	0.94194 	0.00333131	0.937729	0.948715
31 	20    	0.942856	0.00439453	0.937729	0.956039
32 	20    	0.943771	0.00388857	0.937729	0.956039
33 	20    	0.943771	0.00388857	0.937729	0.956039
34 	20    	0.94487 	0.00374808	0.941391	0.956039
35 	20    	0.945236	0.00374808	0.941391	0.956039
36 	20    	0.945419	0.00364375	0.941391	0.956039
37 	20    	0.945602	0.00352686	0.941391	0.956039
38 	20    	0.946335	0.00405735	0.941391	0.956039
39 	20    	0.946335	0.00405735	0.941391	0.956039
40 	20    	0.946335	0.00405735	0.941391	0.956039
41 	20    	0.947067	0.00374808	0.941391	0.956039
42 	20    	0.947067	0.00374808	0.941391	0.956039
43 	20    	0.94725 	0.00355055	0.945053	0.956039
44 	20    	0.947433	0.00352686	0.945053	0.956039
45 	20    	0.947617	0.00349343	0.945053	0.956039
46 	20    	0.947983	0.0033961 	0.945053	0.956039
47 	20    	0.947983	0.0033961 	0.945053	0.956039
48 	20    	0.949265	0.00371212	0.945053	0.956039
49 	20    	0.949448	0.00358812	0.945053	0.956039
50 	20    	0.95018 	0.00355055	0.945053	0.956039
51 	20    	0.95018 	0.00355055	0.945053	0.956039
52 	20    	0.951645	0.00358812	0.948715	0.959702
53 	20    	0.951828	0.00352686	0.948715	0.959702
54 	20    	0.952194	0.00356468	0.948715	0.959702
55 	20    	0.952744	0.00345483	0.948715	0.959702
56 	20    	0.95311 	0.00319255	0.948715	0.959702
57 	20    	0.953476	0.0028602 	0.948715	0.959702
58 	20    	0.953476	0.0028602 	0.948715	0.959702
59 	20    	0.953659	0.00265976	0.948715	0.959702
60 	20    	0.954025	0.00244978	0.948715	0.959702
61 	20    	0.954575	0.00213536	0.952377	0.959702
62 	20    	0.954575	0.00213536	0.952377	0.959702
63 	20    	0.955124	0.00280695	0.952377	0.963364
64 	20    	0.955673	0.00325495	0.952377	0.963364
65 	20    	0.955673	0.00325495	0.952377	0.963364
66 	20    	0.956772	0.00319255	0.952377	0.963364
67 	20    	0.956955	0.00303646	0.952377	0.963364
68 	20    	0.957321	0.00290094	0.952377	0.963364
69 	20    	0.957321	0.00290094	0.952377	0.963364
70 	20    	0.957321	0.00290094	0.952377	0.963364
71 	20    	0.957321	0.00290094	0.952377	0.963364
72 	20    	0.95787 	0.00245662	0.956039	0.963364
73 	20    	0.95787 	0.00245662	0.956039	0.963364
74 	20    	0.95787 	0.00245662	0.956039	0.963364
75 	20    	0.958237	0.00269109	0.956039	0.963364
76 	20    	0.958786	0.0032498 	0.956039	0.967026
77 	20    	0.959152	0.00333131	0.956039	0.967026
78 	20    	0.959518	0.00337133	0.956039	0.967026
79 	20    	0.959518	0.00337133	0.956039	0.967026
80 	20    	0.959518	0.00337133	0.956039	0.967026
81 	20    	0.959518	0.00337133	0.956039	0.967026
82 	20    	0.959702	0.00327549	0.956039	0.967026
83 	20    	0.959885	0.00316619	0.956039	0.967026
84 	20    	0.959885	0.00316619	0.956039	0.967026
85 	20    	0.960068	0.00304198	0.956039	0.967026
86 	20    	0.960251	0.00290094	0.956039	0.967026
87 	20    	0.960434	0.00274047	0.956039	0.967026
88 	20    	0.960434	0.00274047	0.956039	0.967026
89 	20    	0.960434	0.00274047	0.956039	0.967026
90 	20    	0.960617	0.00255693	0.956039	0.967026
91 	20    	0.9608  	0.00234489	0.956039	0.967026
92 	20    	0.9608  	0.00234489	0.956039	0.967026
93 	20    	0.960983	0.00209574	0.959702	0.967026
94 	20    	0.960983	0.00209574	0.959702	0.967026
95 	20    	0.960983	0.00209574	0.959702	0.967026
96 	20    	0.960983	0.00209574	0.959702	0.967026
97 	20    	0.960983	0.00209574	0.959702	0.967026
98 	20    	0.960983	0.00209574	0.959702	0.967026
99 	20    	0.960983	0.00209574	0.959702	0.967026
100	20    	0.960983	0.00209574	0.959702	0.967026
101	20    	0.960983	0.00209574	0.959702	0.967026
102	20    	0.960983	0.00209574	0.959702	0.967026
103	20    	0.960983	0.00209574	0.959702	0.967026
104	20    	0.960983	0.00209574	0.959702	0.967026
105	20    	0.960983	0.00209574	0.959702	0.967026
106	20    	0.961166	0.00213536	0.959702	0.967026
107	20    	0.961166	0.00213536	0.959702	0.967026
108	20    	0.961166	0.00213536	0.959702	0.967026
109	20    	0.961166	0.00213536	0.959702	0.967026
110	20    	0.961166	0.00213536	0.959702	0.967026
111	20    	0.961166	0.00213536	0.959702	0.967026
112	20    	0.961349	0.00215878	0.959702	0.967026
113	20    	0.961533	0.00216653	0.959702	0.967026
114	20    	0.962449	0.00415818	0.959702	0.978027
115	20    	0.962815	0.00422213	0.959702	0.978027
116	20    	0.962815	0.00422213	0.959702	0.978027
117	20    	0.963181	0.00425371	0.959702	0.978027
118	20    	0.963914	0.00481716	0.959702	0.978027
119	20    	0.963914	0.00481716	0.959702	0.978027
120	20    	0.964098	0.00472221	0.959702	0.978027
121	20    	0.964831	0.00469444	0.959702	0.978027
122	20    	0.965197	0.00441452	0.959702	0.978027
123	20    	0.965747	0.00438078	0.959702	0.978027
124	20    	0.966113	0.0041607 	0.963364	0.978027
125	20    	0.966846	0.00484697	0.963364	0.978027
126	20    	0.96703 	0.00478066	0.963364	0.978027
127	20    	0.96703 	0.00478066	0.963364	0.978027
128	20    	0.96703 	0.00478066	0.963364	0.978027
129	20    	0.967213	0.0047063 	0.963364	0.978027
130	20    	0.967213	0.0047063 	0.963364	0.978027
131	20    	0.96758 	0.00467792	0.963364	0.978027
132	20    	0.96813 	0.00479519	0.963364	0.978027
133	20    	0.96813 	0.00479519	0.963364	0.978027
134	20    	0.96813 	0.00479519	0.963364	0.978027
135	20    	0.96813 	0.00479519	0.963364	0.978027
136	20    	0.968497	0.00469622	0.963364	0.978027
137	20    	0.968497	0.00469622	0.963364	0.978027
138	20    	0.969047	0.00441234	0.963364	0.978027
139	20    	0.969047	0.00441234	0.963364	0.978027
140	20    	0.969047	0.00441234	0.963364	0.978027
141	20    	0.969047	0.00441234	0.963364	0.978027
142	20    	0.969047	0.00441234	0.963364	0.978027
143	20    	0.969047	0.00441234	0.963364	0.978027
144	20    	0.969047	0.00441234	0.963364	0.978027
145	20    	0.969414	0.00422567	0.963364	0.978027
146	20    	0.969414	0.00422567	0.963364	0.978027
147	20    	0.969414	0.00422567	0.963364	0.978027
148	20    	0.969597	0.00403456	0.963364	0.978027
149	20    	0.969597	0.00403456	0.963364	0.978027
150	20    	0.969964	0.00377645	0.963364	0.978027
151	20    	0.969964	0.00377645	0.963364	0.978027
152	20    	0.969964	0.00377645	0.963364	0.978027
153	20    	0.969964	0.00377645	0.963364	0.978027
154	20    	0.970147	0.00353292	0.967026	0.978027
155	20    	0.970331	0.00346065	0.967026	0.978027
156	20    	0.970515	0.00337684	0.967026	0.978027
157	20    	0.970882	0.00317083	0.967026	0.978027
158	20    	0.970882	0.00317083	0.967026	0.978027
159	20    	0.970882	0.00317083	0.967026	0.978027
160	20    	0.970882	0.00317083	0.967026	0.978027
161	20    	0.970882	0.00317083	0.967026	0.978027
162	20    	0.970882	0.00317083	0.967026	0.978027
163	20    	0.970882	0.00317083	0.967026	0.978027
164	20    	0.970882	0.00317083	0.967026	0.978027
165	20    	0.970882	0.00317083	0.967026	0.978027
166	20    	0.970882	0.00317083	0.967026	0.978027
167	20    	0.970882	0.00317083	0.967026	0.978027
168	20    	0.970882	0.00317083	0.967026	0.978027
169	20    	0.970882	0.00317083	0.967026	0.978027
170	20    	0.971066	0.00304602	0.967026	0.978027
171	20    	0.971066	0.00304602	0.967026	0.978027
172	20    	0.971616	0.00325303	0.967026	0.978027
173	20    	0.971616	0.00325303	0.967026	0.978027
174	20    	0.971616	0.00325303	0.967026	0.978027
175	20    	0.971616	0.00325303	0.967026	0.978027
176	20    	0.971616	0.00325303	0.967026	0.978027
177	20    	0.971616	0.00325303	0.967026	0.978027
178	20    	0.971616	0.00325303	0.967026	0.978027
179	20    	0.9718  	0.0030881 	0.967026	0.978027
180	20    	0.972167	0.00293102	0.967026	0.978027
181	20    	0.972351	0.00270971	0.970703	0.978027
182	20    	0.972351	0.00270971	0.970703	0.978027
183	20    	0.9729  	0.00335638	0.970703	0.981689
184	20    	0.9729  	0.00335638	0.970703	0.981689
185	20    	0.9729  	0.00335638	0.970703	0.981689
186	20    	0.9729  	0.00335638	0.970703	0.981689
187	20    	0.9729  	0.00335638	0.970703	0.981689
188	20    	0.973083	0.00333131	0.970703	0.981689
189	20    	0.973083	0.00333131	0.970703	0.981689
190	20    	0.973083	0.00333131	0.970703	0.981689
191	20    	0.973083	0.00333131	0.970703	0.981689
192	20    	0.973083	0.00333131	0.970703	0.981689
193	20    	0.973083	0.00333131	0.970703	0.981689
194	20    	0.973083	0.00333131	0.970703	0.981689
195	20    	0.973083	0.00333131	0.970703	0.981689
196	20    	0.973083	0.00333131	0.970703	0.981689
197	20    	0.973083	0.00333131	0.970703	0.981689
198	20    	0.973083	0.00333131	0.970703	0.981689
199	20    	0.97345 	0.00344997	0.970703	0.981689
200	20    	0.97345 	0.00344997	0.970703	0.981689
201	20    	0.97345 	0.00344997	0.970703	0.981689
202	20    	0.97345 	0.00344997	0.970703	0.981689
203	20    	0.973633	0.0033961 	0.970703	0.981689
204	20    	0.973633	0.0033961 	0.970703	0.981689
205	20    	0.974365	0.00366211	0.970703	0.981689
206	20    	0.974365	0.00366211	0.970703	0.981689
207	20    	0.974365	0.00366211	0.970703	0.981689
208	20    	0.974548	0.00356468	0.970703	0.981689
209	20    	0.974548	0.00356468	0.970703	0.981689
210	20    	0.974548	0.00356468	0.970703	0.981689
211	20    	0.974548	0.00356468	0.970703	0.981689
212	20    	0.974731	0.00345483	0.970703	0.981689
213	20    	0.974731	0.00345483	0.970703	0.981689
214	20    	0.974731	0.00345483	0.970703	0.981689
215	20    	0.974731	0.00345483	0.970703	0.981689
216	20    	0.974731	0.00345483	0.970703	0.981689
217	20    	0.975098	0.0033961 	0.970703	0.981689
218	20    	0.975098	0.0033961 	0.970703	0.981689
219	20    	0.975098	0.0033961 	0.970703	0.981689
220	20    	0.975098	0.0033961 	0.970703	0.981689
221	20    	0.975098	0.0033961 	0.970703	0.981689
222	20    	0.975098	0.0033961 	0.970703	0.981689
223	20    	0.975281	0.0032498 	0.970703	0.981689
224	20    	0.975281	0.0032498 	0.970703	0.981689
225	20    	0.975464	0.00308575	0.970703	0.981689
226	20    	0.975464	0.00308575	0.970703	0.981689
227	20    	0.975464	0.00308575	0.970703	0.981689
228	20    	0.975464	0.00308575	0.970703	0.981689
229	20    	0.975464	0.00308575	0.970703	0.981689
230	20    	0.975464	0.00308575	0.970703	0.981689
231	20    	0.975464	0.00308575	0.970703	0.981689
232	20    	0.975464	0.00308575	0.970703	0.981689
233	20    	0.97583 	0.00292969	0.970703	0.981689
234	20    	0.976013	0.00270971	0.970703	0.981689
235	20    	0.976196	0.00245662	0.974365	0.981689
236	20    	0.976379	0.00244978	0.974365	0.981689
237	20    	0.976379	0.00244978	0.974365	0.981689
238	20    	0.976379	0.00244978	0.974365	0.981689
239	20    	0.976746	0.00265976	0.974365	0.981689
240	20    	0.976746	0.00265976	0.974365	0.981689
241	20    	0.976746	0.00265976	0.974365	0.981689
242	20    	0.976746	0.00265976	0.974365	0.981689
243	20    	0.976746	0.00265976	0.974365	0.981689
244	20    	0.976746	0.00265976	0.974365	0.981689
245	20    	0.976746	0.00265976	0.974365	0.981689
246	20    	0.976746	0.00265976	0.974365	0.981689
247	20    	0.976746	0.00265976	0.974365	0.981689
248	20    	0.976746	0.00265976	0.974365	0.981689
249	20    	0.976746	0.00265976	0.974365	0.981689
250	20    	0.976746	0.00265976	0.974365	0.981689
251	20    	0.976746	0.00265976	0.974365	0.981689
252	20    	0.976746	0.00265976	0.974365	0.981689
253	20    	0.976746	0.00265976	0.974365	0.981689
254	20    	0.976746	0.00265976	0.974365	0.981689
255	20    	0.976746	0.00265976	0.974365	0.981689
256	20    	0.976746	0.00265976	0.974365	0.981689
257	20    	0.976746	0.00265976	0.974365	0.981689
258	20    	0.976746	0.00265976	0.974365	0.981689
259	20    	0.976746	0.00265976	0.974365	0.981689
260	20    	0.976746	0.00265976	0.974365	0.981689
261	20    	0.976746	0.00265976	0.974365	0.981689
262	20    	0.976746	0.00265976	0.974365	0.981689
263	20    	0.976746	0.00265976	0.974365	0.981689
264	20    	0.976746	0.00265976	0.974365	0.981689
265	20    	0.976746	0.00265976	0.974365	0.981689
266	20    	0.976746	0.00265976	0.974365	0.981689
267	20    	0.976746	0.00265976	0.974365	0.981689
268	20    	0.976929	0.00261527	0.974365	0.981689
269	20    	0.977112	0.00255693	0.974365	0.981689
270	20    	0.977478	0.00265976	0.974365	0.981689
271	20    	0.977478	0.00265976	0.974365	0.981689
272	20    	0.977478	0.00265976	0.974365	0.981689
273	20    	0.977844	0.00270971	0.974365	0.981689
274	20    	0.977844	0.00270971	0.974365	0.981689
275	20    	0.977844	0.00270971	0.974365	0.981689
276	20    	0.97821 	0.00270971	0.974365	0.981689
277	20    	0.97821 	0.00270971	0.974365	0.981689
278	20    	0.97821 	0.00270971	0.974365	0.981689
279	20    	0.97821 	0.00270971	0.974365	0.981689
280	20    	0.97821 	0.00270971	0.974365	0.981689
281	20    	0.97821 	0.00270971	0.974365	0.981689
282	20    	0.97821 	0.00270971	0.974365	0.981689
283	20    	0.97821 	0.00270971	0.974365	0.981689
284	20    	0.97821 	0.00270971	0.974365	0.981689
285	20    	0.97821 	0.00270971	0.974365	0.981689
286	20    	0.97821 	0.00270971	0.974365	0.981689
287	20    	0.97821 	0.00270971	0.974365	0.981689
288	20    	0.97821 	0.00270971	0.974365	0.981689
289	20    	0.97821 	0.00270971	0.974365	0.981689
290	20    	0.97821 	0.00270971	0.974365	0.981689
291	20    	0.97821 	0.00270971	0.974365	0.981689
292	20    	0.97821 	0.00270971	0.974365	0.981689
293	20    	0.97821 	0.00270971	0.974365	0.981689
294	20    	0.97821 	0.00270971	0.974365	0.981689
295	20    	0.97821 	0.00270971	0.974365	0.981689
296	20    	0.97821 	0.00270971	0.974365	0.981689
297	20    	0.978394	0.00256348	0.974365	0.981689
298	20    	0.978394	0.00256348	0.974365	0.981689
299	20    	0.978394	0.00256348	0.974365	0.981689
300	20    	0.978394	0.00256348	0.974365	0.981689
301	20    	0.978394	0.00256348	0.974365	0.981689
302	20    	0.978394	0.00256348	0.974365	0.981689
303	20    	0.978577	0.00239441	0.974365	0.981689
304	20    	0.978943	0.00227964	0.974365	0.981689
305	20    	0.979126	0.00203898	0.974365	0.981689
306	20    	0.979126	0.00203898	0.974365	0.981689
307	20    	0.979126	0.00203898	0.974365	0.981689
308	20    	0.979126	0.00203898	0.974365	0.981689
309	20    	0.979126	0.00203898	0.974365	0.981689
310	20    	0.979126	0.00203898	0.974365	0.981689
311	20    	0.979309	0.00174671	0.978027	0.981689
312	20    	0.979309	0.00174671	0.978027	0.981689
313	20    	0.979309	0.00174671	0.978027	0.981689
314	20    	0.979309	0.00174671	0.978027	0.981689
315	20    	0.979309	0.00174671	0.978027	0.981689
316	20    	0.979309	0.00174671	0.978027	0.981689
317	20    	0.979309	0.00174671	0.978027	0.981689
318	20    	0.979492	0.00179406	0.978027	0.981689
319	20    	0.979492	0.00179406	0.978027	0.981689
320	20    	0.979492	0.00179406	0.978027	0.981689
321	20    	0.979492	0.00179406	0.978027	0.981689
322	20    	0.979492	0.00179406	0.978027	0.981689
323	20    	0.979492	0.00179406	0.978027	0.981689
324	20    	0.979492	0.00179406	0.978027	0.981689
325	20    	0.979492	0.00179406	0.978027	0.981689
326	20    	0.979492	0.00179406	0.978027	0.981689
327	20    	0.979492	0.00179406	0.978027	0.981689
328	20    	0.979492	0.00179406	0.978027	0.981689
329	20    	0.979492	0.00179406	0.978027	0.981689
330	20    	0.979492	0.00179406	0.978027	0.981689
331	20    	0.979492	0.00179406	0.978027	0.981689
332	20    	0.979492	0.00179406	0.978027	0.981689
333	20    	0.979492	0.00179406	0.978027	0.981689
334	20    	0.979492	0.00179406	0.978027	0.981689
335	20    	0.979492	0.00179406	0.978027	0.981689
336	20    	0.979492	0.00179406	0.978027	0.981689
337	20    	0.979492	0.00179406	0.978027	0.981689
338	20    	0.979492	0.00179406	0.978027	0.981689
339	20    	0.979492	0.00179406	0.978027	0.981689
340	20    	0.979492	0.00179406	0.978027	0.981689
341	20    	0.979492	0.00179406	0.978027	0.981689
342	20    	0.979492	0.00179406	0.978027	0.981689
343	20    	0.979492	0.00179406	0.978027	0.981689
344	20    	0.979492	0.00179406	0.978027	0.981689
345	20    	0.979492	0.00179406	0.978027	0.981689
346	20    	0.979492	0.00179406	0.978027	0.981689
347	20    	0.979492	0.00179406	0.978027	0.981689
348	20    	0.979492	0.00179406	0.978027	0.981689
349	20    	0.979492	0.00179406	0.978027	0.981689
350	20    	0.979492	0.00179406	0.978027	0.981689
351	20    	0.979492	0.00179406	0.978027	0.981689
352	20    	0.979492	0.00179406	0.978027	0.981689
353	20    	0.979492	0.00179406	0.978027	0.981689
354	20    	0.979675	0.00182188	0.978027	0.981689
355	20    	0.979675	0.00182188	0.978027	0.981689
356	20    	0.979675	0.00182188	0.978027	0.981689
357	20    	0.979675	0.00182188	0.978027	0.981689
358	20    	0.979675	0.00182188	0.978027	0.981689
359	20    	0.979675	0.00182188	0.978027	0.981689
360	20    	0.979675	0.00182188	0.978027	0.981689
361	20    	0.979675	0.00182188	0.978027	0.981689
362	20    	0.979675	0.00182188	0.978027	0.981689
363	20    	0.979675	0.00182188	0.978027	0.981689
364	20    	0.979675	0.00182188	0.978027	0.981689
365	20    	0.979675	0.00182188	0.978027	0.981689
366	20    	0.979675	0.00182188	0.978027	0.981689
367	20    	0.979675	0.00182188	0.978027	0.981689
368	20    	0.979858	0.00183105	0.978027	0.981689
369	20    	0.979858	0.00183105	0.978027	0.981689
370	20    	0.979858	0.00183105	0.978027	0.981689
371	20    	0.979858	0.00183105	0.978027	0.981689
372	20    	0.979858	0.00183105	0.978027	0.981689
373	20    	0.979858	0.00183105	0.978027	0.981689
374	20    	0.979858	0.00183105	0.978027	0.981689
375	20    	0.980042	0.00182188	0.978027	0.981689
376	20    	0.980042	0.00182188	0.978027	0.981689
377	20    	0.980042	0.00182188	0.978027	0.981689
378	20    	0.980042	0.00182188	0.978027	0.981689
379	20    	0.980042	0.00182188	0.978027	0.981689
380	20    	0.980042	0.00182188	0.978027	0.981689
381	20    	0.980042	0.00182188	0.978027	0.981689
382	20    	0.980042	0.00182188	0.978027	0.981689
383	20    	0.980042	0.00182188	0.978027	0.981689
384	20    	0.980042	0.00182188	0.978027	0.981689
385	20    	0.980042	0.00182188	0.978027	0.981689
386	20    	0.980042	0.00182188	0.978027	0.981689
387	20    	0.980042	0.00182188	0.978027	0.981689
388	20    	0.980042	0.00182188	0.978027	0.981689
389	20    	0.980042	0.00182188	0.978027	0.981689
390	20    	0.980042	0.00182188	0.978027	0.981689
391	20    	0.980042	0.00182188	0.978027	0.981689
392	20    	0.980225	0.00179406	0.978027	0.981689
393	20    	0.980225	0.00179406	0.978027	0.981689
394	20    	0.980225	0.00179406	0.978027	0.981689
395	20    	0.980225	0.00179406	0.978027	0.981689
396	20    	0.980225	0.00179406	0.978027	0.981689
397	20    	0.980225	0.00179406	0.978027	0.981689
398	20    	0.980408	0.00174671	0.978027	0.981689
399	20    	0.980408	0.00174671	0.978027	0.981689
400	20    	0.980408	0.00174671	0.978027	0.981689
401	20    	0.980408	0.00174671	0.978027	0.981689
402	20    	0.980408	0.00174671	0.978027	0.981689
403	20    	0.980408	0.00174671	0.978027	0.981689
404	20    	0.980408	0.00174671	0.978027	0.981689
405	20    	0.980408	0.00174671	0.978027	0.981689
406	20    	0.980408	0.00174671	0.978027	0.981689
407	20    	0.980408	0.00174671	0.978027	0.981689
408	20    	0.980408	0.00174671	0.978027	0.981689
409	20    	0.980408	0.00174671	0.978027	0.981689
410	20    	0.980408	0.00174671	0.978027	0.981689
411	20    	0.980408	0.00174671	0.978027	0.981689
412	20    	0.980408	0.00174671	0.978027	0.981689
413	20    	0.980408	0.00174671	0.978027	0.981689
414	20    	0.980408	0.00174671	0.978027	0.981689
415	20    	0.980408	0.00174671	0.978027	0.981689
416	20    	0.980408	0.00174671	0.978027	0.981689
417	20    	0.980408	0.00174671	0.978027	0.981689
418	20    	0.980591	0.00167819	0.978027	0.981689
419	20    	0.980591	0.00167819	0.978027	0.981689
420	20    	0.980591	0.00167819	0.978027	0.981689
421	20    	0.980591	0.00167819	0.978027	0.981689
422	20    	0.980591	0.00167819	0.978027	0.981689
423	20    	0.980774	0.00158574	0.978027	0.981689
424	20    	0.980774	0.00158574	0.978027	0.981689
425	20    	0.980774	0.00158574	0.978027	0.981689
426	20    	0.980774	0.00158574	0.978027	0.981689
427	20    	0.980774	0.00158574	0.978027	0.981689
428	20    	0.980774	0.00158574	0.978027	0.981689
429	20    	0.980774	0.00158574	0.978027	0.981689
430	20    	0.980774	0.00158574	0.978027	0.981689
431	20    	0.980774	0.00158574	0.978027	0.981689
432	20    	0.980774	0.00158574	0.978027	0.981689
433	20    	0.980774	0.00158574	0.978027	0.981689
434	20    	0.980774	0.00158574	0.978027	0.981689
435	20    	0.980774	0.00158574	0.978027	0.981689
436	20    	0.980774	0.00158574	0.978027	0.981689
437	20    	0.980774	0.00158574	0.978027	0.981689
438	20    	0.980774	0.00158574	0.978027	0.981689
439	20    	0.980774	0.00158574	0.978027	0.981689
440	20    	0.980774	0.00158574	0.978027	0.981689
441	20    	0.980774	0.00158574	0.978027	0.981689
442	20    	0.980774	0.00158574	0.978027	0.981689
443	20    	0.980774	0.00158574	0.978027	0.981689
444	20    	0.980774	0.00158574	0.978027	0.981689
445	20    	0.980774	0.00158574	0.978027	0.981689
446	20    	0.980774	0.00158574	0.978027	0.981689
447	20    	0.980774	0.00158574	0.978027	0.981689
448	20    	0.980774	0.00158574	0.978027	0.981689
449	20    	0.980774	0.00158574	0.978027	0.981689
450	20    	0.980774	0.00158574	0.978027	0.981689
451	20    	0.980774	0.00158574	0.978027	0.981689
452	20    	0.980774	0.00158574	0.978027	0.981689
453	20    	0.980774	0.00158574	0.978027	0.981689
454	20    	0.980774	0.00158574	0.978027	0.981689
455	20    	0.980774	0.00158574	0.978027	0.981689
456	20    	0.980774	0.00158574	0.978027	0.981689
457	20    	0.980774	0.00158574	0.978027	0.981689
458	20    	0.980774	0.00158574	0.978027	0.981689
459	20    	0.980774	0.00158574	0.978027	0.981689
460	20    	0.980774	0.00158574	0.978027	0.981689
461	20    	0.980774	0.00158574	0.978027	0.981689
462	20    	0.980957	0.00146484	0.978027	0.981689
463	20    	0.980957	0.00146484	0.978027	0.981689
464	20    	0.98114 	0.00130763	0.978027	0.981689
465	20    	0.98114 	0.00130763	0.978027	0.981689
466	20    	0.98114 	0.00130763	0.978027	0.981689
467	20    	0.98114 	0.00130763	0.978027	0.981689
468	20    	0.98114 	0.00130763	0.978027	0.981689
469	20    	0.98114 	0.00130763	0.978027	0.981689
470	20    	0.98114 	0.00130763	0.978027	0.981689
471	20    	0.98114 	0.00130763	0.978027	0.981689
472	20    	0.98114 	0.00130763	0.978027	0.981689
473	20    	0.98114 	0.00130763	0.978027	0.981689
474	20    	0.98114 	0.00130763	0.978027	0.981689
475	20    	0.98114 	0.00130763	0.978027	0.981689
476	20    	0.98114 	0.00130763	0.978027	0.981689
477	20    	0.98114 	0.00130763	0.978027	0.981689
478	20    	0.98114 	0.00130763	0.978027	0.981689
479	20    	0.98114 	0.00130763	0.978027	0.981689
480	20    	0.98114 	0.00130763	0.978027	0.981689
481	20    	0.98114 	0.00130763	0.978027	0.981689
482	20    	0.98114 	0.00130763	0.978027	0.981689
483	20    	0.98114 	0.00130763	0.978027	0.981689
484	20    	0.98114 	0.00130763	0.978027	0.981689
485	20    	0.98114 	0.00130763	0.978027	0.981689
486	20    	0.98114 	0.00130763	0.978027	0.981689
487	20    	0.98114 	0.00130763	0.978027	0.981689
488	20    	0.98114 	0.00130763	0.978027	0.981689
489	20    	0.98114 	0.00130763	0.978027	0.981689
490	20    	0.98114 	0.00130763	0.978027	0.981689
491	20    	0.98114 	0.00130763	0.978027	0.981689
492	20    	0.98114 	0.00130763	0.978027	0.981689
493	20    	0.98114 	0.00130763	0.978027	0.981689
494	20    	0.98114 	0.00130763	0.978027	0.981689
495	20    	0.98114 	0.00130763	0.978027	0.981689
496	20    	0.981323	0.00109863	0.978027	0.981689
497	20    	0.981323	0.00109863	0.978027	0.981689
498	20    	0.981689	0.00115806	0.978027	0.985352
499	20    	0.981689	0.00115806	0.978027	0.985352
