gen	nevals	avg     	std       	min     	max     
0  	20    	0.873698	0.00989287	0.851791	0.889297
1  	20    	0.881655	0.00525021	0.873749	0.891129
2  	20    	0.885635	0.0035811 	0.881973	0.893875
3  	20    	0.887878	0.00315126	0.883804	0.893875
4  	20    	0.89035 	0.00254502	0.885635	0.895706
5  	20    	0.893599	0.00286445	0.890213	0.899353
6  	20    	0.895474	0.0027551 	0.891129	0.900269
7  	20    	0.897486	0.00216949	0.893875	0.9021  
8  	20    	0.899084	0.00163439	0.896622	0.9021  
9  	20    	0.899632	0.00173489	0.897537	0.903931
10 	20    	0.901413	0.00314327	0.898438	0.911255
11 	20    	0.902512	0.00346784	0.899353	0.911255
12 	20    	0.903427	0.00366754	0.900269	0.911255
13 	20    	0.904984	0.0032014 	0.901184	0.911255
14 	20    	0.905899	0.00298461	0.9021  	0.911255
15 	20    	0.906906	0.00281999	0.903931	0.91217 
16 	20    	0.907501	0.00257164	0.903931	0.91217 
17 	20    	0.908279	0.00258748	0.904846	0.913086
18 	20    	0.908875	0.00225004	0.905762	0.913086
19 	20    	0.909103	0.00207312	0.905762	0.913086
20 	20    	0.910568	0.00208521	0.907593	0.916748
21 	20    	0.910751	0.00193076	0.908508	0.916748
22 	20    	0.910843	0.00184189	0.908508	0.916748
23 	20    	0.91185 	0.0020528 	0.909424	0.916748
24 	20    	0.912537	0.00221247	0.910339	0.917664
25 	20    	0.912628	0.00215684	0.910339	0.917664
26 	20    	0.912628	0.00215684	0.910339	0.917664
27 	20    	0.913361	0.00235381	0.910339	0.917664
28 	20    	0.913361	0.00235381	0.910339	0.917664
29 	20    	0.913406	0.00230297	0.911255	0.917664
30 	20    	0.913406	0.00230297	0.911255	0.917664
31 	20    	0.913589	0.00226997	0.911255	0.917664
32 	20    	0.913681	0.0022101 	0.911255	0.917664
33 	20    	0.914368	0.00223133	0.911255	0.918579
34 	20    	0.915374	0.0036306 	0.91217 	0.928635
35 	20    	0.916151	0.00413379	0.91217 	0.928635
36 	20    	0.916289	0.0040439 	0.913086	0.928635
37 	20    	0.916701	0.00386359	0.913086	0.928635
38 	20    	0.917249	0.00408397	0.913086	0.928635
39 	20    	0.917249	0.00408397	0.913086	0.928635
40 	20    	0.917661	0.00398579	0.914001	0.928635
41 	20    	0.917982	0.00393598	0.914001	0.928635
42 	20    	0.918211	0.00382953	0.914001	0.928635
43 	20    	0.918256	0.00378414	0.914917	0.928635
44 	20    	0.919537	0.00392642	0.914917	0.928635
45 	20    	0.91972 	0.00378973	0.915833	0.928635
46 	20    	0.920451	0.00354521	0.916748	0.928635
47 	20    	0.920817	0.00332621	0.917664	0.928635
48 	20    	0.920817	0.00332621	0.917664	0.928635
49 	20    	0.920908	0.00324988	0.917664	0.928635
50 	20    	0.921136	0.00317334	0.917664	0.928635
51 	20    	0.921136	0.00317334	0.917664	0.928635
52 	20    	0.921274	0.00307807	0.917664	0.928635
53 	20    	0.921274	0.00307807	0.917664	0.928635
54 	20    	0.92132 	0.00303048	0.918579	0.928635
55 	20    	0.92132 	0.00303048	0.918579	0.928635
56 	20    	0.921365	0.00299545	0.918579	0.928635
57 	20    	0.921867	0.0028221 	0.918579	0.928635
58 	20    	0.921959	0.00274252	0.918579	0.928635
59 	20    	0.921959	0.00274252	0.918579	0.928635
60 	20    	0.922096	0.00260458	0.919495	0.928635
61 	20    	0.92237 	0.00260462	0.919495	0.928635
62 	20    	0.923009	0.0028061 	0.92041 	0.928635
63 	20    	0.923192	0.00274918	0.92041 	0.928635
64 	20    	0.923192	0.00274918	0.92041 	0.928635
65 	20    	0.923419	0.00263571	0.92041 	0.928635
66 	20    	0.923419	0.00263571	0.92041 	0.928635
67 	20    	0.923419	0.00263571	0.92041 	0.928635
68 	20    	0.923419	0.00263571	0.92041 	0.928635
69 	20    	0.923692	0.00246139	0.92041 	0.928635
70 	20    	0.923737	0.00240863	0.92041 	0.928635
71 	20    	0.923737	0.00240863	0.92041 	0.928635
72 	20    	0.923874	0.00229065	0.92131 	0.928635
73 	20    	0.923874	0.00229065	0.92131 	0.928635
74 	20    	0.92424 	0.00215878	0.92131 	0.928635
75 	20    	0.92424 	0.00215878	0.92131 	0.928635
76 	20    	0.92424 	0.00215878	0.92131 	0.928635
77 	20    	0.92424 	0.00215878	0.92131 	0.928635
78 	20    	0.924286	0.00210522	0.92131 	0.928635
79 	20    	0.924286	0.00210522	0.92131 	0.928635
80 	20    	0.924515	0.00201624	0.92131 	0.928635
81 	20    	0.924515	0.00201624	0.92131 	0.928635
82 	20    	0.924515	0.00201624	0.92131 	0.928635
83 	20    	0.924789	0.00193348	0.922226	0.928635
84 	20    	0.924973	0.00176105	0.922226	0.928635
85 	20    	0.92511 	0.00164477	0.923141	0.928635
86 	20    	0.92511 	0.00164477	0.923141	0.928635
87 	20    	0.92511 	0.00164477	0.923141	0.928635
88 	20    	0.92511 	0.00164477	0.923141	0.928635
89 	20    	0.92511 	0.00164477	0.923141	0.928635
90 	20    	0.92511 	0.00164477	0.923141	0.928635
91 	20    	0.925201	0.00158243	0.923141	0.928635
92 	20    	0.925201	0.00158243	0.923141	0.928635
93 	20    	0.925201	0.00158243	0.923141	0.928635
94 	20    	0.925201	0.00158243	0.923141	0.928635
95 	20    	0.925293	0.00151201	0.924057	0.928635
96 	20    	0.925293	0.00151201	0.924057	0.928635
97 	20    	0.925293	0.00151201	0.924057	0.928635
98 	20    	0.925293	0.00151201	0.924057	0.928635
99 	20    	0.925293	0.00151201	0.924057	0.928635
100	20    	0.925293	0.00151201	0.924057	0.928635
101	20    	0.925293	0.00151201	0.924057	0.928635
102	20    	0.925293	0.00151201	0.924057	0.928635
103	20    	0.925293	0.00151201	0.924057	0.928635
104	20    	0.925293	0.00151201	0.924057	0.928635
105	20    	0.92543 	0.00151823	0.924057	0.928635
106	20    	0.92543 	0.00151823	0.924057	0.928635
107	20    	0.92543 	0.00151823	0.924057	0.928635
108	20    	0.92543 	0.00151823	0.924057	0.928635
109	20    	0.92543 	0.00151823	0.924057	0.928635
110	20    	0.92543 	0.00151823	0.924057	0.928635
111	20    	0.925476	0.00148967	0.924057	0.928635
112	20    	0.925476	0.00148967	0.924057	0.928635
113	20    	0.925476	0.00148967	0.924057	0.928635
114	20    	0.925476	0.00148967	0.924057	0.928635
115	20    	0.925522	0.00145911	0.924057	0.928635
116	20    	0.925522	0.00145911	0.924057	0.928635
117	20    	0.925522	0.00145911	0.924057	0.928635
118	20    	0.925522	0.00145911	0.924057	0.928635
119	20    	0.925522	0.00145911	0.924057	0.928635
120	20    	0.925522	0.00145911	0.924057	0.928635
121	20    	0.925522	0.00145911	0.924057	0.928635
122	20    	0.925522	0.00145911	0.924057	0.928635
123	20    	0.925934	0.00162425	0.924057	0.92955 
124	20    	0.925934	0.00162425	0.924057	0.92955 
125	20    	0.925934	0.00162425	0.924057	0.92955 
126	20    	0.926117	0.0016087 	0.924057	0.92955 
127	20    	0.926208	0.00153947	0.924057	0.92955 
128	20    	0.926208	0.00153947	0.924057	0.92955 
129	20    	0.926346	0.00146198	0.924057	0.92955 
130	20    	0.926346	0.00146198	0.924057	0.92955 
131	20    	0.926346	0.00146198	0.924057	0.92955 
132	20    	0.926346	0.00146198	0.924057	0.92955 
133	20    	0.926346	0.00146198	0.924057	0.92955 
134	20    	0.926392	0.00140273	0.924973	0.92955 
135	20    	0.926392	0.00140273	0.924973	0.92955 
136	20    	0.926392	0.00140273	0.924973	0.92955 
137	20    	0.926392	0.00140273	0.924973	0.92955 
138	20    	0.926392	0.00140273	0.924973	0.92955 
139	20    	0.926575	0.00144395	0.924973	0.92955 
140	20    	0.926575	0.00144395	0.924973	0.92955 
141	20    	0.926575	0.00144395	0.924973	0.92955 
142	20    	0.926575	0.00144395	0.924973	0.92955 
143	20    	0.926575	0.00144395	0.924973	0.92955 
144	20    	0.927032	0.00214466	0.924973	0.934128
145	20    	0.927032	0.00214466	0.924973	0.934128
146	20    	0.927078	0.00210969	0.924973	0.934128
147	20    	0.927216	0.00205688	0.924973	0.934128
148	20    	0.927216	0.00205688	0.924973	0.934128
149	20    	0.927216	0.00205688	0.924973	0.934128
150	20    	0.927216	0.00205688	0.924973	0.934128
151	20    	0.927216	0.00205688	0.924973	0.934128
152	20    	0.927216	0.00205688	0.924973	0.934128
153	20    	0.927216	0.00205688	0.924973	0.934128
154	20    	0.927536	0.00217811	0.924973	0.934128
155	20    	0.927536	0.00217811	0.924973	0.934128
156	20    	0.927673	0.00209724	0.924973	0.934128
157	20    	0.927673	0.00209724	0.924973	0.934128
158	20    	0.927673	0.00209724	0.924973	0.934128
159	20    	0.927765	0.00201572	0.925888	0.934128
160	20    	0.927765	0.00201572	0.925888	0.934128
161	20    	0.927948	0.00200321	0.925888	0.934128
162	20    	0.928223	0.00207716	0.925888	0.934128
163	20    	0.928223	0.00207716	0.925888	0.934128
164	20    	0.928223	0.00207716	0.925888	0.934128
165	20    	0.928223	0.00207716	0.925888	0.934128
166	20    	0.928223	0.00207716	0.925888	0.934128
167	20    	0.928543	0.00218387	0.925888	0.934128
168	20    	0.92868 	0.00209724	0.925888	0.934128
169	20    	0.92868 	0.00209724	0.925888	0.934128
170	20    	0.92868 	0.00209724	0.925888	0.934128
171	20    	0.92868 	0.00209724	0.925888	0.934128
172	20    	0.928726	0.00204513	0.926804	0.934128
173	20    	0.928726	0.00204513	0.926804	0.934128
174	20    	0.928726	0.00204513	0.926804	0.934128
175	20    	0.928726	0.00204513	0.926804	0.934128
176	20    	0.928726	0.00204513	0.926804	0.934128
177	20    	0.928726	0.00204513	0.926804	0.934128
178	20    	0.928726	0.00204513	0.926804	0.934128
179	20    	0.928726	0.00204513	0.926804	0.934128
180	20    	0.928726	0.00204513	0.926804	0.934128
181	20    	0.928726	0.00204513	0.926804	0.934128
182	20    	0.928726	0.00204513	0.926804	0.934128
183	20    	0.928726	0.00204513	0.926804	0.934128
184	20    	0.928772	0.00201156	0.926804	0.934128
185	20    	0.928772	0.00201156	0.926804	0.934128
186	20    	0.928772	0.00201156	0.926804	0.934128
187	20    	0.928772	0.00201156	0.926804	0.934128
188	20    	0.928772	0.00201156	0.926804	0.934128
189	20    	0.928772	0.00201156	0.926804	0.934128
190	20    	0.928772	0.00201156	0.926804	0.934128
191	20    	0.928772	0.00201156	0.926804	0.934128
192	20    	0.928772	0.00201156	0.926804	0.934128
193	20    	0.928772	0.00201156	0.926804	0.934128
194	20    	0.928772	0.00201156	0.926804	0.934128
195	20    	0.928772	0.00201156	0.926804	0.934128
196	20    	0.928772	0.00201156	0.926804	0.934128
197	20    	0.928955	0.00199061	0.926804	0.934128
198	20    	0.928955	0.00199061	0.926804	0.934128
199	20    	0.928955	0.00199061	0.926804	0.934128
200	20    	0.928955	0.00199061	0.926804	0.934128
201	20    	0.929047	0.00193076	0.926804	0.934128
202	20    	0.929047	0.00193076	0.926804	0.934128
203	20    	0.929047	0.00193076	0.926804	0.934128
204	20    	0.929138	0.00186451	0.926804	0.934128
205	20    	0.929138	0.00186451	0.926804	0.934128
206	20    	0.929138	0.00186451	0.926804	0.934128
207	20    	0.929184	0.00181727	0.926804	0.934128
208	20    	0.929184	0.00181727	0.926804	0.934128
209	20    	0.929184	0.00181727	0.926804	0.934128
210	20    	0.929184	0.00181727	0.926804	0.934128
211	20    	0.92923 	0.00176758	0.927719	0.934128
212	20    	0.92923 	0.00176758	0.927719	0.934128
213	20    	0.929642	0.00225933	0.927719	0.935959
214	20    	0.929642	0.00225933	0.927719	0.935959
215	20    	0.929642	0.00225933	0.927719	0.935959
216	20    	0.929642	0.00225933	0.927719	0.935959
217	20    	0.929642	0.00225933	0.927719	0.935959
218	20    	0.929871	0.00228469	0.927719	0.935959
219	20    	0.929962	0.00223274	0.927719	0.935959
220	20    	0.929962	0.00223274	0.927719	0.935959
221	20    	0.929962	0.00223274	0.927719	0.935959
222	20    	0.930008	0.00219536	0.927719	0.935959
223	20    	0.930008	0.00219536	0.927719	0.935959
224	20    	0.930008	0.00219536	0.927719	0.935959
225	20    	0.93042 	0.00248165	0.927719	0.935959
226	20    	0.930511	0.00241316	0.927719	0.935959
227	20    	0.930511	0.00241316	0.927719	0.935959
228	20    	0.930695	0.0023319 	0.928635	0.935959
229	20    	0.930695	0.0023319 	0.928635	0.935959
230	20    	0.930695	0.0023319 	0.928635	0.935959
231	20    	0.930695	0.0023319 	0.928635	0.935959
232	20    	0.93074 	0.00229978	0.928635	0.935959
233	20    	0.93074 	0.00229978	0.928635	0.935959
234	20    	0.93074 	0.00229978	0.928635	0.935959
235	20    	0.93074 	0.00229978	0.928635	0.935959
236	20    	0.93074 	0.00229978	0.928635	0.935959
237	20    	0.930786	0.00226628	0.928635	0.935959
238	20    	0.930786	0.00226628	0.928635	0.935959
239	20    	0.930786	0.00226628	0.928635	0.935959
240	20    	0.930786	0.00226628	0.928635	0.935959
241	20    	0.930786	0.00226628	0.928635	0.935959
242	20    	0.930786	0.00226628	0.928635	0.935959
243	20    	0.930832	0.00223133	0.928635	0.935959
244	20    	0.930832	0.00223133	0.928635	0.935959
245	20    	0.930832	0.00223133	0.928635	0.935959
246	20    	0.930969	0.00213683	0.928635	0.935959
247	20    	0.930969	0.00213683	0.928635	0.935959
248	20    	0.930969	0.00213683	0.928635	0.935959
249	20    	0.930969	0.00213683	0.928635	0.935959
250	20    	0.930969	0.00213683	0.928635	0.935959
251	20    	0.931198	0.0021196 	0.928635	0.935959
252	20    	0.931198	0.0021196 	0.928635	0.935959
253	20    	0.931198	0.0021196 	0.928635	0.935959
254	20    	0.931198	0.0021196 	0.928635	0.935959
255	20    	0.931198	0.0021196 	0.928635	0.935959
256	20    	0.931198	0.0021196 	0.928635	0.935959
257	20    	0.931198	0.0021196 	0.928635	0.935959
258	20    	0.931198	0.0021196 	0.928635	0.935959
259	20    	0.931198	0.0021196 	0.928635	0.935959
260	20    	0.931198	0.0021196 	0.928635	0.935959
261	20    	0.931198	0.0021196 	0.928635	0.935959
262	20    	0.931198	0.0021196 	0.928635	0.935959
263	20    	0.931198	0.0021196 	0.928635	0.935959
264	20    	0.931198	0.0021196 	0.928635	0.935959
265	20    	0.93129 	0.00204513	0.92955 	0.935959
266	20    	0.93129 	0.00204513	0.92955 	0.935959
267	20    	0.93129 	0.00204513	0.92955 	0.935959
268	20    	0.93129 	0.00204513	0.92955 	0.935959
269	20    	0.93129 	0.00204513	0.92955 	0.935959
270	20    	0.93129 	0.00204513	0.92955 	0.935959
271	20    	0.93129 	0.00204513	0.92955 	0.935959
272	20    	0.931381	0.00200582	0.92955 	0.935959
273	20    	0.931381	0.00200582	0.92955 	0.935959
274	20    	0.931381	0.00200582	0.92955 	0.935959
275	20    	0.931381	0.00200582	0.92955 	0.935959
276	20    	0.931381	0.00200582	0.92955 	0.935959
277	20    	0.931381	0.00200582	0.92955 	0.935959
278	20    	0.931381	0.00200582	0.92955 	0.935959
279	20    	0.931381	0.00200582	0.92955 	0.935959
280	20    	0.931381	0.00200582	0.92955 	0.935959
281	20    	0.931381	0.00200582	0.92955 	0.935959
282	20    	0.931381	0.00200582	0.92955 	0.935959
283	20    	0.931381	0.00200582	0.92955 	0.935959
284	20    	0.931473	0.00193997	0.92955 	0.935959
285	20    	0.931473	0.00193997	0.92955 	0.935959
286	20    	0.931473	0.00193997	0.92955 	0.935959
287	20    	0.931473	0.00193997	0.92955 	0.935959
288	20    	0.931473	0.00193997	0.92955 	0.935959
289	20    	0.931473	0.00193997	0.92955 	0.935959
290	20    	0.931473	0.00193997	0.92955 	0.935959
291	20    	0.931473	0.00193997	0.92955 	0.935959
292	20    	0.931473	0.00193997	0.92955 	0.935959
293	20    	0.931473	0.00193997	0.92955 	0.935959
294	20    	0.931473	0.00193997	0.92955 	0.935959
295	20    	0.93161 	0.00189572	0.92955 	0.935959
296	20    	0.93161 	0.00189572	0.92955 	0.935959
297	20    	0.93161 	0.00189572	0.92955 	0.935959
298	20    	0.931885	0.0019737 	0.92955 	0.935959
299	20    	0.931885	0.0019737 	0.92955 	0.935959
300	20    	0.931885	0.0019737 	0.92955 	0.935959
301	20    	0.931885	0.0019737 	0.92955 	0.935959
302	20    	0.931885	0.0019737 	0.92955 	0.935959
303	20    	0.931885	0.0019737 	0.92955 	0.935959
304	20    	0.931885	0.0019737 	0.92955 	0.935959
305	20    	0.931885	0.0019737 	0.92955 	0.935959
306	20    	0.931885	0.0019737 	0.92955 	0.935959
307	20    	0.931885	0.0019737 	0.92955 	0.935959
308	20    	0.931976	0.00190454	0.92955 	0.935959
309	20    	0.932022	0.00185606	0.92955 	0.935959
310	20    	0.932022	0.00185606	0.92955 	0.935959
311	20    	0.932022	0.00185606	0.92955 	0.935959
312	20    	0.932022	0.00185606	0.92955 	0.935959
313	20    	0.932022	0.00185606	0.92955 	0.935959
314	20    	0.932022	0.00185606	0.92955 	0.935959
315	20    	0.932022	0.00185606	0.92955 	0.935959
316	20    	0.932022	0.00185606	0.92955 	0.935959
317	20    	0.932022	0.00185606	0.92955 	0.935959
318	20    	0.932022	0.00185606	0.92955 	0.935959
319	20    	0.932022	0.00185606	0.92955 	0.935959
320	20    	0.932068	0.00180512	0.930466	0.935959
321	20    	0.932068	0.00180512	0.930466	0.935959
322	20    	0.932114	0.00177527	0.930466	0.935959
323	20    	0.932114	0.00177527	0.930466	0.935959
324	20    	0.932114	0.00177527	0.930466	0.935959
325	20    	0.932114	0.00177527	0.930466	0.935959
326	20    	0.932114	0.00177527	0.930466	0.935959
327	20    	0.932114	0.00177527	0.930466	0.935959
328	20    	0.932114	0.00177527	0.930466	0.935959
329	20    	0.932114	0.00177527	0.930466	0.935959
330	20    	0.932114	0.00177527	0.930466	0.935959
331	20    	0.932205	0.00173468	0.930466	0.935959
332	20    	0.932205	0.00173468	0.930466	0.935959
333	20    	0.932251	0.0016999 	0.930466	0.935959
334	20    	0.932251	0.0016999 	0.930466	0.935959
335	20    	0.932251	0.0016999 	0.930466	0.935959
336	20    	0.932251	0.0016999 	0.930466	0.935959
337	20    	0.932251	0.0016999 	0.930466	0.935959
338	20    	0.932251	0.0016999 	0.930466	0.935959
339	20    	0.932251	0.0016999 	0.930466	0.935959
340	20    	0.932251	0.0016999 	0.930466	0.935959
341	20    	0.932251	0.0016999 	0.930466	0.935959
342	20    	0.932251	0.0016999 	0.930466	0.935959
343	20    	0.932251	0.0016999 	0.930466	0.935959
344	20    	0.932251	0.0016999 	0.930466	0.935959
345	20    	0.932251	0.0016999 	0.930466	0.935959
346	20    	0.932251	0.0016999 	0.930466	0.935959
347	20    	0.932251	0.0016999 	0.930466	0.935959
348	20    	0.932251	0.0016999 	0.930466	0.935959
349	20    	0.932251	0.0016999 	0.930466	0.935959
350	20    	0.932343	0.00164986	0.930466	0.935959
351	20    	0.932343	0.00164986	0.930466	0.935959
352	20    	0.932343	0.00164986	0.930466	0.935959
353	20    	0.932343	0.00164986	0.930466	0.935959
354	20    	0.932343	0.00164986	0.930466	0.935959
355	20    	0.932343	0.00164986	0.930466	0.935959
356	20    	0.932343	0.00164986	0.930466	0.935959
357	20    	0.932388	0.00160935	0.930466	0.935959
358	20    	0.932388	0.00160935	0.930466	0.935959
359	20    	0.93248 	0.0015483 	0.930466	0.935959
360	20    	0.93248 	0.0015483 	0.930466	0.935959
361	20    	0.93248 	0.0015483 	0.930466	0.935959
362	20    	0.93248 	0.0015483 	0.930466	0.935959
363	20    	0.932571	0.00147908	0.931381	0.935959
364	20    	0.932571	0.00147908	0.931381	0.935959
365	20    	0.932709	0.00148967	0.931381	0.935959
366	20    	0.932709	0.00148967	0.931381	0.935959
367	20    	0.932709	0.00148967	0.931381	0.935959
368	20    	0.9328  	0.00146126	0.931381	0.935959
369	20    	0.9328  	0.00146126	0.931381	0.935959
370	20    	0.9328  	0.00146126	0.931381	0.935959
371	20    	0.9328  	0.00146126	0.931381	0.935959
372	20    	0.9328  	0.00146126	0.931381	0.935959
373	20    	0.9328  	0.00146126	0.931381	0.935959
374	20    	0.932892	0.00142643	0.931381	0.935959
375	20    	0.932938	0.00139148	0.931381	0.935959
376	20    	0.933075	0.00136641	0.931381	0.935959
377	20    	0.933075	0.00136641	0.931381	0.935959
378	20    	0.933075	0.00136641	0.931381	0.935959
379	20    	0.933075	0.00136641	0.931381	0.935959
380	20    	0.933075	0.00136641	0.931381	0.935959
381	20    	0.933075	0.00136641	0.931381	0.935959
382	20    	0.933075	0.00136641	0.931381	0.935959
383	20    	0.933075	0.00136641	0.931381	0.935959
384	20    	0.933075	0.00136641	0.931381	0.935959
385	20    	0.933075	0.00136641	0.931381	0.935959
386	20    	0.933075	0.00136641	0.931381	0.935959
387	20    	0.933075	0.00136641	0.931381	0.935959
388	20    	0.933075	0.00136641	0.931381	0.935959
389	20    	0.933075	0.00136641	0.931381	0.935959
390	20    	0.933075	0.00136641	0.931381	0.935959
391	20    	0.933075	0.00136641	0.931381	0.935959
392	20    	0.933441	0.00178175	0.931381	0.938705
393	20    	0.933441	0.00178175	0.931381	0.938705
394	20    	0.933441	0.00178175	0.931381	0.938705
395	20    	0.933441	0.00178175	0.931381	0.938705
396	20    	0.933533	0.00171951	0.931381	0.938705
397	20    	0.933533	0.00171951	0.931381	0.938705
398	20    	0.933533	0.00171951	0.931381	0.938705
399	20    	0.933533	0.00171951	0.931381	0.938705
400	20    	0.933624	0.00164986	0.932297	0.938705
401	20    	0.933624	0.00164986	0.932297	0.938705
402	20    	0.933624	0.00164986	0.932297	0.938705
403	20    	0.933624	0.00164986	0.932297	0.938705
404	20    	0.933624	0.00164986	0.932297	0.938705
405	20    	0.933624	0.00164986	0.932297	0.938705
406	20    	0.933624	0.00164986	0.932297	0.938705
407	20    	0.933624	0.00164986	0.932297	0.938705
408	20    	0.933624	0.00164986	0.932297	0.938705
409	20    	0.933624	0.00164986	0.932297	0.938705
410	20    	0.933624	0.00164986	0.932297	0.938705
411	20    	0.933624	0.00164986	0.932297	0.938705
412	20    	0.933624	0.00164986	0.932297	0.938705
413	20    	0.933624	0.00164986	0.932297	0.938705
414	20    	0.933716	0.00162425	0.932297	0.938705
415	20    	0.933716	0.00162425	0.932297	0.938705
416	20    	0.933716	0.00162425	0.932297	0.938705
417	20    	0.933716	0.00162425	0.932297	0.938705
418	20    	0.933716	0.00162425	0.932297	0.938705
419	20    	0.933716	0.00162425	0.932297	0.938705
420	20    	0.933716	0.00162425	0.932297	0.938705
421	20    	0.933716	0.00162425	0.932297	0.938705
422	20    	0.933716	0.00162425	0.932297	0.938705
423	20    	0.933716	0.00162425	0.932297	0.938705
424	20    	0.933716	0.00162425	0.932297	0.938705
425	20    	0.933716	0.00162425	0.932297	0.938705
426	20    	0.933945	0.00172741	0.932297	0.938705
427	20    	0.933945	0.00172741	0.932297	0.938705
428	20    	0.933945	0.00172741	0.932297	0.938705
429	20    	0.933945	0.00172741	0.932297	0.938705
430	20    	0.933945	0.00172741	0.932297	0.938705
431	20    	0.933945	0.00172741	0.932297	0.938705
432	20    	0.933945	0.00172741	0.932297	0.938705
433	20    	0.933945	0.00172741	0.932297	0.938705
434	20    	0.933945	0.00172741	0.932297	0.938705
435	20    	0.933945	0.00172741	0.932297	0.938705
436	20    	0.933945	0.00172741	0.932297	0.938705
437	20    	0.933945	0.00172741	0.932297	0.938705
438	20    	0.933945	0.00172741	0.932297	0.938705
439	20    	0.933945	0.00172741	0.932297	0.938705
440	20    	0.933945	0.00172741	0.932297	0.938705
441	20    	0.93399 	0.00169496	0.932297	0.938705
442	20    	0.93399 	0.00169496	0.932297	0.938705
443	20    	0.93399 	0.00169496	0.932297	0.938705
444	20    	0.934082	0.00164986	0.932297	0.938705
445	20    	0.934082	0.00164986	0.932297	0.938705
446	20    	0.934082	0.00164986	0.932297	0.938705
447	20    	0.934082	0.00164986	0.932297	0.938705
448	20    	0.934082	0.00164986	0.932297	0.938705
449	20    	0.934174	0.00159824	0.932297	0.938705
450	20    	0.934174	0.00159824	0.932297	0.938705
451	20    	0.934174	0.00159824	0.932297	0.938705
452	20    	0.934174	0.00159824	0.932297	0.938705
453	20    	0.934174	0.00159824	0.932297	0.938705
454	20    	0.934174	0.00159824	0.932297	0.938705
455	20    	0.934174	0.00159824	0.932297	0.938705
456	20    	0.934174	0.00159824	0.932297	0.938705
457	20    	0.934174	0.00159824	0.932297	0.938705
458	20    	0.934174	0.00159824	0.932297	0.938705
459	20    	0.934174	0.00159824	0.932297	0.938705
460	20    	0.934174	0.00159824	0.932297	0.938705
461	20    	0.934174	0.00159824	0.932297	0.938705
462	20    	0.934174	0.00159824	0.932297	0.938705
463	20    	0.934174	0.00159824	0.932297	0.938705
464	20    	0.934174	0.00159824	0.932297	0.938705
465	20    	0.934174	0.00159824	0.932297	0.938705
466	20    	0.934174	0.00159824	0.932297	0.938705
467	20    	0.934174	0.00159824	0.932297	0.938705
468	20    	0.934174	0.00159824	0.932297	0.938705
469	20    	0.934174	0.00159824	0.932297	0.938705
470	20    	0.934174	0.00159824	0.932297	0.938705
471	20    	0.934174	0.00159824	0.932297	0.938705
472	20    	0.934174	0.00159824	0.932297	0.938705
473	20    	0.934174	0.00159824	0.932297	0.938705
474	20    	0.934311	0.0015483 	0.932297	0.938705
475	20    	0.934311	0.0015483 	0.932297	0.938705
476	20    	0.934311	0.0015483 	0.932297	0.938705
477	20    	0.934311	0.0015483 	0.932297	0.938705
478	20    	0.934311	0.0015483 	0.932297	0.938705
479	20    	0.934311	0.0015483 	0.932297	0.938705
480	20    	0.934448	0.00148403	0.932297	0.938705
481	20    	0.934448	0.00148403	0.932297	0.938705
482	20    	0.934448	0.00148403	0.932297	0.938705
483	20    	0.934586	0.00140348	0.933212	0.938705
484	20    	0.934586	0.00140348	0.933212	0.938705
485	20    	0.934586	0.00140348	0.933212	0.938705
486	20    	0.934586	0.00140348	0.933212	0.938705
487	20    	0.934586	0.00140348	0.933212	0.938705
488	20    	0.934586	0.00140348	0.933212	0.938705
489	20    	0.934586	0.00140348	0.933212	0.938705
490	20    	0.934586	0.00140348	0.933212	0.938705
491	20    	0.934586	0.00140348	0.933212	0.938705
492	20    	0.934586	0.00140348	0.933212	0.938705
493	20    	0.934586	0.00140348	0.933212	0.938705
494	20    	0.934586	0.00140348	0.933212	0.938705
495	20    	0.934586	0.00140348	0.933212	0.938705
496	20    	0.934586	0.00140348	0.933212	0.938705
497	20    	0.934586	0.00140348	0.933212	0.938705
498	20    	0.934586	0.00140348	0.933212	0.938705
499	20    	0.934586	0.00140348	0.933212	0.938705
