gen	nevals	avg     	std       	min     	max     
0  	20    	0.872527	0.0215951 	0.831497	0.912094
1  	20    	0.889558	0.010697  	0.87912 	0.912094
2  	20    	0.895418	0.00680293	0.886444	0.912094
3  	20    	0.900363	0.00574856	0.893768	0.912094
4  	20    	0.906042	0.00796849	0.89743 	0.926743
5  	20    	0.911908	0.00596233	0.904755	0.926743
6  	20    	0.916489	0.00640608	0.908432	0.930405
7  	20    	0.919235	0.00549011	0.912094	0.930405
8  	20    	0.921066	0.00455561	0.915756	0.930405
9  	20    	0.923264	0.00484105	0.915756	0.934067
10 	20    	0.924179	0.00450008	0.919418	0.934067
11 	20    	0.925095	0.0039229 	0.919418	0.934067
12 	20    	0.926193	0.00333131	0.92308 	0.934067
13 	20    	0.926376	0.00325495	0.92308 	0.934067
14 	20    	0.927292	0.00312355	0.92308 	0.934067
15 	20    	0.928757	0.00316619	0.92308 	0.937729
16 	20    	0.929306	0.00308575	0.926743	0.937729
17 	20    	0.930038	0.00345483	0.926743	0.937729
18 	20    	0.930405	0.00347418	0.926743	0.937729
19 	20    	0.930771	0.00325495	0.926743	0.937729
20 	20    	0.930771	0.00325495	0.926743	0.937729
21 	20    	0.932053	0.00484105	0.926743	0.948715
22 	20    	0.934067	0.0053069 	0.930405	0.948715
23 	20    	0.936081	0.00649702	0.930405	0.952377
24 	20    	0.938278	0.00637197	0.930405	0.952377
25 	20    	0.939194	0.00583644	0.930405	0.952377
26 	20    	0.939926	0.00510073	0.934067	0.952377
27 	20    	0.940292	0.00478883	0.934067	0.952377
28 	20    	0.940842	0.00437542	0.934067	0.952377
29 	20    	0.942307	0.00461411	0.937729	0.952377
30 	20    	0.943039	0.00409027	0.937729	0.952377
31 	20    	0.943954	0.00368037	0.941391	0.952377
32 	20    	0.944138	0.00363915	0.941391	0.952377
33 	20    	0.945053	0.00384085	0.941391	0.952377
34 	20    	0.945969	0.00399069	0.941391	0.952377
35 	20    	0.946518	0.00373463	0.941391	0.952377
36 	20    	0.946884	0.00356938	0.941391	0.952377
37 	20    	0.9478  	0.00280695	0.945053	0.952377
38 	20    	0.948166	0.00265976	0.945053	0.952377
39 	20    	0.948532	0.00244978	0.945053	0.952377
40 	20    	0.949081	0.00281292	0.945053	0.956039
41 	20    	0.950363	0.0029468 	0.945053	0.956039
42 	20    	0.950546	0.00271589	0.948715	0.956039
43 	20    	0.950912	0.00292969	0.948715	0.956039
44 	20    	0.951828	0.00312355	0.948715	0.956039
45 	20    	0.951828	0.00312355	0.948715	0.956039
46 	20    	0.952011	0.00304198	0.948715	0.956039
47 	20    	0.952011	0.00304198	0.948715	0.956039
48 	20    	0.952011	0.00304198	0.948715	0.956039
49 	20    	0.952011	0.00304198	0.948715	0.956039
50 	20    	0.952194	0.0029468 	0.948715	0.956039
51 	20    	0.952744	0.00281292	0.948715	0.956039
52 	20    	0.952744	0.00281292	0.948715	0.956039
53 	20    	0.952744	0.00281292	0.948715	0.956039
54 	20    	0.952744	0.00281292	0.948715	0.956039
55 	20    	0.952927	0.00265976	0.948715	0.956039
56 	20    	0.95311 	0.00248376	0.948715	0.956039
57 	20    	0.95311 	0.00248376	0.948715	0.956039
58 	20    	0.95311 	0.00248376	0.948715	0.956039
59 	20    	0.953476	0.00234489	0.948715	0.956039
60 	20    	0.953476	0.00234489	0.948715	0.956039
61 	20    	0.953659	0.00209574	0.948715	0.956039
62 	20    	0.953842	0.00179406	0.952377	0.956039
63 	20    	0.954208	0.00216653	0.952377	0.959702
64 	20    	0.954208	0.00216653	0.952377	0.959702
65 	20    	0.954208	0.00216653	0.952377	0.959702
66 	20    	0.954208	0.00216653	0.952377	0.959702
67 	20    	0.954208	0.00216653	0.952377	0.959702
68 	20    	0.954758	0.00290094	0.952377	0.963364
69 	20    	0.954758	0.00290094	0.952377	0.963364
70 	20    	0.955124	0.00280695	0.952377	0.963364
71 	20    	0.955673	0.00325495	0.952377	0.963364
72 	20    	0.956223	0.00356468	0.952377	0.963364
73 	20    	0.956223	0.00356468	0.952377	0.963364
74 	20    	0.956406	0.00345483	0.952377	0.963364
75 	20    	0.956406	0.00345483	0.952377	0.963364
76 	20    	0.956589	0.00333131	0.952377	0.963364
77 	20    	0.956955	0.00303646	0.952377	0.963364
78 	20    	0.956955	0.00303646	0.952377	0.963364
79 	20    	0.957321	0.00265976	0.956039	0.963364
80 	20    	0.957321	0.00265976	0.956039	0.963364
81 	20    	0.958054	0.0029468 	0.956039	0.963364
82 	20    	0.958786	0.0032498 	0.956039	0.963364
83 	20    	0.959518	0.00356468	0.956039	0.967026
84 	20    	0.959518	0.00356468	0.956039	0.967026
85 	20    	0.959518	0.00356468	0.956039	0.967026
86 	20    	0.959518	0.00356468	0.956039	0.967026
87 	20    	0.959518	0.00356468	0.956039	0.967026
88 	20    	0.959702	0.00347418	0.956039	0.967026
89 	20    	0.959702	0.00347418	0.956039	0.967026
90 	20    	0.960068	0.00325495	0.956039	0.967026
91 	20    	0.960068	0.00325495	0.956039	0.967026
92 	20    	0.960251	0.00312355	0.956039	0.967026
93 	20    	0.9608  	0.0032959 	0.956039	0.967026
94 	20    	0.9608  	0.0032959 	0.956039	0.967026
95 	20    	0.9608  	0.0032959 	0.956039	0.967026
96 	20    	0.960983	0.00312355	0.956039	0.967026
97 	20    	0.960983	0.00312355	0.956039	0.967026
98 	20    	0.961166	0.00292969	0.956039	0.967026
99 	20    	0.961349	0.00270971	0.956039	0.967026
100	20    	0.961533	0.00245662	0.959702	0.967026
101	20    	0.961533	0.00245662	0.959702	0.967026
102	20    	0.961533	0.00245662	0.959702	0.967026
103	20    	0.961533	0.00245662	0.959702	0.967026
104	20    	0.961533	0.00245662	0.959702	0.967026
105	20    	0.961899	0.00242917	0.959702	0.967026
106	20    	0.962082	0.00239441	0.959702	0.967026
107	20    	0.962265	0.00234489	0.959702	0.967026
108	20    	0.962448	0.00227964	0.959702	0.967026
109	20    	0.962448	0.00227964	0.959702	0.967026
110	20    	0.962448	0.00227964	0.959702	0.967026
111	20    	0.962448	0.00227964	0.959702	0.967026
112	20    	0.962631	0.00219727	0.959702	0.967026
113	20    	0.962631	0.00219727	0.959702	0.967026
114	20    	0.962631	0.00219727	0.959702	0.967026
115	20    	0.962631	0.00219727	0.959702	0.967026
116	20    	0.962814	0.00209574	0.959702	0.967026
117	20    	0.962814	0.00209574	0.959702	0.967026
118	20    	0.962814	0.00209574	0.959702	0.967026
119	20    	0.962814	0.00209574	0.959702	0.967026
120	20    	0.962814	0.00209574	0.959702	0.967026
121	20    	0.962814	0.00209574	0.959702	0.967026
122	20    	0.962814	0.00209574	0.959702	0.967026
123	20    	0.963364	0.00259166	0.959702	0.970703
124	20    	0.963914	0.00239657	0.959702	0.970703
125	20    	0.96428 	0.00196608	0.963364	0.970703
126	20    	0.96428 	0.00196608	0.963364	0.970703
127	20    	0.96428 	0.00196608	0.963364	0.970703
128	20    	0.96428 	0.00196608	0.963364	0.970703
129	20    	0.96428 	0.00196608	0.963364	0.970703
130	20    	0.96428 	0.00196608	0.963364	0.970703
131	20    	0.96428 	0.00196608	0.963364	0.970703
132	20    	0.96428 	0.00196608	0.963364	0.970703
133	20    	0.96428 	0.00196608	0.963364	0.970703
134	20    	0.96428 	0.00196608	0.963364	0.970703
135	20    	0.96428 	0.00196608	0.963364	0.970703
136	20    	0.96428 	0.00196608	0.963364	0.970703
137	20    	0.964647	0.00239827	0.963364	0.970703
138	20    	0.964647	0.00239827	0.963364	0.970703
139	20    	0.964647	0.00239827	0.963364	0.970703
140	20    	0.964647	0.00239827	0.963364	0.970703
141	20    	0.964647	0.00239827	0.963364	0.970703
142	20    	0.964647	0.00239827	0.963364	0.970703
143	20    	0.964647	0.00239827	0.963364	0.970703
144	20    	0.964647	0.00239827	0.963364	0.970703
145	20    	0.964647	0.00239827	0.963364	0.970703
146	20    	0.964647	0.00239827	0.963364	0.970703
147	20    	0.964647	0.00239827	0.963364	0.970703
148	20    	0.964647	0.00239827	0.963364	0.970703
149	20    	0.964647	0.00239827	0.963364	0.970703
150	20    	0.964647	0.00239827	0.963364	0.970703
151	20    	0.964647	0.00239827	0.963364	0.970703
152	20    	0.964647	0.00239827	0.963364	0.970703
153	20    	0.964647	0.00239827	0.963364	0.970703
154	20    	0.964647	0.00239827	0.963364	0.970703
155	20    	0.964647	0.00239827	0.963364	0.970703
156	20    	0.964647	0.00239827	0.963364	0.970703
157	20    	0.964647	0.00239827	0.963364	0.970703
158	20    	0.964647	0.00239827	0.963364	0.970703
159	20    	0.964647	0.00239827	0.963364	0.970703
160	20    	0.964647	0.00239827	0.963364	0.970703
161	20    	0.964647	0.00239827	0.963364	0.970703
162	20    	0.964647	0.00239827	0.963364	0.970703
163	20    	0.964647	0.00239827	0.963364	0.970703
164	20    	0.964647	0.00239827	0.963364	0.970703
165	20    	0.964647	0.00239827	0.963364	0.970703
166	20    	0.964647	0.00239827	0.963364	0.970703
167	20    	0.964647	0.00239827	0.963364	0.970703
168	20    	0.965013	0.00245332	0.963364	0.970703
169	20    	0.965013	0.00245332	0.963364	0.970703
170	20    	0.965013	0.00245332	0.963364	0.970703
171	20    	0.965013	0.00245332	0.963364	0.970703
172	20    	0.965013	0.00245332	0.963364	0.970703
173	20    	0.965013	0.00245332	0.963364	0.970703
174	20    	0.965013	0.00245332	0.963364	0.970703
175	20    	0.965013	0.00245332	0.963364	0.970703
176	20    	0.965013	0.00245332	0.963364	0.970703
177	20    	0.965013	0.00245332	0.963364	0.970703
178	20    	0.965013	0.00245332	0.963364	0.970703
179	20    	0.965013	0.00245332	0.963364	0.970703
180	20    	0.965013	0.00245332	0.963364	0.970703
181	20    	0.96538 	0.0027142 	0.963364	0.970703
182	20    	0.96538 	0.0027142 	0.963364	0.970703
183	20    	0.96538 	0.0027142 	0.963364	0.970703
184	20    	0.96538 	0.0027142 	0.963364	0.970703
185	20    	0.96538 	0.0027142 	0.963364	0.970703
186	20    	0.96538 	0.0027142 	0.963364	0.970703
187	20    	0.96538 	0.0027142 	0.963364	0.970703
188	20    	0.965563	0.00269545	0.963364	0.970703
189	20    	0.965563	0.00269545	0.963364	0.970703
190	20    	0.965563	0.00269545	0.963364	0.970703
191	20    	0.965563	0.00269545	0.963364	0.970703
192	20    	0.965563	0.00269545	0.963364	0.970703
193	20    	0.965563	0.00269545	0.963364	0.970703
194	20    	0.965563	0.00269545	0.963364	0.970703
195	20    	0.965563	0.00269545	0.963364	0.970703
196	20    	0.965563	0.00269545	0.963364	0.970703
197	20    	0.965563	0.00269545	0.963364	0.970703
198	20    	0.96593 	0.00286528	0.963364	0.970703
199	20    	0.96593 	0.00286528	0.963364	0.970703
200	20    	0.96593 	0.00286528	0.963364	0.970703
201	20    	0.96593 	0.00286528	0.963364	0.970703
202	20    	0.96593 	0.00286528	0.963364	0.970703
203	20    	0.966297	0.00298075	0.963364	0.970703
204	20    	0.966297	0.00298075	0.963364	0.970703
205	20    	0.966297	0.00298075	0.963364	0.970703
206	20    	0.966297	0.00298075	0.963364	0.970703
207	20    	0.966297	0.00298075	0.963364	0.970703
208	20    	0.966297	0.00298075	0.963364	0.970703
209	20    	0.966297	0.00298075	0.963364	0.970703
210	20    	0.966297	0.00298075	0.963364	0.970703
211	20    	0.966297	0.00298075	0.963364	0.970703
212	20    	0.96648 	0.00290648	0.963364	0.970703
213	20    	0.96648 	0.00290648	0.963364	0.970703
214	20    	0.966663	0.00281838	0.963364	0.970703
215	20    	0.966663	0.00281838	0.963364	0.970703
216	20    	0.966663	0.00281838	0.963364	0.970703
217	20    	0.966663	0.00281838	0.963364	0.970703
218	20    	0.966663	0.00281838	0.963364	0.970703
219	20    	0.966663	0.00281838	0.963364	0.970703
220	20    	0.966663	0.00281838	0.963364	0.970703
221	20    	0.966846	0.00271513	0.963364	0.970703
222	20    	0.966846	0.00271513	0.963364	0.970703
223	20    	0.96703 	0.0025949 	0.963364	0.970703
224	20    	0.967397	0.00256936	0.963364	0.970703
225	20    	0.96758 	0.00240037	0.963364	0.970703
226	20    	0.967763	0.00220337	0.963364	0.970703
227	20    	0.967763	0.00220337	0.963364	0.970703
228	20    	0.967763	0.00220337	0.963364	0.970703
229	20    	0.968497	0.00180154	0.967026	0.970703
230	20    	0.96923 	0.00336188	0.967026	0.981689
231	20    	0.96923 	0.00336188	0.967026	0.981689
232	20    	0.96923 	0.00336188	0.967026	0.981689
233	20    	0.96923 	0.00336188	0.967026	0.981689
234	20    	0.96923 	0.00336188	0.967026	0.981689
235	20    	0.96923 	0.00336188	0.967026	0.981689
236	20    	0.96923 	0.00336188	0.967026	0.981689
237	20    	0.96923 	0.00336188	0.967026	0.981689
238	20    	0.969414	0.00333677	0.967026	0.981689
239	20    	0.969965	0.00340137	0.967026	0.981689
240	20    	0.970332	0.00345993	0.967026	0.981689
241	20    	0.970332	0.00345993	0.967026	0.981689
242	20    	0.970332	0.00345993	0.967026	0.981689
243	20    	0.970332	0.00345993	0.967026	0.981689
244	20    	0.970332	0.00345993	0.967026	0.981689
245	20    	0.970515	0.00337606	0.967026	0.981689
246	20    	0.970699	0.00327976	0.967026	0.981689
247	20    	0.970883	0.0031699 	0.967026	0.981689
248	20    	0.970883	0.0031699 	0.967026	0.981689
249	20    	0.971067	0.00304501	0.967026	0.981689
250	20    	0.971067	0.00304501	0.967026	0.981689
251	20    	0.971067	0.00304501	0.967026	0.981689
252	20    	0.971067	0.00304501	0.967026	0.981689
253	20    	0.971434	0.00297737	0.967026	0.981689
254	20    	0.971434	0.00297737	0.967026	0.981689
255	20    	0.971434	0.00297737	0.967026	0.981689
256	20    	0.971434	0.00297737	0.967026	0.981689
257	20    	0.971434	0.00297737	0.967026	0.981689
258	20    	0.971618	0.0028082 	0.967026	0.981689
259	20    	0.972168	0.00292969	0.970703	0.981689
260	20    	0.972168	0.00292969	0.970703	0.981689
261	20    	0.972351	0.0029468 	0.970703	0.981689
262	20    	0.972351	0.0029468 	0.970703	0.981689
263	20    	0.972351	0.0029468 	0.970703	0.981689
264	20    	0.972351	0.0029468 	0.970703	0.981689
265	20    	0.972351	0.0029468 	0.970703	0.981689
266	20    	0.972351	0.0029468 	0.970703	0.981689
267	20    	0.972351	0.0029468 	0.970703	0.981689
268	20    	0.972351	0.0029468 	0.970703	0.981689
269	20    	0.972351	0.0029468 	0.970703	0.981689
270	20    	0.972351	0.0029468 	0.970703	0.981689
271	20    	0.972351	0.0029468 	0.970703	0.981689
272	20    	0.972351	0.0029468 	0.970703	0.981689
273	20    	0.972351	0.0029468 	0.970703	0.981689
274	20    	0.972351	0.0029468 	0.970703	0.981689
275	20    	0.972351	0.0029468 	0.970703	0.981689
276	20    	0.972534	0.00295249	0.970703	0.981689
277	20    	0.972534	0.00295249	0.970703	0.981689
278	20    	0.972534	0.00295249	0.970703	0.981689
279	20    	0.972534	0.00295249	0.970703	0.981689
280	20    	0.972534	0.00295249	0.970703	0.981689
281	20    	0.972534	0.00295249	0.970703	0.981689
282	20    	0.972534	0.00295249	0.970703	0.981689
283	20    	0.972534	0.00295249	0.970703	0.981689
284	20    	0.972534	0.00295249	0.970703	0.981689
285	20    	0.972534	0.00295249	0.970703	0.981689
286	20    	0.972534	0.00295249	0.970703	0.981689
287	20    	0.972534	0.00295249	0.970703	0.981689
288	20    	0.972534	0.00295249	0.970703	0.981689
289	20    	0.972534	0.00295249	0.970703	0.981689
290	20    	0.972534	0.00295249	0.970703	0.981689
291	20    	0.972717	0.0029468 	0.970703	0.981689
292	20    	0.972717	0.0029468 	0.970703	0.981689
293	20    	0.972717	0.0029468 	0.970703	0.981689
294	20    	0.972717	0.0029468 	0.970703	0.981689
295	20    	0.972717	0.0029468 	0.970703	0.981689
296	20    	0.972717	0.0029468 	0.970703	0.981689
297	20    	0.972717	0.0029468 	0.970703	0.981689
298	20    	0.972717	0.0029468 	0.970703	0.981689
299	20    	0.972717	0.0029468 	0.970703	0.981689
300	20    	0.972717	0.0029468 	0.970703	0.981689
301	20    	0.972717	0.0029468 	0.970703	0.981689
302	20    	0.972717	0.0029468 	0.970703	0.981689
303	20    	0.972717	0.0029468 	0.970703	0.981689
304	20    	0.972717	0.0029468 	0.970703	0.981689
305	20    	0.972717	0.0029468 	0.970703	0.981689
306	20    	0.972717	0.0029468 	0.970703	0.981689
307	20    	0.972717	0.0029468 	0.970703	0.981689
308	20    	0.972717	0.0029468 	0.970703	0.981689
309	20    	0.972717	0.0029468 	0.970703	0.981689
310	20    	0.9729  	0.00292969	0.970703	0.981689
311	20    	0.973083	0.00290094	0.970703	0.981689
312	20    	0.973083	0.00290094	0.970703	0.981689
313	20    	0.973267	0.0028602 	0.970703	0.981689
314	20    	0.973267	0.0028602 	0.970703	0.981689
315	20    	0.973267	0.0028602 	0.970703	0.981689
316	20    	0.973267	0.0028602 	0.970703	0.981689
317	20    	0.973267	0.0028602 	0.970703	0.981689
318	20    	0.973267	0.0028602 	0.970703	0.981689
319	20    	0.97345 	0.00280695	0.970703	0.981689
320	20    	0.973633	0.00274047	0.970703	0.981689
321	20    	0.973633	0.00274047	0.970703	0.981689
322	20    	0.973999	0.00281292	0.970703	0.981689
323	20    	0.973999	0.00281292	0.970703	0.981689
324	20    	0.973999	0.00281292	0.970703	0.981689
325	20    	0.973999	0.00281292	0.970703	0.981689
326	20    	0.973999	0.00281292	0.970703	0.981689
327	20    	0.973999	0.00281292	0.970703	0.981689
328	20    	0.973999	0.00281292	0.970703	0.981689
329	20    	0.973999	0.00281292	0.970703	0.981689
330	20    	0.973999	0.00281292	0.970703	0.981689
331	20    	0.973999	0.00281292	0.970703	0.981689
332	20    	0.973999	0.00281292	0.970703	0.981689
333	20    	0.973999	0.00281292	0.970703	0.981689
334	20    	0.973999	0.00281292	0.970703	0.981689
335	20    	0.973999	0.00281292	0.970703	0.981689
336	20    	0.973999	0.00281292	0.970703	0.981689
337	20    	0.973999	0.00281292	0.970703	0.981689
338	20    	0.973999	0.00281292	0.970703	0.981689
339	20    	0.973999	0.00281292	0.970703	0.981689
340	20    	0.973999	0.00281292	0.970703	0.981689
341	20    	0.973999	0.00281292	0.970703	0.981689
342	20    	0.974182	0.00270971	0.970703	0.981689
343	20    	0.974365	0.0025895 	0.970703	0.981689
344	20    	0.974365	0.0025895 	0.970703	0.981689
345	20    	0.974731	0.00256348	0.970703	0.981689
346	20    	0.974731	0.00256348	0.970703	0.981689
347	20    	0.974731	0.00256348	0.970703	0.981689
348	20    	0.974731	0.00256348	0.970703	0.981689
349	20    	0.974731	0.00256348	0.970703	0.981689
350	20    	0.974731	0.00256348	0.970703	0.981689
351	20    	0.974731	0.00256348	0.970703	0.981689
352	20    	0.974915	0.00239441	0.970703	0.981689
353	20    	0.974915	0.00239441	0.970703	0.981689
354	20    	0.974915	0.00239441	0.970703	0.981689
355	20    	0.974915	0.00239441	0.970703	0.981689
356	20    	0.975281	0.00227964	0.970703	0.981689
357	20    	0.975281	0.00227964	0.970703	0.981689
358	20    	0.975464	0.00203898	0.974365	0.981689
359	20    	0.975464	0.00203898	0.974365	0.981689
360	20    	0.975464	0.00203898	0.974365	0.981689
361	20    	0.975464	0.00203898	0.974365	0.981689
362	20    	0.975464	0.00203898	0.974365	0.981689
363	20    	0.975464	0.00203898	0.974365	0.981689
364	20    	0.975464	0.00203898	0.974365	0.981689
365	20    	0.975464	0.00203898	0.974365	0.981689
366	20    	0.975464	0.00203898	0.974365	0.981689
367	20    	0.975464	0.00203898	0.974365	0.981689
368	20    	0.975464	0.00203898	0.974365	0.981689
369	20    	0.97583 	0.00242917	0.974365	0.981689
370	20    	0.97583 	0.00242917	0.974365	0.981689
371	20    	0.97583 	0.00242917	0.974365	0.981689
372	20    	0.97583 	0.00242917	0.974365	0.981689
373	20    	0.97583 	0.00242917	0.974365	0.981689
374	20    	0.97583 	0.00242917	0.974365	0.981689
375	20    	0.97583 	0.00242917	0.974365	0.981689
376	20    	0.97583 	0.00242917	0.974365	0.981689
377	20    	0.97583 	0.00242917	0.974365	0.981689
378	20    	0.97583 	0.00242917	0.974365	0.981689
379	20    	0.97583 	0.00242917	0.974365	0.981689
380	20    	0.97583 	0.00242917	0.974365	0.981689
381	20    	0.97583 	0.00242917	0.974365	0.981689
382	20    	0.97583 	0.00242917	0.974365	0.981689
383	20    	0.97583 	0.00242917	0.974365	0.981689
384	20    	0.97583 	0.00242917	0.974365	0.981689
385	20    	0.97583 	0.00242917	0.974365	0.981689
386	20    	0.97583 	0.00242917	0.974365	0.981689
387	20    	0.976196	0.00271589	0.974365	0.981689
388	20    	0.976196	0.00271589	0.974365	0.981689
389	20    	0.976196	0.00271589	0.974365	0.981689
390	20    	0.976196	0.00271589	0.974365	0.981689
391	20    	0.976196	0.00271589	0.974365	0.981689
392	20    	0.976196	0.00271589	0.974365	0.981689
393	20    	0.976196	0.00271589	0.974365	0.981689
394	20    	0.976196	0.00271589	0.974365	0.981689
395	20    	0.976196	0.00271589	0.974365	0.981689
396	20    	0.976196	0.00271589	0.974365	0.981689
397	20    	0.976196	0.00271589	0.974365	0.981689
398	20    	0.976196	0.00271589	0.974365	0.981689
399	20    	0.976196	0.00271589	0.974365	0.981689
400	20    	0.976196	0.00271589	0.974365	0.981689
401	20    	0.976196	0.00271589	0.974365	0.981689
402	20    	0.976196	0.00271589	0.974365	0.981689
403	20    	0.976196	0.00271589	0.974365	0.981689
404	20    	0.976196	0.00271589	0.974365	0.981689
405	20    	0.976196	0.00271589	0.974365	0.981689
406	20    	0.976196	0.00271589	0.974365	0.981689
407	20    	0.976196	0.00271589	0.974365	0.981689
408	20    	0.976196	0.00271589	0.974365	0.981689
409	20    	0.976196	0.00271589	0.974365	0.981689
410	20    	0.976196	0.00271589	0.974365	0.981689
411	20    	0.976196	0.00271589	0.974365	0.981689
412	20    	0.976379	0.00270971	0.974365	0.981689
413	20    	0.976379	0.00270971	0.974365	0.981689
414	20    	0.976379	0.00270971	0.974365	0.981689
415	20    	0.976379	0.00270971	0.974365	0.981689
416	20    	0.976379	0.00270971	0.974365	0.981689
417	20    	0.976379	0.00270971	0.974365	0.981689
418	20    	0.976379	0.00270971	0.974365	0.981689
419	20    	0.976379	0.00270971	0.974365	0.981689
420	20    	0.976379	0.00270971	0.974365	0.981689
421	20    	0.976379	0.00270971	0.974365	0.981689
422	20    	0.976379	0.00270971	0.974365	0.981689
423	20    	0.976379	0.00270971	0.974365	0.981689
424	20    	0.976379	0.00270971	0.974365	0.981689
425	20    	0.976379	0.00270971	0.974365	0.981689
426	20    	0.976379	0.00270971	0.974365	0.981689
427	20    	0.976379	0.00270971	0.974365	0.981689
428	20    	0.976379	0.00270971	0.974365	0.981689
429	20    	0.976379	0.00270971	0.974365	0.981689
430	20    	0.976379	0.00270971	0.974365	0.981689
431	20    	0.976379	0.00270971	0.974365	0.981689
432	20    	0.976379	0.00270971	0.974365	0.981689
433	20    	0.976379	0.00270971	0.974365	0.981689
434	20    	0.976379	0.00270971	0.974365	0.981689
435	20    	0.976379	0.00270971	0.974365	0.981689
436	20    	0.976379	0.00270971	0.974365	0.981689
437	20    	0.976379	0.00270971	0.974365	0.981689
438	20    	0.976379	0.00270971	0.974365	0.981689
439	20    	0.976379	0.00270971	0.974365	0.981689
440	20    	0.976562	0.00269109	0.974365	0.981689
441	20    	0.976562	0.00269109	0.974365	0.981689
442	20    	0.976562	0.00269109	0.974365	0.981689
443	20    	0.976562	0.00269109	0.974365	0.981689
444	20    	0.976562	0.00269109	0.974365	0.981689
445	20    	0.976562	0.00269109	0.974365	0.981689
446	20    	0.976929	0.0028602 	0.974365	0.981689
447	20    	0.977295	0.00297511	0.974365	0.981689
448	20    	0.977295	0.00297511	0.974365	0.981689
449	20    	0.977295	0.00297511	0.974365	0.981689
450	20    	0.977295	0.00297511	0.974365	0.981689
451	20    	0.977295	0.00297511	0.974365	0.981689
452	20    	0.977295	0.00297511	0.974365	0.981689
453	20    	0.977295	0.00297511	0.974365	0.981689
454	20    	0.977295	0.00297511	0.974365	0.981689
455	20    	0.977478	0.00290094	0.974365	0.981689
456	20    	0.977478	0.00290094	0.974365	0.981689
457	20    	0.977478	0.00290094	0.974365	0.981689
458	20    	0.977478	0.00290094	0.974365	0.981689
459	20    	0.977478	0.00290094	0.974365	0.981689
460	20    	0.977478	0.00290094	0.974365	0.981689
461	20    	0.977478	0.00290094	0.974365	0.981689
462	20    	0.977478	0.00290094	0.974365	0.981689
463	20    	0.977478	0.00290094	0.974365	0.981689
464	20    	0.977661	0.00281292	0.974365	0.981689
465	20    	0.977661	0.00281292	0.974365	0.981689
466	20    	0.977661	0.00281292	0.974365	0.981689
467	20    	0.977661	0.00281292	0.974365	0.981689
468	20    	0.977661	0.00281292	0.974365	0.981689
469	20    	0.977661	0.00281292	0.974365	0.981689
470	20    	0.977661	0.00281292	0.974365	0.981689
471	20    	0.977661	0.00281292	0.974365	0.981689
472	20    	0.977844	0.00270971	0.974365	0.981689
473	20    	0.977844	0.00270971	0.974365	0.981689
474	20    	0.977844	0.00270971	0.974365	0.981689
475	20    	0.977844	0.00270971	0.974365	0.981689
476	20    	0.977844	0.00270971	0.974365	0.981689
477	20    	0.977844	0.00270971	0.974365	0.981689
478	20    	0.977844	0.00270971	0.974365	0.981689
479	20    	0.977844	0.00270971	0.974365	0.981689
480	20    	0.977844	0.00270971	0.974365	0.981689
481	20    	0.977844	0.00270971	0.974365	0.981689
482	20    	0.978027	0.0025895 	0.974365	0.981689
483	20    	0.978027	0.0025895 	0.974365	0.981689
484	20    	0.978027	0.0025895 	0.974365	0.981689
485	20    	0.978027	0.0025895 	0.974365	0.981689
486	20    	0.978027	0.0025895 	0.974365	0.981689
487	20    	0.97821 	0.00244978	0.974365	0.981689
488	20    	0.97821 	0.00244978	0.974365	0.981689
489	20    	0.97876 	0.00274047	0.974365	0.985352
490	20    	0.97876 	0.00274047	0.974365	0.985352
491	20    	0.97876 	0.00274047	0.974365	0.985352
492	20    	0.97876 	0.00274047	0.974365	0.985352
493	20    	0.97876 	0.00274047	0.974365	0.985352
494	20    	0.97876 	0.00274047	0.974365	0.985352
495	20    	0.979126	0.00261527	0.974365	0.985352
496	20    	0.979126	0.00261527	0.974365	0.985352
497	20    	0.979126	0.00261527	0.974365	0.985352
498	20    	0.979126	0.00261527	0.974365	0.985352
499	20    	0.979126	0.00261527	0.974365	0.985352
