gen	nevals	avg     	std        	min     	max     
0  	20    	0.877291	0.0108648  	0.854172	0.890625
1  	20    	0.885314	0.00459637 	0.87709 	0.891663
2  	20    	0.890156	0.00441296 	0.884369	0.901047
3  	20    	0.892342	0.00374646 	0.887497	0.901047
4  	20    	0.894115	0.00328226 	0.890625	0.901047
5  	20    	0.89427 	0.00313436 	0.890625	0.901047
6  	20    	0.896146	0.00298351 	0.891663	0.903122
7  	20    	0.897916	0.00265614 	0.894791	0.903122
8  	20    	0.899427	0.00278392 	0.895828	0.90625 
9  	20    	0.900833	0.00394631 	0.896881	0.914581
10 	20    	0.902499	0.00408025 	0.898956	0.914581
11 	20    	0.904323	0.00397071 	0.899994	0.914581
12 	20    	0.905573	0.00374574 	0.901047	0.914581
13 	20    	0.90625 	0.00344044 	0.902084	0.914581
14 	20    	0.907917	0.0030269  	0.90416 	0.914581
15 	20    	0.908959	0.00266453 	0.905212	0.914581
16 	20    	0.909428	0.00278546 	0.90625 	0.914581
17 	20    	0.909843	0.00254136 	0.90625 	0.914581
18 	20    	0.910365	0.00280582 	0.907288	0.916672
19 	20    	0.910573	0.00272308 	0.907288	0.916672
20 	20    	0.910625	0.00266869 	0.907288	0.916672
21 	20    	0.911356	0.00213167 	0.90834 	0.916672
22 	20    	0.91198 	0.00224702 	0.909378	0.917709
23 	20    	0.912032	0.00219779 	0.909378	0.917709
24 	20    	0.912083	0.00214618 	0.910416	0.917709
25 	20    	0.912865	0.00278129 	0.910416	0.919785
26 	20    	0.913125	0.00264395 	0.910416	0.919785
27 	20    	0.913385	0.00253665 	0.910416	0.919785
28 	20    	0.913906	0.00233548 	0.911453	0.919785
29 	20    	0.914114	0.0022928  	0.911453	0.919785
30 	20    	0.915053	0.00236128 	0.911453	0.919785
31 	20    	0.915522	0.00215533 	0.912506	0.919785
32 	20    	0.915678	0.00198787 	0.912506	0.919785
33 	20    	0.915989	0.00165576 	0.913544	0.919785
34 	20    	0.915989	0.00165576 	0.913544	0.919785
35 	20    	0.916093	0.00156162 	0.914581	0.919785
36 	20    	0.916666	0.00189246 	0.914581	0.921875
37 	20    	0.916978	0.00180712 	0.914581	0.921875
38 	20    	0.917083	0.00172399 	0.914581	0.921875
39 	20    	0.917239	0.00162923 	0.915619	0.921875
40 	20    	0.917292	0.00159261 	0.915619	0.921875
41 	20    	0.917501	0.00149338 	0.915619	0.921875
42 	20    	0.917867	0.00165328 	0.916672	0.921875
43 	20    	0.918334	0.00190096 	0.916672	0.922913
44 	20    	0.918386	0.00186876 	0.916672	0.922913
45 	20    	0.918386	0.00186876 	0.916672	0.922913
46 	20    	0.918386	0.00186876 	0.916672	0.922913
47 	20    	0.918438	0.00183454 	0.916672	0.922913
48 	20    	0.918594	0.00180997 	0.916672	0.922913
49 	20    	0.918594	0.00180997 	0.916672	0.922913
50 	20    	0.918854	0.00176912 	0.916672	0.922913
51 	20    	0.918854	0.00176912 	0.916672	0.922913
52 	20    	0.919114	0.0018112  	0.916672	0.922913
53 	20    	0.919166	0.00175448 	0.917709	0.922913
54 	20    	0.919166	0.00175448 	0.917709	0.922913
55 	20    	0.919582	0.00227196 	0.917709	0.926041
56 	20    	0.919686	0.00223106 	0.917709	0.926041
57 	20    	0.920363	0.00249724 	0.917709	0.926041
58 	20    	0.920467	0.00242695 	0.917709	0.926041
59 	20    	0.920988	0.00285931 	0.917709	0.928131
60 	20    	0.921247	0.00262527 	0.918747	0.928131
61 	20    	0.921716	0.00268405 	0.918747	0.928131
62 	20    	0.921925	0.002543   	0.919785	0.928131
63 	20    	0.921977	0.00250883 	0.919785	0.928131
64 	20    	0.921977	0.00250883 	0.919785	0.928131
65 	20    	0.922082	0.00245833 	0.919785	0.928131
66 	20    	0.922656	0.00275461 	0.919785	0.929169
67 	20    	0.922917	0.00271714 	0.919785	0.929169
68 	20    	0.923074	0.00262063 	0.919785	0.929169
69 	20    	0.92323 	0.00251071 	0.920837	0.929169
70 	20    	0.92323 	0.00251071 	0.920837	0.929169
71 	20    	0.923386	0.00245357 	0.920837	0.929169
72 	20    	0.923386	0.00245357 	0.920837	0.929169
73 	20    	0.923386	0.00245357 	0.920837	0.929169
74 	20    	0.923386	0.00245357 	0.920837	0.929169
75 	20    	0.923543	0.00238484 	0.920837	0.929169
76 	20    	0.923699	0.00230347 	0.920837	0.929169
77 	20    	0.923856	0.00220807 	0.920837	0.929169
78 	20    	0.924116	0.00214269 	0.921875	0.929169
79 	20    	0.924429	0.00224686 	0.921875	0.929169
80 	20    	0.924429	0.00224686 	0.921875	0.929169
81 	20    	0.924845	0.00249358 	0.921875	0.930206
82 	20    	0.925419	0.00226834 	0.921875	0.930206
83 	20    	0.925575	0.00212169 	0.922913	0.930206
84 	20    	0.92568 	0.00203778 	0.922913	0.930206
85 	20    	0.92568 	0.00203778 	0.922913	0.930206
86 	20    	0.925836	0.00193694 	0.922913	0.930206
87 	20    	0.926096	0.00178705 	0.923965	0.930206
88 	20    	0.92646 	0.00187387 	0.923965	0.930206
89 	20    	0.926564	0.00178835 	0.923965	0.930206
90 	20    	0.926564	0.00178835 	0.923965	0.930206
91 	20    	0.926876	0.00185109 	0.925003	0.930206
92 	20    	0.927188	0.00180088 	0.925003	0.930206
93 	20    	0.927188	0.00180088 	0.925003	0.930206
94 	20    	0.927292	0.0017304  	0.925003	0.930206
95 	20    	0.927292	0.0017304  	0.925003	0.930206
96 	20    	0.927396	0.00165042 	0.925003	0.930206
97 	20    	0.927396	0.00165042 	0.925003	0.930206
98 	20    	0.927396	0.00165042 	0.925003	0.930206
99 	20    	0.927656	0.00145459 	0.926041	0.930206
100	20    	0.927656	0.00145459 	0.926041	0.930206
101	20    	0.927656	0.00145459 	0.926041	0.930206
102	20    	0.927656	0.00145459 	0.926041	0.930206
103	20    	0.927969	0.00172177 	0.926041	0.932297
104	20    	0.928073	0.00166404 	0.926041	0.932297
105	20    	0.928073	0.00166404 	0.926041	0.932297
106	20    	0.928073	0.00166404 	0.926041	0.932297
107	20    	0.92823 	0.00161184 	0.926041	0.932297
108	20    	0.92823 	0.00161184 	0.926041	0.932297
109	20    	0.92823 	0.00161184 	0.926041	0.932297
110	20    	0.928386	0.00154211 	0.926041	0.932297
111	20    	0.928386	0.00154211 	0.926041	0.932297
112	20    	0.92849 	0.00144756 	0.926041	0.932297
113	20    	0.928647	0.00133936 	0.927078	0.932297
114	20    	0.928647	0.00133936 	0.927078	0.932297
115	20    	0.928647	0.00133936 	0.927078	0.932297
116	20    	0.928647	0.00133936 	0.927078	0.932297
117	20    	0.928647	0.00133936 	0.927078	0.932297
118	20    	0.928647	0.00133936 	0.927078	0.932297
119	20    	0.928647	0.00133936 	0.927078	0.932297
120	20    	0.928647	0.00133936 	0.927078	0.932297
121	20    	0.928699	0.00129668 	0.927078	0.932297
122	20    	0.928699	0.00129668 	0.927078	0.932297
123	20    	0.928699	0.00129668 	0.927078	0.932297
124	20    	0.928805	0.0011999  	0.927078	0.932297
125	20    	0.928805	0.0011999  	0.927078	0.932297
126	20    	0.928857	0.00114483 	0.927078	0.932297
127	20    	0.928962	0.00107065 	0.928131	0.932297
128	20    	0.929066	0.00108555 	0.928131	0.932297
129	20    	0.929066	0.00108555 	0.928131	0.932297
130	20    	0.929118	0.00106423 	0.928131	0.932297
131	20    	0.929118	0.00106423 	0.928131	0.932297
132	20    	0.929118	0.00106423 	0.928131	0.932297
133	20    	0.929273	0.00113392 	0.928131	0.932297
134	20    	0.929273	0.00113392 	0.928131	0.932297
135	20    	0.929273	0.00113392 	0.928131	0.932297
136	20    	0.929273	0.00113392 	0.928131	0.932297
137	20    	0.929585	0.00110971 	0.928131	0.932297
138	20    	0.929585	0.00110971 	0.928131	0.932297
139	20    	0.929585	0.00110971 	0.928131	0.932297
140	20    	0.929585	0.00110971 	0.928131	0.932297
141	20    	0.929585	0.00110971 	0.928131	0.932297
142	20    	0.929585	0.00110971 	0.928131	0.932297
143	20    	0.929636	0.00106386 	0.928131	0.932297
144	20    	0.929636	0.00106386 	0.928131	0.932297
145	20    	0.929636	0.00106386 	0.928131	0.932297
146	20    	0.929688	0.00101329 	0.928131	0.932297
147	20    	0.929688	0.00101329 	0.928131	0.932297
148	20    	0.929844	0.00100114 	0.928131	0.932297
149	20    	0.929844	0.00100114 	0.928131	0.932297
150	20    	0.929844	0.00100114 	0.928131	0.932297
151	20    	0.929844	0.00100114 	0.928131	0.932297
152	20    	0.930052	0.00105501 	0.929169	0.932297
153	20    	0.930052	0.00105501 	0.929169	0.932297
154	20    	0.930052	0.00105501 	0.929169	0.932297
155	20    	0.930104	0.00103562 	0.929169	0.932297
156	20    	0.930104	0.00103562 	0.929169	0.932297
157	20    	0.930104	0.00103562 	0.929169	0.932297
158	20    	0.930104	0.00103562 	0.929169	0.932297
159	20    	0.930104	0.00103562 	0.929169	0.932297
160	20    	0.930104	0.00103562 	0.929169	0.932297
161	20    	0.930104	0.00103562 	0.929169	0.932297
162	20    	0.930104	0.00103562 	0.929169	0.932297
163	20    	0.930156	0.00101321 	0.929169	0.932297
164	20    	0.930156	0.00101321 	0.929169	0.932297
165	20    	0.930312	0.00108745 	0.929169	0.932297
166	20    	0.930312	0.00108745 	0.929169	0.932297
167	20    	0.930312	0.00108745 	0.929169	0.932297
168	20    	0.930312	0.00108745 	0.929169	0.932297
169	20    	0.930312	0.00108745 	0.929169	0.932297
170	20    	0.930312	0.00108745 	0.929169	0.932297
171	20    	0.930312	0.00108745 	0.929169	0.932297
172	20    	0.930573	0.00136876 	0.929169	0.934372
173	20    	0.930573	0.00136876 	0.929169	0.934372
174	20    	0.930573	0.00136876 	0.929169	0.934372
175	20    	0.930573	0.00136876 	0.929169	0.934372
176	20    	0.930573	0.00136876 	0.929169	0.934372
177	20    	0.930729	0.0013781  	0.929169	0.934372
178	20    	0.930729	0.0013781  	0.929169	0.934372
179	20    	0.930729	0.0013781  	0.929169	0.934372
180	20    	0.930729	0.0013781  	0.929169	0.934372
181	20    	0.930729	0.0013781  	0.929169	0.934372
182	20    	0.930729	0.0013781  	0.929169	0.934372
183	20    	0.930729	0.0013781  	0.929169	0.934372
184	20    	0.930729	0.0013781  	0.929169	0.934372
185	20    	0.930729	0.0013781  	0.929169	0.934372
186	20    	0.930729	0.0013781  	0.929169	0.934372
187	20    	0.930729	0.0013781  	0.929169	0.934372
188	20    	0.930729	0.0013781  	0.929169	0.934372
189	20    	0.930729	0.0013781  	0.929169	0.934372
190	20    	0.930729	0.0013781  	0.929169	0.934372
191	20    	0.930989	0.00131309 	0.929169	0.934372
192	20    	0.931145	0.00127262 	0.929169	0.934372
193	20    	0.931145	0.00127262 	0.929169	0.934372
194	20    	0.931145	0.00127262 	0.929169	0.934372
195	20    	0.931145	0.00127262 	0.929169	0.934372
196	20    	0.931145	0.00127262 	0.929169	0.934372
197	20    	0.931353	0.00108936 	0.930206	0.934372
198	20    	0.931458	0.0010745  	0.930206	0.934372
199	20    	0.931458	0.0010745  	0.930206	0.934372
200	20    	0.931718	0.0010683  	0.930206	0.934372
201	20    	0.931718	0.0010683  	0.930206	0.934372
202	20    	0.931718	0.0010683  	0.930206	0.934372
203	20    	0.931718	0.0010683  	0.930206	0.934372
204	20    	0.93177 	0.0010176  	0.930206	0.934372
205	20    	0.931875	0.000957144	0.930206	0.934372
206	20    	0.931875	0.000957144	0.930206	0.934372
207	20    	0.932135	0.00115496 	0.930206	0.93541 
208	20    	0.932135	0.00115496 	0.930206	0.93541 
209	20    	0.932135	0.00115496 	0.930206	0.93541 
210	20    	0.932135	0.00115496 	0.930206	0.93541 
211	20    	0.932135	0.00115496 	0.930206	0.93541 
212	20    	0.932187	0.00108856 	0.931244	0.93541 
213	20    	0.932343	0.00116394 	0.931244	0.93541 
214	20    	0.932343	0.00116394 	0.931244	0.93541 
215	20    	0.932343	0.00116394 	0.931244	0.93541 
216	20    	0.932343	0.00116394 	0.931244	0.93541 
217	20    	0.932396	0.00113651 	0.931244	0.93541 
218	20    	0.932396	0.00113651 	0.931244	0.93541 
219	20    	0.932396	0.00113651 	0.931244	0.93541 
220	20    	0.9325  	0.00112179 	0.931244	0.93541 
221	20    	0.932553	0.00108571 	0.931244	0.93541 
222	20    	0.932553	0.00108571 	0.931244	0.93541 
223	20    	0.932553	0.00108571 	0.931244	0.93541 
224	20    	0.932553	0.00108571 	0.931244	0.93541 
225	20    	0.932553	0.00108571 	0.931244	0.93541 
226	20    	0.932553	0.00108571 	0.931244	0.93541 
227	20    	0.932553	0.00108571 	0.931244	0.93541 
228	20    	0.932553	0.00108571 	0.931244	0.93541 
229	20    	0.932658	0.00105483 	0.931244	0.93541 
230	20    	0.932658	0.00105483 	0.931244	0.93541 
231	20    	0.932658	0.00105483 	0.931244	0.93541 
232	20    	0.932658	0.00105483 	0.931244	0.93541 
233	20    	0.932658	0.00105483 	0.931244	0.93541 
234	20    	0.932658	0.00105483 	0.931244	0.93541 
235	20    	0.932658	0.00105483 	0.931244	0.93541 
236	20    	0.932658	0.00105483 	0.931244	0.93541 
237	20    	0.932658	0.00105483 	0.931244	0.93541 
238	20    	0.932658	0.00105483 	0.931244	0.93541 
239	20    	0.932658	0.00105483 	0.931244	0.93541 
240	20    	0.93271 	0.0010082  	0.931244	0.93541 
241	20    	0.93271 	0.0010082  	0.931244	0.93541 
242	20    	0.932919	0.001109   	0.931244	0.93541 
243	20    	0.932919	0.001109   	0.931244	0.93541 
244	20    	0.932919	0.001109   	0.931244	0.93541 
245	20    	0.932919	0.001109   	0.931244	0.93541 
246	20    	0.932919	0.001109   	0.931244	0.93541 
247	20    	0.932919	0.001109   	0.931244	0.93541 
248	20    	0.932919	0.001109   	0.931244	0.93541 
249	20    	0.932919	0.001109   	0.931244	0.93541 
250	20    	0.932919	0.001109   	0.931244	0.93541 
251	20    	0.932919	0.001109   	0.931244	0.93541 
252	20    	0.933179	0.00128434 	0.932297	0.936462
253	20    	0.933179	0.00128434 	0.932297	0.936462
254	20    	0.93344 	0.0015736  	0.932297	0.9375  
255	20    	0.933595	0.00160646 	0.932297	0.9375  
256	20    	0.933595	0.00160646 	0.932297	0.9375  
257	20    	0.933595	0.00160646 	0.932297	0.9375  
258	20    	0.933595	0.00160646 	0.932297	0.9375  
259	20    	0.933595	0.00160646 	0.932297	0.9375  
260	20    	0.933595	0.00160646 	0.932297	0.9375  
261	20    	0.933804	0.00169235 	0.932297	0.9375  
262	20    	0.933804	0.00169235 	0.932297	0.9375  
263	20    	0.934012	0.00174946 	0.932297	0.9375  
264	20    	0.934116	0.00170565 	0.932297	0.9375  
265	20    	0.934323	0.00159435 	0.932297	0.9375  
266	20    	0.934323	0.00159435 	0.932297	0.9375  
267	20    	0.934323	0.00159435 	0.932297	0.9375  
268	20    	0.934323	0.00159435 	0.932297	0.9375  
269	20    	0.934323	0.00159435 	0.932297	0.9375  
270	20    	0.934531	0.00158811 	0.932297	0.9375  
271	20    	0.934531	0.00158811 	0.932297	0.9375  
272	20    	0.934531	0.00158811 	0.932297	0.9375  
273	20    	0.934583	0.00153015 	0.932297	0.9375  
274	20    	0.934687	0.00143924 	0.932297	0.9375  
275	20    	0.934947	0.00145385 	0.932297	0.9375  
276	20    	0.935207	0.00142148 	0.933334	0.9375  
277	20    	0.935207	0.00142148 	0.933334	0.9375  
278	20    	0.935207	0.00142148 	0.933334	0.9375  
279	20    	0.935207	0.00142148 	0.933334	0.9375  
280	20    	0.935207	0.00142148 	0.933334	0.9375  
281	20    	0.935207	0.00142148 	0.933334	0.9375  
282	20    	0.935207	0.00142148 	0.933334	0.9375  
283	20    	0.935207	0.00142148 	0.933334	0.9375  
284	20    	0.935207	0.00142148 	0.933334	0.9375  
285	20    	0.935207	0.00142148 	0.933334	0.9375  
286	20    	0.935207	0.00142148 	0.933334	0.9375  
287	20    	0.935207	0.00142148 	0.933334	0.9375  
288	20    	0.935207	0.00142148 	0.933334	0.9375  
289	20    	0.935207	0.00142148 	0.933334	0.9375  
290	20    	0.935207	0.00142148 	0.933334	0.9375  
291	20    	0.935207	0.00142148 	0.933334	0.9375  
292	20    	0.935207	0.00142148 	0.933334	0.9375  
293	20    	0.935207	0.00142148 	0.933334	0.9375  
294	20    	0.935207	0.00142148 	0.933334	0.9375  
295	20    	0.935259	0.00137018 	0.933334	0.9375  
296	20    	0.935259	0.00137018 	0.933334	0.9375  
297	20    	0.935259	0.00137018 	0.933334	0.9375  
298	20    	0.935468	0.00137833 	0.933334	0.9375  
299	20    	0.935468	0.00137833 	0.933334	0.9375  
300	20    	0.935468	0.00137833 	0.933334	0.9375  
301	20    	0.935468	0.00137833 	0.933334	0.9375  
302	20    	0.935571	0.00128906 	0.933334	0.9375  
303	20    	0.935571	0.00128906 	0.933334	0.9375  
304	20    	0.935571	0.00128906 	0.933334	0.9375  
305	20    	0.935571	0.00128906 	0.933334	0.9375  
306	20    	0.935571	0.00128906 	0.933334	0.9375  
307	20    	0.935571	0.00128906 	0.933334	0.9375  
308	20    	0.935571	0.00128906 	0.933334	0.9375  
309	20    	0.935571	0.00128906 	0.933334	0.9375  
310	20    	0.93578 	0.00124663 	0.934372	0.9375  
311	20    	0.93578 	0.00124663 	0.934372	0.9375  
312	20    	0.936092	0.0015914  	0.934372	0.940628
313	20    	0.936249	0.00156818 	0.934372	0.940628
314	20    	0.936249	0.00156818 	0.934372	0.940628
315	20    	0.93651 	0.00166533 	0.934372	0.940628
316	20    	0.93651 	0.00166533 	0.934372	0.940628
317	20    	0.93651 	0.00166533 	0.934372	0.940628
318	20    	0.93651 	0.00166533 	0.934372	0.940628
319	20    	0.93651 	0.00166533 	0.934372	0.940628
320	20    	0.93651 	0.00166533 	0.934372	0.940628
321	20    	0.93651 	0.00166533 	0.934372	0.940628
322	20    	0.936613	0.00155775 	0.934372	0.940628
323	20    	0.936613	0.00155775 	0.934372	0.940628
324	20    	0.936613	0.00155775 	0.934372	0.940628
325	20    	0.936613	0.00155775 	0.934372	0.940628
326	20    	0.936613	0.00155775 	0.934372	0.940628
327	20    	0.936874	0.001597   	0.934372	0.940628
328	20    	0.936874	0.001597   	0.934372	0.940628
329	20    	0.936874	0.001597   	0.934372	0.940628
330	20    	0.937344	0.00209405 	0.93541 	0.943756
331	20    	0.937344	0.00209405 	0.93541 	0.943756
332	20    	0.937344	0.00209405 	0.93541 	0.943756
333	20    	0.937344	0.00209405 	0.93541 	0.943756
334	20    	0.937344	0.00209405 	0.93541 	0.943756
335	20    	0.937344	0.00209405 	0.93541 	0.943756
336	20    	0.937396	0.00205768 	0.93541 	0.943756
337	20    	0.937553	0.00201925 	0.93541 	0.943756
338	20    	0.937553	0.00201925 	0.93541 	0.943756
339	20    	0.937553	0.00201925 	0.93541 	0.943756
340	20    	0.937553	0.00201925 	0.93541 	0.943756
341	20    	0.937762	0.00200292 	0.93541 	0.943756
342	20    	0.937762	0.00200292 	0.93541 	0.943756
343	20    	0.937762	0.00200292 	0.93541 	0.943756
344	20    	0.937762	0.00200292 	0.93541 	0.943756
345	20    	0.937762	0.00200292 	0.93541 	0.943756
346	20    	0.937762	0.00200292 	0.93541 	0.943756
347	20    	0.937762	0.00200292 	0.93541 	0.943756
348	20    	0.937762	0.00200292 	0.93541 	0.943756
349	20    	0.937762	0.00200292 	0.93541 	0.943756
350	20    	0.937762	0.00200292 	0.93541 	0.943756
351	20    	0.937762	0.00200292 	0.93541 	0.943756
352	20    	0.937971	0.00196432 	0.93541 	0.943756
353	20    	0.937971	0.00196432 	0.93541 	0.943756
354	20    	0.938232	0.00195335 	0.93541 	0.943756
355	20    	0.938232	0.00195335 	0.93541 	0.943756
356	20    	0.938232	0.00195335 	0.93541 	0.943756
357	20    	0.938232	0.00195335 	0.93541 	0.943756
358	20    	0.938232	0.00195335 	0.93541 	0.943756
359	20    	0.938232	0.00195335 	0.93541 	0.943756
360	20    	0.938232	0.00195335 	0.93541 	0.943756
361	20    	0.938232	0.00195335 	0.93541 	0.943756
362	20    	0.938544	0.00197715 	0.936462	0.943756
363	20    	0.938544	0.00197715 	0.936462	0.943756
364	20    	0.938544	0.00197715 	0.936462	0.943756
365	20    	0.938544	0.00197715 	0.936462	0.943756
366	20    	0.938544	0.00197715 	0.936462	0.943756
367	20    	0.938544	0.00197715 	0.936462	0.943756
368	20    	0.938544	0.00197715 	0.936462	0.943756
369	20    	0.938544	0.00197715 	0.936462	0.943756
370	20    	0.938544	0.00197715 	0.936462	0.943756
371	20    	0.938544	0.00197715 	0.936462	0.943756
372	20    	0.938544	0.00197715 	0.936462	0.943756
373	20    	0.938544	0.00197715 	0.936462	0.943756
374	20    	0.938544	0.00197715 	0.936462	0.943756
375	20    	0.938544	0.00197715 	0.936462	0.943756
376	20    	0.938544	0.00197715 	0.936462	0.943756
377	20    	0.938544	0.00197715 	0.936462	0.943756
378	20    	0.938701	0.00192941 	0.936462	0.943756
379	20    	0.938701	0.00192941 	0.936462	0.943756
380	20    	0.938857	0.0018674  	0.936462	0.943756
381	20    	0.938857	0.0018674  	0.936462	0.943756
382	20    	0.938909	0.00181379 	0.936462	0.943756
383	20    	0.939065	0.00166527 	0.9375  	0.943756
384	20    	0.939065	0.00166527 	0.9375  	0.943756
385	20    	0.939065	0.00166527 	0.9375  	0.943756
386	20    	0.939065	0.00166527 	0.9375  	0.943756
387	20    	0.939065	0.00166527 	0.9375  	0.943756
388	20    	0.939065	0.00166527 	0.9375  	0.943756
389	20    	0.939065	0.00166527 	0.9375  	0.943756
390	20    	0.939065	0.00166527 	0.9375  	0.943756
391	20    	0.939065	0.00166527 	0.9375  	0.943756
392	20    	0.939065	0.00166527 	0.9375  	0.943756
393	20    	0.939065	0.00166527 	0.9375  	0.943756
394	20    	0.939065	0.00166527 	0.9375  	0.943756
395	20    	0.939065	0.00166527 	0.9375  	0.943756
396	20    	0.939065	0.00166527 	0.9375  	0.943756
397	20    	0.939221	0.00165784 	0.9375  	0.943756
398	20    	0.939221	0.00165784 	0.9375  	0.943756
399	20    	0.939221	0.00165784 	0.9375  	0.943756
400	20    	0.939221	0.00165784 	0.9375  	0.943756
401	20    	0.939221	0.00165784 	0.9375  	0.943756
402	20    	0.939221	0.00165784 	0.9375  	0.943756
403	20    	0.939221	0.00165784 	0.9375  	0.943756
404	20    	0.939221	0.00165784 	0.9375  	0.943756
405	20    	0.939221	0.00165784 	0.9375  	0.943756
406	20    	0.939221	0.00165784 	0.9375  	0.943756
407	20    	0.939221	0.00165784 	0.9375  	0.943756
408	20    	0.939221	0.00165784 	0.9375  	0.943756
409	20    	0.939221	0.00165784 	0.9375  	0.943756
410	20    	0.939221	0.00165784 	0.9375  	0.943756
411	20    	0.939221	0.00165784 	0.9375  	0.943756
412	20    	0.939221	0.00165784 	0.9375  	0.943756
413	20    	0.939221	0.00165784 	0.9375  	0.943756
414	20    	0.939273	0.00161895 	0.9375  	0.943756
415	20    	0.939273	0.00161895 	0.9375  	0.943756
416	20    	0.939273	0.00161895 	0.9375  	0.943756
417	20    	0.939273	0.00161895 	0.9375  	0.943756
418	20    	0.939273	0.00161895 	0.9375  	0.943756
419	20    	0.939273	0.00161895 	0.9375  	0.943756
420	20    	0.939273	0.00161895 	0.9375  	0.943756
421	20    	0.939273	0.00161895 	0.9375  	0.943756
422	20    	0.939273	0.00161895 	0.9375  	0.943756
423	20    	0.939273	0.00161895 	0.9375  	0.943756
424	20    	0.939273	0.00161895 	0.9375  	0.943756
425	20    	0.939273	0.00161895 	0.9375  	0.943756
426	20    	0.939273	0.00161895 	0.9375  	0.943756
427	20    	0.939273	0.00161895 	0.9375  	0.943756
428	20    	0.939325	0.00157739 	0.9375  	0.943756
429	20    	0.939325	0.00157739 	0.9375  	0.943756
430	20    	0.939325	0.00157739 	0.9375  	0.943756
431	20    	0.939325	0.00157739 	0.9375  	0.943756
432	20    	0.939325	0.00157739 	0.9375  	0.943756
433	20    	0.939325	0.00157739 	0.9375  	0.943756
434	20    	0.939325	0.00157739 	0.9375  	0.943756
435	20    	0.939325	0.00157739 	0.9375  	0.943756
436	20    	0.939325	0.00157739 	0.9375  	0.943756
437	20    	0.939325	0.00157739 	0.9375  	0.943756
438	20    	0.939325	0.00157739 	0.9375  	0.943756
439	20    	0.939481	0.0015434  	0.9375  	0.943756
440	20    	0.939481	0.0015434  	0.9375  	0.943756
441	20    	0.939481	0.0015434  	0.9375  	0.943756
442	20    	0.939481	0.0015434  	0.9375  	0.943756
443	20    	0.939481	0.0015434  	0.9375  	0.943756
444	20    	0.939481	0.0015434  	0.9375  	0.943756
445	20    	0.939481	0.0015434  	0.9375  	0.943756
446	20    	0.939481	0.0015434  	0.9375  	0.943756
447	20    	0.939481	0.0015434  	0.9375  	0.943756
448	20    	0.939481	0.0015434  	0.9375  	0.943756
449	20    	0.939481	0.0015434  	0.9375  	0.943756
450	20    	0.939481	0.0015434  	0.9375  	0.943756
451	20    	0.939481	0.0015434  	0.9375  	0.943756
452	20    	0.939481	0.0015434  	0.9375  	0.943756
453	20    	0.939481	0.0015434  	0.9375  	0.943756
454	20    	0.939481	0.0015434  	0.9375  	0.943756
455	20    	0.939481	0.0015434  	0.9375  	0.943756
456	20    	0.939742	0.00162392 	0.9375  	0.943756
457	20    	0.939742	0.00162392 	0.9375  	0.943756
458	20    	0.939742	0.00162392 	0.9375  	0.943756
459	20    	0.939846	0.00154147 	0.9375  	0.943756
460	20    	0.939846	0.00154147 	0.9375  	0.943756
461	20    	0.939846	0.00154147 	0.9375  	0.943756
462	20    	0.939846	0.00154147 	0.9375  	0.943756
463	20    	0.939846	0.00154147 	0.9375  	0.943756
464	20    	0.939846	0.00154147 	0.9375  	0.943756
465	20    	0.939846	0.00154147 	0.9375  	0.943756
466	20    	0.939846	0.00154147 	0.9375  	0.943756
467	20    	0.939846	0.00154147 	0.9375  	0.943756
468	20    	0.939846	0.00154147 	0.9375  	0.943756
469	20    	0.939951	0.00144681 	0.9375  	0.943756
470	20    	0.940107	0.00133847 	0.938538	0.943756
471	20    	0.940107	0.00133847 	0.938538	0.943756
472	20    	0.940107	0.00133847 	0.938538	0.943756
473	20    	0.940107	0.00133847 	0.938538	0.943756
474	20    	0.940107	0.00133847 	0.938538	0.943756
475	20    	0.94016 	0.00129573 	0.938538	0.943756
476	20    	0.94016 	0.00129573 	0.938538	0.943756
477	20    	0.94016 	0.00129573 	0.938538	0.943756
478	20    	0.94016 	0.00129573 	0.938538	0.943756
479	20    	0.940524	0.00131139 	0.938538	0.943756
480	20    	0.940524	0.00131139 	0.938538	0.943756
481	20    	0.940524	0.00131139 	0.938538	0.943756
482	20    	0.940524	0.00131139 	0.938538	0.943756
483	20    	0.940524	0.00131139 	0.938538	0.943756
484	20    	0.940524	0.00131139 	0.938538	0.943756
485	20    	0.940524	0.00131139 	0.938538	0.943756
486	20    	0.940524	0.00131139 	0.938538	0.943756
487	20    	0.940629	0.00122964 	0.93959 	0.943756
488	20    	0.940629	0.00122964 	0.93959 	0.943756
489	20    	0.940629	0.00122964 	0.93959 	0.943756
490	20    	0.940733	0.00122519 	0.93959 	0.943756
491	20    	0.940784	0.00119738 	0.93959 	0.943756
492	20    	0.940784	0.00119738 	0.93959 	0.943756
493	20    	0.940784	0.00119738 	0.93959 	0.943756
494	20    	0.940784	0.00119738 	0.93959 	0.943756
495	20    	0.940784	0.00119738 	0.93959 	0.943756
496	20    	0.940784	0.00119738 	0.93959 	0.943756
497	20    	0.940784	0.00119738 	0.93959 	0.943756
498	20    	0.940888	0.00117919 	0.93959 	0.943756
499	20    	0.940888	0.00117919 	0.93959 	0.943756
