gen	nevals	avg     	std        	min     	max     
0  	20    	0.875841	0.00630568 	0.864929	0.88707 
1  	20    	0.881022	0.00354457 	0.876877	0.88707 
2  	20    	0.88406 	0.00279147 	0.879532	0.890167
3  	20    	0.886362	0.00166983 	0.88353 	0.890167
4  	20    	0.888021	0.00251596 	0.886185	0.895477
5  	20    	0.888618	0.00274389 	0.886185	0.895477
6  	20    	0.889636	0.00238132 	0.88707 	0.895477
7  	20    	0.89196 	0.00279862 	0.887955	0.89859 
8  	20    	0.892912	0.00260305 	0.890167	0.89859 
9  	20    	0.893819	0.00233417 	0.891052	0.89859 
10 	20    	0.894881	0.0019418  	0.89238 	0.89859 
11 	20    	0.895168	0.0019758  	0.89238 	0.89859 
12 	20    	0.895301	0.00187037 	0.892822	0.89859 
13 	20    	0.895678	0.00181873 	0.892822	0.89859 
14 	20    	0.896674	0.00208929 	0.894592	0.903458
15 	20    	0.897206	0.00208908 	0.895035	0.903458
16 	20    	0.897495	0.00216612 	0.895035	0.903458
17 	20    	0.897938	0.00249894 	0.895477	0.9039  
18 	20    	0.898513	0.00207292 	0.896362	0.9039  
19 	20    	0.898535	0.0020521  	0.896362	0.9039  
20 	20    	0.899446	0.00207836 	0.897247	0.9039  
21 	20    	0.89967 	0.0019249  	0.89769 	0.9039  
22 	20    	0.900137	0.00191849 	0.898132	0.9039  
23 	20    	0.900537	0.00179419 	0.89859 	0.9039  
24 	20    	0.90109 	0.00228769 	0.89859 	0.907883
25 	20    	0.901577	0.00205598 	0.899033	0.907883
26 	20    	0.901953	0.00186903 	0.899918	0.907883
27 	20    	0.902462	0.00156371 	0.900803	0.907883
28 	20    	0.903015	0.00152005 	0.901245	0.907883
29 	20    	0.903303	0.00155995 	0.90213 	0.907883
30 	20    	0.903723	0.00164026 	0.90213 	0.907883
31 	20    	0.904144	0.0017279  	0.90213 	0.907883
32 	20    	0.904564	0.00181103 	0.902573	0.908325
33 	20    	0.904608	0.0017667  	0.902573	0.908325
34 	20    	0.905206	0.00191086 	0.903015	0.909653
35 	20    	0.905206	0.00191086 	0.903015	0.909653
36 	20    	0.905228	0.00188779 	0.903015	0.909653
37 	20    	0.905228	0.00188779 	0.903015	0.909653
38 	20    	0.905759	0.00174551 	0.903458	0.909653
39 	20    	0.906002	0.00151925 	0.903458	0.909653
40 	20    	0.906002	0.00151925 	0.903458	0.909653
41 	20    	0.906201	0.00143115 	0.9039  	0.909653
42 	20    	0.906445	0.00131919 	0.904343	0.909653
43 	20    	0.906644	0.00128707 	0.904785	0.909653
44 	20    	0.906666	0.00125842 	0.905228	0.909653
45 	20    	0.906732	0.00119885 	0.905228	0.909653
46 	20    	0.906732	0.00119885 	0.905228	0.909653
47 	20    	0.906887	0.00119456 	0.905228	0.909653
48 	20    	0.906887	0.00119456 	0.905228	0.909653
49 	20    	0.906909	0.00116741 	0.90567 	0.909653
50 	20    	0.906909	0.00116741 	0.90567 	0.909653
51 	20    	0.906909	0.00116741 	0.90567 	0.909653
52 	20    	0.906909	0.00116741 	0.90567 	0.909653
53 	20    	0.907086	0.00117576 	0.90567 	0.909653
54 	20    	0.907086	0.00117576 	0.90567 	0.909653
55 	20    	0.907197	0.0011409  	0.90567 	0.909653
56 	20    	0.907352	0.00113337 	0.90567 	0.909653
57 	20    	0.907462	0.0010328  	0.906113	0.909653
58 	20    	0.907706	0.00103209 	0.906113	0.909653
59 	20    	0.907706	0.00103209 	0.906113	0.909653
60 	20    	0.907706	0.00103209 	0.906113	0.909653
61 	20    	0.907706	0.00103209 	0.906113	0.909653
62 	20    	0.908082	0.00112361 	0.906113	0.91098 
63 	20    	0.908657	0.00149325 	0.906998	0.912308
64 	20    	0.90879 	0.00139565 	0.90744 	0.912308
65 	20    	0.90879 	0.00139565 	0.90744 	0.912308
66 	20    	0.908856	0.00136102 	0.90744 	0.912308
67 	20    	0.908967	0.00133101 	0.90744 	0.912308
68 	20    	0.908967	0.00133101 	0.90744 	0.912308
69 	20    	0.909055	0.0012846  	0.90744 	0.912308
70 	20    	0.909144	0.00123009 	0.907883	0.912308
71 	20    	0.909144	0.00123009 	0.907883	0.912308
72 	20    	0.909144	0.00123009 	0.907883	0.912308
73 	20    	0.909144	0.00123009 	0.907883	0.912308
74 	20    	0.909144	0.00123009 	0.907883	0.912308
75 	20    	0.909144	0.00123009 	0.907883	0.912308
76 	20    	0.909144	0.00123009 	0.907883	0.912308
77 	20    	0.909188	0.00119947 	0.907883	0.912308
78 	20    	0.909188	0.00119947 	0.907883	0.912308
79 	20    	0.909188	0.00119947 	0.907883	0.912308
80 	20    	0.909254	0.00116152 	0.907883	0.912308
81 	20    	0.909387	0.00114881 	0.908325	0.912308
82 	20    	0.909387	0.00114881 	0.908325	0.912308
83 	20    	0.909387	0.00114881 	0.908325	0.912308
84 	20    	0.909387	0.00114881 	0.908325	0.912308
85 	20    	0.909387	0.00114881 	0.908325	0.912308
86 	20    	0.909387	0.00114881 	0.908325	0.912308
87 	20    	0.909431	0.00112382 	0.908325	0.912308
88 	20    	0.909431	0.00112382 	0.908325	0.912308
89 	20    	0.909431	0.00112382 	0.908325	0.912308
90 	20    	0.909431	0.00112382 	0.908325	0.912308
91 	20    	0.909431	0.00112382 	0.908325	0.912308
92 	20    	0.909431	0.00112382 	0.908325	0.912308
93 	20    	0.909763	0.00161908 	0.908325	0.914963
94 	20    	0.90983 	0.00158563 	0.908325	0.914963
95 	20    	0.90994 	0.00155366 	0.908325	0.914963
96 	20    	0.910117	0.0015612  	0.908768	0.914963
97 	20    	0.910162	0.00153464 	0.908768	0.914963
98 	20    	0.910162	0.00153464 	0.908768	0.914963
99 	20    	0.910471	0.0018206  	0.908768	0.914963
100	20    	0.910493	0.00180236 	0.908768	0.914963
101	20    	0.910648	0.00172449 	0.90921 	0.914963
102	20    	0.910715	0.00169312 	0.90921 	0.914963
103	20    	0.910847	0.00167393 	0.90921 	0.914963
104	20    	0.910847	0.00167393 	0.90921 	0.914963
105	20    	0.910847	0.00167393 	0.90921 	0.914963
106	20    	0.911002	0.00165851 	0.90921 	0.914963
107	20    	0.911069	0.00159915 	0.909653	0.914963
108	20    	0.911157	0.00156699 	0.909653	0.914963
109	20    	0.911246	0.00152904 	0.909653	0.914963
110	20    	0.911511	0.00168268 	0.909653	0.914963
111	20    	0.911666	0.00164666 	0.909653	0.914963
112	20    	0.911688	0.00162225 	0.909653	0.914963
113	20    	0.91171 	0.00159716 	0.909653	0.914963
114	20    	0.911755	0.00155114 	0.910095	0.914963
115	20    	0.911755	0.00155114 	0.910095	0.914963
116	20    	0.911777	0.00153032 	0.910095	0.914963
117	20    	0.911777	0.00153032 	0.910095	0.914963
118	20    	0.911777	0.00153032 	0.910095	0.914963
119	20    	0.911843	0.00147079 	0.910538	0.914963
120	20    	0.911887	0.00144392 	0.910538	0.914963
121	20    	0.911909	0.00142635 	0.910538	0.914963
122	20    	0.911909	0.00142635 	0.910538	0.914963
123	20    	0.911909	0.00142635 	0.910538	0.914963
124	20    	0.912175	0.00139301 	0.910538	0.914963
125	20    	0.912197	0.00137016 	0.910538	0.914963
126	20    	0.912352	0.00134873 	0.91098 	0.914963
127	20    	0.912352	0.00134873 	0.91098 	0.914963
128	20    	0.912463	0.00132216 	0.91098 	0.914963
129	20    	0.912662	0.00124846 	0.91098 	0.914963
130	20    	0.912662	0.00124846 	0.91098 	0.914963
131	20    	0.912662	0.00124846 	0.91098 	0.914963
132	20    	0.912662	0.00124846 	0.91098 	0.914963
133	20    	0.912662	0.00124846 	0.91098 	0.914963
134	20    	0.912662	0.00124846 	0.91098 	0.914963
135	20    	0.912883	0.00132086 	0.91098 	0.915405
136	20    	0.912883	0.00132086 	0.91098 	0.915405
137	20    	0.912883	0.00132086 	0.91098 	0.915405
138	20    	0.912883	0.00132086 	0.91098 	0.915405
139	20    	0.912949	0.0012553  	0.911423	0.915405
140	20    	0.912949	0.0012553  	0.911423	0.915405
141	20    	0.912949	0.0012553  	0.911423	0.915405
142	20    	0.912949	0.0012553  	0.911423	0.915405
143	20    	0.912949	0.0012553  	0.911423	0.915405
144	20    	0.912994	0.00121568 	0.911423	0.915405
145	20    	0.912994	0.00121568 	0.911423	0.915405
146	20    	0.912994	0.00121568 	0.911423	0.915405
147	20    	0.91348 	0.00138013 	0.911865	0.91629 
148	20    	0.91348 	0.00138013 	0.911865	0.91629 
149	20    	0.913569	0.00132954 	0.911865	0.91629 
150	20    	0.913946	0.00144985 	0.912308	0.917191
151	20    	0.913946	0.00144985 	0.912308	0.917191
152	20    	0.913946	0.00144985 	0.912308	0.917191
153	20    	0.913946	0.00144985 	0.912308	0.917191
154	20    	0.913968	0.0014279  	0.912308	0.917191
155	20    	0.913968	0.0014279  	0.912308	0.917191
156	20    	0.913968	0.0014279  	0.912308	0.917191
157	20    	0.913968	0.0014279  	0.912308	0.917191
158	20    	0.91399 	0.00140525 	0.912308	0.917191
159	20    	0.914256	0.00155753 	0.912308	0.917633
160	20    	0.914278	0.00153264 	0.912308	0.917633
161	20    	0.914278	0.00153264 	0.912308	0.917633
162	20    	0.914278	0.00153264 	0.912308	0.917633
163	20    	0.914301	0.00150701 	0.91275 	0.917633
164	20    	0.914301	0.00150701 	0.91275 	0.917633
165	20    	0.914323	0.00148721 	0.91275 	0.917633
166	20    	0.914323	0.00148721 	0.91275 	0.917633
167	20    	0.914323	0.00148721 	0.91275 	0.917633
168	20    	0.914323	0.00148721 	0.91275 	0.917633
169	20    	0.914323	0.00148721 	0.91275 	0.917633
170	20    	0.914389	0.00143094 	0.91275 	0.917633
171	20    	0.914544	0.0014127  	0.91275 	0.917633
172	20    	0.91461 	0.00135695 	0.913193	0.917633
173	20    	0.91461 	0.00135695 	0.913193	0.917633
174	20    	0.914655	0.00132403 	0.913193	0.917633
175	20    	0.914655	0.00132403 	0.913193	0.917633
176	20    	0.914655	0.00132403 	0.913193	0.917633
177	20    	0.914655	0.00132403 	0.913193	0.917633
178	20    	0.914655	0.00132403 	0.913193	0.917633
179	20    	0.914743	0.00128185 	0.913193	0.917633
180	20    	0.914743	0.00128185 	0.913193	0.917633
181	20    	0.914743	0.00128185 	0.913193	0.917633
182	20    	0.914809	0.00123331 	0.913193	0.917633
183	20    	0.914854	0.00118961 	0.913193	0.917633
184	20    	0.914854	0.00118961 	0.913193	0.917633
185	20    	0.915009	0.00116467 	0.913635	0.917633
186	20    	0.915009	0.00116467 	0.913635	0.917633
187	20    	0.915319	0.00129899 	0.913635	0.918518
188	20    	0.915319	0.00129899 	0.913635	0.918518
189	20    	0.915319	0.00129899 	0.913635	0.918518
190	20    	0.915319	0.00129899 	0.913635	0.918518
191	20    	0.915319	0.00129899 	0.913635	0.918518
192	20    	0.915319	0.00129899 	0.913635	0.918518
193	20    	0.915319	0.00129899 	0.913635	0.918518
194	20    	0.915518	0.00119068 	0.914078	0.918518
195	20    	0.915562	0.00115215 	0.914078	0.918518
196	20    	0.915562	0.00115215 	0.914078	0.918518
197	20    	0.915562	0.00115215 	0.914078	0.918518
198	20    	0.915562	0.00115215 	0.914078	0.918518
199	20    	0.915562	0.00115215 	0.914078	0.918518
200	20    	0.915562	0.00115215 	0.914078	0.918518
201	20    	0.915562	0.00115215 	0.914078	0.918518
202	20    	0.915562	0.00115215 	0.914078	0.918518
203	20    	0.915695	0.00108175 	0.91452 	0.918518
204	20    	0.915784	0.00105406 	0.91452 	0.918518
205	20    	0.915784	0.00105406 	0.91452 	0.918518
206	20    	0.915784	0.00105406 	0.91452 	0.918518
207	20    	0.915784	0.00105406 	0.91452 	0.918518
208	20    	0.915784	0.00105406 	0.91452 	0.918518
209	20    	0.915895	0.00103214 	0.91452 	0.918518
210	20    	0.915895	0.00103214 	0.91452 	0.918518
211	20    	0.915895	0.00103214 	0.91452 	0.918518
212	20    	0.915895	0.00103214 	0.91452 	0.918518
213	20    	0.915895	0.00103214 	0.91452 	0.918518
214	20    	0.915939	0.000990377	0.914963	0.918518
215	20    	0.915939	0.000990377	0.914963	0.918518
216	20    	0.915939	0.000990377	0.914963	0.918518
217	20    	0.915984	0.000965206	0.914963	0.918518
218	20    	0.915984	0.000965206	0.914963	0.918518
219	20    	0.915984	0.000965206	0.914963	0.918518
220	20    	0.915984	0.000965206	0.914963	0.918518
221	20    	0.915984	0.000965206	0.914963	0.918518
222	20    	0.915984	0.000965206	0.914963	0.918518
223	20    	0.915984	0.000965206	0.914963	0.918518
224	20    	0.915984	0.000965206	0.914963	0.918518
225	20    	0.915984	0.000965206	0.914963	0.918518
226	20    	0.915984	0.000965206	0.914963	0.918518
227	20    	0.915984	0.000965206	0.914963	0.918518
228	20    	0.915984	0.000965206	0.914963	0.918518
229	20    	0.915984	0.000965206	0.914963	0.918518
230	20    	0.915984	0.000965206	0.914963	0.918518
231	20    	0.915984	0.000965206	0.914963	0.918518
232	20    	0.915984	0.000965206	0.914963	0.918518
233	20    	0.915984	0.000965206	0.914963	0.918518
234	20    	0.915984	0.000965206	0.914963	0.918518
235	20    	0.915984	0.000965206	0.914963	0.918518
236	20    	0.915984	0.000965206	0.914963	0.918518
237	20    	0.915984	0.000965206	0.914963	0.918518
238	20    	0.915984	0.000965206	0.914963	0.918518
239	20    	0.915984	0.000965206	0.914963	0.918518
240	20    	0.915984	0.000965206	0.914963	0.918518
241	20    	0.915984	0.000965206	0.914963	0.918518
242	20    	0.916228	0.00125127 	0.914963	0.919846
243	20    	0.916228	0.00125127 	0.914963	0.919846
244	20    	0.916228	0.00125127 	0.914963	0.919846
245	20    	0.916228	0.00125127 	0.914963	0.919846
246	20    	0.916228	0.00125127 	0.914963	0.919846
247	20    	0.916228	0.00125127 	0.914963	0.919846
248	20    	0.916228	0.00125127 	0.914963	0.919846
249	20    	0.916228	0.00125127 	0.914963	0.919846
250	20    	0.916228	0.00125127 	0.914963	0.919846
251	20    	0.916228	0.00125127 	0.914963	0.919846
252	20    	0.916228	0.00125127 	0.914963	0.919846
253	20    	0.916294	0.00121715 	0.914963	0.919846
254	20    	0.916294	0.00121715 	0.914963	0.919846
255	20    	0.916383	0.00118117 	0.914963	0.919846
256	20    	0.916383	0.00118117 	0.914963	0.919846
257	20    	0.916473	0.00113708 	0.914963	0.919846
258	20    	0.916473	0.00113708 	0.914963	0.919846
259	20    	0.916473	0.00113708 	0.914963	0.919846
260	20    	0.916473	0.00113708 	0.914963	0.919846
261	20    	0.916473	0.00113708 	0.914963	0.919846
262	20    	0.916473	0.00113708 	0.914963	0.919846
263	20    	0.916473	0.00113708 	0.914963	0.919846
264	20    	0.916473	0.00113708 	0.914963	0.919846
265	20    	0.916606	0.00106296 	0.915405	0.919846
266	20    	0.916606	0.00106296 	0.915405	0.919846
267	20    	0.916606	0.00106296 	0.915405	0.919846
268	20    	0.916606	0.00106296 	0.915405	0.919846
269	20    	0.916606	0.00106296 	0.915405	0.919846
270	20    	0.916606	0.00106296 	0.915405	0.919846
271	20    	0.916606	0.00106296 	0.915405	0.919846
272	20    	0.91665 	0.00102996 	0.915405	0.919846
273	20    	0.916673	0.00100748 	0.915405	0.919846
274	20    	0.916673	0.00100748 	0.915405	0.919846
275	20    	0.916673	0.00100748 	0.915405	0.919846
276	20    	0.916673	0.00100748 	0.915405	0.919846
277	20    	0.916717	0.000969569	0.915848	0.919846
278	20    	0.916717	0.000969569	0.915848	0.919846
279	20    	0.916717	0.000969569	0.915848	0.919846
280	20    	0.916717	0.000969569	0.915848	0.919846
281	20    	0.916717	0.000969569	0.915848	0.919846
282	20    	0.916717	0.000969569	0.915848	0.919846
283	20    	0.916717	0.000969569	0.915848	0.919846
284	20    	0.916717	0.000969569	0.915848	0.919846
285	20    	0.916762	0.000948857	0.915848	0.919846
286	20    	0.916762	0.000948857	0.915848	0.919846
287	20    	0.916762	0.000948857	0.915848	0.919846
288	20    	0.916762	0.000948857	0.915848	0.919846
289	20    	0.916762	0.000948857	0.915848	0.919846
290	20    	0.916762	0.000948857	0.915848	0.919846
291	20    	0.916762	0.000948857	0.915848	0.919846
292	20    	0.916762	0.000948857	0.915848	0.919846
293	20    	0.916762	0.000948857	0.915848	0.919846
294	20    	0.916762	0.000948857	0.915848	0.919846
295	20    	0.916762	0.000948857	0.915848	0.919846
296	20    	0.916762	0.000948857	0.915848	0.919846
297	20    	0.916762	0.000948857	0.915848	0.919846
298	20    	0.916762	0.000948857	0.915848	0.919846
299	20    	0.916762	0.000948857	0.915848	0.919846
300	20    	0.916762	0.000948857	0.915848	0.919846
301	20    	0.916762	0.000948857	0.915848	0.919846
302	20    	0.916762	0.000948857	0.915848	0.919846
303	20    	0.916762	0.000948857	0.915848	0.919846
304	20    	0.916762	0.000948857	0.915848	0.919846
305	20    	0.916762	0.000948857	0.915848	0.919846
306	20    	0.916762	0.000948857	0.915848	0.919846
307	20    	0.916762	0.000948857	0.915848	0.919846
308	20    	0.916762	0.000948857	0.915848	0.919846
309	20    	0.916762	0.000948857	0.915848	0.919846
310	20    	0.916762	0.000948857	0.915848	0.919846
311	20    	0.916762	0.000948857	0.915848	0.919846
312	20    	0.916762	0.000948857	0.915848	0.919846
313	20    	0.916762	0.000948857	0.915848	0.919846
314	20    	0.916784	0.000932302	0.915848	0.919846
315	20    	0.916784	0.000932302	0.915848	0.919846
316	20    	0.916784	0.000932302	0.915848	0.919846
317	20    	0.916784	0.000932302	0.915848	0.919846
318	20    	0.916784	0.000932302	0.915848	0.919846
319	20    	0.916784	0.000932302	0.915848	0.919846
320	20    	0.916784	0.000932302	0.915848	0.919846
321	20    	0.916851	0.000888422	0.91629 	0.919846
322	20    	0.916851	0.000888422	0.91629 	0.919846
323	20    	0.916851	0.000888422	0.91629 	0.919846
324	20    	0.916851	0.000888422	0.91629 	0.919846
325	20    	0.916851	0.000888422	0.91629 	0.919846
326	20    	0.916851	0.000888422	0.91629 	0.919846
327	20    	0.916851	0.000888422	0.91629 	0.919846
328	20    	0.917073	0.00121525 	0.91629 	0.920731
329	20    	0.917073	0.00121525 	0.91629 	0.920731
330	20    	0.917073	0.00121525 	0.91629 	0.920731
331	20    	0.917073	0.00121525 	0.91629 	0.920731
332	20    	0.917073	0.00121525 	0.91629 	0.920731
333	20    	0.917073	0.00121525 	0.91629 	0.920731
334	20    	0.917073	0.00121525 	0.91629 	0.920731
335	20    	0.917073	0.00121525 	0.91629 	0.920731
336	20    	0.917073	0.00121525 	0.91629 	0.920731
337	20    	0.917073	0.00121525 	0.91629 	0.920731
338	20    	0.917073	0.00121525 	0.91629 	0.920731
339	20    	0.917073	0.00121525 	0.91629 	0.920731
340	20    	0.917273	0.00138674 	0.91629 	0.920731
341	20    	0.917273	0.00138674 	0.91629 	0.920731
342	20    	0.917273	0.00138674 	0.91629 	0.920731
343	20    	0.917273	0.00138674 	0.91629 	0.920731
344	20    	0.917296	0.00137405 	0.91629 	0.920731
345	20    	0.917363	0.00135597 	0.91629 	0.920731
346	20    	0.917363	0.00135597 	0.91629 	0.920731
347	20    	0.917363	0.00135597 	0.91629 	0.920731
348	20    	0.917363	0.00135597 	0.91629 	0.920731
349	20    	0.917363	0.00135597 	0.91629 	0.920731
350	20    	0.917363	0.00135597 	0.91629 	0.920731
351	20    	0.917363	0.00135597 	0.91629 	0.920731
352	20    	0.917363	0.00135597 	0.91629 	0.920731
353	20    	0.917363	0.00135597 	0.91629 	0.920731
354	20    	0.917363	0.00135597 	0.91629 	0.920731
355	20    	0.917363	0.00135597 	0.91629 	0.920731
356	20    	0.917363	0.00135597 	0.91629 	0.920731
357	20    	0.917363	0.00135597 	0.91629 	0.920731
358	20    	0.917363	0.00135597 	0.91629 	0.920731
359	20    	0.917363	0.00135597 	0.91629 	0.920731
360	20    	0.917363	0.00135597 	0.91629 	0.920731
361	20    	0.917363	0.00135597 	0.91629 	0.920731
362	20    	0.917363	0.00135597 	0.91629 	0.920731
363	20    	0.917363	0.00135597 	0.91629 	0.920731
364	20    	0.917363	0.00135597 	0.91629 	0.920731
365	20    	0.917363	0.00135597 	0.91629 	0.920731
366	20    	0.917363	0.00135597 	0.91629 	0.920731
367	20    	0.917408	0.00133438 	0.91629 	0.920731
368	20    	0.917475	0.00131001 	0.91629 	0.920731
369	20    	0.917475	0.00131001 	0.91629 	0.920731
370	20    	0.917475	0.00131001 	0.91629 	0.920731
371	20    	0.917675	0.00141479 	0.91629 	0.920731
372	20    	0.917942	0.00140789 	0.91629 	0.920731
373	20    	0.917942	0.00140789 	0.91629 	0.920731
374	20    	0.918009	0.00135868 	0.916748	0.920731
375	20    	0.918009	0.00135868 	0.916748	0.920731
376	20    	0.918009	0.00135868 	0.916748	0.920731
377	20    	0.918009	0.00135868 	0.916748	0.920731
378	20    	0.918009	0.00135868 	0.916748	0.920731
379	20    	0.918253	0.00153543 	0.916748	0.921616
380	20    	0.918253	0.00153543 	0.916748	0.921616
381	20    	0.918253	0.00153543 	0.916748	0.921616
382	20    	0.918253	0.00153543 	0.916748	0.921616
383	20    	0.918253	0.00153543 	0.916748	0.921616
384	20    	0.918253	0.00153543 	0.916748	0.921616
385	20    	0.918253	0.00153543 	0.916748	0.921616
386	20    	0.918253	0.00153543 	0.916748	0.921616
387	20    	0.918363	0.0015024  	0.916748	0.921616
388	20    	0.918363	0.0015024  	0.916748	0.921616
389	20    	0.918363	0.0015024  	0.916748	0.921616
390	20    	0.918363	0.0015024  	0.916748	0.921616
391	20    	0.918363	0.0015024  	0.916748	0.921616
392	20    	0.918363	0.0015024  	0.916748	0.921616
393	20    	0.918363	0.0015024  	0.916748	0.921616
394	20    	0.918363	0.0015024  	0.916748	0.921616
395	20    	0.918363	0.0015024  	0.916748	0.921616
396	20    	0.918363	0.0015024  	0.916748	0.921616
397	20    	0.918363	0.0015024  	0.916748	0.921616
398	20    	0.918363	0.0015024  	0.916748	0.921616
399	20    	0.918363	0.0015024  	0.916748	0.921616
400	20    	0.918363	0.0015024  	0.916748	0.921616
401	20    	0.918385	0.00148157 	0.916748	0.921616
402	20    	0.918385	0.00148157 	0.916748	0.921616
403	20    	0.918385	0.00148157 	0.916748	0.921616
404	20    	0.918385	0.00148157 	0.916748	0.921616
405	20    	0.918385	0.00148157 	0.916748	0.921616
406	20    	0.918385	0.00148157 	0.916748	0.921616
407	20    	0.918385	0.00148157 	0.916748	0.921616
408	20    	0.918385	0.00148157 	0.916748	0.921616
409	20    	0.918385	0.00148157 	0.916748	0.921616
410	20    	0.918496	0.00143712 	0.916748	0.921616
411	20    	0.918496	0.00143712 	0.916748	0.921616
412	20    	0.918496	0.00143712 	0.916748	0.921616
413	20    	0.918496	0.00143712 	0.916748	0.921616
414	20    	0.918496	0.00143712 	0.916748	0.921616
415	20    	0.918562	0.00138455 	0.916748	0.921616
416	20    	0.918562	0.00138455 	0.916748	0.921616
417	20    	0.918629	0.00132659 	0.917191	0.921616
418	20    	0.918629	0.00132659 	0.917191	0.921616
419	20    	0.918629	0.00132659 	0.917191	0.921616
420	20    	0.918651	0.00130595 	0.917191	0.921616
421	20    	0.918651	0.00130595 	0.917191	0.921616
422	20    	0.918651	0.00130595 	0.917191	0.921616
423	20    	0.918651	0.00130595 	0.917191	0.921616
424	20    	0.918651	0.00130595 	0.917191	0.921616
425	20    	0.918651	0.00130595 	0.917191	0.921616
426	20    	0.918717	0.00126308 	0.917191	0.921616
427	20    	0.918806	0.00121407 	0.917191	0.921616
428	20    	0.918806	0.00121407 	0.917191	0.921616
429	20    	0.918806	0.00121407 	0.917191	0.921616
430	20    	0.918806	0.00121407 	0.917191	0.921616
431	20    	0.918806	0.00121407 	0.917191	0.921616
432	20    	0.918806	0.00121407 	0.917191	0.921616
433	20    	0.918806	0.00121407 	0.917191	0.921616
434	20    	0.918806	0.00121407 	0.917191	0.921616
435	20    	0.918828	0.00118819 	0.917633	0.921616
436	20    	0.918828	0.00118819 	0.917633	0.921616
437	20    	0.918916	0.0011273  	0.917633	0.921616
438	20    	0.918916	0.0011273  	0.917633	0.921616
439	20    	0.918961	0.00109291 	0.917633	0.921616
440	20    	0.918961	0.00109291 	0.917633	0.921616
441	20    	0.918961	0.00109291 	0.917633	0.921616
442	20    	0.918961	0.00109291 	0.917633	0.921616
443	20    	0.918961	0.00109291 	0.917633	0.921616
444	20    	0.919049	0.00105275 	0.917633	0.921616
445	20    	0.919049	0.00105275 	0.917633	0.921616
446	20    	0.919049	0.00105275 	0.917633	0.921616
447	20    	0.919049	0.00105275 	0.917633	0.921616
448	20    	0.919049	0.00105275 	0.917633	0.921616
449	20    	0.919115	0.00100201 	0.917633	0.921616
450	20    	0.919115	0.00100201 	0.917633	0.921616
451	20    	0.919115	0.00100201 	0.917633	0.921616
452	20    	0.919115	0.00100201 	0.917633	0.921616
453	20    	0.919115	0.00100201 	0.917633	0.921616
454	20    	0.919115	0.00100201 	0.917633	0.921616
455	20    	0.919115	0.00100201 	0.917633	0.921616
456	20    	0.919115	0.00100201 	0.917633	0.921616
457	20    	0.919115	0.00100201 	0.917633	0.921616
458	20    	0.919115	0.00100201 	0.917633	0.921616
459	20    	0.919115	0.00100201 	0.917633	0.921616
460	20    	0.919226	0.000953185	0.918076	0.921616
461	20    	0.919226	0.000953185	0.918076	0.921616
462	20    	0.919381	0.00100396 	0.918076	0.921616
463	20    	0.919381	0.00100396 	0.918076	0.921616
464	20    	0.919381	0.00100396 	0.918076	0.921616
465	20    	0.919381	0.00100396 	0.918076	0.921616
466	20    	0.919381	0.00100396 	0.918076	0.921616
467	20    	0.919381	0.00100396 	0.918076	0.921616
468	20    	0.919381	0.00100396 	0.918076	0.921616
469	20    	0.919381	0.00100396 	0.918076	0.921616
470	20    	0.919425	0.000964163	0.918076	0.921616
471	20    	0.919425	0.000964163	0.918076	0.921616
472	20    	0.919425	0.000964163	0.918076	0.921616
473	20    	0.919425	0.000964163	0.918076	0.921616
474	20    	0.919425	0.000964163	0.918076	0.921616
475	20    	0.919425	0.000964163	0.918076	0.921616
476	20    	0.919425	0.000964163	0.918076	0.921616
477	20    	0.919447	0.000937651	0.918518	0.921616
478	20    	0.919447	0.000937651	0.918518	0.921616
479	20    	0.919447	0.000937651	0.918518	0.921616
480	20    	0.919447	0.000937651	0.918518	0.921616
481	20    	0.919447	0.000937651	0.918518	0.921616
482	20    	0.919447	0.000937651	0.918518	0.921616
483	20    	0.919447	0.000937651	0.918518	0.921616
484	20    	0.919447	0.000937651	0.918518	0.921616
485	20    	0.919447	0.000937651	0.918518	0.921616
486	20    	0.919447	0.000937651	0.918518	0.921616
487	20    	0.919447	0.000937651	0.918518	0.921616
488	20    	0.919447	0.000937651	0.918518	0.921616
489	20    	0.919447	0.000937651	0.918518	0.921616
490	20    	0.919447	0.000937651	0.918518	0.921616
491	20    	0.919469	0.000920527	0.918518	0.921616
492	20    	0.919469	0.000920527	0.918518	0.921616
493	20    	0.919536	0.000897096	0.918518	0.921616
494	20    	0.919536	0.000897096	0.918518	0.921616
495	20    	0.919536	0.000897096	0.918518	0.921616
496	20    	0.919536	0.000897096	0.918518	0.921616
497	20    	0.919536	0.000897096	0.918518	0.921616
498	20    	0.919536	0.000897096	0.918518	0.921616
499	20    	0.919536	0.000897096	0.918518	0.921616
