gen	nevals	avg     	std        	min     	max     
0  	20    	0.875284	0.00882088 	0.858994	0.889786
1  	20    	0.881402	0.00477544 	0.875198	0.889786
2  	20    	0.88513 	0.004639   	0.879257	0.897079
3  	20    	0.887398	0.00314303 	0.883301	0.897079
4  	20    	0.889667	0.00267807 	0.886551	0.897079
5  	20    	0.891651	0.0033645  	0.888168	0.899521
6  	20    	0.892785	0.00335491 	0.889786	0.899521
7  	20    	0.895057	0.00306203 	0.891403	0.90033 
8  	20    	0.897327	0.00417175 	0.893845	0.912476
9  	20    	0.899392	0.00470578 	0.894653	0.912476
10 	20    	0.901216	0.00434062 	0.897079	0.912476
11 	20    	0.901948	0.0039182  	0.898697	0.912476
12 	20    	0.902515	0.00377286 	0.899521	0.912476
13 	20    	0.903446	0.00362422 	0.899521	0.912476
14 	20    	0.904377	0.00325047 	0.901138	0.912476
15 	20    	0.906158	0.00408841 	0.901947	0.919769
16 	20    	0.906644	0.003849   	0.902756	0.919769
17 	20    	0.907495	0.0034412  	0.904373	0.919769
18 	20    	0.908023	0.00320585 	0.905182	0.919769
19 	20    	0.908429	0.00316897 	0.905991	0.919769
20 	20    	0.909119	0.00316947 	0.905991	0.919769
21 	20    	0.909363	0.00310612 	0.906815	0.919769
22 	20    	0.909565	0.00302202 	0.906815	0.919769
23 	20    	0.909848	0.00290583 	0.907623	0.919769
24 	20    	0.909969	0.00286071 	0.907623	0.919769
25 	20    	0.909969	0.00286071 	0.907623	0.919769
26 	20    	0.91005 	0.00281576 	0.907623	0.919769
27 	20    	0.910738	0.00274943 	0.908432	0.919769
28 	20    	0.910738	0.00274943 	0.908432	0.919769
29 	20    	0.911021	0.00271727 	0.908432	0.919769
30 	20    	0.911345	0.00262901 	0.908432	0.919769
31 	20    	0.911911	0.00236268 	0.909241	0.919769
32 	20    	0.912154	0.00220946 	0.910049	0.919769
33 	20    	0.912437	0.00207296 	0.910858	0.919769
34 	20    	0.912598	0.00206968 	0.910858	0.919769
35 	20    	0.912598	0.00206968 	0.910858	0.919769
36 	20    	0.912639	0.00204302 	0.910858	0.919769
37 	20    	0.912679	0.00201518 	0.910858	0.919769
38 	20    	0.91272 	0.00198614 	0.910858	0.919769
39 	20    	0.912801	0.00194111 	0.910858	0.919769
40 	20    	0.913165	0.00188815 	0.911667	0.919769
41 	20    	0.913409	0.00190602 	0.911667	0.919769
42 	20    	0.913449	0.001877   	0.911667	0.919769
43 	20    	0.91353 	0.00183279 	0.911667	0.919769
44 	20    	0.91353 	0.00183279 	0.911667	0.919769
45 	20    	0.91353 	0.00183279 	0.911667	0.919769
46 	20    	0.91353 	0.00183279 	0.911667	0.919769
47 	20    	0.913692	0.0017297  	0.911667	0.919769
48 	20    	0.913692	0.0017297  	0.911667	0.919769
49 	20    	0.913773	0.00166992 	0.911667	0.919769
50 	20    	0.913894	0.00157859 	0.912476	0.919769
51 	20    	0.913894	0.00157859 	0.912476	0.919769
52 	20    	0.913975	0.00154493 	0.912476	0.919769
53 	20    	0.913975	0.00154493 	0.912476	0.919769
54 	20    	0.914218	0.00150227 	0.913284	0.919769
55 	20    	0.914421	0.00163105 	0.913284	0.919769
56 	20    	0.914462	0.00161228 	0.913284	0.919769
57 	20    	0.914908	0.00230942 	0.913284	0.922211
58 	20    	0.915232	0.00250563 	0.913284	0.922211
59 	20    	0.915678	0.00251966 	0.913284	0.922211
60 	20    	0.915841	0.00242382 	0.913284	0.922211
61 	20    	0.915841	0.00242382 	0.913284	0.922211
62 	20    	0.915841	0.00242382 	0.913284	0.922211
63 	20    	0.915881	0.0023873  	0.913284	0.922211
64 	20    	0.915881	0.0023873  	0.913284	0.922211
65 	20    	0.916653	0.0027772  	0.914093	0.923828
66 	20    	0.916734	0.00272425 	0.914093	0.923828
67 	20    	0.916734	0.00272425 	0.914093	0.923828
68 	20    	0.916734	0.00272425 	0.914093	0.923828
69 	20    	0.91714 	0.00261256 	0.914093	0.923828
70 	20    	0.917709	0.00244925 	0.914917	0.923828
71 	20    	0.917709	0.00244925 	0.914917	0.923828
72 	20    	0.917749	0.00240918 	0.914917	0.923828
73 	20    	0.917789	0.00236774 	0.914917	0.923828
74 	20    	0.918437	0.00248707 	0.915726	0.923828
75 	20    	0.918437	0.00248707 	0.915726	0.923828
76 	20    	0.918437	0.00248707 	0.915726	0.923828
77 	20    	0.91868 	0.00244708 	0.915726	0.923828
78 	20    	0.91868 	0.00244708 	0.915726	0.923828
79 	20    	0.91868 	0.00244708 	0.915726	0.923828
80 	20    	0.918882	0.00224658 	0.915726	0.923828
81 	20    	0.919003	0.00213563 	0.915726	0.923828
82 	20    	0.919084	0.0020384  	0.916534	0.923828
83 	20    	0.919125	0.00199498 	0.917343	0.923828
84 	20    	0.919205	0.00195347 	0.917343	0.923828
85 	20    	0.919205	0.00195347 	0.917343	0.923828
86 	20    	0.919246	0.00192263 	0.917343	0.923828
87 	20    	0.919246	0.00192263 	0.917343	0.923828
88 	20    	0.919246	0.00192263 	0.917343	0.923828
89 	20    	0.91957 	0.00211191 	0.917343	0.923828
90 	20    	0.91957 	0.00211191 	0.917343	0.923828
91 	20    	0.919691	0.00200082 	0.917343	0.923828
92 	20    	0.919691	0.00200082 	0.917343	0.923828
93 	20    	0.919691	0.00200082 	0.917343	0.923828
94 	20    	0.919691	0.00200082 	0.917343	0.923828
95 	20    	0.920016	0.00211613 	0.917343	0.923828
96 	20    	0.920056	0.00207194 	0.918152	0.923828
97 	20    	0.920097	0.00204205 	0.918152	0.923828
98 	20    	0.920097	0.00204205 	0.918152	0.923828
99 	20    	0.920137	0.00201091 	0.918152	0.923828
100	20    	0.920137	0.00201091 	0.918152	0.923828
101	20    	0.920137	0.00201091 	0.918152	0.923828
102	20    	0.920137	0.00201091 	0.918152	0.923828
103	20    	0.920218	0.00196137 	0.918152	0.923828
104	20    	0.920218	0.00196137 	0.918152	0.923828
105	20    	0.920218	0.00196137 	0.918152	0.923828
106	20    	0.920258	0.00192638 	0.918152	0.923828
107	20    	0.920502	0.00186622 	0.918152	0.923828
108	20    	0.920502	0.00186622 	0.918152	0.923828
109	20    	0.920663	0.00179435 	0.918152	0.923828
110	20    	0.920663	0.00179435 	0.918152	0.923828
111	20    	0.920744	0.00171398 	0.918961	0.923828
112	20    	0.920744	0.00171398 	0.918961	0.923828
113	20    	0.920744	0.00171398 	0.918961	0.923828
114	20    	0.920744	0.00171398 	0.918961	0.923828
115	20    	0.920825	0.00166537 	0.918961	0.923828
116	20    	0.920825	0.00166537 	0.918961	0.923828
117	20    	0.920825	0.00166537 	0.918961	0.923828
118	20    	0.921433	0.00215283 	0.918961	0.927872
119	20    	0.921474	0.00211324 	0.918961	0.927872
120	20    	0.921474	0.00211324 	0.918961	0.927872
121	20    	0.921474	0.00211324 	0.918961	0.927872
122	20    	0.921595	0.00203363 	0.918961	0.927872
123	20    	0.921595	0.00203363 	0.918961	0.927872
124	20    	0.921595	0.00203363 	0.918961	0.927872
125	20    	0.921595	0.00203363 	0.918961	0.927872
126	20    	0.921595	0.00203363 	0.918961	0.927872
127	20    	0.921716	0.00194322 	0.919769	0.927872
128	20    	0.921716	0.00194322 	0.919769	0.927872
129	20    	0.921716	0.00194322 	0.919769	0.927872
130	20    	0.921716	0.00194322 	0.919769	0.927872
131	20    	0.921716	0.00194322 	0.919769	0.927872
132	20    	0.921716	0.00194322 	0.919769	0.927872
133	20    	0.921716	0.00194322 	0.919769	0.927872
134	20    	0.921716	0.00194322 	0.919769	0.927872
135	20    	0.921757	0.00191042 	0.919769	0.927872
136	20    	0.92196 	0.00190409 	0.919769	0.927872
137	20    	0.92196 	0.00190409 	0.919769	0.927872
138	20    	0.92196 	0.00190409 	0.919769	0.927872
139	20    	0.92196 	0.00190409 	0.919769	0.927872
140	20    	0.922122	0.00184808 	0.919769	0.927872
141	20    	0.922122	0.00184808 	0.919769	0.927872
142	20    	0.922122	0.00184808 	0.919769	0.927872
143	20    	0.922122	0.00184808 	0.919769	0.927872
144	20    	0.922244	0.00176751 	0.919769	0.927872
145	20    	0.922244	0.00176751 	0.919769	0.927872
146	20    	0.922244	0.00176751 	0.919769	0.927872
147	20    	0.922244	0.00176751 	0.919769	0.927872
148	20    	0.922407	0.00167972 	0.920578	0.927872
149	20    	0.922771	0.00200362 	0.920578	0.927872
150	20    	0.922894	0.00193962 	0.920578	0.927872
151	20    	0.923299	0.00223703 	0.920578	0.92868 
152	20    	0.923299	0.00223703 	0.920578	0.92868 
153	20    	0.923582	0.00223394 	0.921387	0.92868 
154	20    	0.923786	0.00211795 	0.921387	0.92868 
155	20    	0.923868	0.0020544  	0.921387	0.92868 
156	20    	0.923868	0.0020544  	0.921387	0.92868 
157	20    	0.923868	0.0020544  	0.921387	0.92868 
158	20    	0.923909	0.00201206 	0.922211	0.92868 
159	20    	0.923909	0.00201206 	0.922211	0.92868 
160	20    	0.923909	0.00201206 	0.922211	0.92868 
161	20    	0.923949	0.00198548 	0.922211	0.92868 
162	20    	0.923949	0.00198548 	0.922211	0.92868 
163	20    	0.923949	0.00198548 	0.922211	0.92868 
164	20    	0.924071	0.00194932 	0.922211	0.92868 
165	20    	0.924354	0.00196894 	0.922211	0.92868 
166	20    	0.924596	0.00198877 	0.922211	0.92868 
167	20    	0.924596	0.00198877 	0.922211	0.92868 
168	20    	0.924596	0.00198877 	0.922211	0.92868 
169	20    	0.924596	0.00198877 	0.922211	0.92868 
170	20    	0.924596	0.00198877 	0.922211	0.92868 
171	20    	0.924596	0.00198877 	0.922211	0.92868 
172	20    	0.924799	0.00194092 	0.923019	0.92868 
173	20    	0.92492 	0.00186663 	0.923019	0.92868 
174	20    	0.925041	0.00181736 	0.923019	0.92868 
175	20    	0.925041	0.00181736 	0.923019	0.92868 
176	20    	0.925041	0.00181736 	0.923019	0.92868 
177	20    	0.925041	0.00181736 	0.923019	0.92868 
178	20    	0.925041	0.00181736 	0.923019	0.92868 
179	20    	0.925041	0.00181736 	0.923019	0.92868 
180	20    	0.925041	0.00181736 	0.923019	0.92868 
181	20    	0.925163	0.00175838 	0.923019	0.92868 
182	20    	0.925365	0.00173262 	0.923019	0.92868 
183	20    	0.925365	0.00173262 	0.923019	0.92868 
184	20    	0.925486	0.00164698 	0.923019	0.92868 
185	20    	0.925486	0.00164698 	0.923019	0.92868 
186	20    	0.925526	0.00159504 	0.923828	0.92868 
187	20    	0.925526	0.00159504 	0.923828	0.92868 
188	20    	0.925526	0.00159504 	0.923828	0.92868 
189	20    	0.925526	0.00159504 	0.923828	0.92868 
190	20    	0.925526	0.00159504 	0.923828	0.92868 
191	20    	0.925567	0.00156137 	0.923828	0.92868 
192	20    	0.925851	0.00172666 	0.923828	0.929504
193	20    	0.925851	0.00172666 	0.923828	0.929504
194	20    	0.925851	0.00172666 	0.923828	0.929504
195	20    	0.925851	0.00172666 	0.923828	0.929504
196	20    	0.925891	0.00168786 	0.923828	0.929504
197	20    	0.925891	0.00168786 	0.923828	0.929504
198	20    	0.925891	0.00168786 	0.923828	0.929504
199	20    	0.925891	0.00168786 	0.923828	0.929504
200	20    	0.926093	0.00167073 	0.923828	0.929504
201	20    	0.926215	0.00158788 	0.923828	0.929504
202	20    	0.926215	0.00158788 	0.923828	0.929504
203	20    	0.926215	0.00158788 	0.923828	0.929504
204	20    	0.926579	0.00145722 	0.924637	0.929504
205	20    	0.926579	0.00145722 	0.924637	0.929504
206	20    	0.926579	0.00145722 	0.924637	0.929504
207	20    	0.926579	0.00145722 	0.924637	0.929504
208	20    	0.926579	0.00145722 	0.924637	0.929504
209	20    	0.926579	0.00145722 	0.924637	0.929504
210	20    	0.926619	0.00141334 	0.924637	0.929504
211	20    	0.926902	0.00132048 	0.924637	0.929504
212	20    	0.926902	0.00132048 	0.924637	0.929504
213	20    	0.926902	0.00132048 	0.924637	0.929504
214	20    	0.926983	0.00122538 	0.925446	0.929504
215	20    	0.926983	0.00122538 	0.925446	0.929504
216	20    	0.927064	0.00114532 	0.925446	0.929504
217	20    	0.927064	0.00114532 	0.925446	0.929504
218	20    	0.927064	0.00114532 	0.925446	0.929504
219	20    	0.927185	0.00109488 	0.925446	0.929504
220	20    	0.927347	0.00106447 	0.926254	0.929504
221	20    	0.927347	0.00106447 	0.926254	0.929504
222	20    	0.927387	0.00103721 	0.926254	0.929504
223	20    	0.927387	0.00103721 	0.926254	0.929504
224	20    	0.927428	0.0010076  	0.926254	0.929504
225	20    	0.927428	0.0010076  	0.926254	0.929504
226	20    	0.927428	0.0010076  	0.926254	0.929504
227	20    	0.927428	0.0010076  	0.926254	0.929504
228	20    	0.927428	0.0010076  	0.926254	0.929504
229	20    	0.927428	0.0010076  	0.926254	0.929504
230	20    	0.927428	0.0010076  	0.926254	0.929504
231	20    	0.927428	0.0010076  	0.926254	0.929504
232	20    	0.927428	0.0010076  	0.926254	0.929504
233	20    	0.927428	0.0010076  	0.926254	0.929504
234	20    	0.927428	0.0010076  	0.926254	0.929504
235	20    	0.927428	0.0010076  	0.926254	0.929504
236	20    	0.927428	0.0010076  	0.926254	0.929504
237	20    	0.927428	0.0010076  	0.926254	0.929504
238	20    	0.927468	0.000975411	0.926254	0.929504
239	20    	0.927468	0.000975411	0.926254	0.929504
240	20    	0.927468	0.000975411	0.926254	0.929504
241	20    	0.927468	0.000975411	0.926254	0.929504
242	20    	0.927468	0.000975411	0.926254	0.929504
243	20    	0.927468	0.000975411	0.926254	0.929504
244	20    	0.927468	0.000975411	0.926254	0.929504
245	20    	0.927468	0.000975411	0.926254	0.929504
246	20    	0.927468	0.000975411	0.926254	0.929504
247	20    	0.927671	0.000989157	0.926254	0.929504
248	20    	0.927671	0.000989157	0.926254	0.929504
249	20    	0.927671	0.000989157	0.926254	0.929504
250	20    	0.927671	0.000989157	0.926254	0.929504
251	20    	0.927671	0.000989157	0.926254	0.929504
252	20    	0.927671	0.000989157	0.926254	0.929504
253	20    	0.927671	0.000989157	0.926254	0.929504
254	20    	0.927711	0.000946002	0.926254	0.929504
255	20    	0.927711	0.000946002	0.926254	0.929504
256	20    	0.927711	0.000946002	0.926254	0.929504
257	20    	0.927711	0.000946002	0.926254	0.929504
258	20    	0.927711	0.000946002	0.926254	0.929504
259	20    	0.927711	0.000946002	0.926254	0.929504
260	20    	0.927711	0.000946002	0.926254	0.929504
261	20    	0.927711	0.000946002	0.926254	0.929504
262	20    	0.927711	0.000946002	0.926254	0.929504
263	20    	0.927711	0.000946002	0.926254	0.929504
264	20    	0.927711	0.000946002	0.926254	0.929504
265	20    	0.927711	0.000946002	0.926254	0.929504
266	20    	0.927711	0.000946002	0.926254	0.929504
267	20    	0.927711	0.000946002	0.926254	0.929504
268	20    	0.927711	0.000946002	0.926254	0.929504
269	20    	0.927711	0.000946002	0.926254	0.929504
270	20    	0.927711	0.000946002	0.926254	0.929504
271	20    	0.927711	0.000946002	0.926254	0.929504
272	20    	0.927711	0.000946002	0.926254	0.929504
273	20    	0.927711	0.000946002	0.926254	0.929504
274	20    	0.927711	0.000946002	0.926254	0.929504
275	20    	0.927711	0.000946002	0.926254	0.929504
276	20    	0.927711	0.000946002	0.926254	0.929504
277	20    	0.927711	0.000946002	0.926254	0.929504
278	20    	0.927711	0.000946002	0.926254	0.929504
279	20    	0.927833	0.000906075	0.926254	0.929504
280	20    	0.927833	0.000906075	0.926254	0.929504
281	20    	0.927833	0.000906075	0.926254	0.929504
282	20    	0.927995	0.000899827	0.927063	0.929504
283	20    	0.927995	0.000899827	0.927063	0.929504
284	20    	0.927995	0.000899827	0.927063	0.929504
285	20    	0.927995	0.000899827	0.927063	0.929504
286	20    	0.927995	0.000899827	0.927063	0.929504
287	20    	0.927995	0.000899827	0.927063	0.929504
288	20    	0.927995	0.000899827	0.927063	0.929504
289	20    	0.92832 	0.00132047 	0.927063	0.932739
290	20    	0.92832 	0.00132047 	0.927063	0.932739
291	20    	0.92832 	0.00132047 	0.927063	0.932739
292	20    	0.92836 	0.00129348 	0.927063	0.932739
293	20    	0.928765	0.00193405 	0.927063	0.935165
294	20    	0.929171	0.00185651 	0.927063	0.935165
295	20    	0.929171	0.00185651 	0.927063	0.935165
296	20    	0.929211	0.00181857 	0.927872	0.935165
297	20    	0.929211	0.00181857 	0.927872	0.935165
298	20    	0.929211	0.00181857 	0.927872	0.935165
299	20    	0.929211	0.00181857 	0.927872	0.935165
300	20    	0.929211	0.00181857 	0.927872	0.935165
301	20    	0.929211	0.00181857 	0.927872	0.935165
302	20    	0.929333	0.00180645 	0.927872	0.935165
303	20    	0.929333	0.00180645 	0.927872	0.935165
304	20    	0.929333	0.00180645 	0.927872	0.935165
305	20    	0.929333	0.00180645 	0.927872	0.935165
306	20    	0.929333	0.00180645 	0.927872	0.935165
307	20    	0.929333	0.00180645 	0.927872	0.935165
308	20    	0.929577	0.00191759 	0.927872	0.935165
309	20    	0.929577	0.00191759 	0.927872	0.935165
310	20    	0.929577	0.00191759 	0.927872	0.935165
311	20    	0.929577	0.00191759 	0.927872	0.935165
312	20    	0.929577	0.00191759 	0.927872	0.935165
313	20    	0.929577	0.00191759 	0.927872	0.935165
314	20    	0.929577	0.00191759 	0.927872	0.935165
315	20    	0.929577	0.00191759 	0.927872	0.935165
316	20    	0.929577	0.00191759 	0.927872	0.935165
317	20    	0.929577	0.00191759 	0.927872	0.935165
318	20    	0.929577	0.00191759 	0.927872	0.935165
319	20    	0.929577	0.00191759 	0.927872	0.935165
320	20    	0.929577	0.00191759 	0.927872	0.935165
321	20    	0.929577	0.00191759 	0.927872	0.935165
322	20    	0.929699	0.00188254 	0.927872	0.935165
323	20    	0.929699	0.00188254 	0.927872	0.935165
324	20    	0.929739	0.00185128 	0.927872	0.935165
325	20    	0.929739	0.00185128 	0.927872	0.935165
326	20    	0.930267	0.00218187 	0.927872	0.935974
327	20    	0.930267	0.00218187 	0.927872	0.935974
328	20    	0.93047 	0.002138   	0.92868 	0.935974
329	20    	0.930672	0.00215114 	0.92868 	0.935974
330	20    	0.930714	0.00212026 	0.92868 	0.935974
331	20    	0.930714	0.00212026 	0.92868 	0.935974
332	20    	0.930714	0.00212026 	0.92868 	0.935974
333	20    	0.930714	0.00212026 	0.92868 	0.935974
334	20    	0.930714	0.00212026 	0.92868 	0.935974
335	20    	0.930755	0.00208812 	0.92868 	0.935974
336	20    	0.930755	0.00208812 	0.92868 	0.935974
337	20    	0.930755	0.00208812 	0.92868 	0.935974
338	20    	0.930755	0.00208812 	0.92868 	0.935974
339	20    	0.930755	0.00208812 	0.92868 	0.935974
340	20    	0.930755	0.00208812 	0.92868 	0.935974
341	20    	0.930755	0.00208812 	0.92868 	0.935974
342	20    	0.930877	0.00203394 	0.92868 	0.935974
343	20    	0.930877	0.00203394 	0.92868 	0.935974
344	20    	0.930877	0.00203394 	0.92868 	0.935974
345	20    	0.930877	0.00203394 	0.92868 	0.935974
346	20    	0.930877	0.00203394 	0.92868 	0.935974
347	20    	0.930877	0.00203394 	0.92868 	0.935974
348	20    	0.930877	0.00203394 	0.92868 	0.935974
349	20    	0.930877	0.00203394 	0.92868 	0.935974
350	20    	0.930877	0.00203394 	0.92868 	0.935974
351	20    	0.930877	0.00203394 	0.92868 	0.935974
352	20    	0.930877	0.00203394 	0.92868 	0.935974
353	20    	0.930877	0.00203394 	0.92868 	0.935974
354	20    	0.930877	0.00203394 	0.92868 	0.935974
355	20    	0.930877	0.00203394 	0.92868 	0.935974
356	20    	0.930877	0.00203394 	0.92868 	0.935974
357	20    	0.930959	0.00197608 	0.92868 	0.935974
358	20    	0.930959	0.00197608 	0.92868 	0.935974
359	20    	0.931   	0.00193635 	0.92868 	0.935974
360	20    	0.931   	0.00193635 	0.92868 	0.935974
361	20    	0.931122	0.0018618  	0.929504	0.935974
362	20    	0.931122	0.0018618  	0.929504	0.935974
363	20    	0.931122	0.0018618  	0.929504	0.935974
364	20    	0.931122	0.0018618  	0.929504	0.935974
365	20    	0.931122	0.0018618  	0.929504	0.935974
366	20    	0.931122	0.0018618  	0.929504	0.935974
367	20    	0.931122	0.0018618  	0.929504	0.935974
368	20    	0.931122	0.0018618  	0.929504	0.935974
369	20    	0.931162	0.00183482 	0.929504	0.935974
370	20    	0.931162	0.00183482 	0.929504	0.935974
371	20    	0.931162	0.00183482 	0.929504	0.935974
372	20    	0.931162	0.00183482 	0.929504	0.935974
373	20    	0.931162	0.00183482 	0.929504	0.935974
374	20    	0.931284	0.0018011  	0.929504	0.935974
375	20    	0.931284	0.0018011  	0.929504	0.935974
376	20    	0.931284	0.0018011  	0.929504	0.935974
377	20    	0.931324	0.0017695  	0.929504	0.935974
378	20    	0.931364	0.00173639 	0.929504	0.935974
379	20    	0.931364	0.00173639 	0.929504	0.935974
380	20    	0.931364	0.00173639 	0.929504	0.935974
381	20    	0.931364	0.00173639 	0.929504	0.935974
382	20    	0.931364	0.00173639 	0.929504	0.935974
383	20    	0.931364	0.00173639 	0.929504	0.935974
384	20    	0.931364	0.00173639 	0.929504	0.935974
385	20    	0.931364	0.00173639 	0.929504	0.935974
386	20    	0.931364	0.00173639 	0.929504	0.935974
387	20    	0.931567	0.00174343 	0.929504	0.935974
388	20    	0.931688	0.00167894 	0.929504	0.935974
389	20    	0.931688	0.00167894 	0.929504	0.935974
390	20    	0.931688	0.00167894 	0.929504	0.935974
391	20    	0.931688	0.00167894 	0.929504	0.935974
392	20    	0.931688	0.00167894 	0.929504	0.935974
393	20    	0.931688	0.00167894 	0.929504	0.935974
394	20    	0.931728	0.00163503 	0.930313	0.935974
395	20    	0.931728	0.00163503 	0.930313	0.935974
396	20    	0.931809	0.00158217 	0.930313	0.935974
397	20    	0.931809	0.00158217 	0.930313	0.935974
398	20    	0.931809	0.00158217 	0.930313	0.935974
399	20    	0.931809	0.00158217 	0.930313	0.935974
400	20    	0.931809	0.00158217 	0.930313	0.935974
401	20    	0.931809	0.00158217 	0.930313	0.935974
402	20    	0.931809	0.00158217 	0.930313	0.935974
403	20    	0.931809	0.00158217 	0.930313	0.935974
404	20    	0.931809	0.00158217 	0.930313	0.935974
405	20    	0.931809	0.00158217 	0.930313	0.935974
406	20    	0.931809	0.00158217 	0.930313	0.935974
407	20    	0.931809	0.00158217 	0.930313	0.935974
408	20    	0.931809	0.00158217 	0.930313	0.935974
409	20    	0.93185 	0.00155349 	0.930313	0.935974
410	20    	0.931931	0.00151297 	0.930313	0.935974
411	20    	0.931931	0.00151297 	0.930313	0.935974
412	20    	0.931931	0.00151297 	0.930313	0.935974
413	20    	0.931931	0.00151297 	0.930313	0.935974
414	20    	0.931931	0.00151297 	0.930313	0.935974
415	20    	0.931931	0.00151297 	0.930313	0.935974
416	20    	0.931931	0.00151297 	0.930313	0.935974
417	20    	0.931931	0.00151297 	0.930313	0.935974
418	20    	0.931931	0.00151297 	0.930313	0.935974
419	20    	0.931931	0.00151297 	0.930313	0.935974
420	20    	0.931931	0.00151297 	0.930313	0.935974
421	20    	0.931931	0.00151297 	0.930313	0.935974
422	20    	0.931931	0.00151297 	0.930313	0.935974
423	20    	0.931931	0.00151297 	0.930313	0.935974
424	20    	0.931931	0.00151297 	0.930313	0.935974
425	20    	0.932133	0.00155297 	0.930313	0.935974
426	20    	0.932133	0.00155297 	0.930313	0.935974
427	20    	0.932133	0.00155297 	0.930313	0.935974
428	20    	0.932133	0.00155297 	0.930313	0.935974
429	20    	0.932133	0.00155297 	0.930313	0.935974
430	20    	0.932133	0.00155297 	0.930313	0.935974
431	20    	0.932133	0.00155297 	0.930313	0.935974
432	20    	0.932133	0.00155297 	0.930313	0.935974
433	20    	0.932294	0.00145737 	0.930313	0.935974
434	20    	0.932294	0.00145737 	0.930313	0.935974
435	20    	0.932294	0.00145737 	0.930313	0.935974
436	20    	0.932294	0.00145737 	0.930313	0.935974
437	20    	0.932294	0.00145737 	0.930313	0.935974
438	20    	0.932294	0.00145737 	0.930313	0.935974
439	20    	0.932294	0.00145737 	0.930313	0.935974
440	20    	0.932294	0.00145737 	0.930313	0.935974
441	20    	0.932294	0.00145737 	0.930313	0.935974
442	20    	0.932294	0.00145737 	0.930313	0.935974
443	20    	0.932294	0.00145737 	0.930313	0.935974
444	20    	0.932294	0.00145737 	0.930313	0.935974
445	20    	0.932294	0.00145737 	0.930313	0.935974
446	20    	0.932294	0.00145737 	0.930313	0.935974
447	20    	0.932375	0.00138843 	0.931122	0.935974
448	20    	0.932375	0.00138843 	0.931122	0.935974
449	20    	0.932375	0.00138843 	0.931122	0.935974
450	20    	0.932375	0.00138843 	0.931122	0.935974
451	20    	0.932375	0.00138843 	0.931122	0.935974
452	20    	0.932416	0.00136287 	0.931122	0.935974
453	20    	0.932416	0.00136287 	0.931122	0.935974
454	20    	0.932416	0.00136287 	0.931122	0.935974
455	20    	0.932416	0.00136287 	0.931122	0.935974
456	20    	0.932416	0.00136287 	0.931122	0.935974
457	20    	0.932416	0.00136287 	0.931122	0.935974
458	20    	0.932416	0.00136287 	0.931122	0.935974
459	20    	0.932416	0.00136287 	0.931122	0.935974
460	20    	0.932456	0.00133561 	0.931122	0.935974
461	20    	0.932456	0.00133561 	0.931122	0.935974
462	20    	0.932456	0.00133561 	0.931122	0.935974
463	20    	0.932456	0.00133561 	0.931122	0.935974
464	20    	0.932456	0.00133561 	0.931122	0.935974
465	20    	0.932456	0.00133561 	0.931122	0.935974
466	20    	0.932456	0.00133561 	0.931122	0.935974
467	20    	0.932456	0.00133561 	0.931122	0.935974
468	20    	0.932456	0.00133561 	0.931122	0.935974
469	20    	0.932456	0.00133561 	0.931122	0.935974
470	20    	0.932456	0.00133561 	0.931122	0.935974
471	20    	0.932456	0.00133561 	0.931122	0.935974
472	20    	0.932456	0.00133561 	0.931122	0.935974
473	20    	0.932456	0.00133561 	0.931122	0.935974
474	20    	0.932456	0.00133561 	0.931122	0.935974
475	20    	0.932456	0.00133561 	0.931122	0.935974
476	20    	0.932456	0.00133561 	0.931122	0.935974
477	20    	0.932456	0.00133561 	0.931122	0.935974
478	20    	0.932456	0.00133561 	0.931122	0.935974
479	20    	0.932456	0.00133561 	0.931122	0.935974
480	20    	0.932456	0.00133561 	0.931122	0.935974
481	20    	0.932456	0.00133561 	0.931122	0.935974
482	20    	0.932456	0.00133561 	0.931122	0.935974
483	20    	0.932456	0.00133561 	0.931122	0.935974
484	20    	0.932456	0.00133561 	0.931122	0.935974
485	20    	0.932456	0.00133561 	0.931122	0.935974
486	20    	0.932456	0.00133561 	0.931122	0.935974
487	20    	0.932456	0.00133561 	0.931122	0.935974
488	20    	0.932456	0.00133561 	0.931122	0.935974
489	20    	0.932456	0.00133561 	0.931122	0.935974
490	20    	0.932456	0.00133561 	0.931122	0.935974
491	20    	0.932456	0.00133561 	0.931122	0.935974
492	20    	0.932456	0.00133561 	0.931122	0.935974
493	20    	0.932456	0.00133561 	0.931122	0.935974
494	20    	0.932456	0.00133561 	0.931122	0.935974
495	20    	0.932456	0.00133561 	0.931122	0.935974
496	20    	0.932456	0.00133561 	0.931122	0.935974
497	20    	0.932456	0.00133561 	0.931122	0.935974
498	20    	0.932456	0.00133561 	0.931122	0.935974
499	20    	0.932456	0.00133561 	0.931122	0.935974
