gen	nevals	avg     	std       	min     	max     
0  	20    	0.875484	0.0179552 	0.839142	0.90892 
1  	20    	0.889735	0.00937342	0.874023	0.90892 
2  	20    	0.897293	0.00801349	0.889542	0.916672
3  	20    	0.900587	0.00685413	0.891479	0.916672
4  	20    	0.90456 	0.00508575	0.899231	0.916672
5  	20    	0.90611 	0.00413247	0.901169	0.916672
6  	20    	0.907079	0.00385021	0.903107	0.916672
7  	20    	0.909211	0.0042578 	0.905045	0.920547
8  	20    	0.910664	0.00356799	0.906982	0.920547
9  	20    	0.912505	0.00451465	0.90892 	0.926361
10 	20    	0.913959	0.0043505 	0.90892 	0.926361
11 	20    	0.915703	0.00399501	0.910858	0.926361
12 	20    	0.917253	0.00341746	0.912796	0.926361
13 	20    	0.918222	0.00284807	0.914734	0.926361
14 	20    	0.918803	0.00244356	0.916672	0.926361
15 	20    	0.918997	0.00242039	0.916672	0.926361
16 	20    	0.919191	0.00230109	0.916672	0.926361
17 	20    	0.919869	0.00261971	0.916672	0.926361
18 	20    	0.921129	0.00245888	0.91861 	0.926361
19 	20    	0.922001	0.00219886	0.91861 	0.926361
20 	20    	0.923164	0.00282656	0.920547	0.930237
21 	20    	0.92326 	0.00276783	0.920547	0.930237
22 	20    	0.923551	0.00277291	0.920547	0.930237
23 	20    	0.924133	0.00269043	0.920547	0.930237
24 	20    	0.924617	0.00236547	0.920547	0.930237
25 	20    	0.925392	0.0022516 	0.922485	0.930237
26 	20    	0.925683	0.0020577 	0.922485	0.930237
27 	20    	0.926264	0.00224951	0.922485	0.932175
28 	20    	0.927136	0.00276783	0.924423	0.93605 
29 	20    	0.927233	0.00270435	0.924423	0.93605 
30 	20    	0.928202	0.00283982	0.926361	0.93605 
31 	20    	0.92859 	0.00289223	0.926361	0.93605 
32 	20    	0.92888 	0.00281491	0.926361	0.93605 
33 	20    	0.929462	0.00283485	0.926361	0.93605 
34 	20    	0.929849	0.00291325	0.926361	0.93605 
35 	20    	0.93014 	0.002634  	0.926361	0.93605 
36 	20    	0.93014 	0.002634  	0.926361	0.93605 
37 	20    	0.930624	0.00257087	0.928299	0.93605 
38 	20    	0.930818	0.00253409	0.928299	0.93605 
39 	20    	0.931206	0.00241262	0.928299	0.93605 
40 	20    	0.931496	0.00239505	0.928299	0.93605 
41 	20    	0.93169 	0.00228266	0.928299	0.93605 
42 	20    	0.932078	0.00233149	0.928299	0.93605 
43 	20    	0.932175	0.00220951	0.928299	0.93605 
44 	20    	0.932368	0.00202319	0.928299	0.93605 
45 	20    	0.932465	0.0018663 	0.930237	0.93605 
46 	20    	0.932562	0.0017971 	0.930237	0.93605 
47 	20    	0.933241	0.00256172	0.930237	0.941864
48 	20    	0.933241	0.00256172	0.930237	0.941864
49 	20    	0.933628	0.00266236	0.930237	0.941864
50 	20    	0.934209	0.00256172	0.932175	0.941864
51 	20    	0.934209	0.00256172	0.932175	0.941864
52 	20    	0.934306	0.00251923	0.932175	0.941864
53 	20    	0.934597	0.00244163	0.932175	0.941864
54 	20    	0.934597	0.00244163	0.932175	0.941864
55 	20    	0.934694	0.00238129	0.932175	0.941864
56 	20    	0.934694	0.00238129	0.932175	0.941864
57 	20    	0.934694	0.00238129	0.932175	0.941864
58 	20    	0.934791	0.00231532	0.932175	0.941864
59 	20    	0.935178	0.00224951	0.932175	0.941864
60 	20    	0.935275	0.00215792	0.932175	0.941864
61 	20    	0.935275	0.00215792	0.932175	0.941864
62 	20    	0.936535	0.00410512	0.934113	0.951553
63 	20    	0.936535	0.00410512	0.934113	0.951553
64 	20    	0.936729	0.00407759	0.934113	0.951553
65 	20    	0.936826	0.00403709	0.934113	0.951553
66 	20    	0.937116	0.00404058	0.934113	0.951553
67 	20    	0.938279	0.00591843	0.934113	0.957367
68 	20    	0.938376	0.00586505	0.934113	0.957367
69 	20    	0.939442	0.00684797	0.934113	0.957367
70 	20    	0.939732	0.00673809	0.934113	0.957367
71 	20    	0.94012 	0.00654012	0.934113	0.957367
72 	20    	0.940701	0.00649691	0.934113	0.957367
73 	20    	0.941476	0.00629732	0.93605 	0.957367
74 	20    	0.941573	0.00622761	0.93605 	0.957367
75 	20    	0.941573	0.00622761	0.93605 	0.957367
76 	20    	0.941767	0.00611196	0.93605 	0.957367
77 	20    	0.941864	0.00603545	0.93605 	0.957367
78 	20    	0.941864	0.00603545	0.93605 	0.957367
79 	20    	0.943027	0.0058265 	0.937988	0.957367
80 	20    	0.943511	0.00579014	0.937988	0.957367
81 	20    	0.943511	0.00579014	0.937988	0.957367
82 	20    	0.943899	0.00556525	0.937988	0.957367
83 	20    	0.943899	0.00556525	0.937988	0.957367
84 	20    	0.943996	0.00547769	0.937988	0.957367
85 	20    	0.944093	0.00538695	0.939926	0.957367
86 	20    	0.944093	0.00538695	0.939926	0.957367
87 	20    	0.94448 	0.00524568	0.939926	0.957367
88 	20    	0.944577	0.00517813	0.939926	0.957367
89 	20    	0.944868	0.00499635	0.939926	0.957367
90 	20    	0.944868	0.00499635	0.939926	0.957367
91 	20    	0.944868	0.00499635	0.939926	0.957367
92 	20    	0.945061	0.00487461	0.939926	0.957367
93 	20    	0.945158	0.0047901 	0.939926	0.957367
94 	20    	0.945449	0.00463774	0.939926	0.957367
95 	20    	0.945546	0.00454057	0.941864	0.957367
96 	20    	0.945546	0.00454057	0.941864	0.957367
97 	20    	0.945546	0.00454057	0.941864	0.957367
98 	20    	0.945546	0.00454057	0.941864	0.957367
99 	20    	0.945643	0.00448125	0.941864	0.957367
100	20    	0.945837	0.00439665	0.941864	0.957367
101	20    	0.94603 	0.00430167	0.941864	0.957367
102	20    	0.94603 	0.00430167	0.941864	0.957367
103	20    	0.94603 	0.00430167	0.941864	0.957367
104	20    	0.94603 	0.00430167	0.941864	0.957367
105	20    	0.94603 	0.00430167	0.941864	0.957367
106	20    	0.946224	0.0041956 	0.941864	0.957367
107	20    	0.946418	0.00407759	0.941864	0.957367
108	20    	0.946418	0.00407759	0.941864	0.957367
109	20    	0.946418	0.00407759	0.941864	0.957367
110	20    	0.946418	0.00407759	0.941864	0.957367
111	20    	0.946418	0.00407759	0.941864	0.957367
112	20    	0.946709	0.00385143	0.941864	0.957367
113	20    	0.946709	0.00385143	0.941864	0.957367
114	20    	0.946709	0.00385143	0.941864	0.957367
115	20    	0.946709	0.00385143	0.941864	0.957367
116	20    	0.946709	0.00385143	0.941864	0.957367
117	20    	0.946806	0.00375141	0.943802	0.957367
118	20    	0.946806	0.00375141	0.943802	0.957367
119	20    	0.946806	0.00375141	0.943802	0.957367
120	20    	0.946806	0.00375141	0.943802	0.957367
121	20    	0.946806	0.00375141	0.943802	0.957367
122	20    	0.946999	0.00369086	0.943802	0.957367
123	20    	0.946999	0.00369086	0.943802	0.957367
124	20    	0.946999	0.00369086	0.943802	0.957367
125	20    	0.946999	0.00369086	0.943802	0.957367
126	20    	0.947096	0.00363059	0.943802	0.957367
127	20    	0.947096	0.00363059	0.943802	0.957367
128	20    	0.947096	0.00363059	0.943802	0.957367
129	20    	0.947096	0.00363059	0.943802	0.957367
130	20    	0.947096	0.00363059	0.943802	0.957367
131	20    	0.947096	0.00363059	0.943802	0.957367
132	20    	0.947096	0.00363059	0.943802	0.957367
133	20    	0.947096	0.00363059	0.943802	0.957367
134	20    	0.947193	0.00356667	0.943802	0.957367
135	20    	0.947678	0.00330007	0.94574 	0.957367
136	20    	0.947871	0.00329437	0.94574 	0.957367
137	20    	0.947871	0.00329437	0.94574 	0.957367
138	20    	0.947871	0.00329437	0.94574 	0.957367
139	20    	0.947871	0.00329437	0.94574 	0.957367
140	20    	0.947871	0.00329437	0.94574 	0.957367
141	20    	0.947871	0.00329437	0.94574 	0.957367
142	20    	0.947871	0.00329437	0.94574 	0.957367
143	20    	0.947871	0.00329437	0.94574 	0.957367
144	20    	0.948162	0.00334948	0.94574 	0.957367
145	20    	0.948259	0.00330575	0.94574 	0.957367
146	20    	0.948259	0.00330575	0.94574 	0.957367
147	20    	0.948259	0.00330575	0.94574 	0.957367
148	20    	0.948259	0.00330575	0.94574 	0.957367
149	20    	0.948259	0.00330575	0.94574 	0.957367
150	20    	0.948259	0.00330575	0.94574 	0.957367
151	20    	0.948259	0.00330575	0.94574 	0.957367
152	20    	0.948259	0.00330575	0.94574 	0.957367
153	20    	0.948259	0.00330575	0.94574 	0.957367
154	20    	0.94855 	0.00332698	0.94574 	0.957367
155	20    	0.94855 	0.00332698	0.94574 	0.957367
156	20    	0.94855 	0.00332698	0.94574 	0.957367
157	20    	0.948647	0.00327149	0.94574 	0.957367
158	20    	0.948647	0.00327149	0.94574 	0.957367
159	20    	0.948647	0.00327149	0.94574 	0.957367
160	20    	0.948647	0.00327149	0.94574 	0.957367
161	20    	0.948647	0.00327149	0.94574 	0.957367
162	20    	0.948743	0.00321213	0.94574 	0.957367
163	20    	0.948743	0.00321213	0.94574 	0.957367
164	20    	0.948743	0.00321213	0.94574 	0.957367
165	20    	0.948743	0.00321213	0.94574 	0.957367
166	20    	0.948743	0.00321213	0.94574 	0.957367
167	20    	0.948743	0.00321213	0.94574 	0.957367
168	20    	0.948743	0.00321213	0.94574 	0.957367
169	20    	0.949325	0.00320041	0.94574 	0.957367
170	20    	0.949519	0.00303169	0.94574 	0.957367
171	20    	0.949519	0.00303169	0.94574 	0.957367
172	20    	0.949519	0.00303169	0.94574 	0.957367
173	20    	0.949519	0.00303169	0.94574 	0.957367
174	20    	0.949615	0.00293892	0.94574 	0.957367
175	20    	0.949712	0.00283982	0.947678	0.957367
176	20    	0.949712	0.00283982	0.947678	0.957367
177	20    	0.949712	0.00283982	0.947678	0.957367
178	20    	0.950391	0.00374765	0.947678	0.961243
179	20    	0.950391	0.00374765	0.947678	0.961243
180	20    	0.950391	0.00374765	0.947678	0.961243
181	20    	0.950391	0.00374765	0.947678	0.961243
182	20    	0.950391	0.00374765	0.947678	0.961243
183	20    	0.950391	0.00374765	0.947678	0.961243
184	20    	0.950391	0.00374765	0.947678	0.961243
185	20    	0.950391	0.00374765	0.947678	0.961243
186	20    	0.950391	0.00374765	0.947678	0.961243
187	20    	0.950391	0.00374765	0.947678	0.961243
188	20    	0.950391	0.00374765	0.947678	0.961243
189	20    	0.950391	0.00374765	0.947678	0.961243
190	20    	0.950391	0.00374765	0.947678	0.961243
191	20    	0.950391	0.00374765	0.947678	0.961243
192	20    	0.950778	0.00384655	0.947678	0.961243
193	20    	0.950972	0.00378256	0.947678	0.961243
194	20    	0.950972	0.00378256	0.947678	0.961243
195	20    	0.951263	0.00374139	0.947678	0.961243
196	20    	0.951263	0.00374139	0.947678	0.961243
197	20    	0.951263	0.00374139	0.947678	0.961243
198	20    	0.95136 	0.00367173	0.947678	0.961243
199	20    	0.95136 	0.00367173	0.947678	0.961243
200	20    	0.95136 	0.00367173	0.947678	0.961243
201	20    	0.951553	0.00357325	0.947678	0.961243
202	20    	0.951553	0.00357325	0.947678	0.961243
203	20    	0.951553	0.00357325	0.947678	0.961243
204	20    	0.951553	0.00357325	0.947678	0.961243
205	20    	0.951553	0.00357325	0.947678	0.961243
206	20    	0.951553	0.00357325	0.947678	0.961243
207	20    	0.951553	0.00357325	0.947678	0.961243
208	20    	0.95165 	0.00349219	0.947678	0.961243
209	20    	0.95165 	0.00349219	0.947678	0.961243
210	20    	0.95165 	0.00349219	0.947678	0.961243
211	20    	0.95165 	0.00349219	0.947678	0.961243
212	20    	0.95165 	0.00349219	0.947678	0.961243
213	20    	0.95165 	0.00349219	0.947678	0.961243
214	20    	0.95165 	0.00349219	0.947678	0.961243
215	20    	0.951941	0.00327723	0.947678	0.961243
216	20    	0.951941	0.00327723	0.947678	0.961243
217	20    	0.951941	0.00327723	0.947678	0.961243
218	20    	0.951941	0.00327723	0.947678	0.961243
219	20    	0.952038	0.00317686	0.947678	0.961243
220	20    	0.952038	0.00317686	0.947678	0.961243
221	20    	0.952038	0.00317686	0.947678	0.961243
222	20    	0.952038	0.00317686	0.947678	0.961243
223	20    	0.952135	0.00307016	0.949615	0.961243
224	20    	0.952135	0.00307016	0.949615	0.961243
225	20    	0.952135	0.00307016	0.949615	0.961243
226	20    	0.952716	0.00359421	0.949615	0.961243
227	20    	0.952716	0.00359421	0.949615	0.961243
228	20    	0.952716	0.00359421	0.949615	0.961243
229	20    	0.952716	0.00359421	0.949615	0.961243
230	20    	0.952716	0.00359421	0.949615	0.961243
231	20    	0.952716	0.00359421	0.949615	0.961243
232	20    	0.952716	0.00359421	0.949615	0.961243
233	20    	0.952716	0.00359421	0.949615	0.961243
234	20    	0.952716	0.00359421	0.949615	0.961243
235	20    	0.952716	0.00359421	0.949615	0.961243
236	20    	0.952716	0.00359421	0.949615	0.961243
237	20    	0.952716	0.00359421	0.949615	0.961243
238	20    	0.952716	0.00359421	0.949615	0.961243
239	20    	0.952716	0.00359421	0.949615	0.961243
240	20    	0.952813	0.00353495	0.949615	0.961243
241	20    	0.952813	0.00353495	0.949615	0.961243
242	20    	0.95291 	0.00347197	0.949615	0.961243
243	20    	0.95291 	0.00347197	0.949615	0.961243
244	20    	0.95291 	0.00347197	0.949615	0.961243
245	20    	0.95291 	0.00347197	0.949615	0.961243
246	20    	0.95291 	0.00347197	0.949615	0.961243
247	20    	0.95291 	0.00347197	0.949615	0.961243
248	20    	0.95291 	0.00347197	0.949615	0.961243
249	20    	0.95291 	0.00347197	0.949615	0.961243
250	20    	0.95291 	0.00347197	0.949615	0.961243
251	20    	0.95291 	0.00347197	0.949615	0.961243
252	20    	0.95291 	0.00347197	0.949615	0.961243
253	20    	0.95291 	0.00347197	0.949615	0.961243
254	20    	0.953104	0.00338988	0.949615	0.961243
255	20    	0.953104	0.00338988	0.949615	0.961243
256	20    	0.953104	0.00338988	0.949615	0.961243
257	20    	0.953104	0.00338988	0.949615	0.961243
258	20    	0.953104	0.00338988	0.949615	0.961243
259	20    	0.953104	0.00338988	0.949615	0.961243
260	20    	0.953394	0.00332698	0.949615	0.961243
261	20    	0.953394	0.00332698	0.949615	0.961243
262	20    	0.953394	0.00332698	0.949615	0.961243
263	20    	0.953394	0.00332698	0.949615	0.961243
264	20    	0.953394	0.00332698	0.949615	0.961243
265	20    	0.953394	0.00332698	0.949615	0.961243
266	20    	0.953394	0.00332698	0.949615	0.961243
267	20    	0.953394	0.00332698	0.949615	0.961243
268	20    	0.953394	0.00332698	0.949615	0.961243
269	20    	0.953394	0.00332698	0.949615	0.961243
270	20    	0.953879	0.00344483	0.949615	0.961243
271	20    	0.953976	0.00334948	0.949615	0.961243
272	20    	0.953976	0.00334948	0.949615	0.961243
273	20    	0.953976	0.00334948	0.949615	0.961243
274	20    	0.953976	0.00334948	0.949615	0.961243
275	20    	0.953976	0.00334948	0.949615	0.961243
276	20    	0.953976	0.00334948	0.949615	0.961243
277	20    	0.954073	0.00324846	0.951553	0.961243
278	20    	0.954073	0.00324846	0.951553	0.961243
279	20    	0.954073	0.00324846	0.951553	0.961243
280	20    	0.954073	0.00324846	0.951553	0.961243
281	20    	0.954073	0.00324846	0.951553	0.961243
282	20    	0.954073	0.00324846	0.951553	0.961243
283	20    	0.954073	0.00324846	0.951553	0.961243
284	20    	0.954073	0.00324846	0.951553	0.961243
285	20    	0.954073	0.00324846	0.951553	0.961243
286	20    	0.954073	0.00324846	0.951553	0.961243
287	20    	0.954073	0.00324846	0.951553	0.961243
288	20    	0.954073	0.00324846	0.951553	0.961243
289	20    	0.954073	0.00324846	0.951553	0.961243
290	20    	0.954073	0.00324846	0.951553	0.961243
291	20    	0.954073	0.00324846	0.951553	0.961243
292	20    	0.954073	0.00324846	0.951553	0.961243
293	20    	0.95446 	0.00338434	0.951553	0.961243
294	20    	0.954848	0.00347197	0.951553	0.961243
295	20    	0.954848	0.00347197	0.951553	0.961243
296	20    	0.954848	0.00347197	0.951553	0.961243
297	20    	0.954848	0.00347197	0.951553	0.961243
298	20    	0.955042	0.00333403	0.951553	0.961243
299	20    	0.955042	0.00333403	0.951553	0.961243
300	20    	0.955042	0.00333403	0.951553	0.961243
301	20    	0.955138	0.00325856	0.951553	0.961243
302	20    	0.955138	0.00325856	0.951553	0.961243
303	20    	0.955138	0.00325856	0.951553	0.961243
304	20    	0.955138	0.00325856	0.951553	0.961243
305	20    	0.955138	0.00325856	0.951553	0.961243
306	20    	0.955235	0.00317834	0.951553	0.961243
307	20    	0.955235	0.00317834	0.951553	0.961243
308	20    	0.955235	0.00317834	0.951553	0.961243
309	20    	0.955526	0.00309301	0.951553	0.961243
310	20    	0.955623	0.00299587	0.951553	0.961243
311	20    	0.95572 	0.00289223	0.951553	0.961243
312	20    	0.95572 	0.00289223	0.951553	0.961243
313	20    	0.95572 	0.00289223	0.951553	0.961243
314	20    	0.955817	0.00278136	0.953491	0.961243
315	20    	0.955817	0.00278136	0.953491	0.961243
316	20    	0.955817	0.00278136	0.953491	0.961243
317	20    	0.955817	0.00278136	0.953491	0.961243
318	20    	0.955817	0.00278136	0.953491	0.961243
319	20    	0.955817	0.00278136	0.953491	0.961243
320	20    	0.955817	0.00278136	0.953491	0.961243
321	20    	0.955914	0.00273198	0.953491	0.961243
322	20    	0.955914	0.00273198	0.953491	0.961243
323	20    	0.955914	0.00273198	0.953491	0.961243
324	20    	0.955914	0.00273198	0.953491	0.961243
325	20    	0.955914	0.00273198	0.953491	0.961243
326	20    	0.955914	0.00273198	0.953491	0.961243
327	20    	0.955914	0.00273198	0.953491	0.961243
328	20    	0.955914	0.00273198	0.953491	0.961243
329	20    	0.955914	0.00273198	0.953491	0.961243
330	20    	0.955914	0.00273198	0.953491	0.961243
331	20    	0.955914	0.00273198	0.953491	0.961243
332	20    	0.955914	0.00273198	0.953491	0.961243
333	20    	0.955914	0.00273198	0.953491	0.961243
334	20    	0.956107	0.00269043	0.953491	0.961243
335	20    	0.956204	0.00262865	0.953491	0.961243
336	20    	0.956204	0.00262865	0.953491	0.961243
337	20    	0.956204	0.00262865	0.953491	0.961243
338	20    	0.956204	0.00262865	0.953491	0.961243
339	20    	0.956204	0.00262865	0.953491	0.961243
340	20    	0.956204	0.00262865	0.953491	0.961243
341	20    	0.956204	0.00262865	0.953491	0.961243
342	20    	0.956204	0.00262865	0.953491	0.961243
343	20    	0.956204	0.00262865	0.953491	0.961243
344	20    	0.956204	0.00262865	0.953491	0.961243
345	20    	0.956204	0.00262865	0.953491	0.961243
346	20    	0.956204	0.00262865	0.953491	0.961243
347	20    	0.956204	0.00262865	0.953491	0.961243
348	20    	0.956204	0.00262865	0.953491	0.961243
349	20    	0.956204	0.00262865	0.953491	0.961243
350	20    	0.956204	0.00262865	0.953491	0.961243
351	20    	0.956204	0.00262865	0.953491	0.961243
352	20    	0.956204	0.00262865	0.953491	0.961243
353	20    	0.956204	0.00262865	0.953491	0.961243
354	20    	0.956204	0.00262865	0.953491	0.961243
355	20    	0.956204	0.00262865	0.953491	0.961243
356	20    	0.956204	0.00262865	0.953491	0.961243
357	20    	0.956204	0.00262865	0.953491	0.961243
358	20    	0.956204	0.00262865	0.953491	0.961243
359	20    	0.956204	0.00262865	0.953491	0.961243
360	20    	0.956204	0.00262865	0.953491	0.961243
361	20    	0.956204	0.00262865	0.953491	0.961243
362	20    	0.956204	0.00262865	0.953491	0.961243
363	20    	0.956204	0.00262865	0.953491	0.961243
364	20    	0.956204	0.00262865	0.953491	0.961243
365	20    	0.956204	0.00262865	0.953491	0.961243
366	20    	0.956204	0.00262865	0.953491	0.961243
367	20    	0.956204	0.00262865	0.953491	0.961243
368	20    	0.956204	0.00262865	0.953491	0.961243
369	20    	0.956204	0.00262865	0.953491	0.961243
370	20    	0.956204	0.00262865	0.953491	0.961243
371	20    	0.956204	0.00262865	0.953491	0.961243
372	20    	0.956204	0.00262865	0.953491	0.961243
373	20    	0.956398	0.00256356	0.953491	0.961243
374	20    	0.956398	0.00256356	0.953491	0.961243
375	20    	0.956398	0.00256356	0.953491	0.961243
376	20    	0.956398	0.00256356	0.953491	0.961243
377	20    	0.956495	0.00248735	0.953491	0.961243
378	20    	0.956495	0.00248735	0.953491	0.961243
379	20    	0.956495	0.00248735	0.953491	0.961243
380	20    	0.956495	0.00248735	0.953491	0.961243
381	20    	0.956495	0.00248735	0.953491	0.961243
382	20    	0.956495	0.00248735	0.953491	0.961243
383	20    	0.956495	0.00248735	0.953491	0.961243
384	20    	0.956495	0.00248735	0.953491	0.961243
385	20    	0.956495	0.00248735	0.953491	0.961243
386	20    	0.956495	0.00248735	0.953491	0.961243
387	20    	0.956495	0.00248735	0.953491	0.961243
388	20    	0.956495	0.00248735	0.953491	0.961243
389	20    	0.956592	0.00240483	0.953491	0.961243
390	20    	0.956592	0.00240483	0.953491	0.961243
391	20    	0.956592	0.00240483	0.953491	0.961243
392	20    	0.956592	0.00240483	0.953491	0.961243
393	20    	0.956689	0.00231532	0.953491	0.961243
394	20    	0.956689	0.00231532	0.953491	0.961243
395	20    	0.956689	0.00231532	0.953491	0.961243
396	20    	0.956689	0.00231532	0.953491	0.961243
397	20    	0.956689	0.00231532	0.953491	0.961243
398	20    	0.956689	0.00231532	0.953491	0.961243
399	20    	0.956689	0.00231532	0.953491	0.961243
400	20    	0.956689	0.00231532	0.953491	0.961243
401	20    	0.956689	0.00231532	0.953491	0.961243
402	20    	0.956689	0.00231532	0.953491	0.961243
403	20    	0.956689	0.00231532	0.953491	0.961243
404	20    	0.956689	0.00231532	0.953491	0.961243
405	20    	0.956689	0.00231532	0.953491	0.961243
406	20    	0.956689	0.00231532	0.953491	0.961243
407	20    	0.956689	0.00231532	0.953491	0.961243
408	20    	0.956689	0.00231532	0.953491	0.961243
409	20    	0.956689	0.00231532	0.953491	0.961243
410	20    	0.956689	0.00231532	0.953491	0.961243
411	20    	0.956689	0.00231532	0.953491	0.961243
412	20    	0.956689	0.00231532	0.953491	0.961243
413	20    	0.956689	0.00231532	0.953491	0.961243
414	20    	0.956689	0.00231532	0.953491	0.961243
415	20    	0.957076	0.00214701	0.953491	0.961243
416	20    	0.957173	0.00202319	0.955429	0.961243
417	20    	0.957173	0.00202319	0.955429	0.961243
418	20    	0.957173	0.00202319	0.955429	0.961243
419	20    	0.957173	0.00202319	0.955429	0.961243
420	20    	0.957173	0.00202319	0.955429	0.961243
421	20    	0.957173	0.00202319	0.955429	0.961243
422	20    	0.957173	0.00202319	0.955429	0.961243
423	20    	0.957173	0.00202319	0.955429	0.961243
424	20    	0.957173	0.00202319	0.955429	0.961243
425	20    	0.957173	0.00202319	0.955429	0.961243
426	20    	0.957173	0.00202319	0.955429	0.961243
427	20    	0.957173	0.00202319	0.955429	0.961243
428	20    	0.957173	0.00202319	0.955429	0.961243
429	20    	0.957173	0.00202319	0.955429	0.961243
430	20    	0.957173	0.00202319	0.955429	0.961243
431	20    	0.957173	0.00202319	0.955429	0.961243
432	20    	0.957173	0.00202319	0.955429	0.961243
433	20    	0.957173	0.00202319	0.955429	0.961243
434	20    	0.957173	0.00202319	0.955429	0.961243
435	20    	0.957173	0.00202319	0.955429	0.961243
436	20    	0.957173	0.00202319	0.955429	0.961243
437	20    	0.957173	0.00202319	0.955429	0.961243
438	20    	0.957173	0.00202319	0.955429	0.961243
439	20    	0.957173	0.00202319	0.955429	0.961243
440	20    	0.957173	0.00202319	0.955429	0.961243
441	20    	0.957173	0.00202319	0.955429	0.961243
442	20    	0.957173	0.00202319	0.955429	0.961243
443	20    	0.957173	0.00202319	0.955429	0.961243
444	20    	0.957173	0.00202319	0.955429	0.961243
445	20    	0.957173	0.00202319	0.955429	0.961243
446	20    	0.957173	0.00202319	0.955429	0.961243
447	20    	0.957173	0.00202319	0.955429	0.961243
448	20    	0.957173	0.00202319	0.955429	0.961243
449	20    	0.957173	0.00202319	0.955429	0.961243
450	20    	0.957173	0.00202319	0.955429	0.961243
451	20    	0.957173	0.00202319	0.955429	0.961243
452	20    	0.957173	0.00202319	0.955429	0.961243
453	20    	0.957173	0.00202319	0.955429	0.961243
454	20    	0.957173	0.00202319	0.955429	0.961243
455	20    	0.957173	0.00202319	0.955429	0.961243
456	20    	0.957173	0.00202319	0.955429	0.961243
457	20    	0.957173	0.00202319	0.955429	0.961243
458	20    	0.957173	0.00202319	0.955429	0.961243
459	20    	0.957173	0.00202319	0.955429	0.961243
460	20    	0.957173	0.00202319	0.955429	0.961243
461	20    	0.957173	0.00202319	0.955429	0.961243
462	20    	0.957173	0.00202319	0.955429	0.961243
463	20    	0.957173	0.00202319	0.955429	0.961243
464	20    	0.957173	0.00202319	0.955429	0.961243
465	20    	0.957173	0.00202319	0.955429	0.961243
466	20    	0.957173	0.00202319	0.955429	0.961243
467	20    	0.957173	0.00202319	0.955429	0.961243
468	20    	0.957367	0.00203245	0.955429	0.961243
469	20    	0.957367	0.00203245	0.955429	0.961243
470	20    	0.957367	0.00203245	0.955429	0.961243
471	20    	0.957367	0.00203245	0.955429	0.961243
472	20    	0.957367	0.00203245	0.955429	0.961243
473	20    	0.957367	0.00203245	0.955429	0.961243
474	20    	0.957367	0.00203245	0.955429	0.961243
475	20    	0.957367	0.00203245	0.955429	0.961243
476	20    	0.957367	0.00203245	0.955429	0.961243
477	20    	0.957367	0.00203245	0.955429	0.961243
478	20    	0.957367	0.00203245	0.955429	0.961243
479	20    	0.957367	0.00203245	0.955429	0.961243
480	20    	0.957367	0.00203245	0.955429	0.961243
481	20    	0.957367	0.00203245	0.955429	0.961243
482	20    	0.957367	0.00203245	0.955429	0.961243
483	20    	0.957367	0.00203245	0.955429	0.961243
484	20    	0.957367	0.00203245	0.955429	0.961243
485	20    	0.957367	0.00203245	0.955429	0.961243
486	20    	0.957367	0.00203245	0.955429	0.961243
487	20    	0.957367	0.00203245	0.955429	0.961243
488	20    	0.957367	0.00203245	0.955429	0.961243
489	20    	0.957367	0.00203245	0.955429	0.961243
490	20    	0.957367	0.00203245	0.955429	0.961243
491	20    	0.957367	0.00203245	0.955429	0.961243
492	20    	0.957367	0.00203245	0.955429	0.961243
493	20    	0.957367	0.00203245	0.955429	0.961243
494	20    	0.957367	0.00203245	0.955429	0.961243
495	20    	0.957561	0.00202319	0.955429	0.961243
496	20    	0.957561	0.00202319	0.955429	0.961243
497	20    	0.957561	0.00202319	0.955429	0.961243
498	20    	0.957561	0.00202319	0.955429	0.961243
499	20    	0.957658	0.00196433	0.955429	0.961243
