gen	nevals	avg     	std       	min     	max     
0  	20    	0.876629	0.0108099 	0.857147	0.893204
1  	20    	0.884258	0.00516122	0.876556	0.893204
2  	20    	0.890153	0.00463182	0.883499	0.900131
3  	20    	0.892094	0.00491518	0.886276	0.904297
4  	20    	0.893202	0.00411576	0.88765 	0.904297
5  	20    	0.896116	0.00571762	0.890427	0.91124 
6  	20    	0.900208	0.00567584	0.893204	0.91124 
7  	20    	0.902219	0.00437455	0.895981	0.91124 
8  	20    	0.903951	0.00348063	0.898758	0.91124 
9  	20    	0.905616	0.00315036	0.90152 	0.91124 
10 	20    	0.906033	0.00313194	0.90152 	0.91124 
11 	20    	0.908045	0.00354036	0.904297	0.919556
12 	20    	0.909017	0.0030836 	0.905685	0.919556
13 	20    	0.910544	0.00329637	0.907074	0.919556
14 	20    	0.911515	0.00302442	0.908463	0.919556
15 	20    	0.91207 	0.00285379	0.909851	0.919556
16 	20    	0.912762	0.00273269	0.909851	0.919556
17 	20    	0.913663	0.00293498	0.91124 	0.919556
18 	20    	0.915466	0.00393357	0.91124 	0.926498
19 	20    	0.915812	0.00374912	0.91124 	0.926498
20 	20    	0.916434	0.00347843	0.912628	0.926498
21 	20    	0.918098	0.00349835	0.914001	0.926498
22 	20    	0.919764	0.00311342	0.91539 	0.926498
23 	20    	0.92025 	0.00268892	0.916779	0.926498
24 	20    	0.920389	0.00253767	0.916779	0.926498
25 	20    	0.920458	0.00245561	0.918167	0.926498
26 	20    	0.920458	0.00245561	0.918167	0.926498
27 	20    	0.920875	0.0023016 	0.918167	0.926498
28 	20    	0.922123	0.00310992	0.919556	0.92926 
29 	20    	0.922192	0.00306703	0.919556	0.92926 
30 	20    	0.922401	0.00302201	0.919556	0.92926 
31 	20    	0.922609	0.0029617 	0.919556	0.92926 
32 	20    	0.923164	0.00275281	0.919556	0.92926 
33 	20    	0.924274	0.00288803	0.920944	0.932037
34 	20    	0.924552	0.00271624	0.920944	0.932037
35 	20    	0.92483 	0.00261522	0.922333	0.932037
36 	20    	0.92587 	0.00295525	0.922333	0.933426
37 	20    	0.926009	0.00284914	0.923721	0.933426
38 	20    	0.926494	0.00303589	0.923721	0.933426
39 	20    	0.926563	0.00298718	0.923721	0.933426
40 	20    	0.926771	0.00292608	0.923721	0.933426
41 	20    	0.926771	0.00292608	0.923721	0.933426
42 	20    	0.927255	0.0026817 	0.923721	0.933426
43 	20    	0.927325	0.00260622	0.92511 	0.933426
44 	20    	0.927948	0.0027525 	0.92511 	0.933426
45 	20    	0.928087	0.00263849	0.92511 	0.933426
46 	20    	0.928571	0.00257358	0.92511 	0.933426
47 	20    	0.928571	0.00257358	0.92511 	0.933426
48 	20    	0.928986	0.00234374	0.92511 	0.933426
49 	20    	0.929124	0.00218743	0.926498	0.933426
50 	20    	0.929124	0.00218743	0.926498	0.933426
51 	20    	0.929263	0.00210283	0.926498	0.933426
52 	20    	0.929539	0.00208522	0.926498	0.933426
53 	20    	0.930093	0.00198325	0.927872	0.933426
54 	20    	0.930302	0.00185646	0.927872	0.933426
55 	20    	0.930302	0.00185646	0.927872	0.933426
56 	20    	0.930441	0.00177142	0.927872	0.933426
57 	20    	0.93051 	0.00169494	0.927872	0.933426
58 	20    	0.930579	0.00161185	0.927872	0.933426
59 	20    	0.930579	0.00161185	0.927872	0.933426
60 	20    	0.930579	0.00161185	0.927872	0.933426
61 	20    	0.930788	0.00151473	0.927872	0.933426
62 	20    	0.930788	0.00151473	0.927872	0.933426
63 	20    	0.931274	0.00148743	0.92926 	0.933426
64 	20    	0.931343	0.00142284	0.92926 	0.933426
65 	20    	0.931343	0.00142284	0.92926 	0.933426
66 	20    	0.931343	0.00142284	0.92926 	0.933426
67 	20    	0.931343	0.00142284	0.92926 	0.933426
68 	20    	0.931343	0.00142284	0.92926 	0.933426
69 	20    	0.931343	0.00142284	0.92926 	0.933426
70 	20    	0.931343	0.00142284	0.92926 	0.933426
71 	20    	0.93169 	0.00115132	0.92926 	0.933426
72 	20    	0.93169 	0.00115132	0.92926 	0.933426
73 	20    	0.93176 	0.0010391 	0.930649	0.933426
74 	20    	0.931968	0.00120051	0.930649	0.934814
75 	20    	0.931968	0.00120051	0.930649	0.934814
76 	20    	0.931968	0.00120051	0.930649	0.934814
77 	20    	0.932107	0.00120051	0.930649	0.934814
78 	20    	0.932107	0.00120051	0.930649	0.934814
79 	20    	0.932315	0.00128769	0.930649	0.934814
80 	20    	0.932315	0.00128769	0.930649	0.934814
81 	20    	0.932732	0.00188863	0.930649	0.93898 
82 	20    	0.933079	0.00210011	0.930649	0.93898 
83 	20    	0.933773	0.00223358	0.932037	0.93898 
84 	20    	0.933773	0.00223358	0.932037	0.93898 
85 	20    	0.933773	0.00223358	0.932037	0.93898 
86 	20    	0.934051	0.00221625	0.932037	0.93898 
87 	20    	0.934051	0.00221625	0.932037	0.93898 
88 	20    	0.934051	0.00221625	0.932037	0.93898 
89 	20    	0.934328	0.00211839	0.932037	0.93898 
90 	20    	0.935229	0.00277737	0.932037	0.941742
91 	20    	0.935229	0.00277737	0.932037	0.941742
92 	20    	0.935299	0.00271332	0.932037	0.941742
93 	20    	0.935438	0.00261203	0.932037	0.941742
94 	20    	0.935646	0.00249609	0.933426	0.941742
95 	20    	0.936201	0.00259366	0.933426	0.941742
96 	20    	0.93627 	0.00253641	0.933426	0.941742
97 	20    	0.93627 	0.00253641	0.933426	0.941742
98 	20    	0.93634 	0.00247589	0.933426	0.941742
99 	20    	0.93634 	0.00247589	0.933426	0.941742
100	20    	0.93634 	0.00247589	0.933426	0.941742
101	20    	0.936409	0.00241185	0.933426	0.941742
102	20    	0.936478	0.00234401	0.933426	0.941742
103	20    	0.936548	0.00227203	0.934814	0.941742
104	20    	0.936687	0.00224657	0.934814	0.941742
105	20    	0.936687	0.00224657	0.934814	0.941742
106	20    	0.936687	0.00224657	0.934814	0.941742
107	20    	0.936756	0.00220877	0.934814	0.941742
108	20    	0.936895	0.00216928	0.934814	0.941742
109	20    	0.936895	0.00216928	0.934814	0.941742
110	20    	0.937034	0.00211999	0.934814	0.941742
111	20    	0.937034	0.00211999	0.934814	0.941742
112	20    	0.937034	0.00211999	0.934814	0.941742
113	20    	0.937312	0.0020368 	0.934814	0.941742
114	20    	0.93745 	0.00195485	0.934814	0.941742
115	20    	0.93752 	0.00188335	0.934814	0.941742
116	20    	0.937798	0.0017121 	0.934814	0.941742
117	20    	0.937798	0.0017121 	0.934814	0.941742
118	20    	0.937936	0.00157136	0.936203	0.941742
119	20    	0.937936	0.00157136	0.936203	0.941742
120	20    	0.937936	0.00157136	0.936203	0.941742
121	20    	0.937936	0.00157136	0.936203	0.941742
122	20    	0.937936	0.00157136	0.936203	0.941742
123	20    	0.937936	0.00157136	0.936203	0.941742
124	20    	0.937936	0.00157136	0.936203	0.941742
125	20    	0.937936	0.00157136	0.936203	0.941742
126	20    	0.937936	0.00157136	0.936203	0.941742
127	20    	0.937936	0.00157136	0.936203	0.941742
128	20    	0.938352	0.00183049	0.936203	0.94313 
129	20    	0.938352	0.00183049	0.936203	0.94313 
130	20    	0.938629	0.00190199	0.936203	0.94313 
131	20    	0.938629	0.00190199	0.936203	0.94313 
132	20    	0.938699	0.00183637	0.936203	0.94313 
133	20    	0.938837	0.00174515	0.936203	0.94313 
134	20    	0.938837	0.00174515	0.936203	0.94313 
135	20    	0.939045	0.00166445	0.937592	0.94313 
136	20    	0.939045	0.00166445	0.937592	0.94313 
137	20    	0.939045	0.00166445	0.937592	0.94313 
138	20    	0.939045	0.00166445	0.937592	0.94313 
139	20    	0.939045	0.00166445	0.937592	0.94313 
140	20    	0.939045	0.00166445	0.937592	0.94313 
141	20    	0.939045	0.00166445	0.937592	0.94313 
142	20    	0.939045	0.00166445	0.937592	0.94313 
143	20    	0.939045	0.00166445	0.937592	0.94313 
144	20    	0.939114	0.001631  	0.937592	0.94313 
145	20    	0.939114	0.001631  	0.937592	0.94313 
146	20    	0.939114	0.001631  	0.937592	0.94313 
147	20    	0.939114	0.001631  	0.937592	0.94313 
148	20    	0.939114	0.001631  	0.937592	0.94313 
149	20    	0.939114	0.001631  	0.937592	0.94313 
150	20    	0.939114	0.001631  	0.937592	0.94313 
151	20    	0.939114	0.001631  	0.937592	0.94313 
152	20    	0.939252	0.00161304	0.937592	0.94313 
153	20    	0.939252	0.00161304	0.937592	0.94313 
154	20    	0.939252	0.00161304	0.937592	0.94313 
155	20    	0.939252	0.00161304	0.937592	0.94313 
156	20    	0.939252	0.00161304	0.937592	0.94313 
157	20    	0.939876	0.0022876 	0.937592	0.947296
158	20    	0.939876	0.0022876 	0.937592	0.947296
159	20    	0.940153	0.0023292 	0.937592	0.947296
160	20    	0.940153	0.0023292 	0.937592	0.947296
161	20    	0.940153	0.0023292 	0.937592	0.947296
162	20    	0.940153	0.0023292 	0.937592	0.947296
163	20    	0.940153	0.0023292 	0.937592	0.947296
164	20    	0.940153	0.0023292 	0.937592	0.947296
165	20    	0.940153	0.0023292 	0.937592	0.947296
166	20    	0.940153	0.0023292 	0.937592	0.947296
167	20    	0.940153	0.0023292 	0.937592	0.947296
168	20    	0.940153	0.0023292 	0.937592	0.947296
169	20    	0.940291	0.00225392	0.937592	0.947296
170	20    	0.940498	0.00218588	0.937592	0.947296
171	20    	0.940498	0.00218588	0.937592	0.947296
172	20    	0.940498	0.00218588	0.937592	0.947296
173	20    	0.940498	0.00218588	0.937592	0.947296
174	20    	0.940568	0.0021133 	0.937592	0.947296
175	20    	0.940568	0.0021133 	0.937592	0.947296
176	20    	0.940568	0.0021133 	0.937592	0.947296
177	20    	0.940568	0.0021133 	0.937592	0.947296
178	20    	0.940568	0.0021133 	0.937592	0.947296
179	20    	0.940568	0.0021133 	0.937592	0.947296
180	20    	0.940568	0.0021133 	0.937592	0.947296
181	20    	0.940568	0.0021133 	0.937592	0.947296
182	20    	0.940568	0.0021133 	0.937592	0.947296
183	20    	0.940568	0.0021133 	0.937592	0.947296
184	20    	0.940914	0.0021642 	0.93898 	0.947296
185	20    	0.940914	0.0021642 	0.93898 	0.947296
186	20    	0.940914	0.0021642 	0.93898 	0.947296
187	20    	0.940914	0.0021642 	0.93898 	0.947296
188	20    	0.940914	0.0021642 	0.93898 	0.947296
189	20    	0.940914	0.0021642 	0.93898 	0.947296
190	20    	0.940914	0.0021642 	0.93898 	0.947296
191	20    	0.940914	0.0021642 	0.93898 	0.947296
192	20    	0.940914	0.0021642 	0.93898 	0.947296
193	20    	0.940914	0.0021642 	0.93898 	0.947296
194	20    	0.940914	0.0021642 	0.93898 	0.947296
195	20    	0.941122	0.00216779	0.93898 	0.947296
196	20    	0.941122	0.00216779	0.93898 	0.947296
197	20    	0.941122	0.00216779	0.93898 	0.947296
198	20    	0.941122	0.00216779	0.93898 	0.947296
199	20    	0.941329	0.00215144	0.93898 	0.947296
200	20    	0.941329	0.00215144	0.93898 	0.947296
201	20    	0.941329	0.00215144	0.93898 	0.947296
202	20    	0.941329	0.00215144	0.93898 	0.947296
203	20    	0.941398	0.00209658	0.93898 	0.947296
204	20    	0.941398	0.00209658	0.93898 	0.947296
205	20    	0.941605	0.00205193	0.93898 	0.947296
206	20    	0.941674	0.00198481	0.93898 	0.947296
207	20    	0.941674	0.00198481	0.93898 	0.947296
208	20    	0.941743	0.00191288	0.93898 	0.947296
209	20    	0.941811	0.00183557	0.940353	0.947296
210	20    	0.941811	0.00183557	0.940353	0.947296
211	20    	0.942228	0.00233487	0.940353	0.948685
212	20    	0.942228	0.00233487	0.940353	0.948685
213	20    	0.942228	0.00233487	0.940353	0.948685
214	20    	0.942228	0.00233487	0.940353	0.948685
215	20    	0.942228	0.00233487	0.940353	0.948685
216	20    	0.942228	0.00233487	0.940353	0.948685
217	20    	0.942228	0.00233487	0.940353	0.948685
218	20    	0.942506	0.002424  	0.940353	0.948685
219	20    	0.942506	0.002424  	0.940353	0.948685
220	20    	0.942506	0.002424  	0.940353	0.948685
221	20    	0.942506	0.002424  	0.940353	0.948685
222	20    	0.942506	0.002424  	0.940353	0.948685
223	20    	0.942506	0.002424  	0.940353	0.948685
224	20    	0.942506	0.002424  	0.940353	0.948685
225	20    	0.942645	0.0023758 	0.940353	0.948685
226	20    	0.942645	0.0023758 	0.940353	0.948685
227	20    	0.942645	0.0023758 	0.940353	0.948685
228	20    	0.942645	0.0023758 	0.940353	0.948685
229	20    	0.942783	0.0023183 	0.940353	0.948685
230	20    	0.942783	0.0023183 	0.940353	0.948685
231	20    	0.942783	0.0023183 	0.940353	0.948685
232	20    	0.942783	0.0023183 	0.940353	0.948685
233	20    	0.942783	0.0023183 	0.940353	0.948685
234	20    	0.942783	0.0023183 	0.940353	0.948685
235	20    	0.942783	0.0023183 	0.940353	0.948685
236	20    	0.942783	0.0023183 	0.940353	0.948685
237	20    	0.942783	0.0023183 	0.940353	0.948685
238	20    	0.942992	0.00227739	0.940353	0.948685
239	20    	0.942992	0.00227739	0.940353	0.948685
240	20    	0.942992	0.00227739	0.940353	0.948685
241	20    	0.943061	0.00221625	0.940353	0.948685
242	20    	0.943061	0.00221625	0.940353	0.948685
243	20    	0.943061	0.00221625	0.940353	0.948685
244	20    	0.943061	0.00221625	0.940353	0.948685
245	20    	0.943408	0.00230683	0.940353	0.948685
246	20    	0.943408	0.00230683	0.940353	0.948685
247	20    	0.943408	0.00230683	0.940353	0.948685
248	20    	0.943408	0.00230683	0.940353	0.948685
249	20    	0.943547	0.00219988	0.940353	0.948685
250	20    	0.943547	0.00219988	0.940353	0.948685
251	20    	0.943547	0.00219988	0.940353	0.948685
252	20    	0.943547	0.00219988	0.940353	0.948685
253	20    	0.943547	0.00219988	0.940353	0.948685
254	20    	0.943547	0.00219988	0.940353	0.948685
255	20    	0.943547	0.00219988	0.940353	0.948685
256	20    	0.943547	0.00219988	0.940353	0.948685
257	20    	0.943547	0.00219988	0.940353	0.948685
258	20    	0.943964	0.00234003	0.940353	0.948685
259	20    	0.943964	0.00234003	0.940353	0.948685
260	20    	0.943964	0.00234003	0.940353	0.948685
261	20    	0.943964	0.00234003	0.940353	0.948685
262	20    	0.944102	0.00219988	0.941742	0.948685
263	20    	0.944102	0.00219988	0.941742	0.948685
264	20    	0.944102	0.00219988	0.941742	0.948685
265	20    	0.944311	0.00216342	0.941742	0.948685
266	20    	0.944311	0.00216342	0.941742	0.948685
267	20    	0.944311	0.00216342	0.941742	0.948685
268	20    	0.944311	0.00216342	0.941742	0.948685
269	20    	0.945352	0.00246052	0.94313 	0.951462
270	20    	0.945352	0.00246052	0.94313 	0.951462
271	20    	0.945352	0.00246052	0.94313 	0.951462
272	20    	0.94563 	0.00250709	0.94313 	0.951462
273	20    	0.945699	0.00245561	0.94313 	0.951462
274	20    	0.945699	0.00245561	0.94313 	0.951462
275	20    	0.945699	0.00245561	0.94313 	0.951462
276	20    	0.945699	0.00245561	0.94313 	0.951462
277	20    	0.945699	0.00245561	0.94313 	0.951462
278	20    	0.945977	0.00246345	0.94313 	0.951462
279	20    	0.945977	0.00246345	0.94313 	0.951462
280	20    	0.945977	0.00246345	0.94313 	0.951462
281	20    	0.945977	0.00246345	0.94313 	0.951462
282	20    	0.945977	0.00246345	0.94313 	0.951462
283	20    	0.946185	0.00230683	0.94313 	0.951462
284	20    	0.946394	0.00220753	0.94313 	0.951462
285	20    	0.946394	0.00220753	0.94313 	0.951462
286	20    	0.946463	0.00212407	0.94313 	0.951462
287	20    	0.946463	0.00212407	0.94313 	0.951462
288	20    	0.946463	0.00212407	0.94313 	0.951462
289	20    	0.946463	0.00212407	0.94313 	0.951462
290	20    	0.946463	0.00212407	0.94313 	0.951462
291	20    	0.946463	0.00212407	0.94313 	0.951462
292	20    	0.946463	0.00212407	0.94313 	0.951462
293	20    	0.946463	0.00212407	0.94313 	0.951462
294	20    	0.946463	0.00212407	0.94313 	0.951462
295	20    	0.946463	0.00212407	0.94313 	0.951462
296	20    	0.946463	0.00212407	0.94313 	0.951462
297	20    	0.946463	0.00212407	0.94313 	0.951462
298	20    	0.946532	0.00203483	0.94313 	0.951462
299	20    	0.946532	0.00203483	0.94313 	0.951462
300	20    	0.946532	0.00203483	0.94313 	0.951462
301	20    	0.946532	0.00203483	0.94313 	0.951462
302	20    	0.946532	0.00203483	0.94313 	0.951462
303	20    	0.946532	0.00203483	0.94313 	0.951462
304	20    	0.946532	0.00203483	0.94313 	0.951462
305	20    	0.946532	0.00203483	0.94313 	0.951462
306	20    	0.946602	0.001939  	0.944519	0.951462
307	20    	0.946602	0.001939  	0.944519	0.951462
308	20    	0.946602	0.001939  	0.944519	0.951462
309	20    	0.946602	0.001939  	0.944519	0.951462
310	20    	0.946602	0.001939  	0.944519	0.951462
311	20    	0.946602	0.001939  	0.944519	0.951462
312	20    	0.946602	0.001939  	0.944519	0.951462
313	20    	0.946602	0.001939  	0.944519	0.951462
314	20    	0.946602	0.001939  	0.944519	0.951462
315	20    	0.946602	0.001939  	0.944519	0.951462
316	20    	0.946602	0.001939  	0.944519	0.951462
317	20    	0.946602	0.001939  	0.944519	0.951462
318	20    	0.946602	0.001939  	0.944519	0.951462
319	20    	0.946602	0.001939  	0.944519	0.951462
320	20    	0.946602	0.001939  	0.944519	0.951462
321	20    	0.946602	0.001939  	0.944519	0.951462
322	20    	0.946602	0.001939  	0.944519	0.951462
323	20    	0.946602	0.001939  	0.944519	0.951462
324	20    	0.946602	0.001939  	0.944519	0.951462
325	20    	0.946602	0.001939  	0.944519	0.951462
326	20    	0.946602	0.001939  	0.944519	0.951462
327	20    	0.946602	0.001939  	0.944519	0.951462
328	20    	0.946602	0.001939  	0.944519	0.951462
329	20    	0.946602	0.001939  	0.944519	0.951462
330	20    	0.946602	0.001939  	0.944519	0.951462
331	20    	0.946602	0.001939  	0.944519	0.951462
332	20    	0.94681 	0.00192779	0.944519	0.951462
333	20    	0.94681 	0.00192779	0.944519	0.951462
334	20    	0.94681 	0.00192779	0.944519	0.951462
335	20    	0.94681 	0.00192779	0.944519	0.951462
336	20    	0.94681 	0.00192779	0.944519	0.951462
337	20    	0.94681 	0.00192779	0.944519	0.951462
338	20    	0.94681 	0.00192779	0.944519	0.951462
339	20    	0.94681 	0.00192779	0.944519	0.951462
340	20    	0.947157	0.00210126	0.944519	0.951462
341	20    	0.947227	0.00203483	0.944519	0.951462
342	20    	0.947227	0.00203483	0.944519	0.951462
343	20    	0.947227	0.00203483	0.944519	0.951462
344	20    	0.947227	0.00203483	0.944519	0.951462
345	20    	0.947227	0.00203483	0.944519	0.951462
346	20    	0.947227	0.00203483	0.944519	0.951462
347	20    	0.947227	0.00203483	0.944519	0.951462
348	20    	0.947227	0.00203483	0.944519	0.951462
349	20    	0.947366	0.00193776	0.944519	0.951462
350	20    	0.947435	0.00185775	0.944519	0.951462
351	20    	0.947435	0.00185775	0.944519	0.951462
352	20    	0.947435	0.00185775	0.944519	0.951462
353	20    	0.947504	0.00177142	0.944519	0.951462
354	20    	0.947504	0.00177142	0.944519	0.951462
355	20    	0.947504	0.00177142	0.944519	0.951462
356	20    	0.947504	0.00177142	0.944519	0.951462
357	20    	0.947713	0.00164881	0.945908	0.951462
358	20    	0.947713	0.00164881	0.945908	0.951462
359	20    	0.947713	0.00164881	0.945908	0.951462
360	20    	0.947713	0.00164881	0.945908	0.951462
361	20    	0.947713	0.00164881	0.945908	0.951462
362	20    	0.947713	0.00164881	0.945908	0.951462
363	20    	0.94806 	0.00193776	0.945908	0.95285 
364	20    	0.94806 	0.00193776	0.945908	0.95285 
365	20    	0.94806 	0.00193776	0.945908	0.95285 
366	20    	0.94806 	0.00193776	0.945908	0.95285 
367	20    	0.94806 	0.00193776	0.945908	0.95285 
368	20    	0.94806 	0.00193776	0.945908	0.95285 
369	20    	0.94806 	0.00193776	0.945908	0.95285 
370	20    	0.94806 	0.00193776	0.945908	0.95285 
371	20    	0.94806 	0.00193776	0.945908	0.95285 
372	20    	0.948338	0.0020062 	0.945908	0.95285 
373	20    	0.948338	0.0020062 	0.945908	0.95285 
374	20    	0.948338	0.0020062 	0.945908	0.95285 
375	20    	0.948338	0.0020062 	0.945908	0.95285 
376	20    	0.948338	0.0020062 	0.945908	0.95285 
377	20    	0.948338	0.0020062 	0.945908	0.95285 
378	20    	0.948338	0.0020062 	0.945908	0.95285 
379	20    	0.948407	0.00194397	0.945908	0.95285 
380	20    	0.948407	0.00194397	0.945908	0.95285 
381	20    	0.948407	0.00194397	0.945908	0.95285 
382	20    	0.948407	0.00194397	0.945908	0.95285 
383	20    	0.948407	0.00194397	0.945908	0.95285 
384	20    	0.948407	0.00194397	0.945908	0.95285 
385	20    	0.948407	0.00194397	0.945908	0.95285 
386	20    	0.948407	0.00194397	0.945908	0.95285 
387	20    	0.948407	0.00194397	0.945908	0.95285 
388	20    	0.948407	0.00194397	0.945908	0.95285 
389	20    	0.948407	0.00194397	0.945908	0.95285 
390	20    	0.948407	0.00194397	0.945908	0.95285 
391	20    	0.948407	0.00194397	0.945908	0.95285 
392	20    	0.948407	0.00194397	0.945908	0.95285 
393	20    	0.948407	0.00194397	0.945908	0.95285 
394	20    	0.948407	0.00194397	0.945908	0.95285 
395	20    	0.948407	0.00194397	0.945908	0.95285 
396	20    	0.948546	0.00185775	0.945908	0.95285 
397	20    	0.948546	0.00185775	0.945908	0.95285 
398	20    	0.948546	0.00185775	0.945908	0.95285 
399	20    	0.948546	0.00185775	0.945908	0.95285 
400	20    	0.948546	0.00185775	0.945908	0.95285 
401	20    	0.948546	0.00185775	0.945908	0.95285 
402	20    	0.948546	0.00185775	0.945908	0.95285 
403	20    	0.948546	0.00185775	0.945908	0.95285 
404	20    	0.948546	0.00185775	0.945908	0.95285 
405	20    	0.948546	0.00185775	0.945908	0.95285 
406	20    	0.948546	0.00185775	0.945908	0.95285 
407	20    	0.948546	0.00185775	0.945908	0.95285 
408	20    	0.948546	0.00185775	0.945908	0.95285 
409	20    	0.948546	0.00185775	0.945908	0.95285 
410	20    	0.948546	0.00185775	0.945908	0.95285 
411	20    	0.948546	0.00185775	0.945908	0.95285 
412	20    	0.948546	0.00185775	0.945908	0.95285 
413	20    	0.948546	0.00185775	0.945908	0.95285 
414	20    	0.948546	0.00185775	0.945908	0.95285 
415	20    	0.948546	0.00185775	0.945908	0.95285 
416	20    	0.948546	0.00185775	0.945908	0.95285 
417	20    	0.948546	0.00185775	0.945908	0.95285 
418	20    	0.948546	0.00185775	0.945908	0.95285 
419	20    	0.948546	0.00185775	0.945908	0.95285 
420	20    	0.948546	0.00185775	0.945908	0.95285 
421	20    	0.948546	0.00185775	0.945908	0.95285 
422	20    	0.948546	0.00185775	0.945908	0.95285 
423	20    	0.948546	0.00185775	0.945908	0.95285 
424	20    	0.948546	0.00185775	0.945908	0.95285 
425	20    	0.948546	0.00185775	0.945908	0.95285 
426	20    	0.948546	0.00185775	0.945908	0.95285 
427	20    	0.948546	0.00185775	0.945908	0.95285 
428	20    	0.948546	0.00185775	0.945908	0.95285 
429	20    	0.948546	0.00185775	0.945908	0.95285 
430	20    	0.948546	0.00185775	0.945908	0.95285 
431	20    	0.948546	0.00185775	0.945908	0.95285 
432	20    	0.948546	0.00185775	0.945908	0.95285 
433	20    	0.948546	0.00185775	0.945908	0.95285 
434	20    	0.948546	0.00185775	0.945908	0.95285 
435	20    	0.948546	0.00185775	0.945908	0.95285 
436	20    	0.948546	0.00185775	0.945908	0.95285 
437	20    	0.948546	0.00185775	0.945908	0.95285 
438	20    	0.948546	0.00185775	0.945908	0.95285 
439	20    	0.948546	0.00185775	0.945908	0.95285 
440	20    	0.948546	0.00185775	0.945908	0.95285 
441	20    	0.948546	0.00185775	0.945908	0.95285 
442	20    	0.948546	0.00185775	0.945908	0.95285 
443	20    	0.948546	0.00185775	0.945908	0.95285 
444	20    	0.948546	0.00185775	0.945908	0.95285 
445	20    	0.948546	0.00185775	0.945908	0.95285 
446	20    	0.948546	0.00185775	0.945908	0.95285 
447	20    	0.948546	0.00185775	0.945908	0.95285 
448	20    	0.948546	0.00185775	0.945908	0.95285 
449	20    	0.948546	0.00185775	0.945908	0.95285 
450	20    	0.948546	0.00185775	0.945908	0.95285 
451	20    	0.948546	0.00185775	0.945908	0.95285 
452	20    	0.948546	0.00185775	0.945908	0.95285 
453	20    	0.948546	0.00185775	0.945908	0.95285 
454	20    	0.948546	0.00185775	0.945908	0.95285 
455	20    	0.948546	0.00185775	0.945908	0.95285 
456	20    	0.948546	0.00185775	0.945908	0.95285 
457	20    	0.948546	0.00185775	0.945908	0.95285 
458	20    	0.948546	0.00185775	0.945908	0.95285 
459	20    	0.948546	0.00185775	0.945908	0.95285 
460	20    	0.948546	0.00185775	0.945908	0.95285 
461	20    	0.948546	0.00185775	0.945908	0.95285 
462	20    	0.948546	0.00185775	0.945908	0.95285 
463	20    	0.948615	0.00178227	0.945908	0.95285 
464	20    	0.948615	0.00178227	0.945908	0.95285 
465	20    	0.948615	0.00178227	0.945908	0.95285 
466	20    	0.948615	0.00178227	0.945908	0.95285 
467	20    	0.948615	0.00178227	0.945908	0.95285 
468	20    	0.948615	0.00178227	0.945908	0.95285 
469	20    	0.948754	0.00167059	0.947296	0.95285 
470	20    	0.948824	0.00163708	0.947296	0.95285 
471	20    	0.948824	0.00163708	0.947296	0.95285 
472	20    	0.948824	0.00163708	0.947296	0.95285 
473	20    	0.948824	0.00163708	0.947296	0.95285 
474	20    	0.948824	0.00163708	0.947296	0.95285 
475	20    	0.948824	0.00163708	0.947296	0.95285 
476	20    	0.948824	0.00163708	0.947296	0.95285 
477	20    	0.949032	0.00169352	0.947296	0.95285 
478	20    	0.949032	0.00169352	0.947296	0.95285 
479	20    	0.949032	0.00169352	0.947296	0.95285 
480	20    	0.949032	0.00169352	0.947296	0.95285 
481	20    	0.949032	0.00169352	0.947296	0.95285 
482	20    	0.949032	0.00169352	0.947296	0.95285 
483	20    	0.949032	0.00169352	0.947296	0.95285 
484	20    	0.949032	0.00169352	0.947296	0.95285 
485	20    	0.949032	0.00169352	0.947296	0.95285 
486	20    	0.949032	0.00169352	0.947296	0.95285 
487	20    	0.949032	0.00169352	0.947296	0.95285 
488	20    	0.949032	0.00169352	0.947296	0.95285 
489	20    	0.949032	0.00169352	0.947296	0.95285 
490	20    	0.949032	0.00169352	0.947296	0.95285 
491	20    	0.949032	0.00169352	0.947296	0.95285 
492	20    	0.949032	0.00169352	0.947296	0.95285 
493	20    	0.949032	0.00169352	0.947296	0.95285 
494	20    	0.949032	0.00169352	0.947296	0.95285 
495	20    	0.949101	0.00164881	0.947296	0.95285 
496	20    	0.949101	0.00164881	0.947296	0.95285 
497	20    	0.949101	0.00164881	0.947296	0.95285 
498	20    	0.949101	0.00164881	0.947296	0.95285 
499	20    	0.949101	0.00164881	0.947296	0.95285 
