gen	nevals	avg     	std       	min     	max     
0  	20    	0.874529	0.0333673 	0.80188 	0.92453 
1  	20    	0.900944	0.0203415 	0.877365	0.962265
2  	20    	0.915564	0.0170018 	0.896225	0.962265
3  	20    	0.921697	0.0163689 	0.905655	0.962265
4  	20    	0.929717	0.0159191 	0.905655	0.962265
5  	20    	0.936792	0.0133745 	0.92453 	0.962265
6  	20    	0.940093	0.0134331 	0.92453 	0.962265
7  	20    	0.946225	0.012338  	0.93396 	0.971695
8  	20    	0.950942	0.0101629 	0.93396 	0.971695
9  	20    	0.954717	0.0087499 	0.94339 	0.971695
10 	20    	0.95802 	0.00868374	0.94339 	0.971695
11 	20    	0.961322	0.00783309	0.952835	0.971695
12 	20    	0.963208	0.00660095	0.952835	0.971695
13 	20    	0.965565	0.00449779	0.962265	0.971695
14 	20    	0.966508	0.00555886	0.962265	0.981125
15 	20    	0.96698 	0.00557882	0.962265	0.981125
16 	20    	0.96698 	0.00557882	0.962265	0.981125
17 	20    	0.967451	0.00555886	0.962265	0.981125
18 	20    	0.967451	0.00555886	0.962265	0.981125
19 	20    	0.967923	0.00549855	0.962265	0.981125
20 	20    	0.967923	0.00549855	0.962265	0.981125
21 	20    	0.970752	0.00507817	0.962265	0.981125
22 	20    	0.972638	0.00282898	0.971695	0.981125
23 	20    	0.973109	0.00336716	0.971695	0.981125
24 	20    	0.973109	0.00336716	0.971695	0.981125
25 	20    	0.974052	0.00408328	0.971695	0.981125
26 	20    	0.974052	0.00408328	0.971695	0.981125
27 	20    	0.974524	0.00432134	0.971695	0.981125
28 	20    	0.974524	0.00432134	0.971695	0.981125
29 	20    	0.974995	0.00449779	0.971695	0.981125
30 	20    	0.975467	0.0046197 	0.971695	0.981125
31 	20    	0.975938	0.00469133	0.971695	0.981125
32 	20    	0.976881	0.00469133	0.971695	0.981125
33 	20    	0.976881	0.00469133	0.971695	0.981125
34 	20    	0.977824	0.00449779	0.971695	0.981125
35 	20    	0.977824	0.00449779	0.971695	0.981125
36 	20    	0.979239	0.00377197	0.971695	0.981125
37 	20    	0.979239	0.00377197	0.971695	0.981125
38 	20    	0.97971 	0.00336716	0.971695	0.981125
39 	20    	0.981125	0         	0.981125	0.981125
40 	20    	0.981125	0         	0.981125	0.981125
41 	20    	0.981125	0         	0.981125	0.981125
42 	20    	0.981125	0         	0.981125	0.981125
43 	20    	0.981125	0         	0.981125	0.981125
44 	20    	0.981125	0         	0.981125	0.981125
45 	20    	0.981125	0         	0.981125	0.981125
46 	20    	0.981125	0         	0.981125	0.981125
47 	20    	0.981125	0         	0.981125	0.981125
48 	20    	0.981125	0         	0.981125	0.981125
49 	20    	0.981125	0         	0.981125	0.981125
50 	20    	0.981125	0         	0.981125	0.981125
51 	20    	0.981125	0         	0.981125	0.981125
52 	20    	0.981125	0         	0.981125	0.981125
53 	20    	0.981125	0         	0.981125	0.981125
54 	20    	0.981125	0         	0.981125	0.981125
55 	20    	0.981125	0         	0.981125	0.981125
56 	20    	0.981125	0         	0.981125	0.981125
57 	20    	0.981125	0         	0.981125	0.981125
58 	20    	0.981125	0         	0.981125	0.981125
59 	20    	0.981125	0         	0.981125	0.981125
60 	20    	0.981125	0         	0.981125	0.981125
61 	20    	0.981125	0         	0.981125	0.981125
62 	20    	0.981125	0         	0.981125	0.981125
63 	20    	0.981125	0         	0.981125	0.981125
64 	20    	0.981125	0         	0.981125	0.981125
65 	20    	0.981125	0         	0.981125	0.981125
66 	20    	0.981125	0         	0.981125	0.981125
67 	20    	0.981125	0         	0.981125	0.981125
68 	20    	0.981125	0         	0.981125	0.981125
69 	20    	0.981125	0         	0.981125	0.981125
70 	20    	0.981125	0         	0.981125	0.981125
71 	20    	0.981125	0         	0.981125	0.981125
72 	20    	0.981125	0         	0.981125	0.981125
73 	20    	0.981125	0         	0.981125	0.981125
74 	20    	0.981125	0         	0.981125	0.981125
75 	20    	0.981125	0         	0.981125	0.981125
76 	20    	0.981125	0         	0.981125	0.981125
77 	20    	0.981125	0         	0.981125	0.981125
78 	20    	0.981125	0         	0.981125	0.981125
79 	20    	0.981125	0         	0.981125	0.981125
80 	20    	0.981125	0         	0.981125	0.981125
81 	20    	0.981125	0         	0.981125	0.981125
82 	20    	0.981125	0         	0.981125	0.981125
83 	20    	0.981125	0         	0.981125	0.981125
84 	20    	0.981125	0         	0.981125	0.981125
85 	20    	0.981125	0         	0.981125	0.981125
86 	20    	0.981125	0         	0.981125	0.981125
87 	20    	0.981125	0         	0.981125	0.981125
88 	20    	0.981125	0         	0.981125	0.981125
89 	20    	0.981125	0         	0.981125	0.981125
90 	20    	0.981125	0         	0.981125	0.981125
91 	20    	0.981125	0         	0.981125	0.981125
92 	20    	0.981125	0         	0.981125	0.981125
93 	20    	0.981125	0         	0.981125	0.981125
94 	20    	0.981125	0         	0.981125	0.981125
95 	20    	0.981125	0         	0.981125	0.981125
96 	20    	0.981125	0         	0.981125	0.981125
97 	20    	0.981125	0         	0.981125	0.981125
98 	20    	0.981125	0         	0.981125	0.981125
99 	20    	0.981125	0         	0.981125	0.981125
100	20    	0.981125	0         	0.981125	0.981125
101	20    	0.981125	0         	0.981125	0.981125
102	20    	0.981125	0         	0.981125	0.981125
103	20    	0.981125	0         	0.981125	0.981125
104	20    	0.981125	0         	0.981125	0.981125
105	20    	0.981125	0         	0.981125	0.981125
106	20    	0.981125	0         	0.981125	0.981125
107	20    	0.981125	0         	0.981125	0.981125
108	20    	0.981125	0         	0.981125	0.981125
109	20    	0.981125	0         	0.981125	0.981125
110	20    	0.981125	0         	0.981125	0.981125
111	20    	0.981125	0         	0.981125	0.981125
112	20    	0.981125	0         	0.981125	0.981125
113	20    	0.981125	0         	0.981125	0.981125
114	20    	0.981125	0         	0.981125	0.981125
115	20    	0.981125	0         	0.981125	0.981125
116	20    	0.981125	0         	0.981125	0.981125
117	20    	0.981125	0         	0.981125	0.981125
118	20    	0.981125	0         	0.981125	0.981125
119	20    	0.981125	0         	0.981125	0.981125
120	20    	0.981125	0         	0.981125	0.981125
121	20    	0.981125	0         	0.981125	0.981125
122	20    	0.981125	0         	0.981125	0.981125
123	20    	0.981125	0         	0.981125	0.981125
124	20    	0.981125	0         	0.981125	0.981125
125	20    	0.981125	0         	0.981125	0.981125
126	20    	0.981125	0         	0.981125	0.981125
127	20    	0.981125	0         	0.981125	0.981125
128	20    	0.981125	0         	0.981125	0.981125
129	20    	0.981125	0         	0.981125	0.981125
130	20    	0.981125	0         	0.981125	0.981125
131	20    	0.981125	0         	0.981125	0.981125
132	20    	0.981125	0         	0.981125	0.981125
133	20    	0.981125	0         	0.981125	0.981125
134	20    	0.981125	0         	0.981125	0.981125
135	20    	0.981125	0         	0.981125	0.981125
136	20    	0.981125	0         	0.981125	0.981125
137	20    	0.981125	0         	0.981125	0.981125
138	20    	0.981125	0         	0.981125	0.981125
139	20    	0.981125	0         	0.981125	0.981125
140	20    	0.981125	0         	0.981125	0.981125
141	20    	0.981125	0         	0.981125	0.981125
142	20    	0.981125	0         	0.981125	0.981125
143	20    	0.981125	0         	0.981125	0.981125
144	20    	0.981125	0         	0.981125	0.981125
145	20    	0.981125	0         	0.981125	0.981125
146	20    	0.981125	0         	0.981125	0.981125
147	20    	0.981125	0         	0.981125	0.981125
148	20    	0.981125	0         	0.981125	0.981125
149	20    	0.981125	0         	0.981125	0.981125
150	20    	0.981125	0         	0.981125	0.981125
151	20    	0.981125	0         	0.981125	0.981125
152	20    	0.981125	0         	0.981125	0.981125
153	20    	0.981125	0         	0.981125	0.981125
154	20    	0.981125	0         	0.981125	0.981125
155	20    	0.981125	0         	0.981125	0.981125
156	20    	0.981125	0         	0.981125	0.981125
157	20    	0.981125	0         	0.981125	0.981125
158	20    	0.981125	0         	0.981125	0.981125
159	20    	0.981125	0         	0.981125	0.981125
160	20    	0.981125	0         	0.981125	0.981125
161	20    	0.981125	0         	0.981125	0.981125
162	20    	0.981125	0         	0.981125	0.981125
163	20    	0.981125	0         	0.981125	0.981125
164	20    	0.981125	0         	0.981125	0.981125
165	20    	0.981125	0         	0.981125	0.981125
166	20    	0.981125	0         	0.981125	0.981125
167	20    	0.981125	0         	0.981125	0.981125
168	20    	0.981125	0         	0.981125	0.981125
169	20    	0.981125	0         	0.981125	0.981125
170	20    	0.981125	0         	0.981125	0.981125
171	20    	0.981125	0         	0.981125	0.981125
172	20    	0.981125	0         	0.981125	0.981125
173	20    	0.981125	0         	0.981125	0.981125
174	20    	0.981125	0         	0.981125	0.981125
175	20    	0.981125	0         	0.981125	0.981125
176	20    	0.981125	0         	0.981125	0.981125
177	20    	0.981125	0         	0.981125	0.981125
178	20    	0.981125	0         	0.981125	0.981125
179	20    	0.981125	0         	0.981125	0.981125
180	20    	0.981125	0         	0.981125	0.981125
181	20    	0.981125	0         	0.981125	0.981125
182	20    	0.981125	0         	0.981125	0.981125
183	20    	0.981125	0         	0.981125	0.981125
184	20    	0.981125	0         	0.981125	0.981125
185	20    	0.981125	0         	0.981125	0.981125
186	20    	0.981125	0         	0.981125	0.981125
187	20    	0.981125	0         	0.981125	0.981125
188	20    	0.981125	0         	0.981125	0.981125
189	20    	0.981125	0         	0.981125	0.981125
190	20    	0.981125	0         	0.981125	0.981125
191	20    	0.981125	0         	0.981125	0.981125
192	20    	0.981125	0         	0.981125	0.981125
193	20    	0.981125	0         	0.981125	0.981125
194	20    	0.981125	0         	0.981125	0.981125
195	20    	0.981125	0         	0.981125	0.981125
196	20    	0.981125	0         	0.981125	0.981125
197	20    	0.981125	0         	0.981125	0.981125
198	20    	0.981125	0         	0.981125	0.981125
199	20    	0.981125	0         	0.981125	0.981125
200	20    	0.981125	0         	0.981125	0.981125
201	20    	0.981125	0         	0.981125	0.981125
202	20    	0.981125	0         	0.981125	0.981125
203	20    	0.981125	0         	0.981125	0.981125
204	20    	0.981125	0         	0.981125	0.981125
205	20    	0.981125	0         	0.981125	0.981125
206	20    	0.981125	0         	0.981125	0.981125
207	20    	0.981125	0         	0.981125	0.981125
208	20    	0.981125	0         	0.981125	0.981125
209	20    	0.981125	0         	0.981125	0.981125
210	20    	0.981125	0         	0.981125	0.981125
211	20    	0.981125	0         	0.981125	0.981125
212	20    	0.981125	0         	0.981125	0.981125
213	20    	0.981125	0         	0.981125	0.981125
214	20    	0.981125	0         	0.981125	0.981125
215	20    	0.981125	0         	0.981125	0.981125
216	20    	0.981125	0         	0.981125	0.981125
217	20    	0.981125	0         	0.981125	0.981125
218	20    	0.981125	0         	0.981125	0.981125
219	20    	0.981125	0         	0.981125	0.981125
220	20    	0.981125	0         	0.981125	0.981125
221	20    	0.981125	0         	0.981125	0.981125
222	20    	0.981125	0         	0.981125	0.981125
223	20    	0.981125	0         	0.981125	0.981125
224	20    	0.981125	0         	0.981125	0.981125
225	20    	0.981125	0         	0.981125	0.981125
226	20    	0.981125	0         	0.981125	0.981125
227	20    	0.981125	0         	0.981125	0.981125
228	20    	0.981125	0         	0.981125	0.981125
229	20    	0.981125	0         	0.981125	0.981125
230	20    	0.981125	0         	0.981125	0.981125
231	20    	0.981125	0         	0.981125	0.981125
232	20    	0.981125	0         	0.981125	0.981125
233	20    	0.981125	0         	0.981125	0.981125
234	20    	0.981125	0         	0.981125	0.981125
235	20    	0.981125	0         	0.981125	0.981125
236	20    	0.981125	0         	0.981125	0.981125
237	20    	0.981125	0         	0.981125	0.981125
238	20    	0.981125	0         	0.981125	0.981125
239	20    	0.981125	0         	0.981125	0.981125
240	20    	0.981125	0         	0.981125	0.981125
241	20    	0.981125	0         	0.981125	0.981125
242	20    	0.981125	0         	0.981125	0.981125
243	20    	0.981125	0         	0.981125	0.981125
244	20    	0.981125	0         	0.981125	0.981125
245	20    	0.981125	0         	0.981125	0.981125
246	20    	0.981125	0         	0.981125	0.981125
247	20    	0.981125	0         	0.981125	0.981125
248	20    	0.981125	0         	0.981125	0.981125
249	20    	0.981125	0         	0.981125	0.981125
250	20    	0.981125	0         	0.981125	0.981125
251	20    	0.981125	0         	0.981125	0.981125
252	20    	0.981125	0         	0.981125	0.981125
253	20    	0.981125	0         	0.981125	0.981125
254	20    	0.981125	0         	0.981125	0.981125
255	20    	0.981125	0         	0.981125	0.981125
256	20    	0.981125	0         	0.981125	0.981125
257	20    	0.981125	0         	0.981125	0.981125
258	20    	0.981125	0         	0.981125	0.981125
259	20    	0.981125	0         	0.981125	0.981125
260	20    	0.981125	0         	0.981125	0.981125
261	20    	0.981125	0         	0.981125	0.981125
262	20    	0.981125	0         	0.981125	0.981125
263	20    	0.981125	0         	0.981125	0.981125
264	20    	0.981125	0         	0.981125	0.981125
265	20    	0.981125	0         	0.981125	0.981125
266	20    	0.981125	0         	0.981125	0.981125
267	20    	0.981125	0         	0.981125	0.981125
268	20    	0.981125	0         	0.981125	0.981125
269	20    	0.981125	0         	0.981125	0.981125
270	20    	0.981125	0         	0.981125	0.981125
271	20    	0.981125	0         	0.981125	0.981125
272	20    	0.981125	0         	0.981125	0.981125
273	20    	0.981125	0         	0.981125	0.981125
274	20    	0.981125	0         	0.981125	0.981125
275	20    	0.981125	0         	0.981125	0.981125
276	20    	0.981125	0         	0.981125	0.981125
277	20    	0.981125	0         	0.981125	0.981125
278	20    	0.981125	0         	0.981125	0.981125
279	20    	0.981125	0         	0.981125	0.981125
280	20    	0.981125	0         	0.981125	0.981125
281	20    	0.981125	0         	0.981125	0.981125
282	20    	0.981125	0         	0.981125	0.981125
283	20    	0.981125	0         	0.981125	0.981125
284	20    	0.981125	0         	0.981125	0.981125
285	20    	0.981125	0         	0.981125	0.981125
286	20    	0.981125	0         	0.981125	0.981125
287	20    	0.981125	0         	0.981125	0.981125
288	20    	0.981125	0         	0.981125	0.981125
289	20    	0.981125	0         	0.981125	0.981125
290	20    	0.981125	0         	0.981125	0.981125
291	20    	0.981125	0         	0.981125	0.981125
292	20    	0.981125	0         	0.981125	0.981125
293	20    	0.981125	0         	0.981125	0.981125
294	20    	0.981125	0         	0.981125	0.981125
295	20    	0.981125	0         	0.981125	0.981125
296	20    	0.981125	0         	0.981125	0.981125
297	20    	0.981125	0         	0.981125	0.981125
298	20    	0.981125	0         	0.981125	0.981125
299	20    	0.981125	0         	0.981125	0.981125
300	20    	0.981125	0         	0.981125	0.981125
301	20    	0.981125	0         	0.981125	0.981125
302	20    	0.981125	0         	0.981125	0.981125
303	20    	0.981125	0         	0.981125	0.981125
304	20    	0.981125	0         	0.981125	0.981125
305	20    	0.981125	0         	0.981125	0.981125
306	20    	0.981125	0         	0.981125	0.981125
307	20    	0.981125	0         	0.981125	0.981125
308	20    	0.981125	0         	0.981125	0.981125
309	20    	0.981125	0         	0.981125	0.981125
310	20    	0.981125	0         	0.981125	0.981125
311	20    	0.981125	0         	0.981125	0.981125
312	20    	0.981125	0         	0.981125	0.981125
313	20    	0.981125	0         	0.981125	0.981125
314	20    	0.981125	0         	0.981125	0.981125
315	20    	0.981125	0         	0.981125	0.981125
316	20    	0.981125	0         	0.981125	0.981125
317	20    	0.981125	0         	0.981125	0.981125
318	20    	0.981125	0         	0.981125	0.981125
319	20    	0.981125	0         	0.981125	0.981125
320	20    	0.981125	0         	0.981125	0.981125
321	20    	0.981125	0         	0.981125	0.981125
322	20    	0.981125	0         	0.981125	0.981125
323	20    	0.981125	0         	0.981125	0.981125
324	20    	0.981125	0         	0.981125	0.981125
325	20    	0.981125	0         	0.981125	0.981125
326	20    	0.981125	0         	0.981125	0.981125
327	20    	0.981125	0         	0.981125	0.981125
328	20    	0.981125	0         	0.981125	0.981125
329	20    	0.981125	0         	0.981125	0.981125
330	20    	0.981125	0         	0.981125	0.981125
331	20    	0.981125	0         	0.981125	0.981125
332	20    	0.981125	0         	0.981125	0.981125
333	20    	0.981125	0         	0.981125	0.981125
334	20    	0.981125	0         	0.981125	0.981125
335	20    	0.981125	0         	0.981125	0.981125
336	20    	0.981125	0         	0.981125	0.981125
337	20    	0.981125	0         	0.981125	0.981125
338	20    	0.981125	0         	0.981125	0.981125
339	20    	0.981125	0         	0.981125	0.981125
340	20    	0.981125	0         	0.981125	0.981125
341	20    	0.981125	0         	0.981125	0.981125
342	20    	0.981125	0         	0.981125	0.981125
343	20    	0.981125	0         	0.981125	0.981125
344	20    	0.981125	0         	0.981125	0.981125
345	20    	0.981125	0         	0.981125	0.981125
346	20    	0.981125	0         	0.981125	0.981125
347	20    	0.981125	0         	0.981125	0.981125
348	20    	0.981125	0         	0.981125	0.981125
349	20    	0.981125	0         	0.981125	0.981125
350	20    	0.981125	0         	0.981125	0.981125
351	20    	0.981125	0         	0.981125	0.981125
352	20    	0.981125	0         	0.981125	0.981125
353	20    	0.981125	0         	0.981125	0.981125
354	20    	0.981125	0         	0.981125	0.981125
355	20    	0.981125	0         	0.981125	0.981125
356	20    	0.981125	0         	0.981125	0.981125
357	20    	0.981125	0         	0.981125	0.981125
358	20    	0.981125	0         	0.981125	0.981125
359	20    	0.981125	0         	0.981125	0.981125
360	20    	0.981125	0         	0.981125	0.981125
361	20    	0.981125	0         	0.981125	0.981125
362	20    	0.981125	0         	0.981125	0.981125
363	20    	0.981125	0         	0.981125	0.981125
364	20    	0.981125	0         	0.981125	0.981125
365	20    	0.981125	0         	0.981125	0.981125
366	20    	0.981125	0         	0.981125	0.981125
367	20    	0.981125	0         	0.981125	0.981125
368	20    	0.981125	0         	0.981125	0.981125
369	20    	0.981125	0         	0.981125	0.981125
370	20    	0.981125	0         	0.981125	0.981125
371	20    	0.981125	0         	0.981125	0.981125
372	20    	0.981125	0         	0.981125	0.981125
373	20    	0.981125	0         	0.981125	0.981125
374	20    	0.981125	0         	0.981125	0.981125
375	20    	0.981125	0         	0.981125	0.981125
376	20    	0.981125	0         	0.981125	0.981125
377	20    	0.981125	0         	0.981125	0.981125
378	20    	0.981125	0         	0.981125	0.981125
379	20    	0.981125	0         	0.981125	0.981125
380	20    	0.981125	0         	0.981125	0.981125
381	20    	0.981125	0         	0.981125	0.981125
382	20    	0.981125	0         	0.981125	0.981125
383	20    	0.981125	0         	0.981125	0.981125
384	20    	0.981125	0         	0.981125	0.981125
385	20    	0.981125	0         	0.981125	0.981125
386	20    	0.981125	0         	0.981125	0.981125
387	20    	0.981125	0         	0.981125	0.981125
388	20    	0.981125	0         	0.981125	0.981125
389	20    	0.981125	0         	0.981125	0.981125
390	20    	0.981125	0         	0.981125	0.981125
391	20    	0.981125	0         	0.981125	0.981125
392	20    	0.981125	0         	0.981125	0.981125
393	20    	0.981125	0         	0.981125	0.981125
394	20    	0.981125	0         	0.981125	0.981125
395	20    	0.981125	0         	0.981125	0.981125
396	20    	0.981125	0         	0.981125	0.981125
397	20    	0.981125	0         	0.981125	0.981125
398	20    	0.981125	0         	0.981125	0.981125
399	20    	0.981125	0         	0.981125	0.981125
400	20    	0.981125	0         	0.981125	0.981125
401	20    	0.981125	0         	0.981125	0.981125
402	20    	0.981125	0         	0.981125	0.981125
403	20    	0.981125	0         	0.981125	0.981125
404	20    	0.981125	0         	0.981125	0.981125
405	20    	0.981125	0         	0.981125	0.981125
406	20    	0.981125	0         	0.981125	0.981125
407	20    	0.981125	0         	0.981125	0.981125
408	20    	0.981125	0         	0.981125	0.981125
409	20    	0.981125	0         	0.981125	0.981125
410	20    	0.981125	0         	0.981125	0.981125
411	20    	0.981125	0         	0.981125	0.981125
412	20    	0.981125	0         	0.981125	0.981125
413	20    	0.981125	0         	0.981125	0.981125
414	20    	0.981125	0         	0.981125	0.981125
415	20    	0.981125	0         	0.981125	0.981125
416	20    	0.981125	0         	0.981125	0.981125
417	20    	0.981125	0         	0.981125	0.981125
418	20    	0.981125	0         	0.981125	0.981125
419	20    	0.981125	0         	0.981125	0.981125
420	20    	0.981125	0         	0.981125	0.981125
421	20    	0.981125	0         	0.981125	0.981125
422	20    	0.981125	0         	0.981125	0.981125
423	20    	0.981125	0         	0.981125	0.981125
424	20    	0.981125	0         	0.981125	0.981125
425	20    	0.981125	0         	0.981125	0.981125
426	20    	0.981125	0         	0.981125	0.981125
427	20    	0.981125	0         	0.981125	0.981125
428	20    	0.981125	0         	0.981125	0.981125
429	20    	0.981125	0         	0.981125	0.981125
430	20    	0.981125	0         	0.981125	0.981125
431	20    	0.981125	0         	0.981125	0.981125
432	20    	0.981125	0         	0.981125	0.981125
433	20    	0.981125	0         	0.981125	0.981125
434	20    	0.981125	0         	0.981125	0.981125
435	20    	0.981125	0         	0.981125	0.981125
436	20    	0.981125	0         	0.981125	0.981125
437	20    	0.981125	0         	0.981125	0.981125
438	20    	0.981125	0         	0.981125	0.981125
439	20    	0.981125	0         	0.981125	0.981125
440	20    	0.981125	0         	0.981125	0.981125
441	20    	0.981125	0         	0.981125	0.981125
442	20    	0.981125	0         	0.981125	0.981125
443	20    	0.981125	0         	0.981125	0.981125
444	20    	0.981125	0         	0.981125	0.981125
445	20    	0.981125	0         	0.981125	0.981125
446	20    	0.981125	0         	0.981125	0.981125
447	20    	0.981125	0         	0.981125	0.981125
448	20    	0.981125	0         	0.981125	0.981125
449	20    	0.981125	0         	0.981125	0.981125
450	20    	0.981125	0         	0.981125	0.981125
451	20    	0.981125	0         	0.981125	0.981125
452	20    	0.981125	0         	0.981125	0.981125
453	20    	0.981125	0         	0.981125	0.981125
454	20    	0.981125	0         	0.981125	0.981125
455	20    	0.981125	0         	0.981125	0.981125
456	20    	0.981125	0         	0.981125	0.981125
457	20    	0.981125	0         	0.981125	0.981125
458	20    	0.981125	0         	0.981125	0.981125
459	20    	0.981125	0         	0.981125	0.981125
460	20    	0.981125	0         	0.981125	0.981125
461	20    	0.981125	0         	0.981125	0.981125
462	20    	0.981125	0         	0.981125	0.981125
463	20    	0.981125	0         	0.981125	0.981125
464	20    	0.981125	0         	0.981125	0.981125
465	20    	0.981125	0         	0.981125	0.981125
466	20    	0.981125	0         	0.981125	0.981125
467	20    	0.981125	0         	0.981125	0.981125
468	20    	0.981125	0         	0.981125	0.981125
469	20    	0.981125	0         	0.981125	0.981125
470	20    	0.981125	0         	0.981125	0.981125
471	20    	0.981125	0         	0.981125	0.981125
472	20    	0.981125	0         	0.981125	0.981125
473	20    	0.981125	0         	0.981125	0.981125
474	20    	0.981125	0         	0.981125	0.981125
475	20    	0.981125	0         	0.981125	0.981125
476	20    	0.981125	0         	0.981125	0.981125
477	20    	0.981125	0         	0.981125	0.981125
478	20    	0.981125	0         	0.981125	0.981125
479	20    	0.981125	0         	0.981125	0.981125
480	20    	0.981125	0         	0.981125	0.981125
481	20    	0.981125	0         	0.981125	0.981125
482	20    	0.981125	0         	0.981125	0.981125
483	20    	0.981125	0         	0.981125	0.981125
484	20    	0.981125	0         	0.981125	0.981125
485	20    	0.981125	0         	0.981125	0.981125
486	20    	0.981125	0         	0.981125	0.981125
487	20    	0.981125	0         	0.981125	0.981125
488	20    	0.981125	0         	0.981125	0.981125
489	20    	0.981125	0         	0.981125	0.981125
490	20    	0.981125	0         	0.981125	0.981125
491	20    	0.981125	0         	0.981125	0.981125
492	20    	0.981125	0         	0.981125	0.981125
493	20    	0.981125	0         	0.981125	0.981125
494	20    	0.981125	0         	0.981125	0.981125
495	20    	0.981125	0         	0.981125	0.981125
496	20    	0.981125	0         	0.981125	0.981125
497	20    	0.981125	0         	0.981125	0.981125
498	20    	0.981125	0         	0.981125	0.981125
499	20    	0.981125	0         	0.981125	0.981125
