Run:199 Evals:10000 MES:10000.0 MAD:0.0 FAILURES:180 Best:0.9171600341796875 Solution:(
Run:200 Evals:10000 MES:10000.0 MAD:0.0 FAILURES:181 Best:0.9853515625 Solution:(
Run:201 Evals:10000 MES:10000.0 MAD:0.0 FAILURES:182 Best:0.981689453125 Solution:(
Run:202 Evals:10000 MES:10000.0 MAD:0.0 FAILURES:183 Best:0.981689453125 Solution:(
Run:203 Evals:10000 MES:10000.0 MAD:0.0 FAILURES:184 Best:0.989013671875 Solution:(
Run:204 Evals:10000 MES:10000.0 MAD:0.0 FAILURES:185 Best:0.9853515625 Solution:(
Run:205 Evals:10000 MES:10000.0 MAD:0.0 FAILURES:186 Best:0.981689453125 Solution:(
Run:206 Evals:10000 MES:10000.0 MAD:0.0 FAILURES:187 Best:0.99267578125 Solution:(
Run:207 Evals:10000 MES:10000.0 MAD:0.0 FAILURES:188 Best:0.9853515625 Solution:(
Run:208 Evals:10000 MES:10000.0 MAD:0.0 FAILURES:189 Best:0.989013671875 Solution:(

