Run:200 Evals:10001 MES:10001.0 MAD:0.0 FAILURES:188 Best:0.9454498291015625 Solution:1.0
Run:201 Evals:10001 MES:10001.0 MAD:0.0 FAILURES:189 Best:0.9444427490234375 Solution:1.0
Run:202 Evals:10001 MES:10001.0 MAD:0.0 FAILURES:190 Best:0.888885498046875 Solution:1.0
Run:203 Evals:10001 MES:10001.0 MAD:0.0 FAILURES:191 Best:0.9622650146484375 Solution:1.0
Run:204 Evals:10001 MES:10001.0 MAD:0.0 FAILURES:192 Best:0.9056549072265625 Solution:1.0
Run:205 Evals:10001 MES:10001.0 MAD:0.0 FAILURES:193 Best:0.9056549072265625 Solution:1.0
Run:206 Evals:10001 MES:10001.0 MAD:0.0 FAILURES:194 Best:0.9056549072265625 Solution:1.0
Run:207 Evals:10001 MES:10001.0 MAD:0.0 FAILURES:195 Best:0.9444427490234375 Solution:1.0
Run:208 Evals:10001 MES:10001.0 MAD:0.0 FAILURES:196 Best:0.9259185791015625 Solution:1.0
Run:209 Evals:10001 MES:10001.0 MAD:0.0 FAILURES:197 Best:0.9056549072265625 Solution:1.0

