Run:10 Evals:10001 MES:10001.0 MAD:0.0 FAILURES:11 Best:0.8620758056640625 Solution:1.0
Run:11 Evals:10001 MES:10001.0 MAD:0.0 FAILURES:12 Best:0.8243865966796875 Solution:1.0
Run:12 Evals:10001 MES:10001.0 MAD:0.0 FAILURES:13 Best:0.871917724609375 Solution:1.0
Run:13 Evals:10001 MES:10001.0 MAD:0.0 FAILURES:14 Best:0.83575439453125 Solution:1.0
Run:14 Evals:10001 MES:10001.0 MAD:0.0 FAILURES:15 Best:0.8423614501953125 Solution:1.0
Run:15 Evals:10001 MES:10001.0 MAD:0.0 FAILURES:16 Best:0.8607025146484375 Solution:1.0
Run:16 Evals:10001 MES:10001.0 MAD:0.0 FAILURES:17 Best:0.8522186279296875 Solution:1.0
Run:17 Evals:10001 MES:10001.0 MAD:0.0 FAILURES:18 Best:0.843902587890625 Solution:1.0
Run:18 Evals:10001 MES:10001.0 MAD:0.0 FAILURES:19 Best:0.86602783203125 Solution:1.0
Run:19 Evals:10001 MES:10001.0 MAD:0.0 FAILURES:20 Best:0.8607025146484375 Solution:1.0

