Run:120 Evals:10001 MES:10001.0 MAD:0.0 FAILURES:109 Best:1.0 Solution:1.0
Run:121 Evals:10001 MES:10001.0 MAD:0.0 FAILURES:110 Best:0.875 Solution:1.0
Run:122 Evals:10001 MES:10001.0 MAD:0.0 FAILURES:111 Best:0.967742919921875 Solution:1.0
Run:123 Evals:10001 MES:10001.0 MAD:0.0 FAILURES:112 Best:0.9666595458984375 Solution:1.0
Run:124 Evals:10001 MES:10001.0 MAD:0.0 FAILURES:113 Best:0.967742919921875 Solution:1.0
Run:125 Evals:10001 MES:10001.0 MAD:0.0 FAILURES:113 Best:1.0 Solution:1.0
Run:126 Evals:10001 MES:10001.0 MAD:0.0 FAILURES:114 Best:0.9666595458984375 Solution:1.0
Run:127 Evals:10001 MES:10001.0 MAD:0.0 FAILURES:115 Best:0.93548583984375 Solution:1.0
Run:128 Evals:10001 MES:10001.0 MAD:0.0 FAILURES:116 Best:0.967742919921875 Solution:1.0
Run:129 Evals:10001 MES:10001.0 MAD:0.0 FAILURES:117 Best:0.903228759765625 Solution:1.0

