gen	nevals	avg     	std       	min     	max     
0  	2     	0.731351	0.0253599 	0.705991	0.756711
1  	2     	0.754412	0.00229821	0.752114	0.756711
2  	2     	0.754412	0.00229821	0.752114	0.756711
3  	2     	0.754412	0.00229821	0.752114	0.756711
4  	2     	0.754412	0.00229821	0.752114	0.756711
5  	2     	0.754412	0.00229821	0.752114	0.756711
6  	2     	0.754412	0.00229821	0.752114	0.756711
7  	2     	0.754412	0.00229821	0.752114	0.756711
8  	2     	0.754412	0.00229821	0.752114	0.756711
9  	2     	0.754412	0.00229821	0.752114	0.756711
10 	2     	0.756711	0         	0.756711	0.756711
11 	2     	0.756711	0         	0.756711	0.756711
12 	2     	0.756711	0         	0.756711	0.756711
13 	2     	0.756711	0         	0.756711	0.756711