gen	nevals	avg     	std       	min     	max     
0  	2     	0.738784	0.00224445	0.736539	0.741028
1  	2     	0.738784	0.00224445	0.736539	0.741028
2  	2     	0.738784	0.00224445	0.736539	0.741028
3  	2     	0.741028	0         	0.741028	0.741028