gen	nevals	avg     	std       	min     	max     
0  	2     	0.817203	0.00356512	0.813638	0.820768
1  	2     	0.823547	0.00277943	0.820768	0.826327
2  	2     	0.823547	0.00277943	0.820768	0.826327
3  	2     	0.823547	0.00277943	0.820768	0.826327
4  	2     	0.823547	0.00277943	0.820768	0.826327
5  	2     	0.823547	0.00277943	0.820768	0.826327
6  	2     	0.823547	0.00277943	0.820768	0.826327
7  	2     	0.826327	0         	0.826327	0.826327
8  	2     	0.826327	0         	0.826327	0.826327
9  	2     	0.826327	0         	0.826327	0.826327
10 	2     	0.826327	0         	0.826327	0.826327
11 	2     	0.826327	0         	0.826327	0.826327
12 	2     	0.826327	0         	0.826327	0.826327
13 	2     	0.826327	0         	0.826327	0.826327
14 	2     	0.826327	0         	0.826327	0.826327