gen	nevals	avg     	std     	min     	max     
0  	2     	0.669123	0.014879	0.654244	0.684002
1  	2     	0.669123	0.014879	0.654244	0.684002
2  	2     	0.669123	0.014879	0.654244	0.684002
3  	2     	0.684002	0       	0.684002	0.684002
4  	2     	0.684002	0       	0.684002	0.684002
5  	2     	0.684002	0       	0.684002	0.684002