gen	nevals	avg     	std       	min     	max     
0  	2     	0.876995	0.0118358 	0.865159	0.888831
1  	2     	0.876995	0.0118358 	0.865159	0.888831
2  	2     	0.876995	0.0118358 	0.865159	0.888831
3  	2     	0.878573	0.0102583 	0.868314	0.888831
4  	2     	0.882382	0.00644921	0.875933	0.888831
5  	2     	0.882382	0.00644921	0.875933	0.888831
6  	2     	0.882382	0.00644921	0.875933	0.888831
7  	2     	0.888831	0         	0.888831	0.888831