gen	nevals	avg     	std      	min     	max     
0  	2     	0.864162	0.0122799	0.851882	0.876442
1  	2     	0.864162	0.0122799	0.851882	0.876442
2  	2     	0.876442	0        	0.876442	0.876442
3  	2     	0.876442	0        	0.876442	0.876442