gen	nevals	avg     	std      	min     	max     
0  	2     	0.855445	0.0162758	0.839169	0.871721
1  	2     	0.871721	0        	0.871721	0.871721
2  	2     	0.871721	0        	0.871721	0.871721
3  	2     	0.871721	0        	0.871721	0.871721