gen	nevals	avg     	std       	min     	max     
0  	2     	0.712608	0.00963437	0.702973	0.722242
1  	2     	0.712608	0.00963437	0.702973	0.722242
2  	2     	0.722242	0         	0.722242	0.722242
3  	2     	0.722242	0         	0.722242	0.722242