gen	nevals	avg     	std       	min     	max     
0  	2     	0.910773	0.00751783	0.903255	0.918291
1  	2     	0.914717	0.00357389	0.911143	0.918291
2  	2     	0.914717	0.00357389	0.911143	0.918291
3  	2     	0.917002	0.0012893 	0.915712	0.918291
4  	2     	0.917831	0.00045962	0.917372	0.918291
5  	2     	0.918291	0         	0.918291	0.918291
6  	2     	0.918291	0         	0.918291	0.918291
7  	2     	0.918291	0         	0.918291	0.918291
8  	2     	0.918291	0         	0.918291	0.918291