gen	nevals	avg     	std       	min     	max     
0  	2     	0.71191 	0.00114255	0.710768	0.713053
1  	2     	0.713053	0         	0.713053	0.713053
2  	2     	0.713053	0         	0.713053	0.713053
3  	2     	0.716387	0.00333455	0.713053	0.719722
4  	2     	0.719722	0         	0.719722	0.719722
5  	2     	0.719722	0         	0.719722	0.719722