gen	nevals	avg     	std       	min     	max     
0  	2     	0.783166	0.00727985	0.775886	0.790446
1  	2     	0.783166	0.00727985	0.775886	0.790446
2  	2     	0.79831 	0.00786446	0.790446	0.806175
3  	2     	0.79831 	0.00786446	0.790446	0.806175
4  	2     	0.806175	0         	0.806175	0.806175
5  	2     	0.806175	0         	0.806175	0.806175
6  	2     	0.809762	0.00358657	0.806175	0.813348
7  	2     	0.809762	0.00358657	0.806175	0.813348
8  	2     	0.811256	0.00209255	0.809163	0.813348
9  	2     	0.813348	0         	0.813348	0.813348