gen	nevals	avg     	std      	min     	max     
0  	2     	0.66645 	0.0504754	0.615975	0.716925
1  	2     	0.716925	0        	0.716925	0.716925
2  	2     	0.716925	0        	0.716925	0.716925
3  	2     	0.716925	0        	0.716925	0.716925