gen	nevals	avg     	std       	min     	max   
0  	2     	0.893196	0.0203043 	0.872891	0.9135
1  	2     	0.911697	0.00180332	0.909893	0.9135
2  	2     	0.911697	0.00180332	0.909893	0.9135
3  	2     	0.9135  	0         	0.9135  	0.9135
4  	2     	0.9135  	0         	0.9135  	0.9135