gen	nevals	avg     	std       	min     	max     
0  	2     	0.722997	0.00502067	0.717976	0.728017
1  	2     	0.723518	0.00449915	0.719019	0.728017
2  	2     	0.731304	0.00328641	0.728017	0.73459 
3  	2     	0.73459 	0         	0.73459 	0.73459 