gen	nevals	avg     	std      	min     	max    
0  	2     	0.708111	0.0125688	0.695542	0.72068
1  	2     	0.72068 	0        	0.72068 	0.72068
2  	2     	0.72068 	0        	0.72068 	0.72068
3  	2     	0.72068 	0        	0.72068 	0.72068