gen	nevals	avg     	std       	min     	max     
0  	2     	0.886342	0.0205624 	0.86578 	0.906905
1  	2     	0.886342	0.0205624 	0.86578 	0.906905
2  	2     	0.901812	0.00509274	0.896719	0.906905
3  	2     	0.906905	0         	0.906905	0.906905