gen	nevals	avg     	std       	min     	max     
0  	2     	0.88857 	0.00948429	0.879086	0.898055
1  	2     	0.895835	0.00221944	0.893616	0.898055
2  	2     	0.898055	0         	0.898055	0.898055
3  	2     	0.898055	0         	0.898055	0.898055