gen	nevals	avg     	std        	min     	max     
0  	2     	0.893009	0.00154968 	0.891459	0.894558
1  	2     	0.893009	0.00154968 	0.891459	0.894558
2  	2     	0.894922	0.000364052	0.894558	0.895286
3  	2     	0.894922	0.000364052	0.894558	0.895286
4  	2     	0.895286	0          	0.895286	0.895286