gen	nevals	avg     	std       	min     	max     
0  	2     	0.862714	0.00381235	0.858901	0.866526
1  	2     	0.866526	0         	0.866526	0.866526
2  	2     	0.866526	0         	0.866526	0.866526
3  	2     	0.866526	0         	0.866526	0.866526