gen	nevals	avg     	std      	min     	max     
0  	2     	0.648174	0.0159538	0.63222 	0.664127
1  	2     	0.67957 	0.0154424	0.664127	0.695012
2  	2     	0.67957 	0.0154424	0.664127	0.695012
3  	2     	0.67957 	0.0154424	0.664127	0.695012
4  	2     	0.695012	0        	0.695012	0.695012