gen	nevals	avg     	std       	min     	max     
0  	2     	0.910117	0.00924418	0.900873	0.919361
1  	2     	0.919361	0         	0.919361	0.919361
2  	2     	0.920664	0.00130335	0.919361	0.921968
3  	2     	0.920868	0.00109945	0.919769	0.921968
4  	2     	0.920868	0.00109945	0.919769	0.921968
5  	2     	0.921968	0         	0.921968	0.921968