gen	nevals	avg     	std       	min     	max     
0  	2     	0.762421	0.0168521 	0.745569	0.779273
1  	2     	0.774912	0.00436116	0.770551	0.779273
2  	2     	0.774912	0.00436116	0.770551	0.779273
3  	2     	0.774912	0.00436116	0.770551	0.779273
4  	2     	0.779273	0         	0.779273	0.779273
5  	2     	0.779273	0         	0.779273	0.779273
6  	2     	0.779273	0         	0.779273	0.779273
7  	2     	0.779273	0         	0.779273	0.779273