gen	nevals	avg     	std        	min     	max     
0  	2     	0.891193	0.0133692  	0.877824	0.904562
1  	2     	0.895471	0.00909135 	0.886379	0.904562
2  	2     	0.895471	0.00909135 	0.886379	0.904562
3  	2     	0.907109	0.00254732 	0.904562	0.909657
4  	2     	0.908552	0.00110462 	0.907448	0.909657
5  	2     	0.908552	0.00110462 	0.907448	0.909657
6  	2     	0.908552	0.00110462 	0.907448	0.909657
7  	2     	0.908552	0.00110462 	0.907448	0.909657
8  	2     	0.908552	0.00110462 	0.907448	0.909657
9  	2     	0.908552	0.00110462 	0.907448	0.909657
10 	2     	0.908693	0.000964031	0.907729	0.909657
11 	2     	0.908693	0.000964031	0.907729	0.909657
12 	2     	0.909657	0          	0.909657	0.909657
13 	2     	0.909657	0          	0.909657	0.909657
14 	2     	0.909657	0          	0.909657	0.909657