gen	nevals	avg     	std       	min     	max     
0  	2     	0.720697	0.00772175	0.712975	0.728419
1  	2     	0.720697	0.00772175	0.712975	0.728419
2  	2     	0.726408	0.00201035	0.724398	0.728419
3  	2     	0.728419	0         	0.728419	0.728419