gen	nevals	avg     	std        	min     	max    
0  	2     	0.911306	0.00718314 	0.904123	0.91849
1  	2     	0.917257	0.00123258 	0.916024	0.91849
2  	2     	0.917257	0.00123258 	0.916024	0.91849
3  	2     	0.917257	0.00123258 	0.916024	0.91849
4  	2     	0.9176  	0.000889183	0.916711	0.91849
5  	2     	0.9176  	0.000889183	0.916711	0.91849
6  	2     	0.917632	0.000857664	0.916774	0.91849
7  	2     	0.917632	0.000857664	0.916774	0.91849
8  	2     	0.917632	0.000857664	0.916774	0.91849
9  	2     	0.91849 	0          	0.91849 	0.91849
10 	2     	0.91849 	0          	0.91849 	0.91849
11 	2     	0.91849 	0          	0.91849 	0.91849
12 	2     	0.91849 	0          	0.91849 	0.91849