Run:0 Evals:10000 MES:10000.0 MAD:0.0 Failure:1 Best:0.890915 Solution:1
Run:1 Evals:10000 MES:10000.0 MAD:0.0 Failure:1 Best:0.981125 Solution:1
Run:2 Evals:10000 MES:10000.0 MAD:0.0 Failure:1 Best:0.925919 Solution:1
Run:3 Evals:10000 MES:10000.0 MAD:0.0 Failure:1 Best:0.944443 Solution:1
Run:4 Evals:10000 MES:10000.0 MAD:0.0 Failure:1 Best:0.962265 Solution:1
Run:5 Evals:10000 MES:10000.0 MAD:0.0 Failure:1 Best:0.925919 Solution:1
Run:6 Evals:10000 MES:10000.0 MAD:0.0 Failure:1 Best:0.981476 Solution:1
Run:7 Evals:10000 MES:10000.0 MAD:0.0 Failure:1 Best:0.905655 Solution:1
Run:8 Evals:10000 MES:10000.0 MAD:0.0 Failure:1 Best:0.94339 Solution:1
Run:9 Evals:10000 MES:10000.0 MAD:0.0 Failure:1 Best:0.94339 Solution:1
