Run:0 Evals:10000 MES:10000.0 MAD:0.0 Failure:1 Best:0.741928 Solution:1
Run:1 Evals:10000 MES:10000.0 MAD:0.0 Failure:1 Best:0.742691 Solution:1
Run:2 Evals:10000 MES:10000.0 MAD:0.0 Failure:1 Best:0.752213 Solution:1
Run:3 Evals:10000 MES:10000.0 MAD:0.0 Failure:1 Best:0.738998 Solution:1
Run:4 Evals:10000 MES:10000.0 MAD:0.0 Failure:1 Best:0.730438 Solution:1
Run:5 Evals:10000 MES:10000.0 MAD:0.0 Failure:1 Best:0.755951 Solution:1
Run:6 Evals:10000 MES:10000.0 MAD:0.0 Failure:1 Best:0.747772 Solution:1
Run:7 Evals:10000 MES:10000.0 MAD:0.0 Failure:1 Best:0.75444 Solution:1
Run:8 Evals:10000 MES:10000.0 MAD:0.0 Failure:1 Best:0.765579 Solution:1
Run:9 Evals:10000 MES:10000.0 MAD:0.0 Failure:1 Best:0.730988 Solution:1
