Run:0 Evals:10000 MES:10000.0 MAD:0.0 FAILURES:1 Best:0.990631103515625 Solution:(
Run:1 Evals:10000 MES:10000.0 MAD:0.0 FAILURES:2 Best:0.9742431640625 Solution:(
Run:2 Evals:10000 MES:10000.0 MAD:0.0 FAILURES:3 Best:0.9789276123046875 Solution:(
Run:3 Evals:10000 MES:10000.0 MAD:0.0 FAILURES:4 Best:0.9765777587890625 Solution:(
Run:4 Evals:10000 MES:10000.0 MAD:0.0 FAILURES:5 Best:0.9765777587890625 Solution:(
Run:5 Evals:10000 MES:10000.0 MAD:0.0 FAILURES:6 Best:0.971893310546875 Solution:(
Run:6 Evals:10000 MES:10000.0 MAD:0.0 FAILURES:7 Best:0.9789276123046875 Solution:(
Run:7 Evals:10000 MES:10000.0 MAD:0.0 FAILURES:8 Best:0.9859466552734375 Solution:(
Run:8 Evals:10000 MES:10000.0 MAD:0.0 FAILURES:9 Best:0.9789276123046875 Solution:(

