Run:119 Evals:10000 MES:10000.0 MAD:0.0 FAILURES:111 Best:0.9740447998046875 Solution:(
Run:120 Evals:10000 MES:10000.0 MAD:0.0 FAILURES:112 Best:0.9803924560546875 Solution:(
Run:121 Evals:10000 MES:10000.0 MAD:0.0 FAILURES:113 Best:0.9869232177734375 Solution:(
Run:122 Evals:10000 MES:10000.0 MAD:0.0 FAILURES:114 Best:0.99346923828125 Solution:(
Run:123 Evals:10000 MES:10000.0 MAD:0.0 FAILURES:115 Best:0.9738616943359375 Solution:(
Run:124 Evals:10000 MES:10000.0 MAD:0.0 FAILURES:116 Best:0.9803924560546875 Solution:(
Run:125 Evals:10000 MES:10000.0 MAD:0.0 FAILURES:117 Best:0.9869232177734375 Solution:(
Run:126 Evals:10000 MES:10000.0 MAD:0.0 FAILURES:118 Best:0.9803924560546875 Solution:(
Run:127 Evals:10000 MES:10000.0 MAD:0.0 FAILURES:119 Best:0.9869232177734375 Solution:(
Run:128 Evals:10000 MES:10000.0 MAD:0.0 FAILURES:120 Best:0.9869232177734375 Solution:(

