Run:159 Evals:10000 MES:10000.0 MAD:0.0 FAILURES:149 Best:0.927886962890625 Solution:(
Run:160 Evals:10000 MES:10000.0 MAD:0.0 FAILURES:150 Best:0.9665069580078125 Solution:(
Run:161 Evals:10000 MES:10000.0 MAD:0.0 FAILURES:151 Best:0.97607421875 Solution:(
Run:162 Evals:10000 MES:10000.0 MAD:0.0 FAILURES:152 Best:0.9856414794921875 Solution:(
Run:163 Evals:10000 MES:10000.0 MAD:0.0 FAILURES:153 Best:0.995208740234375 Solution:(
Run:164 Evals:10000 MES:10000.0 MAD:0.0 FAILURES:154 Best:0.97607421875 Solution:(
Run:165 Evals:10000 MES:10000.0 MAD:0.0 FAILURES:155 Best:0.980865478515625 Solution:(
Run:166 Evals:10000 MES:10000.0 MAD:0.0 FAILURES:156 Best:0.9904327392578125 Solution:(
Run:167 Evals:10000 MES:10000.0 MAD:0.0 FAILURES:157 Best:0.9856414794921875 Solution:(
Run:168 Evals:10000 MES:10000.0 MAD:0.0 FAILURES:158 Best:0.995208740234375 Solution:(

