gen	nevals	avg     	std      	min     	max     
0  	20    	0.58167 	0.0878619	0.433334	0.800003
1  	40    	0.658336	0.0566407	0.600006	0.800003
2  	40    	0.701668	0.0510707	0.633331	0.833328
3  	40    	0.718333	0.0414656	0.666672	0.833328
4  	40    	0.73    	0.0363628	0.699997	0.833328
5  	40    	0.741667	0.0331236	0.699997	0.833328
6  	40    	0.758334	0.0276362	0.733337	0.833328
7  	40    	0.763332	0.0256018	0.733337	0.833328
8  	40    	0.774998	0.0207506	0.733337	0.833328
9  	40    	0.779997	0.0221119	0.766663	0.833328
10 	40    	0.786665	0.0286759	0.766663	0.866669
11 	40    	0.799999	0.0316239	0.766663	0.866669
12 	40    	0.818333	0.0306865	0.766663	0.866669
13 	40    	0.825   	0.0255483	0.800003	0.866669
14 	40    	0.828333	0.0242087	0.800003	0.866669
15 	40    	0.849998	0.0288671	0.800003	0.899994
16 	40    	0.859998	0.0290605	0.833328	0.933334
17 	40    	0.863332	0.0276897	0.833328	0.933334
18 	40    	0.866666	0.0258205	0.833328	0.933334
19 	40    	0.871666	0.0242094	0.833328	0.933334
20 	40    	0.881667	0.0222966	0.866669	0.933334
21 	40    	0.883333	0.0223586	0.866669	0.933334
22 	40    	0.883333	0.0223586	0.866669	0.933334
23 	40    	0.888332	0.0284288	0.866669	0.96666 
24 	40    	0.889999	0.0280847	0.866669	0.96666 
25 	40    	0.891665	0.0276362	0.866669	0.96666 
26 	40    	0.893331	0.0270778	0.866669	0.96666 
27 	40    	0.894997	0.0264028	0.866669	0.96666 
28 	40    	0.899997	0.0298121	0.866669	0.96666 
29 	40    	0.899997	0.0298121	0.866669	0.96666 
30 	40    	0.90333 	0.0296257	0.866669	0.96666 
31 	40    	0.90333 	0.0296257	0.866669	0.96666 
32 	40    	0.906663	0.0270792	0.866669	0.96666 
33 	40    	0.909995	0.0238048	0.866669	0.96666 
34 	40    	0.913329	0.0221119	0.899994	0.96666 
35 	40    	0.913329	0.0221119	0.899994	0.96666 
36 	40    	0.913329	0.0221119	0.899994	0.96666 
37 	40    	0.919996	0.0244958	0.899994	0.96666 
38 	40    	0.919996	0.0244958	0.899994	0.96666 
39 	40    	0.919996	0.0244958	0.899994	0.96666 
40 	40    	0.921663	0.0242106	0.899994	0.96666 
41 	40    	0.921663	0.0242106	0.899994	0.96666 
42 	40    	0.92333 	0.0238057	0.899994	0.96666 
43 	40    	0.92833 	0.0242101	0.899994	0.96666 
44 	40    	0.92833 	0.0242101	0.899994	0.96666 
45 	40    	0.92833 	0.0242101	0.899994	0.96666 
46 	40    	0.931664	0.0222985	0.899994	0.96666 
47 	40    	0.931664	0.0222985	0.899994	0.96666 
48 	40    	0.933331	0.0210815	0.899994	0.96666 
49 	40    	0.939999	0.0169944	0.899994	0.96666 
50 	40    	0.941666	0.0144302	0.933334	0.96666 
51 	40    	0.944998	0.0158951	0.933334	0.96666 
52 	40    	0.944998	0.0158951	0.933334	0.96666 
53 	40    	0.944998	0.0158951	0.933334	0.96666 
54 	40    	0.944998	0.0158951	0.933334	0.96666 
55 	40    	0.946664	0.0163259	0.933334	0.96666 
56 	40    	0.946664	0.0163259	0.933334	0.96666 
57 	40    	0.949997	0.0166626	0.933334	0.96666 
58 	40    	0.951663	0.0165791	0.933334	0.96666 
59 	40    	0.951663	0.0165791	0.933334	0.96666 
60 	40    	0.951663	0.0165791	0.933334	0.96666 
61 	40    	0.951663	0.0165791	0.933334	0.96666 
62 	40    	0.951663	0.0165791	0.933334	0.96666 
63 	40    	0.951663	0.0165791	0.933334	0.96666 
64 	40    	0.951663	0.0165791	0.933334	0.96666 
65 	40    	0.953329	0.0163259	0.933334	0.96666 
66 	40    	0.953329	0.0163259	0.933334	0.96666 
67 	40    	0.954996	0.0158951	0.933334	0.96666 
68 	40    	0.954996	0.0158951	0.933334	0.96666 
69 	40    	0.954996	0.0158951	0.933334	0.96666 
70 	40    	0.954996	0.0158951	0.933334	0.96666 
71 	40    	0.958328	0.0144302	0.933334	0.96666 
72 	40    	0.961661	0.0118995	0.933334	0.96666 
73 	40    	0.961661	0.0118995	0.933334	0.96666 
74 	40    	0.96666 	0        	0.96666 	0.96666 
75 	40    	0.96666 	0        	0.96666 	0.96666 
76 	40    	0.96666 	0        	0.96666 	0.96666 
77 	40    	0.96666 	0        	0.96666 	0.96666 
78 	40    	0.96666 	0        	0.96666 	0.96666 
79 	40    	0.96666 	0        	0.96666 	0.96666 
80 	40    	0.96666 	0        	0.96666 	0.96666 
81 	40    	0.96666 	0        	0.96666 	0.96666 
82 	40    	0.96666 	0        	0.96666 	0.96666 
83 	40    	0.96666 	0        	0.96666 	0.96666 
84 	40    	0.96666 	0        	0.96666 	0.96666 
85 	40    	0.96666 	0        	0.96666 	0.96666 
86 	40    	0.96666 	0        	0.96666 	0.96666 
87 	40    	0.96666 	0        	0.96666 	0.96666 
88 	40    	0.96666 	0        	0.96666 	0.96666 
89 	40    	0.96666 	0        	0.96666 	0.96666 
90 	40    	0.96666 	0        	0.96666 	0.96666 
91 	40    	0.96666 	0        	0.96666 	0.96666 
92 	40    	0.96666 	0        	0.96666 	0.96666 
93 	40    	0.96666 	0        	0.96666 	0.96666 
94 	40    	0.96666 	0        	0.96666 	0.96666 
95 	40    	0.96666 	0        	0.96666 	0.96666 
96 	40    	0.96666 	0        	0.96666 	0.96666 
97 	40    	0.96666 	0        	0.96666 	0.96666 
98 	40    	0.96666 	0        	0.96666 	0.96666 
99 	40    	0.96666 	0        	0.96666 	0.96666 
100	40    	0.96666 	0        	0.96666 	0.96666 
101	40    	0.96666 	0        	0.96666 	0.96666 
102	40    	0.96666 	0        	0.96666 	0.96666 
103	40    	0.96666 	0        	0.96666 	0.96666 
104	40    	0.96666 	0        	0.96666 	0.96666 
105	40    	0.96666 	0        	0.96666 	0.96666 
106	40    	0.96666 	0        	0.96666 	0.96666 
107	40    	0.96666 	0        	0.96666 	0.96666 
108	40    	0.96666 	0        	0.96666 	0.96666 
109	40    	0.96666 	0        	0.96666 	0.96666 
110	40    	0.96666 	0        	0.96666 	0.96666 
111	40    	0.96666 	0        	0.96666 	0.96666 
112	40    	0.96666 	0        	0.96666 	0.96666 
113	40    	0.96666 	0        	0.96666 	0.96666 
114	40    	0.96666 	0        	0.96666 	0.96666 
115	40    	0.96666 	0        	0.96666 	0.96666 
116	40    	0.96666 	0        	0.96666 	0.96666 
117	40    	0.96666 	0        	0.96666 	0.96666 
118	40    	0.96666 	0        	0.96666 	0.96666 
119	40    	0.96666 	0        	0.96666 	0.96666 
120	40    	0.96666 	0        	0.96666 	0.96666 
121	40    	0.96666 	0        	0.96666 	0.96666 
122	40    	0.96666 	0        	0.96666 	0.96666 
123	40    	0.96666 	0        	0.96666 	0.96666 
124	40    	0.96666 	0        	0.96666 	0.96666 
125	40    	0.96666 	0        	0.96666 	0.96666 
126	40    	0.96666 	0        	0.96666 	0.96666 
127	40    	0.96666 	0        	0.96666 	0.96666 
128	40    	0.96666 	0        	0.96666 	0.96666 
129	40    	0.96666 	0        	0.96666 	0.96666 
130	40    	0.96666 	0        	0.96666 	0.96666 
131	40    	0.96666 	0        	0.96666 	0.96666 
132	40    	0.96666 	0        	0.96666 	0.96666 
133	40    	0.96666 	0        	0.96666 	0.96666 
134	40    	0.96666 	0        	0.96666 	0.96666 
135	40    	0.96666 	0        	0.96666 	0.96666 
136	40    	0.96666 	0        	0.96666 	0.96666 
137	40    	0.96666 	0        	0.96666 	0.96666 
138	40    	0.96666 	0        	0.96666 	0.96666 
139	40    	0.96666 	0        	0.96666 	0.96666 
140	40    	0.96666 	0        	0.96666 	0.96666 
141	40    	0.96666 	0        	0.96666 	0.96666 
142	40    	0.96666 	0        	0.96666 	0.96666 
143	40    	0.96666 	0        	0.96666 	0.96666 
144	40    	0.96666 	0        	0.96666 	0.96666 
145	40    	0.96666 	0        	0.96666 	0.96666 
146	40    	0.96666 	0        	0.96666 	0.96666 
147	40    	0.96666 	0        	0.96666 	0.96666 
148	40    	0.96666 	0        	0.96666 	0.96666 
149	40    	0.96666 	0        	0.96666 	0.96666 
150	40    	0.96666 	0        	0.96666 	0.96666 
151	40    	0.96666 	0        	0.96666 	0.96666 
152	40    	0.96666 	0        	0.96666 	0.96666 
153	40    	0.96666 	0        	0.96666 	0.96666 
154	40    	0.96666 	0        	0.96666 	0.96666 
155	40    	0.96666 	0        	0.96666 	0.96666 
156	40    	0.96666 	0        	0.96666 	0.96666 
157	40    	0.96666 	0        	0.96666 	0.96666 
158	40    	0.96666 	0        	0.96666 	0.96666 
159	40    	0.96666 	0        	0.96666 	0.96666 
160	40    	0.96666 	0        	0.96666 	0.96666 
161	40    	0.96666 	0        	0.96666 	0.96666 
162	40    	0.96666 	0        	0.96666 	0.96666 
163	40    	0.96666 	0        	0.96666 	0.96666 
164	40    	0.96666 	0        	0.96666 	0.96666 
165	40    	0.96666 	0        	0.96666 	0.96666 
166	40    	0.96666 	0        	0.96666 	0.96666 
167	40    	0.96666 	0        	0.96666 	0.96666 
168	40    	0.96666 	0        	0.96666 	0.96666 
169	40    	0.96666 	0        	0.96666 	0.96666 
170	40    	0.96666 	0        	0.96666 	0.96666 
171	40    	0.96666 	0        	0.96666 	0.96666 
172	40    	0.96666 	0        	0.96666 	0.96666 
173	40    	0.96666 	0        	0.96666 	0.96666 
174	40    	0.96666 	0        	0.96666 	0.96666 
175	40    	0.96666 	0        	0.96666 	0.96666 
176	40    	0.96666 	0        	0.96666 	0.96666 
177	40    	0.96666 	0        	0.96666 	0.96666 
178	40    	0.96666 	0        	0.96666 	0.96666 
179	40    	0.96666 	0        	0.96666 	0.96666 
180	40    	0.96666 	0        	0.96666 	0.96666 
181	40    	0.96666 	0        	0.96666 	0.96666 
182	40    	0.96666 	0        	0.96666 	0.96666 
183	40    	0.96666 	0        	0.96666 	0.96666 
184	40    	0.96666 	0        	0.96666 	0.96666 
185	40    	0.96666 	0        	0.96666 	0.96666 
186	40    	0.96666 	0        	0.96666 	0.96666 
187	40    	0.96666 	0        	0.96666 	0.96666 
188	40    	0.96666 	0        	0.96666 	0.96666 
189	40    	0.96666 	0        	0.96666 	0.96666 
190	40    	0.96666 	0        	0.96666 	0.96666 
191	40    	0.96666 	0        	0.96666 	0.96666 
192	40    	0.96666 	0        	0.96666 	0.96666 
193	40    	0.96666 	0        	0.96666 	0.96666 
194	40    	0.96666 	0        	0.96666 	0.96666 
195	40    	0.96666 	0        	0.96666 	0.96666 
196	40    	0.96666 	0        	0.96666 	0.96666 
197	40    	0.96666 	0        	0.96666 	0.96666 
198	40    	0.96666 	0        	0.96666 	0.96666 
199	40    	0.96666 	0        	0.96666 	0.96666 
200	40    	0.96666 	0        	0.96666 	0.96666 
201	40    	0.96666 	0        	0.96666 	0.96666 
202	40    	0.96666 	0        	0.96666 	0.96666 
203	40    	0.96666 	0        	0.96666 	0.96666 
204	40    	0.96666 	0        	0.96666 	0.96666 
205	40    	0.96666 	0        	0.96666 	0.96666 
206	40    	0.96666 	0        	0.96666 	0.96666 
207	40    	0.96666 	0        	0.96666 	0.96666 
208	40    	0.96666 	0        	0.96666 	0.96666 
209	40    	0.96666 	0        	0.96666 	0.96666 
210	40    	0.96666 	0        	0.96666 	0.96666 
211	40    	0.96666 	0        	0.96666 	0.96666 
212	40    	0.96666 	0        	0.96666 	0.96666 
213	40    	0.96666 	0        	0.96666 	0.96666 
214	40    	0.96666 	0        	0.96666 	0.96666 
215	40    	0.96666 	0        	0.96666 	0.96666 
216	40    	0.96666 	0        	0.96666 	0.96666 
217	40    	0.96666 	0        	0.96666 	0.96666 
218	40    	0.96666 	0        	0.96666 	0.96666 
219	40    	0.96666 	0        	0.96666 	0.96666 
220	40    	0.96666 	0        	0.96666 	0.96666 
221	40    	0.96666 	0        	0.96666 	0.96666 
222	40    	0.96666 	0        	0.96666 	0.96666 
223	40    	0.96666 	0        	0.96666 	0.96666 
224	40    	0.96666 	0        	0.96666 	0.96666 
225	40    	0.96666 	0        	0.96666 	0.96666 
226	40    	0.96666 	0        	0.96666 	0.96666 
227	40    	0.96666 	0        	0.96666 	0.96666 
228	40    	0.96666 	0        	0.96666 	0.96666 
229	40    	0.96666 	0        	0.96666 	0.96666 
230	40    	0.96666 	0        	0.96666 	0.96666 
231	40    	0.96666 	0        	0.96666 	0.96666 
232	40    	0.96666 	0        	0.96666 	0.96666 
233	40    	0.96666 	0        	0.96666 	0.96666 
234	40    	0.96666 	0        	0.96666 	0.96666 
235	40    	0.96666 	0        	0.96666 	0.96666 
236	40    	0.96666 	0        	0.96666 	0.96666 
237	40    	0.96666 	0        	0.96666 	0.96666 
238	40    	0.96666 	0        	0.96666 	0.96666 
239	40    	0.96666 	0        	0.96666 	0.96666 
240	40    	0.96666 	0        	0.96666 	0.96666 
241	40    	0.96666 	0        	0.96666 	0.96666 
242	40    	0.96666 	0        	0.96666 	0.96666 
243	40    	0.96666 	0        	0.96666 	0.96666 
244	40    	0.96666 	0        	0.96666 	0.96666 
245	40    	0.96666 	0        	0.96666 	0.96666 
246	40    	0.96666 	0        	0.96666 	0.96666 
247	40    	0.96666 	0        	0.96666 	0.96666 
248	40    	0.96666 	0        	0.96666 	0.96666 
249	40    	0.96666 	0        	0.96666 	0.96666 
250	40    	0.96666 	0        	0.96666 	0.96666 
