gen	nevals	avg     	std       	min     	max     
0  	20    	0.580366	0.0274325 	0.534241	0.630142
1  	40    	0.609818	0.0171764 	0.589035	0.648407
2  	40    	0.621918	0.013972  	0.602737	0.648407
3  	40    	0.627626	0.00973746	0.611877	0.648407
4  	40    	0.628539	0.0088167 	0.61644 	0.648407
5  	40    	0.632419	0.0103651 	0.621002	0.666672
6  	40    	0.635844	0.00999319	0.625565	0.666672
7  	40    	0.638358	0.00931362	0.625565	0.666672
8  	40    	0.641325	0.00822911	0.630142	0.666672
9  	40    	0.647945	0.0107973 	0.634705	0.675797
10 	40    	0.650684	0.0106608 	0.639267	0.675797
11 	40    	0.650912	0.010461  	0.639267	0.675797
12 	40    	0.652053	0.00996338	0.643829	0.675797
13 	40    	0.652966	0.0100047 	0.643829	0.675797
14 	40    	0.65525 	0.0103626 	0.643829	0.675797
15 	40    	0.656849	0.00992807	0.643829	0.675797
16 	40    	0.659361	0.00993882	0.648407	0.680359
17 	40    	0.660503	0.00992602	0.648407	0.680359
18 	40    	0.661872	0.00951923	0.648407	0.680359
19 	40    	0.661872	0.00951923	0.648407	0.680359
20 	40    	0.665524	0.00876763	0.652969	0.680359
21 	40    	0.665752	0.00849308	0.652969	0.680359
22 	40    	0.667806	0.00789197	0.652969	0.680359
23 	40    	0.670775	0.00705948	0.662094	0.684937
24 	40    	0.670775	0.00705948	0.662094	0.684937
25 	40    	0.670775	0.00705948	0.662094	0.684937
26 	40    	0.671232	0.00677276	0.662094	0.684937
27 	40    	0.673743	0.00835283	0.662094	0.698624
28 	40    	0.675799	0.00853991	0.666672	0.698624
29 	40    	0.675799	0.00853991	0.666672	0.698624
30 	40    	0.676027	0.00835193	0.666672	0.698624
31 	40    	0.677168	0.00855283	0.666672	0.698624
32 	40    	0.677853	0.00796992	0.671234	0.698624
33 	40    	0.677853	0.00796992	0.671234	0.698624
34 	40    	0.677853	0.00796992	0.671234	0.698624
35 	40    	0.678081	0.00784147	0.671234	0.698624
36 	40    	0.678766	0.00781189	0.671234	0.698624
37 	40    	0.679222	0.00762286	0.671234	0.698624
38 	40    	0.679678	0.00740095	0.671234	0.698624
39 	40    	0.681277	0.00873616	0.671234	0.703201
40 	40    	0.681277	0.00873616	0.671234	0.703201
41 	40    	0.681962	0.00845448	0.671234	0.703201
42 	40    	0.682646	0.00784414	0.675797	0.703201
43 	40    	0.682646	0.00784414	0.675797	0.703201
44 	40    	0.682874	0.00770676	0.675797	0.703201
45 	40    	0.682874	0.00770676	0.675797	0.703201
46 	40    	0.682874	0.00770676	0.675797	0.703201
47 	40    	0.683559	0.007656  	0.675797	0.703201
48 	40    	0.683559	0.007656  	0.675797	0.703201
49 	40    	0.683788	0.00748741	0.675797	0.703201
50 	40    	0.684929	0.0079102 	0.675797	0.703201
51 	40    	0.685386	0.00762839	0.675797	0.703201
52 	40    	0.685386	0.00762839	0.675797	0.703201
53 	40    	0.688127	0.00867607	0.680359	0.712326
54 	40    	0.689497	0.00854195	0.680359	0.712326
55 	40    	0.689497	0.00854195	0.680359	0.712326
56 	40    	0.689497	0.00854195	0.680359	0.712326
57 	40    	0.689954	0.00828134	0.680359	0.712326
58 	40    	0.689954	0.00828134	0.680359	0.712326
59 	40    	0.689954	0.00828134	0.680359	0.712326
60 	40    	0.689954	0.00828134	0.680359	0.712326
61 	40    	0.690183	0.00807362	0.680359	0.712326
62 	40    	0.69064 	0.00775707	0.680359	0.712326
63 	40    	0.69064 	0.00775707	0.680359	0.712326
64 	40    	0.692695	0.00914069	0.684937	0.716888
65 	40    	0.692695	0.00914069	0.684937	0.716888
66 	40    	0.693608	0.00923189	0.684937	0.716888
67 	40    	0.693608	0.00923189	0.684937	0.716888
68 	40    	0.694749	0.00949655	0.684937	0.716888
69 	40    	0.694749	0.00949655	0.684937	0.716888
70 	40    	0.695206	0.00922958	0.684937	0.716888
71 	40    	0.697488	0.00900152	0.684937	0.716888
72 	40    	0.697716	0.00873441	0.689499	0.716888
73 	40    	0.697716	0.00873441	0.689499	0.716888
74 	40    	0.698857	0.00907107	0.689499	0.716888
75 	40    	0.698857	0.00907107	0.689499	0.716888
76 	40    	0.699998	0.00855397	0.689499	0.716888
77 	40    	0.699998	0.00855397	0.689499	0.716888
78 	40    	0.70114 	0.00859965	0.689499	0.716888
79 	40    	0.70114 	0.00859965	0.689499	0.716888
80 	40    	0.701368	0.00834456	0.689499	0.716888
81 	40    	0.701368	0.00834456	0.689499	0.716888
82 	40    	0.702052	0.00762377	0.689499	0.716888
83 	40    	0.703194	0.00677327	0.694061	0.716888
84 	40    	0.703194	0.00677327	0.694061	0.716888
85 	40    	0.703194	0.00677327	0.694061	0.716888
86 	40    	0.703194	0.00677327	0.694061	0.716888
87 	40    	0.707076	0.0103403 	0.698624	0.744293
88 	40    	0.707076	0.0103403 	0.698624	0.744293
89 	40    	0.707761	0.0102107 	0.698624	0.744293
90 	40    	0.707761	0.0102107 	0.698624	0.744293
91 	40    	0.707761	0.0102107 	0.698624	0.744293
92 	40    	0.707761	0.0102107 	0.698624	0.744293
93 	40    	0.707761	0.0102107 	0.698624	0.744293
94 	40    	0.708904	0.0104004 	0.698624	0.744293
95 	40    	0.708904	0.0104004 	0.698624	0.744293
96 	40    	0.709361	0.0101361 	0.698624	0.744293
97 	40    	0.709589	0.00994092	0.698624	0.744293
98 	40    	0.709589	0.00994092	0.698624	0.744293
99 	40    	0.710046	0.00963158	0.698624	0.744293
100	40    	0.710732	0.00927544	0.703201	0.744293
101	40    	0.710732	0.00927544	0.703201	0.744293
102	40    	0.711188	0.00911689	0.703201	0.744293
103	40    	0.711188	0.00911689	0.703201	0.744293
104	40    	0.712101	0.00918568	0.703201	0.744293
105	40    	0.712101	0.00918568	0.703201	0.744293
106	40    	0.712785	0.00877103	0.703201	0.744293
107	40    	0.71347 	0.00852712	0.703201	0.744293
108	40    	0.713926	0.00820347	0.703201	0.744293
109	40    	0.713926	0.00820347	0.703201	0.744293
110	40    	0.713926	0.00820347	0.703201	0.744293
111	40    	0.713926	0.00820347	0.703201	0.744293
112	40    	0.714154	0.00796195	0.707764	0.744293
113	40    	0.714154	0.00796195	0.707764	0.744293
114	40    	0.714154	0.00796195	0.707764	0.744293
115	40    	0.714154	0.00796195	0.707764	0.744293
116	40    	0.714154	0.00796195	0.707764	0.744293
117	40    	0.714154	0.00796195	0.707764	0.744293
118	40    	0.714154	0.00796195	0.707764	0.744293
119	40    	0.714154	0.00796195	0.707764	0.744293
120	40    	0.714154	0.00796195	0.707764	0.744293
121	40    	0.714154	0.00796195	0.707764	0.744293
122	40    	0.714382	0.00784002	0.707764	0.744293
123	40    	0.714382	0.00784002	0.707764	0.744293
124	40    	0.714382	0.00784002	0.707764	0.744293
125	40    	0.714382	0.00784002	0.707764	0.744293
126	40    	0.714382	0.00784002	0.707764	0.744293
127	40    	0.714382	0.00784002	0.707764	0.744293
128	40    	0.714382	0.00784002	0.707764	0.744293
129	40    	0.714382	0.00784002	0.707764	0.744293
130	40    	0.714382	0.00784002	0.707764	0.744293
131	40    	0.714382	0.00784002	0.707764	0.744293
132	40    	0.714382	0.00784002	0.707764	0.744293
133	40    	0.714382	0.00784002	0.707764	0.744293
134	40    	0.714382	0.00784002	0.707764	0.744293
135	40    	0.714382	0.00784002	0.707764	0.744293
136	40    	0.714382	0.00784002	0.707764	0.744293
137	40    	0.715295	0.0080761 	0.707764	0.744293
138	40    	0.715295	0.0080761 	0.707764	0.744293
139	40    	0.715295	0.0080761 	0.707764	0.744293
140	40    	0.715295	0.0080761 	0.707764	0.744293
141	40    	0.715524	0.00792313	0.707764	0.744293
142	40    	0.71598 	0.00772335	0.707764	0.744293
143	40    	0.71598 	0.00772335	0.707764	0.744293
144	40    	0.71598 	0.00772335	0.707764	0.744293
145	40    	0.71598 	0.00772335	0.707764	0.744293
146	40    	0.71598 	0.00772335	0.707764	0.744293
147	40    	0.71598 	0.00772335	0.707764	0.744293
148	40    	0.71598 	0.00772335	0.707764	0.744293
149	40    	0.71598 	0.00772335	0.707764	0.744293
150	40    	0.71598 	0.00772335	0.707764	0.744293
151	40    	0.716208	0.00754257	0.712326	0.744293
152	40    	0.716208	0.00754257	0.712326	0.744293
153	40    	0.716208	0.00754257	0.712326	0.744293
154	40    	0.716208	0.00754257	0.712326	0.744293
155	40    	0.716208	0.00754257	0.712326	0.744293
156	40    	0.716208	0.00754257	0.712326	0.744293
157	40    	0.716208	0.00754257	0.712326	0.744293
158	40    	0.716208	0.00754257	0.712326	0.744293
159	40    	0.716208	0.00754257	0.712326	0.744293
160	40    	0.716436	0.00749053	0.712326	0.744293
161	40    	0.716664	0.00743113	0.712326	0.744293
162	40    	0.716664	0.00743113	0.712326	0.744293
163	40    	0.716664	0.00743113	0.712326	0.744293
164	40    	0.716664	0.00743113	0.712326	0.744293
165	40    	0.716664	0.00743113	0.712326	0.744293
166	40    	0.716664	0.00743113	0.712326	0.744293
167	40    	0.71712 	0.00728949	0.712326	0.744293
168	40    	0.71712 	0.00728949	0.712326	0.744293
169	40    	0.71712 	0.00728949	0.712326	0.744293
170	40    	0.71712 	0.00728949	0.712326	0.744293
171	40    	0.71712 	0.00728949	0.712326	0.744293
172	40    	0.71712 	0.00728949	0.712326	0.744293
173	40    	0.71712 	0.00728949	0.712326	0.744293
174	40    	0.717805	0.0071635 	0.712326	0.744293
175	40    	0.717805	0.0071635 	0.712326	0.744293
176	40    	0.718262	0.00709053	0.712326	0.744293
177	40    	0.718719	0.00698698	0.712326	0.744293
178	40    	0.718719	0.00698698	0.712326	0.744293
179	40    	0.718719	0.00698698	0.712326	0.744293
180	40    	0.718719	0.00698698	0.712326	0.744293
181	40    	0.718948	0.0068476 	0.712326	0.744293
182	40    	0.719176	0.00669757	0.712326	0.744293
183	40    	0.719176	0.00669757	0.712326	0.744293
184	40    	0.719176	0.00669757	0.712326	0.744293
185	40    	0.719176	0.00669757	0.712326	0.744293
186	40    	0.719176	0.00669757	0.712326	0.744293
187	40    	0.719404	0.00653613	0.712326	0.744293
188	40    	0.719404	0.00653613	0.712326	0.744293
189	40    	0.719632	0.00636244	0.712326	0.744293
190	40    	0.719632	0.00636244	0.712326	0.744293
191	40    	0.719632	0.00636244	0.712326	0.744293
192	40    	0.719632	0.00636244	0.712326	0.744293
193	40    	0.719632	0.00636244	0.712326	0.744293
194	40    	0.719632	0.00636244	0.712326	0.744293
195	40    	0.719632	0.00636244	0.712326	0.744293
196	40    	0.720317	0.006276  	0.716888	0.744293
197	40    	0.720317	0.006276  	0.716888	0.744293
198	40    	0.720317	0.006276  	0.716888	0.744293
199	40    	0.720317	0.006276  	0.716888	0.744293
200	40    	0.720317	0.006276  	0.716888	0.744293
201	40    	0.720317	0.006276  	0.716888	0.744293
202	40    	0.720317	0.006276  	0.716888	0.744293
203	40    	0.720317	0.006276  	0.716888	0.744293
204	40    	0.720317	0.006276  	0.716888	0.744293
205	40    	0.720317	0.006276  	0.716888	0.744293
206	40    	0.720317	0.006276  	0.716888	0.744293
207	40    	0.720317	0.006276  	0.716888	0.744293
208	40    	0.720317	0.006276  	0.716888	0.744293
209	40    	0.720317	0.006276  	0.716888	0.744293
210	40    	0.720317	0.006276  	0.716888	0.744293
211	40    	0.721002	0.00660367	0.716888	0.744293
212	40    	0.721002	0.00660367	0.716888	0.744293
213	40    	0.721002	0.00660367	0.716888	0.744293
214	40    	0.721002	0.00660367	0.716888	0.744293
215	40    	0.721002	0.00660367	0.716888	0.744293
216	40    	0.722144	0.00768088	0.716888	0.744293
217	40    	0.722373	0.0075885 	0.716888	0.744293
218	40    	0.722373	0.0075885 	0.716888	0.744293
219	40    	0.722373	0.0075885 	0.716888	0.744293
220	40    	0.722373	0.0075885 	0.716888	0.744293
221	40    	0.723058	0.00768038	0.716888	0.744293
222	40    	0.723058	0.00768038	0.716888	0.744293
223	40    	0.723058	0.00768038	0.716888	0.744293
224	40    	0.723287	0.00756038	0.716888	0.744293
225	40    	0.723287	0.00756038	0.716888	0.744293
226	40    	0.723287	0.00756038	0.716888	0.744293
227	40    	0.723744	0.00743498	0.716888	0.744293
228	40    	0.723744	0.00743498	0.716888	0.744293
229	40    	0.723744	0.00743498	0.716888	0.744293
230	40    	0.723744	0.00743498	0.716888	0.744293
231	40    	0.723744	0.00743498	0.716888	0.744293
232	40    	0.723973	0.00728944	0.716888	0.744293
233	40    	0.723973	0.00728944	0.716888	0.744293
234	40    	0.72443 	0.00711539	0.716888	0.744293
235	40    	0.72443 	0.00711539	0.716888	0.744293
236	40    	0.72443 	0.00711539	0.716888	0.744293
237	40    	0.72443 	0.00711539	0.716888	0.744293
238	40    	0.725115	0.00701522	0.716888	0.744293
239	40    	0.725115	0.00701522	0.716888	0.744293
240	40    	0.725115	0.00701522	0.716888	0.744293
241	40    	0.725115	0.00701522	0.716888	0.744293
242	40    	0.725115	0.00701522	0.716888	0.744293
243	40    	0.725115	0.00701522	0.716888	0.744293
244	40    	0.725115	0.00701522	0.716888	0.744293
245	40    	0.725115	0.00701522	0.716888	0.744293
246	40    	0.725115	0.00701522	0.716888	0.744293
247	40    	0.725115	0.00701522	0.716888	0.744293
248	40    	0.725115	0.00701522	0.716888	0.744293
249	40    	0.725572	0.00675737	0.716888	0.744293
250	40    	0.725572	0.00675737	0.716888	0.744293
