gen	nevals	avg     	std       	min     	max     
0  	20    	0.593056	0.0225808 	0.569443	0.671295
1  	40    	0.608797	0.0176592 	0.587967	0.671295
2  	40    	0.619444	0.0165389 	0.601852	0.671295
3  	40    	0.628242	0.0171406 	0.611115	0.671295
4  	40    	0.632871	0.014276  	0.615738	0.671295
5  	40    	0.635648	0.0131842 	0.620377	0.671295
6  	40    	0.636573	0.0125518 	0.625   	0.671295
7  	40    	0.643749	0.0127202 	0.629623	0.671295
8  	40    	0.649538	0.0115367 	0.634262	0.671295
9  	40    	0.65787 	0.0116101 	0.643524	0.694443
10 	40    	0.658565	0.011137  	0.643524	0.694443
11 	40    	0.659258	0.0103939 	0.648148	0.694443
12 	40    	0.660647	0.00972272	0.648148	0.694443
13 	40    	0.663193	0.00947402	0.652771	0.694443
14 	40    	0.663656	0.00917493	0.652771	0.694443
15 	40    	0.663888	0.00895278	0.652771	0.694443
16 	40    	0.665046	0.00844444	0.65741 	0.694443
17 	40    	0.668055	0.00949928	0.65741 	0.694443
18 	40    	0.668749	0.00896275	0.662033	0.694443
19 	40    	0.668749	0.00896275	0.662033	0.694443
20 	40    	0.669444	0.00895341	0.662033	0.694443
21 	40    	0.671527	0.011479  	0.662033	0.703705
22 	40    	0.673148	0.0109945 	0.662033	0.703705
23 	40    	0.674075	0.0102885 	0.666672	0.703705
24 	40    	0.674306	0.0101708 	0.666672	0.703705
25 	40    	0.67662 	0.0108834 	0.666672	0.703705
26 	40    	0.67662 	0.0108834 	0.666672	0.703705
27 	40    	0.678935	0.0131982 	0.666672	0.712967
28 	40    	0.68148 	0.0139353 	0.666672	0.712967
29 	40    	0.684026	0.013489  	0.671295	0.712967
30 	40    	0.684258	0.0133073 	0.671295	0.712967
31 	40    	0.684258	0.0133073 	0.671295	0.712967
32 	40    	0.684952	0.0128047 	0.671295	0.712967
33 	40    	0.686803	0.0115554 	0.671295	0.712967
34 	40    	0.687961	0.0110942 	0.675919	0.712967
35 	40    	0.689813	0.0108595 	0.675919	0.712967
36 	40    	0.690971	0.00991733	0.675919	0.712967
37 	40    	0.691898	0.00931497	0.680557	0.712967
38 	40    	0.693055	0.00927198	0.680557	0.712967
39 	40    	0.693055	0.00927198	0.680557	0.712967
40 	40    	0.693749	0.00857275	0.685181	0.712967
41 	40    	0.694676	0.0079491 	0.685181	0.712967
42 	40    	0.695371	0.00740748	0.685181	0.712967
43 	40    	0.696761	0.00724507	0.689819	0.712967
44 	40    	0.696761	0.00724507	0.689819	0.712967
45 	40    	0.697224	0.00708074	0.689819	0.712967
46 	40    	0.698149	0.00725981	0.689819	0.712967
47 	40    	0.69838 	0.0070618 	0.689819	0.712967
48 	40    	0.699538	0.00745007	0.689819	0.712967
49 	40    	0.700463	0.00733406	0.689819	0.712967
50 	40    	0.700694	0.00706277	0.689819	0.712967
51 	40    	0.701157	0.00662459	0.694443	0.712967
52 	40    	0.702778	0.00631299	0.694443	0.712967
53 	40    	0.703241	0.00601736	0.694443	0.712967
54 	40    	0.703241	0.00601736	0.694443	0.712967
55 	40    	0.704631	0.00539675	0.694443	0.712967
56 	40    	0.705094	0.00487476	0.699081	0.712967
57 	40    	0.705094	0.00487476	0.699081	0.712967
58 	40    	0.705094	0.00487476	0.699081	0.712967
59 	40    	0.707871	0.00601789	0.699081	0.722229
60 	40    	0.708102	0.00575903	0.699081	0.722229
61 	40    	0.709028	0.00513053	0.703705	0.722229
62 	40    	0.709954	0.00491758	0.703705	0.722229
63 	40    	0.709954	0.00491758	0.703705	0.722229
64 	40    	0.709954	0.00491758	0.703705	0.722229
65 	40    	0.710185	0.00472321	0.703705	0.722229
66 	40    	0.710648	0.00451457	0.703705	0.722229
67 	40    	0.71088 	0.00426455	0.703705	0.722229
68 	40    	0.71088 	0.00426455	0.703705	0.722229
69 	40    	0.711111	0.00398555	0.703705	0.722229
70 	40    	0.711111	0.00398555	0.703705	0.722229
71 	40    	0.711111	0.00398555	0.703705	0.722229
72 	40    	0.711111	0.00398555	0.703705	0.722229
73 	40    	0.711111	0.00398555	0.703705	0.722229
74 	40    	0.711111	0.00398555	0.703705	0.722229
75 	40    	0.711111	0.00398555	0.703705	0.722229
76 	40    	0.712268	0.00491862	0.708328	0.726852
77 	40    	0.712268	0.00491862	0.708328	0.726852
78 	40    	0.712268	0.00491862	0.708328	0.726852
79 	40    	0.712268	0.00491862	0.708328	0.726852
80 	40    	0.712268	0.00491862	0.708328	0.726852
81 	40    	0.712268	0.00491862	0.708328	0.726852
82 	40    	0.712268	0.00491862	0.708328	0.726852
83 	40    	0.714815	0.00677328	0.708328	0.731476
84 	40    	0.714815	0.00677328	0.708328	0.731476
85 	40    	0.714815	0.00677328	0.708328	0.731476
86 	40    	0.714815	0.00677328	0.708328	0.731476
87 	40    	0.714815	0.00677328	0.708328	0.731476
88 	40    	0.714815	0.00677328	0.708328	0.731476
89 	40    	0.714815	0.00677328	0.708328	0.731476
90 	40    	0.714815	0.00677328	0.708328	0.731476
91 	40    	0.71551 	0.00646085	0.708328	0.731476
92 	40    	0.71551 	0.00646085	0.708328	0.731476
93 	40    	0.71551 	0.00646085	0.708328	0.731476
94 	40    	0.71551 	0.00646085	0.708328	0.731476
95 	40    	0.715742	0.0062796 	0.708328	0.731476
96 	40    	0.715742	0.0062796 	0.708328	0.731476
97 	40    	0.715742	0.0062796 	0.708328	0.731476
98 	40    	0.715742	0.0062796 	0.708328	0.731476
99 	40    	0.716438	0.00564449	0.712967	0.731476
100	40    	0.716438	0.00564449	0.712967	0.731476
101	40    	0.716438	0.00564449	0.712967	0.731476
102	40    	0.716438	0.00564449	0.712967	0.731476
103	40    	0.716438	0.00564449	0.712967	0.731476
104	40    	0.716901	0.00572019	0.712967	0.731476
105	40    	0.716901	0.00572019	0.712967	0.731476
106	40    	0.717364	0.00575778	0.712967	0.731476
107	40    	0.717364	0.00575778	0.712967	0.731476
108	40    	0.717364	0.00575778	0.712967	0.731476
109	40    	0.717364	0.00575778	0.712967	0.731476
110	40    	0.717827	0.00575799	0.712967	0.731476
111	40    	0.717827	0.00575799	0.712967	0.731476
112	40    	0.717827	0.00575799	0.712967	0.731476
113	40    	0.717827	0.00575799	0.712967	0.731476
114	40    	0.71991 	0.00976395	0.712967	0.754623
115	40    	0.71991 	0.00976395	0.712967	0.754623
116	40    	0.71991 	0.00976395	0.712967	0.754623
117	40    	0.721066	0.00980482	0.712967	0.754623
118	40    	0.721297	0.00966464	0.712967	0.754623
119	40    	0.722224	0.00925713	0.712967	0.754623
120	40    	0.723381	0.00947197	0.712967	0.754623
121	40    	0.723381	0.00947197	0.712967	0.754623
122	40    	0.723612	0.00926924	0.712967	0.754623
123	40    	0.723612	0.00926924	0.712967	0.754623
124	40    	0.725927	0.0117661 	0.712967	0.759262
125	40    	0.725927	0.0117661 	0.712967	0.759262
126	40    	0.725927	0.0117661 	0.712967	0.759262
127	40    	0.727547	0.0120967 	0.71759 	0.759262
128	40    	0.727547	0.0120967 	0.71759 	0.759262
129	40    	0.728011	0.011882  	0.71759 	0.759262
130	40    	0.728011	0.011882  	0.71759 	0.759262
131	40    	0.729168	0.0119379 	0.71759 	0.759262
132	40    	0.730788	0.0109811 	0.71759 	0.759262
133	40    	0.73264 	0.0107446 	0.722229	0.759262
134	40    	0.733102	0.0104824 	0.722229	0.759262
135	40    	0.733102	0.0104824 	0.722229	0.759262
136	40    	0.73426 	0.0104959 	0.722229	0.759262
137	40    	0.734953	0.00991662	0.722229	0.759262
138	40    	0.734953	0.00991662	0.722229	0.759262
139	40    	0.735184	0.00966807	0.726852	0.759262
140	40    	0.735184	0.00966807	0.726852	0.759262
141	40    	0.735416	0.00952023	0.726852	0.759262
142	40    	0.736342	0.00954314	0.726852	0.759262
143	40    	0.736342	0.00954314	0.726852	0.759262
144	40    	0.736342	0.00954314	0.726852	0.759262
145	40    	0.736342	0.00954314	0.726852	0.759262
146	40    	0.736342	0.00954314	0.726852	0.759262
147	40    	0.736573	0.0093648 	0.726852	0.759262
148	40    	0.736573	0.0093648 	0.726852	0.759262
149	40    	0.737962	0.00930783	0.726852	0.759262
150	40    	0.737962	0.00930783	0.726852	0.759262
151	40    	0.738193	0.00908376	0.726852	0.759262
152	40    	0.738887	0.00871358	0.731476	0.759262
153	40    	0.739119	0.00857384	0.731476	0.759262
154	40    	0.739582	0.00839681	0.731476	0.759262
155	40    	0.739582	0.00839681	0.731476	0.759262
156	40    	0.739582	0.00839681	0.731476	0.759262
157	40    	0.739582	0.00839681	0.731476	0.759262
158	40    	0.741203	0.00970195	0.731476	0.763885
159	40    	0.741666	0.00944424	0.731476	0.763885
160	40    	0.742823	0.00954242	0.731476	0.763885
161	40    	0.743055	0.00931752	0.731476	0.763885
162	40    	0.743055	0.00931752	0.731476	0.763885
163	40    	0.743055	0.00931752	0.731476	0.763885
164	40    	0.743055	0.00931752	0.731476	0.763885
165	40    	0.743287	0.00908114	0.731476	0.763885
166	40    	0.743751	0.00857007	0.731476	0.763885
167	40    	0.743751	0.00857007	0.731476	0.763885
168	40    	0.744446	0.008097  	0.736115	0.763885
169	40    	0.744446	0.008097  	0.736115	0.763885
170	40    	0.744446	0.008097  	0.736115	0.763885
171	40    	0.744446	0.008097  	0.736115	0.763885
172	40    	0.744909	0.00786891	0.736115	0.763885
173	40    	0.74514 	0.00767262	0.736115	0.763885
174	40    	0.74514 	0.00767262	0.736115	0.763885
175	40    	0.74514 	0.00767262	0.736115	0.763885
176	40    	0.74514 	0.00767262	0.736115	0.763885
177	40    	0.74514 	0.00767262	0.736115	0.763885
178	40    	0.74514 	0.00767262	0.736115	0.763885
179	40    	0.74514 	0.00767262	0.736115	0.763885
180	40    	0.74514 	0.00767262	0.736115	0.763885
181	40    	0.745834	0.0074495 	0.736115	0.763885
182	40    	0.745834	0.0074495 	0.736115	0.763885
183	40    	0.746529	0.0071524 	0.736115	0.763885
184	40    	0.746529	0.0071524 	0.736115	0.763885
185	40    	0.746529	0.0071524 	0.736115	0.763885
186	40    	0.746529	0.0071524 	0.736115	0.763885
187	40    	0.746529	0.0071524 	0.736115	0.763885
188	40    	0.746529	0.0071524 	0.736115	0.763885
189	40    	0.746529	0.0071524 	0.736115	0.763885
190	40    	0.746529	0.0071524 	0.736115	0.763885
191	40    	0.746529	0.0071524 	0.736115	0.763885
192	40    	0.746529	0.0071524 	0.736115	0.763885
193	40    	0.746529	0.0071524 	0.736115	0.763885
194	40    	0.74676 	0.00688167	0.736115	0.763885
195	40    	0.74676 	0.00688167	0.736115	0.763885
196	40    	0.74676 	0.00688167	0.736115	0.763885
197	40    	0.74676 	0.00688167	0.736115	0.763885
198	40    	0.74676 	0.00688167	0.736115	0.763885
199	40    	0.74676 	0.00688167	0.736115	0.763885
200	40    	0.74676 	0.00688167	0.736115	0.763885
201	40    	0.74676 	0.00688167	0.736115	0.763885
202	40    	0.74676 	0.00688167	0.736115	0.763885
203	40    	0.746991	0.00659173	0.740738	0.763885
204	40    	0.746991	0.00659173	0.740738	0.763885
205	40    	0.746991	0.00659173	0.740738	0.763885
206	40    	0.746991	0.00659173	0.740738	0.763885
207	40    	0.746991	0.00659173	0.740738	0.763885
208	40    	0.746991	0.00659173	0.740738	0.763885
209	40    	0.746991	0.00659173	0.740738	0.763885
210	40    	0.746991	0.00659173	0.740738	0.763885
211	40    	0.746991	0.00659173	0.740738	0.763885
212	40    	0.746991	0.00659173	0.740738	0.763885
213	40    	0.746991	0.00659173	0.740738	0.763885
214	40    	0.747685	0.00662771	0.740738	0.763885
215	40    	0.747685	0.00662771	0.740738	0.763885
216	40    	0.747917	0.00645957	0.740738	0.763885
217	40    	0.747917	0.00645957	0.740738	0.763885
218	40    	0.747917	0.00645957	0.740738	0.763885
219	40    	0.747917	0.00645957	0.740738	0.763885
220	40    	0.747917	0.00645957	0.740738	0.763885
221	40    	0.747917	0.00645957	0.740738	0.763885
222	40    	0.747917	0.00645957	0.740738	0.763885
223	40    	0.748149	0.00627837	0.740738	0.763885
224	40    	0.748149	0.00627837	0.740738	0.763885
225	40    	0.748149	0.00627837	0.740738	0.763885
226	40    	0.748149	0.00627837	0.740738	0.763885
227	40    	0.748149	0.00627837	0.740738	0.763885
228	40    	0.748149	0.00627837	0.740738	0.763885
229	40    	0.748149	0.00627837	0.740738	0.763885
230	40    	0.748149	0.00627837	0.740738	0.763885
231	40    	0.748149	0.00627837	0.740738	0.763885
232	40    	0.749075	0.00647986	0.740738	0.763885
233	40    	0.749075	0.00647986	0.740738	0.763885
234	40    	0.749075	0.00647986	0.740738	0.763885
235	40    	0.749075	0.00647986	0.740738	0.763885
236	40    	0.749075	0.00647986	0.740738	0.763885
237	40    	0.749075	0.00647986	0.740738	0.763885
238	40    	0.749307	0.00625646	0.740738	0.763885
239	40    	0.749307	0.00625646	0.740738	0.763885
240	40    	0.749307	0.00625646	0.740738	0.763885
241	40    	0.749307	0.00625646	0.740738	0.763885
242	40    	0.749307	0.00625646	0.740738	0.763885
243	40    	0.749307	0.00625646	0.740738	0.763885
244	40    	0.749307	0.00625646	0.740738	0.763885
245	40    	0.749307	0.00625646	0.740738	0.763885
246	40    	0.749307	0.00625646	0.740738	0.763885
247	40    	0.749539	0.00601584	0.740738	0.763885
248	40    	0.749539	0.00601584	0.740738	0.763885
249	40    	0.749539	0.00601584	0.740738	0.763885
250	40    	0.749539	0.00601584	0.740738	0.763885
