gen	nevals	avg     	std       	min     	max     
0  	20    	0.592623	0.0187243 	0.548615	0.619797
1  	40    	0.598612	0.0119105 	0.583328	0.619797
2  	40    	0.604516	0.00815256	0.59549 	0.619797
3  	40    	0.609375	0.00665721	0.600693	0.619797
4  	40    	0.615798	0.00910607	0.605896	0.645828
5  	40    	0.618317	0.00870144	0.607635	0.645828
6  	40    	0.618925	0.00835168	0.609375	0.645828
7  	40    	0.619705	0.00784959	0.612854	0.645828
8  	40    	0.622135	0.00849168	0.614578	0.645828
9  	40    	0.623525	0.0080726 	0.616318	0.645828
10 	40    	0.624828	0.00762334	0.618057	0.645828
11 	40    	0.625523	0.00726302	0.618057	0.645828
12 	40    	0.625957	0.00706049	0.619797	0.645828
13 	40    	0.626303	0.00685314	0.619797	0.645828
14 	40    	0.626736	0.00656447	0.619797	0.645828
15 	40    	0.628298	0.00588469	0.621521	0.645828
16 	40    	0.629253	0.00602497	0.62326 	0.645828
17 	40    	0.630903	0.00645738	0.62326 	0.645828
18 	40    	0.631598	0.00592616	0.62674 	0.645828
19 	40    	0.632292	0.00595137	0.62674 	0.645828
20 	40    	0.633247	0.00542953	0.62674 	0.645828
21 	40    	0.634288	0.00532943	0.628479	0.645828
22 	40    	0.634288	0.00532943	0.628479	0.645828
23 	40    	0.635589	0.00514772	0.628479	0.645828
24 	40    	0.63663 	0.00568302	0.630203	0.649307
25 	40    	0.638888	0.00603924	0.630203	0.652771
26 	40    	0.63967 	0.00539169	0.631943	0.652771
27 	40    	0.640191	0.00487454	0.633682	0.652771
28 	40    	0.64184 	0.00661245	0.633682	0.663193
29 	40    	0.64184 	0.00661245	0.633682	0.663193
30 	40    	0.643402	0.0057153 	0.638885	0.663193
31 	40    	0.643402	0.0057153 	0.638885	0.663193
32 	40    	0.643749	0.00564079	0.638885	0.663193
33 	40    	0.643749	0.00564079	0.638885	0.663193
34 	40    	0.644617	0.00613965	0.638885	0.663193
35 	40    	0.644617	0.00613965	0.638885	0.663193
36 	40    	0.645139	0.00607295	0.640625	0.663193
37 	40    	0.645139	0.00607295	0.640625	0.663193
38 	40    	0.645139	0.00607295	0.640625	0.663193
39 	40    	0.645139	0.00607295	0.640625	0.663193
40 	40    	0.645139	0.00607295	0.640625	0.663193
41 	40    	0.645139	0.00607295	0.640625	0.663193
42 	40    	0.645399	0.00598483	0.640625	0.663193
43 	40    	0.645399	0.00598483	0.640625	0.663193
44 	40    	0.645399	0.00598483	0.640625	0.663193
45 	40    	0.64592 	0.00600019	0.640625	0.663193
46 	40    	0.646094	0.00589365	0.640625	0.663193
47 	40    	0.646094	0.00589365	0.640625	0.663193
48 	40    	0.646094	0.00589365	0.640625	0.663193
49 	40    	0.646701	0.00561139	0.640625	0.663193
50 	40    	0.647048	0.00543681	0.640625	0.663193
51 	40    	0.647048	0.00543681	0.640625	0.663193
52 	40    	0.647048	0.00543681	0.640625	0.663193
53 	40    	0.647222	0.00528197	0.640625	0.663193
54 	40    	0.647569	0.00506049	0.642365	0.663193
55 	40    	0.648958	0.00691286	0.642365	0.670135
56 	40    	0.649392	0.00666604	0.642365	0.670135
57 	40    	0.649911	0.00633807	0.644104	0.670135
58 	40    	0.650259	0.00615008	0.645828	0.670135
59 	40    	0.650259	0.00615008	0.645828	0.670135
60 	40    	0.651214	0.0068334 	0.645828	0.670135
61 	40    	0.651562	0.00665883	0.645828	0.670135
62 	40    	0.651562	0.00665883	0.645828	0.670135
63 	40    	0.651562	0.00665883	0.645828	0.670135
64 	40    	0.651562	0.00665883	0.645828	0.670135
65 	40    	0.652864	0.00682315	0.645828	0.670135
66 	40    	0.652864	0.00682315	0.645828	0.670135
67 	40    	0.652864	0.00682315	0.645828	0.670135
68 	40    	0.652864	0.00682315	0.645828	0.670135
69 	40    	0.652864	0.00682315	0.645828	0.670135
70 	40    	0.653038	0.0066845 	0.647568	0.670135
71 	40    	0.653038	0.0066845 	0.647568	0.670135
72 	40    	0.653038	0.0066845 	0.647568	0.670135
73 	40    	0.653125	0.0066238 	0.647568	0.670135
74 	40    	0.653125	0.0066238 	0.647568	0.670135
75 	40    	0.653125	0.0066238 	0.647568	0.670135
76 	40    	0.653385	0.00650147	0.647568	0.670135
77 	40    	0.653732	0.00636552	0.647568	0.670135
78 	40    	0.653732	0.00636552	0.647568	0.670135
79 	40    	0.653732	0.00636552	0.647568	0.670135
80 	40    	0.653732	0.00636552	0.647568	0.670135
81 	40    	0.65408 	0.006109  	0.649307	0.670135
82 	40    	0.65408 	0.006109  	0.649307	0.670135
83 	40    	0.65408 	0.006109  	0.649307	0.670135
84 	40    	0.65408 	0.006109  	0.649307	0.670135
85 	40    	0.65408 	0.006109  	0.649307	0.670135
86 	40    	0.654948	0.0065844 	0.649307	0.670135
87 	40    	0.65599 	0.00722572	0.649307	0.670135
88 	40    	0.65599 	0.00722572	0.649307	0.670135
89 	40    	0.65599 	0.00722572	0.649307	0.670135
90 	40    	0.657378	0.00838369	0.649307	0.677078
91 	40    	0.657726	0.00818365	0.649307	0.677078
92 	40    	0.65816 	0.0079526 	0.649307	0.677078
93 	40    	0.65816 	0.0079526 	0.649307	0.677078
94 	40    	0.658333	0.00779407	0.649307	0.677078
95 	40    	0.659895	0.00814135	0.651047	0.677078
96 	40    	0.661457	0.00726391	0.652771	0.677078
97 	40    	0.661979	0.00674867	0.65451 	0.677078
98 	40    	0.662587	0.00631379	0.65451 	0.677078
99 	40    	0.662587	0.00631379	0.65451 	0.677078
100	40    	0.663195	0.00608827	0.65625 	0.677078
101	40    	0.663976	0.00569117	0.65625 	0.677078
102	40    	0.664323	0.00533008	0.65799 	0.677078
103	40    	0.664844	0.00519253	0.65799 	0.677078
104	40    	0.665278	0.00483572	0.659729	0.677078
105	40    	0.665278	0.00483572	0.659729	0.677078
106	40    	0.666059	0.00512941	0.659729	0.677078
107	40    	0.666059	0.00512941	0.659729	0.677078
108	40    	0.666232	0.00496871	0.659729	0.677078
109	40    	0.666232	0.00496871	0.659729	0.677078
110	40    	0.666492	0.00475293	0.661453	0.677078
111	40    	0.66684 	0.00449147	0.661453	0.677078
112	40    	0.667014	0.00434443	0.661453	0.677078
113	40    	0.667014	0.00434443	0.661453	0.677078
114	40    	0.667188	0.00418501	0.663193	0.677078
115	40    	0.667188	0.00418501	0.663193	0.677078
116	40    	0.667188	0.00418501	0.663193	0.677078
117	40    	0.667188	0.00418501	0.663193	0.677078
118	40    	0.667188	0.00418501	0.663193	0.677078
119	40    	0.667622	0.00419832	0.663193	0.677078
120	40    	0.667622	0.00419832	0.663193	0.677078
121	40    	0.667622	0.00419832	0.663193	0.677078
122	40    	0.667622	0.00419832	0.663193	0.677078
123	40    	0.667622	0.00419832	0.663193	0.677078
124	40    	0.667622	0.00419832	0.663193	0.677078
125	40    	0.667622	0.00419832	0.663193	0.677078
126	40    	0.668056	0.0041666 	0.663193	0.677078
127	40    	0.668056	0.0041666 	0.663193	0.677078
128	40    	0.668056	0.0041666 	0.663193	0.677078
129	40    	0.668404	0.00392024	0.664932	0.677078
130	40    	0.668925	0.0039242 	0.664932	0.677078
131	40    	0.668925	0.0039242 	0.664932	0.677078
132	40    	0.668925	0.0039242 	0.664932	0.677078
133	40    	0.668925	0.0039242 	0.664932	0.677078
134	40    	0.669619	0.0043605 	0.664932	0.678818
135	40    	0.669706	0.00428281	0.664932	0.678818
136	40    	0.669706	0.00428281	0.664932	0.678818
137	40    	0.670313	0.0039924 	0.664932	0.678818
138	40    	0.670313	0.0039924 	0.664932	0.678818
139	40    	0.670313	0.0039924 	0.664932	0.678818
140	40    	0.670313	0.0039924 	0.664932	0.678818
141	40    	0.670747	0.0038533 	0.664932	0.678818
142	40    	0.670747	0.0038533 	0.664932	0.678818
143	40    	0.670747	0.0038533 	0.664932	0.678818
144	40    	0.670921	0.00366109	0.666672	0.678818
145	40    	0.670921	0.00366109	0.666672	0.678818
146	40    	0.670921	0.00366109	0.666672	0.678818
147	40    	0.670921	0.00366109	0.666672	0.678818
148	40    	0.670921	0.00366109	0.666672	0.678818
149	40    	0.672048	0.00391675	0.666672	0.678818
150	40    	0.672048	0.00391675	0.666672	0.678818
151	40    	0.672742	0.00412721	0.666672	0.680557
152	40    	0.672742	0.00412721	0.666672	0.680557
153	40    	0.672742	0.00412721	0.666672	0.680557
154	40    	0.672829	0.00401601	0.666672	0.680557
155	40    	0.672829	0.00401601	0.666672	0.680557
156	40    	0.672829	0.00401601	0.666672	0.680557
157	40    	0.672829	0.00401601	0.666672	0.680557
158	40    	0.672829	0.00401601	0.666672	0.680557
159	40    	0.673176	0.00376076	0.668396	0.680557
160	40    	0.673176	0.00376076	0.668396	0.680557
161	40    	0.673176	0.00376076	0.668396	0.680557
162	40    	0.67335 	0.00361322	0.668396	0.680557
163	40    	0.67335 	0.00361322	0.668396	0.680557
164	40    	0.67335 	0.00361322	0.668396	0.680557
165	40    	0.67335 	0.00361322	0.668396	0.680557
166	40    	0.673784	0.00351212	0.668396	0.680557
167	40    	0.673784	0.00351212	0.668396	0.680557
168	40    	0.673784	0.00351212	0.668396	0.680557
169	40    	0.673784	0.00351212	0.668396	0.680557
170	40    	0.673784	0.00351212	0.668396	0.680557
171	40    	0.673784	0.00351212	0.668396	0.680557
172	40    	0.675   	0.00382664	0.670135	0.68576 
173	40    	0.675   	0.00382664	0.670135	0.68576 
174	40    	0.675   	0.00382664	0.670135	0.68576 
175	40    	0.675   	0.00382664	0.670135	0.68576 
176	40    	0.675   	0.00382664	0.670135	0.68576 
177	40    	0.675   	0.00382664	0.670135	0.68576 
178	40    	0.675   	0.00382664	0.670135	0.68576 
179	40    	0.675   	0.00382664	0.670135	0.68576 
180	40    	0.675   	0.00382664	0.670135	0.68576 
181	40    	0.675   	0.00382664	0.670135	0.68576 
182	40    	0.675   	0.00382664	0.670135	0.68576 
183	40    	0.675   	0.00382664	0.670135	0.68576 
184	40    	0.675087	0.00373372	0.670135	0.68576 
185	40    	0.675435	0.00349141	0.671875	0.68576 
186	40    	0.675435	0.00349141	0.671875	0.68576 
187	40    	0.675435	0.00349141	0.671875	0.68576 
188	40    	0.675435	0.00349141	0.671875	0.68576 
189	40    	0.675435	0.00349141	0.671875	0.68576 
190	40    	0.675435	0.00349141	0.671875	0.68576 
191	40    	0.675435	0.00349141	0.671875	0.68576 
192	40    	0.675435	0.00349141	0.671875	0.68576 
193	40    	0.675435	0.00349141	0.671875	0.68576 
194	40    	0.675435	0.00349141	0.671875	0.68576 
195	40    	0.675956	0.00335017	0.671875	0.68576 
196	40    	0.675956	0.00335017	0.671875	0.68576 
197	40    	0.675956	0.00335017	0.671875	0.68576 
198	40    	0.675956	0.00335017	0.671875	0.68576 
199	40    	0.675956	0.00335017	0.671875	0.68576 
200	40    	0.675956	0.00335017	0.671875	0.68576 
201	40    	0.675956	0.00335017	0.671875	0.68576 
202	40    	0.675956	0.00335017	0.671875	0.68576 
203	40    	0.67639 	0.00335575	0.671875	0.68576 
204	40    	0.67639 	0.00335575	0.671875	0.68576 
205	40    	0.67639 	0.00335575	0.671875	0.68576 
206	40    	0.67639 	0.00335575	0.671875	0.68576 
207	40    	0.67639 	0.00335575	0.671875	0.68576 
208	40    	0.67639 	0.00335575	0.671875	0.68576 
209	40    	0.67639 	0.00335575	0.671875	0.68576 
210	40    	0.67639 	0.00335575	0.671875	0.68576 
211	40    	0.67639 	0.00335575	0.671875	0.68576 
212	40    	0.676824	0.00330478	0.671875	0.68576 
213	40    	0.676824	0.00330478	0.671875	0.68576 
214	40    	0.676824	0.00330478	0.671875	0.68576 
215	40    	0.676824	0.00330478	0.671875	0.68576 
216	40    	0.676824	0.00330478	0.671875	0.68576 
217	40    	0.676824	0.00330478	0.671875	0.68576 
218	40    	0.676824	0.00330478	0.671875	0.68576 
219	40    	0.676824	0.00330478	0.671875	0.68576 
220	40    	0.676824	0.00330478	0.671875	0.68576 
221	40    	0.676824	0.00330478	0.671875	0.68576 
222	40    	0.676824	0.00330478	0.671875	0.68576 
223	40    	0.676824	0.00330478	0.671875	0.68576 
224	40    	0.676824	0.00330478	0.671875	0.68576 
225	40    	0.676824	0.00330478	0.671875	0.68576 
226	40    	0.676824	0.00330478	0.671875	0.68576 
227	40    	0.676824	0.00330478	0.671875	0.68576 
228	40    	0.676824	0.00330478	0.671875	0.68576 
229	40    	0.676824	0.00330478	0.671875	0.68576 
230	40    	0.676824	0.00330478	0.671875	0.68576 
231	40    	0.676824	0.00330478	0.671875	0.68576 
232	40    	0.676824	0.00330478	0.671875	0.68576 
233	40    	0.676824	0.00330478	0.671875	0.68576 
234	40    	0.676824	0.00330478	0.671875	0.68576 
235	40    	0.676824	0.00330478	0.671875	0.68576 
236	40    	0.676824	0.00330478	0.671875	0.68576 
237	40    	0.676824	0.00330478	0.671875	0.68576 
238	40    	0.676824	0.00330478	0.671875	0.68576 
239	40    	0.676824	0.00330478	0.671875	0.68576 
240	40    	0.676824	0.00330478	0.671875	0.68576 
241	40    	0.676824	0.00330478	0.671875	0.68576 
242	40    	0.676824	0.00330478	0.671875	0.68576 
243	40    	0.676998	0.00312645	0.673615	0.68576 
244	40    	0.677085	0.00305448	0.673615	0.68576 
245	40    	0.677085	0.00305448	0.673615	0.68576 
246	40    	0.677085	0.00305448	0.673615	0.68576 
247	40    	0.677085	0.00305448	0.673615	0.68576 
248	40    	0.677085	0.00305448	0.673615	0.68576 
249	40    	0.677085	0.00305448	0.673615	0.68576 
250	40    	0.677172	0.00297823	0.673615	0.68576 
