gen	nevals	avg     	std       	min     	max     
0  	20    	0.584429	0.0336522 	0.480972	0.640137
1  	40    	0.615226	0.020694  	0.59169 	0.660904
2  	40    	0.628376	0.0165386 	0.60553 	0.660904
3  	40    	0.637028	0.0164448 	0.612457	0.681656
4  	40    	0.642563	0.0145611 	0.626297	0.681656
5  	40    	0.644293	0.0135603 	0.626297	0.681656
6  	40    	0.651559	0.0118402 	0.633224	0.681656
7  	40    	0.653635	0.0108262 	0.640137	0.681656
8  	40    	0.654328	0.0101402 	0.640137	0.681656
9  	40    	0.655367	0.00968693	0.647064	0.681656
10 	40    	0.659864	0.01204   	0.647064	0.688583
11 	40    	0.664707	0.0124695 	0.647064	0.695496
12 	40    	0.667129	0.0134706 	0.647064	0.695496
13 	40    	0.670935	0.0120777 	0.660904	0.695496
14 	40    	0.672665	0.0113896 	0.660904	0.695496
15 	40    	0.674741	0.0111565 	0.660904	0.695496
16 	40    	0.677508	0.0101224 	0.660904	0.695496
17 	40    	0.679237	0.0090957 	0.667816	0.695496
18 	40    	0.680621	0.00826783	0.667816	0.695496
19 	40    	0.68339 	0.00721489	0.674744	0.695496
20 	40    	0.684428	0.00670827	0.674744	0.695496
21 	40    	0.686504	0.00540507	0.674744	0.695496
22 	40    	0.686504	0.00540507	0.674744	0.695496
23 	40    	0.687196	0.0046944 	0.681656	0.695496
24 	40    	0.68858 	0.00489308	0.681656	0.695496
25 	40    	0.68858 	0.00489308	0.681656	0.695496
26 	40    	0.68858 	0.00489308	0.681656	0.695496
27 	40    	0.693078	0.00882697	0.681656	0.716263
28 	40    	0.695847	0.0112585 	0.688583	0.730103
29 	40    	0.697231	0.0119601 	0.688583	0.730103
30 	40    	0.697231	0.0119601 	0.688583	0.730103
31 	40    	0.697923	0.0118395 	0.688583	0.730103
32 	40    	0.701037	0.012302  	0.688583	0.730103
33 	40    	0.701382	0.0120417 	0.688583	0.730103
34 	40    	0.704496	0.0124002 	0.688583	0.730103
35 	40    	0.707264	0.0124008 	0.695496	0.730103
36 	40    	0.707264	0.0124008 	0.695496	0.730103
37 	40    	0.708649	0.0119681 	0.695496	0.730103
38 	40    	0.709341	0.0115814 	0.695496	0.730103
39 	40    	0.710033	0.0109209 	0.695496	0.730103
40 	40    	0.710726	0.0101707 	0.702423	0.730103
41 	40    	0.71384 	0.0107834 	0.702423	0.73703 
42 	40    	0.715223	0.00985596	0.702423	0.73703 
43 	40    	0.715915	0.00940868	0.702423	0.73703 
44 	40    	0.717645	0.00891953	0.709335	0.73703 
45 	40    	0.717645	0.00891953	0.709335	0.73703 
46 	40    	0.717645	0.00891953	0.709335	0.73703 
47 	40    	0.717645	0.00891953	0.709335	0.73703 
48 	40    	0.717991	0.00872246	0.709335	0.73703 
49 	40    	0.719376	0.00861138	0.709335	0.73703 
50 	40    	0.719376	0.00861138	0.709335	0.73703 
51 	40    	0.719376	0.00861138	0.709335	0.73703 
52 	40    	0.719722	0.00833547	0.709335	0.73703 
53 	40    	0.719722	0.00833547	0.709335	0.73703 
54 	40    	0.720415	0.00801296	0.709335	0.73703 
55 	40    	0.720415	0.00801296	0.709335	0.73703 
56 	40    	0.720415	0.00801296	0.709335	0.73703 
57 	40    	0.720761	0.00766888	0.709335	0.73703 
58 	40    	0.720761	0.00766888	0.709335	0.73703 
59 	40    	0.720761	0.00766888	0.709335	0.73703 
60 	40    	0.721107	0.00729219	0.709335	0.73703 
61 	40    	0.721107	0.00729219	0.709335	0.73703 
62 	40    	0.722492	0.0068861 	0.716263	0.73703 
63 	40    	0.722492	0.0068861 	0.716263	0.73703 
64 	40    	0.722492	0.0068861 	0.716263	0.73703 
65 	40    	0.722492	0.0068861 	0.716263	0.73703 
66 	40    	0.722492	0.0068861 	0.716263	0.73703 
67 	40    	0.722492	0.0068861 	0.716263	0.73703 
68 	40    	0.723531	0.00673645	0.716263	0.73703 
69 	40    	0.723531	0.00673645	0.716263	0.73703 
70 	40    	0.724223	0.00666479	0.716263	0.73703 
71 	40    	0.724223	0.00666479	0.716263	0.73703 
72 	40    	0.724223	0.00666479	0.716263	0.73703 
73 	40    	0.724915	0.00651931	0.716263	0.73703 
74 	40    	0.724915	0.00651931	0.716263	0.73703 
75 	40    	0.725261	0.00622796	0.716263	0.73703 
76 	40    	0.725261	0.00622796	0.716263	0.73703 
77 	40    	0.725261	0.00622796	0.716263	0.73703 
78 	40    	0.725261	0.00622796	0.716263	0.73703 
79 	40    	0.725261	0.00622796	0.716263	0.73703 
80 	40    	0.725607	0.005902  	0.716263	0.73703 
81 	40    	0.725607	0.005902  	0.716263	0.73703 
82 	40    	0.725607	0.005902  	0.716263	0.73703 
83 	40    	0.725607	0.005902  	0.716263	0.73703 
84 	40    	0.726299	0.00556769	0.716263	0.73703 
85 	40    	0.726646	0.00513088	0.716263	0.73703 
86 	40    	0.726646	0.00513088	0.716263	0.73703 
87 	40    	0.726646	0.00513088	0.716263	0.73703 
88 	40    	0.728376	0.00687619	0.716263	0.75087 
89 	40    	0.728376	0.00687619	0.716263	0.75087 
90 	40    	0.728722	0.00641639	0.72319 	0.75087 
91 	40    	0.728722	0.00641639	0.72319 	0.75087 
92 	40    	0.730798	0.0075477 	0.72319 	0.75087 
93 	40    	0.73149 	0.00745235	0.72319 	0.75087 
94 	40    	0.732527	0.00701457	0.72319 	0.75087 
95 	40    	0.732527	0.00701457	0.72319 	0.75087 
96 	40    	0.732527	0.00701457	0.72319 	0.75087 
97 	40    	0.733219	0.00673649	0.72319 	0.75087 
98 	40    	0.734257	0.00595464	0.730103	0.75087 
99 	40    	0.734257	0.00595464	0.730103	0.75087 
100	40    	0.734257	0.00595464	0.730103	0.75087 
101	40    	0.734257	0.00595464	0.730103	0.75087 
102	40    	0.734603	0.00590419	0.730103	0.75087 
103	40    	0.734603	0.00590419	0.730103	0.75087 
104	40    	0.734603	0.00590419	0.730103	0.75087 
105	40    	0.734949	0.00583277	0.730103	0.75087 
106	40    	0.734949	0.00583277	0.730103	0.75087 
107	40    	0.734949	0.00583277	0.730103	0.75087 
108	40    	0.734949	0.00583277	0.730103	0.75087 
109	40    	0.735988	0.00666642	0.730103	0.75087 
110	40    	0.735988	0.00666642	0.730103	0.75087 
111	40    	0.735988	0.00666642	0.730103	0.75087 
112	40    	0.735988	0.00666642	0.730103	0.75087 
113	40    	0.735988	0.00666642	0.730103	0.75087 
114	40    	0.735988	0.00666642	0.730103	0.75087 
115	40    	0.735988	0.00666642	0.730103	0.75087 
116	40    	0.735988	0.00666642	0.730103	0.75087 
117	40    	0.735988	0.00666642	0.730103	0.75087 
118	40    	0.73668 	0.00673751	0.730103	0.75087 
119	40    	0.73668 	0.00673751	0.730103	0.75087 
120	40    	0.73668 	0.00673751	0.730103	0.75087 
121	40    	0.737026	0.00656637	0.730103	0.75087 
122	40    	0.737026	0.00656637	0.730103	0.75087 
123	40    	0.737026	0.00656637	0.730103	0.75087 
124	40    	0.737026	0.00656637	0.730103	0.75087 
125	40    	0.737026	0.00656637	0.730103	0.75087 
126	40    	0.737026	0.00656637	0.730103	0.75087 
127	40    	0.737718	0.0065294 	0.730103	0.75087 
128	40    	0.737718	0.0065294 	0.730103	0.75087 
129	40    	0.738065	0.00629578	0.730103	0.75087 
130	40    	0.738065	0.00629578	0.730103	0.75087 
131	40    	0.738065	0.00629578	0.730103	0.75087 
132	40    	0.738065	0.00629578	0.730103	0.75087 
133	40    	0.738065	0.00629578	0.730103	0.75087 
134	40    	0.738065	0.00629578	0.730103	0.75087 
135	40    	0.740141	0.0094054 	0.730103	0.771622
136	40    	0.740141	0.0094054 	0.730103	0.771622
137	40    	0.740141	0.0094054 	0.730103	0.771622
138	40    	0.740141	0.0094054 	0.730103	0.771622
139	40    	0.741871	0.0105172 	0.730103	0.771622
140	40    	0.741871	0.0105172 	0.730103	0.771622
141	40    	0.742909	0.0103275 	0.730103	0.771622
142	40    	0.742909	0.0103275 	0.730103	0.771622
143	40    	0.743601	0.00990106	0.730103	0.771622
144	40    	0.744293	0.00940464	0.73703 	0.771622
145	40    	0.744985	0.00935379	0.73703 	0.771622
146	40    	0.744985	0.00935379	0.73703 	0.771622
147	40    	0.744985	0.00935379	0.73703 	0.771622
148	40    	0.744985	0.00935379	0.73703 	0.771622
149	40    	0.744985	0.00935379	0.73703 	0.771622
150	40    	0.744985	0.00935379	0.73703 	0.771622
151	40    	0.744985	0.00935379	0.73703 	0.771622
152	40    	0.744985	0.00935379	0.73703 	0.771622
153	40    	0.744985	0.00935379	0.73703 	0.771622
154	40    	0.744985	0.00935379	0.73703 	0.771622
155	40    	0.744985	0.00935379	0.73703 	0.771622
156	40    	0.744985	0.00935379	0.73703 	0.771622
157	40    	0.745331	0.00917954	0.73703 	0.771622
158	40    	0.745331	0.00917954	0.73703 	0.771622
159	40    	0.745331	0.00917954	0.73703 	0.771622
160	40    	0.745331	0.00917954	0.73703 	0.771622
161	40    	0.745331	0.00917954	0.73703 	0.771622
162	40    	0.746023	0.00904843	0.73703 	0.771622
163	40    	0.746023	0.00904843	0.73703 	0.771622
164	40    	0.746023	0.00904843	0.73703 	0.771622
165	40    	0.746023	0.00904843	0.73703 	0.771622
166	40    	0.74706 	0.00914701	0.73703 	0.771622
167	40    	0.74706 	0.00914701	0.73703 	0.771622
168	40    	0.74706 	0.00914701	0.73703 	0.771622
169	40    	0.747752	0.00888167	0.73703 	0.771622
170	40    	0.747752	0.00888167	0.73703 	0.771622
171	40    	0.750174	0.00951296	0.73703 	0.771622
172	40    	0.751212	0.00914745	0.73703 	0.771622
173	40    	0.751557	0.00872598	0.743942	0.771622
174	40    	0.751557	0.00872598	0.743942	0.771622
175	40    	0.751557	0.00872598	0.743942	0.771622
176	40    	0.751557	0.00872598	0.743942	0.771622
177	40    	0.751557	0.00872598	0.743942	0.771622
178	40    	0.751557	0.00872598	0.743942	0.771622
179	40    	0.751557	0.00872598	0.743942	0.771622
180	40    	0.751904	0.0085526 	0.743942	0.771622
181	40    	0.752596	0.0084396 	0.743942	0.771622
182	40    	0.752596	0.0084396 	0.743942	0.771622
183	40    	0.752942	0.00821656	0.743942	0.771622
184	40    	0.752942	0.00821656	0.743942	0.771622
185	40    	0.752942	0.00821656	0.743942	0.771622
186	40    	0.752942	0.00821656	0.743942	0.771622
187	40    	0.752942	0.00821656	0.743942	0.771622
188	40    	0.754327	0.0080395 	0.743942	0.771622
189	40    	0.754327	0.0080395 	0.743942	0.771622
190	40    	0.754673	0.00772782	0.743942	0.771622
191	40    	0.756749	0.00985132	0.743942	0.785461
192	40    	0.756749	0.00985132	0.743942	0.785461
193	40    	0.756749	0.00985132	0.743942	0.785461
194	40    	0.757095	0.00951085	0.75087 	0.785461
195	40    	0.757095	0.00951085	0.75087 	0.785461
196	40    	0.757095	0.00951085	0.75087 	0.785461
197	40    	0.757441	0.00940332	0.75087 	0.785461
198	40    	0.757441	0.00940332	0.75087 	0.785461
199	40    	0.757441	0.00940332	0.75087 	0.785461
200	40    	0.757787	0.00928169	0.75087 	0.785461
201	40    	0.757787	0.00928169	0.75087 	0.785461
202	40    	0.758132	0.0091454 	0.75087 	0.785461
203	40    	0.75917 	0.00943519	0.75087 	0.785461
204	40    	0.75917 	0.00943519	0.75087 	0.785461
205	40    	0.75917 	0.00943519	0.75087 	0.785461
206	40    	0.75917 	0.00943519	0.75087 	0.785461
207	40    	0.75917 	0.00943519	0.75087 	0.785461
208	40    	0.75917 	0.00943519	0.75087 	0.785461
209	40    	0.760207	0.00960491	0.75087 	0.785461
210	40    	0.760207	0.00960491	0.75087 	0.785461
211	40    	0.760207	0.00960491	0.75087 	0.785461
212	40    	0.760207	0.00960491	0.75087 	0.785461
213	40    	0.760207	0.00960491	0.75087 	0.785461
214	40    	0.760899	0.00940369	0.75087 	0.785461
215	40    	0.760899	0.00940369	0.75087 	0.785461
216	40    	0.760899	0.00940369	0.75087 	0.785461
217	40    	0.761591	0.00888054	0.75087 	0.785461
218	40    	0.762283	0.0085513 	0.75087 	0.785461
219	40    	0.762283	0.0085513 	0.75087 	0.785461
220	40    	0.762283	0.0085513 	0.75087 	0.785461
221	40    	0.762283	0.0085513 	0.75087 	0.785461
222	40    	0.762283	0.0085513 	0.75087 	0.785461
223	40    	0.762283	0.0085513 	0.75087 	0.785461
224	40    	0.762283	0.0085513 	0.75087 	0.785461
225	40    	0.762975	0.00815033	0.75087 	0.785461
226	40    	0.762975	0.00815033	0.75087 	0.785461
227	40    	0.762975	0.00815033	0.75087 	0.785461
228	40    	0.763667	0.00766637	0.75087 	0.785461
229	40    	0.763667	0.00766637	0.75087 	0.785461
230	40    	0.764359	0.00708243	0.757782	0.785461
231	40    	0.764359	0.00708243	0.757782	0.785461
232	40    	0.764359	0.00708243	0.757782	0.785461
233	40    	0.764359	0.00708243	0.757782	0.785461
234	40    	0.764359	0.00708243	0.757782	0.785461
235	40    	0.764359	0.00708243	0.757782	0.785461
236	40    	0.764705	0.00691986	0.757782	0.785461
237	40    	0.764705	0.00691986	0.757782	0.785461
238	40    	0.764705	0.00691986	0.757782	0.785461
239	40    	0.764705	0.00691986	0.757782	0.785461
240	40    	0.764705	0.00691986	0.757782	0.785461
241	40    	0.764705	0.00691986	0.757782	0.785461
242	40    	0.764705	0.00691986	0.757782	0.785461
243	40    	0.765743	0.00734801	0.757782	0.785461
244	40    	0.765743	0.00734801	0.757782	0.785461
245	40    	0.765743	0.00734801	0.757782	0.785461
246	40    	0.765743	0.00734801	0.757782	0.785461
247	40    	0.766435	0.00721617	0.757782	0.785461
248	40    	0.766435	0.00721617	0.757782	0.785461
249	40    	0.766435	0.00721617	0.757782	0.785461
250	40    	0.766782	0.006954  	0.757782	0.785461
