gen	nevals	avg     	std       	min     	max     
0  	20    	0.587135	0.0220398 	0.553802	0.637802
1  	40    	0.609707	0.0147831 	0.585297	0.637802
2  	40    	0.620208	0.0132102 	0.606293	0.6483  
3  	40    	0.626772	0.011129  	0.611542	0.6483  
4  	40    	0.628348	0.0096277 	0.616791	0.6483  
5  	40    	0.632814	0.00673982	0.62204 	0.6483  
6  	40    	0.637277	0.0106155 	0.627304	0.669296
7  	40    	0.637802	0.010366  	0.627304	0.669296
8  	40    	0.638327	0.010083  	0.627304	0.669296
9  	40    	0.638852	0.00976375	0.627304	0.669296
10 	40    	0.639639	0.00943   	0.632553	0.669296
11 	40    	0.642001	0.00933087	0.632553	0.669296
12 	40    	0.645938	0.0105602 	0.637802	0.674545
13 	40    	0.647775	0.0106155 	0.637802	0.674545
14 	40    	0.648563	0.0101613 	0.637802	0.674545
15 	40    	0.651712	0.0122286 	0.637802	0.685043
16 	40    	0.652499	0.0118074 	0.637802	0.685043
17 	40    	0.656174	0.0108211 	0.643051	0.685043
18 	40    	0.658798	0.0100967 	0.6483  	0.685043
19 	40    	0.66326 	0.00999729	0.6483  	0.685043
20 	40    	0.66431 	0.00901167	0.653549	0.685043
21 	40    	0.664835	0.00866884	0.653549	0.685043
22 	40    	0.667197	0.00785602	0.658798	0.685043
23 	40    	0.667722	0.00762465	0.658798	0.685043
24 	40    	0.667722	0.00762465	0.658798	0.685043
25 	40    	0.668771	0.00776785	0.658798	0.685043
26 	40    	0.670609	0.00661356	0.658798	0.685043
27 	40    	0.672708	0.00604778	0.664047	0.685043
28 	40    	0.672708	0.00604778	0.664047	0.685043
29 	40    	0.675595	0.00565337	0.669296	0.685043
30 	40    	0.675595	0.00565337	0.669296	0.685043
31 	40    	0.676907	0.00693884	0.669296	0.695541
32 	40    	0.679794	0.00829943	0.669296	0.70079 
33 	40    	0.679794	0.00829943	0.669296	0.70079 
34 	40    	0.680582	0.0076562 	0.674545	0.70079 
35 	40    	0.680582	0.0076562 	0.674545	0.70079 
36 	40    	0.681107	0.00740001	0.674545	0.70079 
37 	40    	0.681369	0.00725429	0.674545	0.70079 
38 	40    	0.681369	0.00725429	0.674545	0.70079 
39 	40    	0.681631	0.0070959 	0.674545	0.70079 
40 	40    	0.681631	0.0070959 	0.674545	0.70079 
41 	40    	0.681894	0.00692394	0.674545	0.70079 
42 	40    	0.682419	0.00674249	0.674545	0.70079 
43 	40    	0.682419	0.00674249	0.674545	0.70079 
44 	40    	0.682419	0.00674249	0.674545	0.70079 
45 	40    	0.682419	0.00674249	0.674545	0.70079 
46 	40    	0.682419	0.00674249	0.674545	0.70079 
47 	40    	0.682419	0.00674249	0.674545	0.70079 
48 	40    	0.682681	0.00652971	0.674545	0.70079 
49 	40    	0.682944	0.00629883	0.674545	0.70079 
50 	40    	0.682944	0.00629883	0.674545	0.70079 
51 	40    	0.685568	0.00776785	0.679794	0.706039
52 	40    	0.685831	0.0076562 	0.679794	0.706039
53 	40    	0.687668	0.00916703	0.679794	0.711288
54 	40    	0.688193	0.0090002 	0.679794	0.711288
55 	40    	0.688193	0.0090002 	0.679794	0.711288
56 	40    	0.688193	0.0090002 	0.679794	0.711288
57 	40    	0.688193	0.0090002 	0.679794	0.711288
58 	40    	0.688193	0.0090002 	0.679794	0.711288
59 	40    	0.688193	0.0090002 	0.679794	0.711288
60 	40    	0.688718	0.00879897	0.679794	0.711288
61 	40    	0.689243	0.00839844	0.679794	0.711288
62 	40    	0.689505	0.00817821	0.679794	0.711288
63 	40    	0.69003 	0.0076921 	0.685043	0.711288
64 	40    	0.69003 	0.0076921 	0.685043	0.711288
65 	40    	0.690817	0.00794321	0.685043	0.711288
66 	40    	0.690817	0.00794321	0.685043	0.711288
67 	40    	0.69108 	0.00783407	0.685043	0.711288
68 	40    	0.69108 	0.00783407	0.685043	0.711288
69 	40    	0.691342	0.00771446	0.685043	0.711288
70 	40    	0.692917	0.00931609	0.685043	0.716537
71 	40    	0.693704	0.00928276	0.685043	0.716537
72 	40    	0.695016	0.00980599	0.685043	0.716537
73 	40    	0.695016	0.00980599	0.685043	0.716537
74 	40    	0.695016	0.00980599	0.685043	0.716537
75 	40    	0.695804	0.00931239	0.685043	0.716537
76 	40    	0.698166	0.0109477 	0.685043	0.727036
77 	40    	0.698691	0.0105504 	0.685043	0.727036
78 	40    	0.698691	0.0105504 	0.685043	0.727036
79 	40    	0.698691	0.0105504 	0.685043	0.727036
80 	40    	0.698691	0.0105504 	0.685043	0.727036
81 	40    	0.698953	0.0102692 	0.690292	0.727036
82 	40    	0.699216	0.0101103 	0.690292	0.727036
83 	40    	0.701053	0.0115568 	0.690292	0.727036
84 	40    	0.701053	0.0115568 	0.690292	0.727036
85 	40    	0.701315	0.0113675 	0.690292	0.727036
86 	40    	0.701315	0.0113675 	0.690292	0.727036
87 	40    	0.701315	0.0113675 	0.690292	0.727036
88 	40    	0.701315	0.0113675 	0.690292	0.727036
89 	40    	0.70184 	0.0110853 	0.690292	0.727036
90 	40    	0.70184 	0.0110853 	0.690292	0.727036
91 	40    	0.70184 	0.0110853 	0.690292	0.727036
92 	40    	0.702365	0.0107701 	0.690292	0.727036
93 	40    	0.702365	0.0107701 	0.690292	0.727036
94 	40    	0.702365	0.0107701 	0.690292	0.727036
95 	40    	0.702365	0.0107701 	0.690292	0.727036
96 	40    	0.702365	0.0107701 	0.690292	0.727036
97 	40    	0.702628	0.0105341 	0.690292	0.727036
98 	40    	0.703152	0.0101613 	0.690292	0.727036
99 	40    	0.703152	0.0101613 	0.690292	0.727036
100	40    	0.703152	0.0101613 	0.690292	0.727036
101	40    	0.703152	0.0101613 	0.690292	0.727036
102	40    	0.703677	0.0097461 	0.695541	0.727036
103	40    	0.703677	0.0097461 	0.695541	0.727036
104	40    	0.704465	0.00969294	0.695541	0.727036
105	40    	0.704727	0.00951725	0.695541	0.727036
106	40    	0.705515	0.00937506	0.695541	0.727036
107	40    	0.705515	0.00937506	0.695541	0.727036
108	40    	0.705515	0.00937506	0.695541	0.727036
109	40    	0.705515	0.00937506	0.695541	0.727036
110	40    	0.705777	0.00916327	0.695541	0.727036
111	40    	0.706564	0.00892334	0.695541	0.727036
112	40    	0.706564	0.00892334	0.695541	0.727036
113	40    	0.706564	0.00892334	0.695541	0.727036
114	40    	0.706564	0.00892334	0.695541	0.727036
115	40    	0.706564	0.00892334	0.695541	0.727036
116	40    	0.707352	0.00827866	0.70079 	0.727036
117	40    	0.708139	0.00802946	0.70079 	0.727036
118	40    	0.708139	0.00802946	0.70079 	0.727036
119	40    	0.708139	0.00802946	0.70079 	0.727036
120	40    	0.708139	0.00802946	0.70079 	0.727036
121	40    	0.708139	0.00802946	0.70079 	0.727036
122	40    	0.708401	0.00786916	0.70079 	0.727036
123	40    	0.708401	0.00786916	0.70079 	0.727036
124	40    	0.708401	0.00786916	0.70079 	0.727036
125	40    	0.708401	0.00786916	0.70079 	0.727036
126	40    	0.708401	0.00786916	0.70079 	0.727036
127	40    	0.709976	0.00844343	0.70079 	0.727036
128	40    	0.710239	0.00823277	0.70079 	0.727036
129	40    	0.711026	0.0076921 	0.70079 	0.727036
130	40    	0.711026	0.0076921 	0.70079 	0.727036
131	40    	0.711551	0.00732516	0.70079 	0.727036
132	40    	0.711551	0.00732516	0.70079 	0.727036
133	40    	0.711551	0.00732516	0.70079 	0.727036
134	40    	0.711551	0.00732516	0.70079 	0.727036
135	40    	0.711551	0.00732516	0.70079 	0.727036
136	40    	0.711551	0.00732516	0.70079 	0.727036
137	40    	0.711551	0.00732516	0.70079 	0.727036
138	40    	0.711551	0.00732516	0.70079 	0.727036
139	40    	0.711551	0.00732516	0.70079 	0.727036
140	40    	0.711551	0.00732516	0.70079 	0.727036
141	40    	0.712338	0.00696362	0.706039	0.727036
142	40    	0.712338	0.00696362	0.706039	0.727036
143	40    	0.712338	0.00696362	0.706039	0.727036
144	40    	0.713388	0.00672203	0.706039	0.727036
145	40    	0.714438	0.00712012	0.706039	0.727036
146	40    	0.714438	0.00712012	0.706039	0.727036
147	40    	0.714438	0.00712012	0.706039	0.727036
148	40    	0.714438	0.00712012	0.706039	0.727036
149	40    	0.714438	0.00712012	0.706039	0.727036
150	40    	0.714438	0.00712012	0.706039	0.727036
151	40    	0.7147  	0.00689902	0.706039	0.727036
152	40    	0.7147  	0.00689902	0.706039	0.727036
153	40    	0.7147  	0.00689902	0.706039	0.727036
154	40    	0.714963	0.00666026	0.706039	0.727036
155	40    	0.714963	0.00666026	0.706039	0.727036
156	40    	0.714963	0.00666026	0.706039	0.727036
157	40    	0.714963	0.00666026	0.706039	0.727036
158	40    	0.714963	0.00666026	0.706039	0.727036
159	40    	0.717587	0.00771446	0.711288	0.732285
160	40    	0.717587	0.00771446	0.711288	0.732285
161	40    	0.717587	0.00771446	0.711288	0.732285
162	40    	0.717587	0.00771446	0.711288	0.732285
163	40    	0.717587	0.00771446	0.711288	0.732285
164	40    	0.717587	0.00771446	0.711288	0.732285
165	40    	0.717587	0.00771446	0.711288	0.732285
166	40    	0.718375	0.00783407	0.711288	0.732285
167	40    	0.718375	0.00783407	0.711288	0.732285
168	40    	0.718375	0.00783407	0.711288	0.732285
169	40    	0.718637	0.00767866	0.711288	0.732285
170	40    	0.719424	0.00732516	0.711288	0.732285
171	40    	0.719424	0.00732516	0.711288	0.732285
172	40    	0.719687	0.00712012	0.711288	0.732285
173	40    	0.719687	0.00712012	0.711288	0.732285
174	40    	0.719687	0.00712012	0.711288	0.732285
175	40    	0.719687	0.00712012	0.711288	0.732285
176	40    	0.719687	0.00712012	0.711288	0.732285
177	40    	0.719687	0.00712012	0.711288	0.732285
178	40    	0.719687	0.00712012	0.711288	0.732285
179	40    	0.719949	0.00689902	0.711288	0.732285
180	40    	0.719949	0.00689902	0.711288	0.732285
181	40    	0.719949	0.00689902	0.711288	0.732285
182	40    	0.719949	0.00689902	0.711288	0.732285
183	40    	0.719949	0.00689902	0.711288	0.732285
184	40    	0.719949	0.00689902	0.711288	0.732285
185	40    	0.719949	0.00689902	0.711288	0.732285
186	40    	0.719949	0.00689902	0.711288	0.732285
187	40    	0.719949	0.00689902	0.711288	0.732285
188	40    	0.720212	0.00666026	0.711288	0.732285
189	40    	0.720474	0.00640187	0.711288	0.732285
190	40    	0.720474	0.00640187	0.711288	0.732285
191	40    	0.721262	0.00618851	0.711288	0.732285
192	40    	0.721262	0.00618851	0.711288	0.732285
193	40    	0.721262	0.00618851	0.711288	0.732285
194	40    	0.722049	0.00586272	0.716537	0.732285
195	40    	0.722049	0.00586272	0.716537	0.732285
196	40    	0.722049	0.00586272	0.716537	0.732285
197	40    	0.723099	0.00661356	0.716537	0.737534
198	40    	0.723099	0.00661356	0.716537	0.737534
199	40    	0.723099	0.00661356	0.716537	0.737534
200	40    	0.723361	0.00645011	0.716537	0.737534
201	40    	0.724411	0.00632066	0.716537	0.737534
202	40    	0.724411	0.00632066	0.716537	0.737534
203	40    	0.724936	0.00607618	0.716537	0.737534
204	40    	0.724936	0.00607618	0.716537	0.737534
205	40    	0.725198	0.00581553	0.716537	0.737534
206	40    	0.726511	0.00661877	0.716537	0.742783
207	40    	0.726511	0.00661877	0.716537	0.742783
208	40    	0.726511	0.00661877	0.716537	0.742783
209	40    	0.726511	0.00661877	0.716537	0.742783
210	40    	0.727036	0.00621073	0.716537	0.742783
211	40    	0.727036	0.00621073	0.716537	0.742783
212	40    	0.727036	0.00621073	0.716537	0.742783
213	40    	0.727036	0.00621073	0.716537	0.742783
214	40    	0.727036	0.00621073	0.716537	0.742783
215	40    	0.729398	0.00673738	0.721786	0.748032
216	40    	0.729398	0.00673738	0.721786	0.748032
217	40    	0.729398	0.00673738	0.721786	0.748032
218	40    	0.729398	0.00673738	0.721786	0.748032
219	40    	0.729398	0.00673738	0.721786	0.748032
220	40    	0.729398	0.00673738	0.721786	0.748032
221	40    	0.729398	0.00673738	0.721786	0.748032
222	40    	0.729398	0.00673738	0.721786	0.748032
223	40    	0.729398	0.00673738	0.721786	0.748032
224	40    	0.729398	0.00673738	0.721786	0.748032
225	40    	0.729398	0.00673738	0.721786	0.748032
226	40    	0.729398	0.00673738	0.721786	0.748032
227	40    	0.729398	0.00673738	0.721786	0.748032
228	40    	0.729398	0.00673738	0.721786	0.748032
229	40    	0.729398	0.00673738	0.721786	0.748032
230	40    	0.729398	0.00673738	0.721786	0.748032
231	40    	0.729398	0.00673738	0.721786	0.748032
232	40    	0.729398	0.00673738	0.721786	0.748032
233	40    	0.729922	0.00652971	0.721786	0.748032
234	40    	0.729922	0.00652971	0.721786	0.748032
235	40    	0.729922	0.00652971	0.721786	0.748032
236	40    	0.730185	0.00629883	0.721786	0.748032
237	40    	0.730185	0.00629883	0.721786	0.748032
238	40    	0.73071 	0.00600778	0.721786	0.748032
239	40    	0.73071 	0.00600778	0.721786	0.748032
240	40    	0.731497	0.00581553	0.727036	0.748032
241	40    	0.731497	0.00581553	0.727036	0.748032
242	40    	0.731497	0.00581553	0.727036	0.748032
243	40    	0.731497	0.00581553	0.727036	0.748032
244	40    	0.731497	0.00581553	0.727036	0.748032
245	40    	0.731497	0.00581553	0.727036	0.748032
246	40    	0.731497	0.00581553	0.727036	0.748032
247	40    	0.731497	0.00581553	0.727036	0.748032
248	40    	0.731497	0.00581553	0.727036	0.748032
249	40    	0.731497	0.00581553	0.727036	0.748032
250	40    	0.731497	0.00581553	0.727036	0.748032
