gen	nevals	avg     	std       	min     	max     
0  	20    	0.583707	0.024445  	0.521378	0.621185
1  	40    	0.602852	0.00942078	0.588593	0.623215
2  	40    	0.60835 	0.00714502	0.598785	0.623215
3  	40    	0.612626	0.00713171	0.604889	0.627289
4  	40    	0.61507 	0.00644268	0.606918	0.627289
5  	40    	0.616497	0.00594215	0.608963	0.627289
6  	40    	0.618432	0.0069467 	0.608963	0.637482
7  	40    	0.618941	0.00659847	0.608963	0.637482
8  	40    	0.620876	0.00601835	0.613037	0.637482
9  	40    	0.621792	0.00527782	0.615067	0.637482
10 	40    	0.622913	0.00605363	0.615067	0.637482
11 	40    	0.62495 	0.00618911	0.619141	0.637482
12 	40    	0.625256	0.00597458	0.619141	0.637482
13 	40    	0.626988	0.00611983	0.621185	0.639511
14 	40    	0.626988	0.00611983	0.621185	0.639511
15 	40    	0.62994 	0.00699908	0.621185	0.649689
16 	40    	0.633607	0.00875711	0.625259	0.655807
17 	40    	0.637576	0.00845823	0.627289	0.655807
18 	40    	0.640734	0.00765699	0.631363	0.657837
19 	40    	0.642058	0.00656199	0.635437	0.657837
20 	40    	0.64277 	0.00625502	0.635437	0.657837
21 	40    	0.643382	0.00610393	0.637482	0.657837
22 	40    	0.643992	0.00609378	0.637482	0.657837
23 	40    	0.645111	0.00589674	0.637482	0.657837
24 	40    	0.64623 	0.00546841	0.637482	0.657837
25 	40    	0.646841	0.00496472	0.639511	0.657837
26 	40    	0.647146	0.00468448	0.639511	0.657837
27 	40    	0.647859	0.00401788	0.641541	0.657837
28 	40    	0.648267	0.00376145	0.643585	0.657837
29 	40    	0.650609	0.00509297	0.645615	0.663956
30 	40    	0.651424	0.00491869	0.645615	0.663956
31 	40    	0.651527	0.00481707	0.645615	0.663956
32 	40    	0.652647	0.00409917	0.647659	0.663956
33 	40    	0.652952	0.00383431	0.649689	0.663956
34 	40    	0.652952	0.00383431	0.649689	0.663956
35 	40    	0.652952	0.00383431	0.649689	0.663956
36 	40    	0.653258	0.00369468	0.649689	0.663956
37 	40    	0.653665	0.00372776	0.649689	0.663956
38 	40    	0.655397	0.00521745	0.649689	0.66803 
39 	40    	0.656009	0.00485858	0.651733	0.66803 
40 	40    	0.656213	0.00475944	0.651733	0.66803 
41 	40    	0.656518	0.00465703	0.651733	0.66803 
42 	40    	0.656518	0.00465703	0.651733	0.66803 
43 	40    	0.657536	0.00562604	0.651733	0.672104
44 	40    	0.659064	0.00688956	0.651733	0.678207
45 	40    	0.659369	0.0066904 	0.651733	0.678207
46 	40    	0.660387	0.00617413	0.653763	0.678207
47 	40    	0.660693	0.00598705	0.655807	0.678207
48 	40    	0.660693	0.00598705	0.655807	0.678207
49 	40    	0.660693	0.00598705	0.655807	0.678207
50 	40    	0.660693	0.00598705	0.655807	0.678207
51 	40    	0.660693	0.00598705	0.655807	0.678207
52 	40    	0.660693	0.00598705	0.655807	0.678207
53 	40    	0.662017	0.00749676	0.655807	0.682281
54 	40    	0.662017	0.00749676	0.655807	0.682281
55 	40    	0.662017	0.00749676	0.655807	0.682281
56 	40    	0.662119	0.00742542	0.655807	0.682281
57 	40    	0.663442	0.00769983	0.655807	0.682281
58 	40    	0.663442	0.00769983	0.655807	0.682281
59 	40    	0.663951	0.00751247	0.655807	0.682281
60 	40    	0.663951	0.00751247	0.655807	0.682281
61 	40    	0.663951	0.00751247	0.655807	0.682281
62 	40    	0.663951	0.00751247	0.655807	0.682281
63 	40    	0.663951	0.00751247	0.655807	0.682281
64 	40    	0.664155	0.0073422 	0.657837	0.682281
65 	40    	0.664562	0.00720511	0.657837	0.682281
66 	40    	0.664562	0.00720511	0.657837	0.682281
67 	40    	0.664562	0.00720511	0.657837	0.682281
68 	40    	0.665072	0.00707061	0.657837	0.682281
69 	40    	0.665072	0.00707061	0.657837	0.682281
70 	40    	0.665072	0.00707061	0.657837	0.682281
71 	40    	0.665785	0.00702424	0.657837	0.682281
72 	40    	0.665785	0.00702424	0.657837	0.682281
73 	40    	0.665887	0.00692194	0.657837	0.682281
74 	40    	0.665887	0.00692194	0.657837	0.682281
75 	40    	0.666499	0.00672082	0.657837	0.682281
76 	40    	0.666499	0.00672082	0.657837	0.682281
77 	40    	0.666805	0.00645352	0.659882	0.682281
78 	40    	0.666805	0.00645352	0.659882	0.682281
79 	40    	0.666805	0.00645352	0.659882	0.682281
80 	40    	0.66711 	0.00626036	0.659882	0.682281
81 	40    	0.66711 	0.00626036	0.659882	0.682281
82 	40    	0.667211	0.00615799	0.659882	0.682281
83 	40    	0.667211	0.00615799	0.659882	0.682281
84 	40    	0.667211	0.00615799	0.659882	0.682281
85 	40    	0.668026	0.00621216	0.659882	0.682281
86 	40    	0.668026	0.00621216	0.659882	0.682281
87 	40    	0.66823 	0.00600511	0.659882	0.682281
88 	40    	0.668433	0.00578348	0.661911	0.682281
89 	40    	0.668536	0.0056845 	0.661911	0.682281
90 	40    	0.669147	0.00559576	0.661911	0.682281
91 	40    	0.670979	0.00570535	0.663956	0.682281
92 	40    	0.671284	0.00548034	0.663956	0.682281
93 	40    	0.671589	0.00522791	0.665985	0.682281
94 	40    	0.671589	0.00522791	0.665985	0.682281
95 	40    	0.671589	0.00522791	0.665985	0.682281
96 	40    	0.671589	0.00522791	0.665985	0.682281
97 	40    	0.671589	0.00522791	0.665985	0.682281
98 	40    	0.672099	0.00515307	0.665985	0.682281
99 	40    	0.672099	0.00515307	0.665985	0.682281
100	40    	0.67271 	0.00511643	0.665985	0.682281
101	40    	0.67271 	0.00511643	0.665985	0.682281
102	40    	0.673219	0.0049253 	0.665985	0.682281
103	40    	0.673219	0.0049253 	0.665985	0.682281
104	40    	0.673627	0.00463872	0.665985	0.682281
105	40    	0.673627	0.00463872	0.665985	0.682281
106	40    	0.673627	0.00463872	0.665985	0.682281
107	40    	0.673627	0.00463872	0.665985	0.682281
108	40    	0.673729	0.0044893 	0.665985	0.682281
109	40    	0.674035	0.00414656	0.66803 	0.682281
110	40    	0.674035	0.00414656	0.66803 	0.682281
111	40    	0.674239	0.00394155	0.66803 	0.682281
112	40    	0.674951	0.00404166	0.66803 	0.682281
113	40    	0.675256	0.00372559	0.670059	0.682281
114	40    	0.675256	0.00372559	0.670059	0.682281
115	40    	0.675256	0.00372559	0.670059	0.682281
116	40    	0.675256	0.00372559	0.670059	0.682281
117	40    	0.675359	0.00360777	0.670059	0.682281
118	40    	0.675359	0.00360777	0.670059	0.682281
119	40    	0.675359	0.00360777	0.670059	0.682281
120	40    	0.675359	0.00360777	0.670059	0.682281
121	40    	0.675359	0.00360777	0.670059	0.682281
122	40    	0.675461	0.00348296	0.670059	0.682281
123	40    	0.675461	0.00348296	0.670059	0.682281
124	40    	0.675461	0.00348296	0.670059	0.682281
125	40    	0.675461	0.00348296	0.670059	0.682281
126	40    	0.675461	0.00348296	0.670059	0.682281
127	40    	0.675461	0.00348296	0.670059	0.682281
128	40    	0.675461	0.00348296	0.670059	0.682281
129	40    	0.675665	0.00327395	0.672104	0.682281
130	40    	0.675665	0.00327395	0.672104	0.682281
131	40    	0.675665	0.00327395	0.672104	0.682281
132	40    	0.675665	0.00327395	0.672104	0.682281
133	40    	0.675665	0.00327395	0.672104	0.682281
134	40    	0.675665	0.00327395	0.672104	0.682281
135	40    	0.675665	0.00327395	0.672104	0.682281
136	40    	0.675665	0.00327395	0.672104	0.682281
137	40    	0.675665	0.00327395	0.672104	0.682281
138	40    	0.675665	0.00327395	0.672104	0.682281
139	40    	0.676173	0.00346628	0.672104	0.682281
140	40    	0.676173	0.00346628	0.672104	0.682281
141	40    	0.676173	0.00346628	0.672104	0.682281
142	40    	0.676173	0.00346628	0.672104	0.682281
143	40    	0.676173	0.00346628	0.672104	0.682281
144	40    	0.676682	0.00357681	0.672104	0.682281
145	40    	0.676682	0.00357681	0.672104	0.682281
146	40    	0.676682	0.00357681	0.672104	0.682281
147	40    	0.676682	0.00357681	0.672104	0.682281
148	40    	0.676682	0.00357681	0.672104	0.682281
149	40    	0.676682	0.00357681	0.672104	0.682281
150	40    	0.676682	0.00357681	0.672104	0.682281
151	40    	0.676784	0.00347275	0.672104	0.682281
152	40    	0.676784	0.00347275	0.672104	0.682281
153	40    	0.676784	0.00347275	0.672104	0.682281
154	40    	0.676784	0.00347275	0.672104	0.682281
155	40    	0.676784	0.00347275	0.672104	0.682281
156	40    	0.676885	0.00336243	0.672104	0.682281
157	40    	0.676885	0.00336243	0.672104	0.682281
158	40    	0.676885	0.00336243	0.672104	0.682281
159	40    	0.676885	0.00336243	0.672104	0.682281
160	40    	0.676885	0.00336243	0.672104	0.682281
161	40    	0.676885	0.00336243	0.672104	0.682281
162	40    	0.676885	0.00336243	0.672104	0.682281
163	40    	0.676885	0.00336243	0.672104	0.682281
164	40    	0.676885	0.00336243	0.672104	0.682281
165	40    	0.676885	0.00336243	0.672104	0.682281
166	40    	0.676885	0.00336243	0.672104	0.682281
167	40    	0.676885	0.00336243	0.672104	0.682281
168	40    	0.676885	0.00336243	0.672104	0.682281
169	40    	0.676885	0.00336243	0.672104	0.682281
170	40    	0.676885	0.00336243	0.672104	0.682281
171	40    	0.676885	0.00336243	0.672104	0.682281
172	40    	0.676885	0.00336243	0.672104	0.682281
173	40    	0.677496	0.00354223	0.672104	0.684311
174	40    	0.677496	0.00354223	0.672104	0.684311
175	40    	0.677496	0.00354223	0.672104	0.684311
176	40    	0.677496	0.00354223	0.672104	0.684311
177	40    	0.677496	0.00354223	0.672104	0.684311
178	40    	0.677496	0.00354223	0.672104	0.684311
179	40    	0.677496	0.00354223	0.672104	0.684311
180	40    	0.677496	0.00354223	0.672104	0.684311
181	40    	0.677496	0.00354223	0.672104	0.684311
182	40    	0.677496	0.00354223	0.672104	0.684311
183	40    	0.677496	0.00354223	0.672104	0.684311
184	40    	0.677902	0.00336217	0.674133	0.684311
185	40    	0.678513	0.00317116	0.674133	0.684311
186	40    	0.678513	0.00317116	0.674133	0.684311
187	40    	0.678513	0.00317116	0.674133	0.684311
188	40    	0.678513	0.00317116	0.674133	0.684311
189	40    	0.678513	0.00317116	0.674133	0.684311
190	40    	0.678513	0.00317116	0.674133	0.684311
191	40    	0.678513	0.00317116	0.674133	0.684311
192	40    	0.678513	0.00317116	0.674133	0.684311
193	40    	0.678513	0.00317116	0.674133	0.684311
194	40    	0.678513	0.00317116	0.674133	0.684311
195	40    	0.678513	0.00317116	0.674133	0.684311
196	40    	0.678513	0.00317116	0.674133	0.684311
197	40    	0.678513	0.00317116	0.674133	0.684311
198	40    	0.678513	0.00317116	0.674133	0.684311
199	40    	0.678513	0.00317116	0.674133	0.684311
200	40    	0.678513	0.00317116	0.674133	0.684311
201	40    	0.678513	0.00317116	0.674133	0.684311
202	40    	0.678513	0.00317116	0.674133	0.684311
203	40    	0.678513	0.00317116	0.674133	0.684311
204	40    	0.678513	0.00317116	0.674133	0.684311
205	40    	0.678513	0.00317116	0.674133	0.684311
206	40    	0.678513	0.00317116	0.674133	0.684311
207	40    	0.678513	0.00317116	0.674133	0.684311
208	40    	0.678513	0.00317116	0.674133	0.684311
209	40    	0.678716	0.00301007	0.674133	0.684311
210	40    	0.679124	0.00291202	0.674133	0.684311
211	40    	0.679327	0.00268982	0.674133	0.684311
212	40    	0.679327	0.00268982	0.674133	0.684311
213	40    	0.679327	0.00268982	0.674133	0.684311
214	40    	0.679327	0.00268982	0.674133	0.684311
215	40    	0.679327	0.00268982	0.674133	0.684311
216	40    	0.679327	0.00268982	0.674133	0.684311
217	40    	0.67943 	0.00252422	0.676178	0.684311
218	40    	0.67943 	0.00252422	0.676178	0.684311
219	40    	0.67943 	0.00252422	0.676178	0.684311
220	40    	0.67943 	0.00252422	0.676178	0.684311
221	40    	0.67943 	0.00252422	0.676178	0.684311
222	40    	0.67943 	0.00252422	0.676178	0.684311
223	40    	0.67943 	0.00252422	0.676178	0.684311
224	40    	0.67943 	0.00252422	0.676178	0.684311
225	40    	0.67943 	0.00252422	0.676178	0.684311
226	40    	0.67943 	0.00252422	0.676178	0.684311
227	40    	0.67943 	0.00252422	0.676178	0.684311
228	40    	0.67943 	0.00252422	0.676178	0.684311
229	40    	0.67943 	0.00252422	0.676178	0.684311
230	40    	0.67943 	0.00252422	0.676178	0.684311
231	40    	0.679531	0.00243052	0.676178	0.684311
232	40    	0.679531	0.00243052	0.676178	0.684311
233	40    	0.679531	0.00243052	0.676178	0.684311
234	40    	0.679531	0.00243052	0.676178	0.684311
235	40    	0.679531	0.00243052	0.676178	0.684311
236	40    	0.679531	0.00243052	0.676178	0.684311
237	40    	0.679633	0.00232865	0.676178	0.684311
238	40    	0.679633	0.00232865	0.676178	0.684311
239	40    	0.679633	0.00232865	0.676178	0.684311
240	40    	0.679633	0.00232865	0.676178	0.684311
241	40    	0.679633	0.00232865	0.676178	0.684311
242	40    	0.679633	0.00232865	0.676178	0.684311
243	40    	0.679633	0.00232865	0.676178	0.684311
244	40    	0.679633	0.00232865	0.676178	0.684311
245	40    	0.679633	0.00232865	0.676178	0.684311
246	40    	0.679633	0.00232865	0.676178	0.684311
247	40    	0.679633	0.00232865	0.676178	0.684311
248	40    	0.679633	0.00232865	0.676178	0.684311
249	40    	0.679633	0.00232865	0.676178	0.684311
250	40    	0.679633	0.00232865	0.676178	0.684311
