gen	nevals	avg     	std       	min     	max     
0  	20    	0.587654	0.0159208 	0.546082	0.610428
1  	40    	0.601742	0.00722947	0.589569	0.615646
2  	40    	0.603307	0.00666099	0.596527	0.615646
3  	40    	0.606609	0.00730391	0.598267	0.626083
4  	40    	0.610695	0.00823285	0.600006	0.634781
5  	40    	0.613214	0.0071986 	0.605225	0.634781
6  	40    	0.613908	0.00673549	0.606964	0.634781
7  	40    	0.616951	0.00930064	0.608688	0.643478
8  	40    	0.6213  	0.0105505 	0.610428	0.645218
9  	40    	0.624083	0.00930715	0.613907	0.645218
10 	40    	0.625735	0.0079638 	0.617386	0.645218
11 	40    	0.627388	0.00791187	0.617386	0.645218
12 	40    	0.628954	0.00681021	0.620865	0.645218
13 	40    	0.629736	0.00631753	0.622604	0.645218
14 	40    	0.631824	0.00667162	0.624344	0.646957
15 	40    	0.632259	0.00644966	0.626083	0.646957
16 	40    	0.634433	0.00570599	0.627823	0.646957
17 	40    	0.635216	0.00544203	0.629562	0.646957
18 	40    	0.63539 	0.00531261	0.629562	0.646957
19 	40    	0.637825	0.00626885	0.631302	0.650436
20 	40    	0.639651	0.00654571	0.633041	0.650436
21 	40    	0.642261	0.00660324	0.633041	0.657394
22 	40    	0.643217	0.00590599	0.634781	0.657394
23 	40    	0.643304	0.00579283	0.634781	0.657394
24 	40    	0.643739	0.00545314	0.634781	0.657394
25 	40    	0.644174	0.00496292	0.63826 	0.657394
26 	40    	0.645392	0.00432783	0.639999	0.657394
27 	40    	0.645392	0.00432783	0.639999	0.657394
28 	40    	0.645827	0.0041992 	0.639999	0.657394
29 	40    	0.647131	0.00324966	0.643478	0.657394
30 	40    	0.647131	0.00324966	0.643478	0.657394
31 	40    	0.647392	0.00315397	0.643478	0.657394
32 	40    	0.647392	0.00315397	0.643478	0.657394
33 	40    	0.647392	0.00315397	0.643478	0.657394
34 	40    	0.647392	0.00315397	0.643478	0.657394
35 	40    	0.647653	0.00303293	0.643478	0.657394
36 	40    	0.64861 	0.00318262	0.645218	0.657394
37 	40    	0.64861 	0.00318262	0.645218	0.657394
38 	40    	0.64861 	0.00318262	0.645218	0.657394
39 	40    	0.649567	0.00354363	0.645218	0.657394
40 	40    	0.649828	0.00340316	0.645218	0.657394
41 	40    	0.649828	0.00340316	0.645218	0.657394
42 	40    	0.649828	0.00340316	0.645218	0.657394
43 	40    	0.650175	0.00326707	0.646957	0.657394
44 	40    	0.650175	0.00326707	0.646957	0.657394
45 	40    	0.650175	0.00326707	0.646957	0.657394
46 	40    	0.650349	0.00318262	0.646957	0.657394
47 	40    	0.650349	0.00318262	0.646957	0.657394
48 	40    	0.650349	0.00318262	0.646957	0.657394
49 	40    	0.650784	0.00309221	0.646957	0.657394
50 	40    	0.651219	0.00313473	0.646957	0.657394
51 	40    	0.651219	0.00313473	0.646957	0.657394
52 	40    	0.651219	0.00313473	0.646957	0.657394
53 	40    	0.651219	0.00313473	0.646957	0.657394
54 	40    	0.651654	0.00311657	0.646957	0.657394
55 	40    	0.652437	0.00374195	0.648697	0.662613
56 	40    	0.652437	0.00374195	0.648697	0.662613
57 	40    	0.652437	0.00374195	0.648697	0.662613
58 	40    	0.652698	0.00365295	0.648697	0.662613
59 	40    	0.652698	0.00365295	0.648697	0.662613
60 	40    	0.652698	0.00365295	0.648697	0.662613
61 	40    	0.652698	0.00365295	0.648697	0.662613
62 	40    	0.653394	0.00412009	0.648697	0.662613
63 	40    	0.654176	0.00461132	0.648697	0.664352
64 	40    	0.654176	0.00461132	0.648697	0.664352
65 	40    	0.65435 	0.00446463	0.648697	0.664352
66 	40    	0.65435 	0.00446463	0.648697	0.664352
67 	40    	0.655307	0.00448913	0.650436	0.664352
68 	40    	0.655307	0.00448913	0.650436	0.664352
69 	40    	0.655307	0.00448913	0.650436	0.664352
70 	40    	0.655742	0.00441693	0.650436	0.664352
71 	40    	0.656264	0.0041992 	0.650436	0.664352
72 	40    	0.656612	0.00398475	0.650436	0.664352
73 	40    	0.656612	0.00398475	0.650436	0.664352
74 	40    	0.657133	0.00382196	0.652176	0.664352
75 	40    	0.657481	0.00366845	0.652176	0.664352
76 	40    	0.658177	0.00390808	0.652176	0.666092
77 	40    	0.658177	0.00390808	0.652176	0.666092
78 	40    	0.659395	0.00390033	0.653915	0.667831
79 	40    	0.659743	0.0037013 	0.653915	0.667831
80 	40    	0.659917	0.0034996 	0.655655	0.667831
81 	40    	0.660091	0.00336741	0.655655	0.667831
82 	40    	0.660091	0.00336741	0.655655	0.667831
83 	40    	0.660526	0.00332786	0.655655	0.667831
84 	40    	0.660526	0.00332786	0.655655	0.667831
85 	40    	0.660786	0.00313473	0.655655	0.667831
86 	40    	0.661047	0.00290554	0.657394	0.667831
87 	40    	0.661047	0.00290554	0.657394	0.667831
88 	40    	0.661395	0.00286358	0.657394	0.667831
89 	40    	0.661395	0.00286358	0.657394	0.667831
90 	40    	0.661395	0.00286358	0.657394	0.667831
91 	40    	0.661656	0.00272136	0.657394	0.667831
92 	40    	0.66183 	0.00254913	0.657394	0.667831
93 	40    	0.66183 	0.00254913	0.657394	0.667831
94 	40    	0.662091	0.00234026	0.659134	0.667831
95 	40    	0.662091	0.00234026	0.659134	0.667831
96 	40    	0.662439	0.00239142	0.659134	0.667831
97 	40    	0.662439	0.00239142	0.659134	0.667831
98 	40    	0.662439	0.00239142	0.659134	0.667831
99 	40    	0.662439	0.00239142	0.659134	0.667831
100	40    	0.662439	0.00239142	0.659134	0.667831
101	40    	0.662439	0.00239142	0.659134	0.667831
102	40    	0.662439	0.00239142	0.659134	0.667831
103	40    	0.662439	0.00239142	0.659134	0.667831
104	40    	0.662526	0.0022995 	0.659134	0.667831
105	40    	0.662526	0.0022995 	0.659134	0.667831
106	40    	0.662526	0.0022995 	0.659134	0.667831
107	40    	0.662526	0.0022995 	0.659134	0.667831
108	40    	0.662526	0.0022995 	0.659134	0.667831
109	40    	0.6627  	0.00216392	0.659134	0.667831
110	40    	0.663309	0.00271719	0.660873	0.67131 
111	40    	0.663309	0.00271719	0.660873	0.67131 
112	40    	0.663309	0.00271719	0.660873	0.67131 
113	40    	0.663657	0.00282636	0.660873	0.67131 
114	40    	0.663657	0.00282636	0.660873	0.67131 
115	40    	0.663657	0.00282636	0.660873	0.67131 
116	40    	0.663657	0.00282636	0.660873	0.67131 
117	40    	0.663657	0.00282636	0.660873	0.67131 
118	40    	0.663831	0.00275589	0.660873	0.67131 
119	40    	0.663831	0.00275589	0.660873	0.67131 
120	40    	0.663918	0.0026878 	0.660873	0.67131 
121	40    	0.663918	0.0026878 	0.660873	0.67131 
122	40    	0.664005	0.00261504	0.660873	0.67131 
123	40    	0.664005	0.00261504	0.660873	0.67131 
124	40    	0.664005	0.00261504	0.660873	0.67131 
125	40    	0.664005	0.00261504	0.660873	0.67131 
126	40    	0.664005	0.00261504	0.660873	0.67131 
127	40    	0.664005	0.00261504	0.660873	0.67131 
128	40    	0.664005	0.00261504	0.660873	0.67131 
129	40    	0.664005	0.00261504	0.660873	0.67131 
130	40    	0.664352	0.00263809	0.660873	0.67131 
131	40    	0.664352	0.00263809	0.660873	0.67131 
132	40    	0.664526	0.00251477	0.660873	0.67131 
133	40    	0.6647  	0.00237236	0.662613	0.67131 
134	40    	0.6647  	0.00237236	0.662613	0.67131 
135	40    	0.664874	0.00234026	0.662613	0.67131 
136	40    	0.664874	0.00234026	0.662613	0.67131 
137	40    	0.664961	0.0022863 	0.662613	0.67131 
138	40    	0.665222	0.00230114	0.662613	0.67131 
139	40    	0.665222	0.00230114	0.662613	0.67131 
140	40    	0.665222	0.00230114	0.662613	0.67131 
141	40    	0.665222	0.00230114	0.662613	0.67131 
142	40    	0.665222	0.00230114	0.662613	0.67131 
143	40    	0.665222	0.00230114	0.662613	0.67131 
144	40    	0.665222	0.00230114	0.662613	0.67131 
145	40    	0.665222	0.00230114	0.662613	0.67131 
146	40    	0.665222	0.00230114	0.662613	0.67131 
147	40    	0.665222	0.00230114	0.662613	0.67131 
148	40    	0.665222	0.00230114	0.662613	0.67131 
149	40    	0.665222	0.00230114	0.662613	0.67131 
150	40    	0.665222	0.00230114	0.662613	0.67131 
151	40    	0.665222	0.00230114	0.662613	0.67131 
152	40    	0.665222	0.00230114	0.662613	0.67131 
153	40    	0.665222	0.00230114	0.662613	0.67131 
154	40    	0.665222	0.00230114	0.662613	0.67131 
155	40    	0.665222	0.00230114	0.662613	0.67131 
156	40    	0.665222	0.00230114	0.662613	0.67131 
157	40    	0.665222	0.00230114	0.662613	0.67131 
158	40    	0.665222	0.00230114	0.662613	0.67131 
159	40    	0.665222	0.00230114	0.662613	0.67131 
160	40    	0.665222	0.00230114	0.662613	0.67131 
161	40    	0.665222	0.00230114	0.662613	0.67131 
162	40    	0.665222	0.00230114	0.662613	0.67131 
163	40    	0.665483	0.0022863 	0.662613	0.67131 
164	40    	0.665483	0.0022863 	0.662613	0.67131 
165	40    	0.665483	0.0022863 	0.662613	0.67131 
166	40    	0.665483	0.0022863 	0.662613	0.67131 
167	40    	0.665483	0.0022863 	0.662613	0.67131 
168	40    	0.665483	0.0022863 	0.662613	0.67131 
169	40    	0.665483	0.0022863 	0.662613	0.67131 
170	40    	0.665483	0.0022863 	0.662613	0.67131 
171	40    	0.665483	0.0022863 	0.662613	0.67131 
172	40    	0.665483	0.0022863 	0.662613	0.67131 
173	40    	0.665483	0.0022863 	0.662613	0.67131 
174	40    	0.666179	0.00322981	0.662613	0.676529
175	40    	0.666614	0.00330505	0.662613	0.676529
176	40    	0.666875	0.00308608	0.664352	0.676529
177	40    	0.666875	0.00308608	0.664352	0.676529
178	40    	0.666875	0.00308608	0.664352	0.676529
179	40    	0.666875	0.00308608	0.664352	0.676529
180	40    	0.666875	0.00308608	0.664352	0.676529
181	40    	0.666875	0.00308608	0.664352	0.676529
182	40    	0.666875	0.00308608	0.664352	0.676529
183	40    	0.666875	0.00308608	0.664352	0.676529
184	40    	0.666875	0.00308608	0.664352	0.676529
185	40    	0.666875	0.00308608	0.664352	0.676529
186	40    	0.666875	0.00308608	0.664352	0.676529
187	40    	0.666875	0.00308608	0.664352	0.676529
188	40    	0.666875	0.00308608	0.664352	0.676529
189	40    	0.666875	0.00308608	0.664352	0.676529
190	40    	0.666962	0.00303791	0.664352	0.676529
191	40    	0.667136	0.00298262	0.664352	0.676529
192	40    	0.667136	0.00298262	0.664352	0.676529
193	40    	0.667744	0.00354257	0.664352	0.676529
194	40    	0.667744	0.00354257	0.664352	0.676529
195	40    	0.667744	0.00354257	0.664352	0.676529
196	40    	0.668179	0.00363219	0.664352	0.676529
197	40    	0.668179	0.00363219	0.664352	0.676529
198	40    	0.668179	0.00363219	0.664352	0.676529
199	40    	0.668179	0.00363219	0.664352	0.676529
200	40    	0.668179	0.00363219	0.664352	0.676529
201	40    	0.668527	0.00345281	0.664352	0.676529
202	40    	0.668527	0.00345281	0.664352	0.676529
203	40    	0.668527	0.00345281	0.664352	0.676529
204	40    	0.668527	0.00345281	0.664352	0.676529
205	40    	0.668527	0.00345281	0.664352	0.676529
206	40    	0.668527	0.00345281	0.664352	0.676529
207	40    	0.668527	0.00345281	0.664352	0.676529
208	40    	0.668527	0.00345281	0.664352	0.676529
209	40    	0.668527	0.00345281	0.664352	0.676529
210	40    	0.668527	0.00345281	0.664352	0.676529
211	40    	0.668527	0.00345281	0.664352	0.676529
212	40    	0.668527	0.00345281	0.664352	0.676529
213	40    	0.668788	0.00332218	0.664352	0.676529
214	40    	0.668788	0.00332218	0.664352	0.676529
215	40    	0.668788	0.00332218	0.664352	0.676529
216	40    	0.669049	0.00316475	0.666092	0.676529
217	40    	0.669049	0.00316475	0.666092	0.676529
218	40    	0.669049	0.00316475	0.666092	0.676529
219	40    	0.669049	0.00316475	0.666092	0.676529
220	40    	0.669049	0.00316475	0.666092	0.676529
221	40    	0.669049	0.00316475	0.666092	0.676529
222	40    	0.669049	0.00316475	0.666092	0.676529
223	40    	0.669049	0.00316475	0.666092	0.676529
224	40    	0.669049	0.00316475	0.666092	0.676529
225	40    	0.669049	0.00316475	0.666092	0.676529
226	40    	0.669049	0.00316475	0.666092	0.676529
227	40    	0.669049	0.00316475	0.666092	0.676529
228	40    	0.669223	0.00309221	0.666092	0.676529
229	40    	0.669223	0.00309221	0.666092	0.676529
230	40    	0.669223	0.00309221	0.666092	0.676529
231	40    	0.669223	0.00309221	0.666092	0.676529
232	40    	0.669484	0.00303666	0.666092	0.676529
233	40    	0.669484	0.00303666	0.666092	0.676529
234	40    	0.669484	0.00303666	0.666092	0.676529
235	40    	0.669484	0.00303666	0.666092	0.676529
236	40    	0.669484	0.00303666	0.666092	0.676529
237	40    	0.669484	0.00303666	0.666092	0.676529
238	40    	0.669484	0.00303666	0.666092	0.676529
239	40    	0.669484	0.00303666	0.666092	0.676529
240	40    	0.669484	0.00303666	0.666092	0.676529
241	40    	0.669484	0.00303666	0.666092	0.676529
242	40    	0.669484	0.00303666	0.666092	0.676529
243	40    	0.669484	0.00303666	0.666092	0.676529
244	40    	0.669484	0.00303666	0.666092	0.676529
245	40    	0.669832	0.00302668	0.666092	0.676529
246	40    	0.669832	0.00302668	0.666092	0.676529
247	40    	0.669832	0.00302668	0.666092	0.676529
248	40    	0.669832	0.00302668	0.666092	0.676529
249	40    	0.669832	0.00302668	0.666092	0.676529
250	40    	0.669832	0.00302668	0.666092	0.676529
