gen	nevals	avg     	std       	min     	max     
0  	20    	0.589857	0.0155928 	0.568069	0.620651
1  	40    	0.603003	0.010827  	0.58873 	0.620651
2  	40    	0.611456	0.00610925	0.601883	0.62442 
3  	40    	0.614647	0.00627314	0.605637	0.631927
4  	40    	0.616336	0.00538106	0.60939 	0.631927
5  	40    	0.616618	0.00515275	0.611267	0.631927
6  	40    	0.620656	0.00862898	0.613144	0.650711
7  	40    	0.620656	0.00862898	0.613144	0.650711
8  	40    	0.622815	0.00911146	0.615021	0.650711
9  	40    	0.625819	0.00975786	0.616898	0.650711
10 	40    	0.628168	0.00929739	0.618774	0.650711
11 	40    	0.630047	0.00876939	0.618774	0.650711
12 	40    	0.630986	0.00819744	0.622528	0.650711
13 	40    	0.632208	0.00747061	0.622528	0.650711
14 	40    	0.634462	0.00677599	0.62442 	0.650711
15 	40    	0.636057	0.00624349	0.628174	0.650711
16 	40    	0.636902	0.00582528	0.630051	0.650711
17 	40    	0.63709 	0.00565963	0.630051	0.650711
18 	40    	0.638122	0.00528035	0.631927	0.650711
19 	40    	0.638591	0.0051237 	0.631927	0.650711
20 	40    	0.639529	0.00498416	0.633804	0.650711
21 	40    	0.639717	0.00479686	0.633804	0.650711
22 	40    	0.639905	0.00463246	0.633804	0.650711
23 	40    	0.639905	0.00463246	0.633804	0.650711
24 	40    	0.640562	0.00445896	0.635681	0.650711
25 	40    	0.641595	0.00487116	0.635681	0.652588
26 	40    	0.641595	0.00487116	0.635681	0.652588
27 	40    	0.642815	0.00499106	0.635681	0.652588
28 	40    	0.643285	0.00473273	0.637558	0.652588
29 	40    	0.643942	0.00480459	0.637558	0.652588
30 	40    	0.644224	0.00450453	0.637558	0.652588
31 	40    	0.646008	0.00601415	0.639435	0.665726
32 	40    	0.647228	0.00615301	0.641312	0.665726
33 	40    	0.64798 	0.00592555	0.641312	0.665726
34 	40    	0.649294	0.00584772	0.643188	0.665726
35 	40    	0.650233	0.00578723	0.645065	0.665726
36 	40    	0.650233	0.00578723	0.645065	0.665726
37 	40    	0.650233	0.00578723	0.645065	0.665726
38 	40    	0.650891	0.00590864	0.645065	0.665726
39 	40    	0.652019	0.00579367	0.645065	0.665726
40 	40    	0.652113	0.00569463	0.645065	0.665726
41 	40    	0.652113	0.00569463	0.645065	0.665726
42 	40    	0.653053	0.0053424 	0.646942	0.665726
43 	40    	0.65371 	0.00535928	0.646942	0.665726
44 	40    	0.653992	0.00513953	0.646942	0.665726
45 	40    	0.653992	0.00513953	0.646942	0.665726
46 	40    	0.653992	0.00513953	0.646942	0.665726
47 	40    	0.654369	0.00487844	0.646942	0.665726
48 	40    	0.654932	0.00443853	0.648819	0.665726
49 	40    	0.654932	0.00443853	0.648819	0.665726
50 	40    	0.654932	0.00443853	0.648819	0.665726
51 	40    	0.654932	0.00443853	0.648819	0.665726
52 	40    	0.655402	0.00426039	0.648819	0.665726
53 	40    	0.655402	0.00426039	0.648819	0.665726
54 	40    	0.655402	0.00426039	0.648819	0.665726
55 	40    	0.655402	0.00426039	0.648819	0.665726
56 	40    	0.656623	0.00399351	0.650711	0.665726
57 	40    	0.657374	0.00353498	0.652588	0.665726
58 	40    	0.657937	0.00362355	0.652588	0.665726
59 	40    	0.657937	0.00362355	0.652588	0.665726
60 	40    	0.658312	0.0032222 	0.652588	0.665726
61 	40    	0.6585  	0.00298381	0.654465	0.665726
62 	40    	0.6585  	0.00298381	0.654465	0.665726
63 	40    	0.6585  	0.00298381	0.654465	0.665726
64 	40    	0.6585  	0.00298381	0.654465	0.665726
65 	40    	0.6585  	0.00298381	0.654465	0.665726
66 	40    	0.659063	0.0032222 	0.654465	0.665726
67 	40    	0.659063	0.0032222 	0.654465	0.665726
68 	40    	0.659063	0.0032222 	0.654465	0.665726
69 	40    	0.659063	0.0032222 	0.654465	0.665726
70 	40    	0.659157	0.00311237	0.656342	0.665726
71 	40    	0.65972 	0.00306102	0.656342	0.665726
72 	40    	0.65972 	0.00306102	0.656342	0.665726
73 	40    	0.65972 	0.00306102	0.656342	0.665726
74 	40    	0.65972 	0.00306102	0.656342	0.665726
75 	40    	0.65972 	0.00306102	0.656342	0.665726
76 	40    	0.65972 	0.00306102	0.656342	0.665726
77 	40    	0.65972 	0.00306102	0.656342	0.665726
78 	40    	0.65972 	0.00306102	0.656342	0.665726
79 	40    	0.65972 	0.00306102	0.656342	0.665726
80 	40    	0.661128	0.004914  	0.656342	0.678879
81 	40    	0.661785	0.00510464	0.656342	0.678879
82 	40    	0.661785	0.00510464	0.656342	0.678879
83 	40    	0.661785	0.00510464	0.656342	0.678879
84 	40    	0.662348	0.00509419	0.658218	0.678879
85 	40    	0.662348	0.00509419	0.658218	0.678879
86 	40    	0.662348	0.00509419	0.658218	0.678879
87 	40    	0.662348	0.00509419	0.658218	0.678879
88 	40    	0.662442	0.00503418	0.658218	0.678879
89 	40    	0.662817	0.00498491	0.658218	0.678879
90 	40    	0.662817	0.00498491	0.658218	0.678879
91 	40    	0.662817	0.00498491	0.658218	0.678879
92 	40    	0.662817	0.00498491	0.658218	0.678879
93 	40    	0.663662	0.00492881	0.658218	0.678879
94 	40    	0.664225	0.00473555	0.658218	0.678879
95 	40    	0.664225	0.00473555	0.658218	0.678879
96 	40    	0.664225	0.00473555	0.658218	0.678879
97 	40    	0.664225	0.00473555	0.658218	0.678879
98 	40    	0.664225	0.00473555	0.658218	0.678879
99 	40    	0.664225	0.00473555	0.658218	0.678879
100	40    	0.66507 	0.00508253	0.660095	0.678879
101	40    	0.66507 	0.00508253	0.660095	0.678879
102	40    	0.66507 	0.00508253	0.660095	0.678879
103	40    	0.66507 	0.00508253	0.660095	0.678879
104	40    	0.66507 	0.00508253	0.660095	0.678879
105	40    	0.66507 	0.00508253	0.660095	0.678879
106	40    	0.66507 	0.00508253	0.660095	0.678879
107	40    	0.66507 	0.00508253	0.660095	0.678879
108	40    	0.66507 	0.00508253	0.660095	0.678879
109	40    	0.66507 	0.00508253	0.660095	0.678879
110	40    	0.66507 	0.00508253	0.660095	0.678879
111	40    	0.666009	0.00576607	0.660095	0.678879
112	40    	0.666009	0.00576607	0.660095	0.678879
113	40    	0.666009	0.00576607	0.660095	0.678879
114	40    	0.666009	0.00576607	0.660095	0.678879
115	40    	0.666009	0.00576607	0.660095	0.678879
116	40    	0.666009	0.00576607	0.660095	0.678879
117	40    	0.666009	0.00576607	0.660095	0.678879
118	40    	0.666009	0.00576607	0.660095	0.678879
119	40    	0.666103	0.00568375	0.660095	0.678879
120	40    	0.666103	0.00568375	0.660095	0.678879
121	40    	0.666478	0.00552016	0.660095	0.678879
122	40    	0.667229	0.00562113	0.660095	0.678879
123	40    	0.667886	0.00532075	0.661972	0.678879
124	40    	0.667886	0.00532075	0.661972	0.678879
125	40    	0.667886	0.00532075	0.661972	0.678879
126	40    	0.668261	0.00515247	0.661972	0.678879
127	40    	0.668261	0.00515247	0.661972	0.678879
128	40    	0.668261	0.00515247	0.661972	0.678879
129	40    	0.668824	0.00504871	0.661972	0.678879
130	40    	0.669387	0.00469422	0.663849	0.678879
131	40    	0.669762	0.00437563	0.663849	0.678879
132	40    	0.670701	0.00399663	0.665726	0.678879
133	40    	0.670701	0.00399663	0.665726	0.678879
134	40    	0.670701	0.00399663	0.665726	0.678879
135	40    	0.670701	0.00399663	0.665726	0.678879
136	40    	0.670701	0.00399663	0.665726	0.678879
137	40    	0.670795	0.00389956	0.665726	0.678879
138	40    	0.670795	0.00389956	0.665726	0.678879
139	40    	0.670795	0.00389956	0.665726	0.678879
140	40    	0.670795	0.00389956	0.665726	0.678879
141	40    	0.670795	0.00389956	0.665726	0.678879
142	40    	0.671076	0.00372269	0.665726	0.678879
143	40    	0.671076	0.00372269	0.665726	0.678879
144	40    	0.671076	0.00372269	0.665726	0.678879
145	40    	0.671545	0.00360837	0.667603	0.678879
146	40    	0.672203	0.00400649	0.667603	0.680756
147	40    	0.672673	0.00399053	0.667603	0.680756
148	40    	0.672673	0.00399053	0.667603	0.680756
149	40    	0.672673	0.00399053	0.667603	0.680756
150	40    	0.672673	0.00399053	0.667603	0.680756
151	40    	0.672673	0.00399053	0.667603	0.680756
152	40    	0.672673	0.00399053	0.667603	0.680756
153	40    	0.672673	0.00399053	0.667603	0.680756
154	40    	0.672673	0.00399053	0.667603	0.680756
155	40    	0.672673	0.00399053	0.667603	0.680756
156	40    	0.672673	0.00399053	0.667603	0.680756
157	40    	0.672673	0.00399053	0.667603	0.680756
158	40    	0.673237	0.00403069	0.667603	0.680756
159	40    	0.673237	0.00403069	0.667603	0.680756
160	40    	0.673237	0.00403069	0.667603	0.680756
161	40    	0.673237	0.00403069	0.667603	0.680756
162	40    	0.673237	0.00403069	0.667603	0.680756
163	40    	0.673237	0.00403069	0.667603	0.680756
164	40    	0.673237	0.00403069	0.667603	0.680756
165	40    	0.673331	0.00391872	0.667603	0.680756
166	40    	0.673331	0.00391872	0.667603	0.680756
167	40    	0.673706	0.00370582	0.667603	0.680756
168	40    	0.673706	0.00370582	0.667603	0.680756
169	40    	0.673706	0.00370582	0.667603	0.680756
170	40    	0.673706	0.00370582	0.667603	0.680756
171	40    	0.673706	0.00370582	0.667603	0.680756
172	40    	0.673706	0.00370582	0.667603	0.680756
173	40    	0.673706	0.00370582	0.667603	0.680756
174	40    	0.674645	0.00436206	0.669479	0.686386
175	40    	0.674927	0.00419819	0.669479	0.686386
176	40    	0.674927	0.00419819	0.669479	0.686386
177	40    	0.674927	0.00419819	0.669479	0.686386
178	40    	0.675303	0.00402678	0.669479	0.686386
179	40    	0.675303	0.00402678	0.669479	0.686386
180	40    	0.675961	0.00409548	0.669479	0.686386
181	40    	0.676148	0.0038742 	0.671356	0.686386
182	40    	0.676431	0.00371725	0.671356	0.686386
183	40    	0.676431	0.00371725	0.671356	0.686386
184	40    	0.676431	0.00371725	0.671356	0.686386
185	40    	0.676431	0.00371725	0.671356	0.686386
186	40    	0.676431	0.00371725	0.671356	0.686386
187	40    	0.676431	0.00371725	0.671356	0.686386
188	40    	0.676524	0.00361012	0.671356	0.686386
189	40    	0.676524	0.00361012	0.671356	0.686386
190	40    	0.676618	0.00349718	0.673233	0.686386
191	40    	0.676618	0.00349718	0.673233	0.686386
192	40    	0.676618	0.00349718	0.673233	0.686386
193	40    	0.676618	0.00349718	0.673233	0.686386
194	40    	0.676618	0.00349718	0.673233	0.686386
195	40    	0.676618	0.00349718	0.673233	0.686386
196	40    	0.676618	0.00349718	0.673233	0.686386
197	40    	0.676618	0.00349718	0.673233	0.686386
198	40    	0.676618	0.00349718	0.673233	0.686386
199	40    	0.676712	0.00342961	0.673233	0.686386
200	40    	0.677276	0.00372546	0.673233	0.686386
201	40    	0.677276	0.00372546	0.673233	0.686386
202	40    	0.677558	0.00362086	0.673233	0.686386
203	40    	0.677747	0.00348644	0.673233	0.686386
204	40    	0.677747	0.00348644	0.673233	0.686386
205	40    	0.678217	0.00347985	0.673233	0.686386
206	40    	0.678217	0.00347985	0.673233	0.686386
207	40    	0.678217	0.00347985	0.673233	0.686386
208	40    	0.678217	0.00347985	0.673233	0.686386
209	40    	0.678217	0.00347985	0.673233	0.686386
210	40    	0.67831 	0.00336769	0.67511 	0.686386
211	40    	0.67831 	0.00336769	0.67511 	0.686386
212	40    	0.67831 	0.00336769	0.67511 	0.686386
213	40    	0.67831 	0.00336769	0.67511 	0.686386
214	40    	0.67831 	0.00336769	0.67511 	0.686386
215	40    	0.67831 	0.00336769	0.67511 	0.686386
216	40    	0.67831 	0.00336769	0.67511 	0.686386
217	40    	0.67831 	0.00336769	0.67511 	0.686386
218	40    	0.67831 	0.00336769	0.67511 	0.686386
219	40    	0.67831 	0.00336769	0.67511 	0.686386
220	40    	0.67831 	0.00336769	0.67511 	0.686386
221	40    	0.67831 	0.00336769	0.67511 	0.686386
222	40    	0.67831 	0.00336769	0.67511 	0.686386
223	40    	0.67831 	0.00336769	0.67511 	0.686386
224	40    	0.67831 	0.00336769	0.67511 	0.686386
225	40    	0.67831 	0.00336769	0.67511 	0.686386
226	40    	0.67831 	0.00336769	0.67511 	0.686386
227	40    	0.67831 	0.00336769	0.67511 	0.686386
228	40    	0.67831 	0.00336769	0.67511 	0.686386
229	40    	0.67831 	0.00336769	0.67511 	0.686386
230	40    	0.67831 	0.00336769	0.67511 	0.686386
231	40    	0.67831 	0.00336769	0.67511 	0.686386
232	40    	0.67831 	0.00336769	0.67511 	0.686386
233	40    	0.67831 	0.00336769	0.67511 	0.686386
234	40    	0.67831 	0.00336769	0.67511 	0.686386
235	40    	0.67831 	0.00336769	0.67511 	0.686386
236	40    	0.678593	0.00332392	0.67511 	0.686386
237	40    	0.678593	0.00332392	0.67511 	0.686386
238	40    	0.678593	0.00332392	0.67511 	0.686386
239	40    	0.678593	0.00332392	0.67511 	0.686386
240	40    	0.678593	0.00332392	0.67511 	0.686386
241	40    	0.678593	0.00332392	0.67511 	0.686386
242	40    	0.678593	0.00332392	0.67511 	0.686386
243	40    	0.678593	0.00332392	0.67511 	0.686386
244	40    	0.678593	0.00332392	0.67511 	0.686386
245	40    	0.678593	0.00332392	0.67511 	0.686386
246	40    	0.678593	0.00332392	0.67511 	0.686386
247	40    	0.678687	0.00324954	0.67511 	0.686386
248	40    	0.678687	0.00324954	0.67511 	0.686386
249	40    	0.678687	0.00324954	0.67511 	0.686386
250	40    	0.678687	0.00324954	0.67511 	0.686386
