gen	nevals	avg     	std       	min     	max     
0  	20    	0.585016	0.0216289 	0.531631	0.618195
1  	40    	0.601553	0.0108646 	0.5849  	0.624863
2  	40    	0.609212	0.0100618 	0.598221	0.638184
3  	40    	0.613319	0.00832207	0.602661	0.638184
4  	40    	0.617425	0.00674207	0.611542	0.638184
5  	40    	0.626191	0.00846595	0.615982	0.649277
6  	40    	0.630853	0.00753178	0.622635	0.649277
7  	40    	0.632296	0.00670645	0.624863	0.649277
8  	40    	0.636958	0.00760737	0.627075	0.66037 
9  	40    	0.637292	0.00730712	0.629303	0.66037 
10 	40    	0.638179	0.00684075	0.629303	0.66037 
11 	40    	0.639511	0.00641017	0.631516	0.66037 
12 	40    	0.639733	0.00620294	0.633743	0.66037 
13 	40    	0.639733	0.00620294	0.633743	0.66037 
14 	40    	0.641509	0.00689654	0.635956	0.66037 
15 	40    	0.642509	0.00717522	0.635956	0.66037 
16 	40    	0.643176	0.00697984	0.635956	0.66037 
17 	40    	0.643842	0.0065639 	0.638184	0.66037 
18 	40    	0.644841	0.00684124	0.638184	0.66037 
19 	40    	0.646062	0.00648995	0.638184	0.66037 
20 	40    	0.64706 	0.00673306	0.638184	0.66037 
21 	40    	0.64706 	0.00673306	0.638184	0.66037 
22 	40    	0.647838	0.00604959	0.640396	0.66037 
23 	40    	0.647949	0.00593088	0.640396	0.66037 
24 	40    	0.648283	0.00567899	0.640396	0.66037 
25 	40    	0.648727	0.00538454	0.642624	0.66037 
26 	40    	0.648727	0.00538454	0.642624	0.66037 
27 	40    	0.649059	0.00519958	0.642624	0.66037 
28 	40    	0.651167	0.00684958	0.642624	0.673691
29 	40    	0.651611	0.00656321	0.644836	0.673691
30 	40    	0.651611	0.00656321	0.644836	0.673691
31 	40    	0.651945	0.00637732	0.647064	0.673691
32 	40    	0.652167	0.0062801 	0.647064	0.673691
33 	40    	0.652277	0.00620832	0.647064	0.673691
34 	40    	0.65261 	0.00601622	0.647064	0.673691
35 	40    	0.65261 	0.00601622	0.647064	0.673691
36 	40    	0.652832	0.00588803	0.647064	0.673691
37 	40    	0.652832	0.00588803	0.647064	0.673691
38 	40    	0.653054	0.00574842	0.647064	0.673691
39 	40    	0.653054	0.00574842	0.647064	0.673691
40 	40    	0.653054	0.00574842	0.647064	0.673691
41 	40    	0.653054	0.00574842	0.647064	0.673691
42 	40    	0.653609	0.00554675	0.649277	0.673691
43 	40    	0.653721	0.0054806 	0.649277	0.673691
44 	40    	0.654498	0.00588174	0.649277	0.673691
45 	40    	0.65472 	0.00576309	0.649277	0.673691
46 	40    	0.655941	0.00603498	0.651505	0.673691
47 	40    	0.656606	0.00623918	0.651505	0.673691
48 	40    	0.656939	0.00613479	0.651505	0.673691
49 	40    	0.658825	0.0067703 	0.651505	0.673691
50 	40    	0.659047	0.0065972 	0.651505	0.673691
51 	40    	0.65938 	0.0063724 	0.651505	0.673691
52 	40    	0.65938 	0.0063724 	0.651505	0.673691
53 	40    	0.65938 	0.0063724 	0.651505	0.673691
54 	40    	0.65938 	0.0063724 	0.651505	0.673691
55 	40    	0.65938 	0.0063724 	0.651505	0.673691
56 	40    	0.659712	0.00612133	0.651505	0.673691
57 	40    	0.659934	0.005896  	0.653717	0.673691
58 	40    	0.661488	0.00609621	0.653717	0.673691
59 	40    	0.66171 	0.00588642	0.655945	0.673691
60 	40    	0.66171 	0.00588642	0.655945	0.673691
61 	40    	0.66182 	0.00579716	0.655945	0.673691
62 	40    	0.663262	0.00673536	0.655945	0.680359
63 	40    	0.663262	0.00673536	0.655945	0.680359
64 	40    	0.663262	0.00673536	0.655945	0.680359
65 	40    	0.663927	0.00663613	0.655945	0.680359
66 	40    	0.663927	0.00663613	0.655945	0.680359
67 	40    	0.664259	0.00631295	0.658157	0.680359
68 	40    	0.664259	0.00631295	0.658157	0.680359
69 	40    	0.664259	0.00631295	0.658157	0.680359
70 	40    	0.664259	0.00631295	0.658157	0.680359
71 	40    	0.664259	0.00631295	0.658157	0.680359
72 	40    	0.66437 	0.00622381	0.658157	0.680359
73 	40    	0.664481	0.00613138	0.658157	0.680359
74 	40    	0.664481	0.00613138	0.658157	0.680359
75 	40    	0.664481	0.00613138	0.658157	0.680359
76 	40    	0.664591	0.0060355 	0.658157	0.680359
77 	40    	0.664591	0.0060355 	0.658157	0.680359
78 	40    	0.664813	0.00587426	0.658157	0.680359
79 	40    	0.66559 	0.00526778	0.66037 	0.680359
80 	40    	0.66559 	0.00526778	0.66037 	0.680359
81 	40    	0.66559 	0.00526778	0.66037 	0.680359
82 	40    	0.666145	0.00527373	0.66037 	0.680359
83 	40    	0.666145	0.00527373	0.66037 	0.680359
84 	40    	0.666145	0.00527373	0.66037 	0.680359
85 	40    	0.667255	0.00515492	0.66037 	0.680359
86 	40    	0.667255	0.00515492	0.66037 	0.680359
87 	40    	0.6677  	0.0047667 	0.66037 	0.680359
88 	40    	0.668366	0.00462444	0.662598	0.680359
89 	40    	0.668366	0.00462444	0.662598	0.680359
90 	40    	0.668366	0.00462444	0.662598	0.680359
91 	40    	0.668366	0.00462444	0.662598	0.680359
92 	40    	0.668366	0.00462444	0.662598	0.680359
93 	40    	0.668366	0.00462444	0.662598	0.680359
94 	40    	0.668366	0.00462444	0.662598	0.680359
95 	40    	0.668588	0.00444528	0.662598	0.680359
96 	40    	0.668588	0.00444528	0.662598	0.680359
97 	40    	0.668588	0.00444528	0.662598	0.680359
98 	40    	0.668588	0.00444528	0.662598	0.680359
99 	40    	0.668588	0.00444528	0.662598	0.680359
100	40    	0.66881 	0.00424701	0.662598	0.680359
101	40    	0.66881 	0.00424701	0.662598	0.680359
102	40    	0.670364	0.00435645	0.66481 	0.680359
103	40    	0.670364	0.00435645	0.66481 	0.680359
104	40    	0.670364	0.00435645	0.66481 	0.680359
105	40    	0.670364	0.00435645	0.66481 	0.680359
106	40    	0.670586	0.0041772 	0.66481 	0.680359
107	40    	0.67103 	0.00388368	0.667038	0.680359
108	40    	0.67103 	0.00388368	0.667038	0.680359
109	40    	0.67103 	0.00388368	0.667038	0.680359
110	40    	0.67103 	0.00388368	0.667038	0.680359
111	40    	0.67103 	0.00388368	0.667038	0.680359
112	40    	0.671252	0.00377449	0.667038	0.680359
113	40    	0.671696	0.00377494	0.667038	0.680359
114	40    	0.671696	0.00377494	0.667038	0.680359
115	40    	0.671696	0.00377494	0.667038	0.680359
116	40    	0.671807	0.00366769	0.667038	0.680359
117	40    	0.671807	0.00366769	0.667038	0.680359
118	40    	0.671807	0.00366769	0.667038	0.680359
119	40    	0.673028	0.00427838	0.66925 	0.684799
120	40    	0.673139	0.00420699	0.66925 	0.684799
121	40    	0.673139	0.00420699	0.66925 	0.684799
122	40    	0.673806	0.00429954	0.66925 	0.684799
123	40    	0.673806	0.00429954	0.66925 	0.684799
124	40    	0.674028	0.00417131	0.66925 	0.684799
125	40    	0.674361	0.00404056	0.66925 	0.684799
126	40    	0.674473	0.00392725	0.66925 	0.684799
127	40    	0.674473	0.00392725	0.66925 	0.684799
128	40    	0.674473	0.00392725	0.66925 	0.684799
129	40    	0.674473	0.00392725	0.66925 	0.684799
130	40    	0.674473	0.00392725	0.66925 	0.684799
131	40    	0.674473	0.00392725	0.66925 	0.684799
132	40    	0.674473	0.00392725	0.66925 	0.684799
133	40    	0.674473	0.00392725	0.66925 	0.684799
134	40    	0.674473	0.00392725	0.66925 	0.684799
135	40    	0.67525 	0.00433439	0.671478	0.684799
136	40    	0.67525 	0.00433439	0.671478	0.684799
137	40    	0.675361	0.00426438	0.671478	0.684799
138	40    	0.675361	0.00426438	0.671478	0.684799
139	40    	0.675361	0.00426438	0.671478	0.684799
140	40    	0.675361	0.00426438	0.671478	0.684799
141	40    	0.675694	0.00420764	0.671478	0.684799
142	40    	0.675694	0.00420764	0.671478	0.684799
143	40    	0.675694	0.00420764	0.671478	0.684799
144	40    	0.675694	0.00420764	0.671478	0.684799
145	40    	0.675694	0.00420764	0.671478	0.684799
146	40    	0.675694	0.00420764	0.671478	0.684799
147	40    	0.675694	0.00420764	0.671478	0.684799
148	40    	0.675916	0.004095  	0.671478	0.684799
149	40    	0.675916	0.004095  	0.671478	0.684799
150	40    	0.675916	0.004095  	0.671478	0.684799
151	40    	0.675916	0.004095  	0.671478	0.684799
152	40    	0.675916	0.004095  	0.671478	0.684799
153	40    	0.676026	0.00400248	0.671478	0.684799
154	40    	0.676026	0.00400248	0.671478	0.684799
155	40    	0.676026	0.00400248	0.671478	0.684799
156	40    	0.676026	0.00400248	0.671478	0.684799
157	40    	0.676803	0.00451847	0.671478	0.687012
158	40    	0.676803	0.00451847	0.671478	0.687012
159	40    	0.676803	0.00451847	0.671478	0.687012
160	40    	0.676803	0.00451847	0.671478	0.687012
161	40    	0.676803	0.00451847	0.671478	0.687012
162	40    	0.676803	0.00451847	0.671478	0.687012
163	40    	0.676803	0.00451847	0.671478	0.687012
164	40    	0.676803	0.00451847	0.671478	0.687012
165	40    	0.676803	0.00451847	0.671478	0.687012
166	40    	0.676803	0.00451847	0.671478	0.687012
167	40    	0.676803	0.00451847	0.671478	0.687012
168	40    	0.676803	0.00451847	0.671478	0.687012
169	40    	0.676803	0.00451847	0.671478	0.687012
170	40    	0.677025	0.00435762	0.671478	0.687012
171	40    	0.677025	0.00435762	0.671478	0.687012
172	40    	0.677025	0.00435762	0.671478	0.687012
173	40    	0.677025	0.00435762	0.671478	0.687012
174	40    	0.677135	0.00424195	0.673691	0.687012
175	40    	0.677357	0.00417147	0.673691	0.687012
176	40    	0.677579	0.00408773	0.673691	0.687012
177	40    	0.677802	0.00398991	0.673691	0.687012
178	40    	0.677802	0.00398991	0.673691	0.687012
179	40    	0.677802	0.00398991	0.673691	0.687012
180	40    	0.677802	0.00398991	0.673691	0.687012
181	40    	0.677802	0.00398991	0.673691	0.687012
182	40    	0.677802	0.00398991	0.673691	0.687012
183	40    	0.677802	0.00398991	0.673691	0.687012
184	40    	0.677802	0.00398991	0.673691	0.687012
185	40    	0.678246	0.00381261	0.673691	0.687012
186	40    	0.678246	0.00381261	0.673691	0.687012
187	40    	0.678246	0.00381261	0.673691	0.687012
188	40    	0.678802	0.00391624	0.673691	0.687012
189	40    	0.679024	0.0037422 	0.673691	0.687012
190	40    	0.679024	0.0037422 	0.673691	0.687012
191	40    	0.679469	0.00339608	0.675919	0.687012
192	40    	0.679469	0.00339608	0.675919	0.687012
193	40    	0.679469	0.00339608	0.675919	0.687012
194	40    	0.679469	0.00339608	0.675919	0.687012
195	40    	0.679469	0.00339608	0.675919	0.687012
196	40    	0.679469	0.00339608	0.675919	0.687012
197	40    	0.679469	0.00339608	0.675919	0.687012
198	40    	0.680357	0.00449585	0.675919	0.69368 
199	40    	0.680357	0.00449585	0.675919	0.69368 
200	40    	0.680357	0.00449585	0.675919	0.69368 
201	40    	0.680357	0.00449585	0.675919	0.69368 
202	40    	0.680801	0.00447409	0.675919	0.69368 
203	40    	0.680801	0.00447409	0.675919	0.69368 
204	40    	0.681577	0.00488827	0.675919	0.69368 
205	40    	0.681799	0.00472431	0.675919	0.69368 
206	40    	0.68191 	0.00460982	0.675919	0.69368 
207	40    	0.682243	0.00440078	0.678131	0.69368 
208	40    	0.682243	0.00440078	0.678131	0.69368 
209	40    	0.682798	0.00454544	0.678131	0.69368 
210	40    	0.683464	0.00478257	0.678131	0.69368 
211	40    	0.683464	0.00478257	0.678131	0.69368 
212	40    	0.683464	0.00478257	0.678131	0.69368 
213	40    	0.683464	0.00478257	0.678131	0.69368 
214	40    	0.683464	0.00478257	0.678131	0.69368 
215	40    	0.683464	0.00478257	0.678131	0.69368 
216	40    	0.683464	0.00478257	0.678131	0.69368 
217	40    	0.683575	0.00468195	0.678131	0.69368 
218	40    	0.684241	0.00480594	0.678131	0.69368 
219	40    	0.684241	0.00480594	0.678131	0.69368 
220	40    	0.684241	0.00480594	0.678131	0.69368 
221	40    	0.684797	0.00470858	0.678131	0.69368 
222	40    	0.684797	0.00470858	0.678131	0.69368 
223	40    	0.684797	0.00470858	0.678131	0.69368 
224	40    	0.685019	0.00448859	0.680359	0.69368 
225	40    	0.685019	0.00448859	0.680359	0.69368 
226	40    	0.685019	0.00448859	0.680359	0.69368 
227	40    	0.685019	0.00448859	0.680359	0.69368 
228	40    	0.685019	0.00448859	0.680359	0.69368 
229	40    	0.685019	0.00448859	0.680359	0.69368 
230	40    	0.685019	0.00448859	0.680359	0.69368 
231	40    	0.685019	0.00448859	0.680359	0.69368 
232	40    	0.685462	0.00427521	0.680359	0.69368 
233	40    	0.685462	0.00427521	0.680359	0.69368 
234	40    	0.685462	0.00427521	0.680359	0.69368 
235	40    	0.685462	0.00427521	0.680359	0.69368 
236	40    	0.685462	0.00427521	0.680359	0.69368 
237	40    	0.685462	0.00427521	0.680359	0.69368 
238	40    	0.685462	0.00427521	0.680359	0.69368 
239	40    	0.685462	0.00427521	0.680359	0.69368 
240	40    	0.685462	0.00427521	0.680359	0.69368 
241	40    	0.685462	0.00427521	0.680359	0.69368 
242	40    	0.685462	0.00427521	0.680359	0.69368 
243	40    	0.685573	0.00416903	0.680359	0.69368 
244	40    	0.685573	0.00416903	0.680359	0.69368 
245	40    	0.685573	0.00416903	0.680359	0.69368 
246	40    	0.685573	0.00416903	0.680359	0.69368 
247	40    	0.685573	0.00416903	0.680359	0.69368 
248	40    	0.685573	0.00416903	0.680359	0.69368 
249	40    	0.685573	0.00416903	0.680359	0.69368 
250	40    	0.685573	0.00416903	0.680359	0.69368 
