Run:10 Evals:10020 MES:10020.0 MAD:0.0 FAILURES:11 Best:0.83251953125 Solution:1.0
Run:11 Evals:10020 MES:10020.0 MAD:0.0 FAILURES:12 Best:0.8634185791015625 Solution:1.0
Run:12 Evals:10020 MES:10020.0 MAD:0.0 FAILURES:13 Best:0.83251953125 Solution:1.0
Run:13 Evals:10020 MES:10020.0 MAD:0.0 FAILURES:14 Best:0.826080322265625 Solution:1.0
Run:14 Evals:10020 MES:10020.0 MAD:0.0 FAILURES:15 Best:0.83251953125 Solution:1.0
Run:15 Evals:10020 MES:10020.0 MAD:0.0 FAILURES:16 Best:0.840789794921875 Solution:1.0
Run:16 Evals:10020 MES:10020.0 MAD:0.0 FAILURES:17 Best:0.8620758056640625 Solution:1.0
Run:17 Evals:10020 MES:10020.0 MAD:0.0 FAILURES:18 Best:0.8536529541015625 Solution:1.0
Run:18 Evals:10020 MES:10020.0 MAD:0.0 FAILURES:19 Best:0.8086090087890625 Solution:1.0
Run:19 Evals:10020 MES:10020.0 MAD:0.0 FAILURES:20 Best:0.8507537841796875 Solution:1.0

