Run:200 Evals:10020 MES:10020.0 MAD:0.0 FAILURES:180 Best:0.927276611328125 Solution:1.0
Run:201 Evals:10020 MES:10020.0 MAD:0.0 FAILURES:181 Best:0.90740966796875 Solution:1.0
Run:202 Evals:10020 MES:10020.0 MAD:0.0 FAILURES:182 Best:0.9629669189453125 Solution:1.0
Run:203 Evals:10020 MES:10020.0 MAD:0.0 FAILURES:183 Best:0.943389892578125 Solution:1.0
Run:204 Evals:10020 MES:10020.0 MAD:0.0 FAILURES:184 Best:0.943389892578125 Solution:1.0
Run:205 Evals:10020 MES:10020.0 MAD:0.0 FAILURES:185 Best:0.943389892578125 Solution:1.0
Run:206 Evals:10020 MES:10020.0 MAD:0.0 FAILURES:186 Best:0.943389892578125 Solution:1.0
Run:207 Evals:10020 MES:10020.0 MAD:0.0 FAILURES:187 Best:0.9259185791015625 Solution:1.0
Run:208 Evals:10020 MES:10020.0 MAD:0.0 FAILURES:188 Best:0.9444427490234375 Solution:1.0
Run:209 Evals:10020 MES:10020.0 MAD:0.0 FAILURES:189 Best:0.924530029296875 Solution:1.0

