gen	nevals	avg     	std       	min     	max     
0  	20    	0.571979	0.0352502 	0.516907	0.652176
1  	40    	0.603381	0.0184527 	0.574875	0.652176
2  	40    	0.622221	0.0155488 	0.603867	0.652176
3  	40    	0.634781	0.0154605 	0.613525	0.671494
4  	40    	0.644926	0.0152395 	0.623184	0.681152
5  	40    	0.649277	0.0118711 	0.632843	0.681152
6  	40    	0.658939	0.0278495 	0.642517	0.768112
7  	40    	0.669082	0.0273049 	0.642517	0.768112
8  	40    	0.670048	0.0266827 	0.652176	0.768112
9  	40    	0.674394	0.0252126 	0.652176	0.768112
10 	40    	0.674394	0.0252126 	0.652176	0.768112
11 	40    	0.675843	0.0243417 	0.652176	0.768112
12 	40    	0.676326	0.0239602 	0.661835	0.768112
13 	40    	0.678258	0.0232886 	0.661835	0.768112
14 	40    	0.683572	0.022839  	0.661835	0.768112
15 	40    	0.685503	0.0214917 	0.671494	0.768112
16 	40    	0.688886	0.0208582 	0.671494	0.768112
17 	40    	0.690819	0.0202681 	0.671494	0.768112
18 	40    	0.692751	0.0201758 	0.671494	0.768112
19 	40    	0.695651	0.0194448 	0.681152	0.768112
20 	40    	0.696135	0.0191969 	0.681152	0.768112
21 	40    	0.698553	0.0179709 	0.681152	0.768112
22 	40    	0.699519	0.0175233 	0.681152	0.768112
23 	40    	0.701935	0.0173552 	0.690826	0.768112
24 	40    	0.703867	0.0181435 	0.690826	0.768112
25 	40    	0.705315	0.0176812 	0.690826	0.768112
26 	40    	0.706281	0.0171182 	0.690826	0.768112
27 	40    	0.708213	0.0160493 	0.690826	0.768112
28 	40    	0.708696	0.0156594 	0.700485	0.768112
29 	40    	0.710145	0.0155772 	0.700485	0.768112
30 	40    	0.713525	0.0156592 	0.700485	0.768112
31 	40    	0.715457	0.0154189 	0.700485	0.768112
32 	40    	0.716423	0.0150515 	0.700485	0.768112
33 	40    	0.716906	0.0146828 	0.700485	0.768112
34 	40    	0.716906	0.0146828 	0.700485	0.768112
35 	40    	0.72077 	0.0139672 	0.710144	0.768112
36 	40    	0.72077 	0.0139672 	0.710144	0.768112
37 	40    	0.72077 	0.0139672 	0.710144	0.768112
38 	40    	0.721253	0.0137568 	0.710144	0.768112
39 	40    	0.721253	0.0137568 	0.710144	0.768112
40 	40    	0.721736	0.0135259 	0.710144	0.768112
41 	40    	0.724152	0.0154209 	0.710144	0.768112
42 	40    	0.724152	0.0154209 	0.710144	0.768112
43 	40    	0.724635	0.0151231 	0.710144	0.768112
44 	40    	0.728983	0.0165884 	0.710144	0.768112
45 	40    	0.729465	0.0161682 	0.710144	0.768112
46 	40    	0.729948	0.015722  	0.710144	0.768112
47 	40    	0.730914	0.0150549 	0.719803	0.768112
48 	40    	0.730914	0.0150549 	0.719803	0.768112
49 	40    	0.730914	0.0150549 	0.719803	0.768112
50 	40    	0.732847	0.0150552 	0.719803	0.768112
51 	40    	0.734779	0.0157226 	0.719803	0.768112
52 	40    	0.735262	0.0154002 	0.719803	0.768112
53 	40    	0.735745	0.0150554 	0.719803	0.768112
54 	40    	0.735745	0.0150554 	0.719803	0.768112
55 	40    	0.735745	0.0150554 	0.719803	0.768112
56 	40    	0.735745	0.0150554 	0.719803	0.768112
57 	40    	0.742509	0.0218797 	0.719803	0.816422
58 	40    	0.744925	0.0205881 	0.729462	0.816422
59 	40    	0.745892	0.0202911 	0.729462	0.816422
60 	40    	0.746858	0.0199429 	0.729462	0.816422
61 	40    	0.746858	0.0199429 	0.729462	0.816422
62 	40    	0.746858	0.0199429 	0.729462	0.816422
63 	40    	0.748309	0.0191969 	0.729462	0.816422
64 	40    	0.748792	0.0188344 	0.729462	0.816422
65 	40    	0.748792	0.0188344 	0.729462	0.816422
66 	40    	0.748792	0.0188344 	0.729462	0.816422
67 	40    	0.753141	0.0174098 	0.729462	0.816422
68 	40    	0.754108	0.0165854 	0.739136	0.816422
69 	40    	0.754108	0.0165854 	0.739136	0.816422
70 	40    	0.754108	0.0165854 	0.739136	0.816422
71 	40    	0.756039	0.0169745 	0.739136	0.816422
72 	40    	0.757005	0.0162443 	0.739136	0.816422
73 	40    	0.757005	0.0162443 	0.739136	0.816422
74 	40    	0.758454	0.0158738 	0.748795	0.816422
75 	40    	0.758454	0.0158738 	0.748795	0.816422
76 	40    	0.758454	0.0158738 	0.748795	0.816422
77 	40    	0.758454	0.0158738 	0.748795	0.816422
78 	40    	0.758454	0.0158738 	0.748795	0.816422
79 	40    	0.758454	0.0158738 	0.748795	0.816422
80 	40    	0.758454	0.0158738 	0.748795	0.816422
81 	40    	0.758454	0.0158738 	0.748795	0.816422
82 	40    	0.758937	0.0157188 	0.748795	0.816422
83 	40    	0.758937	0.0157188 	0.748795	0.816422
84 	40    	0.758937	0.0157188 	0.748795	0.816422
85 	40    	0.759903	0.0156593 	0.748795	0.816422
86 	40    	0.761835	0.0165299 	0.748795	0.816422
87 	40    	0.761835	0.0165299 	0.748795	0.816422
88 	40    	0.761835	0.0165299 	0.748795	0.816422
89 	40    	0.761835	0.0165299 	0.748795	0.816422
90 	40    	0.761835	0.0165299 	0.748795	0.816422
91 	40    	0.762801	0.0163025 	0.748795	0.816422
92 	40    	0.762801	0.0163025 	0.748795	0.816422
93 	40    	0.762801	0.0163025 	0.748795	0.816422
94 	40    	0.763284	0.016021  	0.748795	0.816422
95 	40    	0.763284	0.016021  	0.748795	0.816422
96 	40    	0.765217	0.0164811 	0.748795	0.816422
97 	40    	0.765217	0.0164811 	0.748795	0.816422
98 	40    	0.767149	0.015846  	0.748795	0.816422
99 	40    	0.768114	0.0152763 	0.748795	0.816422
100	40    	0.768597	0.0148032 	0.748795	0.816422
101	40    	0.768597	0.0148032 	0.748795	0.816422
102	40    	0.768597	0.0148032 	0.748795	0.816422
103	40    	0.77053 	0.0146135 	0.758453	0.816422
104	40    	0.77053 	0.0146135 	0.758453	0.816422
105	40    	0.77053 	0.0146135 	0.758453	0.816422
106	40    	0.771013	0.0143639 	0.758453	0.816422
107	40    	0.771013	0.0143639 	0.758453	0.816422
108	40    	0.771013	0.0143639 	0.758453	0.816422
109	40    	0.772462	0.0144856 	0.758453	0.816422
110	40    	0.772462	0.0144856 	0.758453	0.816422
111	40    	0.772945	0.0141681 	0.758453	0.816422
112	40    	0.774395	0.0140941 	0.758453	0.816422
113	40    	0.775361	0.0136226 	0.758453	0.816422
114	40    	0.776327	0.0130629 	0.758453	0.816422
115	40    	0.776327	0.0130629 	0.758453	0.816422
116	40    	0.77681 	0.0125621 	0.758453	0.816422
117	40    	0.77681 	0.0125621 	0.758453	0.816422
118	40    	0.77681 	0.0125621 	0.758453	0.816422
119	40    	0.777293	0.0120211 	0.768112	0.816422
120	40    	0.777293	0.0120211 	0.768112	0.816422
121	40    	0.777293	0.0120211 	0.768112	0.816422
122	40    	0.777293	0.0120211 	0.768112	0.816422
123	40    	0.777293	0.0120211 	0.768112	0.816422
124	40    	0.777293	0.0120211 	0.768112	0.816422
125	40    	0.777293	0.0120211 	0.768112	0.816422
126	40    	0.777293	0.0120211 	0.768112	0.816422
127	40    	0.778742	0.0117959 	0.768112	0.816422
128	40    	0.778742	0.0117959 	0.768112	0.816422
129	40    	0.778742	0.0117959 	0.768112	0.816422
130	40    	0.779225	0.0115459 	0.768112	0.816422
131	40    	0.779225	0.0115459 	0.768112	0.816422
132	40    	0.780192	0.0113832 	0.768112	0.816422
133	40    	0.784057	0.0127005 	0.768112	0.816422
134	40    	0.784057	0.0127005 	0.768112	0.816422
135	40    	0.784057	0.0127005 	0.768112	0.816422
136	40    	0.784057	0.0127005 	0.768112	0.816422
137	40    	0.785506	0.01245   	0.768112	0.816422
138	40    	0.786956	0.0120207 	0.768112	0.816422
139	40    	0.786956	0.0120207 	0.768112	0.816422
140	40    	0.786956	0.0120207 	0.768112	0.816422
141	40    	0.786956	0.0120207 	0.768112	0.816422
142	40    	0.786956	0.0120207 	0.768112	0.816422
143	40    	0.786956	0.0120207 	0.768112	0.816422
144	40    	0.787923	0.011217  	0.777771	0.816422
145	40    	0.787923	0.011217  	0.777771	0.816422
146	40    	0.787923	0.011217  	0.777771	0.816422
147	40    	0.787923	0.011217  	0.777771	0.816422
148	40    	0.788406	0.0109747 	0.777771	0.816422
149	40    	0.788406	0.0109747 	0.777771	0.816422
150	40    	0.788406	0.0109747 	0.777771	0.816422
151	40    	0.78889 	0.0107052 	0.777771	0.816422
152	40    	0.78889 	0.0107052 	0.777771	0.816422
153	40    	0.78889 	0.0107052 	0.777771	0.816422
154	40    	0.78889 	0.0107052 	0.777771	0.816422
155	40    	0.78889 	0.0107052 	0.777771	0.816422
156	40    	0.78889 	0.0107052 	0.777771	0.816422
157	40    	0.78889 	0.0107052 	0.777771	0.816422
158	40    	0.78889 	0.0107052 	0.777771	0.816422
159	40    	0.78889 	0.0107052 	0.777771	0.816422
160	40    	0.789374	0.0104063 	0.777771	0.816422
161	40    	0.789374	0.0104063 	0.777771	0.816422
162	40    	0.789374	0.0104063 	0.777771	0.816422
163	40    	0.789857	0.0100753 	0.777771	0.816422
164	40    	0.789857	0.0100753 	0.777771	0.816422
165	40    	0.789857	0.0100753 	0.777771	0.816422
166	40    	0.789857	0.0100753 	0.777771	0.816422
167	40    	0.789857	0.0100753 	0.777771	0.816422
168	40    	0.789857	0.0100753 	0.777771	0.816422
169	40    	0.789857	0.0100753 	0.777771	0.816422
170	40    	0.789857	0.0100753 	0.777771	0.816422
171	40    	0.789857	0.0100753 	0.777771	0.816422
172	40    	0.789857	0.0100753 	0.777771	0.816422
173	40    	0.792273	0.0124088 	0.777771	0.82608 
174	40    	0.792273	0.0124088 	0.777771	0.82608 
175	40    	0.792273	0.0124088 	0.777771	0.82608 
176	40    	0.792273	0.0124088 	0.777771	0.82608 
177	40    	0.792273	0.0124088 	0.777771	0.82608 
178	40    	0.792273	0.0124088 	0.777771	0.82608 
179	40    	0.792757	0.0120164 	0.777771	0.82608 
180	40    	0.792757	0.0120164 	0.777771	0.82608 
181	40    	0.792757	0.0120164 	0.777771	0.82608 
182	40    	0.792757	0.0120164 	0.777771	0.82608 
183	40    	0.792757	0.0120164 	0.777771	0.82608 
184	40    	0.794206	0.0118689 	0.787445	0.82608 
185	40    	0.794206	0.0118689 	0.787445	0.82608 
186	40    	0.794206	0.0118689 	0.787445	0.82608 
187	40    	0.794206	0.0118689 	0.787445	0.82608 
188	40    	0.794206	0.0118689 	0.787445	0.82608 
189	40    	0.794206	0.0118689 	0.787445	0.82608 
190	40    	0.794206	0.0118689 	0.787445	0.82608 
191	40    	0.794206	0.0118689 	0.787445	0.82608 
192	40    	0.796138	0.0136254 	0.787445	0.82608 
193	40    	0.796138	0.0136254 	0.787445	0.82608 
194	40    	0.796138	0.0136254 	0.787445	0.82608 
195	40    	0.796138	0.0136254 	0.787445	0.82608 
196	40    	0.796138	0.0136254 	0.787445	0.82608 
197	40    	0.796138	0.0136254 	0.787445	0.82608 
198	40    	0.797104	0.0136596 	0.787445	0.82608 
199	40    	0.797104	0.0136596 	0.787445	0.82608 
200	40    	0.797104	0.0136596 	0.787445	0.82608 
201	40    	0.797104	0.0136596 	0.787445	0.82608 
202	40    	0.797104	0.0136596 	0.787445	0.82608 
203	40    	0.797104	0.0136596 	0.787445	0.82608 
204	40    	0.797104	0.0136596 	0.787445	0.82608 
205	40    	0.797587	0.0134792 	0.787445	0.82608 
206	40    	0.797587	0.0134792 	0.787445	0.82608 
207	40    	0.797587	0.0134792 	0.787445	0.82608 
208	40    	0.797587	0.0134792 	0.787445	0.82608 
209	40    	0.797587	0.0134792 	0.787445	0.82608 
210	40    	0.797587	0.0134792 	0.787445	0.82608 
211	40    	0.797587	0.0134792 	0.787445	0.82608 
212	40    	0.797587	0.0134792 	0.787445	0.82608 
213	40    	0.797587	0.0134792 	0.787445	0.82608 
214	40    	0.797587	0.0134792 	0.787445	0.82608 
215	40    	0.797587	0.0134792 	0.787445	0.82608 
216	40    	0.79807 	0.0132787 	0.787445	0.82608 
217	40    	0.79807 	0.0132787 	0.787445	0.82608 
218	40    	0.799036	0.0131729 	0.787445	0.82608 
219	40    	0.799036	0.0131729 	0.787445	0.82608 
220	40    	0.799519	0.0129136 	0.787445	0.82608 
221	40    	0.799519	0.0129136 	0.787445	0.82608 
222	40    	0.799519	0.0129136 	0.787445	0.82608 
223	40    	0.799519	0.0129136 	0.787445	0.82608 
224	40    	0.799519	0.0129136 	0.787445	0.82608 
225	40    	0.799519	0.0129136 	0.787445	0.82608 
226	40    	0.799519	0.0129136 	0.787445	0.82608 
227	40    	0.800002	0.0126305 	0.787445	0.82608 
228	40    	0.800002	0.0126305 	0.787445	0.82608 
229	40    	0.800002	0.0126305 	0.787445	0.82608 
230	40    	0.800002	0.0126305 	0.787445	0.82608 
231	40    	0.80145 	0.0120154 	0.787445	0.82608 
232	40    	0.80145 	0.0120154 	0.787445	0.82608 
233	40    	0.802899	0.0119863 	0.787445	0.82608 
234	40    	0.804831	0.011264  	0.787445	0.82608 
235	40    	0.805314	0.0107013 	0.787445	0.82608 
236	40    	0.805314	0.0107013 	0.787445	0.82608 
237	40    	0.805314	0.0107013 	0.787445	0.82608 
238	40    	0.805314	0.0107013 	0.787445	0.82608 
239	40    	0.805314	0.0107013 	0.787445	0.82608 
240	40    	0.806763	0.00965881	0.797104	0.82608 
241	40    	0.807246	0.00940185	0.797104	0.82608 
242	40    	0.807246	0.00940185	0.797104	0.82608 
243	40    	0.807246	0.00940185	0.797104	0.82608 
244	40    	0.807246	0.00940185	0.797104	0.82608 
245	40    	0.808212	0.00930209	0.797104	0.82608 
246	40    	0.808212	0.00930209	0.797104	0.82608 
247	40    	0.80966 	0.00970699	0.797104	0.82608 
248	40    	0.80966 	0.00970699	0.797104	0.82608 
249	40    	0.810143	0.00930209	0.797104	0.82608 
250	40    	0.811592	0.00941425	0.797104	0.82608 
