gen	nevals	avg     	std       	min     	max     
0  	20    	0.587762	0.0175177 	0.552841	0.624023
1  	40    	0.604893	0.0128456 	0.588425	0.632919
2  	40    	0.615683	0.0114067 	0.601776	0.64183 
3  	40    	0.622356	0.00919787	0.610672	0.64183 
4  	40    	0.623581	0.00810159	0.6129  	0.64183 
5  	40    	0.628587	0.0079754 	0.617355	0.646271
6  	40    	0.631367	0.00799519	0.621796	0.646271
7  	40    	0.632481	0.00726424	0.624023	0.646271
8  	40    	0.63326 	0.00672138	0.624023	0.646271
9  	40    	0.634595	0.00575239	0.626251	0.646271
10 	40    	0.635484	0.005769  	0.628479	0.646271
11 	40    	0.637486	0.00484741	0.630707	0.646271
12 	40    	0.638264	0.00418798	0.632919	0.646271
13 	40    	0.638264	0.00418798	0.632919	0.646271
14 	40    	0.639043	0.00343844	0.635147	0.646271
15 	40    	0.639043	0.00343844	0.635147	0.646271
16 	40    	0.639043	0.00343844	0.635147	0.646271
17 	40    	0.640044	0.00362826	0.635147	0.646271
18 	40    	0.64138 	0.00369547	0.635147	0.650726
19 	40    	0.642604	0.00387005	0.637375	0.650726
20 	40    	0.64416 	0.00406832	0.639603	0.655167
21 	40    	0.644382	0.00393242	0.639603	0.655167
22 	40    	0.644382	0.00393242	0.639603	0.655167
23 	40    	0.644716	0.00379325	0.639603	0.655167
24 	40    	0.644716	0.00379325	0.639603	0.655167
25 	40    	0.645272	0.00381817	0.639603	0.655167
26 	40    	0.646828	0.00409488	0.64183 	0.657394
27 	40    	0.647272	0.00401018	0.64183 	0.657394
28 	40    	0.648608	0.00430837	0.644043	0.657394
29 	40    	0.648942	0.00419917	0.644043	0.657394
30 	40    	0.648942	0.00419917	0.644043	0.657394
31 	40    	0.649276	0.00405964	0.644043	0.657394
32 	40    	0.650166	0.00403425	0.644043	0.657394
33 	40    	0.650723	0.00391679	0.646271	0.657394
34 	40    	0.651724	0.00394621	0.646271	0.659622
35 	40    	0.652169	0.00380528	0.646271	0.659622
36 	40    	0.65228 	0.00366086	0.646271	0.659622
37 	40    	0.652726	0.00329027	0.648499	0.659622
38 	40    	0.653059	0.00318104	0.648499	0.659622
39 	40    	0.653059	0.00318104	0.648499	0.659622
40 	40    	0.653059	0.00318104	0.648499	0.659622
41 	40    	0.653059	0.00318104	0.648499	0.659622
42 	40    	0.654172	0.00340659	0.650726	0.66185 
43 	40    	0.65495 	0.00421291	0.650726	0.66629 
44 	40    	0.65495 	0.00421291	0.650726	0.66629 
45 	40    	0.65495 	0.00421291	0.650726	0.66629 
46 	40    	0.655618	0.00453618	0.650726	0.66629 
47 	40    	0.655951	0.00440765	0.650726	0.66629 
48 	40    	0.655951	0.00440765	0.650726	0.66629 
49 	40    	0.655951	0.00440765	0.650726	0.66629 
50 	40    	0.656062	0.00430107	0.650726	0.66629 
51 	40    	0.656284	0.00413115	0.650726	0.66629 
52 	40    	0.656728	0.00372894	0.650726	0.66629 
53 	40    	0.656728	0.00372894	0.650726	0.66629 
54 	40    	0.657841	0.00490529	0.652954	0.672974
55 	40    	0.657841	0.00490529	0.652954	0.672974
56 	40    	0.658286	0.00484497	0.652954	0.672974
57 	40    	0.659286	0.00468425	0.655167	0.672974
58 	40    	0.659955	0.00457729	0.655167	0.672974
59 	40    	0.659955	0.00457729	0.655167	0.672974
60 	40    	0.660178	0.00444535	0.655167	0.672974
61 	40    	0.660845	0.00464092	0.655167	0.672974
62 	40    	0.660845	0.00464092	0.655167	0.672974
63 	40    	0.660845	0.00464092	0.655167	0.672974
64 	40    	0.661068	0.00446666	0.655167	0.672974
65 	40    	0.661068	0.00446666	0.655167	0.672974
66 	40    	0.661291	0.00427371	0.655167	0.672974
67 	40    	0.661291	0.00427371	0.655167	0.672974
68 	40    	0.661291	0.00427371	0.655167	0.672974
69 	40    	0.662292	0.00464656	0.657394	0.672974
70 	40    	0.662292	0.00464656	0.657394	0.672974
71 	40    	0.662292	0.00464656	0.657394	0.672974
72 	40    	0.662404	0.00455358	0.657394	0.672974
73 	40    	0.662404	0.00455358	0.657394	0.672974
74 	40    	0.662738	0.00430304	0.657394	0.672974
75 	40    	0.662738	0.00430304	0.657394	0.672974
76 	40    	0.662961	0.00413258	0.659622	0.672974
77 	40    	0.662961	0.00413258	0.659622	0.672974
78 	40    	0.662961	0.00413258	0.659622	0.672974
79 	40    	0.662961	0.00413258	0.659622	0.672974
80 	40    	0.662961	0.00413258	0.659622	0.672974
81 	40    	0.662961	0.00413258	0.659622	0.672974
82 	40    	0.662961	0.00413258	0.659622	0.672974
83 	40    	0.662961	0.00413258	0.659622	0.672974
84 	40    	0.663628	0.00459218	0.659622	0.672974
85 	40    	0.664185	0.0044202 	0.659622	0.672974
86 	40    	0.664185	0.0044202 	0.659622	0.672974
87 	40    	0.664185	0.0044202 	0.659622	0.672974
88 	40    	0.664629	0.00438618	0.659622	0.672974
89 	40    	0.664852	0.00423681	0.659622	0.672974
90 	40    	0.665742	0.00486636	0.659622	0.677414
91 	40    	0.665965	0.00467952	0.659622	0.677414
92 	40    	0.665965	0.00467952	0.659622	0.677414
93 	40    	0.666076	0.004552  	0.66185 	0.677414
94 	40    	0.666076	0.004552  	0.66185 	0.677414
95 	40    	0.666076	0.004552  	0.66185 	0.677414
96 	40    	0.667188	0.00494216	0.66185 	0.677414
97 	40    	0.668188	0.00572509	0.66185 	0.68187 
98 	40    	0.66841 	0.00555865	0.66185 	0.68187 
99 	40    	0.66841 	0.00555865	0.66185 	0.68187 
100	40    	0.669633	0.00560415	0.664078	0.68187 
101	40    	0.670078	0.00536129	0.664078	0.68187 
102	40    	0.670078	0.00536129	0.664078	0.68187 
103	40    	0.670078	0.00536129	0.664078	0.68187 
104	40    	0.670078	0.00536129	0.664078	0.68187 
105	40    	0.670188	0.00525819	0.664078	0.68187 
106	40    	0.67041 	0.00508644	0.664078	0.68187 
107	40    	0.67041 	0.00508644	0.664078	0.68187 
108	40    	0.67041 	0.00508644	0.664078	0.68187 
109	40    	0.672078	0.00712094	0.66629 	0.695221
110	40    	0.672078	0.00712094	0.66629 	0.695221
111	40    	0.672078	0.00712094	0.66629 	0.695221
112	40    	0.672412	0.00699724	0.66629 	0.695221
113	40    	0.672412	0.00699724	0.66629 	0.695221
114	40    	0.672412	0.00699724	0.66629 	0.695221
115	40    	0.672412	0.00699724	0.66629 	0.695221
116	40    	0.672412	0.00699724	0.66629 	0.695221
117	40    	0.672858	0.00687591	0.66629 	0.695221
118	40    	0.67308 	0.00673015	0.66629 	0.695221
119	40    	0.67308 	0.00673015	0.66629 	0.695221
120	40    	0.673526	0.00655866	0.66629 	0.695221
121	40    	0.674194	0.0061531 	0.668518	0.695221
122	40    	0.674194	0.0061531 	0.668518	0.695221
123	40    	0.674194	0.0061531 	0.668518	0.695221
124	40    	0.674194	0.0061531 	0.668518	0.695221
125	40    	0.674194	0.0061531 	0.668518	0.695221
126	40    	0.674194	0.0061531 	0.668518	0.695221
127	40    	0.674306	0.00606892	0.668518	0.695221
128	40    	0.674306	0.00606892	0.668518	0.695221
129	40    	0.674306	0.00606892	0.668518	0.695221
130	40    	0.674862	0.00602256	0.668518	0.695221
131	40    	0.674862	0.00602256	0.668518	0.695221
132	40    	0.674862	0.00602256	0.668518	0.695221
133	40    	0.675418	0.00592385	0.668518	0.695221
134	40    	0.675418	0.00592385	0.668518	0.695221
135	40    	0.675418	0.00592385	0.668518	0.695221
136	40    	0.675418	0.00592385	0.668518	0.695221
137	40    	0.675418	0.00592385	0.668518	0.695221
138	40    	0.675529	0.00581297	0.668518	0.695221
139	40    	0.675529	0.00581297	0.668518	0.695221
140	40    	0.675529	0.00581297	0.668518	0.695221
141	40    	0.676865	0.00699555	0.670746	0.695221
142	40    	0.676865	0.00699555	0.670746	0.695221
143	40    	0.676865	0.00699555	0.670746	0.695221
144	40    	0.676865	0.00699555	0.670746	0.695221
145	40    	0.676865	0.00699555	0.670746	0.695221
146	40    	0.676865	0.00699555	0.670746	0.695221
147	40    	0.676865	0.00699555	0.670746	0.695221
148	40    	0.676865	0.00699555	0.670746	0.695221
149	40    	0.676865	0.00699555	0.670746	0.695221
150	40    	0.676865	0.00699555	0.670746	0.695221
151	40    	0.676976	0.0069145 	0.670746	0.695221
152	40    	0.676976	0.0069145 	0.670746	0.695221
153	40    	0.676976	0.0069145 	0.670746	0.695221
154	40    	0.676976	0.0069145 	0.670746	0.695221
155	40    	0.676976	0.0069145 	0.670746	0.695221
156	40    	0.676976	0.0069145 	0.670746	0.695221
157	40    	0.676976	0.0069145 	0.670746	0.695221
158	40    	0.676976	0.0069145 	0.670746	0.695221
159	40    	0.676976	0.0069145 	0.670746	0.695221
160	40    	0.676976	0.0069145 	0.670746	0.695221
161	40    	0.676976	0.0069145 	0.670746	0.695221
162	40    	0.676976	0.0069145 	0.670746	0.695221
163	40    	0.676976	0.0069145 	0.670746	0.695221
164	40    	0.676976	0.0069145 	0.670746	0.695221
165	40    	0.676976	0.0069145 	0.670746	0.695221
166	40    	0.676976	0.0069145 	0.670746	0.695221
167	40    	0.676976	0.0069145 	0.670746	0.695221
168	40    	0.676976	0.0069145 	0.670746	0.695221
169	40    	0.676976	0.0069145 	0.670746	0.695221
170	40    	0.676976	0.0069145 	0.670746	0.695221
171	40    	0.676976	0.0069145 	0.670746	0.695221
172	40    	0.677199	0.00678066	0.670746	0.695221
173	40    	0.677644	0.00663294	0.670746	0.695221
174	40    	0.677644	0.00663294	0.670746	0.695221
175	40    	0.677644	0.00663294	0.670746	0.695221
176	40    	0.677644	0.00663294	0.670746	0.695221
177	40    	0.677644	0.00663294	0.670746	0.695221
178	40    	0.677644	0.00663294	0.670746	0.695221
179	40    	0.677866	0.00647036	0.670746	0.695221
180	40    	0.677866	0.00647036	0.670746	0.695221
181	40    	0.677866	0.00647036	0.670746	0.695221
182	40    	0.677866	0.00647036	0.670746	0.695221
183	40    	0.677866	0.00647036	0.670746	0.695221
184	40    	0.677866	0.00647036	0.670746	0.695221
185	40    	0.677866	0.00647036	0.670746	0.695221
186	40    	0.679202	0.00753135	0.672974	0.697449
187	40    	0.679202	0.00753135	0.672974	0.697449
188	40    	0.679202	0.00753135	0.672974	0.697449
189	40    	0.679535	0.00739463	0.672974	0.697449
190	40    	0.679535	0.00739463	0.672974	0.697449
191	40    	0.679757	0.00725973	0.672974	0.697449
192	40    	0.679868	0.00717135	0.672974	0.697449
193	40    	0.679868	0.00717135	0.672974	0.697449
194	40    	0.679868	0.00717135	0.672974	0.697449
195	40    	0.680981	0.00772005	0.672974	0.697449
196	40    	0.680981	0.00772005	0.672974	0.697449
197	40    	0.680981	0.00772005	0.672974	0.697449
198	40    	0.680981	0.00772005	0.672974	0.697449
199	40    	0.680981	0.00772005	0.672974	0.697449
200	40    	0.680981	0.00772005	0.672974	0.697449
201	40    	0.680981	0.00772005	0.672974	0.697449
202	40    	0.680981	0.00772005	0.672974	0.697449
203	40    	0.681092	0.00761913	0.675201	0.697449
204	40    	0.681092	0.00761913	0.675201	0.697449
205	40    	0.681092	0.00761913	0.675201	0.697449
206	40    	0.681648	0.00757469	0.675201	0.697449
207	40    	0.681759	0.00749548	0.675201	0.697449
208	40    	0.681759	0.00749548	0.675201	0.697449
209	40    	0.681759	0.00749548	0.675201	0.697449
210	40    	0.681759	0.00749548	0.675201	0.697449
211	40    	0.681759	0.00749548	0.675201	0.697449
212	40    	0.681759	0.00749548	0.675201	0.697449
213	40    	0.681759	0.00749548	0.675201	0.697449
214	40    	0.681759	0.00749548	0.675201	0.697449
215	40    	0.681759	0.00749548	0.675201	0.697449
216	40    	0.681759	0.00749548	0.675201	0.697449
217	40    	0.681759	0.00749548	0.675201	0.697449
218	40    	0.682204	0.00735579	0.675201	0.697449
219	40    	0.682204	0.00735579	0.675201	0.697449
220	40    	0.682426	0.00720659	0.675201	0.697449
221	40    	0.682426	0.00720659	0.675201	0.697449
222	40    	0.682536	0.0071112 	0.675201	0.697449
223	40    	0.682536	0.0071112 	0.675201	0.697449
224	40    	0.682536	0.0071112 	0.675201	0.697449
225	40    	0.682536	0.0071112 	0.675201	0.697449
226	40    	0.682536	0.0071112 	0.675201	0.697449
227	40    	0.683092	0.00694892	0.675201	0.697449
228	40    	0.683092	0.00694892	0.675201	0.697449
229	40    	0.683092	0.00694892	0.675201	0.697449
230	40    	0.683537	0.00671019	0.677414	0.697449
231	40    	0.683537	0.00671019	0.677414	0.697449
232	40    	0.683537	0.00671019	0.677414	0.697449
233	40    	0.683537	0.00671019	0.677414	0.697449
234	40    	0.683649	0.00662558	0.677414	0.697449
235	40    	0.683649	0.00662558	0.677414	0.697449
236	40    	0.683649	0.00662558	0.677414	0.697449
237	40    	0.683649	0.00662558	0.677414	0.697449
238	40    	0.683649	0.00662558	0.677414	0.697449
239	40    	0.683871	0.00648562	0.677414	0.697449
240	40    	0.683871	0.00648562	0.677414	0.697449
241	40    	0.683871	0.00648562	0.677414	0.697449
242	40    	0.683871	0.00648562	0.677414	0.697449
243	40    	0.683871	0.00648562	0.677414	0.697449
244	40    	0.683871	0.00648562	0.677414	0.697449
245	40    	0.683871	0.00648562	0.677414	0.697449
246	40    	0.683871	0.00648562	0.677414	0.697449
247	40    	0.683871	0.00648562	0.677414	0.697449
248	40    	0.684094	0.00633475	0.677414	0.697449
249	40    	0.684094	0.00633475	0.677414	0.697449
250	40    	0.684428	0.00606577	0.679642	0.697449
