gen	nevals	avg     	std       	min     	max     
0  	20    	0.586062	0.030673  	0.527267	0.642426
1  	40    	0.609698	0.0197698 	0.581818	0.654541
2  	40    	0.622425	0.0135652 	0.606064	0.654541
3  	40    	0.630606	0.0126372 	0.612122	0.654541
4  	40    	0.640606	0.0148567 	0.624237	0.690903
5  	40    	0.646365	0.014502  	0.63031 	0.690903
6  	40    	0.650304	0.013152  	0.636368	0.690903
7  	40    	0.65606 	0.0126948 	0.642426	0.690903
8  	40    	0.661818	0.0137686 	0.648483	0.696976
9  	40    	0.663333	0.0130671 	0.648483	0.696976
10 	40    	0.665152	0.0121039 	0.648483	0.696976
11 	40    	0.669093	0.0102142 	0.654541	0.696976
12 	40    	0.67364 	0.0107167 	0.666672	0.703033
13 	40    	0.676669	0.0110548 	0.666672	0.703033
14 	40    	0.676972	0.010858  	0.666672	0.703033
15 	40    	0.677275	0.0106489 	0.666672	0.703033
16 	40    	0.677881	0.0103694 	0.666672	0.703033
17 	40    	0.68091 	0.0103699 	0.672729	0.703033
18 	40    	0.683031	0.0110268 	0.672729	0.703033
19 	40    	0.683031	0.0110268 	0.672729	0.703033
20 	40    	0.683031	0.0110268 	0.672729	0.703033
21 	40    	0.683637	0.0107741 	0.672729	0.703033
22 	40    	0.684243	0.0104803 	0.672729	0.703033
23 	40    	0.686061	0.0100698 	0.672729	0.703033
24 	40    	0.686061	0.0100698 	0.672729	0.703033
25 	40    	0.686061	0.0100698 	0.672729	0.703033
26 	40    	0.688485	0.00966058	0.672729	0.703033
27 	40    	0.691515	0.00975527	0.678787	0.715149
28 	40    	0.693333	0.0105683 	0.678787	0.715149
29 	40    	0.694545	0.00966067	0.678787	0.715149
30 	40    	0.696364	0.00876348	0.684845	0.715149
31 	40    	0.696364	0.00876348	0.684845	0.715149
32 	40    	0.696364	0.00876348	0.684845	0.715149
33 	40    	0.697273	0.00845941	0.684845	0.715149
34 	40    	0.699395	0.00776246	0.684845	0.715149
35 	40    	0.699395	0.00776246	0.684845	0.715149
36 	40    	0.699395	0.00776246	0.684845	0.715149
37 	40    	0.699395	0.00776246	0.684845	0.715149
38 	40    	0.700002	0.0070424 	0.690903	0.715149
39 	40    	0.700305	0.00676916	0.690903	0.715149
40 	40    	0.70182 	0.00780698	0.690903	0.721207
41 	40    	0.70182 	0.00780698	0.690903	0.721207
42 	40    	0.70182 	0.00780698	0.690903	0.721207
43 	40    	0.70182 	0.00780698	0.690903	0.721207
44 	40    	0.70182 	0.00780698	0.690903	0.721207
45 	40    	0.702428	0.00714197	0.696976	0.721207
46 	40    	0.704245	0.00780485	0.696976	0.721207
47 	40    	0.706669	0.0105644 	0.696976	0.739395
48 	40    	0.706669	0.0105644 	0.696976	0.739395
49 	40    	0.706669	0.0105644 	0.696976	0.739395
50 	40    	0.707578	0.0104727 	0.696976	0.739395
51 	40    	0.709698	0.0122547 	0.696976	0.739395
52 	40    	0.709698	0.0122547 	0.696976	0.739395
53 	40    	0.709698	0.0122547 	0.696976	0.739395
54 	40    	0.710001	0.0120089 	0.696976	0.739395
55 	40    	0.71091 	0.0116718 	0.696976	0.739395
56 	40    	0.71091 	0.0116718 	0.696976	0.739395
57 	40    	0.71091 	0.0116718 	0.696976	0.739395
58 	40    	0.71091 	0.0116718 	0.696976	0.739395
59 	40    	0.711516	0.0112392 	0.703033	0.739395
60 	40    	0.711516	0.0112392 	0.703033	0.739395
61 	40    	0.711516	0.0112392 	0.703033	0.739395
62 	40    	0.711819	0.0110871 	0.703033	0.739395
63 	40    	0.712122	0.0109246 	0.703033	0.739395
64 	40    	0.712122	0.0109246 	0.703033	0.739395
65 	40    	0.712424	0.010751  	0.703033	0.739395
66 	40    	0.712424	0.010751  	0.703033	0.739395
67 	40    	0.712424	0.010751  	0.703033	0.739395
68 	40    	0.712727	0.0105659 	0.703033	0.739395
69 	40    	0.712727	0.0105659 	0.703033	0.739395
70 	40    	0.712727	0.0105659 	0.703033	0.739395
71 	40    	0.712727	0.0105659 	0.703033	0.739395
72 	40    	0.712727	0.0105659 	0.703033	0.739395
73 	40    	0.712727	0.0105659 	0.703033	0.739395
74 	40    	0.714545	0.011798  	0.703033	0.739395
75 	40    	0.715758	0.0117985 	0.703033	0.739395
76 	40    	0.715758	0.0117985 	0.703033	0.739395
77 	40    	0.715758	0.0117985 	0.703033	0.739395
78 	40    	0.715758	0.0117985 	0.703033	0.739395
79 	40    	0.715758	0.0117985 	0.703033	0.739395
80 	40    	0.715758	0.0117985 	0.703033	0.739395
81 	40    	0.715758	0.0117985 	0.703033	0.739395
82 	40    	0.715758	0.0117985 	0.703033	0.739395
83 	40    	0.715758	0.0117985 	0.703033	0.739395
84 	40    	0.716061	0.0115429 	0.703033	0.739395
85 	40    	0.716061	0.0115429 	0.703033	0.739395
86 	40    	0.717272	0.0108882 	0.703033	0.739395
87 	40    	0.717575	0.0105675 	0.709091	0.739395
88 	40    	0.717575	0.0105675 	0.709091	0.739395
89 	40    	0.719393	0.0106888 	0.709091	0.739395
90 	40    	0.719393	0.0106888 	0.709091	0.739395
91 	40    	0.720605	0.0108257 	0.709091	0.739395
92 	40    	0.720605	0.0108257 	0.709091	0.739395
93 	40    	0.720605	0.0108257 	0.709091	0.739395
94 	40    	0.721515	0.0105815 	0.709091	0.739395
95 	40    	0.72303 	0.01086   	0.709091	0.739395
96 	40    	0.723636	0.0103934 	0.709091	0.739395
97 	40    	0.723636	0.0103934 	0.709091	0.739395
98 	40    	0.723636	0.0103934 	0.709091	0.739395
99 	40    	0.726969	0.0104065 	0.715149	0.751511
100	40    	0.726969	0.0104065 	0.715149	0.751511
101	40    	0.726969	0.0104065 	0.715149	0.751511
102	40    	0.727272	0.0101429 	0.715149	0.751511
103	40    	0.727272	0.0101429 	0.715149	0.751511
104	40    	0.727878	0.00956524	0.715149	0.751511
105	40    	0.728484	0.00911277	0.715149	0.751511
106	40    	0.729091	0.00859393	0.721207	0.751511
107	40    	0.729091	0.00859393	0.721207	0.751511
108	40    	0.729091	0.00859393	0.721207	0.751511
109	40    	0.729697	0.00844282	0.721207	0.751511
110	40    	0.729697	0.00844282	0.721207	0.751511
111	40    	0.730001	0.00823873	0.721207	0.751511
112	40    	0.730001	0.00823873	0.721207	0.751511
113	40    	0.730001	0.00823873	0.721207	0.751511
114	40    	0.730001	0.00823873	0.721207	0.751511
115	40    	0.730001	0.00823873	0.721207	0.751511
116	40    	0.730001	0.00823873	0.721207	0.751511
117	40    	0.730001	0.00823873	0.721207	0.751511
118	40    	0.730608	0.00801238	0.721207	0.751511
119	40    	0.730608	0.00801238	0.721207	0.751511
120	40    	0.730608	0.00801238	0.721207	0.751511
121	40    	0.730911	0.00776151	0.721207	0.751511
122	40    	0.731519	0.00719535	0.721207	0.751511
123	40    	0.731519	0.00719535	0.721207	0.751511
124	40    	0.731519	0.00719535	0.721207	0.751511
125	40    	0.731519	0.00719535	0.721207	0.751511
126	40    	0.731519	0.00719535	0.721207	0.751511
127	40    	0.731519	0.00719535	0.721207	0.751511
128	40    	0.731519	0.00719535	0.721207	0.751511
129	40    	0.731519	0.00719535	0.721207	0.751511
130	40    	0.731519	0.00719535	0.721207	0.751511
131	40    	0.731519	0.00719535	0.721207	0.751511
132	40    	0.731519	0.00719535	0.721207	0.751511
133	40    	0.732428	0.00698078	0.721207	0.751511
134	40    	0.733035	0.00648914	0.72728 	0.751511
135	40    	0.733035	0.00648914	0.72728 	0.751511
136	40    	0.733035	0.00648914	0.72728 	0.751511
137	40    	0.733035	0.00648914	0.72728 	0.751511
138	40    	0.733035	0.00648914	0.72728 	0.751511
139	40    	0.733035	0.00648914	0.72728 	0.751511
140	40    	0.733035	0.00648914	0.72728 	0.751511
141	40    	0.733337	0.00635341	0.72728 	0.751511
142	40    	0.733337	0.00635341	0.72728 	0.751511
143	40    	0.733337	0.00635341	0.72728 	0.751511
144	40    	0.733337	0.00635341	0.72728 	0.751511
145	40    	0.733337	0.00635341	0.72728 	0.751511
146	40    	0.733337	0.00635341	0.72728 	0.751511
147	40    	0.733337	0.00635341	0.72728 	0.751511
148	40    	0.733337	0.00635341	0.72728 	0.751511
149	40    	0.733337	0.00635341	0.72728 	0.751511
150	40    	0.733337	0.00635341	0.72728 	0.751511
151	40    	0.733337	0.00635341	0.72728 	0.751511
152	40    	0.733337	0.00635341	0.72728 	0.751511
153	40    	0.733337	0.00635341	0.72728 	0.751511
154	40    	0.733337	0.00635341	0.72728 	0.751511
155	40    	0.733337	0.00635341	0.72728 	0.751511
156	40    	0.73364 	0.00619994	0.72728 	0.751511
157	40    	0.73364 	0.00619994	0.72728 	0.751511
158	40    	0.73364 	0.00619994	0.72728 	0.751511
159	40    	0.73364 	0.00619994	0.72728 	0.751511
160	40    	0.73364 	0.00619994	0.72728 	0.751511
161	40    	0.73364 	0.00619994	0.72728 	0.751511
162	40    	0.734549	0.00593535	0.72728 	0.751511
163	40    	0.73576 	0.00674561	0.72728 	0.751511
164	40    	0.73576 	0.00674561	0.72728 	0.751511
165	40    	0.73576 	0.00674561	0.72728 	0.751511
166	40    	0.73576 	0.00674561	0.72728 	0.751511
167	40    	0.736669	0.00676598	0.72728 	0.751511
168	40    	0.736972	0.0064679 	0.72728 	0.751511
169	40    	0.736972	0.0064679 	0.72728 	0.751511
170	40    	0.736972	0.0064679 	0.72728 	0.751511
171	40    	0.736972	0.0064679 	0.72728 	0.751511
172	40    	0.736972	0.0064679 	0.72728 	0.751511
173	40    	0.737881	0.00631721	0.72728 	0.751511
174	40    	0.737881	0.00631721	0.72728 	0.751511
175	40    	0.738184	0.00593535	0.733337	0.751511
176	40    	0.738184	0.00593535	0.733337	0.751511
177	40    	0.738184	0.00593535	0.733337	0.751511
178	40    	0.738184	0.00593535	0.733337	0.751511
179	40    	0.738184	0.00593535	0.733337	0.751511
180	40    	0.739092	0.00648914	0.733337	0.751511
181	40    	0.739092	0.00648914	0.733337	0.751511
182	40    	0.739092	0.00648914	0.733337	0.751511
183	40    	0.739092	0.00648914	0.733337	0.751511
184	40    	0.739092	0.00648914	0.733337	0.751511
185	40    	0.739092	0.00648914	0.733337	0.751511
186	40    	0.739092	0.00648914	0.733337	0.751511
187	40    	0.739092	0.00648914	0.733337	0.751511
188	40    	0.739092	0.00648914	0.733337	0.751511
189	40    	0.739092	0.00648914	0.733337	0.751511
190	40    	0.739395	0.00635341	0.733337	0.751511
191	40    	0.739395	0.00635341	0.733337	0.751511
192	40    	0.739395	0.00635341	0.733337	0.751511
193	40    	0.739698	0.00619994	0.733337	0.751511
194	40    	0.739698	0.00619994	0.733337	0.751511
195	40    	0.739698	0.00619994	0.733337	0.751511
196	40    	0.739698	0.00619994	0.733337	0.751511
197	40    	0.739698	0.00619994	0.733337	0.751511
198	40    	0.739698	0.00619994	0.733337	0.751511
199	40    	0.739698	0.00619994	0.733337	0.751511
200	40    	0.739698	0.00619994	0.733337	0.751511
201	40    	0.739698	0.00619994	0.733337	0.751511
202	40    	0.739698	0.00619994	0.733337	0.751511
203	40    	0.740304	0.00614047	0.733337	0.751511
204	40    	0.740304	0.00614047	0.733337	0.751511
205	40    	0.740304	0.00614047	0.733337	0.751511
206	40    	0.740304	0.00614047	0.733337	0.751511
207	40    	0.740304	0.00614047	0.733337	0.751511
208	40    	0.740304	0.00614047	0.733337	0.751511
209	40    	0.740607	0.00593535	0.733337	0.751511
210	40    	0.740607	0.00593535	0.733337	0.751511
211	40    	0.740607	0.00593535	0.733337	0.751511
212	40    	0.740607	0.00593535	0.733337	0.751511
213	40    	0.740607	0.00593535	0.733337	0.751511
214	40    	0.740607	0.00593535	0.733337	0.751511
215	40    	0.741515	0.00614047	0.733337	0.751511
216	40    	0.741515	0.00614047	0.733337	0.751511
217	40    	0.742727	0.00676598	0.733337	0.757568
218	40    	0.742727	0.00676598	0.733337	0.757568
219	40    	0.742727	0.00676598	0.733337	0.757568
220	40    	0.742727	0.00676598	0.733337	0.757568
221	40    	0.743333	0.00643234	0.733337	0.757568
222	40    	0.743333	0.00643234	0.733337	0.757568
223	40    	0.743333	0.00643234	0.733337	0.757568
224	40    	0.743333	0.00643234	0.733337	0.757568
225	40    	0.743333	0.00643234	0.733337	0.757568
226	40    	0.744241	0.00623682	0.733337	0.757568
227	40    	0.744241	0.00623682	0.733337	0.757568
228	40    	0.744241	0.00623682	0.733337	0.757568
229	40    	0.744241	0.00623682	0.733337	0.757568
230	40    	0.744847	0.00571486	0.739395	0.757568
231	40    	0.745453	0.00574688	0.739395	0.757568
232	40    	0.745453	0.00574688	0.739395	0.757568
233	40    	0.745453	0.00574688	0.739395	0.757568
234	40    	0.745453	0.00574688	0.739395	0.757568
235	40    	0.745453	0.00574688	0.739395	0.757568
236	40    	0.745453	0.00574688	0.739395	0.757568
237	40    	0.745453	0.00574688	0.739395	0.757568
238	40    	0.745756	0.00557674	0.739395	0.757568
239	40    	0.745756	0.00557674	0.739395	0.757568
240	40    	0.745756	0.00557674	0.739395	0.757568
241	40    	0.745756	0.00557674	0.739395	0.757568
242	40    	0.745756	0.00557674	0.739395	0.757568
243	40    	0.745756	0.00557674	0.739395	0.757568
244	40    	0.745756	0.00557674	0.739395	0.757568
245	40    	0.745756	0.00557674	0.739395	0.757568
246	40    	0.745756	0.00557674	0.739395	0.757568
247	40    	0.745756	0.00557674	0.739395	0.757568
248	40    	0.745756	0.00557674	0.739395	0.757568
249	40    	0.745756	0.00557674	0.739395	0.757568
250	40    	0.745756	0.00557674	0.739395	0.757568
