gen	nevals	avg     	std       	min     	max     
0  	20    	0.594579	0.0308983 	0.542175	0.662643
1  	40    	0.614157	0.0214207 	0.590363	0.662643
2  	40    	0.628312	0.0178787 	0.602417	0.662643
3  	40    	0.636744	0.0106239 	0.620483	0.662643
4  	40    	0.640056	0.0105864 	0.626511	0.662643
5  	40    	0.643671	0.0126781 	0.632523	0.674698
6  	40    	0.644575	0.0124943 	0.632523	0.674698
7  	40    	0.649998	0.0112551 	0.632523	0.674698
8  	40    	0.653614	0.00961921	0.63855 	0.674698
9  	40    	0.656927	0.00902937	0.644577	0.674698
10 	40    	0.65994 	0.00882571	0.650604	0.674698
11 	40    	0.661746	0.00878466	0.650604	0.674698
12 	40    	0.663251	0.00759417	0.650604	0.674698
13 	40    	0.665661	0.00903397	0.656631	0.692764
14 	40    	0.670177	0.0104124 	0.656631	0.692764
15 	40    	0.671683	0.00980833	0.662643	0.692764
16 	40    	0.674094	0.00911772	0.662643	0.692764
17 	40    	0.6756  	0.00836473	0.662643	0.692764
18 	40    	0.679216	0.0112514 	0.668671	0.716873
19 	40    	0.68012 	0.011093  	0.668671	0.716873
20 	40    	0.681024	0.0108574 	0.668671	0.716873
21 	40    	0.682832	0.0103078 	0.668671	0.716873
22 	40    	0.682832	0.0103078 	0.668671	0.716873
23 	40    	0.684036	0.00998529	0.674698	0.716873
24 	40    	0.685241	0.0102362 	0.674698	0.716873
25 	40    	0.685241	0.0102362 	0.674698	0.716873
26 	40    	0.685542	0.0100076 	0.674698	0.716873
27 	40    	0.685542	0.0100076 	0.674698	0.716873
28 	40    	0.688855	0.00857637	0.680725	0.716873
29 	40    	0.689156	0.00838925	0.680725	0.716873
30 	40    	0.689458	0.00818678	0.680725	0.716873
31 	40    	0.690361	0.00771325	0.680725	0.716873
32 	40    	0.690361	0.00771325	0.680725	0.716873
33 	40    	0.690361	0.00771325	0.680725	0.716873
34 	40    	0.691866	0.00719623	0.680725	0.716873
35 	40    	0.69277 	0.00686741	0.686752	0.716873
36 	40    	0.695179	0.0113341 	0.686752	0.73494 
37 	40    	0.69548 	0.0111853 	0.686752	0.73494 
38 	40    	0.696383	0.0111736 	0.686752	0.73494 
39 	40    	0.697587	0.0108783 	0.686752	0.73494 
40 	40    	0.697587	0.0108783 	0.686752	0.73494 
41 	40    	0.699093	0.0113489 	0.686752	0.73494 
42 	40    	0.699093	0.0113489 	0.686752	0.73494 
43 	40    	0.700599	0.011607  	0.692764	0.73494 
44 	40    	0.700599	0.011607  	0.692764	0.73494 
45 	40    	0.700599	0.011607  	0.692764	0.73494 
46 	40    	0.701503	0.0116656 	0.692764	0.73494 
47 	40    	0.701503	0.0116656 	0.692764	0.73494 
48 	40    	0.701503	0.0116656 	0.692764	0.73494 
49 	40    	0.701503	0.0116656 	0.692764	0.73494 
50 	40    	0.702106	0.0115089 	0.692764	0.73494 
51 	40    	0.702106	0.0115089 	0.692764	0.73494 
52 	40    	0.702708	0.0111563 	0.692764	0.73494 
53 	40    	0.703914	0.011318  	0.692764	0.73494 
54 	40    	0.704517	0.0110254 	0.692764	0.73494 
55 	40    	0.704818	0.0107797 	0.692764	0.73494 
56 	40    	0.704818	0.0107797 	0.692764	0.73494 
57 	40    	0.705421	0.0104199 	0.692764	0.73494 
58 	40    	0.705421	0.0104199 	0.692764	0.73494 
59 	40    	0.705722	0.0101327 	0.692764	0.73494 
60 	40    	0.706023	0.00982786	0.692764	0.73494 
61 	40    	0.706023	0.00982786	0.692764	0.73494 
62 	40    	0.706023	0.00982786	0.692764	0.73494 
63 	40    	0.706325	0.00950372	0.698792	0.73494 
64 	40    	0.706325	0.00950372	0.698792	0.73494 
65 	40    	0.707229	0.00960361	0.698792	0.73494 
66 	40    	0.707229	0.00960361	0.698792	0.73494 
67 	40    	0.707229	0.00960361	0.698792	0.73494 
68 	40    	0.70753 	0.00942706	0.698792	0.73494 
69 	40    	0.70753 	0.00942706	0.698792	0.73494 
70 	40    	0.70753 	0.00942706	0.698792	0.73494 
71 	40    	0.70753 	0.00942706	0.698792	0.73494 
72 	40    	0.70753 	0.00942706	0.698792	0.73494 
73 	40    	0.70753 	0.00942706	0.698792	0.73494 
74 	40    	0.70753 	0.00942706	0.698792	0.73494 
75 	40    	0.70753 	0.00942706	0.698792	0.73494 
76 	40    	0.708434	0.00941267	0.698792	0.73494 
77 	40    	0.708434	0.00941267	0.698792	0.73494 
78 	40    	0.708434	0.00941267	0.698792	0.73494 
79 	40    	0.709037	0.0089579 	0.698792	0.73494 
80 	40    	0.709037	0.0089579 	0.698792	0.73494 
81 	40    	0.709037	0.0089579 	0.698792	0.73494 
82 	40    	0.710543	0.00882933	0.698792	0.73494 
83 	40    	0.710543	0.00882933	0.698792	0.73494 
84 	40    	0.710543	0.00882933	0.698792	0.73494 
85 	40    	0.711447	0.00849931	0.698792	0.73494 
86 	40    	0.71205 	0.00799279	0.704819	0.73494 
87 	40    	0.71205 	0.00799279	0.704819	0.73494 
88 	40    	0.712653	0.00787847	0.704819	0.73494 
89 	40    	0.712653	0.00787847	0.704819	0.73494 
90 	40    	0.712653	0.00787847	0.704819	0.73494 
91 	40    	0.712653	0.00787847	0.704819	0.73494 
92 	40    	0.712653	0.00787847	0.704819	0.73494 
93 	40    	0.712653	0.00787847	0.704819	0.73494 
94 	40    	0.712653	0.00787847	0.704819	0.73494 
95 	40    	0.712653	0.00787847	0.704819	0.73494 
96 	40    	0.713255	0.00771551	0.704819	0.73494 
97 	40    	0.713255	0.00771551	0.704819	0.73494 
98 	40    	0.713255	0.00771551	0.704819	0.73494 
99 	40    	0.713255	0.00771551	0.704819	0.73494 
100	40    	0.713255	0.00771551	0.704819	0.73494 
101	40    	0.713255	0.00771551	0.704819	0.73494 
102	40    	0.713255	0.00771551	0.704819	0.73494 
103	40    	0.715063	0.00689541	0.704819	0.73494 
104	40    	0.715063	0.00689541	0.704819	0.73494 
105	40    	0.715967	0.00667396	0.704819	0.73494 
106	40    	0.71687 	0.00631704	0.704819	0.73494 
107	40    	0.718075	0.00620022	0.704819	0.73494 
108	40    	0.718376	0.00567261	0.710846	0.73494 
109	40    	0.718376	0.00567261	0.710846	0.73494 
110	40    	0.718376	0.00567261	0.710846	0.73494 
111	40    	0.718376	0.00567261	0.710846	0.73494 
112	40    	0.718376	0.00567261	0.710846	0.73494 
113	40    	0.718376	0.00567261	0.710846	0.73494 
114	40    	0.718678	0.00541899	0.710846	0.73494 
115	40    	0.720184	0.00699079	0.710846	0.740967
116	40    	0.720485	0.00670588	0.716873	0.740967
117	40    	0.720485	0.00670588	0.716873	0.740967
118	40    	0.721388	0.00734489	0.716873	0.740967
119	40    	0.722292	0.00782905	0.716873	0.740967
120	40    	0.722292	0.00782905	0.716873	0.740967
121	40    	0.722292	0.00782905	0.716873	0.740967
122	40    	0.722894	0.0078521 	0.716873	0.740967
123	40    	0.722894	0.0078521 	0.716873	0.740967
124	40    	0.722894	0.0078521 	0.716873	0.740967
125	40    	0.722894	0.0078521 	0.716873	0.740967
126	40    	0.722894	0.0078521 	0.716873	0.740967
127	40    	0.722894	0.0078521 	0.716873	0.740967
128	40    	0.723194	0.00773   	0.716873	0.740967
129	40    	0.723495	0.00759405	0.716873	0.740967
130	40    	0.723495	0.00759405	0.716873	0.740967
131	40    	0.723495	0.00759405	0.716873	0.740967
132	40    	0.724097	0.00752213	0.716873	0.740967
133	40    	0.724097	0.00752213	0.716873	0.740967
134	40    	0.724097	0.00752213	0.716873	0.740967
135	40    	0.728011	0.0119391 	0.716873	0.771088
136	40    	0.728011	0.0119391 	0.716873	0.771088
137	40    	0.729517	0.0123325 	0.716873	0.771088
138	40    	0.729517	0.0123325 	0.716873	0.771088
139	40    	0.729817	0.0120916 	0.716873	0.771088
140	40    	0.730419	0.0117263 	0.716873	0.771088
141	40    	0.731925	0.0113535 	0.722885	0.771088
142	40    	0.732528	0.0111762 	0.722885	0.771088
143	40    	0.732528	0.0111762 	0.722885	0.771088
144	40    	0.734034	0.011788  	0.722885	0.771088
145	40    	0.734335	0.0115743 	0.722885	0.771088
146	40    	0.734637	0.0113485 	0.722885	0.771088
147	40    	0.735239	0.0110238 	0.722885	0.771088
148	40    	0.735239	0.0110238 	0.722885	0.771088
149	40    	0.735239	0.0110238 	0.722885	0.771088
150	40    	0.735239	0.0110238 	0.722885	0.771088
151	40    	0.736746	0.0106255 	0.728912	0.771088
152	40    	0.736746	0.0106255 	0.728912	0.771088
153	40    	0.737048	0.0104836 	0.728912	0.771088
154	40    	0.737952	0.0101715 	0.728912	0.771088
155	40    	0.737952	0.0101715 	0.728912	0.771088
156	40    	0.738554	0.00997323	0.728912	0.771088
157	40    	0.738554	0.00997323	0.728912	0.771088
158	40    	0.738554	0.00997323	0.728912	0.771088
159	40    	0.741266	0.0106883 	0.728912	0.771088
160	40    	0.741266	0.0106883 	0.728912	0.771088
161	40    	0.742471	0.0105854 	0.728912	0.771088
162	40    	0.743073	0.0101296 	0.73494 	0.771088
163	40    	0.743073	0.0101296 	0.73494 	0.771088
164	40    	0.743073	0.0101296 	0.73494 	0.771088
165	40    	0.743375	0.00997157	0.73494 	0.771088
166	40    	0.743375	0.00997157	0.73494 	0.771088
167	40    	0.743375	0.00997157	0.73494 	0.771088
168	40    	0.743375	0.00997157	0.73494 	0.771088
169	40    	0.743375	0.00997157	0.73494 	0.771088
170	40    	0.743375	0.00997157	0.73494 	0.771088
171	40    	0.743977	0.00980645	0.73494 	0.771088
172	40    	0.743977	0.00980645	0.73494 	0.771088
173	40    	0.743977	0.00980645	0.73494 	0.771088
174	40    	0.743977	0.00980645	0.73494 	0.771088
175	40    	0.743977	0.00980645	0.73494 	0.771088
176	40    	0.743977	0.00980645	0.73494 	0.771088
177	40    	0.743977	0.00980645	0.73494 	0.771088
178	40    	0.743977	0.00980645	0.73494 	0.771088
179	40    	0.74458 	0.00960074	0.73494 	0.771088
180	40    	0.74458 	0.00960074	0.73494 	0.771088
181	40    	0.74458 	0.00960074	0.73494 	0.771088
182	40    	0.745483	0.00950058	0.73494 	0.771088
183	40    	0.745483	0.00950058	0.73494 	0.771088
184	40    	0.745483	0.00950058	0.73494 	0.771088
185	40    	0.746989	0.00893416	0.73494 	0.771088
186	40    	0.746989	0.00893416	0.73494 	0.771088
187	40    	0.746989	0.00893416	0.73494 	0.771088
188	40    	0.746989	0.00893416	0.73494 	0.771088
189	40    	0.746989	0.00893416	0.73494 	0.771088
190	40    	0.746989	0.00893416	0.73494 	0.771088
191	40    	0.746989	0.00893416	0.73494 	0.771088
192	40    	0.746989	0.00893416	0.73494 	0.771088
193	40    	0.746989	0.00893416	0.73494 	0.771088
194	40    	0.746989	0.00893416	0.73494 	0.771088
195	40    	0.746989	0.00893416	0.73494 	0.771088
196	40    	0.747291	0.0086187 	0.73494 	0.771088
197	40    	0.747291	0.0086187 	0.73494 	0.771088
198	40    	0.747894	0.0081422 	0.740967	0.771088
199	40    	0.747894	0.0081422 	0.740967	0.771088
200	40    	0.747894	0.0081422 	0.740967	0.771088
201	40    	0.747894	0.0081422 	0.740967	0.771088
202	40    	0.747894	0.0081422 	0.740967	0.771088
203	40    	0.7494  	0.00860261	0.740967	0.771088
204	40    	0.7494  	0.00860261	0.740967	0.771088
205	40    	0.750002	0.00841055	0.740967	0.771088
206	40    	0.750002	0.00841055	0.740967	0.771088
207	40    	0.750303	0.00818642	0.740967	0.771088
208	40    	0.750303	0.00818642	0.740967	0.771088
209	40    	0.750303	0.00818642	0.740967	0.771088
210	40    	0.750303	0.00818642	0.740967	0.771088
211	40    	0.750303	0.00818642	0.740967	0.771088
212	40    	0.751206	0.00810273	0.740967	0.771088
213	40    	0.751206	0.00810273	0.740967	0.771088
214	40    	0.751206	0.00810273	0.740967	0.771088
215	40    	0.751206	0.00810273	0.740967	0.771088
216	40    	0.751508	0.00782357	0.740967	0.771088
217	40    	0.751508	0.00782357	0.740967	0.771088
218	40    	0.751508	0.00782357	0.740967	0.771088
219	40    	0.751508	0.00782357	0.740967	0.771088
220	40    	0.751508	0.00782357	0.740967	0.771088
221	40    	0.751508	0.00782357	0.740967	0.771088
222	40    	0.751508	0.00782357	0.740967	0.771088
223	40    	0.751508	0.00782357	0.740967	0.771088
224	40    	0.751508	0.00782357	0.740967	0.771088
225	40    	0.75211 	0.00744331	0.740967	0.771088
226	40    	0.75211 	0.00744331	0.740967	0.771088
227	40    	0.752711	0.00699089	0.746994	0.771088
228	40    	0.752711	0.00699089	0.746994	0.771088
229	40    	0.752711	0.00699089	0.746994	0.771088
230	40    	0.753313	0.00699099	0.746994	0.771088
231	40    	0.753313	0.00699099	0.746994	0.771088
232	40    	0.753614	0.00684044	0.746994	0.771088
233	40    	0.753614	0.00684044	0.746994	0.771088
234	40    	0.753614	0.00684044	0.746994	0.771088
235	40    	0.754216	0.00676065	0.746994	0.771088
236	40    	0.754216	0.00676065	0.746994	0.771088
237	40    	0.755119	0.00693993	0.746994	0.771088
238	40    	0.755119	0.00693993	0.746994	0.771088
239	40    	0.755119	0.00693993	0.746994	0.771088
240	40    	0.75542 	0.00670779	0.746994	0.771088
241	40    	0.75542 	0.00670779	0.746994	0.771088
242	40    	0.75542 	0.00670779	0.746994	0.771088
243	40    	0.755721	0.00645335	0.746994	0.771088
244	40    	0.755721	0.00645335	0.746994	0.771088
245	40    	0.755721	0.00645335	0.746994	0.771088
246	40    	0.756624	0.00643303	0.746994	0.771088
247	40    	0.756624	0.00643303	0.746994	0.771088
248	40    	0.756624	0.00643303	0.746994	0.771088
249	40    	0.756624	0.00643303	0.746994	0.771088
250	40    	0.756624	0.00643303	0.746994	0.771088
