gen	nevals	avg     	std       	min     	max     
0  	20    	0.590731	0.0673447 	0.463409	0.687805
1  	40    	0.639024	0.0258138 	0.609756	0.687805
2  	40    	0.649268	0.021703  	0.619507	0.687805
3  	40    	0.657072	0.0169777 	0.639023	0.687805
4  	40    	0.660486	0.0167879 	0.639023	0.687805
5  	40    	0.665852	0.0150782 	0.648773	0.687805
6  	40    	0.668781	0.0125238 	0.648773	0.687805
7  	40    	0.673171	0.0117476 	0.658539	0.697556
8  	40    	0.679512	0.00988958	0.668289	0.697556
9  	40    	0.683903	0.0108636 	0.668289	0.707321
10 	40    	0.688294	0.00949403	0.678055	0.707321
11 	40    	0.688294	0.00949403	0.678055	0.707321
12 	40    	0.689269	0.0093932 	0.678055	0.707321
13 	40    	0.690244	0.00918838	0.678055	0.707321
14 	40    	0.691707	0.00839042	0.678055	0.707321
15 	40    	0.694145	0.00708587	0.687805	0.707321
16 	40    	0.696096	0.00988849	0.687805	0.726822
17 	40    	0.698047	0.0117364 	0.687805	0.726822
18 	40    	0.69951 	0.0113765 	0.687805	0.726822
19 	40    	0.701949	0.0121354 	0.687805	0.726822
20 	40    	0.702924	0.011737  	0.687805	0.726822
21 	40    	0.702924	0.011737  	0.687805	0.726822
22 	40    	0.702924	0.011737  	0.687805	0.726822
23 	40    	0.7039  	0.0112402 	0.687805	0.726822
24 	40    	0.705363	0.0100445 	0.697556	0.726822
25 	40    	0.705363	0.0100445 	0.697556	0.726822
26 	40    	0.709267	0.0133062 	0.697556	0.736588
27 	40    	0.709267	0.0133062 	0.697556	0.736588
28 	40    	0.710731	0.0128231 	0.697556	0.736588
29 	40    	0.712194	0.0129057 	0.697556	0.736588
30 	40    	0.712194	0.0129057 	0.697556	0.736588
31 	40    	0.717561	0.0121335 	0.707321	0.746338
32 	40    	0.718049	0.011906  	0.707321	0.746338
33 	40    	0.720487	0.0128203 	0.707321	0.746338
34 	40    	0.722437	0.0121341 	0.707321	0.746338
35 	40    	0.724388	0.0126715 	0.707321	0.746338
36 	40    	0.725363	0.0120561 	0.707321	0.746338
37 	40    	0.727314	0.0108963 	0.707321	0.746338
38 	40    	0.729753	0.011586  	0.717072	0.756104
39 	40    	0.731704	0.0113371 	0.717072	0.756104
40 	40    	0.734631	0.0113802 	0.717072	0.756104
41 	40    	0.738046	0.0108128 	0.726822	0.756104
42 	40    	0.739022	0.010635  	0.726822	0.756104
43 	40    	0.739998	0.0103627 	0.726822	0.756104
44 	40    	0.742438	0.0108665 	0.726822	0.765854
45 	40    	0.743414	0.0102808 	0.726822	0.765854
46 	40    	0.743902	0.00969653	0.726822	0.765854
47 	40    	0.744878	0.00887587	0.726822	0.765854
48 	40    	0.746342	0.00816321	0.736588	0.765854
49 	40    	0.747318	0.00810514	0.736588	0.765854
50 	40    	0.748293	0.00792743	0.736588	0.765854
51 	40    	0.748293	0.00792743	0.736588	0.765854
52 	40    	0.748781	0.00747974	0.736588	0.765854
53 	40    	0.749756	0.00638161	0.736588	0.765854
54 	40    	0.750243	0.0056922 	0.746338	0.765854
55 	40    	0.751707	0.00652945	0.746338	0.765854
56 	40    	0.753659	0.00809079	0.746338	0.775604
57 	40    	0.755611	0.00898168	0.746338	0.775604
58 	40    	0.756099	0.00872611	0.746338	0.775604
59 	40    	0.757562	0.00939482	0.746338	0.775604
60 	40    	0.758538	0.0091896 	0.746338	0.775604
61 	40    	0.761953	0.008389  	0.746338	0.775604
62 	40    	0.764392	0.00887142	0.756104	0.78537 
63 	40    	0.764392	0.00887142	0.756104	0.78537 
64 	40    	0.768782	0.0141699 	0.756104	0.814636
65 	40    	0.769757	0.0139329 	0.756104	0.814636
66 	40    	0.770245	0.0136136 	0.756104	0.814636
67 	40    	0.770245	0.0136136 	0.756104	0.814636
68 	40    	0.772195	0.014229  	0.756104	0.814636
69 	40    	0.772195	0.014229  	0.756104	0.814636
70 	40    	0.772195	0.014229  	0.756104	0.814636
71 	40    	0.772195	0.014229  	0.756104	0.814636
72 	40    	0.773658	0.0129428 	0.756104	0.814636
73 	40    	0.778048	0.0147565 	0.765854	0.814636
74 	40    	0.778048	0.0147565 	0.765854	0.814636
75 	40    	0.778535	0.0145045 	0.765854	0.814636
76 	40    	0.779023	0.0142314 	0.765854	0.814636
77 	40    	0.781462	0.0139359 	0.765854	0.814636
78 	40    	0.78195 	0.0135465 	0.765854	0.814636
79 	40    	0.783413	0.0133073 	0.765854	0.814636
80 	40    	0.783413	0.0133073 	0.765854	0.814636
81 	40    	0.784389	0.012685  	0.765854	0.814636
82 	40    	0.787315	0.0146683 	0.775604	0.824387
83 	40    	0.788291	0.014505  	0.775604	0.824387
84 	40    	0.788291	0.014505  	0.775604	0.824387
85 	40    	0.788291	0.014505  	0.775604	0.824387
86 	40    	0.788291	0.014505  	0.775604	0.824387
87 	40    	0.788291	0.014505  	0.775604	0.824387
88 	40    	0.788291	0.014505  	0.775604	0.824387
89 	40    	0.788291	0.014505  	0.775604	0.824387
90 	40    	0.789754	0.014627  	0.775604	0.824387
91 	40    	0.789754	0.014627  	0.775604	0.824387
92 	40    	0.789754	0.014627  	0.775604	0.824387
93 	40    	0.789754	0.014627  	0.775604	0.824387
94 	40    	0.790243	0.0143059 	0.775604	0.824387
95 	40    	0.790243	0.0143059 	0.775604	0.824387
96 	40    	0.790731	0.0139605 	0.775604	0.824387
97 	40    	0.791219	0.0135887 	0.775604	0.824387
98 	40    	0.791708	0.0131884 	0.775604	0.824387
99 	40    	0.793659	0.0124444 	0.775604	0.824387
100	40    	0.793659	0.0124444 	0.775604	0.824387
101	40    	0.795123	0.0119461 	0.78537 	0.824387
102	40    	0.796586	0.0124439 	0.78537 	0.824387
103	40    	0.798049	0.0127558 	0.78537 	0.824387
104	40    	0.798049	0.0127558 	0.78537 	0.824387
105	40    	0.798049	0.0127558 	0.78537 	0.824387
106	40    	0.798049	0.0127558 	0.78537 	0.824387
107	40    	0.798049	0.0127558 	0.78537 	0.824387
108	40    	0.799024	0.0121054 	0.78537 	0.824387
109	40    	0.799999	0.0117464 	0.78537 	0.824387
110	40    	0.799999	0.0117464 	0.78537 	0.824387
111	40    	0.800487	0.0113238 	0.78537 	0.824387
112	40    	0.800487	0.0113238 	0.78537 	0.824387
113	40    	0.800487	0.0113238 	0.78537 	0.824387
114	40    	0.800487	0.0113238 	0.78537 	0.824387
115	40    	0.800487	0.0113238 	0.78537 	0.824387
116	40    	0.800487	0.0113238 	0.78537 	0.824387
117	40    	0.800487	0.0113238 	0.78537 	0.824387
118	40    	0.800487	0.0113238 	0.78537 	0.824387
119	40    	0.800487	0.0113238 	0.78537 	0.824387
120	40    	0.800487	0.0113238 	0.78537 	0.824387
121	40    	0.800974	0.010863  	0.78537 	0.824387
122	40    	0.801462	0.0103589 	0.78537 	0.824387
123	40    	0.801462	0.0103589 	0.78537 	0.824387
124	40    	0.801462	0.0103589 	0.78537 	0.824387
125	40    	0.803413	0.0108088 	0.78537 	0.824387
126	40    	0.803413	0.0108088 	0.78537 	0.824387
127	40    	0.803413	0.0108088 	0.78537 	0.824387
128	40    	0.8039  	0.010186  	0.79512 	0.824387
129	40    	0.8039  	0.010186  	0.79512 	0.824387
130	40    	0.8039  	0.010186  	0.79512 	0.824387
131	40    	0.805363	0.0108969 	0.79512 	0.824387
132	40    	0.805851	0.0106429 	0.79512 	0.824387
133	40    	0.805851	0.0106429 	0.79512 	0.824387
134	40    	0.805851	0.0106429 	0.79512 	0.824387
135	40    	0.805851	0.0106429 	0.79512 	0.824387
136	40    	0.805851	0.0106429 	0.79512 	0.824387
137	40    	0.805851	0.0106429 	0.79512 	0.824387
138	40    	0.805851	0.0106429 	0.79512 	0.824387
139	40    	0.805851	0.0106429 	0.79512 	0.824387
140	40    	0.806339	0.0103597 	0.79512 	0.824387
141	40    	0.806339	0.0103597 	0.79512 	0.824387
142	40    	0.806339	0.0103597 	0.79512 	0.824387
143	40    	0.806339	0.0103597 	0.79512 	0.824387
144	40    	0.806339	0.0103597 	0.79512 	0.824387
145	40    	0.806339	0.0103597 	0.79512 	0.824387
146	40    	0.806339	0.0103597 	0.79512 	0.824387
147	40    	0.806339	0.0103597 	0.79512 	0.824387
148	40    	0.806826	0.010045  	0.79512 	0.824387
149	40    	0.806826	0.010045  	0.79512 	0.824387
150	40    	0.806826	0.010045  	0.79512 	0.824387
151	40    	0.806826	0.010045  	0.79512 	0.824387
152	40    	0.806826	0.010045  	0.79512 	0.824387
153	40    	0.806826	0.010045  	0.79512 	0.824387
154	40    	0.806826	0.010045  	0.79512 	0.824387
155	40    	0.806826	0.010045  	0.79512 	0.824387
156	40    	0.806826	0.010045  	0.79512 	0.824387
157	40    	0.806826	0.010045  	0.79512 	0.824387
158	40    	0.806826	0.010045  	0.79512 	0.824387
159	40    	0.807314	0.00969557	0.79512 	0.824387
160	40    	0.807314	0.00969557	0.79512 	0.824387
161	40    	0.807314	0.00969557	0.79512 	0.824387
162	40    	0.807314	0.00969557	0.79512 	0.824387
163	40    	0.807314	0.00969557	0.79512 	0.824387
164	40    	0.807314	0.00969557	0.79512 	0.824387
165	40    	0.807314	0.00969557	0.79512 	0.824387
166	40    	0.807314	0.00969557	0.79512 	0.824387
167	40    	0.807314	0.00969557	0.79512 	0.824387
168	40    	0.807314	0.00969557	0.79512 	0.824387
169	40    	0.807314	0.00969557	0.79512 	0.824387
170	40    	0.807314	0.00969557	0.79512 	0.824387
171	40    	0.807314	0.00969557	0.79512 	0.824387
172	40    	0.807314	0.00969557	0.79512 	0.824387
173	40    	0.807314	0.00969557	0.79512 	0.824387
174	40    	0.807314	0.00969557	0.79512 	0.824387
175	40    	0.807314	0.00969557	0.79512 	0.824387
176	40    	0.807801	0.00930758	0.79512 	0.824387
177	40    	0.809264	0.00843651	0.79512 	0.824387
178	40    	0.809264	0.00843651	0.79512 	0.824387
179	40    	0.809264	0.00843651	0.79512 	0.824387
180	40    	0.809752	0.00786762	0.79512 	0.824387
181	40    	0.809752	0.00786762	0.79512 	0.824387
182	40    	0.809752	0.00786762	0.79512 	0.824387
183	40    	0.812679	0.0117896 	0.804871	0.853653
184	40    	0.813654	0.01191   	0.804871	0.853653
185	40    	0.813654	0.01191   	0.804871	0.853653
186	40    	0.813654	0.01191   	0.804871	0.853653
187	40    	0.813654	0.01191   	0.804871	0.853653
188	40    	0.813654	0.01191   	0.804871	0.853653
189	40    	0.813654	0.01191   	0.804871	0.853653
190	40    	0.813654	0.01191   	0.804871	0.853653
191	40    	0.813654	0.01191   	0.804871	0.853653
192	40    	0.813654	0.01191   	0.804871	0.853653
193	40    	0.813654	0.01191   	0.804871	0.853653
194	40    	0.813654	0.01191   	0.804871	0.853653
195	40    	0.813654	0.01191   	0.804871	0.853653
196	40    	0.813654	0.01191   	0.804871	0.853653
197	40    	0.813654	0.01191   	0.804871	0.853653
198	40    	0.813654	0.01191   	0.804871	0.853653
199	40    	0.815118	0.0117387 	0.804871	0.853653
200	40    	0.815118	0.0117387 	0.804871	0.853653
201	40    	0.815118	0.0117387 	0.804871	0.853653
202	40    	0.815118	0.0117387 	0.804871	0.853653
203	40    	0.815118	0.0117387 	0.804871	0.853653
204	40    	0.815607	0.011503  	0.804871	0.853653
205	40    	0.815607	0.011503  	0.804871	0.853653
206	40    	0.816095	0.0112412 	0.804871	0.853653
207	40    	0.816095	0.0112412 	0.804871	0.853653
208	40    	0.816095	0.0112412 	0.804871	0.853653
209	40    	0.816095	0.0112412 	0.804871	0.853653
210	40    	0.816095	0.0112412 	0.804871	0.853653
211	40    	0.816095	0.0112412 	0.804871	0.853653
212	40    	0.816095	0.0112412 	0.804871	0.853653
213	40    	0.818534	0.0135885 	0.804871	0.853653
214	40    	0.818534	0.0135885 	0.804871	0.853653
215	40    	0.818534	0.0135885 	0.804871	0.853653
216	40    	0.818534	0.0135885 	0.804871	0.853653
217	40    	0.819022	0.0132602 	0.804871	0.853653
218	40    	0.819022	0.0132602 	0.804871	0.853653
219	40    	0.819022	0.0132602 	0.804871	0.853653
220	40    	0.820486	0.0132334 	0.804871	0.853653
221	40    	0.820486	0.0132334 	0.804871	0.853653
222	40    	0.821951	0.0130431 	0.804871	0.853653
223	40    	0.821951	0.0130431 	0.804871	0.853653
224	40    	0.822926	0.0124451 	0.804871	0.853653
225	40    	0.823415	0.0119071 	0.814636	0.853653
226	40    	0.823415	0.0119071 	0.814636	0.853653
227	40    	0.823415	0.0119071 	0.814636	0.853653
228	40    	0.823415	0.0119071 	0.814636	0.853653
229	40    	0.823415	0.0119071 	0.814636	0.853653
230	40    	0.823415	0.0119071 	0.814636	0.853653
231	40    	0.823415	0.0119071 	0.814636	0.853653
232	40    	0.823415	0.0119071 	0.814636	0.853653
233	40    	0.823415	0.0119071 	0.814636	0.853653
234	40    	0.823415	0.0119071 	0.814636	0.853653
235	40    	0.823902	0.0117361 	0.814636	0.853653
236	40    	0.82439 	0.0115419 	0.814636	0.853653
237	40    	0.82439 	0.0115419 	0.814636	0.853653
238	40    	0.82439 	0.0115419 	0.814636	0.853653
239	40    	0.82439 	0.0115419 	0.814636	0.853653
240	40    	0.82439 	0.0115419 	0.814636	0.853653
241	40    	0.82439 	0.0115419 	0.814636	0.853653
242	40    	0.824877	0.0113235 	0.814636	0.853653
243	40    	0.824877	0.0113235 	0.814636	0.853653
244	40    	0.824877	0.0113235 	0.814636	0.853653
245	40    	0.824877	0.0113235 	0.814636	0.853653
246	40    	0.827803	0.0108084 	0.814636	0.853653
247	40    	0.827803	0.0108084 	0.814636	0.853653
248	40    	0.827803	0.0108084 	0.814636	0.853653
249	40    	0.827803	0.0108084 	0.814636	0.853653
250	40    	0.828778	0.00998503	0.814636	0.853653
