gen	nevals	avg     	std       	min     	max     
0  	20    	0.586301	0.0195544 	0.543381	0.621002
1  	40    	0.610275	0.0145317 	0.593613	0.652969
2  	40    	0.617123	0.01253   	0.602737	0.652969
3  	40    	0.619407	0.0118456 	0.6073  	0.652969
4  	40    	0.623518	0.0128717 	0.611877	0.657532
5  	40    	0.626028	0.0114518 	0.611877	0.657532
6  	40    	0.630593	0.0119861 	0.61644 	0.657532
7  	40    	0.631506	0.0112876 	0.621002	0.657532
8  	40    	0.634246	0.00999386	0.625565	0.657532
9  	40    	0.636075	0.00891104	0.625565	0.657532
10 	40    	0.638586	0.00857401	0.630142	0.657532
11 	40    	0.641782	0.0114116 	0.630142	0.675797
12 	40    	0.644977	0.0100946 	0.634705	0.675797
13 	40    	0.646803	0.00938876	0.634705	0.675797
14 	40    	0.649771	0.00818175	0.639267	0.675797
15 	40    	0.649771	0.00818175	0.639267	0.675797
16 	40    	0.651369	0.00725985	0.643829	0.675797
17 	40    	0.651598	0.00708866	0.643829	0.675797
18 	40    	0.652284	0.00665929	0.643829	0.675797
19 	40    	0.653426	0.00643868	0.648407	0.675797
20 	40    	0.653654	0.00633682	0.648407	0.675797
21 	40    	0.653654	0.00633682	0.648407	0.675797
22 	40    	0.657763	0.00973486	0.648407	0.680359
23 	40    	0.660731	0.00902812	0.652969	0.680359
24 	40    	0.661415	0.00869593	0.652969	0.680359
25 	40    	0.663013	0.00811678	0.652969	0.680359
26 	40    	0.664612	0.00756883	0.652969	0.680359
27 	40    	0.664612	0.00756883	0.652969	0.680359
28 	40    	0.664612	0.00756883	0.652969	0.680359
29 	40    	0.669406	0.0116769 	0.657532	0.712326
30 	40    	0.669863	0.0113783 	0.657532	0.712326
31 	40    	0.671461	0.01085   	0.662094	0.712326
32 	40    	0.67169 	0.0106972 	0.662094	0.712326
33 	40    	0.672832	0.0108302 	0.662094	0.712326
34 	40    	0.673975	0.010842  	0.666672	0.712326
35 	40    	0.674887	0.0104706 	0.666672	0.712326
36 	40    	0.6758  	0.0101061 	0.666672	0.712326
37 	40    	0.676256	0.00988738	0.666672	0.712326
38 	40    	0.676484	0.00971475	0.666672	0.712326
39 	40    	0.677168	0.00947865	0.666672	0.712326
40 	40    	0.677396	0.00927603	0.666672	0.712326
41 	40    	0.677625	0.00906313	0.671234	0.712326
42 	40    	0.677625	0.00906313	0.671234	0.712326
43 	40    	0.677625	0.00906313	0.671234	0.712326
44 	40    	0.677625	0.00906313	0.671234	0.712326
45 	40    	0.677853	0.0089562 	0.671234	0.712326
46 	40    	0.677853	0.0089562 	0.671234	0.712326
47 	40    	0.677853	0.0089562 	0.671234	0.712326
48 	40    	0.677853	0.0089562 	0.671234	0.712326
49 	40    	0.677853	0.0089562 	0.671234	0.712326
50 	40    	0.677853	0.0089562 	0.671234	0.712326
51 	40    	0.677853	0.0089562 	0.671234	0.712326
52 	40    	0.677853	0.0089562 	0.671234	0.712326
53 	40    	0.678309	0.00883908	0.671234	0.712326
54 	40    	0.679221	0.00840418	0.671234	0.712326
55 	40    	0.679449	0.00824469	0.671234	0.712326
56 	40    	0.679449	0.00824469	0.671234	0.712326
57 	40    	0.679906	0.00802705	0.675797	0.712326
58 	40    	0.681732	0.00855543	0.675797	0.712326
59 	40    	0.681732	0.00855543	0.675797	0.712326
60 	40    	0.681732	0.00855543	0.675797	0.712326
61 	40    	0.681732	0.00855543	0.675797	0.712326
62 	40    	0.68196 	0.00845435	0.675797	0.712326
63 	40    	0.683559	0.0100156 	0.675797	0.712326
64 	40    	0.683559	0.0100156 	0.675797	0.712326
65 	40    	0.683559	0.0100156 	0.675797	0.712326
66 	40    	0.685156	0.0100546 	0.675797	0.712326
67 	40    	0.687211	0.0105635 	0.680359	0.712326
68 	40    	0.687211	0.0105635 	0.680359	0.712326
69 	40    	0.68744 	0.0104617 	0.680359	0.712326
70 	40    	0.687897	0.0102396 	0.680359	0.712326
71 	40    	0.68904 	0.00999453	0.680359	0.712326
72 	40    	0.68904 	0.00999453	0.680359	0.712326
73 	40    	0.689954	0.00956769	0.680359	0.712326
74 	40    	0.690639	0.00934409	0.680359	0.712326
75 	40    	0.690639	0.00934409	0.680359	0.712326
76 	40    	0.691324	0.00906337	0.680359	0.712326
77 	40    	0.691324	0.00906337	0.680359	0.712326
78 	40    	0.691781	0.008723  	0.680359	0.712326
79 	40    	0.691781	0.008723  	0.680359	0.712326
80 	40    	0.692238	0.00834381	0.680359	0.712326
81 	40    	0.692467	0.00807321	0.684937	0.712326
82 	40    	0.692467	0.00807321	0.684937	0.712326
83 	40    	0.692695	0.00792022	0.684937	0.712326
84 	40    	0.693379	0.00781086	0.684937	0.712326
85 	40    	0.694064	0.00763888	0.684937	0.712326
86 	40    	0.694064	0.00763888	0.684937	0.712326
87 	40    	0.694064	0.00763888	0.684937	0.712326
88 	40    	0.694292	0.00742813	0.684937	0.712326
89 	40    	0.694292	0.00742813	0.684937	0.712326
90 	40    	0.694292	0.00742813	0.684937	0.712326
91 	40    	0.694292	0.00742813	0.684937	0.712326
92 	40    	0.69452 	0.007204  	0.684937	0.712326
93 	40    	0.694976	0.00686353	0.689499	0.712326
94 	40    	0.696117	0.00714307	0.689499	0.712326
95 	40    	0.697259	0.00723419	0.689499	0.712326
96 	40    	0.697715	0.00701482	0.689499	0.712326
97 	40    	0.697715	0.00701482	0.689499	0.712326
98 	40    	0.697715	0.00701482	0.689499	0.712326
99 	40    	0.698399	0.00653435	0.689499	0.712326
100	40    	0.698399	0.00653435	0.689499	0.712326
101	40    	0.698399	0.00653435	0.689499	0.712326
102	40    	0.698399	0.00653435	0.689499	0.712326
103	40    	0.699084	0.00593725	0.694061	0.712326
104	40    	0.699541	0.00588461	0.694061	0.712326
105	40    	0.699541	0.00588461	0.694061	0.712326
106	40    	0.699769	0.00575477	0.694061	0.712326
107	40    	0.699769	0.00575477	0.694061	0.712326
108	40    	0.700454	0.00584937	0.694061	0.712326
109	40    	0.700454	0.00584937	0.694061	0.712326
110	40    	0.700454	0.00584937	0.694061	0.712326
111	40    	0.700454	0.00584937	0.694061	0.712326
112	40    	0.701367	0.00619557	0.694061	0.712326
113	40    	0.701367	0.00619557	0.694061	0.712326
114	40    	0.701595	0.00600338	0.694061	0.712326
115	40    	0.701595	0.00600338	0.694061	0.712326
116	40    	0.70228 	0.0058852 	0.694061	0.712326
117	40    	0.70228 	0.0058852 	0.694061	0.712326
118	40    	0.70228 	0.0058852 	0.694061	0.712326
119	40    	0.70228 	0.0058852 	0.694061	0.712326
120	40    	0.70228 	0.0058852 	0.694061	0.712326
121	40    	0.702737	0.00557597	0.694061	0.712326
122	40    	0.703651	0.00557591	0.694061	0.712326
123	40    	0.703651	0.00557591	0.694061	0.712326
124	40    	0.704564	0.00542421	0.698624	0.712326
125	40    	0.704564	0.00542421	0.698624	0.712326
126	40    	0.705249	0.00549553	0.698624	0.712326
127	40    	0.705934	0.00548096	0.698624	0.712326
128	40    	0.706391	0.00522755	0.698624	0.712326
129	40    	0.706391	0.00522755	0.698624	0.712326
130	40    	0.707076	0.00505987	0.698624	0.712326
131	40    	0.707076	0.00505987	0.698624	0.712326
132	40    	0.707534	0.00444406	0.698624	0.712326
133	40    	0.70822 	0.00350443	0.703201	0.712326
134	40    	0.70822 	0.00350443	0.703201	0.712326
135	40    	0.70822 	0.00350443	0.703201	0.712326
136	40    	0.708904	0.00378292	0.703201	0.716888
137	40    	0.708904	0.00378292	0.703201	0.716888
138	40    	0.708904	0.00378292	0.703201	0.716888
139	40    	0.708904	0.00378292	0.703201	0.716888
140	40    	0.708904	0.00378292	0.703201	0.716888
141	40    	0.709132	0.00356333	0.703201	0.716888
142	40    	0.709361	0.00331362	0.703201	0.716888
143	40    	0.709361	0.00331362	0.703201	0.716888
144	40    	0.709361	0.00331362	0.703201	0.716888
145	40    	0.710273	0.00268948	0.707764	0.716888
146	40    	0.710273	0.00268948	0.707764	0.716888
147	40    	0.710273	0.00268948	0.707764	0.716888
148	40    	0.710501	0.0026603 	0.707764	0.716888
149	40    	0.710729	0.00261094	0.707764	0.716888
150	40    	0.710729	0.00261094	0.707764	0.716888
151	40    	0.710729	0.00261094	0.707764	0.716888
152	40    	0.710729	0.00261094	0.707764	0.716888
153	40    	0.710729	0.00261094	0.707764	0.716888
154	40    	0.710729	0.00261094	0.707764	0.716888
155	40    	0.710957	0.00254022	0.707764	0.716888
156	40    	0.710957	0.00254022	0.707764	0.716888
157	40    	0.710957	0.00254022	0.707764	0.716888
158	40    	0.710957	0.00254022	0.707764	0.716888
159	40    	0.710957	0.00254022	0.707764	0.716888
160	40    	0.710957	0.00254022	0.707764	0.716888
161	40    	0.710957	0.00254022	0.707764	0.716888
162	40    	0.711414	0.00273743	0.707764	0.716888
163	40    	0.711414	0.00273743	0.707764	0.716888
164	40    	0.711414	0.00273743	0.707764	0.716888
165	40    	0.711414	0.00273743	0.707764	0.716888
166	40    	0.711414	0.00273743	0.707764	0.716888
167	40    	0.711414	0.00273743	0.707764	0.716888
168	40    	0.711414	0.00273743	0.707764	0.716888
169	40    	0.711414	0.00273743	0.707764	0.716888
170	40    	0.711414	0.00273743	0.707764	0.716888
171	40    	0.711414	0.00273743	0.707764	0.716888
172	40    	0.711414	0.00273743	0.707764	0.716888
173	40    	0.712327	0.00322825	0.707764	0.721466
174	40    	0.712327	0.00322825	0.707764	0.721466
175	40    	0.712327	0.00322825	0.707764	0.721466
176	40    	0.712327	0.00322825	0.707764	0.721466
177	40    	0.712327	0.00322825	0.707764	0.721466
178	40    	0.712327	0.00322825	0.707764	0.721466
179	40    	0.712327	0.00322825	0.707764	0.721466
180	40    	0.712327	0.00322825	0.707764	0.721466
181	40    	0.712327	0.00322825	0.707764	0.721466
182	40    	0.712327	0.00322825	0.707764	0.721466
183	40    	0.712327	0.00322825	0.707764	0.721466
184	40    	0.712327	0.00322825	0.707764	0.721466
185	40    	0.712327	0.00322825	0.707764	0.721466
186	40    	0.712327	0.00322825	0.707764	0.721466
187	40    	0.713468	0.00405258	0.707764	0.726028
188	40    	0.713468	0.00405258	0.707764	0.726028
189	40    	0.713468	0.00405258	0.707764	0.726028
190	40    	0.713468	0.00405258	0.707764	0.726028
191	40    	0.713924	0.00389526	0.707764	0.726028
192	40    	0.713924	0.00389526	0.707764	0.726028
193	40    	0.713924	0.00389526	0.707764	0.726028
194	40    	0.713924	0.00389526	0.707764	0.726028
195	40    	0.713924	0.00389526	0.707764	0.726028
196	40    	0.71461 	0.00395598	0.712326	0.726028
197	40    	0.71461 	0.00395598	0.712326	0.726028
198	40    	0.71461 	0.00395598	0.712326	0.726028
199	40    	0.71461 	0.00395598	0.712326	0.726028
200	40    	0.71461 	0.00395598	0.712326	0.726028
201	40    	0.71461 	0.00395598	0.712326	0.726028
202	40    	0.71461 	0.00395598	0.712326	0.726028
203	40    	0.71461 	0.00395598	0.712326	0.726028
204	40    	0.71461 	0.00395598	0.712326	0.726028
205	40    	0.71461 	0.00395598	0.712326	0.726028
206	40    	0.71461 	0.00395598	0.712326	0.726028
207	40    	0.71461 	0.00395598	0.712326	0.726028
208	40    	0.71461 	0.00395598	0.712326	0.726028
209	40    	0.71461 	0.00395598	0.712326	0.726028
210	40    	0.71461 	0.00395598	0.712326	0.726028
211	40    	0.71461 	0.00395598	0.712326	0.726028
212	40    	0.71461 	0.00395598	0.712326	0.726028
213	40    	0.71461 	0.00395598	0.712326	0.726028
214	40    	0.714838	0.00394927	0.712326	0.726028
215	40    	0.714838	0.00394927	0.712326	0.726028
216	40    	0.714838	0.00394927	0.712326	0.726028
217	40    	0.714838	0.00394927	0.712326	0.726028
218	40    	0.714838	0.00394927	0.712326	0.726028
219	40    	0.714838	0.00394927	0.712326	0.726028
220	40    	0.715066	0.00392932	0.712326	0.726028
221	40    	0.715066	0.00392932	0.712326	0.726028
222	40    	0.715066	0.00392932	0.712326	0.726028
223	40    	0.715066	0.00392932	0.712326	0.726028
224	40    	0.715066	0.00392932	0.712326	0.726028
225	40    	0.715066	0.00392932	0.712326	0.726028
226	40    	0.715066	0.00392932	0.712326	0.726028
227	40    	0.715066	0.00392932	0.712326	0.726028
228	40    	0.715066	0.00392932	0.712326	0.726028
229	40    	0.715066	0.00392932	0.712326	0.726028
230	40    	0.715066	0.00392932	0.712326	0.726028
231	40    	0.715066	0.00392932	0.712326	0.726028
232	40    	0.715066	0.00392932	0.712326	0.726028
233	40    	0.715523	0.0041114 	0.712326	0.726028
234	40    	0.715523	0.0041114 	0.712326	0.726028
235	40    	0.715523	0.0041114 	0.712326	0.726028
236	40    	0.715523	0.0041114 	0.712326	0.726028
237	40    	0.715523	0.0041114 	0.712326	0.726028
238	40    	0.715523	0.0041114 	0.712326	0.726028
239	40    	0.715523	0.0041114 	0.712326	0.726028
240	40    	0.715979	0.00398247	0.712326	0.726028
241	40    	0.716664	0.00395006	0.712326	0.726028
242	40    	0.716664	0.00395006	0.712326	0.726028
243	40    	0.716664	0.00395006	0.712326	0.726028
244	40    	0.717121	0.00395046	0.712326	0.726028
245	40    	0.717121	0.00395046	0.712326	0.726028
246	40    	0.717121	0.00395046	0.712326	0.726028
247	40    	0.717121	0.00395046	0.712326	0.726028
248	40    	0.717121	0.00395046	0.712326	0.726028
249	40    	0.717121	0.00395046	0.712326	0.726028
250	40    	0.717121	0.00395046	0.712326	0.726028
