gen	nevals	avg     	std      	min     	max     
0  	20    	0.580725	0.0352459	0.542175	0.662643
1  	40    	0.626504	0.0279966	0.590363	0.710846
2  	40    	0.642166	0.0325758	0.614456	0.710846
3  	40    	0.662647	0.0314201	0.614456	0.73494 
4  	40    	0.681925	0.0310489	0.63855 	0.759033
5  	40    	0.696385	0.0278959	0.662643	0.759033
6  	40    	0.70482 	0.0273421	0.662643	0.759033
7  	40    	0.713255	0.0214149	0.686752	0.759033
8  	40    	0.726507	0.0190857	0.710846	0.759033
9  	40    	0.728916	0.0184674	0.710846	0.759033
10 	40    	0.728916	0.0184674	0.710846	0.759033
11 	40    	0.728916	0.0184674	0.710846	0.759033
12 	40    	0.730121	0.01803  	0.710846	0.759033
13 	40    	0.73494 	0.0170368	0.710846	0.759033
14 	40    	0.738554	0.0190857	0.710846	0.783127
15 	40    	0.739758	0.01803  	0.710846	0.783127
16 	40    	0.742168	0.0172063	0.710846	0.783127
17 	40    	0.742168	0.0172063	0.710846	0.783127
18 	40    	0.745782	0.014203 	0.73494 	0.783127
19 	40    	0.746986	0.014254 	0.73494 	0.783127
20 	40    	0.749396	0.0159819	0.73494 	0.783127
21 	40    	0.751805	0.0172063	0.73494 	0.783127
22 	40    	0.751805	0.0172063	0.73494 	0.783127
23 	40    	0.755419	0.017499 	0.73494 	0.783127
24 	40    	0.756624	0.0168655	0.73494 	0.783127
25 	40    	0.759033	0.0170368	0.73494 	0.783127
26 	40    	0.760238	0.0161175	0.73494 	0.783127
27 	40    	0.765057	0.0168244	0.73494 	0.807236
28 	40    	0.765057	0.0168244	0.73494 	0.807236
29 	40    	0.768671	0.014051 	0.759033	0.807236
30 	40    	0.768671	0.014051 	0.759033	0.807236
31 	40    	0.768671	0.014051 	0.759033	0.807236
32 	40    	0.768671	0.014051 	0.759033	0.807236
33 	40    	0.768671	0.014051 	0.759033	0.807236
34 	40    	0.768671	0.014051 	0.759033	0.807236
35 	40    	0.768671	0.014051 	0.759033	0.807236
36 	40    	0.768671	0.014051 	0.759033	0.807236
37 	40    	0.768671	0.014051 	0.759033	0.807236
38 	40    	0.769876	0.014205 	0.759033	0.807236
39 	40    	0.769876	0.014205 	0.759033	0.807236
40 	40    	0.769876	0.014205 	0.759033	0.807236
41 	40    	0.769876	0.014205 	0.759033	0.807236
42 	40    	0.771081	0.0142559	0.759033	0.807236
43 	40    	0.779515	0.0277643	0.759033	0.879517
44 	40    	0.781925	0.0279731	0.759033	0.879517
45 	40    	0.784335	0.0279734	0.759033	0.879517
46 	40    	0.79036 	0.0265085	0.759033	0.879517
47 	40    	0.79759 	0.0278961	0.759033	0.879517
48 	40    	0.79759 	0.0278961	0.759033	0.879517
49 	40    	0.799999	0.0253898	0.783127	0.879517
50 	40    	0.799999	0.0253898	0.783127	0.879517
51 	40    	0.799999	0.0253898	0.783127	0.879517
52 	40    	0.799999	0.0253898	0.783127	0.879517
53 	40    	0.801205	0.0251311	0.783127	0.879517
54 	40    	0.801205	0.0251311	0.783127	0.879517
55 	40    	0.803615	0.025589 	0.783127	0.879517
56 	40    	0.80482 	0.0251597	0.783127	0.879517
57 	40    	0.806026	0.0246642	0.783127	0.879517
58 	40    	0.806026	0.0246642	0.783127	0.879517
59 	40    	0.806026	0.0246642	0.783127	0.879517
60 	40    	0.808436	0.0246639	0.783127	0.879517
61 	40    	0.812051	0.0236106	0.783127	0.879517
62 	40    	0.819281	0.0290145	0.783127	0.90361 
63 	40    	0.822897	0.026694 	0.807236	0.90361 
64 	40    	0.826511	0.0291124	0.807236	0.90361 
65 	40    	0.82892 	0.02941  	0.807236	0.90361 
66 	40    	0.82892 	0.02941  	0.807236	0.90361 
67 	40    	0.833739	0.0303809	0.807236	0.90361 
68 	40    	0.836148	0.0291124	0.807236	0.90361 
69 	40    	0.844581	0.0299721	0.807236	0.90361 
70 	40    	0.844581	0.0299721	0.807236	0.90361 
71 	40    	0.848195	0.0296067	0.807236	0.90361 
72 	40    	0.854218	0.0246592	0.831329	0.90361 
73 	40    	0.856628	0.0234526	0.831329	0.90361 
74 	40    	0.857832	0.0227299	0.831329	0.90361 
75 	40    	0.862651	0.0229839	0.831329	0.90361 
76 	40    	0.866265	0.0208309	0.831329	0.90361 
77 	40    	0.869879	0.0177051	0.855423	0.90361 
78 	40    	0.872289	0.0172063	0.855423	0.90361 
79 	40    	0.874698	0.01803  	0.855423	0.90361 
80 	40    	0.877107	0.0168655	0.855423	0.90361 
81 	40    	0.877107	0.0168655	0.855423	0.90361 
82 	40    	0.877107	0.0168655	0.855423	0.90361 
83 	40    	0.878312	0.0161175	0.855423	0.90361 
84 	40    	0.880721	0.0161175	0.855423	0.90361 
85 	40    	0.884335	0.0144562	0.855423	0.90361 
86 	40    	0.884335	0.0144562	0.855423	0.90361 
87 	40    	0.889155	0.0192774	0.855423	0.951813
88 	40    	0.891564	0.0178709	0.879517	0.951813
89 	40    	0.891564	0.0178709	0.879517	0.951813
90 	40    	0.895178	0.0175015	0.879517	0.951813
91 	40    	0.895178	0.0175015	0.879517	0.951813
92 	40    	0.896383	0.0172087	0.879517	0.951813
93 	40    	0.898792	0.0180323	0.879517	0.951813
94 	40    	0.899997	0.0175013	0.879517	0.951813
95 	40    	0.903612	0.0201618	0.879517	0.951813
96 	40    	0.904816	0.0193912	0.879517	0.951813
97 	40    	0.904816	0.0193912	0.879517	0.951813
98 	40    	0.904816	0.0193912	0.879517	0.951813
99 	40    	0.907226	0.0175029	0.879517	0.951813
100	40    	0.907226	0.0175029	0.879517	0.951813
101	40    	0.907226	0.0175029	0.879517	0.951813
102	40    	0.907226	0.0175029	0.879517	0.951813
103	40    	0.91325 	0.0177101	0.90361 	0.951813
104	40    	0.91325 	0.0177101	0.90361 	0.951813
105	40    	0.91325 	0.0177101	0.90361 	0.951813
106	40    	0.914455	0.0178325	0.90361 	0.951813
107	40    	0.916864	0.0178321	0.90361 	0.951813
108	40    	0.916864	0.0178321	0.90361 	0.951813
109	40    	0.918069	0.0177095	0.90361 	0.951813
110	40    	0.922888	0.0210094	0.90361 	0.975906
111	40    	0.926503	0.0208364	0.90361 	0.975906
112	40    	0.926503	0.0208364	0.90361 	0.975906
113	40    	0.930118	0.0227359	0.90361 	0.975906
114	40    	0.930118	0.0227359	0.90361 	0.975906
115	40    	0.933733	0.0213872	0.90361 	0.975906
116	40    	0.936143	0.0205568	0.90361 	0.975906
117	40    	0.937347	0.0192814	0.90361 	0.975906
118	40    	0.938552	0.0178343	0.90361 	0.975906
119	40    	0.938552	0.0178343	0.90361 	0.975906
120	40    	0.938552	0.0178343	0.90361 	0.975906
121	40    	0.940962	0.0161244	0.927704	0.975906
122	40    	0.940962	0.0161244	0.927704	0.975906
123	40    	0.940962	0.0161244	0.927704	0.975906
124	40    	0.940962	0.0161244	0.927704	0.975906
125	40    	0.942168	0.0159888	0.927704	0.975906
126	40    	0.944578	0.017213 	0.927704	0.975906
127	40    	0.946989	0.0163474	0.927704	0.975906
128	40    	0.946989	0.0163474	0.927704	0.975906
129	40    	0.946989	0.0163474	0.927704	0.975906
130	40    	0.946989	0.0163474	0.927704	0.975906
131	40    	0.946989	0.0163474	0.927704	0.975906
132	40    	0.946989	0.0163474	0.927704	0.975906
133	40    	0.946989	0.0163474	0.927704	0.975906
134	40    	0.949399	0.0168714	0.927704	0.975906
135	40    	0.953015	0.0142071	0.927704	0.975906
136	40    	0.955425	0.0137913	0.927704	0.975906
137	40    	0.955425	0.0137913	0.927704	0.975906
138	40    	0.956631	0.0122872	0.927704	0.975906
139	40    	0.957836	0.0104328	0.951813	0.975906
140	40    	0.957836	0.0104328	0.951813	0.975906
141	40    	0.957836	0.0104328	0.951813	0.975906
142	40    	0.957836	0.0104328	0.951813	0.975906
143	40    	0.957836	0.0104328	0.951813	0.975906
144	40    	0.957836	0.0104328	0.951813	0.975906
145	40    	0.957836	0.0104328	0.951813	0.975906
146	40    	0.957836	0.0104328	0.951813	0.975906
147	40    	0.957836	0.0104328	0.951813	0.975906
148	40    	0.957836	0.0104328	0.951813	0.975906
149	40    	0.957836	0.0104328	0.951813	0.975906
150	40    	0.957836	0.0104328	0.951813	0.975906
151	40    	0.959041	0.0110411	0.951813	0.975906
152	40    	0.959041	0.0110411	0.951813	0.975906
153	40    	0.959041	0.0110411	0.951813	0.975906
154	40    	0.959041	0.0110411	0.951813	0.975906
155	40    	0.959041	0.0110411	0.951813	0.975906
156	40    	0.959041	0.0110411	0.951813	0.975906
157	40    	0.959041	0.0110411	0.951813	0.975906
158	40    	0.959041	0.0110411	0.951813	0.975906
159	40    	0.959041	0.0110411	0.951813	0.975906
160	40    	0.959041	0.0110411	0.951813	0.975906
161	40    	0.959041	0.0110411	0.951813	0.975906
162	40    	0.959041	0.0110411	0.951813	0.975906
163	40    	0.959041	0.0110411	0.951813	0.975906
164	40    	0.959041	0.0110411	0.951813	0.975906
165	40    	0.959041	0.0110411	0.951813	0.975906
166	40    	0.959041	0.0110411	0.951813	0.975906
167	40    	0.959041	0.0110411	0.951813	0.975906
168	40    	0.959041	0.0110411	0.951813	0.975906
169	40    	0.960246	0.0114919	0.951813	0.975906
170	40    	0.96145 	0.0118034	0.951813	0.975906
171	40    	0.96145 	0.0118034	0.951813	0.975906
172	40    	0.96145 	0.0118034	0.951813	0.975906
173	40    	0.96145 	0.0118034	0.951813	0.975906
174	40    	0.96145 	0.0118034	0.951813	0.975906
175	40    	0.96145 	0.0118034	0.951813	0.975906
176	40    	0.96145 	0.0118034	0.951813	0.975906
177	40    	0.96145 	0.0118034	0.951813	0.975906
178	40    	0.96145 	0.0118034	0.951813	0.975906
179	40    	0.96145 	0.0118034	0.951813	0.975906
180	40    	0.96145 	0.0118034	0.951813	0.975906
181	40    	0.96145 	0.0118034	0.951813	0.975906
182	40    	0.96145 	0.0118034	0.951813	0.975906
183	40    	0.96145 	0.0118034	0.951813	0.975906
184	40    	0.96386 	0.014254 	0.951813	1       
185	40    	0.96386 	0.014254 	0.951813	1       
186	40    	0.96386 	0.014254 	0.951813	1       
187	40    	0.96386 	0.014254 	0.951813	1       
188	40    	0.96386 	0.014254 	0.951813	1       
189	40    	0.96386 	0.014254 	0.951813	1       
190	40    	0.96386 	0.014254 	0.951813	1       
191	40    	0.96386 	0.014254 	0.951813	1       
192	40    	0.96386 	0.014254 	0.951813	1       
193	40    	0.96386 	0.014254 	0.951813	1       
194	40    	0.96386 	0.014254 	0.951813	1       
195	40    	0.96386 	0.014254 	0.951813	1       
196	40    	0.96386 	0.014254 	0.951813	1       
197	40    	0.96386 	0.014254 	0.951813	1       
198	40    	0.96386 	0.014254 	0.951813	1       
199	40    	0.96386 	0.014254 	0.951813	1       
200	40    	0.965064	0.014203 	0.951813	1       
201	40    	0.965064	0.014203 	0.951813	1       
202	40    	0.965064	0.014203 	0.951813	1       
203	40    	0.965064	0.014203 	0.951813	1       
204	40    	0.965064	0.014203 	0.951813	1       
205	40    	0.965064	0.014203 	0.951813	1       
206	40    	0.965064	0.014203 	0.951813	1       
207	40    	0.965064	0.014203 	0.951813	1       
208	40    	0.965064	0.014203 	0.951813	1       
209	40    	0.965064	0.014203 	0.951813	1       
210	40    	0.965064	0.014203 	0.951813	1       
211	40    	0.965064	0.014203 	0.951813	1       
212	40    	0.965064	0.014203 	0.951813	1       
213	40    	0.967474	0.0157533	0.951813	1       
214	40    	0.967474	0.0157533	0.951813	1       
215	40    	0.967474	0.0157533	0.951813	1       
216	40    	0.967474	0.0157533	0.951813	1       
217	40    	0.968678	0.0154274	0.951813	1       
218	40    	0.968678	0.0154274	0.951813	1       
219	40    	0.968678	0.0154274	0.951813	1       
220	40    	0.968678	0.0154274	0.951813	1       
221	40    	0.968678	0.0154274	0.951813	1       
222	40    	0.968678	0.0154274	0.951813	1       
223	40    	0.968678	0.0154274	0.951813	1       
224	40    	0.968678	0.0154274	0.951813	1       
225	40    	0.968678	0.0154274	0.951813	1       
226	40    	0.968678	0.0154274	0.951813	1       
227	40    	0.968678	0.0154274	0.951813	1       
228	40    	0.968678	0.0154274	0.951813	1       
229	40    	0.968678	0.0154274	0.951813	1       
230	40    	0.968678	0.0154274	0.951813	1       
231	40    	0.968678	0.0154274	0.951813	1       
232	40    	0.968678	0.0154274	0.951813	1       
233	40    	0.968678	0.0154274	0.951813	1       
234	40    	0.969883	0.0149982	0.951813	1       
235	40    	0.969883	0.0149982	0.951813	1       
236	40    	0.969883	0.0149982	0.951813	1       
237	40    	0.971088	0.0144562	0.951813	1       
238	40    	0.971088	0.0144562	0.951813	1       
239	40    	0.971088	0.0144562	0.951813	1       
240	40    	0.971088	0.0144562	0.951813	1       
241	40    	0.971088	0.0144562	0.951813	1       
242	40    	0.971088	0.0144562	0.951813	1       
243	40    	0.973497	0.0150465	0.951813	1       
244	40    	0.975906	0.0152381	0.951813	1       
245	40    	0.975906	0.0152381	0.951813	1       
246	40    	0.975906	0.0152381	0.951813	1       
247	40    	0.975906	0.0152381	0.951813	1       
248	40    	0.977111	0.014203 	0.951813	1       
249	40    	0.977111	0.014203 	0.951813	1       
250	40    	0.978316	0.0129748	0.951813	1       
