gen	nevals	avg     	std       	min     	max     
0  	20    	0.5889  	0.0135485 	0.558273	0.611542
1  	40    	0.601665	0.0110655 	0.58934 	0.640396
2  	40    	0.606882	0.00881857	0.600449	0.640396
3  	40    	0.611433	0.00966119	0.602661	0.640396
4  	40    	0.614763	0.0104926 	0.604889	0.640396
5  	40    	0.617981	0.00865077	0.609329	0.640396
6  	40    	0.622088	0.010758  	0.611542	0.651505
7  	40    	0.626636	0.00971812	0.615982	0.651505
8  	40    	0.628301	0.00846732	0.620422	0.651505
9  	40    	0.630521	0.00897578	0.620422	0.651505
10 	40    	0.634962	0.00849687	0.624863	0.651505
11 	40    	0.636072	0.00808097	0.624863	0.651505
12 	40    	0.636293	0.00779631	0.627075	0.651505
13 	40    	0.639624	0.00822515	0.629303	0.662598
14 	40    	0.640845	0.0073502 	0.631516	0.662598
15 	40    	0.641844	0.00666968	0.633743	0.662598
16 	40    	0.64251 	0.00649017	0.633743	0.662598
17 	40    	0.64351 	0.0063335 	0.635956	0.662598
18 	40    	0.645063	0.00752325	0.638184	0.66481 
19 	40    	0.645174	0.00743705	0.638184	0.66481 
20 	40    	0.648502	0.00831271	0.640396	0.66481 
21 	40    	0.649503	0.00758717	0.642624	0.66481 
22 	40    	0.650168	0.00737344	0.642624	0.66481 
23 	40    	0.650833	0.00709119	0.642624	0.66481 
24 	40    	0.650833	0.00709119	0.642624	0.66481 
25 	40    	0.650944	0.00697862	0.644836	0.66481 
26 	40    	0.650944	0.00697862	0.644836	0.66481 
27 	40    	0.651277	0.00683672	0.644836	0.66481 
28 	40    	0.652165	0.00709124	0.644836	0.66481 
29 	40    	0.653165	0.0067626 	0.644836	0.66481 
30 	40    	0.653165	0.0067626 	0.644836	0.66481 
31 	40    	0.653387	0.00655525	0.644836	0.66481 
32 	40    	0.654385	0.00612072	0.647064	0.66481 
33 	40    	0.654385	0.00612072	0.647064	0.66481 
34 	40    	0.654496	0.00600633	0.647064	0.66481 
35 	40    	0.654939	0.0056346 	0.647064	0.66481 
36 	40    	0.65505 	0.00549899	0.649277	0.66481 
37 	40    	0.655383	0.00533866	0.649277	0.66481 
38 	40    	0.655383	0.00533866	0.649277	0.66481 
39 	40    	0.656272	0.00512099	0.649277	0.66481 
40 	40    	0.656827	0.00493049	0.651505	0.66481 
41 	40    	0.656937	0.0048337 	0.651505	0.66481 
42 	40    	0.657935	0.00464846	0.651505	0.66481 
43 	40    	0.658823	0.00501545	0.651505	0.66925 
44 	40    	0.658933	0.00487526	0.653717	0.66925 
45 	40    	0.658933	0.00487526	0.653717	0.66925 
46 	40    	0.660598	0.006429  	0.653717	0.680359
47 	40    	0.660598	0.006429  	0.653717	0.680359
48 	40    	0.660931	0.00615358	0.653717	0.680359
49 	40    	0.660931	0.00615358	0.653717	0.680359
50 	40    	0.660931	0.00615358	0.653717	0.680359
51 	40    	0.660931	0.00615358	0.653717	0.680359
52 	40    	0.661486	0.00597568	0.653717	0.680359
53 	40    	0.661709	0.00571786	0.655945	0.680359
54 	40    	0.661709	0.00571786	0.655945	0.680359
55 	40    	0.662041	0.00556431	0.655945	0.680359
56 	40    	0.662041	0.00556431	0.655945	0.680359
57 	40    	0.662263	0.00540314	0.655945	0.680359
58 	40    	0.662263	0.00540314	0.655945	0.680359
59 	40    	0.662817	0.00510516	0.655945	0.680359
60 	40    	0.662817	0.00510516	0.655945	0.680359
61 	40    	0.662817	0.00510516	0.655945	0.680359
62 	40    	0.662817	0.00510516	0.655945	0.680359
63 	40    	0.662817	0.00510516	0.655945	0.680359
64 	40    	0.663371	0.00492797	0.658157	0.680359
65 	40    	0.663371	0.00492797	0.658157	0.680359
66 	40    	0.664814	0.00539242	0.658157	0.680359
67 	40    	0.665036	0.00520183	0.66037 	0.680359
68 	40    	0.665036	0.00520183	0.66037 	0.680359
69 	40    	0.665591	0.00526659	0.66037 	0.680359
70 	40    	0.665591	0.00526659	0.66037 	0.680359
71 	40    	0.666479	0.00524713	0.662598	0.680359
72 	40    	0.666479	0.00524713	0.662598	0.680359
73 	40    	0.666479	0.00524713	0.662598	0.680359
74 	40    	0.666479	0.00524713	0.662598	0.680359
75 	40    	0.666479	0.00524713	0.662598	0.680359
76 	40    	0.666479	0.00524713	0.662598	0.680359
77 	40    	0.666479	0.00524713	0.662598	0.680359
78 	40    	0.667145	0.00532188	0.662598	0.680359
79 	40    	0.667145	0.00532188	0.662598	0.680359
80 	40    	0.667477	0.00523446	0.662598	0.680359
81 	40    	0.667477	0.00523446	0.662598	0.680359
82 	40    	0.667699	0.0051156 	0.662598	0.680359
83 	40    	0.667699	0.0051156 	0.662598	0.680359
84 	40    	0.667699	0.0051156 	0.662598	0.680359
85 	40    	0.667699	0.0051156 	0.662598	0.680359
86 	40    	0.667699	0.0051156 	0.662598	0.680359
87 	40    	0.667921	0.00498403	0.662598	0.680359
88 	40    	0.667921	0.00498403	0.662598	0.680359
89 	40    	0.667921	0.00498403	0.662598	0.680359
90 	40    	0.667921	0.00498403	0.662598	0.680359
91 	40    	0.667921	0.00498403	0.662598	0.680359
92 	40    	0.667921	0.00498403	0.662598	0.680359
93 	40    	0.667921	0.00498403	0.662598	0.680359
94 	40    	0.667921	0.00498403	0.662598	0.680359
95 	40    	0.668032	0.00488827	0.662598	0.680359
96 	40    	0.668032	0.00488827	0.662598	0.680359
97 	40    	0.669142	0.00593659	0.662598	0.684799
98 	40    	0.669586	0.00575997	0.66481 	0.684799
99 	40    	0.669586	0.00575997	0.66481 	0.684799
100	40    	0.669808	0.00565624	0.66481 	0.684799
101	40    	0.670252	0.0055947 	0.66481 	0.684799
102	40    	0.670252	0.0055947 	0.66481 	0.684799
103	40    	0.670252	0.0055947 	0.66481 	0.684799
104	40    	0.670252	0.0055947 	0.66481 	0.684799
105	40    	0.670586	0.00545746	0.66481 	0.684799
106	40    	0.670586	0.00545746	0.66481 	0.684799
107	40    	0.670586	0.00545746	0.66481 	0.684799
108	40    	0.670586	0.00545746	0.66481 	0.684799
109	40    	0.670586	0.00545746	0.66481 	0.684799
110	40    	0.671918	0.00653448	0.66481 	0.68924 
111	40    	0.671918	0.00653448	0.66481 	0.68924 
112	40    	0.671918	0.00653448	0.66481 	0.68924 
113	40    	0.672252	0.00633021	0.66481 	0.68924 
114	40    	0.672252	0.00633021	0.66481 	0.68924 
115	40    	0.672252	0.00633021	0.66481 	0.68924 
116	40    	0.672363	0.00621687	0.66481 	0.68924 
117	40    	0.672363	0.00621687	0.66481 	0.68924 
118	40    	0.672363	0.00621687	0.66481 	0.68924 
119	40    	0.672697	0.00597704	0.667038	0.68924 
120	40    	0.672697	0.00597704	0.667038	0.68924 
121	40    	0.672697	0.00597704	0.667038	0.68924 
122	40    	0.672697	0.00597704	0.667038	0.68924 
123	40    	0.672697	0.00597704	0.667038	0.68924 
124	40    	0.672697	0.00597704	0.667038	0.68924 
125	40    	0.672697	0.00597704	0.667038	0.68924 
126	40    	0.672697	0.00597704	0.667038	0.68924 
127	40    	0.672697	0.00597704	0.667038	0.68924 
128	40    	0.672697	0.00597704	0.667038	0.68924 
129	40    	0.672697	0.00597704	0.667038	0.68924 
130	40    	0.672697	0.00597704	0.667038	0.68924 
131	40    	0.672697	0.00597704	0.667038	0.68924 
132	40    	0.672807	0.00589114	0.667038	0.68924 
133	40    	0.672807	0.00589114	0.667038	0.68924 
134	40    	0.672807	0.00589114	0.667038	0.68924 
135	40    	0.672807	0.00589114	0.667038	0.68924 
136	40    	0.673029	0.00575154	0.667038	0.68924 
137	40    	0.673029	0.00575154	0.667038	0.68924 
138	40    	0.673362	0.0055854 	0.667038	0.68924 
139	40    	0.673362	0.0055854 	0.667038	0.68924 
140	40    	0.673362	0.0055854 	0.667038	0.68924 
141	40    	0.673362	0.0055854 	0.667038	0.68924 
142	40    	0.673362	0.0055854 	0.667038	0.68924 
143	40    	0.673362	0.0055854 	0.667038	0.68924 
144	40    	0.673362	0.0055854 	0.667038	0.68924 
145	40    	0.673362	0.0055854 	0.667038	0.68924 
146	40    	0.673362	0.0055854 	0.667038	0.68924 
147	40    	0.673362	0.0055854 	0.667038	0.68924 
148	40    	0.673362	0.0055854 	0.667038	0.68924 
149	40    	0.673362	0.0055854 	0.667038	0.68924 
150	40    	0.673362	0.0055854 	0.667038	0.68924 
151	40    	0.673362	0.0055854 	0.667038	0.68924 
152	40    	0.673362	0.0055854 	0.667038	0.68924 
153	40    	0.673362	0.0055854 	0.667038	0.68924 
154	40    	0.673362	0.0055854 	0.667038	0.68924 
155	40    	0.673584	0.00541527	0.667038	0.68924 
156	40    	0.673584	0.00541527	0.667038	0.68924 
157	40    	0.673584	0.00541527	0.667038	0.68924 
158	40    	0.673584	0.00541527	0.667038	0.68924 
159	40    	0.673584	0.00541527	0.667038	0.68924 
160	40    	0.674139	0.00528288	0.66925 	0.68924 
161	40    	0.674805	0.00546132	0.66925 	0.68924 
162	40    	0.674805	0.00546132	0.66925 	0.68924 
163	40    	0.674805	0.00546132	0.66925 	0.68924 
164	40    	0.674805	0.00546132	0.66925 	0.68924 
165	40    	0.674916	0.00536884	0.66925 	0.68924 
166	40    	0.674916	0.00536884	0.66925 	0.68924 
167	40    	0.674916	0.00536884	0.66925 	0.68924 
168	40    	0.674916	0.00536884	0.66925 	0.68924 
169	40    	0.674916	0.00536884	0.66925 	0.68924 
170	40    	0.674916	0.00536884	0.66925 	0.68924 
171	40    	0.674916	0.00536884	0.66925 	0.68924 
172	40    	0.674916	0.00536884	0.66925 	0.68924 
173	40    	0.674916	0.00536884	0.66925 	0.68924 
174	40    	0.674916	0.00536884	0.66925 	0.68924 
175	40    	0.674916	0.00536884	0.66925 	0.68924 
176	40    	0.674916	0.00536884	0.66925 	0.68924 
177	40    	0.674916	0.00536884	0.66925 	0.68924 
178	40    	0.674916	0.00536884	0.66925 	0.68924 
179	40    	0.674916	0.00536884	0.66925 	0.68924 
180	40    	0.674916	0.00536884	0.66925 	0.68924 
181	40    	0.674916	0.00536884	0.66925 	0.68924 
182	40    	0.674916	0.00536884	0.66925 	0.68924 
183	40    	0.674916	0.00536884	0.66925 	0.68924 
184	40    	0.674916	0.00536884	0.66925 	0.68924 
185	40    	0.674916	0.00536884	0.66925 	0.68924 
186	40    	0.674916	0.00536884	0.66925 	0.68924 
187	40    	0.674916	0.00536884	0.66925 	0.68924 
188	40    	0.674916	0.00536884	0.66925 	0.68924 
189	40    	0.674916	0.00536884	0.66925 	0.68924 
190	40    	0.674916	0.00536884	0.66925 	0.68924 
191	40    	0.674916	0.00536884	0.66925 	0.68924 
192	40    	0.674916	0.00536884	0.66925 	0.68924 
193	40    	0.674916	0.00536884	0.66925 	0.68924 
194	40    	0.674916	0.00536884	0.66925 	0.68924 
195	40    	0.674916	0.00536884	0.66925 	0.68924 
196	40    	0.67536 	0.00524778	0.66925 	0.68924 
197	40    	0.67536 	0.00524778	0.66925 	0.68924 
198	40    	0.675582	0.00507571	0.671478	0.68924 
199	40    	0.675582	0.00507571	0.671478	0.68924 
200	40    	0.675582	0.00507571	0.671478	0.68924 
201	40    	0.675693	0.00500873	0.671478	0.68924 
202	40    	0.675693	0.00500873	0.671478	0.68924 
203	40    	0.675693	0.00500873	0.671478	0.68924 
204	40    	0.675693	0.00500873	0.671478	0.68924 
205	40    	0.675693	0.00500873	0.671478	0.68924 
206	40    	0.675693	0.00500873	0.671478	0.68924 
207	40    	0.675693	0.00500873	0.671478	0.68924 
208	40    	0.675803	0.00493836	0.671478	0.68924 
209	40    	0.675803	0.00493836	0.671478	0.68924 
210	40    	0.675803	0.00493836	0.671478	0.68924 
211	40    	0.675803	0.00493836	0.671478	0.68924 
212	40    	0.675803	0.00493836	0.671478	0.68924 
213	40    	0.676136	0.00485925	0.671478	0.68924 
214	40    	0.676247	0.00477644	0.671478	0.68924 
215	40    	0.676247	0.00477644	0.671478	0.68924 
216	40    	0.676247	0.00477644	0.671478	0.68924 
217	40    	0.676247	0.00477644	0.671478	0.68924 
218	40    	0.676247	0.00477644	0.671478	0.68924 
219	40    	0.676247	0.00477644	0.671478	0.68924 
220	40    	0.676247	0.00477644	0.671478	0.68924 
221	40    	0.676247	0.00477644	0.671478	0.68924 
222	40    	0.676247	0.00477644	0.671478	0.68924 
223	40    	0.676247	0.00477644	0.671478	0.68924 
224	40    	0.676357	0.00468955	0.671478	0.68924 
225	40    	0.676357	0.00468955	0.671478	0.68924 
226	40    	0.676357	0.00468955	0.671478	0.68924 
227	40    	0.676357	0.00468955	0.671478	0.68924 
228	40    	0.676357	0.00468955	0.671478	0.68924 
229	40    	0.676801	0.00462657	0.671478	0.68924 
230	40    	0.676801	0.00462657	0.671478	0.68924 
231	40    	0.676801	0.00462657	0.671478	0.68924 
232	40    	0.676801	0.00462657	0.671478	0.68924 
233	40    	0.676801	0.00462657	0.671478	0.68924 
234	40    	0.676801	0.00462657	0.671478	0.68924 
235	40    	0.677023	0.00446968	0.671478	0.68924 
236	40    	0.677023	0.00446968	0.671478	0.68924 
237	40    	0.677023	0.00446968	0.671478	0.68924 
238	40    	0.677023	0.00446968	0.671478	0.68924 
239	40    	0.677023	0.00446968	0.671478	0.68924 
240	40    	0.677023	0.00446968	0.671478	0.68924 
241	40    	0.677023	0.00446968	0.671478	0.68924 
242	40    	0.677023	0.00446968	0.671478	0.68924 
243	40    	0.677578	0.00443532	0.673691	0.68924 
244	40    	0.678022	0.00446835	0.673691	0.68924 
245	40    	0.678022	0.00446835	0.673691	0.68924 
246	40    	0.678022	0.00446835	0.673691	0.68924 
247	40    	0.678022	0.00446835	0.673691	0.68924 
248	40    	0.678022	0.00446835	0.673691	0.68924 
249	40    	0.678022	0.00446835	0.673691	0.68924 
250	40    	0.678022	0.00446835	0.673691	0.68924 
