gen	nevals	avg     	std       	min     	max     
0  	20    	0.59084 	0.0140101 	0.563736	0.618515
1  	40    	0.604061	0.00830338	0.592072	0.618515
2  	40    	0.60916 	0.00630639	0.599625	0.620392
3  	40    	0.612559	0.0066044 	0.605286	0.627945
4  	40    	0.61492 	0.00520301	0.607178	0.627945
5  	40    	0.617754	0.0053896 	0.610947	0.633621
6  	40    	0.622004	0.00823656	0.616623	0.644943
7  	40    	0.625685	0.00866553	0.616623	0.644943
8  	40    	0.629839	0.0102577 	0.618515	0.656281
9  	40    	0.630405	0.00976133	0.620392	0.656281
10 	40    	0.631917	0.00926976	0.620392	0.656281
11 	40    	0.633145	0.00831517	0.624176	0.656281
12 	40    	0.633334	0.00815085	0.624176	0.656281
13 	40    	0.634184	0.0075093 	0.626068	0.656281
14 	40    	0.63626 	0.00722724	0.627945	0.656281
15 	40    	0.638433	0.0063048 	0.629837	0.656281
16 	40    	0.639   	0.00600918	0.631729	0.656281
17 	40    	0.639283	0.00578934	0.631729	0.656281
18 	40    	0.640699	0.00533727	0.633621	0.656281
19 	40    	0.640982	0.00509921	0.633621	0.656281
20 	40    	0.640982	0.00509921	0.633621	0.656281
21 	40    	0.641642	0.00473671	0.635498	0.656281
22 	40    	0.642587	0.00434273	0.63739 	0.656281
23 	40    	0.642776	0.00419203	0.63739 	0.656281
24 	40    	0.642776	0.00419203	0.63739 	0.656281
25 	40    	0.64457 	0.00687575	0.63739 	0.669495
26 	40    	0.645515	0.00711778	0.639282	0.669495
27 	40    	0.645704	0.00699889	0.639282	0.669495
28 	40    	0.646175	0.00676257	0.641174	0.669495
29 	40    	0.646931	0.00660833	0.641174	0.669495
30 	40    	0.647591	0.00666015	0.641174	0.669495
31 	40    	0.647591	0.00666015	0.641174	0.669495
32 	40    	0.647591	0.00666015	0.641174	0.669495
33 	40    	0.647591	0.00666015	0.641174	0.669495
34 	40    	0.647591	0.00666015	0.641174	0.669495
35 	40    	0.647591	0.00666015	0.641174	0.669495
36 	40    	0.649101	0.00735392	0.643066	0.669495
37 	40    	0.649101	0.00735392	0.643066	0.669495
38 	40    	0.649573	0.00715511	0.644943	0.669495
39 	40    	0.649573	0.00715511	0.644943	0.669495
40 	40    	0.649573	0.00715511	0.644943	0.669495
41 	40    	0.649667	0.00710561	0.644943	0.669495
42 	40    	0.65014 	0.0070898 	0.644943	0.669495
43 	40    	0.650234	0.00703222	0.644943	0.669495
44 	40    	0.650234	0.00703222	0.644943	0.669495
45 	40    	0.650896	0.00712501	0.644943	0.669495
46 	40    	0.651463	0.00707974	0.644943	0.669495
47 	40    	0.651557	0.00700423	0.644943	0.669495
48 	40    	0.651557	0.00700423	0.644943	0.669495
49 	40    	0.65203 	0.00670115	0.644943	0.669495
50 	40    	0.65203 	0.00670115	0.644943	0.669495
51 	40    	0.65203 	0.00670115	0.644943	0.669495
52 	40    	0.65203 	0.00670115	0.644943	0.669495
53 	40    	0.652597	0.00641786	0.644943	0.669495
54 	40    	0.653447	0.00647329	0.646835	0.669495
55 	40    	0.653919	0.00631635	0.646835	0.669495
56 	40    	0.654014	0.00622302	0.646835	0.669495
57 	40    	0.654203	0.0060572 	0.646835	0.669495
58 	40    	0.654203	0.0060572 	0.646835	0.669495
59 	40    	0.654675	0.00582824	0.646835	0.669495
60 	40    	0.654675	0.00582824	0.646835	0.669495
61 	40    	0.654865	0.00562865	0.646835	0.669495
62 	40    	0.655337	0.00532312	0.648727	0.669495
63 	40    	0.655337	0.00532312	0.648727	0.669495
64 	40    	0.655337	0.00532312	0.648727	0.669495
65 	40    	0.655714	0.00496306	0.65062 	0.669495
66 	40    	0.655997	0.00482394	0.65062 	0.669495
67 	40    	0.656185	0.00468172	0.65062 	0.669495
68 	40    	0.656846	0.00478102	0.65062 	0.669495
69 	40    	0.656846	0.00478102	0.65062 	0.669495
70 	40    	0.657224	0.00456784	0.65062 	0.669495
71 	40    	0.657224	0.00456784	0.65062 	0.669495
72 	40    	0.657317	0.00444893	0.652496	0.669495
73 	40    	0.657317	0.00444893	0.652496	0.669495
74 	40    	0.657507	0.00431843	0.652496	0.669495
75 	40    	0.658168	0.00450931	0.652496	0.669495
76 	40    	0.658735	0.00422692	0.654388	0.669495
77 	40    	0.658735	0.00422692	0.654388	0.669495
78 	40    	0.658829	0.00414904	0.654388	0.669495
79 	40    	0.659302	0.00415421	0.654388	0.669495
80 	40    	0.659302	0.00415421	0.654388	0.669495
81 	40    	0.659302	0.00415421	0.654388	0.669495
82 	40    	0.659302	0.00415421	0.654388	0.669495
83 	40    	0.659302	0.00415421	0.654388	0.669495
84 	40    	0.659491	0.00400978	0.656281	0.669495
85 	40    	0.659679	0.00394247	0.656281	0.669495
86 	40    	0.659679	0.00394247	0.656281	0.669495
87 	40    	0.659679	0.00394247	0.656281	0.669495
88 	40    	0.659679	0.00394247	0.656281	0.669495
89 	40    	0.659774	0.00388201	0.656281	0.669495
90 	40    	0.660341	0.00414906	0.656281	0.669495
91 	40    	0.660529	0.00404464	0.656281	0.669495
92 	40    	0.660812	0.00393397	0.656281	0.669495
93 	40    	0.660812	0.00393397	0.656281	0.669495
94 	40    	0.660812	0.00393397	0.656281	0.669495
95 	40    	0.660812	0.00393397	0.656281	0.669495
96 	40    	0.660812	0.00393397	0.656281	0.669495
97 	40    	0.660812	0.00393397	0.656281	0.669495
98 	40    	0.660812	0.00393397	0.656281	0.669495
99 	40    	0.660812	0.00393397	0.656281	0.669495
100	40    	0.660812	0.00393397	0.656281	0.669495
101	40    	0.660812	0.00393397	0.656281	0.669495
102	40    	0.660812	0.00393397	0.656281	0.669495
103	40    	0.661189	0.00365219	0.656281	0.669495
104	40    	0.661189	0.00365219	0.656281	0.669495
105	40    	0.662228	0.00359783	0.658173	0.669495
106	40    	0.662228	0.00359783	0.658173	0.669495
107	40    	0.662228	0.00359783	0.658173	0.669495
108	40    	0.662228	0.00359783	0.658173	0.669495
109	40    	0.662228	0.00359783	0.658173	0.669495
110	40    	0.662228	0.00359783	0.658173	0.669495
111	40    	0.662228	0.00359783	0.658173	0.669495
112	40    	0.662228	0.00359783	0.658173	0.669495
113	40    	0.662228	0.00359783	0.658173	0.669495
114	40    	0.662228	0.00359783	0.658173	0.669495
115	40    	0.662889	0.00398486	0.658173	0.671387
116	40    	0.662889	0.00398486	0.658173	0.671387
117	40    	0.662983	0.00389374	0.658173	0.671387
118	40    	0.662983	0.00389374	0.658173	0.671387
119	40    	0.662983	0.00389374	0.658173	0.671387
120	40    	0.662983	0.00389374	0.658173	0.671387
121	40    	0.662983	0.00389374	0.658173	0.671387
122	40    	0.662983	0.00389374	0.658173	0.671387
123	40    	0.662983	0.00389374	0.658173	0.671387
124	40    	0.662983	0.00389374	0.658173	0.671387
125	40    	0.662983	0.00389374	0.658173	0.671387
126	40    	0.662983	0.00389374	0.658173	0.671387
127	40    	0.662983	0.00389374	0.658173	0.671387
128	40    	0.662983	0.00389374	0.658173	0.671387
129	40    	0.662983	0.00389374	0.658173	0.671387
130	40    	0.662983	0.00389374	0.658173	0.671387
131	40    	0.662983	0.00389374	0.658173	0.671387
132	40    	0.662983	0.00389374	0.658173	0.671387
133	40    	0.662983	0.00389374	0.658173	0.671387
134	40    	0.662983	0.00389374	0.658173	0.671387
135	40    	0.662983	0.00389374	0.658173	0.671387
136	40    	0.662983	0.00389374	0.658173	0.671387
137	40    	0.662983	0.00389374	0.658173	0.671387
138	40    	0.662983	0.00389374	0.658173	0.671387
139	40    	0.662983	0.00389374	0.658173	0.671387
140	40    	0.662983	0.00389374	0.658173	0.671387
141	40    	0.662983	0.00389374	0.658173	0.671387
142	40    	0.663077	0.00379812	0.658173	0.671387
143	40    	0.663077	0.00379812	0.658173	0.671387
144	40    	0.663077	0.00379812	0.658173	0.671387
145	40    	0.663077	0.00379812	0.658173	0.671387
146	40    	0.663077	0.00379812	0.658173	0.671387
147	40    	0.663077	0.00379812	0.658173	0.671387
148	40    	0.663643	0.00386809	0.658173	0.671387
149	40    	0.663643	0.00386809	0.658173	0.671387
150	40    	0.663643	0.00386809	0.658173	0.671387
151	40    	0.663643	0.00386809	0.658173	0.671387
152	40    	0.663643	0.00386809	0.658173	0.671387
153	40    	0.663643	0.00386809	0.658173	0.671387
154	40    	0.663643	0.00386809	0.658173	0.671387
155	40    	0.663643	0.00386809	0.658173	0.671387
156	40    	0.663643	0.00386809	0.658173	0.671387
157	40    	0.663737	0.00375537	0.660049	0.671387
158	40    	0.663737	0.00375537	0.660049	0.671387
159	40    	0.663737	0.00375537	0.660049	0.671387
160	40    	0.663737	0.00375537	0.660049	0.671387
161	40    	0.664021	0.00367971	0.660049	0.671387
162	40    	0.664021	0.00367971	0.660049	0.671387
163	40    	0.664777	0.00428913	0.660049	0.675171
164	40    	0.664777	0.00428913	0.660049	0.675171
165	40    	0.664777	0.00428913	0.660049	0.675171
166	40    	0.664777	0.00428913	0.660049	0.675171
167	40    	0.664777	0.00428913	0.660049	0.675171
168	40    	0.664777	0.00428913	0.660049	0.675171
169	40    	0.664966	0.00415788	0.660049	0.675171
170	40    	0.664966	0.00415788	0.660049	0.675171
171	40    	0.66525 	0.00400347	0.660049	0.675171
172	40    	0.66525 	0.00400347	0.660049	0.675171
173	40    	0.66525 	0.00400347	0.660049	0.675171
174	40    	0.66525 	0.00400347	0.660049	0.675171
175	40    	0.665439	0.00383929	0.660049	0.675171
176	40    	0.665439	0.00383929	0.660049	0.675171
177	40    	0.665439	0.00383929	0.660049	0.675171
178	40    	0.665723	0.00353488	0.660049	0.675171
179	40    	0.665817	0.00340471	0.661942	0.675171
180	40    	0.665817	0.00340471	0.661942	0.675171
181	40    	0.665817	0.00340471	0.661942	0.675171
182	40    	0.665817	0.00340471	0.661942	0.675171
183	40    	0.665817	0.00340471	0.661942	0.675171
184	40    	0.665817	0.00340471	0.661942	0.675171
185	40    	0.665817	0.00340471	0.661942	0.675171
186	40    	0.665817	0.00340471	0.661942	0.675171
187	40    	0.665817	0.00340471	0.661942	0.675171
188	40    	0.665817	0.00340471	0.661942	0.675171
189	40    	0.665817	0.00340471	0.661942	0.675171
190	40    	0.665817	0.00340471	0.661942	0.675171
191	40    	0.665817	0.00340471	0.661942	0.675171
192	40    	0.665817	0.00340471	0.661942	0.675171
193	40    	0.665817	0.00340471	0.661942	0.675171
194	40    	0.665912	0.00332096	0.661942	0.675171
195	40    	0.665912	0.00332096	0.661942	0.675171
196	40    	0.665912	0.00332096	0.661942	0.675171
197	40    	0.665912	0.00332096	0.661942	0.675171
198	40    	0.665912	0.00332096	0.661942	0.675171
199	40    	0.666006	0.00323227	0.661942	0.675171
200	40    	0.666006	0.00323227	0.661942	0.675171
201	40    	0.666006	0.00323227	0.661942	0.675171
202	40    	0.666006	0.00323227	0.661942	0.675171
203	40    	0.666196	0.0030967 	0.661942	0.675171
204	40    	0.666196	0.0030967 	0.661942	0.675171
205	40    	0.666196	0.0030967 	0.661942	0.675171
206	40    	0.666196	0.0030967 	0.661942	0.675171
207	40    	0.666196	0.0030967 	0.661942	0.675171
208	40    	0.666196	0.0030967 	0.661942	0.675171
209	40    	0.666196	0.0030967 	0.661942	0.675171
210	40    	0.666573	0.00301433	0.663834	0.675171
211	40    	0.666573	0.00301433	0.663834	0.675171
212	40    	0.666573	0.00301433	0.663834	0.675171
213	40    	0.666573	0.00301433	0.663834	0.675171
214	40    	0.666856	0.00300956	0.663834	0.675171
215	40    	0.666856	0.00300956	0.663834	0.675171
216	40    	0.666856	0.00300956	0.663834	0.675171
217	40    	0.666856	0.00300956	0.663834	0.675171
218	40    	0.666856	0.00300956	0.663834	0.675171
219	40    	0.666856	0.00300956	0.663834	0.675171
220	40    	0.666856	0.00300956	0.663834	0.675171
221	40    	0.666856	0.00300956	0.663834	0.675171
222	40    	0.667989	0.00375709	0.663834	0.677048
223	40    	0.667989	0.00375709	0.663834	0.677048
224	40    	0.668179	0.00363638	0.663834	0.677048
225	40    	0.668179	0.00363638	0.663834	0.677048
226	40    	0.668179	0.00363638	0.663834	0.677048
227	40    	0.668179	0.00363638	0.663834	0.677048
228	40    	0.668179	0.00363638	0.663834	0.677048
229	40    	0.668179	0.00363638	0.663834	0.677048
230	40    	0.668179	0.00363638	0.663834	0.677048
231	40    	0.668179	0.00363638	0.663834	0.677048
232	40    	0.668179	0.00363638	0.663834	0.677048
233	40    	0.668179	0.00363638	0.663834	0.677048
234	40    	0.668179	0.00363638	0.663834	0.677048
235	40    	0.668179	0.00363638	0.663834	0.677048
236	40    	0.668179	0.00363638	0.663834	0.677048
237	40    	0.668273	0.00354559	0.663834	0.677048
238	40    	0.668273	0.00354559	0.663834	0.677048
239	40    	0.668273	0.00354559	0.663834	0.677048
240	40    	0.668273	0.00354559	0.663834	0.677048
241	40    	0.668273	0.00354559	0.663834	0.677048
242	40    	0.668273	0.00354559	0.663834	0.677048
243	40    	0.668273	0.00354559	0.663834	0.677048
244	40    	0.668273	0.00354559	0.663834	0.677048
245	40    	0.668273	0.00354559	0.663834	0.677048
246	40    	0.668273	0.00354559	0.663834	0.677048
247	40    	0.668273	0.00354559	0.663834	0.677048
248	40    	0.668273	0.00354559	0.663834	0.677048
249	40    	0.668273	0.00354559	0.663834	0.677048
250	40    	0.669123	0.00340815	0.665726	0.677048
