Run:60 Evals:10020 MES:10020.0 MAD:0.0 FAILURES:53 Best:0.773590087890625 Solution:1.0
Run:61 Evals:10020 MES:10020.0 MAD:0.0 FAILURES:54 Best:0.7480316162109375 Solution:1.0
Run:62 Evals:10020 MES:10020.0 MAD:0.0 FAILURES:55 Best:0.7585296630859375 Solution:1.0
Run:63 Evals:10020 MES:10020.0 MAD:0.0 FAILURES:56 Best:0.7532806396484375 Solution:1.0
Run:64 Evals:10020 MES:10020.0 MAD:0.0 FAILURES:57 Best:0.7532806396484375 Solution:1.0
Run:65 Evals:10020 MES:10020.0 MAD:0.0 FAILURES:58 Best:0.7650146484375 Solution:1.0
Run:66 Evals:10020 MES:10020.0 MAD:0.0 FAILURES:59 Best:0.7506561279296875 Solution:1.0
Run:67 Evals:10020 MES:10020.0 MAD:0.0 FAILURES:60 Best:0.7364349365234375 Solution:1.0
Run:68 Evals:10020 MES:10020.0 MAD:0.0 FAILURES:61 Best:0.7480316162109375 Solution:1.0
Run:69 Evals:10020 MES:10020.0 MAD:0.0 FAILURES:62 Best:0.759796142578125 Solution:1.0

