gen	nevals	avg     	std       	min     	max     
0  	20    	0.612109	0.0328618 	0.570938	0.716263
1  	40    	0.633911	0.0263437 	0.60553 	0.716263
2  	40    	0.640141	0.0222095 	0.619385	0.716263
3  	40    	0.646022	0.023085  	0.626297	0.716263
4  	40    	0.653979	0.0207609 	0.633224	0.716263
5  	40    	0.655709	0.0196808 	0.640137	0.716263
6  	40    	0.662284	0.0181251 	0.640137	0.716263
7  	40    	0.666089	0.0167918 	0.647064	0.716263
8  	40    	0.670933	0.0160036 	0.653976	0.716263
9  	40    	0.671626	0.0153929 	0.653976	0.716263
10 	40    	0.675779	0.01336   	0.660904	0.716263
11 	40    	0.675779	0.01336   	0.660904	0.716263
12 	40    	0.679238	0.012041  	0.660904	0.716263
13 	40    	0.67993 	0.011345  	0.667816	0.716263
14 	40    	0.680622	0.0110019 	0.667816	0.716263
15 	40    	0.683044	0.0110722 	0.667816	0.716263
16 	40    	0.684774	0.0106023 	0.674744	0.716263
17 	40    	0.690309	0.0132885 	0.674744	0.716263
18 	40    	0.692039	0.0122824 	0.674744	0.716263
19 	40    	0.694115	0.0126859 	0.681656	0.716263
20 	40    	0.696191	0.0138249 	0.681656	0.72319 
21 	40    	0.69896 	0.0135801 	0.681656	0.72319 
22 	40    	0.69896 	0.0135801 	0.681656	0.72319 
23 	40    	0.69896 	0.0135801 	0.681656	0.72319 
24 	40    	0.70069 	0.0134693 	0.681656	0.72319 
25 	40    	0.702074	0.0128502 	0.681656	0.72319 
26 	40    	0.703113	0.0115595 	0.688583	0.72319 
27 	40    	0.703458	0.0112182 	0.688583	0.72319 
28 	40    	0.705188	0.0105876 	0.688583	0.72319 
29 	40    	0.706572	0.0101257 	0.688583	0.72319 
30 	40    	0.70761 	0.00899217	0.695496	0.72319 
31 	40    	0.70761 	0.00899217	0.695496	0.72319 
32 	40    	0.70761 	0.00899217	0.695496	0.72319 
33 	40    	0.708995	0.00832789	0.695496	0.72319 
34 	40    	0.711072	0.00844116	0.695496	0.730103
35 	40    	0.711072	0.00844116	0.695496	0.730103
36 	40    	0.711072	0.00844116	0.695496	0.730103
37 	40    	0.711072	0.00844116	0.695496	0.730103
38 	40    	0.711072	0.00844116	0.695496	0.730103
39 	40    	0.71384 	0.00855384	0.702423	0.730103
40 	40    	0.716262	0.0100294 	0.702423	0.743942
41 	40    	0.721453	0.0113475 	0.709335	0.75087 
42 	40    	0.721799	0.0110747 	0.709335	0.75087 
43 	40    	0.722838	0.0108282 	0.709335	0.75087 
44 	40    	0.724223	0.0107837 	0.709335	0.75087 
45 	40    	0.724223	0.0107837 	0.709335	0.75087 
46 	40    	0.724223	0.0107837 	0.709335	0.75087 
47 	40    	0.724915	0.0102362 	0.716263	0.75087 
48 	40    	0.724915	0.0102362 	0.716263	0.75087 
49 	40    	0.724915	0.0102362 	0.716263	0.75087 
50 	40    	0.725607	0.0100947 	0.716263	0.75087 
51 	40    	0.725607	0.0100947 	0.716263	0.75087 
52 	40    	0.725607	0.0100947 	0.716263	0.75087 
53 	40    	0.725607	0.0100947 	0.716263	0.75087 
54 	40    	0.727338	0.0112451 	0.716263	0.75087 
55 	40    	0.727338	0.0112451 	0.716263	0.75087 
56 	40    	0.72803 	0.0109647 	0.716263	0.75087 
57 	40    	0.728376	0.0106935 	0.716263	0.75087 
58 	40    	0.728376	0.0106935 	0.716263	0.75087 
59 	40    	0.728722	0.0104038 	0.716263	0.75087 
60 	40    	0.730453	0.0110458 	0.716263	0.75087 
61 	40    	0.730799	0.0106985 	0.716263	0.75087 
62 	40    	0.730799	0.0106985 	0.716263	0.75087 
63 	40    	0.730799	0.0106985 	0.716263	0.75087 
64 	40    	0.730799	0.0106985 	0.716263	0.75087 
65 	40    	0.731145	0.010328  	0.716263	0.75087 
66 	40    	0.732183	0.00956355	0.72319 	0.75087 
67 	40    	0.732183	0.00956355	0.72319 	0.75087 
68 	40    	0.732529	0.00935494	0.72319 	0.75087 
69 	40    	0.733221	0.00914817	0.72319 	0.75087 
70 	40    	0.733221	0.00914817	0.72319 	0.75087 
71 	40    	0.73668 	0.00965753	0.72319 	0.757782
72 	40    	0.738063	0.00882939	0.730103	0.757782
73 	40    	0.738063	0.00882939	0.730103	0.757782
74 	40    	0.738063	0.00882939	0.730103	0.757782
75 	40    	0.738063	0.00882939	0.730103	0.757782
76 	40    	0.738063	0.00882939	0.730103	0.757782
77 	40    	0.738063	0.00882939	0.730103	0.757782
78 	40    	0.738063	0.00882939	0.730103	0.757782
79 	40    	0.738063	0.00882939	0.730103	0.757782
80 	40    	0.738063	0.00882939	0.730103	0.757782
81 	40    	0.738755	0.00872004	0.730103	0.757782
82 	40    	0.738755	0.00872004	0.730103	0.757782
83 	40    	0.738755	0.00872004	0.730103	0.757782
84 	40    	0.738755	0.00872004	0.730103	0.757782
85 	40    	0.738755	0.00872004	0.730103	0.757782
86 	40    	0.739447	0.0085535 	0.730103	0.757782
87 	40    	0.739447	0.0085535 	0.730103	0.757782
88 	40    	0.739447	0.0085535 	0.730103	0.757782
89 	40    	0.739447	0.0085535 	0.730103	0.757782
90 	40    	0.740139	0.00832633	0.730103	0.757782
91 	40    	0.741177	0.00830485	0.730103	0.757782
92 	40    	0.741869	0.00792094	0.730103	0.757782
93 	40    	0.741869	0.00792094	0.730103	0.757782
94 	40    	0.741869	0.00792094	0.730103	0.757782
95 	40    	0.741869	0.00792094	0.730103	0.757782
96 	40    	0.741869	0.00792094	0.730103	0.757782
97 	40    	0.741869	0.00792094	0.730103	0.757782
98 	40    	0.741869	0.00792094	0.730103	0.757782
99 	40    	0.741869	0.00792094	0.730103	0.757782
100	40    	0.742216	0.00754118	0.730103	0.757782
101	40    	0.742562	0.00712443	0.730103	0.757782
102	40    	0.742562	0.00712443	0.730103	0.757782
103	40    	0.742562	0.00712443	0.730103	0.757782
104	40    	0.742908	0.00666376	0.730103	0.757782
105	40    	0.742908	0.00666376	0.730103	0.757782
106	40    	0.742908	0.00666376	0.730103	0.757782
107	40    	0.7436  	0.0059817 	0.73703 	0.757782
108	40    	0.7436  	0.0059817 	0.73703 	0.757782
109	40    	0.7436  	0.0059817 	0.73703 	0.757782
110	40    	0.7436  	0.0059817 	0.73703 	0.757782
111	40    	0.7436  	0.0059817 	0.73703 	0.757782
112	40    	0.744638	0.00652697	0.73703 	0.757782
113	40    	0.744638	0.00652697	0.73703 	0.757782
114	40    	0.744638	0.00652697	0.73703 	0.757782
115	40    	0.744638	0.00652697	0.73703 	0.757782
116	40    	0.745676	0.00614023	0.73703 	0.757782
117	40    	0.745676	0.00614023	0.73703 	0.757782
118	40    	0.746367	0.00548183	0.73703 	0.757782
119	40    	0.746367	0.00548183	0.73703 	0.757782
120	40    	0.747404	0.00464369	0.743942	0.757782
121	40    	0.747404	0.00464369	0.743942	0.757782
122	40    	0.747404	0.00464369	0.743942	0.757782
123	40    	0.747751	0.00463087	0.743942	0.757782
124	40    	0.747751	0.00463087	0.743942	0.757782
125	40    	0.747751	0.00463087	0.743942	0.757782
126	40    	0.747751	0.00463087	0.743942	0.757782
127	40    	0.747751	0.00463087	0.743942	0.757782
128	40    	0.747751	0.00463087	0.743942	0.757782
129	40    	0.747751	0.00463087	0.743942	0.757782
130	40    	0.747751	0.00463087	0.743942	0.757782
131	40    	0.747751	0.00463087	0.743942	0.757782
132	40    	0.747751	0.00463087	0.743942	0.757782
133	40    	0.747751	0.00463087	0.743942	0.757782
134	40    	0.747751	0.00463087	0.743942	0.757782
135	40    	0.747751	0.00463087	0.743942	0.757782
136	40    	0.747751	0.00463087	0.743942	0.757782
137	40    	0.747751	0.00463087	0.743942	0.757782
138	40    	0.750519	0.0120801 	0.743942	0.799301
139	40    	0.750519	0.0120801 	0.743942	0.799301
140	40    	0.750519	0.0120801 	0.743942	0.799301
141	40    	0.751557	0.0123595 	0.743942	0.799301
142	40    	0.752249	0.0123011 	0.743942	0.799301
143	40    	0.752249	0.0123011 	0.743942	0.799301
144	40    	0.752249	0.0123011 	0.743942	0.799301
145	40    	0.752249	0.0123011 	0.743942	0.799301
146	40    	0.752249	0.0123011 	0.743942	0.799301
147	40    	0.752941	0.0122032 	0.743942	0.799301
148	40    	0.752941	0.0122032 	0.743942	0.799301
149	40    	0.754671	0.0132161 	0.743942	0.799301
150	40    	0.755363	0.0129967 	0.743942	0.799301
151	40    	0.755363	0.0129967 	0.743942	0.799301
152	40    	0.755363	0.0129967 	0.743942	0.799301
153	40    	0.755363	0.0129967 	0.743942	0.799301
154	40    	0.755363	0.0129967 	0.743942	0.799301
155	40    	0.755363	0.0129967 	0.743942	0.799301
156	40    	0.755363	0.0129967 	0.743942	0.799301
157	40    	0.756055	0.012736  	0.743942	0.799301
158	40    	0.756055	0.012736  	0.743942	0.799301
159	40    	0.756402	0.0124937 	0.743942	0.799301
160	40    	0.756748	0.0122369 	0.743942	0.799301
161	40    	0.757095	0.0119645 	0.743942	0.799301
162	40    	0.757095	0.0119645 	0.743942	0.799301
163	40    	0.757095	0.0119645 	0.743942	0.799301
164	40    	0.757441	0.0116755 	0.75087 	0.799301
165	40    	0.757441	0.0116755 	0.75087 	0.799301
166	40    	0.757441	0.0116755 	0.75087 	0.799301
167	40    	0.757441	0.0116755 	0.75087 	0.799301
168	40    	0.757441	0.0116755 	0.75087 	0.799301
169	40    	0.757441	0.0116755 	0.75087 	0.799301
170	40    	0.759517	0.0138173 	0.75087 	0.799301
171	40    	0.7609  	0.0137478 	0.75087 	0.799301
172	40    	0.7609  	0.0137478 	0.75087 	0.799301
173	40    	0.7609  	0.0137478 	0.75087 	0.799301
174	40    	0.762284	0.0133596 	0.75087 	0.799301
175	40    	0.762284	0.0133596 	0.75087 	0.799301
176	40    	0.762284	0.0133596 	0.75087 	0.799301
177	40    	0.762976	0.0131064 	0.75087 	0.799301
178	40    	0.762976	0.0131064 	0.75087 	0.799301
179	40    	0.762976	0.0131064 	0.75087 	0.799301
180	40    	0.762976	0.0131064 	0.75087 	0.799301
181	40    	0.762976	0.0131064 	0.75087 	0.799301
182	40    	0.763322	0.0128717 	0.75087 	0.799301
183	40    	0.763322	0.0128717 	0.75087 	0.799301
184	40    	0.765398	0.0139951 	0.75087 	0.799301
185	40    	0.765398	0.0139951 	0.75087 	0.799301
186	40    	0.765398	0.0139951 	0.75087 	0.799301
187	40    	0.765398	0.0139951 	0.75087 	0.799301
188	40    	0.765398	0.0139951 	0.75087 	0.799301
189	40    	0.766089	0.0134194 	0.75087 	0.799301
190	40    	0.766434	0.0131084 	0.757782	0.799301
191	40    	0.766434	0.0131084 	0.757782	0.799301
192	40    	0.766434	0.0131084 	0.757782	0.799301
193	40    	0.767473	0.013204  	0.757782	0.799301
194	40    	0.767473	0.013204  	0.757782	0.799301
195	40    	0.767473	0.013204  	0.757782	0.799301
196	40    	0.769549	0.0146967 	0.757782	0.799301
197	40    	0.770241	0.0144501 	0.757782	0.799301
198	40    	0.771625	0.014516  	0.757782	0.799301
199	40    	0.771625	0.014516  	0.757782	0.799301
200	40    	0.771625	0.014516  	0.757782	0.799301
201	40    	0.774739	0.0155474 	0.757782	0.806229
202	40    	0.774739	0.0155474 	0.757782	0.806229
203	40    	0.774739	0.0155474 	0.757782	0.806229
204	40    	0.774739	0.0155474 	0.757782	0.806229
205	40    	0.775777	0.0147447 	0.757782	0.806229
206	40    	0.775777	0.0147447 	0.757782	0.806229
207	40    	0.775777	0.0147447 	0.757782	0.806229
208	40    	0.777162	0.01377   	0.757782	0.806229
209	40    	0.778201	0.0130327 	0.764709	0.806229
210	40    	0.778546	0.0127592 	0.764709	0.806229
211	40    	0.779929	0.0121048 	0.764709	0.806229
212	40    	0.781313	0.0108103 	0.771622	0.806229
213	40    	0.781313	0.0108103 	0.771622	0.806229
214	40    	0.781313	0.0108103 	0.771622	0.806229
215	40    	0.781313	0.0108103 	0.771622	0.806229
216	40    	0.781659	0.0106033 	0.771622	0.806229
217	40    	0.781659	0.0106033 	0.771622	0.806229
218	40    	0.781659	0.0106033 	0.771622	0.806229
219	40    	0.782005	0.0103806 	0.771622	0.806229
220	40    	0.782005	0.0103806 	0.771622	0.806229
221	40    	0.782005	0.0103806 	0.771622	0.806229
222	40    	0.782005	0.0103806 	0.771622	0.806229
223	40    	0.782005	0.0103806 	0.771622	0.806229
224	40    	0.782005	0.0103806 	0.771622	0.806229
225	40    	0.782005	0.0103806 	0.771622	0.806229
226	40    	0.782005	0.0103806 	0.771622	0.806229
227	40    	0.782005	0.0103806 	0.771622	0.806229
228	40    	0.782005	0.0103806 	0.771622	0.806229
229	40    	0.782005	0.0103806 	0.771622	0.806229
230	40    	0.782005	0.0103806 	0.771622	0.806229
231	40    	0.782005	0.0103806 	0.771622	0.806229
232	40    	0.782005	0.0103806 	0.771622	0.806229
233	40    	0.782697	0.0101234 	0.771622	0.806229
234	40    	0.782697	0.0101234 	0.771622	0.806229
235	40    	0.782697	0.0101234 	0.771622	0.806229
236	40    	0.782697	0.0101234 	0.771622	0.806229
237	40    	0.782697	0.0101234 	0.771622	0.806229
238	40    	0.782697	0.0101234 	0.771622	0.806229
239	40    	0.782697	0.0101234 	0.771622	0.806229
240	40    	0.783044	0.00985344	0.771622	0.806229
241	40    	0.783736	0.00950687	0.771622	0.806229
242	40    	0.783736	0.00950687	0.771622	0.806229
243	40    	0.783736	0.00950687	0.771622	0.806229
244	40    	0.783736	0.00950687	0.771622	0.806229
245	40    	0.783736	0.00950687	0.771622	0.806229
246	40    	0.783736	0.00950687	0.771622	0.806229
247	40    	0.783736	0.00950687	0.771622	0.806229
248	40    	0.783736	0.00950687	0.771622	0.806229
249	40    	0.783736	0.00950687	0.771622	0.806229
250	40    	0.783736	0.00950687	0.771622	0.806229
