gen	nevals	avg     	std       	min     	max     
0  	20    	0.586164	0.0172903 	0.560684	0.614075
1  	40    	0.598178	0.0123408 	0.580093	0.621353
2  	40    	0.605341	0.00639141	0.594666	0.621353
3  	40    	0.611771	0.0110004 	0.601944	0.652908
4  	40    	0.614803	0.0100969 	0.606796	0.652908
5  	40    	0.621842	0.01023   	0.611649	0.652908
6  	40    	0.624148	0.00992875	0.614075	0.652908
7  	40    	0.62524 	0.00932056	0.616501	0.652908
8  	40    	0.626819	0.00874927	0.618927	0.652908
9  	40    	0.630826	0.00804766	0.621353	0.652908
10 	40    	0.634467	0.00931726	0.623779	0.660187
11 	40    	0.635561	0.00841405	0.626221	0.660187
12 	40    	0.636411	0.00784663	0.628647	0.660187
13 	40    	0.637988	0.00724907	0.628647	0.660187
14 	40    	0.638473	0.00683963	0.631073	0.660187
15 	40    	0.639201	0.00647718	0.633499	0.660187
16 	40    	0.640535	0.00663985	0.633499	0.660187
17 	40    	0.64102 	0.00646012	0.635925	0.660187
18 	40    	0.64102 	0.00646012	0.635925	0.660187
19 	40    	0.64102 	0.00646012	0.635925	0.660187
20 	40    	0.64369 	0.00803401	0.635925	0.665054
21 	40    	0.644781	0.00764631	0.635925	0.665054
22 	40    	0.645631	0.00707547	0.638351	0.665054
23 	40    	0.64733 	0.0085159 	0.638351	0.669907
24 	40    	0.649393	0.00993342	0.638351	0.674759
25 	40    	0.650484	0.00949461	0.640778	0.674759
26 	40    	0.653033	0.00938506	0.643204	0.674759
27 	40    	0.653639	0.00892268	0.643204	0.674759
28 	40    	0.65461 	0.00855182	0.64563 	0.674759
29 	40    	0.65558 	0.00812074	0.64563 	0.674759
30 	40    	0.656187	0.00761071	0.648056	0.674759
31 	40    	0.656429	0.00742267	0.648056	0.674759
32 	40    	0.657157	0.0069472 	0.648056	0.674759
33 	40    	0.657157	0.0069472 	0.648056	0.674759
34 	40    	0.65825 	0.00714534	0.650482	0.674759
35 	40    	0.658371	0.00703214	0.650482	0.674759
36 	40    	0.660191	0.00868602	0.650482	0.684464
37 	40    	0.660555	0.00842001	0.652908	0.684464
38 	40    	0.661526	0.00860029	0.652908	0.684464
39 	40    	0.662134	0.0082551 	0.652908	0.684464
40 	40    	0.663105	0.00800155	0.652908	0.684464
41 	40    	0.663105	0.00800155	0.652908	0.684464
42 	40    	0.663591	0.00765515	0.655334	0.684464
43 	40    	0.665412	0.00764967	0.655334	0.684464
44 	40    	0.66772 	0.00664331	0.660187	0.684464
45 	40    	0.667963	0.00644919	0.660187	0.684464
46 	40    	0.668085	0.00632271	0.660187	0.684464
47 	40    	0.668085	0.00632271	0.660187	0.684464
48 	40    	0.669421	0.00572077	0.662628	0.684464
49 	40    	0.670149	0.00514091	0.662628	0.684464
50 	40    	0.670634	0.00485836	0.665054	0.684464
51 	40    	0.672333	0.00632662	0.665054	0.691742
52 	40    	0.673303	0.00661765	0.665054	0.691742
53 	40    	0.673425	0.00648626	0.665054	0.691742
54 	40    	0.673425	0.00648626	0.665054	0.691742
55 	40    	0.673425	0.00648626	0.665054	0.691742
56 	40    	0.674274	0.00607022	0.66748 	0.691742
57 	40    	0.674274	0.00607022	0.66748 	0.691742
58 	40    	0.674274	0.00607022	0.66748 	0.691742
59 	40    	0.674274	0.00607022	0.66748 	0.691742
60 	40    	0.674274	0.00607022	0.66748 	0.691742
61 	40    	0.674395	0.00595643	0.669907	0.691742
62 	40    	0.674395	0.00595643	0.669907	0.691742
63 	40    	0.674395	0.00595643	0.669907	0.691742
64 	40    	0.674395	0.00595643	0.669907	0.691742
65 	40    	0.674395	0.00595643	0.669907	0.691742
66 	40    	0.674395	0.00595643	0.669907	0.691742
67 	40    	0.674516	0.0058881 	0.669907	0.691742
68 	40    	0.674516	0.0058881 	0.669907	0.691742
69 	40    	0.674516	0.0058881 	0.669907	0.691742
70 	40    	0.674516	0.0058881 	0.669907	0.691742
71 	40    	0.674516	0.0058881 	0.669907	0.691742
72 	40    	0.674516	0.0058881 	0.669907	0.691742
73 	40    	0.674516	0.0058881 	0.669907	0.691742
74 	40    	0.674516	0.0058881 	0.669907	0.691742
75 	40    	0.675608	0.00624586	0.669907	0.691742
76 	40    	0.675851	0.0061125 	0.669907	0.691742
77 	40    	0.675972	0.00601665	0.669907	0.691742
78 	40    	0.6767  	0.00611851	0.669907	0.691742
79 	40    	0.677064	0.00591677	0.672333	0.691742
80 	40    	0.677064	0.00591677	0.672333	0.691742
81 	40    	0.67767 	0.00602154	0.672333	0.691742
82 	40    	0.67767 	0.00602154	0.672333	0.691742
83 	40    	0.67767 	0.00602154	0.672333	0.691742
84 	40    	0.67767 	0.00602154	0.672333	0.691742
85 	40    	0.67767 	0.00602154	0.672333	0.691742
86 	40    	0.678277	0.00606416	0.672333	0.691742
87 	40    	0.678277	0.00606416	0.672333	0.691742
88 	40    	0.67949 	0.00616046	0.672333	0.691742
89 	40    	0.67949 	0.00616046	0.672333	0.691742
90 	40    	0.67949 	0.00616046	0.672333	0.691742
91 	40    	0.67949 	0.00616046	0.672333	0.691742
92 	40    	0.67949 	0.00616046	0.672333	0.691742
93 	40    	0.67949 	0.00616046	0.672333	0.691742
94 	40    	0.679611	0.00604106	0.672333	0.691742
95 	40    	0.679611	0.00604106	0.672333	0.691742
96 	40    	0.679611	0.00604106	0.672333	0.691742
97 	40    	0.680582	0.0063452 	0.672333	0.691742
98 	40    	0.680703	0.00620805	0.672333	0.691742
99 	40    	0.680703	0.00620805	0.672333	0.691742
100	40    	0.680703	0.00620805	0.672333	0.691742
101	40    	0.680703	0.00620805	0.672333	0.691742
102	40    	0.680703	0.00620805	0.672333	0.691742
103	40    	0.680703	0.00620805	0.672333	0.691742
104	40    	0.681067	0.00591303	0.672333	0.691742
105	40    	0.681431	0.00557882	0.674759	0.691742
106	40    	0.681673	0.00533063	0.674759	0.691742
107	40    	0.681673	0.00533063	0.674759	0.691742
108	40    	0.681673	0.00533063	0.674759	0.691742
109	40    	0.681673	0.00533063	0.674759	0.691742
110	40    	0.681673	0.00533063	0.674759	0.691742
111	40    	0.681673	0.00533063	0.674759	0.691742
112	40    	0.681673	0.00533063	0.674759	0.691742
113	40    	0.681673	0.00533063	0.674759	0.691742
114	40    	0.681673	0.00533063	0.674759	0.691742
115	40    	0.681673	0.00533063	0.674759	0.691742
116	40    	0.681673	0.00533063	0.674759	0.691742
117	40    	0.681673	0.00533063	0.674759	0.691742
118	40    	0.681673	0.00533063	0.674759	0.691742
119	40    	0.681673	0.00533063	0.674759	0.691742
120	40    	0.681673	0.00533063	0.674759	0.691742
121	40    	0.681795	0.00519785	0.674759	0.691742
122	40    	0.681795	0.00519785	0.674759	0.691742
123	40    	0.681795	0.00519785	0.674759	0.691742
124	40    	0.681916	0.00505868	0.674759	0.691742
125	40    	0.681916	0.00505868	0.674759	0.691742
126	40    	0.682037	0.00491257	0.677185	0.691742
127	40    	0.682037	0.00491257	0.677185	0.691742
128	40    	0.682037	0.00491257	0.677185	0.691742
129	40    	0.682037	0.00491257	0.677185	0.691742
130	40    	0.682037	0.00491257	0.677185	0.691742
131	40    	0.682037	0.00491257	0.677185	0.691742
132	40    	0.682037	0.00491257	0.677185	0.691742
133	40    	0.682037	0.00491257	0.677185	0.691742
134	40    	0.682765	0.00473565	0.677185	0.691742
135	40    	0.6841  	0.00643393	0.677185	0.703888
136	40    	0.6841  	0.00643393	0.677185	0.703888
137	40    	0.684586	0.00625763	0.677185	0.703888
138	40    	0.685313	0.00620084	0.677185	0.703888
139	40    	0.685799	0.0059191 	0.677185	0.703888
140	40    	0.685799	0.0059191 	0.677185	0.703888
141	40    	0.685799	0.0059191 	0.677185	0.703888
142	40    	0.685799	0.0059191 	0.677185	0.703888
143	40    	0.685799	0.0059191 	0.677185	0.703888
144	40    	0.686284	0.00558123	0.679611	0.703888
145	40    	0.686284	0.00558123	0.679611	0.703888
146	40    	0.686284	0.00558123	0.679611	0.703888
147	40    	0.686284	0.00558123	0.679611	0.703888
148	40    	0.686648	0.00536747	0.679611	0.703888
149	40    	0.686648	0.00536747	0.679611	0.703888
150	40    	0.686648	0.00536747	0.679611	0.703888
151	40    	0.686648	0.00536747	0.679611	0.703888
152	40    	0.686648	0.00536747	0.679611	0.703888
153	40    	0.687254	0.00522147	0.679611	0.703888
154	40    	0.687254	0.00522147	0.679611	0.703888
155	40    	0.687254	0.00522147	0.679611	0.703888
156	40    	0.687254	0.00522147	0.679611	0.703888
157	40    	0.687254	0.00522147	0.679611	0.703888
158	40    	0.687618	0.00492108	0.679611	0.703888
159	40    	0.688953	0.00475014	0.684464	0.703888
160	40    	0.688953	0.00475014	0.684464	0.703888
161	40    	0.688953	0.00475014	0.684464	0.703888
162	40    	0.688953	0.00475014	0.684464	0.703888
163	40    	0.688953	0.00475014	0.684464	0.703888
164	40    	0.689075	0.00466413	0.684464	0.703888
165	40    	0.689075	0.00466413	0.684464	0.703888
166	40    	0.689075	0.00466413	0.684464	0.703888
167	40    	0.689075	0.00466413	0.684464	0.703888
168	40    	0.689075	0.00466413	0.684464	0.703888
169	40    	0.689075	0.00466413	0.684464	0.703888
170	40    	0.689439	0.00457321	0.684464	0.703888
171	40    	0.68956 	0.00447066	0.684464	0.703888
172	40    	0.690531	0.00488727	0.68689 	0.703888
173	40    	0.690531	0.00488727	0.68689 	0.703888
174	40    	0.690531	0.00488727	0.68689 	0.703888
175	40    	0.690531	0.00488727	0.68689 	0.703888
176	40    	0.690531	0.00488727	0.68689 	0.703888
177	40    	0.690531	0.00488727	0.68689 	0.703888
178	40    	0.690531	0.00488727	0.68689 	0.703888
179	40    	0.690531	0.00488727	0.68689 	0.703888
180	40    	0.690531	0.00488727	0.68689 	0.703888
181	40    	0.690531	0.00488727	0.68689 	0.703888
182	40    	0.690531	0.00488727	0.68689 	0.703888
183	40    	0.690531	0.00488727	0.68689 	0.703888
184	40    	0.690531	0.00488727	0.68689 	0.703888
185	40    	0.690531	0.00488727	0.68689 	0.703888
186	40    	0.690531	0.00488727	0.68689 	0.703888
187	40    	0.690774	0.00475901	0.68689 	0.703888
188	40    	0.690774	0.00475901	0.68689 	0.703888
189	40    	0.690774	0.00475901	0.68689 	0.703888
190	40    	0.690774	0.00475901	0.68689 	0.703888
191	40    	0.690774	0.00475901	0.68689 	0.703888
192	40    	0.691502	0.00520333	0.68689 	0.703888
193	40    	0.691502	0.00520333	0.68689 	0.703888
194	40    	0.691502	0.00520333	0.68689 	0.703888
195	40    	0.691866	0.00512188	0.68689 	0.703888
196	40    	0.691866	0.00512188	0.68689 	0.703888
197	40    	0.691866	0.00512188	0.68689 	0.703888
198	40    	0.692716	0.00506017	0.68689 	0.703888
199	40    	0.692716	0.00506017	0.68689 	0.703888
200	40    	0.692716	0.00506017	0.68689 	0.703888
201	40    	0.692716	0.00506017	0.68689 	0.703888
202	40    	0.692716	0.00506017	0.68689 	0.703888
203	40    	0.693202	0.00494263	0.68689 	0.703888
204	40    	0.693202	0.00494263	0.68689 	0.703888
205	40    	0.693202	0.00494263	0.68689 	0.703888
206	40    	0.693202	0.00494263	0.68689 	0.703888
207	40    	0.693202	0.00494263	0.68689 	0.703888
208	40    	0.693202	0.00494263	0.68689 	0.703888
209	40    	0.693202	0.00494263	0.68689 	0.703888
210	40    	0.693202	0.00494263	0.68689 	0.703888
211	40    	0.693202	0.00494263	0.68689 	0.703888
212	40    	0.693324	0.00481432	0.68689 	0.703888
213	40    	0.693324	0.00481432	0.68689 	0.703888
214	40    	0.693324	0.00481432	0.68689 	0.703888
215	40    	0.693445	0.00467935	0.68689 	0.703888
216	40    	0.694537	0.00550015	0.689316	0.70874 
217	40    	0.694537	0.00550015	0.689316	0.70874 
218	40    	0.694537	0.00550015	0.689316	0.70874 
219	40    	0.694537	0.00550015	0.689316	0.70874 
220	40    	0.694537	0.00550015	0.689316	0.70874 
221	40    	0.694537	0.00550015	0.689316	0.70874 
222	40    	0.694537	0.00550015	0.689316	0.70874 
223	40    	0.694537	0.00550015	0.689316	0.70874 
224	40    	0.694659	0.00540966	0.689316	0.70874 
225	40    	0.694659	0.00540966	0.689316	0.70874 
226	40    	0.69478 	0.00531486	0.689316	0.70874 
227	40    	0.69478 	0.00531486	0.689316	0.70874 
228	40    	0.69478 	0.00531486	0.689316	0.70874 
229	40    	0.69478 	0.00531486	0.689316	0.70874 
230	40    	0.69478 	0.00531486	0.689316	0.70874 
231	40    	0.69478 	0.00531486	0.689316	0.70874 
232	40    	0.69478 	0.00531486	0.689316	0.70874 
233	40    	0.69478 	0.00531486	0.689316	0.70874 
234	40    	0.694901	0.00521552	0.689316	0.70874 
235	40    	0.694901	0.00521552	0.689316	0.70874 
236	40    	0.694901	0.00521552	0.689316	0.70874 
237	40    	0.694901	0.00521552	0.689316	0.70874 
238	40    	0.694901	0.00521552	0.689316	0.70874 
239	40    	0.694901	0.00521552	0.689316	0.70874 
240	40    	0.694901	0.00521552	0.689316	0.70874 
241	40    	0.694901	0.00521552	0.689316	0.70874 
242	40    	0.694901	0.00521552	0.689316	0.70874 
243	40    	0.695144	0.00506061	0.689316	0.70874 
244	40    	0.695144	0.00506061	0.689316	0.70874 
245	40    	0.695144	0.00506061	0.689316	0.70874 
246	40    	0.695144	0.00506061	0.689316	0.70874 
247	40    	0.695144	0.00506061	0.689316	0.70874 
248	40    	0.695144	0.00506061	0.689316	0.70874 
249	40    	0.695265	0.00494726	0.691742	0.70874 
250	40    	0.695265	0.00494726	0.691742	0.70874 
