gen	nevals	avg     	std       	min     	max     
0  	20    	0.604821	0.050631  	0.506027	0.686752
1  	40    	0.645784	0.0229863 	0.602417	0.686752
2  	40    	0.657229	0.0159287 	0.63855 	0.686752
3  	40    	0.668073	0.0226937 	0.650604	0.746994
4  	40    	0.678313	0.025587  	0.650604	0.746994
5  	40    	0.693977	0.0195756 	0.674698	0.746994
6  	40    	0.70482 	0.0188575 	0.686752	0.746994
7  	40    	0.709036	0.017573  	0.686752	0.746994
8  	40    	0.717468	0.0139868 	0.698792	0.746994
9  	40    	0.719878	0.0131299 	0.698792	0.746994
10 	40    	0.723493	0.011728  	0.710846	0.746994
11 	40    	0.729517	0.0104193 	0.710846	0.746994
12 	40    	0.730721	0.00875505	0.722885	0.746994
13 	40    	0.733734	0.00843811	0.722885	0.746994
14 	40    	0.735542	0.00969805	0.722885	0.759033
15 	40    	0.73735 	0.00901888	0.722885	0.759033
16 	40    	0.743375	0.0114945 	0.73494 	0.771088
17 	40    	0.744581	0.0111742 	0.73494 	0.771088
18 	40    	0.748196	0.0119883 	0.73494 	0.771088
19 	40    	0.750004	0.0106915 	0.73494 	0.771088
20 	40    	0.751811	0.00963726	0.73494 	0.771088
21 	40    	0.752414	0.00891298	0.746994	0.771088
22 	40    	0.752414	0.00891298	0.746994	0.771088
23 	40    	0.753619	0.00969312	0.746994	0.771088
24 	40    	0.754823	0.00954203	0.746994	0.771088
25 	40    	0.754823	0.00954203	0.746994	0.771088
26 	40    	0.755424	0.00940798	0.746994	0.771088
27 	40    	0.756026	0.00923284	0.746994	0.771088
28 	40    	0.758436	0.0123295 	0.746994	0.795181
29 	40    	0.759038	0.0120468 	0.746994	0.795181
30 	40    	0.759038	0.0120468 	0.746994	0.795181
31 	40    	0.760242	0.0119867 	0.746994	0.795181
32 	40    	0.761446	0.0111726 	0.746994	0.795181
33 	40    	0.763253	0.0116026 	0.746994	0.795181
34 	40    	0.764458	0.0110915 	0.746994	0.795181
35 	40    	0.766264	0.00963993	0.759033	0.795181
36 	40    	0.770481	0.014988  	0.759033	0.819275
37 	40    	0.770481	0.014988  	0.759033	0.819275
38 	40    	0.773493	0.0181124 	0.759033	0.819275
39 	40    	0.774096	0.0178193 	0.759033	0.819275
40 	40    	0.774096	0.0178193 	0.759033	0.819275
41 	40    	0.775903	0.0172077 	0.759033	0.819275
42 	40    	0.776506	0.0168128 	0.759033	0.819275
43 	40    	0.778313	0.0167803 	0.759033	0.819275
44 	40    	0.780724	0.0172918 	0.759033	0.819275
45 	40    	0.783133	0.0157077 	0.771088	0.819275
46 	40    	0.783133	0.0157077 	0.771088	0.819275
47 	40    	0.786747	0.0157548 	0.771088	0.819275
48 	40    	0.787952	0.0154291 	0.771088	0.819275
49 	40    	0.790361	0.0149523 	0.771088	0.819275
50 	40    	0.792168	0.0146959 	0.771088	0.819275
51 	40    	0.792168	0.0146959 	0.771088	0.819275
52 	40    	0.792168	0.0146959 	0.771088	0.819275
53 	40    	0.792168	0.0146959 	0.771088	0.819275
54 	40    	0.794578	0.0129086 	0.771088	0.819275
55 	40    	0.796385	0.0119911 	0.783127	0.819275
56 	40    	0.797591	0.0118081 	0.783127	0.819275
57 	40    	0.797591	0.0118081 	0.783127	0.819275
58 	40    	0.798796	0.0114965 	0.783127	0.819275
59 	40    	0.800603	0.0117301 	0.783127	0.819275
60 	40    	0.803014	0.00954502	0.783127	0.819275
61 	40    	0.803014	0.00954502	0.783127	0.819275
62 	40    	0.803617	0.00860443	0.795181	0.819275
63 	40    	0.805424	0.00875021	0.795181	0.819275
64 	40    	0.805424	0.00875021	0.795181	0.819275
65 	40    	0.805424	0.00875021	0.795181	0.819275
66 	40    	0.805424	0.00875021	0.795181	0.819275
67 	40    	0.805424	0.00875021	0.795181	0.819275
68 	40    	0.806027	0.00843332	0.795181	0.819275
69 	40    	0.806027	0.00843332	0.795181	0.819275
70 	40    	0.806027	0.00843332	0.795181	0.819275
71 	40    	0.806027	0.00843332	0.795181	0.819275
72 	40    	0.806027	0.00843332	0.795181	0.819275
73 	40    	0.806027	0.00843332	0.795181	0.819275
74 	40    	0.807232	0.00851838	0.795181	0.819275
75 	40    	0.809039	0.00787566	0.795181	0.819275
76 	40    	0.810245	0.00645707	0.795181	0.819275
77 	40    	0.810847	0.00551705	0.807236	0.819275
78 	40    	0.810847	0.00551705	0.807236	0.819275
79 	40    	0.810847	0.00551705	0.807236	0.819275
80 	40    	0.810847	0.00551705	0.807236	0.819275
81 	40    	0.812052	0.00702208	0.807236	0.831329
82 	40    	0.812052	0.00702208	0.807236	0.831329
83 	40    	0.812052	0.00702208	0.807236	0.831329
84 	40    	0.812052	0.00702208	0.807236	0.831329
85 	40    	0.815063	0.0102732 	0.807236	0.843369
86 	40    	0.815665	0.0101488 	0.807236	0.843369
87 	40    	0.815665	0.0101488 	0.807236	0.843369
88 	40    	0.815665	0.0101488 	0.807236	0.843369
89 	40    	0.81687 	0.0105006 	0.807236	0.843369
90 	40    	0.81687 	0.0105006 	0.807236	0.843369
91 	40    	0.817472	0.0102737 	0.807236	0.843369
92 	40    	0.817472	0.0102737 	0.807236	0.843369
93 	40    	0.817472	0.0102737 	0.807236	0.843369
94 	40    	0.817472	0.0102737 	0.807236	0.843369
95 	40    	0.817472	0.0102737 	0.807236	0.843369
96 	40    	0.818677	0.0104144 	0.807236	0.843369
97 	40    	0.818677	0.0104144 	0.807236	0.843369
98 	40    	0.818677	0.0104144 	0.807236	0.843369
99 	40    	0.819881	0.0104148 	0.807236	0.843369
100	40    	0.819881	0.0104148 	0.807236	0.843369
101	40    	0.822291	0.0125629 	0.807236	0.855423
102	40    	0.823495	0.0116026 	0.807236	0.855423
103	40    	0.823495	0.0116026 	0.807236	0.855423
104	40    	0.826505	0.010365  	0.819275	0.855423
105	40    	0.826505	0.010365  	0.819275	0.855423
106	40    	0.826505	0.010365  	0.819275	0.855423
107	40    	0.82771 	0.0108437 	0.819275	0.855423
108	40    	0.82771 	0.0108437 	0.819275	0.855423
109	40    	0.82771 	0.0108437 	0.819275	0.855423
110	40    	0.829517	0.0109599 	0.819275	0.855423
111	40    	0.830722	0.0110912 	0.819275	0.855423
112	40    	0.830722	0.0110912 	0.819275	0.855423
113	40    	0.830722	0.0110912 	0.819275	0.855423
114	40    	0.830722	0.0110912 	0.819275	0.855423
115	40    	0.830722	0.0110912 	0.819275	0.855423
116	40    	0.831325	0.0107759 	0.819275	0.855423
117	40    	0.831325	0.0107759 	0.819275	0.855423
118	40    	0.831927	0.0104161 	0.819275	0.855423
119	40    	0.831927	0.0104161 	0.819275	0.855423
120	40    	0.831927	0.0104161 	0.819275	0.855423
121	40    	0.831927	0.0104161 	0.819275	0.855423
122	40    	0.831927	0.0104161 	0.819275	0.855423
123	40    	0.83253 	0.0100073 	0.819275	0.855423
124	40    	0.83253 	0.0100073 	0.819275	0.855423
125	40    	0.833133	0.00954304	0.819275	0.855423
126	40    	0.835542	0.00874853	0.819275	0.855423
127	40    	0.835542	0.00874853	0.819275	0.855423
128	40    	0.835542	0.00874853	0.819275	0.855423
129	40    	0.835542	0.00874853	0.819275	0.855423
130	40    	0.835542	0.00874853	0.819275	0.855423
131	40    	0.836747	0.00805709	0.819275	0.855423
132	40    	0.836747	0.00805709	0.819275	0.855423
133	40    	0.83735 	0.00712441	0.831329	0.855423
134	40    	0.83735 	0.00712441	0.831329	0.855423
135	40    	0.83735 	0.00712441	0.831329	0.855423
136	40    	0.83735 	0.00712441	0.831329	0.855423
137	40    	0.83735 	0.00712441	0.831329	0.855423
138	40    	0.83735 	0.00712441	0.831329	0.855423
139	40    	0.83735 	0.00712441	0.831329	0.855423
140	40    	0.83735 	0.00712441	0.831329	0.855423
141	40    	0.83735 	0.00712441	0.831329	0.855423
142	40    	0.83735 	0.00712441	0.831329	0.855423
143	40    	0.83735 	0.00712441	0.831329	0.855423
144	40    	0.83735 	0.00712441	0.831329	0.855423
145	40    	0.83735 	0.00712441	0.831329	0.855423
146	40    	0.83735 	0.00712441	0.831329	0.855423
147	40    	0.83735 	0.00712441	0.831329	0.855423
148	40    	0.83735 	0.00712441	0.831329	0.855423
149	40    	0.83735 	0.00712441	0.831329	0.855423
150	40    	0.837952	0.00709887	0.831329	0.855423
151	40    	0.837952	0.00709887	0.831329	0.855423
152	40    	0.837952	0.00709887	0.831329	0.855423
153	40    	0.837952	0.00709887	0.831329	0.855423
154	40    	0.837952	0.00709887	0.831329	0.855423
155	40    	0.837952	0.00709887	0.831329	0.855423
156	40    	0.837952	0.00709887	0.831329	0.855423
157	40    	0.837952	0.00709887	0.831329	0.855423
158	40    	0.837952	0.00709887	0.831329	0.855423
159	40    	0.837952	0.00709887	0.831329	0.855423
160	40    	0.837952	0.00709887	0.831329	0.855423
161	40    	0.837952	0.00709887	0.831329	0.855423
162	40    	0.838554	0.00702182	0.831329	0.855423
163	40    	0.838554	0.00702182	0.831329	0.855423
164	40    	0.838554	0.00702182	0.831329	0.855423
165	40    	0.838554	0.00702182	0.831329	0.855423
166	40    	0.838554	0.00702182	0.831329	0.855423
167	40    	0.838554	0.00702182	0.831329	0.855423
168	40    	0.838554	0.00702182	0.831329	0.855423
169	40    	0.838554	0.00702182	0.831329	0.855423
170	40    	0.838554	0.00702182	0.831329	0.855423
171	40    	0.838554	0.00702182	0.831329	0.855423
172	40    	0.838554	0.00702182	0.831329	0.855423
173	40    	0.838554	0.00702182	0.831329	0.855423
174	40    	0.838554	0.00702182	0.831329	0.855423
175	40    	0.838554	0.00702182	0.831329	0.855423
176	40    	0.840361	0.00923358	0.831329	0.867477
177	40    	0.840361	0.00923358	0.831329	0.867477
178	40    	0.840361	0.00923358	0.831329	0.867477
179	40    	0.840361	0.00923358	0.831329	0.867477
180	40    	0.840361	0.00923358	0.831329	0.867477
181	40    	0.840361	0.00923358	0.831329	0.867477
182	40    	0.840361	0.00923358	0.831329	0.867477
183	40    	0.840361	0.00923358	0.831329	0.867477
184	40    	0.841566	0.00954319	0.831329	0.867477
185	40    	0.841566	0.00954319	0.831329	0.867477
186	40    	0.841566	0.00954319	0.831329	0.867477
187	40    	0.841566	0.00954319	0.831329	0.867477
188	40    	0.841566	0.00954319	0.831329	0.867477
189	40    	0.841566	0.00954319	0.831329	0.867477
190	40    	0.84277 	0.00969449	0.831329	0.867477
191	40    	0.84277 	0.00969449	0.831329	0.867477
192	40    	0.84277 	0.00969449	0.831329	0.867477
193	40    	0.84277 	0.00969449	0.831329	0.867477
194	40    	0.84277 	0.00969449	0.831329	0.867477
195	40    	0.844578	0.0107095 	0.831329	0.867477
196	40    	0.844578	0.0107095 	0.831329	0.867477
197	40    	0.844578	0.0107095 	0.831329	0.867477
198	40    	0.844578	0.0107095 	0.831329	0.867477
199	40    	0.844578	0.0107095 	0.831329	0.867477
200	40    	0.844578	0.0107095 	0.831329	0.867477
201	40    	0.844578	0.0107095 	0.831329	0.867477
202	40    	0.844578	0.0107095 	0.831329	0.867477
203	40    	0.844578	0.0107095 	0.831329	0.867477
204	40    	0.84518 	0.0102776 	0.831329	0.867477
205	40    	0.84518 	0.0102776 	0.831329	0.867477
206	40    	0.84518 	0.0102776 	0.831329	0.867477
207	40    	0.84518 	0.0102776 	0.831329	0.867477
208	40    	0.84518 	0.0102776 	0.831329	0.867477
209	40    	0.84518 	0.0102776 	0.831329	0.867477
210	40    	0.84518 	0.0102776 	0.831329	0.867477
211	40    	0.84518 	0.0102776 	0.831329	0.867477
212	40    	0.84518 	0.0102776 	0.831329	0.867477
213	40    	0.84518 	0.0102776 	0.831329	0.867477
214	40    	0.84518 	0.0102776 	0.831329	0.867477
215	40    	0.846384	0.00999157	0.831329	0.867477
216	40    	0.846384	0.00999157	0.831329	0.867477
217	40    	0.847588	0.00875363	0.831329	0.867477
218	40    	0.847588	0.00875363	0.831329	0.867477
219	40    	0.848793	0.00806387	0.843369	0.867477
220	40    	0.848793	0.00806387	0.843369	0.867477
221	40    	0.848793	0.00806387	0.843369	0.867477
222	40    	0.848793	0.00806387	0.843369	0.867477
223	40    	0.848793	0.00806387	0.843369	0.867477
224	40    	0.848793	0.00806387	0.843369	0.867477
225	40    	0.848793	0.00806387	0.843369	0.867477
226	40    	0.849998	0.00891947	0.843369	0.867477
227	40    	0.849998	0.00891947	0.843369	0.867477
228	40    	0.849998	0.00891947	0.843369	0.867477
229	40    	0.849998	0.00891947	0.843369	0.867477
230	40    	0.849998	0.00891947	0.843369	0.867477
231	40    	0.849998	0.00891947	0.843369	0.867477
232	40    	0.849998	0.00891947	0.843369	0.867477
233	40    	0.849998	0.00891947	0.843369	0.867477
234	40    	0.849998	0.00891947	0.843369	0.867477
235	40    	0.849998	0.00891947	0.843369	0.867477
236	40    	0.850601	0.00885817	0.843369	0.867477
237	40    	0.850601	0.00885817	0.843369	0.867477
238	40    	0.850601	0.00885817	0.843369	0.867477
239	40    	0.850601	0.00885817	0.843369	0.867477
240	40    	0.850601	0.00885817	0.843369	0.867477
241	40    	0.850601	0.00885817	0.843369	0.867477
242	40    	0.850601	0.00885817	0.843369	0.867477
243	40    	0.850601	0.00885817	0.843369	0.867477
244	40    	0.851807	0.00941482	0.843369	0.867477
245	40    	0.851807	0.00941482	0.843369	0.867477
246	40    	0.851807	0.00941482	0.843369	0.867477
247	40    	0.851807	0.00941482	0.843369	0.867477
248	40    	0.851807	0.00941482	0.843369	0.867477
249	40    	0.851807	0.00941482	0.843369	0.867477
250	40    	0.851807	0.00941482	0.843369	0.867477
