gen	nevals	avg     	std       	min     	max     
0  	20    	0.607407	0.0546007 	0.530869	0.703705
1  	40    	0.649383	0.0371215 	0.604935	0.728394
2  	40    	0.679015	0.0270465 	0.629623	0.728394
3  	40    	0.685188	0.0257462 	0.654327	0.728394
4  	40    	0.695064	0.0237769 	0.654327	0.753082
5  	40    	0.698767	0.0228954 	0.679016	0.753082
6  	40    	0.703705	0.0220823 	0.679016	0.753082
7  	40    	0.712347	0.0284481 	0.679016	0.802475
8  	40    	0.720988	0.0260136 	0.679016	0.802475
9  	40    	0.72963 	0.028663  	0.703705	0.802475
10 	40    	0.734567	0.0269078 	0.703705	0.802475
11 	40    	0.737036	0.0250299 	0.703705	0.802475
12 	40    	0.739505	0.0227326 	0.728394	0.802475
13 	40    	0.741974	0.0227324 	0.728394	0.802475
14 	40    	0.746912	0.0219129 	0.728394	0.802475
15 	40    	0.761726	0.0262197 	0.728394	0.827164
16 	40    	0.771602	0.0219142 	0.753082	0.827164
17 	40    	0.77654 	0.0240376 	0.753082	0.827164
18 	40    	0.780244	0.0232973 	0.753082	0.827164
19 	40    	0.788887	0.0213519 	0.753082	0.827164
20 	40    	0.796295	0.0204777 	0.777771	0.827164
21 	40    	0.800001	0.01897   	0.777771	0.827164
22 	40    	0.801236	0.0182739 	0.777771	0.827164
23 	40    	0.808646	0.0172407 	0.777771	0.851852
24 	40    	0.813585	0.0145538 	0.802475	0.851852
25 	40    	0.819757	0.0176313 	0.802475	0.851852
26 	40    	0.822226	0.0167447 	0.802475	0.851852
27 	40    	0.822226	0.0167447 	0.802475	0.851852
28 	40    	0.82346 	0.0161423 	0.802475	0.851852
29 	40    	0.827164	0.0135226 	0.802475	0.851852
30 	40    	0.828398	0.0122825 	0.802475	0.851852
31 	40    	0.833336	0.0106905 	0.827164	0.851852
32 	40    	0.83457 	0.0113138 	0.827164	0.851852
33 	40    	0.838274	0.0145538 	0.827164	0.876541
34 	40    	0.838274	0.0145538 	0.827164	0.876541
35 	40    	0.838274	0.0145538 	0.827164	0.876541
36 	40    	0.838274	0.0145538 	0.827164	0.876541
37 	40    	0.838274	0.0145538 	0.827164	0.876541
38 	40    	0.839508	0.014606  	0.827164	0.876541
39 	40    	0.84568 	0.017238  	0.827164	0.876541
40 	40    	0.849384	0.0172821 	0.827164	0.876541
41 	40    	0.849384	0.0172821 	0.827164	0.876541
42 	40    	0.850618	0.0165156 	0.827164	0.876541
43 	40    	0.85926 	0.0303409 	0.827164	0.975311
44 	40    	0.85926 	0.0303409 	0.827164	0.975311
45 	40    	0.864198	0.0286887 	0.827164	0.975311
46 	40    	0.866666	0.0274952 	0.851852	0.975311
47 	40    	0.866666	0.0274952 	0.851852	0.975311
48 	40    	0.866666	0.0274952 	0.851852	0.975311
49 	40    	0.866666	0.0274952 	0.851852	0.975311
50 	40    	0.866666	0.0274952 	0.851852	0.975311
51 	40    	0.869135	0.0271606 	0.851852	0.975311
52 	40    	0.869135	0.0271606 	0.851852	0.975311
53 	40    	0.869135	0.0271606 	0.851852	0.975311
54 	40    	0.869135	0.0271606 	0.851852	0.975311
55 	40    	0.869135	0.0271606 	0.851852	0.975311
56 	40    	0.871604	0.0277159 	0.851852	0.975311
57 	40    	0.874073	0.0280438 	0.851852	0.975311
58 	40    	0.875307	0.027578  	0.851852	0.975311
59 	40    	0.876542	0.0270479 	0.851852	0.975311
60 	40    	0.879011	0.0257786 	0.851852	0.975311
61 	40    	0.883949	0.0235545 	0.851852	0.975311
62 	40    	0.885183	0.0224617 	0.876541	0.975311
63 	40    	0.885183	0.0224617 	0.876541	0.975311
64 	40    	0.885183	0.0224617 	0.876541	0.975311
65 	40    	0.885183	0.0224617 	0.876541	0.975311
66 	40    	0.888887	0.02648   	0.876541	0.975311
67 	40    	0.891356	0.0274962 	0.876541	0.975311
68 	40    	0.893825	0.0282613 	0.876541	0.975311
69 	40    	0.893825	0.0282613 	0.876541	0.975311
70 	40    	0.898763	0.033036  	0.876541	0.975311
71 	40    	0.898763	0.033036  	0.876541	0.975311
72 	40    	0.901232	0.0321948 	0.876541	0.975311
73 	40    	0.902467	0.0316939 	0.876541	0.975311
74 	40    	0.902467	0.0316939 	0.876541	0.975311
75 	40    	0.907405	0.0320769 	0.876541	0.975311
76 	40    	0.909874	0.0305186 	0.876541	0.975311
77 	40    	0.914812	0.0275805 	0.876541	0.975311
78 	40    	0.914812	0.0275805 	0.876541	0.975311
79 	40    	0.914812	0.0275805 	0.876541	0.975311
80 	40    	0.917281	0.0250315 	0.90123 	0.975311
81 	40    	0.91975 	0.0257522 	0.90123 	0.975311
82 	40    	0.92222 	0.0262218 	0.90123 	0.975311
83 	40    	0.92222 	0.0262218 	0.90123 	0.975311
84 	40    	0.924689	0.0264536 	0.90123 	0.975311
85 	40    	0.924689	0.0264536 	0.90123 	0.975311
86 	40    	0.925924	0.0259003 	0.90123 	0.975311
87 	40    	0.925924	0.0259003 	0.90123 	0.975311
88 	40    	0.925924	0.0259003 	0.90123 	0.975311
89 	40    	0.929627	0.0237832 	0.90123 	0.975311
90 	40    	0.932097	0.023265  	0.90123 	0.975311
91 	40    	0.939504	0.0165225 	0.925919	0.975311
92 	40    	0.939504	0.0165225 	0.925919	0.975311
93 	40    	0.941974	0.017938  	0.925919	0.975311
94 	40    	0.941974	0.017938  	0.925919	0.975311
95 	40    	0.943209	0.017638  	0.925919	0.975311
96 	40    	0.944444	0.0172445 	0.925919	0.975311
97 	40    	0.944444	0.0172445 	0.925919	0.975311
98 	40    	0.944444	0.0172445 	0.925919	0.975311
99 	40    	0.944444	0.0172445 	0.925919	0.975311
100	40    	0.944444	0.0172445 	0.925919	0.975311
101	40    	0.944444	0.0172445 	0.925919	0.975311
102	40    	0.944444	0.0172445 	0.925919	0.975311
103	40    	0.948149	0.017288  	0.925919	0.975311
104	40    	0.948149	0.017288  	0.925919	0.975311
105	40    	0.948149	0.017288  	0.925919	0.975311
106	40    	0.949384	0.016521  	0.925919	0.975311
107	40    	0.949384	0.016521  	0.925919	0.975311
108	40    	0.949384	0.016521  	0.925919	0.975311
109	40    	0.949384	0.016521  	0.925919	0.975311
110	40    	0.949384	0.016521  	0.925919	0.975311
111	40    	0.95062 	0.0156193 	0.925919	0.975311
112	40    	0.951855	0.0145579 	0.925919	0.975311
113	40    	0.951855	0.0145579 	0.925919	0.975311
114	40    	0.954325	0.0117776 	0.925919	0.975311
115	40    	0.954325	0.0117776 	0.925919	0.975311
116	40    	0.95556 	0.00987549	0.950623	0.975311
117	40    	0.958029	0.0113138 	0.950623	0.975311
118	40    	0.959264	0.0117758 	0.950623	0.975311
119	40    	0.960498	0.012095  	0.950623	0.975311
120	40    	0.960498	0.012095  	0.950623	0.975311
121	40    	0.960498	0.012095  	0.950623	0.975311
122	40    	0.960498	0.012095  	0.950623	0.975311
123	40    	0.960498	0.012095  	0.950623	0.975311
124	40    	0.960498	0.012095  	0.950623	0.975311
125	40    	0.960498	0.012095  	0.950623	0.975311
126	40    	0.960498	0.012095  	0.950623	0.975311
127	40    	0.960498	0.012095  	0.950623	0.975311
128	40    	0.960498	0.012095  	0.950623	0.975311
129	40    	0.964201	0.0122825 	0.950623	0.975311
130	40    	0.964201	0.0122825 	0.950623	0.975311
131	40    	0.964201	0.0122825 	0.950623	0.975311
132	40    	0.964201	0.0122825 	0.950623	0.975311
133	40    	0.964201	0.0122825 	0.950623	0.975311
134	40    	0.965436	0.012095  	0.950623	0.975311
135	40    	0.965436	0.012095  	0.950623	0.975311
136	40    	0.965436	0.012095  	0.950623	0.975311
137	40    	0.965436	0.012095  	0.950623	0.975311
138	40    	0.965436	0.012095  	0.950623	0.975311
139	40    	0.965436	0.012095  	0.950623	0.975311
140	40    	0.965436	0.012095  	0.950623	0.975311
141	40    	0.96667 	0.0117758 	0.950623	0.975311
142	40    	0.96667 	0.0117758 	0.950623	0.975311
143	40    	0.96667 	0.0117758 	0.950623	0.975311
144	40    	0.96667 	0.0117758 	0.950623	0.975311
145	40    	0.96667 	0.0117758 	0.950623	0.975311
146	40    	0.96667 	0.0117758 	0.950623	0.975311
147	40    	0.96667 	0.0117758 	0.950623	0.975311
148	40    	0.96667 	0.0117758 	0.950623	0.975311
149	40    	0.96667 	0.0117758 	0.950623	0.975311
150	40    	0.96667 	0.0117758 	0.950623	0.975311
151	40    	0.96667 	0.0117758 	0.950623	0.975311
152	40    	0.967905	0.0113138 	0.950623	0.975311
153	40    	0.967905	0.0113138 	0.950623	0.975311
154	40    	0.967905	0.0113138 	0.950623	0.975311
155	40    	0.967905	0.0113138 	0.950623	0.975311
156	40    	0.967905	0.0113138 	0.950623	0.975311
157	40    	0.967905	0.0113138 	0.950623	0.975311
158	40    	0.970374	0.00987549	0.950623	0.975311
159	40    	0.971608	0.00881564	0.950623	0.975311
160	40    	0.972842	0.00740662	0.950623	0.975311
161	40    	0.972842	0.00740662	0.950623	0.975311
162	40    	0.972842	0.00740662	0.950623	0.975311
163	40    	0.972842	0.00740662	0.950623	0.975311
164	40    	0.974077	0.00538078	0.950623	0.975311
165	40    	0.975311	0         	0.975311	0.975311
166	40    	0.975311	0         	0.975311	0.975311
167	40    	0.975311	0         	0.975311	0.975311
168	40    	0.975311	0         	0.975311	0.975311
169	40    	0.975311	0         	0.975311	0.975311
170	40    	0.975311	0         	0.975311	0.975311
171	40    	0.975311	0         	0.975311	0.975311
172	40    	0.975311	0         	0.975311	0.975311
173	40    	0.975311	0         	0.975311	0.975311
174	40    	0.975311	0         	0.975311	0.975311
175	40    	0.975311	0         	0.975311	0.975311
176	40    	0.975311	0         	0.975311	0.975311
177	40    	0.975311	0         	0.975311	0.975311
178	40    	0.975311	0         	0.975311	0.975311
179	40    	0.975311	0         	0.975311	0.975311
180	40    	0.975311	0         	0.975311	0.975311
181	40    	0.975311	0         	0.975311	0.975311
182	40    	0.975311	0         	0.975311	0.975311
183	40    	0.975311	0         	0.975311	0.975311
184	40    	0.975311	0         	0.975311	0.975311
185	40    	0.975311	0         	0.975311	0.975311
186	40    	0.975311	0         	0.975311	0.975311
187	40    	0.975311	0         	0.975311	0.975311
188	40    	0.975311	0         	0.975311	0.975311
189	40    	0.975311	0         	0.975311	0.975311
190	40    	0.975311	0         	0.975311	0.975311
191	40    	0.975311	0         	0.975311	0.975311
192	40    	0.975311	0         	0.975311	0.975311
193	40    	0.975311	0         	0.975311	0.975311
194	40    	0.975311	0         	0.975311	0.975311
195	40    	0.975311	0         	0.975311	0.975311
196	40    	0.975311	0         	0.975311	0.975311
197	40    	0.975311	0         	0.975311	0.975311
198	40    	0.975311	0         	0.975311	0.975311
199	40    	0.975311	0         	0.975311	0.975311
200	40    	0.975311	0         	0.975311	0.975311
201	40    	0.975311	0         	0.975311	0.975311
202	40    	0.975311	0         	0.975311	0.975311
203	40    	0.975311	0         	0.975311	0.975311
204	40    	0.975311	0         	0.975311	0.975311
205	40    	0.975311	0         	0.975311	0.975311
206	40    	0.975311	0         	0.975311	0.975311
207	40    	0.975311	0         	0.975311	0.975311
208	40    	0.975311	0         	0.975311	0.975311
209	40    	0.975311	0         	0.975311	0.975311
210	40    	0.975311	0         	0.975311	0.975311
211	40    	0.975311	0         	0.975311	0.975311
212	40    	0.975311	0         	0.975311	0.975311
213	40    	0.975311	0         	0.975311	0.975311
214	40    	0.975311	0         	0.975311	0.975311
215	40    	0.975311	0         	0.975311	0.975311
216	40    	0.975311	0         	0.975311	0.975311
217	40    	0.975311	0         	0.975311	0.975311
218	40    	0.975311	0         	0.975311	0.975311
219	40    	0.975311	0         	0.975311	0.975311
220	40    	0.975311	0         	0.975311	0.975311
221	40    	0.975311	0         	0.975311	0.975311
222	40    	0.975311	0         	0.975311	0.975311
223	40    	0.975311	0         	0.975311	0.975311
224	40    	0.975311	0         	0.975311	0.975311
225	40    	0.975311	0         	0.975311	0.975311
226	40    	0.975311	0         	0.975311	0.975311
227	40    	0.975311	0         	0.975311	0.975311
228	40    	0.975311	0         	0.975311	0.975311
229	40    	0.975311	0         	0.975311	0.975311
230	40    	0.975311	0         	0.975311	0.975311
231	40    	0.975311	0         	0.975311	0.975311
232	40    	0.975311	0         	0.975311	0.975311
233	40    	0.975311	0         	0.975311	0.975311
234	40    	0.975311	0         	0.975311	0.975311
235	40    	0.975311	0         	0.975311	0.975311
236	40    	0.975311	0         	0.975311	0.975311
237	40    	0.975311	0         	0.975311	0.975311
238	40    	0.975311	0         	0.975311	0.975311
239	40    	0.975311	0         	0.975311	0.975311
240	40    	0.975311	0         	0.975311	0.975311
241	40    	0.975311	0         	0.975311	0.975311
242	40    	0.975311	0         	0.975311	0.975311
243	40    	0.975311	0         	0.975311	0.975311
244	40    	0.975311	0         	0.975311	0.975311
245	40    	0.975311	0         	0.975311	0.975311
246	40    	0.975311	0         	0.975311	0.975311
247	40    	0.975311	0         	0.975311	0.975311
248	40    	0.975311	0         	0.975311	0.975311
249	40    	0.975311	0         	0.975311	0.975311
250	40    	0.975311	0         	0.975311	0.975311
