Run:0 Evals:10000 MES:10000.0 MAD:0.0 Failure:1 Best:0.671539 Solution:1
Run:1 Evals:10000 MES:10000.0 MAD:0.0 Failure:1 Best:0.678833 Solution:1
Run:2 Evals:10000 MES:10000.0 MAD:0.0 Failure:1 Best:0.669098 Solution:1
Run:3 Evals:10000 MES:10000.0 MAD:0.0 Failure:1 Best:0.678696 Solution:1
Run:4 Evals:10000 MES:10000.0 MAD:0.0 Failure:1 Best:0.675095 Solution:1
Run:5 Evals:10000 MES:10000.0 MAD:0.0 Failure:1 Best:0.6875 Solution:1
Run:6 Evals:10000 MES:10000.0 MAD:0.0 Failure:1 Best:0.698532 Solution:1
Run:7 Evals:10000 MES:10000.0 MAD:0.0 Failure:1 Best:0.669067 Solution:1
Run:8 Evals:10000 MES:10000.0 MAD:0.0 Failure:1 Best:0.669098 Solution:1
Run:9 Evals:10000 MES:10000.0 MAD:0.0 Failure:1 Best:0.667877 Solution:1
