gen	nevals	avg     	std	min     	max     
0  	1     	0.616516	0  	0.616516	0.616516
1  	2     	0.616516	0  	0.616516	0.616516
2  	2     	0.616516	0  	0.616516	0.616516
3  	2     	0.619171	0  	0.619171	0.619171
4  	2     	0.619171	0  	0.619171	0.619171
5  	2     	0.619171	0  	0.619171	0.619171
