gen	nevals	avg     	std	min     	max     
0  	1     	0.605835	0  	0.605835	0.605835
1  	2     	0.605835	0  	0.605835	0.605835
2  	2     	0.605835	0  	0.605835	0.605835
3  	2     	0.605835	0  	0.605835	0.605835
4  	2     	0.605835	0  	0.605835	0.605835
5  	2     	0.605835	0  	0.605835	0.605835
6  	2     	0.609482	0  	0.609482	0.609482
7  	2     	0.609482	0  	0.609482	0.609482
8  	2     	0.609482	0  	0.609482	0.609482
9  	2     	0.609482	0  	0.609482	0.609482
10 	2     	0.609482	0  	0.609482	0.609482
11 	2     	0.616791	0  	0.616791	0.616791
12 	2     	0.627731	0  	0.627731	0.627731
13 	2     	0.627731	0  	0.627731	0.627731
14 	2     	0.627731	0  	0.627731	0.627731
15 	2     	0.627731	0  	0.627731	0.627731
16 	2     	0.627731	0  	0.627731	0.627731
17 	2     	0.627731	0  	0.627731	0.627731
18 	2     	0.627731	0  	0.627731	0.627731
19 	2     	0.63504 	0  	0.63504 	0.63504 
20 	2     	0.63504 	0  	0.63504 	0.63504 
21 	2     	0.63504 	0  	0.63504 	0.63504 
22 	2     	0.63504 	0  	0.63504 	0.63504 
23 	2     	0.63504 	0  	0.63504 	0.63504 
24 	2     	0.63504 	0  	0.63504 	0.63504 
25 	2     	0.63504 	0  	0.63504 	0.63504 
26 	2     	0.638687	0  	0.638687	0.638687
27 	2     	0.638687	0  	0.638687	0.638687
28 	2     	0.638687	0  	0.638687	0.638687
29 	2     	0.638687	0  	0.638687	0.638687
30 	2     	0.645981	0  	0.645981	0.645981
31 	2     	0.645981	0  	0.645981	0.645981
32 	2     	0.645981	0  	0.645981	0.645981
33 	2     	0.645981	0  	0.645981	0.645981
34 	2     	0.645981	0  	0.645981	0.645981
35 	2     	0.645981	0  	0.645981	0.645981
36 	2     	0.645981	0  	0.645981	0.645981
37 	2     	0.645981	0  	0.645981	0.645981
38 	2     	0.645981	0  	0.645981	0.645981
39 	2     	0.645981	0  	0.645981	0.645981
40 	2     	0.645981	0  	0.645981	0.645981
41 	2     	0.645981	0  	0.645981	0.645981
42 	2     	0.645981	0  	0.645981	0.645981
43 	2     	0.656937	0  	0.656937	0.656937
44 	2     	0.656937	0  	0.656937	0.656937
45 	2     	0.66423 	0  	0.66423 	0.66423 
46 	2     	0.66423 	0  	0.66423 	0.66423 
47 	2     	0.66423 	0  	0.66423 	0.66423 
48 	2     	0.66423 	0  	0.66423 	0.66423 
49 	2     	0.667877	0  	0.667877	0.667877
50 	2     	0.667877	0  	0.667877	0.667877
