gen	nevals	avg     	std	min     	max     
0  	1     	0.602417	0  	0.602417	0.602417
1  	2     	0.602417	0  	0.602417	0.602417
2  	2     	0.602417	0  	0.602417	0.602417
3  	2     	0.602417	0  	0.602417	0.602417
4  	2     	0.602417	0  	0.602417	0.602417
5  	2     	0.602417	0  	0.602417	0.602417
