gen	nevals	avg     	std	min     	max     
0  	1     	0.597229	0  	0.597229	0.597229
1  	2     	0.629623	0  	0.629623	0.629623
2  	2     	0.629623	0  	0.629623	0.629623
3  	2     	0.629623	0  	0.629623	0.629623
4  	2     	0.629623	0  	0.629623	0.629623
5  	2     	0.629623	0  	0.629623	0.629623
6  	2     	0.629623	0  	0.629623	0.629623
7  	2     	0.629623	0  	0.629623	0.629623
8  	2     	0.629623	0  	0.629623	0.629623
9  	2     	0.634262	0  	0.634262	0.634262
10 	2     	0.634262	0  	0.634262	0.634262
11 	2     	0.634262	0  	0.634262	0.634262
12 	2     	0.634262	0  	0.634262	0.634262
13 	2     	0.634262	0  	0.634262	0.634262
14 	2     	0.634262	0  	0.634262	0.634262
15 	2     	0.634262	0  	0.634262	0.634262
16 	2     	0.634262	0  	0.634262	0.634262
17 	2     	0.634262	0  	0.634262	0.634262
18 	2     	0.634262	0  	0.634262	0.634262
19 	2     	0.634262	0  	0.634262	0.634262
20 	2     	0.638885	0  	0.638885	0.638885
21 	2     	0.638885	0  	0.638885	0.638885
22 	2     	0.638885	0  	0.638885	0.638885
23 	2     	0.638885	0  	0.638885	0.638885
24 	2     	0.638885	0  	0.638885	0.638885
25 	2     	0.638885	0  	0.638885	0.638885
26 	2     	0.638885	0  	0.638885	0.638885
27 	2     	0.638885	0  	0.638885	0.638885
28 	2     	0.643524	0  	0.643524	0.643524
29 	2     	0.643524	0  	0.643524	0.643524
30 	2     	0.643524	0  	0.643524	0.643524
31 	2     	0.643524	0  	0.643524	0.643524
32 	2     	0.643524	0  	0.643524	0.643524
33 	2     	0.643524	0  	0.643524	0.643524
34 	2     	0.643524	0  	0.643524	0.643524
35 	2     	0.643524	0  	0.643524	0.643524
36 	2     	0.643524	0  	0.643524	0.643524
37 	2     	0.666672	0  	0.666672	0.666672
38 	2     	0.666672	0  	0.666672	0.666672
39 	2     	0.666672	0  	0.666672	0.666672
40 	2     	0.666672	0  	0.666672	0.666672
41 	2     	0.666672	0  	0.666672	0.666672
42 	2     	0.666672	0  	0.666672	0.666672
43 	2     	0.666672	0  	0.666672	0.666672
44 	2     	0.671295	0  	0.671295	0.671295
45 	2     	0.671295	0  	0.671295	0.671295
46 	2     	0.671295	0  	0.671295	0.671295
47 	2     	0.671295	0  	0.671295	0.671295
48 	2     	0.671295	0  	0.671295	0.671295
49 	2     	0.671295	0  	0.671295	0.671295
50 	2     	0.671295	0  	0.671295	0.671295
