gen	nevals	avg     	std	min     	max     
0  	1     	0.631836	0  	0.631836	0.631836
1  	2     	0.641785	0  	0.641785	0.641785
2  	2     	0.651749	0  	0.651749	0.651749
3  	2     	0.651749	0  	0.651749	0.651749
4  	2     	0.651749	0  	0.651749	0.651749
5  	2     	0.651749	0  	0.651749	0.651749
6  	2     	0.651749	0  	0.651749	0.651749
7  	2     	0.651749	0  	0.651749	0.651749
8  	2     	0.651749	0  	0.651749	0.651749
9  	2     	0.651749	0  	0.651749	0.651749
10 	2     	0.651749	0  	0.651749	0.651749
11 	2     	0.651749	0  	0.651749	0.651749
12 	2     	0.651749	0  	0.651749	0.651749
13 	2     	0.651749	0  	0.651749	0.651749
14 	2     	0.651749	0  	0.651749	0.651749
15 	2     	0.651749	0  	0.651749	0.651749
16 	2     	0.661697	0  	0.661697	0.661697
17 	2     	0.661697	0  	0.661697	0.661697
18 	2     	0.661697	0  	0.661697	0.661697
19 	2     	0.661697	0  	0.661697	0.661697
20 	2     	0.661697	0  	0.661697	0.661697
21 	2     	0.671646	0  	0.671646	0.671646
22 	2     	0.671646	0  	0.671646	0.671646
23 	2     	0.671646	0  	0.671646	0.671646
24 	2     	0.671646	0  	0.671646	0.671646
25 	2     	0.671646	0  	0.671646	0.671646
26 	2     	0.671646	0  	0.671646	0.671646
27 	2     	0.681595	0  	0.681595	0.681595
28 	2     	0.681595	0  	0.681595	0.681595
29 	2     	0.681595	0  	0.681595	0.681595
30 	2     	0.681595	0  	0.681595	0.681595
31 	2     	0.681595	0  	0.681595	0.681595
32 	2     	0.681595	0  	0.681595	0.681595
33 	2     	0.681595	0  	0.681595	0.681595
34 	2     	0.681595	0  	0.681595	0.681595
35 	2     	0.681595	0  	0.681595	0.681595
36 	2     	0.681595	0  	0.681595	0.681595
37 	2     	0.681595	0  	0.681595	0.681595
38 	2     	0.681595	0  	0.681595	0.681595
39 	2     	0.681595	0  	0.681595	0.681595
40 	2     	0.681595	0  	0.681595	0.681595
41 	2     	0.681595	0  	0.681595	0.681595
42 	2     	0.681595	0  	0.681595	0.681595
43 	2     	0.681595	0  	0.681595	0.681595
44 	2     	0.681595	0  	0.681595	0.681595
45 	2     	0.691544	0  	0.691544	0.691544
46 	2     	0.691544	0  	0.691544	0.691544
47 	2     	0.691544	0  	0.691544	0.691544
48 	2     	0.691544	0  	0.691544	0.691544
49 	2     	0.691544	0  	0.691544	0.691544
50 	2     	0.711441	0  	0.711441	0.711441
