gen	nevals	avg     	std	min     	max     
0  	1     	0.627731	0  	0.627731	0.627731
1  	2     	0.627731	0  	0.627731	0.627731
2  	2     	0.627731	0  	0.627731	0.627731
3  	2     	0.627731	0  	0.627731	0.627731
4  	2     	0.627731	0  	0.627731	0.627731
5  	2     	0.627731	0  	0.627731	0.627731
