gen	nevals	avg     	std	min     	max     
0  	1     	0.592239	0  	0.592239	0.592239
1  	2     	0.592239	0  	0.592239	0.592239
2  	2     	0.597092	0  	0.597092	0.597092
3  	2     	0.601944	0  	0.601944	0.601944
4  	2     	0.601944	0  	0.601944	0.601944
5  	2     	0.601944	0  	0.601944	0.601944
