gen	nevals	avg     	std	min     	max     
0  	1     	0.548386	0  	0.548386	0.548386
1  	2     	0.556458	0  	0.556458	0.556458
2  	2     	0.588715	0  	0.588715	0.588715
3  	2     	0.596771	0  	0.596771	0.596771
4  	2     	0.6129  	0  	0.6129  	0.6129  
5  	2     	0.6129  	0  	0.6129  	0.6129  
6  	2     	0.6129  	0  	0.6129  	0.6129  
7  	2     	0.6129  	0  	0.6129  	0.6129  
8  	2     	0.6129  	0  	0.6129  	0.6129  
9  	2     	0.6129  	0  	0.6129  	0.6129  
10 	2     	0.6129  	0  	0.6129  	0.6129  
11 	2     	0.6129  	0  	0.6129  	0.6129  
12 	2     	0.6371  	0  	0.6371  	0.6371  
13 	2     	0.6371  	0  	0.6371  	0.6371  
14 	2     	0.6371  	0  	0.6371  	0.6371  
15 	2     	0.6371  	0  	0.6371  	0.6371  
16 	2     	0.6371  	0  	0.6371  	0.6371  
17 	2     	0.6371  	0  	0.6371  	0.6371  
18 	2     	0.6371  	0  	0.6371  	0.6371  
19 	2     	0.6371  	0  	0.6371  	0.6371  
20 	2     	0.6371  	0  	0.6371  	0.6371  
21 	2     	0.6371  	0  	0.6371  	0.6371  
22 	2     	0.653229	0  	0.653229	0.653229
23 	2     	0.653229	0  	0.653229	0.653229
24 	2     	0.653229	0  	0.653229	0.653229
25 	2     	0.653229	0  	0.653229	0.653229
26 	2     	0.653229	0  	0.653229	0.653229
27 	2     	0.653229	0  	0.653229	0.653229
28 	2     	0.653229	0  	0.653229	0.653229
29 	2     	0.653229	0  	0.653229	0.653229
30 	2     	0.653229	0  	0.653229	0.653229
31 	2     	0.653229	0  	0.653229	0.653229
32 	2     	0.653229	0  	0.653229	0.653229
33 	2     	0.653229	0  	0.653229	0.653229
34 	2     	0.653229	0  	0.653229	0.653229
35 	2     	0.653229	0  	0.653229	0.653229
36 	2     	0.661285	0  	0.661285	0.661285
37 	2     	0.661285	0  	0.661285	0.661285
38 	2     	0.661285	0  	0.661285	0.661285
39 	2     	0.661285	0  	0.661285	0.661285
40 	2     	0.661285	0  	0.661285	0.661285
41 	2     	0.661285	0  	0.661285	0.661285
42 	2     	0.661285	0  	0.661285	0.661285
43 	2     	0.661285	0  	0.661285	0.661285
44 	2     	0.661285	0  	0.661285	0.661285
45 	2     	0.661285	0  	0.661285	0.661285
46 	2     	0.661285	0  	0.661285	0.661285
47 	2     	0.661285	0  	0.661285	0.661285
48 	2     	0.661285	0  	0.661285	0.661285
49 	2     	0.661285	0  	0.661285	0.661285
50 	2     	0.661285	0  	0.661285	0.661285
