gen	nevals	avg     	std	min     	max     
0  	1     	0.569336	0  	0.569336	0.569336
1  	2     	0.572998	0  	0.572998	0.572998
2  	2     	0.572998	0  	0.572998	0.572998
3  	2     	0.572998	0  	0.572998	0.572998
4  	2     	0.576645	0  	0.576645	0.576645
5  	2     	0.594894	0  	0.594894	0.594894
6  	2     	0.594894	0  	0.594894	0.594894
7  	2     	0.594894	0  	0.594894	0.594894
8  	2     	0.598541	0  	0.598541	0.598541
9  	2     	0.598541	0  	0.598541	0.598541
10 	2     	0.624084	0  	0.624084	0.624084
11 	2     	0.624084	0  	0.624084	0.624084
12 	2     	0.624084	0  	0.624084	0.624084
13 	2     	0.624084	0  	0.624084	0.624084
14 	2     	0.624084	0  	0.624084	0.624084
15 	2     	0.624084	0  	0.624084	0.624084
16 	2     	0.624084	0  	0.624084	0.624084
17 	2     	0.624084	0  	0.624084	0.624084
18 	2     	0.624084	0  	0.624084	0.624084
19 	2     	0.627731	0  	0.627731	0.627731
20 	2     	0.63504 	0  	0.63504 	0.63504 
21 	2     	0.63504 	0  	0.63504 	0.63504 
22 	2     	0.638687	0  	0.638687	0.638687
23 	2     	0.638687	0  	0.638687	0.638687
24 	2     	0.638687	0  	0.638687	0.638687
25 	2     	0.638687	0  	0.638687	0.638687
26 	2     	0.638687	0  	0.638687	0.638687
27 	2     	0.638687	0  	0.638687	0.638687
28 	2     	0.638687	0  	0.638687	0.638687
29 	2     	0.638687	0  	0.638687	0.638687
30 	2     	0.638687	0  	0.638687	0.638687
31 	2     	0.638687	0  	0.638687	0.638687
32 	2     	0.638687	0  	0.638687	0.638687
33 	2     	0.645981	0  	0.645981	0.645981
34 	2     	0.649628	0  	0.649628	0.649628
35 	2     	0.649628	0  	0.649628	0.649628
36 	2     	0.649628	0  	0.649628	0.649628
37 	2     	0.649628	0  	0.649628	0.649628
38 	2     	0.649628	0  	0.649628	0.649628
39 	2     	0.649628	0  	0.649628	0.649628
40 	2     	0.649628	0  	0.649628	0.649628
41 	2     	0.649628	0  	0.649628	0.649628
42 	2     	0.649628	0  	0.649628	0.649628
43 	2     	0.65329 	0  	0.65329 	0.65329 
44 	2     	0.65329 	0  	0.65329 	0.65329 
45 	2     	0.65329 	0  	0.65329 	0.65329 
46 	2     	0.65329 	0  	0.65329 	0.65329 
47 	2     	0.65329 	0  	0.65329 	0.65329 
48 	2     	0.65329 	0  	0.65329 	0.65329 
49 	2     	0.65329 	0  	0.65329 	0.65329 
50 	2     	0.65329 	0  	0.65329 	0.65329 
