gen	nevals	avg     	std	min     	max     
0  	1     	0.573105	0  	0.573105	0.573105
1  	2     	0.576019	0  	0.576019	0.576019
2  	2     	0.576019	0  	0.576019	0.576019
3  	2     	0.576019	0  	0.576019	0.576019
4  	2     	0.576019	0  	0.576019	0.576019
5  	2     	0.576019	0  	0.576019	0.576019
