Run:100 Evals:101 MES:101.0 MAD:0.0 FAILURES:101 Best:0.653289794921875 Solution:1.0
Run:101 Evals:101 MES:101.0 MAD:0.0 FAILURES:102 Best:0.6985321044921875 Solution:1.0
Run:102 Evals:101 MES:101.0 MAD:0.0 FAILURES:103 Best:0.694854736328125 Solution:1.0
Run:103 Evals:101 MES:101.0 MAD:0.0 FAILURES:104 Best:0.6474761962890625 Solution:1.0
Run:104 Evals:101 MES:101.0 MAD:0.0 FAILURES:105 Best:0.650909423828125 Solution:1.0
Run:105 Evals:101 MES:101.0 MAD:0.0 FAILURES:106 Best:0.667877197265625 Solution:1.0
Run:106 Evals:101 MES:101.0 MAD:0.0 FAILURES:107 Best:0.66058349609375 Solution:1.0
Run:107 Evals:101 MES:101.0 MAD:0.0 FAILURES:108 Best:0.67999267578125 Solution:1.0
Run:108 Evals:101 MES:101.0 MAD:0.0 FAILURES:109 Best:0.6281585693359375 Solution:1.0
Run:109 Evals:101 MES:101.0 MAD:0.0 FAILURES:110 Best:0.68231201171875 Solution:1.0

