gen	nevals	avg     	std	min     	max     
0  	1     	0.558426	0  	0.558426	0.558426
1  	2     	0.561646	0  	0.561646	0.561646
2  	2     	0.563263	0  	0.563263	0.563263
3  	2     	0.563263	0  	0.563263	0.563263
4  	2     	0.563263	0  	0.563263	0.563263
5  	2     	0.564865	0  	0.564865	0.564865
