gen	nevals	avg     	std	min     	max     
0  	1     	0.613953	0  	0.613953	0.613953
1  	2     	0.61557 	0  	0.61557 	0.61557 
2  	2     	0.61557 	0  	0.61557 	0.61557 
3  	2     	0.620438	0  	0.620438	0.620438
4  	2     	0.620438	0  	0.620438	0.620438
5  	2     	0.620438	0  	0.620438	0.620438
