gen	nevals	avg     	std	min     	max     
0  	1     	0.585785	0  	0.585785	0.585785
1  	2     	0.585785	0  	0.585785	0.585785
2  	2     	0.585785	0  	0.585785	0.585785
3  	2     	0.585785	0  	0.585785	0.585785
4  	2     	0.585785	0  	0.585785	0.585785
5  	2     	0.588242	0  	0.588242	0.588242
