gen	nevals	avg     	std	min     	max     
0  	1     	0.615387	0  	0.615387	0.615387
1  	2     	0.692307	0  	0.692307	0.692307
2  	2     	0.692307	0  	0.692307	0.692307
3  	2     	0.846161	0  	0.846161	0.846161
4  	2     	0.846161	0  	0.846161	0.846161
5  	2     	0.846161	0  	0.846161	0.846161
6  	2     	0.846161	0  	0.846161	0.846161
7  	2     	0.846161	0  	0.846161	0.846161
8  	2     	0.846161	0  	0.846161	0.846161
9  	2     	0.846161	0  	0.846161	0.846161
10 	2     	0.846161	0  	0.846161	0.846161
11 	2     	0.846161	0  	0.846161	0.846161
12 	2     	0.846161	0  	0.846161	0.846161
13 	2     	0.846161	0  	0.846161	0.846161
14 	2     	0.846161	0  	0.846161	0.846161
15 	2     	0.846161	0  	0.846161	0.846161
16 	2     	0.846161	0  	0.846161	0.846161
17 	2     	0.846161	0  	0.846161	0.846161
18 	2     	0.846161	0  	0.846161	0.846161
19 	2     	0.846161	0  	0.846161	0.846161
20 	2     	0.846161	0  	0.846161	0.846161
21 	2     	0.846161	0  	0.846161	0.846161
22 	2     	0.846161	0  	0.846161	0.846161
23 	2     	0.846161	0  	0.846161	0.846161
24 	2     	0.846161	0  	0.846161	0.846161
25 	2     	0.846161	0  	0.846161	0.846161
26 	2     	0.846161	0  	0.846161	0.846161
27 	2     	0.846161	0  	0.846161	0.846161
28 	2     	0.846161	0  	0.846161	0.846161
29 	2     	0.846161	0  	0.846161	0.846161
30 	2     	0.846161	0  	0.846161	0.846161
31 	2     	0.846161	0  	0.846161	0.846161
32 	2     	0.846161	0  	0.846161	0.846161
33 	2     	0.846161	0  	0.846161	0.846161
34 	2     	0.846161	0  	0.846161	0.846161
35 	2     	0.846161	0  	0.846161	0.846161
36 	2     	0.846161	0  	0.846161	0.846161
37 	2     	0.846161	0  	0.846161	0.846161
38 	2     	0.846161	0  	0.846161	0.846161
39 	2     	0.846161	0  	0.846161	0.846161
40 	2     	0.846161	0  	0.846161	0.846161
41 	2     	0.846161	0  	0.846161	0.846161
42 	2     	0.846161	0  	0.846161	0.846161
43 	2     	0.846161	0  	0.846161	0.846161
44 	2     	0.846161	0  	0.846161	0.846161
45 	2     	0.846161	0  	0.846161	0.846161
46 	2     	0.846161	0  	0.846161	0.846161
47 	2     	0.846161	0  	0.846161	0.846161
48 	2     	0.846161	0  	0.846161	0.846161
49 	2     	0.846161	0  	0.846161	0.846161
50 	2     	0.846161	0  	0.846161	0.846161
