gen	nevals	avg     	std	min     	max     
0  	1     	0.666672	0  	0.666672	0.666672
1  	2     	0.666672	0  	0.666672	0.666672
2  	2     	0.666672	0  	0.666672	0.666672
3  	2     	0.666672	0  	0.666672	0.666672
4  	2     	0.685181	0  	0.685181	0.685181
5  	2     	0.685181	0  	0.685181	0.685181
