gen	nevals	avg     	std	min     	max     
0  	1     	0.600006	0  	0.600006	0.600006
1  	2     	0.600006	0  	0.600006	0.600006
2  	2     	0.600006	0  	0.600006	0.600006
3  	2     	0.600006	0  	0.600006	0.600006
4  	2     	0.600006	0  	0.600006	0.600006
5  	2     	0.666672	0  	0.666672	0.666672
