gen	nevals	avg     	std	min     	max     
0  	1     	0.606659	0  	0.606659	0.606659
1  	2     	0.606659	0  	0.606659	0.606659
2  	2     	0.612701	0  	0.612701	0.612701
3  	2     	0.612701	0  	0.612701	0.612701
4  	2     	0.614227	0  	0.614227	0.614227
5  	2     	0.614227	0  	0.614227	0.614227
