gen	nevals	avg     	std	min     	max     
0  	1     	0.602371	0  	0.602371	0.602371
1  	2     	0.608307	0  	0.608307	0.608307
2  	2     	0.608307	0  	0.608307	0.608307
3  	2     	0.608307	0  	0.608307	0.608307
4  	2     	0.608307	0  	0.608307	0.608307
5  	2     	0.608307	0  	0.608307	0.608307
