gen	nevals	avg     	std	min     	max     
0  	1     	0.528458	0  	0.528458	0.528458
1  	2     	0.544708	0  	0.544708	0.544708
2  	2     	0.544708	0  	0.544708	0.544708
3  	2     	0.544708	0  	0.544708	0.544708
4  	2     	0.544708	0  	0.544708	0.544708
5  	2     	0.552841	0  	0.552841	0.552841
6  	2     	0.560974	0  	0.560974	0.560974
7  	2     	0.560974	0  	0.560974	0.560974
8  	2     	0.569107	0  	0.569107	0.569107
9  	2     	0.569107	0  	0.569107	0.569107
10 	2     	0.569107	0  	0.569107	0.569107
11 	2     	0.569107	0  	0.569107	0.569107
12 	2     	0.57724 	0  	0.57724 	0.57724 
13 	2     	0.601624	0  	0.601624	0.601624
14 	2     	0.609756	0  	0.609756	0.609756
15 	2     	0.617889	0  	0.617889	0.617889
16 	2     	0.617889	0  	0.617889	0.617889
17 	2     	0.626022	0  	0.626022	0.626022
18 	2     	0.626022	0  	0.626022	0.626022
19 	2     	0.626022	0  	0.626022	0.626022
20 	2     	0.63414 	0  	0.63414 	0.63414 
21 	2     	0.63414 	0  	0.63414 	0.63414 
22 	2     	0.63414 	0  	0.63414 	0.63414 
23 	2     	0.63414 	0  	0.63414 	0.63414 
24 	2     	0.63414 	0  	0.63414 	0.63414 
25 	2     	0.642273	0  	0.642273	0.642273
26 	2     	0.642273	0  	0.642273	0.642273
27 	2     	0.642273	0  	0.642273	0.642273
28 	2     	0.650406	0  	0.650406	0.650406
29 	2     	0.650406	0  	0.650406	0.650406
30 	2     	0.650406	0  	0.650406	0.650406
31 	2     	0.658539	0  	0.658539	0.658539
32 	2     	0.666672	0  	0.666672	0.666672
33 	2     	0.666672	0  	0.666672	0.666672
34 	2     	0.666672	0  	0.666672	0.666672
35 	2     	0.666672	0  	0.666672	0.666672
36 	2     	0.666672	0  	0.666672	0.666672
37 	2     	0.674789	0  	0.674789	0.674789
38 	2     	0.674789	0  	0.674789	0.674789
39 	2     	0.674789	0  	0.674789	0.674789
40 	2     	0.682922	0  	0.682922	0.682922
41 	2     	0.682922	0  	0.682922	0.682922
42 	2     	0.682922	0  	0.682922	0.682922
43 	2     	0.682922	0  	0.682922	0.682922
44 	2     	0.682922	0  	0.682922	0.682922
45 	2     	0.682922	0  	0.682922	0.682922
46 	2     	0.682922	0  	0.682922	0.682922
47 	2     	0.682922	0  	0.682922	0.682922
48 	2     	0.682922	0  	0.682922	0.682922
49 	2     	0.682922	0  	0.682922	0.682922
50 	2     	0.691055	0  	0.691055	0.691055
