gen	nevals	avg     	std	min     	max     
0  	1     	0.532166	0  	0.532166	0.532166
1  	2     	0.543854	0  	0.543854	0.543854
2  	2     	0.576019	0  	0.576019	0.576019
3  	2     	0.578949	0  	0.578949	0.578949
4  	2     	0.578949	0  	0.578949	0.578949
5  	2     	0.578949	0  	0.578949	0.578949
