gen	nevals	avg     	std	min     	max     
0  	1     	0.590088	0  	0.590088	0.590088
1  	2     	0.5961  	0  	0.5961  	0.5961  
2  	2     	0.5961  	0  	0.5961  	0.5961  
3  	2     	0.5961  	0  	0.5961  	0.5961  
4  	2     	0.5961  	0  	0.5961  	0.5961  
5  	2     	0.5961  	0  	0.5961  	0.5961  
