gen	nevals	avg     	std	min     	max     
0  	1     	0.596237	0  	0.596237	0.596237
1  	2     	0.596237	0  	0.596237	0.596237
2  	2     	0.596237	0  	0.596237	0.596237
3  	2     	0.596237	0  	0.596237	0.596237
4  	2     	0.596237	0  	0.596237	0.596237
5  	2     	0.600006	0  	0.600006	0.600006
