Run:30 Evals:101 MES:101.0 MAD:0.0 FAILURES:31 Best:0.717315673828125 Solution:1.0
Run:31 Evals:101 MES:101.0 MAD:0.0 FAILURES:32 Best:0.686004638671875 Solution:1.0
Run:32 Evals:101 MES:101.0 MAD:0.0 FAILURES:33 Best:0.7122802734375 Solution:1.0
Run:33 Evals:101 MES:101.0 MAD:0.0 FAILURES:34 Best:0.70318603515625 Solution:1.0
Run:34 Evals:101 MES:101.0 MAD:0.0 FAILURES:35 Best:0.7455902099609375 Solution:1.0
Run:35 Evals:101 MES:101.0 MAD:0.0 FAILURES:36 Best:0.7102508544921875 Solution:1.0
Run:36 Evals:101 MES:101.0 MAD:0.0 FAILURES:37 Best:0.6864166259765625 Solution:1.0
Run:37 Evals:101 MES:101.0 MAD:0.0 FAILURES:38 Best:0.7162628173828125 Solution:1.0
Run:38 Evals:101 MES:101.0 MAD:0.0 FAILURES:39 Best:0.7162628173828125 Solution:1.0
Run:39 Evals:101 MES:101.0 MAD:0.0 FAILURES:40 Best:0.6885833740234375 Solution:1.0

