gen	nevals	avg     	std	min     	max     
0  	1     	0.598236	0  	0.598236	0.598236
1  	2     	0.604111	0  	0.604111	0.604111
2  	2     	0.604111	0  	0.604111	0.604111
3  	2     	0.604111	0  	0.604111	0.604111
4  	2     	0.604111	0  	0.604111	0.604111
5  	2     	0.60997 	0  	0.60997 	0.60997 
