gen	nevals	avg  	std     	min	max
0  	20    	41.8 	2.61916 	37 	47 
1  	20    	38.65	2.12779 	34 	42 
2  	20    	37.4 	1.98494 	33 	40 
3  	20    	36.15	2.00686 	31 	39 
4  	20    	35.55	1.62711 	31 	38 
5  	20    	35.45	1.53216 	31 	37 
6  	20    	35.45	1.53216 	31 	37 
7  	20    	35.4 	1.49666 	31 	37 
8  	20    	34.9 	1.44568 	31 	37 
9  	20    	34.8 	1.36382 	31 	37 
10 	20    	34.8 	1.36382 	31 	37 
11 	20    	34.7 	1.26886 	31 	36 
12 	20    	34.65	1.23592 	31 	36 
13 	20    	34.65	1.23592 	31 	36 
14 	20    	34.65	1.23592 	31 	36 
15 	20    	34.65	1.23592 	31 	36 
16 	20    	34.5 	1.1619  	31 	36 
17 	20    	34.45	1.11692 	31 	36 
18 	20    	34.45	1.11692 	31 	36 
19 	20    	34.45	1.11692 	31 	36 
20 	20    	34.35	1.06184 	31 	36 
21 	20    	34.2 	1.02956 	31 	35 
22 	20    	34   	1.22474 	31 	35 
23 	20    	33.95	1.20312 	31 	35 
24 	20    	33.95	1.20312 	31 	35 
25 	20    	33.9 	1.17898 	31 	35 
26 	20    	33.9 	1.17898 	31 	35 
27 	20    	33.8 	1.1225  	31 	35 
28 	20    	33.8 	1.1225  	31 	35 
29 	20    	33.6 	1.24097 	31 	35 
30 	20    	33.45	1.16082 	31 	35 
31 	20    	33.45	1.16082 	31 	35 
32 	20    	33.4 	1.11355 	31 	35 
33 	20    	33.4 	1.11355 	31 	35 
34 	20    	33.3 	1.05357 	31 	34 
35 	20    	33.3 	1.05357 	31 	34 
36 	20    	33.3 	1.05357 	31 	34 
37 	20    	33.25	1.04283 	31 	34 
38 	20    	33.25	1.04283 	31 	34 
39 	20    	33.25	1.04283 	31 	34 
40 	20    	33.25	1.04283 	31 	34 
41 	20    	33.25	1.04283 	31 	34 
42 	20    	33.25	1.04283 	31 	34 
43 	20    	33.1 	1.13578 	31 	34 
44 	20    	33.05	1.11692 	31 	34 
45 	20    	33.05	1.11692 	31 	34 
46 	20    	33   	1.09545 	31 	34 
47 	20    	33   	1.09545 	31 	34 
48 	20    	32.85	1.15217 	31 	34 
49 	20    	32.85	1.15217 	31 	34 
50 	20    	32.85	1.15217 	31 	34 
51 	20    	32.8 	1.1225  	31 	34 
52 	20    	32.8 	1.1225  	31 	34 
53 	20    	32.8 	1.1225  	31 	34 
54 	20    	32.7 	1.1     	31 	34 
55 	20    	32.65	1.06184 	31 	34 
56 	20    	32.65	1.06184 	31 	34 
57 	20    	32.65	1.06184 	31 	34 
58 	20    	32.65	1.06184 	31 	34 
59 	20    	32.6 	1.0198  	31 	34 
60 	20    	32.55	0.973396	31 	34 
61 	20    	32.55	0.973396	31 	34 
62 	20    	32.55	0.973396	31 	34 
63 	20    	32.55	0.973396	31 	34 
64 	20    	32.55	0.973396	31 	34 
65 	20    	32.3 	1.00499 	30 	33 
66 	20    	32.15	1.10793 	30 	33 
67 	20    	32.15	1.10793 	30 	33 
68 	20    	32.15	1.10793 	30 	33 
69 	20    	32.15	1.10793 	30 	33 
70 	20    	32.15	1.10793 	30 	33 
71 	20    	32.15	1.10793 	30 	33 
72 	20    	32.1 	1.09087 	30 	33 
73 	20    	32.1 	1.09087 	30 	33 
74 	20    	32.05	1.07121 	30 	33 
75 	20    	32.05	1.07121 	30 	33 
76 	20    	32.05	1.07121 	30 	33 
77 	20    	32.05	1.07121 	30 	33 
78 	20    	32.05	1.07121 	30 	33 
79 	20    	32.05	1.07121 	30 	33 
80 	20    	32.05	1.07121 	30 	33 
81 	20    	32.05	1.07121 	30 	33 
82 	20    	32.05	1.07121 	30 	33 
83 	20    	32.05	1.07121 	30 	33 
84 	20    	32.05	1.07121 	30 	33 
85 	20    	32.05	1.07121 	30 	33 
86 	20    	32.05	1.07121 	30 	33 
87 	20    	32.05	1.07121 	30 	33 
88 	20    	31.95	1.07121 	30 	33 
89 	20    	31.95	1.07121 	30 	33 
90 	20    	31.95	1.07121 	30 	33 
91 	20    	31.95	1.07121 	30 	33 
92 	20    	31.95	1.07121 	30 	33 
93 	20    	31.95	1.07121 	30 	33 
94 	20    	31.95	1.07121 	30 	33 
95 	20    	31.95	1.07121 	30 	33 
96 	20    	31.95	1.07121 	30 	33 
97 	20    	31.8 	1.02956 	30 	33 
98 	20    	31.8 	1.02956 	30 	33 
99 	20    	31.8 	1.02956 	30 	33 
100	20    	31.8 	1.02956 	30 	33 
101	20    	31.7 	1.00499 	30 	33 
102	20    	31.7 	1.00499 	30 	33 
103	20    	31.7 	1.00499 	30 	33 
104	20    	31.7 	1.00499 	30 	33 
105	20    	31.7 	1.00499 	30 	33 
106	20    	31.7 	1.00499 	30 	33 
107	20    	31.6 	0.969536	30 	33 
108	20    	31.6 	0.969536	30 	33 
109	20    	31.6 	0.969536	30 	33 
110	20    	31.6 	0.969536	30 	33 
111	20    	31.6 	0.969536	30 	33 
112	20    	31.4 	1.06771 	29 	33 
113	20    	31.4 	1.06771 	29 	33 
114	20    	31.4 	1.06771 	29 	33 
115	20    	31.4 	1.06771 	29 	33 
116	20    	31.4 	1.06771 	29 	33 
117	20    	31.4 	1.06771 	29 	33 
118	20    	31.4 	1.06771 	29 	33 
119	20    	31.4 	1.06771 	29 	33 
120	20    	31.4 	1.06771 	29 	33 
121	20    	31.4 	1.06771 	29 	33 
122	20    	31.4 	1.06771 	29 	33 
123	20    	31.4 	1.06771 	29 	33 
124	20    	31.4 	1.06771 	29 	33 
125	20    	31.4 	1.06771 	29 	33 
126	20    	31.3 	1.00499 	29 	33 
127	20    	31.3 	1.00499 	29 	33 
128	20    	31.3 	1.00499 	29 	33 
129	20    	31.3 	1.00499 	29 	33 
130	20    	31.25	0.942072	29 	33 
131	20    	31.25	0.942072	29 	33 
132	20    	31.2 	0.87178 	29 	33 
133	20    	31.2 	0.87178 	29 	33 
134	20    	31.2 	0.87178 	29 	33 
135	20    	31.2 	0.87178 	29 	33 
136	20    	31.2 	0.87178 	29 	33 
137	20    	31.2 	0.87178 	29 	33 
138	20    	31.2 	0.87178 	29 	33 
139	20    	31.2 	0.87178 	29 	33 
140	20    	31.2 	0.87178 	29 	33 
141	20    	31.2 	0.87178 	29 	33 
142	20    	31.2 	0.87178 	29 	33 
143	20    	31.2 	0.87178 	29 	33 
144	20    	31.2 	0.87178 	29 	33 
145	20    	31.2 	0.87178 	29 	33 
146	20    	31.2 	0.87178 	29 	33 
147	20    	31.15	0.792149	29 	32 
148	20    	31.15	0.792149	29 	32 
149	20    	31.15	0.792149	29 	32 
150	20    	31.15	0.792149	29 	32 
151	20    	31.15	0.792149	29 	32 
152	20    	31.15	0.792149	29 	32 
153	20    	31.15	0.792149	29 	32 
154	20    	31.15	0.792149	29 	32 
155	20    	31.15	0.792149	29 	32 
156	20    	31.15	0.792149	29 	32 
157	20    	31.15	0.792149	29 	32 
158	20    	31.15	0.792149	29 	32 
159	20    	31.15	0.792149	29 	32 
160	20    	31.15	0.792149	29 	32 
161	20    	31.15	0.792149	29 	32 
162	20    	31.15	0.792149	29 	32 
163	20    	31.15	0.792149	29 	32 
164	20    	31.15	0.792149	29 	32 
165	20    	31.15	0.792149	29 	32 
166	20    	31.15	0.792149	29 	32 
167	20    	31.15	0.792149	29 	32 
168	20    	31.15	0.792149	29 	32 
169	20    	31.15	0.792149	29 	32 
170	20    	31.15	0.792149	29 	32 
171	20    	31.15	0.792149	29 	32 
172	20    	31.15	0.792149	29 	32 
173	20    	31.15	0.792149	29 	32 
174	20    	31   	0.894427	29 	32 
175	20    	31   	0.894427	29 	32 
176	20    	31   	0.894427	29 	32 
177	20    	31   	0.894427	29 	32 
178	20    	31   	0.894427	29 	32 
179	20    	31   	0.894427	29 	32 
180	20    	31   	0.894427	29 	32 
181	20    	31   	0.894427	29 	32 
182	20    	31   	0.894427	29 	32 
183	20    	31   	0.894427	29 	32 
184	20    	31   	0.894427	29 	32 
185	20    	31   	0.894427	29 	32 
186	20    	31   	0.894427	29 	32 
187	20    	31   	0.894427	29 	32 
188	20    	31   	0.894427	29 	32 
189	20    	31   	0.894427	29 	32 
190	20    	31   	0.894427	29 	32 
191	20    	31   	0.894427	29 	32 
192	20    	31   	0.894427	29 	32 
193	20    	31   	0.894427	29 	32 
194	20    	31   	0.894427	29 	32 
195	20    	31   	0.894427	29 	32 
196	20    	31   	0.894427	29 	32 
197	20    	31   	0.894427	29 	32 
198	20    	31   	0.894427	29 	32 
199	20    	31   	0.894427	29 	32 
200	20    	31   	0.894427	29 	32 
201	20    	31   	0.894427	29 	32 
202	20    	31   	0.894427	29 	32 
203	20    	31   	0.894427	29 	32 
204	20    	31   	0.894427	29 	32 
205	20    	31   	0.894427	29 	32 
206	20    	31   	0.894427	29 	32 
207	20    	31   	0.894427	29 	32 
208	20    	31   	0.894427	29 	32 
209	20    	31   	0.894427	29 	32 
210	20    	30.95	0.864581	29 	32 
211	20    	30.95	0.864581	29 	32 
212	20    	30.95	0.864581	29 	32 
213	20    	30.95	0.864581	29 	32 
214	20    	30.95	0.864581	29 	32 
215	20    	30.95	0.864581	29 	32 
216	20    	30.95	0.864581	29 	32 
217	20    	30.95	0.864581	29 	32 
218	20    	30.95	0.864581	29 	32 
219	20    	30.95	0.864581	29 	32 
220	20    	30.95	0.864581	29 	32 
221	20    	30.95	0.864581	29 	32 
222	20    	30.95	0.864581	29 	32 
223	20    	30.95	0.864581	29 	32 
224	20    	30.95	0.864581	29 	32 
225	20    	30.95	0.864581	29 	32 
226	20    	30.95	0.864581	29 	32 
227	20    	30.95	0.864581	29 	32 
228	20    	30.95	0.864581	29 	32 
229	20    	30.95	0.864581	29 	32 
230	20    	30.95	0.864581	29 	32 
231	20    	30.95	0.864581	29 	32 
232	20    	30.95	0.864581	29 	32 
233	20    	30.95	0.864581	29 	32 
234	20    	30.95	0.864581	29 	32 
235	20    	30.95	0.864581	29 	32 
236	20    	30.95	0.864581	29 	32 
237	20    	30.95	0.864581	29 	32 
238	20    	30.85	0.852936	29 	32 
239	20    	30.85	0.852936	29 	32 
240	20    	30.75	0.829156	29 	32 
241	20    	30.75	0.829156	29 	32 
242	20    	30.75	0.829156	29 	32 
243	20    	30.75	0.829156	29 	32 
244	20    	30.75	0.829156	29 	32 
245	20    	30.75	0.829156	29 	32 
246	20    	30.75	0.829156	29 	32 
247	20    	30.75	0.829156	29 	32 
248	20    	30.75	0.829156	29 	32 
249	20    	30.75	0.829156	29 	32 
250	20    	30.75	0.829156	29 	32 
251	20    	30.75	0.829156	29 	32 
252	20    	30.75	0.829156	29 	32 
253	20    	30.75	0.829156	29 	32 
254	20    	30.75	0.829156	29 	32 
255	20    	30.75	0.829156	29 	32 
256	20    	30.75	0.829156	29 	32 
257	20    	30.75	0.829156	29 	32 
258	20    	30.75	0.829156	29 	32 
259	20    	30.75	0.829156	29 	32 
260	20    	30.75	0.829156	29 	32 
261	20    	30.7 	0.781025	29 	32 
262	20    	30.7 	0.781025	29 	32 
263	20    	30.7 	0.781025	29 	32 
264	20    	30.7 	0.781025	29 	32 
265	20    	30.7 	0.781025	29 	32 
266	20    	30.7 	0.781025	29 	32 
267	20    	30.7 	0.781025	29 	32 
268	20    	30.7 	0.781025	29 	32 
269	20    	30.7 	0.781025	29 	32 
270	20    	30.7 	0.781025	29 	32 
271	20    	30.7 	0.781025	29 	32 
272	20    	30.7 	0.781025	29 	32 
273	20    	30.7 	0.781025	29 	32 
274	20    	30.7 	0.781025	29 	32 
275	20    	30.7 	0.781025	29 	32 
276	20    	30.7 	0.781025	29 	32 
277	20    	30.7 	0.781025	29 	32 
278	20    	30.7 	0.781025	29 	32 
279	20    	30.7 	0.781025	29 	32 
280	20    	30.7 	0.781025	29 	32 
281	20    	30.7 	0.781025	29 	32 
282	20    	30.7 	0.781025	29 	32 
283	20    	30.6 	0.734847	29 	32 
284	20    	30.6 	0.734847	29 	32 
285	20    	30.6 	0.734847	29 	32 
286	20    	30.6 	0.734847	29 	32 
287	20    	30.6 	0.734847	29 	32 
288	20    	30.6 	0.734847	29 	32 
289	20    	30.5 	0.67082 	29 	31 
290	20    	30.5 	0.67082 	29 	31 
291	20    	30.5 	0.67082 	29 	31 
292	20    	30.5 	0.67082 	29 	31 
293	20    	30.5 	0.67082 	29 	31 
294	20    	30.5 	0.67082 	29 	31 
295	20    	30.5 	0.67082 	29 	31 
296	20    	30.5 	0.67082 	29 	31 
297	20    	30.5 	0.67082 	29 	31 
298	20    	30.5 	0.67082 	29 	31 
299	20    	30.5 	0.67082 	29 	31 
300	20    	30.5 	0.67082 	29 	31 
301	20    	30.5 	0.67082 	29 	31 
302	20    	30.5 	0.67082 	29 	31 
303	20    	30.5 	0.67082 	29 	31 
304	20    	30.5 	0.67082 	29 	31 
305	20    	30.5 	0.67082 	29 	31 
306	20    	30.5 	0.67082 	29 	31 
307	20    	30.5 	0.67082 	29 	31 
308	20    	30.5 	0.67082 	29 	31 
309	20    	30.5 	0.67082 	29 	31 
310	20    	30.5 	0.67082 	29 	31 
311	20    	30.5 	0.67082 	29 	31 
312	20    	30.5 	0.67082 	29 	31 
313	20    	30.5 	0.67082 	29 	31 
314	20    	30.5 	0.67082 	29 	31 
315	20    	30.5 	0.67082 	29 	31 
316	20    	30.5 	0.67082 	29 	31 
317	20    	30.5 	0.67082 	29 	31 
318	20    	30.5 	0.67082 	29 	31 
319	20    	30.5 	0.67082 	29 	31 
320	20    	30.5 	0.67082 	29 	31 
321	20    	30.5 	0.67082 	29 	31 
322	20    	30.5 	0.67082 	29 	31 
323	20    	30.5 	0.67082 	29 	31 
324	20    	30.5 	0.67082 	29 	31 
325	20    	30.5 	0.67082 	29 	31 
326	20    	30.5 	0.67082 	29 	31 
327	20    	30.5 	0.67082 	29 	31 
328	20    	30.5 	0.67082 	29 	31 
329	20    	30.5 	0.67082 	29 	31 
330	20    	30.5 	0.67082 	29 	31 
331	20    	30.5 	0.67082 	29 	31 
332	20    	30.5 	0.67082 	29 	31 
333	20    	30.5 	0.67082 	29 	31 
334	20    	30.5 	0.67082 	29 	31 
335	20    	30.5 	0.67082 	29 	31 
336	20    	30.5 	0.67082 	29 	31 
337	20    	30.5 	0.67082 	29 	31 
338	20    	30.5 	0.67082 	29 	31 
339	20    	30.5 	0.67082 	29 	31 
340	20    	30.5 	0.67082 	29 	31 
341	20    	30.5 	0.67082 	29 	31 
342	20    	30.5 	0.67082 	29 	31 
343	20    	30.5 	0.67082 	29 	31 
344	20    	30.5 	0.67082 	29 	31 
345	20    	30.5 	0.67082 	29 	31 
346	20    	30.5 	0.67082 	29 	31 
347	20    	30.5 	0.67082 	29 	31 
348	20    	30.5 	0.67082 	29 	31 
349	20    	30.5 	0.67082 	29 	31 
350	20    	30.5 	0.67082 	29 	31 
351	20    	30.5 	0.67082 	29 	31 
352	20    	30.5 	0.67082 	29 	31 
353	20    	30.5 	0.67082 	29 	31 
354	20    	30.5 	0.67082 	29 	31 
355	20    	30.5 	0.67082 	29 	31 
356	20    	30.5 	0.67082 	29 	31 
357	20    	30.5 	0.67082 	29 	31 
358	20    	30.45	0.668954	29 	31 
359	20    	30.45	0.668954	29 	31 
360	20    	30.45	0.668954	29 	31 
361	20    	30.45	0.668954	29 	31 
362	20    	30.45	0.668954	29 	31 
363	20    	30.45	0.668954	29 	31 
364	20    	30.45	0.668954	29 	31 
365	20    	30.45	0.668954	29 	31 
366	20    	30.45	0.668954	29 	31 
367	20    	30.45	0.668954	29 	31 
368	20    	30.45	0.668954	29 	31 
369	20    	30.45	0.668954	29 	31 
370	20    	30.45	0.668954	29 	31 
371	20    	30.45	0.668954	29 	31 
372	20    	30.45	0.668954	29 	31 
373	20    	30.45	0.668954	29 	31 
374	20    	30.4 	0.663325	29 	31 
375	20    	30.4 	0.663325	29 	31 
376	20    	30.4 	0.663325	29 	31 
377	20    	30.4 	0.663325	29 	31 
378	20    	30.4 	0.663325	29 	31 
379	20    	30.4 	0.663325	29 	31 
380	20    	30.4 	0.663325	29 	31 
381	20    	30.4 	0.663325	29 	31 
382	20    	30.4 	0.663325	29 	31 
383	20    	30.4 	0.663325	29 	31 
384	20    	30.4 	0.663325	29 	31 
385	20    	30.4 	0.663325	29 	31 
386	20    	30.4 	0.663325	29 	31 
387	20    	30.4 	0.663325	29 	31 
388	20    	30.4 	0.663325	29 	31 
389	20    	30.4 	0.663325	29 	31 
390	20    	30.4 	0.663325	29 	31 
391	20    	30.35	0.653835	29 	31 
392	20    	30.35	0.653835	29 	31 
393	20    	30.35	0.653835	29 	31 
394	20    	30.35	0.653835	29 	31 
395	20    	30.35	0.653835	29 	31 
396	20    	30.35	0.653835	29 	31 
397	20    	30.35	0.653835	29 	31 
398	20    	30.35	0.653835	29 	31 
399	20    	30.35	0.653835	29 	31 
400	20    	30.35	0.653835	29 	31 
401	20    	30.35	0.653835	29 	31 
402	20    	30.35	0.653835	29 	31 
403	20    	30.35	0.653835	29 	31 
404	20    	30.35	0.653835	29 	31 
405	20    	30.35	0.653835	29 	31 
406	20    	30.35	0.653835	29 	31 
407	20    	30.35	0.653835	29 	31 
408	20    	30.35	0.653835	29 	31 
409	20    	30.35	0.653835	29 	31 
410	20    	30.35	0.653835	29 	31 
411	20    	30.35	0.653835	29 	31 
412	20    	30.35	0.653835	29 	31 
413	20    	30.35	0.653835	29 	31 
414	20    	30.35	0.653835	29 	31 
415	20    	30.35	0.653835	29 	31 
416	20    	30.35	0.653835	29 	31 
417	20    	30.35	0.653835	29 	31 
418	20    	30.35	0.653835	29 	31 
419	20    	30.35	0.653835	29 	31 
420	20    	30.35	0.653835	29 	31 
421	20    	30.35	0.653835	29 	31 
422	20    	30.35	0.653835	29 	31 
423	20    	30.35	0.653835	29 	31 
424	20    	30.35	0.653835	29 	31 
425	20    	30.35	0.653835	29 	31 
426	20    	30.35	0.653835	29 	31 
427	20    	30.35	0.653835	29 	31 
428	20    	30.35	0.653835	29 	31 
429	20    	30.35	0.653835	29 	31 
430	20    	30.35	0.653835	29 	31 
431	20    	30.35	0.653835	29 	31 
432	20    	30.35	0.653835	29 	31 
433	20    	30.35	0.653835	29 	31 
434	20    	30.35	0.653835	29 	31 
435	20    	30.35	0.653835	29 	31 
436	20    	30.35	0.653835	29 	31 
437	20    	30.2 	0.812404	28 	31 
438	20    	30.2 	0.812404	28 	31 
439	20    	30.2 	0.812404	28 	31 
440	20    	30.2 	0.812404	28 	31 
441	20    	30.2 	0.812404	28 	31 
442	20    	30.2 	0.812404	28 	31 
443	20    	30.2 	0.812404	28 	31 
444	20    	30.2 	0.812404	28 	31 
445	20    	30.2 	0.812404	28 	31 
446	20    	30.2 	0.812404	28 	31 
447	20    	30.2 	0.812404	28 	31 
448	20    	30.2 	0.812404	28 	31 
449	20    	30.2 	0.812404	28 	31 
450	20    	30.2 	0.812404	28 	31 
451	20    	30.2 	0.812404	28 	31 
452	20    	30.2 	0.812404	28 	31 
453	20    	30.2 	0.812404	28 	31 
454	20    	30.2 	0.812404	28 	31 
455	20    	30.2 	0.812404	28 	31 
456	20    	30.2 	0.812404	28 	31 
457	20    	30.2 	0.812404	28 	31 
458	20    	30.2 	0.812404	28 	31 
459	20    	30.2 	0.812404	28 	31 
460	20    	30.2 	0.812404	28 	31 
461	20    	30.2 	0.812404	28 	31 
462	20    	30.2 	0.812404	28 	31 
463	20    	30.2 	0.812404	28 	31 
464	20    	30.2 	0.812404	28 	31 
465	20    	30.2 	0.812404	28 	31 
466	20    	30.2 	0.812404	28 	31 
467	20    	30.2 	0.812404	28 	31 
468	20    	30.2 	0.812404	28 	31 
469	20    	30.2 	0.812404	28 	31 
470	20    	30.2 	0.812404	28 	31 
471	20    	30.2 	0.812404	28 	31 
472	20    	30.2 	0.812404	28 	31 
473	20    	30.2 	0.812404	28 	31 
474	20    	30.2 	0.812404	28 	31 
475	20    	30.2 	0.812404	28 	31 
476	20    	30.2 	0.812404	28 	31 
477	20    	30.2 	0.812404	28 	31 
478	20    	30.2 	0.812404	28 	31 
479	20    	30.2 	0.812404	28 	31 
480	20    	30.2 	0.812404	28 	31 
481	20    	30.2 	0.812404	28 	31 
482	20    	30.2 	0.812404	28 	31 
483	20    	30.2 	0.812404	28 	31 
484	20    	30.2 	0.812404	28 	31 
485	20    	30.2 	0.812404	28 	31 
486	20    	30.2 	0.812404	28 	31 
487	20    	30.2 	0.812404	28 	31 
488	20    	30.2 	0.812404	28 	31 
489	20    	30.2 	0.812404	28 	31 
490	20    	30.2 	0.812404	28 	31 
491	20    	30.2 	0.812404	28 	31 
492	20    	30.2 	0.812404	28 	31 
493	20    	30.2 	0.812404	28 	31 
494	20    	30.2 	0.812404	28 	31 
495	20    	30.2 	0.812404	28 	31 
496	20    	30.2 	0.812404	28 	31 
497	20    	30.2 	0.812404	28 	31 
498	20    	30.2 	0.812404	28 	31 
499	20    	30.2 	0.812404	28 	31 
