gen	nevals	avg  	std     	min	max
0  	20    	50.75	5.37471 	41 	59 
1  	20    	46.2 	2.74955 	41 	51 
2  	20    	45.55	2.31247 	41 	49 
3  	20    	44.4 	1.88149 	41 	47 
4  	20    	44.05	1.62711 	41 	46 
5  	20    	43.6 	1.42829 	41 	46 
6  	20    	43.25	1.33697 	41 	45 
7  	20    	43.1 	1.3     	41 	45 
8  	20    	43.1 	1.3     	41 	45 
9  	20    	42.65	1.23592 	40 	44 
10 	20    	42.6 	1.2     	40 	44 
11 	20    	42.25	1.17792 	40 	44 
12 	20    	42.15	1.10793 	40 	44 
13 	20    	41.95	1.11692 	40 	44 
14 	20    	41.95	1.11692 	40 	44 
15 	20    	41.85	1.01366 	40 	43 
16 	20    	41.85	1.01366 	40 	43 
17 	20    	41.7 	0.9     	40 	43 
18 	20    	41.6 	0.8     	40 	43 
19 	20    	41.45	0.739932	40 	42 
20 	20    	41.3 	0.9     	39 	42 
21 	20    	41.3 	0.9     	39 	42 
22 	20    	41.3 	0.9     	39 	42 
23 	20    	41.3 	0.9     	39 	42 
24 	20    	41.3 	0.9     	39 	42 
25 	20    	41.3 	0.9     	39 	42 
26 	20    	41.25	0.887412	39 	42 
27 	20    	41.25	0.887412	39 	42 
28 	20    	41.25	0.887412	39 	42 
29 	20    	41.25	0.887412	39 	42 
30 	20    	41.25	0.887412	39 	42 
31 	20    	41.25	0.887412	39 	42 
32 	20    	41.25	0.887412	39 	42 
33 	20    	41.25	0.887412	39 	42 
34 	20    	41.25	0.887412	39 	42 
35 	20    	41.25	0.887412	39 	42 
36 	20    	41.25	0.887412	39 	42 
37 	20    	41.25	0.887412	39 	42 
38 	20    	41.25	0.887412	39 	42 
39 	20    	41.25	0.887412	39 	42 
40 	20    	41.25	0.887412	39 	42 
41 	20    	41.25	0.887412	39 	42 
42 	20    	41.25	0.887412	39 	42 
43 	20    	41.25	0.887412	39 	42 
44 	20    	40.95	1.24399 	37 	42 
45 	20    	40.95	1.24399 	37 	42 
46 	20    	40.95	1.24399 	37 	42 
47 	20    	40.85	1.23592 	37 	42 
48 	20    	40.85	1.23592 	37 	42 
49 	20    	40.85	1.23592 	37 	42 
50 	20    	40.85	1.23592 	37 	42 
51 	20    	40.85	1.23592 	37 	42 
52 	20    	40.85	1.23592 	37 	42 
53 	20    	40.85	1.23592 	37 	42 
54 	20    	40.7 	1.26886 	37 	42 
55 	20    	40.7 	1.26886 	37 	42 
56 	20    	40.7 	1.26886 	37 	42 
57 	20    	40.7 	1.26886 	37 	42 
58 	20    	40.6 	1.24097 	37 	42 
59 	20    	40.35	1.19478 	37 	42 
60 	20    	40.35	1.19478 	37 	42 
61 	20    	40.25	1.13468 	37 	42 
62 	20    	40.25	1.13468 	37 	42 
63 	20    	40.25	1.13468 	37 	42 
64 	20    	40.25	1.13468 	37 	42 
65 	20    	40.25	1.13468 	37 	42 
66 	20    	40.25	1.13468 	37 	42 
67 	20    	40.25	1.13468 	37 	42 
68 	20    	40.1 	0.994987	37 	41 
69 	20    	40.1 	0.994987	37 	41 
70 	20    	40.1 	0.994987	37 	41 
71 	20    	40.1 	0.994987	37 	41 
72 	20    	40.1 	0.994987	37 	41 
73 	20    	40.1 	0.994987	37 	41 
74 	20    	40.1 	0.994987	37 	41 
75 	20    	40.1 	0.994987	37 	41 
76 	20    	40   	1       	37 	41 
77 	20    	40   	1       	37 	41 
78 	20    	40   	1       	37 	41 
79 	20    	40   	1       	37 	41 
80 	20    	40   	1       	37 	41 
81 	20    	40   	1       	37 	41 
82 	20    	40   	1       	37 	41 
83 	20    	40   	1       	37 	41 
84 	20    	40   	1       	37 	41 
85 	20    	40   	1       	37 	41 
86 	20    	40   	1       	37 	41 
87 	20    	40   	1       	37 	41 
88 	20    	40   	1       	37 	41 
89 	20    	40   	1       	37 	41 
90 	20    	40   	1       	37 	41 
91 	20    	40   	1       	37 	41 
92 	20    	40   	1       	37 	41 
93 	20    	40   	1       	37 	41 
94 	20    	39.9 	0.994987	37 	41 
95 	20    	39.9 	0.994987	37 	41 
96 	20    	39.9 	0.994987	37 	41 
97 	20    	39.9 	0.994987	37 	41 
98 	20    	39.9 	0.994987	37 	41 
99 	20    	39.9 	0.994987	37 	41 
100	20    	39.9 	0.994987	37 	41 
101	20    	39.75	1.04283 	37 	41 
102	20    	39.75	1.04283 	37 	41 
103	20    	39.75	1.04283 	37 	41 
104	20    	39.75	1.04283 	37 	41 
105	20    	39.75	1.04283 	37 	41 
106	20    	39.75	1.04283 	37 	41 
107	20    	39.75	1.04283 	37 	41 
108	20    	39.75	1.04283 	37 	41 
109	20    	39.75	1.04283 	37 	41 
110	20    	39.75	1.04283 	37 	41 
111	20    	39.65	1.01366 	37 	41 
112	20    	39.65	1.01366 	37 	41 
113	20    	39.55	0.920598	37 	41 
114	20    	39.5 	0.866025	37 	41 
115	20    	39.5 	0.866025	37 	41 
116	20    	39.5 	0.866025	37 	41 
117	20    	39.5 	0.866025	37 	41 
118	20    	39.5 	0.866025	37 	41 
119	20    	39.5 	0.866025	37 	41 
120	20    	39.5 	0.866025	37 	41 
121	20    	39.5 	0.866025	37 	41 
122	20    	39.4 	0.8     	37 	40 
123	20    	39.4 	0.8     	37 	40 
124	20    	39.4 	0.8     	37 	40 
125	20    	39.4 	0.8     	37 	40 
126	20    	39.4 	0.8     	37 	40 
127	20    	39.4 	0.8     	37 	40 
128	20    	39.4 	0.8     	37 	40 
129	20    	39.4 	0.8     	37 	40 
130	20    	39.4 	0.8     	37 	40 
131	20    	39.4 	0.8     	37 	40 
132	20    	39.4 	0.8     	37 	40 
133	20    	39.4 	0.8     	37 	40 
134	20    	39.4 	0.8     	37 	40 
135	20    	39.4 	0.8     	37 	40 
136	20    	39.35	0.792149	37 	40 
137	20    	39.35	0.792149	37 	40 
138	20    	39.35	0.792149	37 	40 
139	20    	39.35	0.792149	37 	40 
140	20    	39.35	0.792149	37 	40 
141	20    	39.35	0.792149	37 	40 
142	20    	39.35	0.792149	37 	40 
143	20    	39.35	0.792149	37 	40 
144	20    	39.35	0.792149	37 	40 
145	20    	39.35	0.792149	37 	40 
146	20    	39.35	0.792149	37 	40 
147	20    	39.2 	0.927362	37 	40 
148	20    	39.2 	0.927362	37 	40 
149	20    	39.2 	0.927362	37 	40 
150	20    	39.2 	0.927362	37 	40 
151	20    	39.2 	0.927362	37 	40 
152	20    	39.2 	0.927362	37 	40 
153	20    	39.2 	0.927362	37 	40 
154	20    	39.2 	0.927362	37 	40 
155	20    	39.2 	0.927362	37 	40 
156	20    	39.2 	0.927362	37 	40 
157	20    	39.2 	0.927362	37 	40 
158	20    	39.2 	0.927362	37 	40 
159	20    	39.2 	0.927362	37 	40 
160	20    	39.2 	0.927362	37 	40 
161	20    	39.2 	0.927362	37 	40 
162	20    	39.2 	0.927362	37 	40 
163	20    	39.2 	0.927362	37 	40 
164	20    	39.2 	0.927362	37 	40 
165	20    	39.2 	0.927362	37 	40 
166	20    	39.1 	0.943398	37 	40 
167	20    	39.1 	0.943398	37 	40 
168	20    	39.1 	0.943398	37 	40 
169	20    	39.1 	0.943398	37 	40 
170	20    	39.1 	0.943398	37 	40 
171	20    	39.1 	0.943398	37 	40 
172	20    	39.1 	0.943398	37 	40 
173	20    	39.1 	0.943398	37 	40 
174	20    	39.1 	0.943398	37 	40 
175	20    	39.1 	0.943398	37 	40 
176	20    	39.1 	0.943398	37 	40 
177	20    	39.1 	0.943398	37 	40 
178	20    	39.1 	0.943398	37 	40 
179	20    	39   	0.948683	37 	40 
180	20    	39   	0.948683	37 	40 
181	20    	39   	0.948683	37 	40 
182	20    	39   	0.948683	37 	40 
183	20    	39   	0.948683	37 	40 
184	20    	39   	0.948683	37 	40 
185	20    	39   	0.948683	37 	40 
186	20    	39   	0.948683	37 	40 
187	20    	39   	0.948683	37 	40 
188	20    	39   	0.948683	37 	40 
189	20    	39   	0.948683	37 	40 
190	20    	39   	0.948683	37 	40 
191	20    	39   	0.948683	37 	40 
192	20    	39   	0.948683	37 	40 
193	20    	39   	0.948683	37 	40 
194	20    	39   	0.948683	37 	40 
195	20    	39   	0.948683	37 	40 
196	20    	39   	0.948683	37 	40 
197	20    	39   	0.948683	37 	40 
198	20    	39   	0.948683	37 	40 
199	20    	39   	0.948683	37 	40 
200	20    	39   	0.948683	37 	40 
201	20    	39   	0.948683	37 	40 
202	20    	39   	0.948683	37 	40 
203	20    	39   	0.948683	37 	40 
204	20    	39   	0.948683	37 	40 
205	20    	39   	0.948683	37 	40 
206	20    	39   	0.948683	37 	40 
207	20    	39   	0.948683	37 	40 
208	20    	39   	0.948683	37 	40 
209	20    	39   	0.948683	37 	40 
210	20    	39   	0.948683	37 	40 
211	20    	39   	0.948683	37 	40 
212	20    	39   	0.948683	37 	40 
213	20    	39   	0.948683	37 	40 
214	20    	39   	0.948683	37 	40 
215	20    	39   	0.948683	37 	40 
216	20    	39   	0.948683	37 	40 
217	20    	39   	0.948683	37 	40 
218	20    	39   	0.948683	37 	40 
219	20    	39   	0.948683	37 	40 
220	20    	39   	0.948683	37 	40 
221	20    	39   	0.948683	37 	40 
222	20    	39   	0.948683	37 	40 
223	20    	39   	0.948683	37 	40 
224	20    	39   	0.948683	37 	40 
225	20    	39   	0.948683	37 	40 
226	20    	39   	0.948683	37 	40 
227	20    	39   	0.948683	37 	40 
228	20    	39   	0.948683	37 	40 
229	20    	39   	0.948683	37 	40 
230	20    	39   	0.948683	37 	40 
231	20    	39   	0.948683	37 	40 
232	20    	39   	0.948683	37 	40 
233	20    	39   	0.948683	37 	40 
234	20    	39   	0.948683	37 	40 
235	20    	39   	0.948683	37 	40 
236	20    	39   	0.948683	37 	40 
237	20    	39   	0.948683	37 	40 
238	20    	39   	0.948683	37 	40 
239	20    	38.9 	0.888819	37 	40 
240	20    	38.9 	0.888819	37 	40 
241	20    	38.9 	0.888819	37 	40 
242	20    	38.9 	0.888819	37 	40 
243	20    	38.9 	0.888819	37 	40 
244	20    	38.9 	0.888819	37 	40 
245	20    	38.9 	0.888819	37 	40 
246	20    	38.9 	0.888819	37 	40 
247	20    	38.9 	0.888819	37 	40 
248	20    	38.9 	0.888819	37 	40 
249	20    	38.9 	0.888819	37 	40 
250	20    	38.9 	0.888819	37 	40 
251	20    	38.9 	0.888819	37 	40 
252	20    	38.9 	0.888819	37 	40 
253	20    	38.9 	0.888819	37 	40 
254	20    	38.9 	0.888819	37 	40 
255	20    	38.9 	0.888819	37 	40 
256	20    	38.9 	0.888819	37 	40 
257	20    	38.85	0.852936	37 	40 
258	20    	38.85	0.852936	37 	40 
259	20    	38.85	0.852936	37 	40 
260	20    	38.85	0.852936	37 	40 
261	20    	38.85	0.852936	37 	40 
262	20    	38.85	0.852936	37 	40 
263	20    	38.85	0.852936	37 	40 
264	20    	38.85	0.852936	37 	40 
265	20    	38.85	0.852936	37 	40 
266	20    	38.85	0.852936	37 	40 
267	20    	38.85	0.852936	37 	40 
268	20    	38.85	0.852936	37 	40 
269	20    	38.85	0.852936	37 	40 
270	20    	38.85	0.852936	37 	40 
271	20    	38.85	0.852936	37 	40 
272	20    	38.85	0.852936	37 	40 
273	20    	38.85	0.852936	37 	40 
274	20    	38.85	0.852936	37 	40 
275	20    	38.85	0.852936	37 	40 
276	20    	38.85	0.852936	37 	40 
277	20    	38.85	0.852936	37 	40 
278	20    	38.85	0.852936	37 	40 
279	20    	38.85	0.852936	37 	40 
280	20    	38.85	0.852936	37 	40 
281	20    	38.85	0.852936	37 	40 
282	20    	38.85	0.852936	37 	40 
283	20    	38.85	0.852936	37 	40 
284	20    	38.85	0.852936	37 	40 
285	20    	38.85	0.852936	37 	40 
286	20    	38.85	0.852936	37 	40 
287	20    	38.85	0.852936	37 	40 
288	20    	38.85	0.852936	37 	40 
289	20    	38.85	0.852936	37 	40 
290	20    	38.85	0.852936	37 	40 
291	20    	38.85	0.852936	37 	40 
292	20    	38.8 	0.812404	37 	40 
293	20    	38.8 	0.812404	37 	40 
294	20    	38.8 	0.812404	37 	40 
295	20    	38.8 	0.812404	37 	40 
296	20    	38.8 	0.812404	37 	40 
297	20    	38.8 	0.812404	37 	40 
298	20    	38.8 	0.812404	37 	40 
299	20    	38.8 	0.812404	37 	40 
300	20    	38.8 	0.812404	37 	40 
301	20    	38.8 	0.812404	37 	40 
302	20    	38.8 	0.812404	37 	40 
303	20    	38.8 	0.812404	37 	40 
304	20    	38.8 	0.812404	37 	40 
305	20    	38.8 	0.812404	37 	40 
306	20    	38.8 	0.812404	37 	40 
307	20    	38.8 	0.812404	37 	40 
308	20    	38.8 	0.812404	37 	40 
309	20    	38.8 	0.812404	37 	40 
310	20    	38.8 	0.812404	37 	40 
311	20    	38.8 	0.812404	37 	40 
312	20    	38.8 	0.812404	37 	40 
313	20    	38.8 	0.812404	37 	40 
314	20    	38.8 	0.812404	37 	40 
315	20    	38.8 	0.812404	37 	40 
316	20    	38.8 	0.812404	37 	40 
317	20    	38.8 	0.812404	37 	40 
318	20    	38.8 	0.812404	37 	40 
319	20    	38.8 	0.812404	37 	40 
320	20    	38.8 	0.812404	37 	40 
321	20    	38.8 	0.812404	37 	40 
322	20    	38.8 	0.812404	37 	40 
323	20    	38.8 	0.812404	37 	40 
324	20    	38.8 	0.812404	37 	40 
325	20    	38.8 	0.812404	37 	40 
326	20    	38.8 	0.812404	37 	40 
327	20    	38.7 	0.781025	37 	40 
328	20    	38.7 	0.781025	37 	40 
329	20    	38.7 	0.781025	37 	40 
330	20    	38.7 	0.781025	37 	40 
331	20    	38.7 	0.781025	37 	40 
332	20    	38.7 	0.781025	37 	40 
333	20    	38.7 	0.781025	37 	40 
334	20    	38.7 	0.781025	37 	40 
335	20    	38.7 	0.781025	37 	40 
336	20    	38.7 	0.781025	37 	40 
337	20    	38.7 	0.781025	37 	40 
338	20    	38.7 	0.781025	37 	40 
339	20    	38.7 	0.781025	37 	40 
340	20    	38.7 	0.781025	37 	40 
341	20    	38.7 	0.781025	37 	40 
342	20    	38.7 	0.781025	37 	40 
343	20    	38.7 	0.781025	37 	40 
344	20    	38.7 	0.781025	37 	40 
345	20    	38.7 	0.781025	37 	40 
346	20    	38.7 	0.781025	37 	40 
347	20    	38.7 	0.781025	37 	40 
348	20    	38.7 	0.781025	37 	40 
349	20    	38.7 	0.781025	37 	40 
350	20    	38.7 	0.781025	37 	40 
351	20    	38.7 	0.781025	37 	40 
352	20    	38.7 	0.781025	37 	40 
353	20    	38.7 	0.781025	37 	40 
354	20    	38.7 	0.781025	37 	40 
355	20    	38.7 	0.781025	37 	40 
356	20    	38.7 	0.781025	37 	40 
357	20    	38.7 	0.781025	37 	40 
358	20    	38.7 	0.781025	37 	40 
359	20    	38.7 	0.781025	37 	40 
360	20    	38.7 	0.781025	37 	40 
361	20    	38.7 	0.781025	37 	40 
362	20    	38.7 	0.781025	37 	40 
363	20    	38.7 	0.781025	37 	40 
364	20    	38.7 	0.781025	37 	40 
365	20    	38.7 	0.781025	37 	40 
366	20    	38.7 	0.781025	37 	40 
367	20    	38.7 	0.781025	37 	40 
368	20    	38.7 	0.781025	37 	40 
369	20    	38.7 	0.781025	37 	40 
370	20    	38.7 	0.781025	37 	40 
371	20    	38.7 	0.781025	37 	40 
372	20    	38.7 	0.781025	37 	40 
373	20    	38.7 	0.781025	37 	40 
374	20    	38.7 	0.781025	37 	40 
375	20    	38.7 	0.781025	37 	40 
376	20    	38.65	0.726292	37 	40 
377	20    	38.65	0.726292	37 	40 
378	20    	38.65	0.726292	37 	40 
379	20    	38.65	0.726292	37 	40 
380	20    	38.65	0.726292	37 	40 
381	20    	38.65	0.726292	37 	40 
382	20    	38.6 	0.663325	37 	39 
383	20    	38.6 	0.663325	37 	39 
384	20    	38.6 	0.663325	37 	39 
385	20    	38.6 	0.663325	37 	39 
386	20    	38.6 	0.663325	37 	39 
387	20    	38.6 	0.663325	37 	39 
388	20    	38.6 	0.663325	37 	39 
389	20    	38.6 	0.663325	37 	39 
390	20    	38.6 	0.663325	37 	39 
391	20    	38.6 	0.663325	37 	39 
392	20    	38.6 	0.663325	37 	39 
393	20    	38.6 	0.663325	37 	39 
394	20    	38.6 	0.663325	37 	39 
395	20    	38.6 	0.663325	37 	39 
396	20    	38.6 	0.663325	37 	39 
397	20    	38.6 	0.663325	37 	39 
398	20    	38.6 	0.663325	37 	39 
399	20    	38.6 	0.663325	37 	39 
400	20    	38.6 	0.663325	37 	39 
401	20    	38.6 	0.663325	37 	39 
402	20    	38.6 	0.663325	37 	39 
403	20    	38.6 	0.663325	37 	39 
404	20    	38.6 	0.663325	37 	39 
405	20    	38.6 	0.663325	37 	39 
406	20    	38.6 	0.663325	37 	39 
407	20    	38.6 	0.663325	37 	39 
408	20    	38.6 	0.663325	37 	39 
409	20    	38.6 	0.663325	37 	39 
410	20    	38.6 	0.663325	37 	39 
411	20    	38.6 	0.663325	37 	39 
412	20    	38.6 	0.663325	37 	39 
413	20    	38.6 	0.663325	37 	39 
414	20    	38.6 	0.663325	37 	39 
415	20    	38.6 	0.663325	37 	39 
416	20    	38.6 	0.663325	37 	39 
417	20    	38.6 	0.663325	37 	39 
418	20    	38.6 	0.663325	37 	39 
419	20    	38.6 	0.663325	37 	39 
420	20    	38.6 	0.663325	37 	39 
421	20    	38.6 	0.663325	37 	39 
422	20    	38.6 	0.663325	37 	39 
423	20    	38.6 	0.663325	37 	39 
424	20    	38.6 	0.663325	37 	39 
425	20    	38.6 	0.663325	37 	39 
426	20    	38.6 	0.663325	37 	39 
427	20    	38.6 	0.663325	37 	39 
428	20    	38.6 	0.663325	37 	39 
429	20    	38.6 	0.663325	37 	39 
430	20    	38.6 	0.663325	37 	39 
431	20    	38.6 	0.663325	37 	39 
432	20    	38.6 	0.663325	37 	39 
433	20    	38.55	0.668954	37 	39 
434	20    	38.55	0.668954	37 	39 
435	20    	38.55	0.668954	37 	39 
436	20    	38.55	0.668954	37 	39 
437	20    	38.55	0.668954	37 	39 
438	20    	38.55	0.668954	37 	39 
439	20    	38.55	0.668954	37 	39 
440	20    	38.55	0.668954	37 	39 
441	20    	38.55	0.668954	37 	39 
442	20    	38.55	0.668954	37 	39 
443	20    	38.55	0.668954	37 	39 
444	20    	38.55	0.668954	37 	39 
445	20    	38.55	0.668954	37 	39 
446	20    	38.55	0.668954	37 	39 
447	20    	38.55	0.668954	37 	39 
448	20    	38.55	0.668954	37 	39 
449	20    	38.55	0.668954	37 	39 
450	20    	38.55	0.668954	37 	39 
451	20    	38.55	0.668954	37 	39 
452	20    	38.55	0.668954	37 	39 
453	20    	38.55	0.668954	37 	39 
454	20    	38.55	0.668954	37 	39 
455	20    	38.4 	0.860233	36 	39 
456	20    	38.4 	0.860233	36 	39 
457	20    	38.4 	0.860233	36 	39 
458	20    	38.4 	0.860233	36 	39 
459	20    	38.4 	0.860233	36 	39 
460	20    	38.4 	0.860233	36 	39 
461	20    	38.4 	0.860233	36 	39 
462	20    	38.4 	0.860233	36 	39 
463	20    	38.4 	0.860233	36 	39 
464	20    	38.4 	0.860233	36 	39 
465	20    	38.4 	0.860233	36 	39 
466	20    	38.4 	0.860233	36 	39 
467	20    	38.4 	0.860233	36 	39 
468	20    	38.4 	0.860233	36 	39 
469	20    	38.4 	0.860233	36 	39 
470	20    	38.4 	0.860233	36 	39 
471	20    	38.4 	0.860233	36 	39 
472	20    	38.4 	0.860233	36 	39 
473	20    	38.35	0.852936	36 	39 
474	20    	38.35	0.852936	36 	39 
475	20    	38.35	0.852936	36 	39 
476	20    	38.35	0.852936	36 	39 
477	20    	38.35	0.852936	36 	39 
478	20    	38.35	0.852936	36 	39 
479	20    	38.35	0.852936	36 	39 
480	20    	38.35	0.852936	36 	39 
481	20    	38.35	0.852936	36 	39 
482	20    	38.35	0.852936	36 	39 
483	20    	38.35	0.852936	36 	39 
484	20    	38.35	0.852936	36 	39 
485	20    	38.35	0.852936	36 	39 
486	20    	38.35	0.852936	36 	39 
487	20    	38.35	0.852936	36 	39 
488	20    	38.35	0.852936	36 	39 
489	20    	38.35	0.852936	36 	39 
490	20    	38.35	0.852936	36 	39 
491	20    	38.35	0.852936	36 	39 
492	20    	38.35	0.852936	36 	39 
493	20    	38.35	0.852936	36 	39 
494	20    	38.35	0.852936	36 	39 
495	20    	38.35	0.852936	36 	39 
496	20    	38.35	0.852936	36 	39 
497	20    	38.35	0.852936	36 	39 
498	20    	38.35	0.852936	36 	39 
499	20    	38.35	0.852936	36 	39 
