gen	nevals	avg  	std     	min	max
0  	20    	49.15	4.1506  	41 	57 
1  	20    	45.05	2.43875 	41 	49 
2  	20    	42.85	1.62096 	41 	46 
3  	20    	42.15	1.52561 	39 	44 
4  	20    	42   	1.48324 	39 	44 
5  	20    	41.7 	1.34536 	39 	44 
6  	20    	41.5 	1.28452 	39 	44 
7  	20    	41.5 	1.28452 	39 	44 
8  	20    	41.5 	1.28452 	39 	44 
9  	20    	41.3 	1.18743 	39 	44 
10 	20    	41.2 	1.02956 	39 	43 
11 	20    	41.2 	1.02956 	39 	43 
12 	20    	41.1 	0.943398	39 	43 
13 	20    	41.05	0.864581	39 	43 
14 	20    	40.8 	0.979796	38 	42 
15 	20    	40.8 	0.979796	38 	42 
16 	20    	40.7 	0.953939	38 	42 
17 	20    	40.65	0.90967 	38 	42 
18 	20    	40.65	0.90967 	38 	42 
19 	20    	40.55	0.864581	38 	42 
20 	20    	40.5 	0.806226	38 	41 
21 	20    	40.5 	0.806226	38 	41 
22 	20    	40.4 	0.860233	38 	41 
23 	20    	40.4 	0.860233	38 	41 
24 	20    	40.35	0.852936	38 	41 
25 	20    	40.3 	0.842615	38 	41 
26 	20    	40.3 	0.842615	38 	41 
27 	20    	40.3 	0.842615	38 	41 
28 	20    	40.3 	0.842615	38 	41 
29 	20    	40.3 	0.842615	38 	41 
30 	20    	40.3 	0.842615	38 	41 
31 	20    	40.2 	0.87178 	38 	41 
32 	20    	40.2 	0.87178 	38 	41 
33 	20    	40.2 	0.87178 	38 	41 
34 	20    	40.2 	0.87178 	38 	41 
35 	20    	40.2 	0.87178 	38 	41 
36 	20    	40.1 	0.888819	38 	41 
37 	20    	40.1 	0.888819	38 	41 
38 	20    	40.05	0.864581	38 	41 
39 	20    	40.05	0.864581	38 	41 
40 	20    	39.9 	0.943398	38 	41 
41 	20    	39.9 	0.943398	38 	41 
42 	20    	39.9 	0.943398	38 	41 
43 	20    	39.9 	0.943398	38 	41 
44 	20    	39.9 	0.943398	38 	41 
45 	20    	39.9 	0.943398	38 	41 
46 	20    	39.9 	0.943398	38 	41 
47 	20    	39.8 	0.927362	38 	41 
48 	20    	39.8 	0.927362	38 	41 
49 	20    	39.8 	0.927362	38 	41 
50 	20    	39.8 	0.927362	38 	41 
51 	20    	39.8 	0.927362	38 	41 
52 	20    	39.8 	0.927362	38 	41 
53 	20    	39.8 	0.927362	38 	41 
54 	20    	39.8 	0.927362	38 	41 
55 	20    	39.8 	0.927362	38 	41 
56 	20    	39.75	0.887412	38 	41 
57 	20    	39.75	0.887412	38 	41 
58 	20    	39.65	0.852936	38 	41 
59 	20    	39.65	0.852936	38 	41 
60 	20    	39.65	0.852936	38 	41 
61 	20    	39.65	0.852936	38 	41 
62 	20    	39.6 	0.8     	38 	41 
63 	20    	39.6 	0.8     	38 	41 
64 	20    	39.6 	0.8     	38 	41 
65 	20    	39.6 	0.8     	38 	41 
66 	20    	39.6 	0.8     	38 	41 
67 	20    	39.45	0.804674	38 	41 
68 	20    	39.45	0.804674	38 	41 
69 	20    	39.45	0.804674	38 	41 
70 	20    	39.45	0.804674	38 	41 
71 	20    	39.45	0.804674	38 	41 
72 	20    	39.35	0.726292	38 	40 
73 	20    	39.35	0.726292	38 	40 
74 	20    	39.35	0.726292	38 	40 
75 	20    	39.25	0.766485	38 	40 
76 	20    	39.25	0.766485	38 	40 
77 	20    	39.25	0.766485	38 	40 
78 	20    	39.25	0.766485	38 	40 
79 	20    	39.25	0.766485	38 	40 
80 	20    	39.25	0.766485	38 	40 
81 	20    	39.25	0.766485	38 	40 
82 	20    	39.25	0.766485	38 	40 
83 	20    	39.25	0.766485	38 	40 
84 	20    	39.25	0.766485	38 	40 
85 	20    	39.25	0.766485	38 	40 
86 	20    	39.25	0.766485	38 	40 
87 	20    	39.25	0.766485	38 	40 
88 	20    	39.25	0.766485	38 	40 
89 	20    	39.25	0.766485	38 	40 
90 	20    	39.25	0.766485	38 	40 
91 	20    	39.25	0.766485	38 	40 
92 	20    	39.1 	0.888819	37 	40 
93 	20    	39.1 	0.888819	37 	40 
94 	20    	39.1 	0.888819	37 	40 
95 	20    	39.1 	0.888819	37 	40 
96 	20    	39   	0.894427	37 	40 
97 	20    	39   	0.894427	37 	40 
98 	20    	39   	0.894427	37 	40 
99 	20    	39   	0.894427	37 	40 
100	20    	39   	0.894427	37 	40 
101	20    	39   	0.894427	37 	40 
102	20    	39   	0.894427	37 	40 
103	20    	39   	0.894427	37 	40 
104	20    	39   	0.894427	37 	40 
105	20    	39   	0.894427	37 	40 
106	20    	39   	0.894427	37 	40 
107	20    	39   	0.894427	37 	40 
108	20    	39   	0.894427	37 	40 
109	20    	39   	0.894427	37 	40 
110	20    	39   	0.894427	37 	40 
111	20    	39   	0.894427	37 	40 
112	20    	38.95	0.864581	37 	40 
113	20    	38.9 	0.830662	37 	40 
114	20    	38.85	0.792149	37 	40 
115	20    	38.85	0.792149	37 	40 
116	20    	38.85	0.792149	37 	40 
117	20    	38.85	0.792149	37 	40 
118	20    	38.85	0.792149	37 	40 
119	20    	38.85	0.792149	37 	40 
120	20    	38.85	0.792149	37 	40 
121	20    	38.85	0.792149	37 	40 
122	20    	38.85	0.792149	37 	40 
123	20    	38.7 	0.842615	37 	40 
124	20    	38.65	0.792149	37 	40 
125	20    	38.65	0.792149	37 	40 
126	20    	38.65	0.792149	37 	40 
127	20    	38.65	0.792149	37 	40 
128	20    	38.65	0.792149	37 	40 
129	20    	38.65	0.792149	37 	40 
130	20    	38.65	0.792149	37 	40 
131	20    	38.65	0.792149	37 	40 
132	20    	38.65	0.792149	37 	40 
133	20    	38.65	0.792149	37 	40 
134	20    	38.65	0.792149	37 	40 
135	20    	38.65	0.792149	37 	40 
136	20    	38.65	0.792149	37 	40 
137	20    	38.65	0.792149	37 	40 
138	20    	38.45	0.920598	36 	40 
139	20    	38.45	0.920598	36 	40 
140	20    	38.4 	0.860233	36 	39 
141	20    	38.4 	0.860233	36 	39 
142	20    	38.4 	0.860233	36 	39 
143	20    	38.4 	0.860233	36 	39 
144	20    	38.4 	0.860233	36 	39 
145	20    	38.4 	0.860233	36 	39 
146	20    	38.4 	0.860233	36 	39 
147	20    	38.4 	0.860233	36 	39 
148	20    	38.4 	0.860233	36 	39 
149	20    	38.4 	0.860233	36 	39 
150	20    	38.4 	0.860233	36 	39 
151	20    	38.4 	0.860233	36 	39 
152	20    	38.4 	0.860233	36 	39 
153	20    	38.4 	0.860233	36 	39 
154	20    	38.4 	0.860233	36 	39 
155	20    	38.4 	0.860233	36 	39 
156	20    	38.4 	0.860233	36 	39 
157	20    	38.4 	0.860233	36 	39 
158	20    	38.4 	0.860233	36 	39 
159	20    	38.4 	0.860233	36 	39 
160	20    	38.4 	0.860233	36 	39 
161	20    	38.4 	0.860233	36 	39 
162	20    	38.4 	0.860233	36 	39 
163	20    	38.4 	0.860233	36 	39 
164	20    	38.4 	0.860233	36 	39 
165	20    	38.4 	0.860233	36 	39 
166	20    	38.4 	0.860233	36 	39 
167	20    	38.4 	0.860233	36 	39 
168	20    	38.4 	0.860233	36 	39 
169	20    	38.4 	0.860233	36 	39 
170	20    	38.4 	0.860233	36 	39 
171	20    	38.4 	0.860233	36 	39 
172	20    	38.4 	0.860233	36 	39 
173	20    	38.4 	0.860233	36 	39 
174	20    	38.4 	0.860233	36 	39 
175	20    	38.4 	0.860233	36 	39 
176	20    	38.4 	0.860233	36 	39 
177	20    	38.4 	0.860233	36 	39 
178	20    	38.4 	0.860233	36 	39 
179	20    	38.4 	0.860233	36 	39 
180	20    	38.4 	0.860233	36 	39 
181	20    	38.4 	0.860233	36 	39 
182	20    	38.4 	0.860233	36 	39 
183	20    	38.4 	0.860233	36 	39 
184	20    	38.4 	0.860233	36 	39 
185	20    	38.4 	0.860233	36 	39 
186	20    	38.4 	0.860233	36 	39 
187	20    	38.4 	0.860233	36 	39 
188	20    	38.4 	0.860233	36 	39 
189	20    	38.4 	0.860233	36 	39 
190	20    	38.4 	0.860233	36 	39 
191	20    	38.4 	0.860233	36 	39 
192	20    	38.4 	0.860233	36 	39 
193	20    	38.4 	0.860233	36 	39 
194	20    	38.4 	0.860233	36 	39 
195	20    	38.4 	0.860233	36 	39 
196	20    	38.4 	0.860233	36 	39 
197	20    	38.4 	0.860233	36 	39 
198	20    	38.4 	0.860233	36 	39 
199	20    	38.4 	0.860233	36 	39 
200	20    	38.4 	0.860233	36 	39 
201	20    	38.4 	0.860233	36 	39 
202	20    	38.4 	0.860233	36 	39 
203	20    	38.4 	0.860233	36 	39 
204	20    	38.4 	0.860233	36 	39 
205	20    	38.4 	0.860233	36 	39 
206	20    	38.3 	0.9     	36 	39 
207	20    	38.3 	0.9     	36 	39 
208	20    	38.3 	0.9     	36 	39 
209	20    	38.3 	0.9     	36 	39 
210	20    	38.3 	0.9     	36 	39 
211	20    	38.3 	0.9     	36 	39 
212	20    	38.3 	0.9     	36 	39 
213	20    	38.3 	0.9     	36 	39 
214	20    	38.3 	0.9     	36 	39 
215	20    	38.3 	0.9     	36 	39 
216	20    	38.3 	0.9     	36 	39 
217	20    	38.3 	0.9     	36 	39 
218	20    	38.3 	0.9     	36 	39 
219	20    	38.3 	0.9     	36 	39 
220	20    	38.3 	0.9     	36 	39 
221	20    	38.3 	0.9     	36 	39 
222	20    	38.3 	0.9     	36 	39 
223	20    	38.3 	0.9     	36 	39 
224	20    	38.3 	0.9     	36 	39 
225	20    	38.3 	0.9     	36 	39 
226	20    	38.3 	0.9     	36 	39 
227	20    	38.3 	0.9     	36 	39 
228	20    	38.3 	0.9     	36 	39 
229	20    	38.3 	0.9     	36 	39 
230	20    	38.3 	0.9     	36 	39 
231	20    	38.3 	0.9     	36 	39 
232	20    	38.3 	0.9     	36 	39 
233	20    	38.3 	0.9     	36 	39 
234	20    	38.3 	0.9     	36 	39 
235	20    	38.3 	0.9     	36 	39 
236	20    	38.3 	0.9     	36 	39 
237	20    	38.3 	0.9     	36 	39 
238	20    	38.3 	0.9     	36 	39 
239	20    	38.3 	0.9     	36 	39 
240	20    	38.3 	0.9     	36 	39 
241	20    	38.3 	0.9     	36 	39 
242	20    	38.3 	0.9     	36 	39 
243	20    	38.3 	0.9     	36 	39 
244	20    	38.3 	0.9     	36 	39 
245	20    	38.3 	0.9     	36 	39 
246	20    	38.3 	0.9     	36 	39 
247	20    	38.3 	0.9     	36 	39 
248	20    	38.3 	0.9     	36 	39 
249	20    	38.3 	0.9     	36 	39 
250	20    	38.3 	0.9     	36 	39 
251	20    	38.3 	0.9     	36 	39 
252	20    	38.3 	0.9     	36 	39 
253	20    	38.3 	0.9     	36 	39 
254	20    	38.3 	0.9     	36 	39 
255	20    	38.3 	0.9     	36 	39 
256	20    	38.3 	0.9     	36 	39 
257	20    	38.3 	0.9     	36 	39 
258	20    	38.3 	0.9     	36 	39 
259	20    	38.3 	0.9     	36 	39 
260	20    	38.3 	0.9     	36 	39 
261	20    	38.3 	0.9     	36 	39 
262	20    	38.3 	0.9     	36 	39 
263	20    	38.3 	0.9     	36 	39 
264	20    	38.3 	0.9     	36 	39 
265	20    	38.25	0.887412	36 	39 
266	20    	38.25	0.887412	36 	39 
267	20    	38.25	0.887412	36 	39 
268	20    	38.25	0.887412	36 	39 
269	20    	38.25	0.887412	36 	39 
270	20    	38.25	0.887412	36 	39 
271	20    	38.25	0.887412	36 	39 
272	20    	38.25	0.887412	36 	39 
273	20    	38.25	0.887412	36 	39 
274	20    	38.25	0.887412	36 	39 
275	20    	38.25	0.887412	36 	39 
276	20    	38.25	0.887412	36 	39 
277	20    	38.25	0.887412	36 	39 
278	20    	38.25	0.887412	36 	39 
279	20    	38.25	0.887412	36 	39 
280	20    	38.25	0.887412	36 	39 
281	20    	38.25	0.887412	36 	39 
282	20    	38.25	0.887412	36 	39 
283	20    	38.25	0.887412	36 	39 
284	20    	38.25	0.887412	36 	39 
285	20    	38.25	0.887412	36 	39 
286	20    	38.25	0.887412	36 	39 
287	20    	38.25	0.887412	36 	39 
288	20    	38.25	0.887412	36 	39 
289	20    	38.25	0.887412	36 	39 
290	20    	38.25	0.887412	36 	39 
291	20    	38.25	0.887412	36 	39 
292	20    	38.25	0.887412	36 	39 
293	20    	38.2 	0.87178 	36 	39 
294	20    	38.2 	0.87178 	36 	39 
295	20    	38.2 	0.87178 	36 	39 
296	20    	38.2 	0.87178 	36 	39 
297	20    	38.2 	0.87178 	36 	39 
298	20    	38.1 	0.888819	36 	39 
299	20    	38.1 	0.888819	36 	39 
300	20    	38.1 	0.888819	36 	39 
301	20    	38.1 	0.888819	36 	39 
302	20    	38.1 	0.888819	36 	39 
303	20    	38.1 	0.888819	36 	39 
304	20    	38.1 	0.888819	36 	39 
305	20    	38.1 	0.888819	36 	39 
306	20    	38.1 	0.888819	36 	39 
307	20    	38.1 	0.888819	36 	39 
308	20    	38.1 	0.888819	36 	39 
309	20    	38.1 	0.888819	36 	39 
310	20    	38.1 	0.888819	36 	39 
311	20    	38.1 	0.888819	36 	39 
312	20    	38.1 	0.888819	36 	39 
313	20    	38.1 	0.888819	36 	39 
314	20    	38.1 	0.888819	36 	39 
315	20    	38.1 	0.888819	36 	39 
316	20    	38.05	0.864581	36 	39 
317	20    	38.05	0.864581	36 	39 
318	20    	38.05	0.864581	36 	39 
319	20    	38.05	0.864581	36 	39 
320	20    	38.05	0.864581	36 	39 
321	20    	38.05	0.864581	36 	39 
322	20    	38.05	0.864581	36 	39 
323	20    	38.05	0.864581	36 	39 
324	20    	38.05	0.864581	36 	39 
325	20    	38.05	0.864581	36 	39 
326	20    	38.05	0.864581	36 	39 
327	20    	38.05	0.864581	36 	39 
328	20    	38.05	0.864581	36 	39 
329	20    	38.05	0.864581	36 	39 
330	20    	38.05	0.864581	36 	39 
331	20    	38.05	0.864581	36 	39 
332	20    	38.05	0.864581	36 	39 
333	20    	38.05	0.864581	36 	39 
334	20    	38.05	0.864581	36 	39 
335	20    	38.05	0.864581	36 	39 
336	20    	38.05	0.864581	36 	39 
337	20    	38.05	0.864581	36 	39 
338	20    	38.05	0.864581	36 	39 
339	20    	38.05	0.864581	36 	39 
340	20    	38.05	0.864581	36 	39 
341	20    	38.05	0.864581	36 	39 
342	20    	38.05	0.864581	36 	39 
343	20    	38.05	0.864581	36 	39 
344	20    	38.05	0.864581	36 	39 
345	20    	38.05	0.864581	36 	39 
346	20    	38.05	0.864581	36 	39 
347	20    	38.05	0.864581	36 	39 
348	20    	38.05	0.864581	36 	39 
349	20    	38.05	0.864581	36 	39 
350	20    	38.05	0.864581	36 	39 
351	20    	38.05	0.864581	36 	39 
352	20    	38.05	0.864581	36 	39 
353	20    	38.05	0.864581	36 	39 
354	20    	38.05	0.864581	36 	39 
355	20    	38.05	0.864581	36 	39 
356	20    	38.05	0.864581	36 	39 
357	20    	38.05	0.864581	36 	39 
358	20    	38.05	0.864581	36 	39 
359	20    	38.05	0.864581	36 	39 
360	20    	38.05	0.864581	36 	39 
361	20    	38.05	0.864581	36 	39 
362	20    	38.05	0.864581	36 	39 
363	20    	38.05	0.864581	36 	39 
364	20    	38.05	0.864581	36 	39 
365	20    	38.05	0.864581	36 	39 
366	20    	38.05	0.864581	36 	39 
367	20    	38.05	0.864581	36 	39 
368	20    	38.05	0.864581	36 	39 
369	20    	38.05	0.864581	36 	39 
370	20    	38.05	0.864581	36 	39 
371	20    	38.05	0.864581	36 	39 
372	20    	38   	0.83666 	36 	39 
373	20    	38   	0.83666 	36 	39 
374	20    	38   	0.83666 	36 	39 
375	20    	38   	0.83666 	36 	39 
376	20    	38   	0.83666 	36 	39 
377	20    	38   	0.83666 	36 	39 
378	20    	38   	0.83666 	36 	39 
379	20    	38   	0.83666 	36 	39 
380	20    	38   	0.83666 	36 	39 
381	20    	38   	0.83666 	36 	39 
382	20    	38   	0.83666 	36 	39 
383	20    	38   	0.83666 	36 	39 
384	20    	38   	0.83666 	36 	39 
385	20    	38   	0.83666 	36 	39 
386	20    	38   	0.83666 	36 	39 
387	20    	38   	0.83666 	36 	39 
388	20    	37.95	0.804674	36 	39 
389	20    	37.95	0.804674	36 	39 
390	20    	37.95	0.804674	36 	39 
391	20    	37.95	0.804674	36 	39 
392	20    	37.95	0.804674	36 	39 
393	20    	37.95	0.804674	36 	39 
394	20    	37.95	0.804674	36 	39 
395	20    	37.95	0.804674	36 	39 
396	20    	37.95	0.804674	36 	39 
397	20    	37.95	0.804674	36 	39 
398	20    	37.95	0.804674	36 	39 
399	20    	37.95	0.804674	36 	39 
400	20    	37.95	0.804674	36 	39 
401	20    	37.95	0.804674	36 	39 
402	20    	37.95	0.804674	36 	39 
403	20    	37.95	0.804674	36 	39 
404	20    	37.9 	0.768115	36 	39 
405	20    	37.9 	0.768115	36 	39 
406	20    	37.9 	0.768115	36 	39 
407	20    	37.9 	0.768115	36 	39 
408	20    	37.9 	0.768115	36 	39 
409	20    	37.9 	0.768115	36 	39 
410	20    	37.9 	0.768115	36 	39 
411	20    	37.9 	0.768115	36 	39 
412	20    	37.9 	0.768115	36 	39 
413	20    	37.9 	0.768115	36 	39 
414	20    	37.9 	0.768115	36 	39 
415	20    	37.9 	0.768115	36 	39 
416	20    	37.9 	0.768115	36 	39 
417	20    	37.9 	0.768115	36 	39 
418	20    	37.9 	0.768115	36 	39 
419	20    	37.9 	0.768115	36 	39 
420	20    	37.9 	0.768115	36 	39 
421	20    	37.9 	0.768115	36 	39 
422	20    	37.9 	0.768115	36 	39 
423	20    	37.9 	0.768115	36 	39 
424	20    	37.9 	0.768115	36 	39 
425	20    	37.9 	0.768115	36 	39 
426	20    	37.9 	0.768115	36 	39 
427	20    	37.9 	0.768115	36 	39 
428	20    	37.9 	0.768115	36 	39 
429	20    	37.9 	0.768115	36 	39 
430	20    	37.9 	0.768115	36 	39 
431	20    	37.9 	0.768115	36 	39 
432	20    	37.9 	0.768115	36 	39 
433	20    	37.9 	0.768115	36 	39 
434	20    	37.9 	0.768115	36 	39 
435	20    	37.9 	0.768115	36 	39 
436	20    	37.9 	0.768115	36 	39 
437	20    	37.9 	0.768115	36 	39 
438	20    	37.8 	0.748331	36 	39 
439	20    	37.75	0.698212	36 	39 
440	20    	37.75	0.698212	36 	39 
441	20    	37.75	0.698212	36 	39 
442	20    	37.75	0.698212	36 	39 
443	20    	37.75	0.698212	36 	39 
444	20    	37.75	0.698212	36 	39 
445	20    	37.65	0.653835	36 	39 
446	20    	37.65	0.653835	36 	39 
447	20    	37.55	0.589491	36 	38 
448	20    	37.55	0.589491	36 	38 
449	20    	37.55	0.589491	36 	38 
450	20    	37.55	0.589491	36 	38 
451	20    	37.55	0.589491	36 	38 
452	20    	37.55	0.589491	36 	38 
453	20    	37.55	0.589491	36 	38 
454	20    	37.55	0.589491	36 	38 
455	20    	37.55	0.589491	36 	38 
456	20    	37.55	0.589491	36 	38 
457	20    	37.55	0.589491	36 	38 
458	20    	37.55	0.589491	36 	38 
459	20    	37.55	0.589491	36 	38 
460	20    	37.55	0.589491	36 	38 
461	20    	37.55	0.589491	36 	38 
462	20    	37.55	0.589491	36 	38 
463	20    	37.55	0.589491	36 	38 
464	20    	37.55	0.589491	36 	38 
465	20    	37.55	0.589491	36 	38 
466	20    	37.55	0.589491	36 	38 
467	20    	37.55	0.589491	36 	38 
468	20    	37.55	0.589491	36 	38 
469	20    	37.5 	0.591608	36 	38 
470	20    	37.5 	0.591608	36 	38 
471	20    	37.5 	0.591608	36 	38 
472	20    	37.5 	0.591608	36 	38 
473	20    	37.5 	0.591608	36 	38 
474	20    	37.5 	0.591608	36 	38 
475	20    	37.5 	0.591608	36 	38 
476	20    	37.5 	0.591608	36 	38 
477	20    	37.5 	0.591608	36 	38 
478	20    	37.5 	0.591608	36 	38 
479	20    	37.5 	0.591608	36 	38 
480	20    	37.5 	0.591608	36 	38 
481	20    	37.5 	0.591608	36 	38 
482	20    	37.5 	0.591608	36 	38 
483	20    	37.5 	0.591608	36 	38 
484	20    	37.5 	0.591608	36 	38 
485	20    	37.5 	0.591608	36 	38 
486	20    	37.5 	0.591608	36 	38 
487	20    	37.5 	0.591608	36 	38 
488	20    	37.5 	0.591608	36 	38 
489	20    	37.5 	0.591608	36 	38 
490	20    	37.5 	0.591608	36 	38 
491	20    	37.5 	0.591608	36 	38 
492	20    	37.5 	0.591608	36 	38 
493	20    	37.5 	0.591608	36 	38 
494	20    	37.45	0.589491	36 	38 
495	20    	37.45	0.589491	36 	38 
496	20    	37.45	0.589491	36 	38 
497	20    	37.45	0.589491	36 	38 
498	20    	37.45	0.589491	36 	38 
499	20    	37.45	0.589491	36 	38 
