gen	nevals	avg  	std     	min	max
0  	20    	30.3 	2.84781 	25 	37 
1  	20    	27.95	1.16082 	25 	29 
2  	20    	27.4 	1.46287 	23 	29 
3  	20    	26.95	1.20312 	23 	28 
4  	20    	26.95	1.20312 	23 	28 
5  	20    	26.6 	1.15758 	23 	28 
6  	20    	26.2 	1.02956 	23 	27 
7  	20    	26.15	1.01366 	23 	27 
8  	20    	25.7 	1.1     	23 	27 
9  	20    	25.45	0.973396	23 	27 
10 	20    	25.3 	0.842615	23 	26 
11 	20    	25.15	0.852936	23 	26 
12 	20    	25.15	0.852936	23 	26 
13 	20    	25.15	0.852936	23 	26 
14 	20    	25.15	0.852936	23 	26 
15 	20    	25   	0.83666 	23 	26 
16 	20    	24.7 	1.00499 	22 	26 
17 	20    	24.7 	1.00499 	22 	26 
18 	20    	24.65	0.963068	22 	26 
19 	20    	24.55	0.920598	22 	26 
20 	20    	24.55	0.920598	22 	26 
21 	20    	24.55	0.920598	22 	26 
22 	20    	24.4 	0.8     	22 	25 
23 	20    	24.25	0.829156	22 	25 
24 	20    	24.25	0.829156	22 	25 
25 	20    	24.25	0.829156	22 	25 
26 	20    	24.15	0.852936	22 	25 
27 	20    	24.15	0.852936	22 	25 
28 	20    	24.15	0.852936	22 	25 
29 	20    	24.15	0.852936	22 	25 
30 	20    	24.15	0.852936	22 	25 
31 	20    	24.15	0.852936	22 	25 
32 	20    	24.15	0.852936	22 	25 
33 	20    	24   	0.948683	22 	25 
34 	20    	24   	0.948683	22 	25 
35 	20    	24   	0.948683	22 	25 
36 	20    	24   	0.948683	22 	25 
37 	20    	23.95	0.920598	22 	25 
38 	20    	23.95	0.920598	22 	25 
39 	20    	23.95	0.920598	22 	25 
40 	20    	23.9 	0.888819	22 	25 
41 	20    	23.8 	0.87178 	22 	25 
42 	20    	23.65	0.90967 	22 	25 
43 	20    	23.6 	0.860233	22 	25 
44 	20    	23.6 	0.860233	22 	25 
45 	20    	23.5 	0.806226	22 	25 
46 	20    	23.45	0.739932	22 	24 
47 	20    	23.45	0.739932	22 	24 
48 	20    	23.45	0.739932	22 	24 
49 	20    	23.45	0.739932	22 	24 
50 	20    	23.3 	0.9     	21 	24 
51 	20    	23.3 	0.9     	21 	24 
52 	20    	23.2 	0.87178 	21 	24 
53 	20    	23.2 	0.87178 	21 	24 
54 	20    	23.2 	0.87178 	21 	24 
55 	20    	23.2 	0.87178 	21 	24 
56 	20    	23.2 	0.87178 	21 	24 
57 	20    	23.2 	0.87178 	21 	24 
58 	20    	23.2 	0.87178 	21 	24 
59 	20    	23.2 	0.87178 	21 	24 
60 	20    	23.2 	0.87178 	21 	24 
61 	20    	23.1 	0.888819	21 	24 
62 	20    	23.1 	0.888819	21 	24 
63 	20    	23.1 	0.888819	21 	24 
64 	20    	23.1 	0.888819	21 	24 
65 	20    	23.1 	0.888819	21 	24 
66 	20    	23.1 	0.888819	21 	24 
67 	20    	23.1 	0.888819	21 	24 
68 	20    	23.1 	0.888819	21 	24 
69 	20    	23.1 	0.888819	21 	24 
70 	20    	23.1 	0.888819	21 	24 
71 	20    	23.1 	0.888819	21 	24 
72 	20    	23.1 	0.888819	21 	24 
73 	20    	23.1 	0.888819	21 	24 
74 	20    	23.1 	0.888819	21 	24 
75 	20    	23   	0.894427	21 	24 
76 	20    	23   	0.894427	21 	24 
77 	20    	23   	0.894427	21 	24 
78 	20    	23   	0.894427	21 	24 
79 	20    	22.95	0.864581	21 	24 
80 	20    	22.95	0.864581	21 	24 
81 	20    	22.9 	0.830662	21 	24 
82 	20    	22.9 	0.830662	21 	24 
83 	20    	22.9 	0.830662	21 	24 
84 	20    	22.9 	0.830662	21 	24 
85 	20    	22.85	0.792149	21 	24 
86 	20    	22.85	0.792149	21 	24 
87 	20    	22.85	0.792149	21 	24 
88 	20    	22.85	0.792149	21 	24 
89 	20    	22.8 	0.748331	21 	24 
90 	20    	22.8 	0.748331	21 	24 
91 	20    	22.8 	0.748331	21 	24 
92 	20    	22.8 	0.748331	21 	24 
93 	20    	22.8 	0.748331	21 	24 
94 	20    	22.8 	0.748331	21 	24 
95 	20    	22.8 	0.748331	21 	24 
96 	20    	22.8 	0.748331	21 	24 
97 	20    	22.8 	0.748331	21 	24 
98 	20    	22.8 	0.748331	21 	24 
99 	20    	22.8 	0.748331	21 	24 
100	20    	22.8 	0.748331	21 	24 
101	20    	22.75	0.698212	21 	24 
102	20    	22.75	0.698212	21 	24 
103	20    	22.75	0.698212	21 	24 
104	20    	22.75	0.698212	21 	24 
105	20    	22.65	0.653835	21 	24 
106	20    	22.65	0.653835	21 	24 
107	20    	22.65	0.653835	21 	24 
108	20    	22.65	0.653835	21 	24 
109	20    	22.65	0.653835	21 	24 
110	20    	22.65	0.653835	21 	24 
111	20    	22.65	0.653835	21 	24 
112	20    	22.65	0.653835	21 	24 
113	20    	22.65	0.653835	21 	24 
114	20    	22.65	0.653835	21 	24 
115	20    	22.65	0.653835	21 	24 
116	20    	22.65	0.653835	21 	24 
117	20    	22.65	0.653835	21 	24 
118	20    	22.65	0.653835	21 	24 
119	20    	22.65	0.653835	21 	24 
120	20    	22.65	0.653835	21 	24 
121	20    	22.65	0.653835	21 	24 
122	20    	22.65	0.653835	21 	24 
123	20    	22.65	0.653835	21 	24 
124	20    	22.65	0.653835	21 	24 
125	20    	22.65	0.653835	21 	24 
126	20    	22.65	0.653835	21 	24 
127	20    	22.65	0.653835	21 	24 
128	20    	22.6 	0.583095	21 	23 
129	20    	22.6 	0.583095	21 	23 
130	20    	22.6 	0.583095	21 	23 
131	20    	22.6 	0.583095	21 	23 
132	20    	22.6 	0.583095	21 	23 
133	20    	22.6 	0.583095	21 	23 
134	20    	22.6 	0.583095	21 	23 
135	20    	22.6 	0.583095	21 	23 
136	20    	22.6 	0.583095	21 	23 
137	20    	22.6 	0.583095	21 	23 
138	20    	22.6 	0.583095	21 	23 
139	20    	22.6 	0.583095	21 	23 
140	20    	22.6 	0.583095	21 	23 
141	20    	22.6 	0.583095	21 	23 
142	20    	22.6 	0.583095	21 	23 
143	20    	22.6 	0.583095	21 	23 
144	20    	22.6 	0.583095	21 	23 
145	20    	22.6 	0.583095	21 	23 
146	20    	22.6 	0.583095	21 	23 
147	20    	22.6 	0.583095	21 	23 
148	20    	22.6 	0.583095	21 	23 
149	20    	22.6 	0.583095	21 	23 
150	20    	22.6 	0.583095	21 	23 
151	20    	22.6 	0.583095	21 	23 
152	20    	22.6 	0.583095	21 	23 
153	20    	22.6 	0.583095	21 	23 
154	20    	22.55	0.589491	21 	23 
155	20    	22.55	0.589491	21 	23 
156	20    	22.55	0.589491	21 	23 
157	20    	22.55	0.589491	21 	23 
158	20    	22.55	0.589491	21 	23 
159	20    	22.55	0.589491	21 	23 
160	20    	22.55	0.589491	21 	23 
161	20    	22.55	0.589491	21 	23 
162	20    	22.55	0.589491	21 	23 
163	20    	22.55	0.589491	21 	23 
164	20    	22.55	0.589491	21 	23 
165	20    	22.55	0.589491	21 	23 
166	20    	22.55	0.589491	21 	23 
167	20    	22.55	0.589491	21 	23 
168	20    	22.55	0.589491	21 	23 
169	20    	22.45	0.668954	21 	23 
170	20    	22.45	0.668954	21 	23 
171	20    	22.45	0.668954	21 	23 
172	20    	22.45	0.668954	21 	23 
173	20    	22.45	0.668954	21 	23 
174	20    	22.45	0.668954	21 	23 
175	20    	22.45	0.668954	21 	23 
176	20    	22.45	0.668954	21 	23 
177	20    	22.45	0.668954	21 	23 
178	20    	22.45	0.668954	21 	23 
179	20    	22.45	0.668954	21 	23 
180	20    	22.45	0.668954	21 	23 
181	20    	22.45	0.668954	21 	23 
182	20    	22.45	0.668954	21 	23 
183	20    	22.45	0.668954	21 	23 
184	20    	22.45	0.668954	21 	23 
185	20    	22.45	0.668954	21 	23 
186	20    	22.45	0.668954	21 	23 
187	20    	22.4 	0.663325	21 	23 
188	20    	22.4 	0.663325	21 	23 
189	20    	22.4 	0.663325	21 	23 
190	20    	22.4 	0.663325	21 	23 
191	20    	22.4 	0.663325	21 	23 
192	20    	22.4 	0.663325	21 	23 
193	20    	22.4 	0.663325	21 	23 
194	20    	22.4 	0.663325	21 	23 
195	20    	22.4 	0.663325	21 	23 
196	20    	22.4 	0.663325	21 	23 
197	20    	22.4 	0.663325	21 	23 
198	20    	22.4 	0.663325	21 	23 
199	20    	22.4 	0.663325	21 	23 
200	20    	22.4 	0.663325	21 	23 
201	20    	22.4 	0.663325	21 	23 
202	20    	22.4 	0.663325	21 	23 
203	20    	22.4 	0.663325	21 	23 
204	20    	22.4 	0.663325	21 	23 
205	20    	22.4 	0.663325	21 	23 
206	20    	22.4 	0.663325	21 	23 
207	20    	22.4 	0.663325	21 	23 
208	20    	22.4 	0.663325	21 	23 
209	20    	22.4 	0.663325	21 	23 
210	20    	22.4 	0.663325	21 	23 
211	20    	22.4 	0.663325	21 	23 
212	20    	22.4 	0.663325	21 	23 
213	20    	22.4 	0.663325	21 	23 
214	20    	22.4 	0.663325	21 	23 
215	20    	22.4 	0.663325	21 	23 
216	20    	22.4 	0.663325	21 	23 
217	20    	22.35	0.653835	21 	23 
218	20    	22.35	0.653835	21 	23 
219	20    	22.35	0.653835	21 	23 
220	20    	22.35	0.653835	21 	23 
221	20    	22.35	0.653835	21 	23 
222	20    	22.35	0.653835	21 	23 
223	20    	22.35	0.653835	21 	23 
224	20    	22.35	0.653835	21 	23 
225	20    	22.35	0.653835	21 	23 
226	20    	22.35	0.653835	21 	23 
227	20    	22.35	0.653835	21 	23 
228	20    	22.35	0.653835	21 	23 
229	20    	22.35	0.653835	21 	23 
230	20    	22.35	0.653835	21 	23 
231	20    	22.35	0.653835	21 	23 
232	20    	22.35	0.653835	21 	23 
233	20    	22.35	0.653835	21 	23 
234	20    	22.35	0.653835	21 	23 
235	20    	22.35	0.653835	21 	23 
236	20    	22.3 	0.640312	21 	23 
237	20    	22.3 	0.640312	21 	23 
238	20    	22.3 	0.640312	21 	23 
239	20    	22.3 	0.640312	21 	23 
240	20    	22.3 	0.640312	21 	23 
241	20    	22.3 	0.640312	21 	23 
242	20    	22.3 	0.640312	21 	23 
243	20    	22.3 	0.640312	21 	23 
244	20    	22.3 	0.640312	21 	23 
245	20    	22.3 	0.640312	21 	23 
246	20    	22.3 	0.640312	21 	23 
247	20    	22.3 	0.640312	21 	23 
248	20    	22.3 	0.640312	21 	23 
249	20    	22.3 	0.640312	21 	23 
250	20    	22.3 	0.640312	21 	23 
251	20    	22.3 	0.640312	21 	23 
252	20    	22.3 	0.640312	21 	23 
253	20    	22.3 	0.640312	21 	23 
254	20    	22.3 	0.640312	21 	23 
255	20    	22.3 	0.640312	21 	23 
256	20    	22.3 	0.640312	21 	23 
257	20    	22.3 	0.640312	21 	23 
258	20    	22.3 	0.640312	21 	23 
259	20    	22.3 	0.640312	21 	23 
260	20    	22.3 	0.640312	21 	23 
261	20    	22.3 	0.640312	21 	23 
262	20    	22.3 	0.640312	21 	23 
263	20    	22.3 	0.640312	21 	23 
264	20    	22.3 	0.640312	21 	23 
265	20    	22.3 	0.640312	21 	23 
266	20    	22.3 	0.640312	21 	23 
267	20    	22.3 	0.640312	21 	23 
268	20    	22.3 	0.640312	21 	23 
269	20    	22.3 	0.640312	21 	23 
270	20    	22.3 	0.640312	21 	23 
271	20    	22.25	0.622495	21 	23 
272	20    	22.25	0.622495	21 	23 
273	20    	22.25	0.622495	21 	23 
274	20    	22.25	0.622495	21 	23 
275	20    	22.25	0.622495	21 	23 
276	20    	22.25	0.622495	21 	23 
277	20    	22.25	0.622495	21 	23 
278	20    	22.25	0.622495	21 	23 
279	20    	22.25	0.622495	21 	23 
280	20    	22.25	0.622495	21 	23 
281	20    	22.25	0.622495	21 	23 
282	20    	22.25	0.622495	21 	23 
283	20    	22.25	0.622495	21 	23 
284	20    	22.2 	0.6     	21 	23 
285	20    	22.2 	0.6     	21 	23 
286	20    	22.2 	0.6     	21 	23 
287	20    	22.2 	0.6     	21 	23 
288	20    	22.2 	0.6     	21 	23 
289	20    	22.2 	0.6     	21 	23 
290	20    	22.2 	0.6     	21 	23 
291	20    	22.2 	0.6     	21 	23 
292	20    	22.2 	0.6     	21 	23 
293	20    	22.2 	0.6     	21 	23 
294	20    	22.2 	0.6     	21 	23 
295	20    	22.2 	0.6     	21 	23 
296	20    	22.2 	0.6     	21 	23 
297	20    	22.2 	0.6     	21 	23 
298	20    	22.2 	0.6     	21 	23 
299	20    	22.2 	0.6     	21 	23 
300	20    	22.2 	0.6     	21 	23 
301	20    	22.2 	0.6     	21 	23 
302	20    	22.2 	0.6     	21 	23 
303	20    	22.2 	0.6     	21 	23 
304	20    	22.2 	0.6     	21 	23 
305	20    	22.2 	0.6     	21 	23 
306	20    	22.2 	0.6     	21 	23 
307	20    	22.2 	0.6     	21 	23 
308	20    	22.2 	0.6     	21 	23 
309	20    	22.2 	0.6     	21 	23 
310	20    	22.1 	0.6245  	21 	23 
311	20    	22.1 	0.6245  	21 	23 
312	20    	22.1 	0.6245  	21 	23 
313	20    	22.1 	0.6245  	21 	23 
314	20    	22.1 	0.6245  	21 	23 
315	20    	22.1 	0.6245  	21 	23 
316	20    	22.1 	0.6245  	21 	23 
317	20    	22.1 	0.6245  	21 	23 
318	20    	22.1 	0.6245  	21 	23 
319	20    	22.1 	0.6245  	21 	23 
320	20    	22.1 	0.6245  	21 	23 
321	20    	22.1 	0.6245  	21 	23 
322	20    	22.1 	0.6245  	21 	23 
323	20    	22.1 	0.6245  	21 	23 
324	20    	22.1 	0.6245  	21 	23 
325	20    	22.1 	0.6245  	21 	23 
326	20    	22.1 	0.6245  	21 	23 
327	20    	22.1 	0.6245  	21 	23 
328	20    	22.1 	0.6245  	21 	23 
329	20    	22.1 	0.6245  	21 	23 
330	20    	22.1 	0.6245  	21 	23 
331	20    	22.1 	0.6245  	21 	23 
332	20    	22.1 	0.6245  	21 	23 
333	20    	22.1 	0.6245  	21 	23 
334	20    	22.1 	0.6245  	21 	23 
335	20    	22.1 	0.6245  	21 	23 
336	20    	22.1 	0.6245  	21 	23 
337	20    	22.1 	0.6245  	21 	23 
338	20    	22.1 	0.6245  	21 	23 
339	20    	22.1 	0.6245  	21 	23 
340	20    	22.1 	0.6245  	21 	23 
341	20    	22.1 	0.6245  	21 	23 
342	20    	22.1 	0.6245  	21 	23 
343	20    	22.1 	0.6245  	21 	23 
344	20    	22.1 	0.6245  	21 	23 
345	20    	22.1 	0.6245  	21 	23 
346	20    	22.1 	0.6245  	21 	23 
347	20    	22.1 	0.6245  	21 	23 
348	20    	22.1 	0.6245  	21 	23 
349	20    	22.1 	0.6245  	21 	23 
350	20    	22.1 	0.6245  	21 	23 
351	20    	22.1 	0.6245  	21 	23 
352	20    	22.1 	0.6245  	21 	23 
353	20    	22.1 	0.6245  	21 	23 
354	20    	22.1 	0.6245  	21 	23 
355	20    	22.1 	0.6245  	21 	23 
356	20    	22.1 	0.6245  	21 	23 
357	20    	22.1 	0.6245  	21 	23 
358	20    	22.1 	0.6245  	21 	23 
359	20    	22.1 	0.6245  	21 	23 
360	20    	22   	0.632456	21 	23 
361	20    	22   	0.632456	21 	23 
362	20    	22   	0.632456	21 	23 
363	20    	22   	0.632456	21 	23 
364	20    	22   	0.632456	21 	23 
365	20    	22   	0.632456	21 	23 
366	20    	22   	0.632456	21 	23 
367	20    	22   	0.632456	21 	23 
368	20    	22   	0.632456	21 	23 
369	20    	22   	0.632456	21 	23 
370	20    	22   	0.632456	21 	23 
371	20    	22   	0.632456	21 	23 
372	20    	22   	0.632456	21 	23 
373	20    	22   	0.632456	21 	23 
374	20    	22   	0.632456	21 	23 
375	20    	22   	0.632456	21 	23 
376	20    	22   	0.632456	21 	23 
377	20    	22   	0.632456	21 	23 
378	20    	22   	0.632456	21 	23 
379	20    	21.95	0.589491	21 	23 
380	20    	21.95	0.589491	21 	23 
381	20    	21.95	0.589491	21 	23 
382	20    	21.95	0.589491	21 	23 
383	20    	21.95	0.589491	21 	23 
384	20    	21.95	0.589491	21 	23 
385	20    	21.95	0.589491	21 	23 
386	20    	21.95	0.589491	21 	23 
387	20    	21.9 	0.538516	21 	23 
388	20    	21.9 	0.538516	21 	23 
389	20    	21.9 	0.538516	21 	23 
390	20    	21.9 	0.538516	21 	23 
391	20    	21.9 	0.538516	21 	23 
392	20    	21.9 	0.538516	21 	23 
393	20    	21.9 	0.538516	21 	23 
394	20    	21.9 	0.538516	21 	23 
395	20    	21.9 	0.538516	21 	23 
396	20    	21.9 	0.538516	21 	23 
397	20    	21.9 	0.538516	21 	23 
398	20    	21.9 	0.538516	21 	23 
399	20    	21.9 	0.538516	21 	23 
400	20    	21.9 	0.538516	21 	23 
401	20    	21.9 	0.538516	21 	23 
402	20    	21.9 	0.538516	21 	23 
403	20    	21.9 	0.538516	21 	23 
404	20    	21.9 	0.538516	21 	23 
405	20    	21.9 	0.538516	21 	23 
406	20    	21.9 	0.538516	21 	23 
407	20    	21.9 	0.538516	21 	23 
408	20    	21.8 	0.509902	21 	23 
409	20    	21.8 	0.509902	21 	23 
410	20    	21.8 	0.509902	21 	23 
411	20    	21.8 	0.509902	21 	23 
412	20    	21.8 	0.509902	21 	23 
413	20    	21.8 	0.509902	21 	23 
414	20    	21.8 	0.509902	21 	23 
415	20    	21.8 	0.509902	21 	23 
416	20    	21.8 	0.509902	21 	23 
417	20    	21.8 	0.509902	21 	23 
418	20    	21.8 	0.509902	21 	23 
419	20    	21.8 	0.509902	21 	23 
420	20    	21.8 	0.509902	21 	23 
421	20    	21.8 	0.509902	21 	23 
422	20    	21.8 	0.509902	21 	23 
423	20    	21.8 	0.509902	21 	23 
424	20    	21.8 	0.509902	21 	23 
425	20    	21.8 	0.509902	21 	23 
426	20    	21.8 	0.509902	21 	23 
427	20    	21.8 	0.509902	21 	23 
428	20    	21.8 	0.509902	21 	23 
429	20    	21.8 	0.509902	21 	23 
430	20    	21.8 	0.509902	21 	23 
431	20    	21.8 	0.509902	21 	23 
432	20    	21.8 	0.509902	21 	23 
433	20    	21.8 	0.509902	21 	23 
434	20    	21.8 	0.509902	21 	23 
435	20    	21.8 	0.509902	21 	23 
436	20    	21.8 	0.509902	21 	23 
437	20    	21.8 	0.509902	21 	23 
438	20    	21.8 	0.509902	21 	23 
439	20    	21.8 	0.509902	21 	23 
440	20    	21.8 	0.509902	21 	23 
441	20    	21.8 	0.509902	21 	23 
442	20    	21.8 	0.509902	21 	23 
443	20    	21.8 	0.509902	21 	23 
444	20    	21.75	0.433013	21 	22 
445	20    	21.75	0.433013	21 	22 
446	20    	21.75	0.433013	21 	22 
447	20    	21.75	0.433013	21 	22 
448	20    	21.75	0.433013	21 	22 
449	20    	21.75	0.433013	21 	22 
450	20    	21.75	0.433013	21 	22 
451	20    	21.75	0.433013	21 	22 
452	20    	21.75	0.433013	21 	22 
453	20    	21.75	0.433013	21 	22 
454	20    	21.75	0.433013	21 	22 
455	20    	21.75	0.433013	21 	22 
456	20    	21.75	0.433013	21 	22 
457	20    	21.75	0.433013	21 	22 
458	20    	21.75	0.433013	21 	22 
459	20    	21.75	0.433013	21 	22 
460	20    	21.75	0.433013	21 	22 
461	20    	21.75	0.433013	21 	22 
462	20    	21.75	0.433013	21 	22 
463	20    	21.75	0.433013	21 	22 
464	20    	21.75	0.433013	21 	22 
465	20    	21.75	0.433013	21 	22 
466	20    	21.75	0.433013	21 	22 
467	20    	21.75	0.433013	21 	22 
468	20    	21.75	0.433013	21 	22 
469	20    	21.75	0.433013	21 	22 
470	20    	21.75	0.433013	21 	22 
471	20    	21.75	0.433013	21 	22 
472	20    	21.75	0.433013	21 	22 
473	20    	21.75	0.433013	21 	22 
474	20    	21.75	0.433013	21 	22 
475	20    	21.75	0.433013	21 	22 
476	20    	21.75	0.433013	21 	22 
477	20    	21.75	0.433013	21 	22 
478	20    	21.75	0.433013	21 	22 
479	20    	21.75	0.433013	21 	22 
480	20    	21.75	0.433013	21 	22 
481	20    	21.75	0.433013	21 	22 
482	20    	21.75	0.433013	21 	22 
483	20    	21.75	0.433013	21 	22 
484	20    	21.75	0.433013	21 	22 
485	20    	21.75	0.433013	21 	22 
486	20    	21.75	0.433013	21 	22 
487	20    	21.75	0.433013	21 	22 
488	20    	21.75	0.433013	21 	22 
489	20    	21.7 	0.458258	21 	22 
490	20    	21.7 	0.458258	21 	22 
491	20    	21.7 	0.458258	21 	22 
492	20    	21.7 	0.458258	21 	22 
493	20    	21.7 	0.458258	21 	22 
494	20    	21.7 	0.458258	21 	22 
495	20    	21.7 	0.458258	21 	22 
496	20    	21.7 	0.458258	21 	22 
497	20    	21.7 	0.458258	21 	22 
498	20    	21.7 	0.458258	21 	22 
499	20    	21.7 	0.458258	21 	22 
