gen	nevals	avg  	std     	min	max
0  	20    	31.35	3.32077 	27 	40 
1  	20    	28.2 	1.72047 	23 	31 
2  	20    	27.4 	1.49666 	23 	29 
3  	20    	26.75	1.40979 	23 	29 
4  	20    	26.65	1.31434 	23 	28 
5  	20    	26.4 	1.28062 	23 	28 
6  	20    	26.1 	1.13578 	23 	28 
7  	20    	26.05	1.07121 	23 	27 
8  	20    	26.05	1.07121 	23 	27 
9  	20    	25.95	1.02347 	23 	27 
10 	20    	25.7 	0.9     	23 	27 
11 	20    	25.7 	0.9     	23 	27 
12 	20    	25.7 	0.9     	23 	27 
13 	20    	25.65	0.852936	23 	27 
14 	20    	25.65	0.852936	23 	27 
15 	20    	25.55	0.804674	23 	27 
16 	20    	25.45	0.739932	23 	26 
17 	20    	25.4 	0.734847	23 	26 
18 	20    	25.4 	0.734847	23 	26 
19 	20    	25.4 	0.734847	23 	26 
20 	20    	25.4 	0.734847	23 	26 
21 	20    	25.4 	0.734847	23 	26 
22 	20    	25.35	0.726292	23 	26 
23 	20    	25.3 	0.714143	23 	26 
24 	20    	25.2 	0.748331	23 	26 
25 	20    	25.2 	0.748331	23 	26 
26 	20    	25.2 	0.748331	23 	26 
27 	20    	25.15	0.726292	23 	26 
28 	20    	25   	0.707107	23 	26 
29 	20    	25   	0.707107	23 	26 
30 	20    	24.9 	0.6245  	23 	26 
31 	20    	24.85	0.572276	23 	26 
32 	20    	24.8 	0.509902	23 	25 
33 	20    	24.55	0.668954	23 	25 
34 	20    	24.55	0.668954	23 	25 
35 	20    	24.55	0.668954	23 	25 
36 	20    	24.55	0.668954	23 	25 
37 	20    	24.55	0.668954	23 	25 
38 	20    	24.55	0.668954	23 	25 
39 	20    	24.45	0.739932	23 	25 
40 	20    	24.45	0.739932	23 	25 
41 	20    	24.45	0.739932	23 	25 
42 	20    	24.45	0.739932	23 	25 
43 	20    	24.45	0.739932	23 	25 
44 	20    	24.45	0.739932	23 	25 
45 	20    	24.45	0.739932	23 	25 
46 	20    	24.45	0.739932	23 	25 
47 	20    	24.45	0.739932	23 	25 
48 	20    	24.45	0.739932	23 	25 
49 	20    	24.45	0.739932	23 	25 
50 	20    	24.45	0.739932	23 	25 
51 	20    	24.45	0.739932	23 	25 
52 	20    	24.45	0.739932	23 	25 
53 	20    	24.45	0.739932	23 	25 
54 	20    	24.45	0.739932	23 	25 
55 	20    	24.45	0.739932	23 	25 
56 	20    	24.45	0.739932	23 	25 
57 	20    	24.45	0.739932	23 	25 
58 	20    	24.35	0.792149	23 	25 
59 	20    	24.35	0.792149	23 	25 
60 	20    	24.35	0.792149	23 	25 
61 	20    	24.3 	0.781025	23 	25 
62 	20    	24.3 	0.781025	23 	25 
63 	20    	24.3 	0.781025	23 	25 
64 	20    	24.3 	0.781025	23 	25 
65 	20    	24.3 	0.781025	23 	25 
66 	20    	24.3 	0.781025	23 	25 
67 	20    	24.25	0.766485	23 	25 
68 	20    	24.25	0.766485	23 	25 
69 	20    	24.25	0.766485	23 	25 
70 	20    	24.25	0.766485	23 	25 
71 	20    	24.25	0.766485	23 	25 
72 	20    	24.25	0.766485	23 	25 
73 	20    	24.2 	0.748331	23 	25 
74 	20    	24.2 	0.748331	23 	25 
75 	20    	24.2 	0.748331	23 	25 
76 	20    	24.2 	0.748331	23 	25 
77 	20    	24.2 	0.748331	23 	25 
78 	20    	24.2 	0.748331	23 	25 
79 	20    	24.2 	0.748331	23 	25 
80 	20    	24.1 	0.7     	23 	25 
81 	20    	24.1 	0.7     	23 	25 
82 	20    	24.1 	0.7     	23 	25 
83 	20    	24.05	0.668954	23 	25 
84 	20    	24   	0.632456	23 	25 
85 	20    	24   	0.632456	23 	25 
86 	20    	24   	0.632456	23 	25 
87 	20    	24   	0.632456	23 	25 
88 	20    	24   	0.632456	23 	25 
89 	20    	23.95	0.589491	23 	25 
90 	20    	23.95	0.589491	23 	25 
91 	20    	23.85	0.572276	23 	25 
92 	20    	23.85	0.572276	23 	25 
93 	20    	23.65	0.572276	22 	24 
94 	20    	23.65	0.572276	22 	24 
95 	20    	23.65	0.572276	22 	24 
96 	20    	23.65	0.572276	22 	24 
97 	20    	23.6 	0.583095	22 	24 
98 	20    	23.6 	0.583095	22 	24 
99 	20    	23.6 	0.583095	22 	24 
100	20    	23.6 	0.583095	22 	24 
101	20    	23.6 	0.583095	22 	24 
102	20    	23.6 	0.583095	22 	24 
103	20    	23.6 	0.583095	22 	24 
104	20    	23.6 	0.583095	22 	24 
105	20    	23.6 	0.583095	22 	24 
106	20    	23.6 	0.583095	22 	24 
107	20    	23.5 	0.591608	22 	24 
108	20    	23.5 	0.591608	22 	24 
109	20    	23.5 	0.591608	22 	24 
110	20    	23.45	0.589491	22 	24 
111	20    	23.45	0.589491	22 	24 
112	20    	23.45	0.589491	22 	24 
113	20    	23.45	0.589491	22 	24 
114	20    	23.45	0.589491	22 	24 
115	20    	23.45	0.589491	22 	24 
116	20    	23.45	0.589491	22 	24 
117	20    	23.45	0.589491	22 	24 
118	20    	23.45	0.589491	22 	24 
119	20    	23.45	0.589491	22 	24 
120	20    	23.4 	0.583095	22 	24 
121	20    	23.4 	0.583095	22 	24 
122	20    	23.4 	0.583095	22 	24 
123	20    	23.4 	0.583095	22 	24 
124	20    	23.4 	0.583095	22 	24 
125	20    	23.4 	0.583095	22 	24 
126	20    	23.4 	0.583095	22 	24 
127	20    	23.4 	0.583095	22 	24 
128	20    	23.4 	0.583095	22 	24 
129	20    	23.4 	0.583095	22 	24 
130	20    	23.4 	0.583095	22 	24 
131	20    	23.35	0.572276	22 	24 
132	20    	23.35	0.572276	22 	24 
133	20    	23.35	0.572276	22 	24 
134	20    	23.35	0.572276	22 	24 
135	20    	23.35	0.572276	22 	24 
136	20    	23.35	0.572276	22 	24 
137	20    	23.35	0.572276	22 	24 
138	20    	23.35	0.572276	22 	24 
139	20    	23.3 	0.556776	22 	24 
140	20    	23.3 	0.556776	22 	24 
141	20    	23.3 	0.556776	22 	24 
142	20    	23.3 	0.556776	22 	24 
143	20    	23.3 	0.556776	22 	24 
144	20    	23.3 	0.556776	22 	24 
145	20    	23.3 	0.556776	22 	24 
146	20    	23.3 	0.556776	22 	24 
147	20    	23.3 	0.556776	22 	24 
148	20    	23.3 	0.556776	22 	24 
149	20    	23.3 	0.556776	22 	24 
150	20    	23.3 	0.556776	22 	24 
151	20    	23.3 	0.556776	22 	24 
152	20    	23.3 	0.556776	22 	24 
153	20    	23.3 	0.556776	22 	24 
154	20    	23.2 	0.6     	22 	24 
155	20    	23.2 	0.6     	22 	24 
156	20    	23.2 	0.6     	22 	24 
157	20    	23.2 	0.6     	22 	24 
158	20    	23.15	0.572276	22 	24 
159	20    	23.15	0.572276	22 	24 
160	20    	23.15	0.572276	22 	24 
161	20    	23.15	0.572276	22 	24 
162	20    	23.15	0.572276	22 	24 
163	20    	23.15	0.572276	22 	24 
164	20    	23.15	0.572276	22 	24 
165	20    	23.15	0.572276	22 	24 
166	20    	23.15	0.572276	22 	24 
167	20    	23.15	0.572276	22 	24 
168	20    	23.15	0.572276	22 	24 
169	20    	23.15	0.572276	22 	24 
170	20    	23.15	0.572276	22 	24 
171	20    	23.15	0.572276	22 	24 
172	20    	23.15	0.572276	22 	24 
173	20    	23.15	0.572276	22 	24 
174	20    	23.15	0.572276	22 	24 
175	20    	23.15	0.572276	22 	24 
176	20    	23.15	0.572276	22 	24 
177	20    	23.15	0.572276	22 	24 
178	20    	23.15	0.572276	22 	24 
179	20    	23.15	0.572276	22 	24 
180	20    	23.15	0.572276	22 	24 
181	20    	23.15	0.572276	22 	24 
182	20    	23.15	0.572276	22 	24 
183	20    	23.15	0.572276	22 	24 
184	20    	23.15	0.572276	22 	24 
185	20    	23.15	0.572276	22 	24 
186	20    	23.15	0.572276	22 	24 
187	20    	23.15	0.572276	22 	24 
188	20    	23.15	0.572276	22 	24 
189	20    	23.15	0.572276	22 	24 
190	20    	23.15	0.572276	22 	24 
191	20    	23.15	0.572276	22 	24 
192	20    	23.15	0.572276	22 	24 
193	20    	23.15	0.572276	22 	24 
194	20    	23.15	0.572276	22 	24 
195	20    	23.15	0.572276	22 	24 
196	20    	23.15	0.572276	22 	24 
197	20    	23.15	0.572276	22 	24 
198	20    	23.15	0.572276	22 	24 
199	20    	23.15	0.572276	22 	24 
200	20    	23.05	0.589491	22 	24 
201	20    	23.05	0.589491	22 	24 
202	20    	23.05	0.589491	22 	24 
203	20    	23.05	0.589491	22 	24 
204	20    	23.05	0.589491	22 	24 
205	20    	23.05	0.589491	22 	24 
206	20    	23.05	0.589491	22 	24 
207	20    	23.05	0.589491	22 	24 
208	20    	23.05	0.589491	22 	24 
209	20    	23   	0.547723	22 	24 
210	20    	23   	0.547723	22 	24 
211	20    	23   	0.547723	22 	24 
212	20    	23   	0.547723	22 	24 
213	20    	23   	0.547723	22 	24 
214	20    	23   	0.547723	22 	24 
215	20    	23   	0.547723	22 	24 
216	20    	23   	0.547723	22 	24 
217	20    	23   	0.547723	22 	24 
218	20    	23   	0.547723	22 	24 
219	20    	23   	0.547723	22 	24 
220	20    	23   	0.547723	22 	24 
221	20    	23   	0.547723	22 	24 
222	20    	23   	0.547723	22 	24 
223	20    	23   	0.547723	22 	24 
224	20    	23   	0.547723	22 	24 
225	20    	23   	0.547723	22 	24 
226	20    	23   	0.547723	22 	24 
227	20    	23   	0.547723	22 	24 
228	20    	22.95	0.497494	22 	24 
229	20    	22.95	0.497494	22 	24 
230	20    	22.95	0.497494	22 	24 
231	20    	22.85	0.47697 	22 	24 
232	20    	22.85	0.47697 	22 	24 
233	20    	22.85	0.47697 	22 	24 
234	20    	22.85	0.47697 	22 	24 
235	20    	22.85	0.47697 	22 	24 
236	20    	22.85	0.47697 	22 	24 
237	20    	22.85	0.47697 	22 	24 
238	20    	22.85	0.47697 	22 	24 
239	20    	22.85	0.47697 	22 	24 
240	20    	22.85	0.47697 	22 	24 
241	20    	22.85	0.47697 	22 	24 
242	20    	22.85	0.47697 	22 	24 
243	20    	22.85	0.47697 	22 	24 
244	20    	22.85	0.47697 	22 	24 
245	20    	22.85	0.47697 	22 	24 
246	20    	22.85	0.47697 	22 	24 
247	20    	22.85	0.47697 	22 	24 
248	20    	22.85	0.47697 	22 	24 
249	20    	22.85	0.47697 	22 	24 
250	20    	22.85	0.47697 	22 	24 
251	20    	22.85	0.47697 	22 	24 
252	20    	22.85	0.47697 	22 	24 
253	20    	22.85	0.47697 	22 	24 
254	20    	22.8 	0.4     	22 	23 
255	20    	22.8 	0.4     	22 	23 
256	20    	22.8 	0.4     	22 	23 
257	20    	22.8 	0.4     	22 	23 
258	20    	22.8 	0.4     	22 	23 
259	20    	22.8 	0.4     	22 	23 
260	20    	22.8 	0.4     	22 	23 
261	20    	22.8 	0.4     	22 	23 
262	20    	22.8 	0.4     	22 	23 
263	20    	22.8 	0.4     	22 	23 
264	20    	22.8 	0.4     	22 	23 
265	20    	22.8 	0.4     	22 	23 
266	20    	22.8 	0.4     	22 	23 
267	20    	22.8 	0.4     	22 	23 
268	20    	22.8 	0.4     	22 	23 
269	20    	22.8 	0.4     	22 	23 
270	20    	22.8 	0.4     	22 	23 
271	20    	22.8 	0.4     	22 	23 
272	20    	22.8 	0.4     	22 	23 
273	20    	22.8 	0.4     	22 	23 
274	20    	22.8 	0.4     	22 	23 
275	20    	22.8 	0.4     	22 	23 
276	20    	22.8 	0.4     	22 	23 
277	20    	22.8 	0.4     	22 	23 
278	20    	22.8 	0.4     	22 	23 
279	20    	22.8 	0.4     	22 	23 
280	20    	22.8 	0.4     	22 	23 
281	20    	22.8 	0.4     	22 	23 
282	20    	22.8 	0.4     	22 	23 
283	20    	22.8 	0.4     	22 	23 
284	20    	22.8 	0.4     	22 	23 
285	20    	22.8 	0.4     	22 	23 
286	20    	22.8 	0.4     	22 	23 
287	20    	22.8 	0.4     	22 	23 
288	20    	22.8 	0.4     	22 	23 
289	20    	22.8 	0.4     	22 	23 
290	20    	22.8 	0.4     	22 	23 
291	20    	22.8 	0.4     	22 	23 
292	20    	22.8 	0.4     	22 	23 
293	20    	22.8 	0.4     	22 	23 
294	20    	22.8 	0.4     	22 	23 
295	20    	22.8 	0.4     	22 	23 
296	20    	22.8 	0.4     	22 	23 
297	20    	22.8 	0.4     	22 	23 
298	20    	22.8 	0.4     	22 	23 
299	20    	22.8 	0.4     	22 	23 
300	20    	22.8 	0.4     	22 	23 
301	20    	22.8 	0.4     	22 	23 
302	20    	22.8 	0.4     	22 	23 
303	20    	22.8 	0.4     	22 	23 
304	20    	22.8 	0.4     	22 	23 
305	20    	22.8 	0.4     	22 	23 
306	20    	22.8 	0.4     	22 	23 
307	20    	22.8 	0.4     	22 	23 
308	20    	22.8 	0.4     	22 	23 
309	20    	22.8 	0.4     	22 	23 
310	20    	22.8 	0.4     	22 	23 
311	20    	22.8 	0.4     	22 	23 
312	20    	22.8 	0.4     	22 	23 
313	20    	22.8 	0.4     	22 	23 
314	20    	22.8 	0.4     	22 	23 
315	20    	22.8 	0.4     	22 	23 
316	20    	22.8 	0.4     	22 	23 
317	20    	22.8 	0.4     	22 	23 
318	20    	22.8 	0.4     	22 	23 
319	20    	22.8 	0.4     	22 	23 
320	20    	22.8 	0.4     	22 	23 
321	20    	22.8 	0.4     	22 	23 
322	20    	22.8 	0.4     	22 	23 
323	20    	22.8 	0.4     	22 	23 
324	20    	22.8 	0.4     	22 	23 
325	20    	22.8 	0.4     	22 	23 
326	20    	22.8 	0.4     	22 	23 
327	20    	22.8 	0.4     	22 	23 
328	20    	22.8 	0.4     	22 	23 
329	20    	22.8 	0.4     	22 	23 
330	20    	22.8 	0.4     	22 	23 
331	20    	22.8 	0.4     	22 	23 
332	20    	22.8 	0.4     	22 	23 
333	20    	22.8 	0.4     	22 	23 
334	20    	22.8 	0.4     	22 	23 
335	20    	22.8 	0.4     	22 	23 
336	20    	22.8 	0.4     	22 	23 
337	20    	22.8 	0.4     	22 	23 
338	20    	22.8 	0.4     	22 	23 
339	20    	22.75	0.433013	22 	23 
340	20    	22.75	0.433013	22 	23 
341	20    	22.75	0.433013	22 	23 
342	20    	22.75	0.433013	22 	23 
343	20    	22.7 	0.458258	22 	23 
344	20    	22.7 	0.458258	22 	23 
345	20    	22.7 	0.458258	22 	23 
346	20    	22.7 	0.458258	22 	23 
347	20    	22.7 	0.458258	22 	23 
348	20    	22.7 	0.458258	22 	23 
349	20    	22.7 	0.458258	22 	23 
350	20    	22.7 	0.458258	22 	23 
351	20    	22.7 	0.458258	22 	23 
352	20    	22.7 	0.458258	22 	23 
353	20    	22.7 	0.458258	22 	23 
354	20    	22.7 	0.458258	22 	23 
355	20    	22.7 	0.458258	22 	23 
356	20    	22.7 	0.458258	22 	23 
357	20    	22.7 	0.458258	22 	23 
358	20    	22.65	0.47697 	22 	23 
359	20    	22.65	0.47697 	22 	23 
360	20    	22.65	0.47697 	22 	23 
361	20    	22.65	0.47697 	22 	23 
362	20    	22.65	0.47697 	22 	23 
363	20    	22.65	0.47697 	22 	23 
364	20    	22.65	0.47697 	22 	23 
365	20    	22.65	0.47697 	22 	23 
366	20    	22.65	0.47697 	22 	23 
367	20    	22.65	0.47697 	22 	23 
368	20    	22.65	0.47697 	22 	23 
369	20    	22.65	0.47697 	22 	23 
370	20    	22.65	0.47697 	22 	23 
371	20    	22.65	0.47697 	22 	23 
372	20    	22.65	0.47697 	22 	23 
373	20    	22.65	0.47697 	22 	23 
374	20    	22.65	0.47697 	22 	23 
375	20    	22.65	0.47697 	22 	23 
376	20    	22.65	0.47697 	22 	23 
377	20    	22.65	0.47697 	22 	23 
378	20    	22.65	0.47697 	22 	23 
379	20    	22.65	0.47697 	22 	23 
380	20    	22.65	0.47697 	22 	23 
381	20    	22.65	0.47697 	22 	23 
382	20    	22.65	0.47697 	22 	23 
383	20    	22.65	0.47697 	22 	23 
384	20    	22.65	0.47697 	22 	23 
385	20    	22.65	0.47697 	22 	23 
386	20    	22.65	0.47697 	22 	23 
387	20    	22.65	0.47697 	22 	23 
388	20    	22.65	0.47697 	22 	23 
389	20    	22.65	0.47697 	22 	23 
390	20    	22.65	0.47697 	22 	23 
391	20    	22.65	0.47697 	22 	23 
392	20    	22.65	0.47697 	22 	23 
393	20    	22.65	0.47697 	22 	23 
394	20    	22.65	0.47697 	22 	23 
395	20    	22.65	0.47697 	22 	23 
396	20    	22.65	0.47697 	22 	23 
397	20    	22.65	0.47697 	22 	23 
398	20    	22.65	0.47697 	22 	23 
399	20    	22.65	0.47697 	22 	23 
400	20    	22.65	0.47697 	22 	23 
401	20    	22.65	0.47697 	22 	23 
402	20    	22.65	0.47697 	22 	23 
403	20    	22.65	0.47697 	22 	23 
404	20    	22.65	0.47697 	22 	23 
405	20    	22.65	0.47697 	22 	23 
406	20    	22.65	0.47697 	22 	23 
407	20    	22.65	0.47697 	22 	23 
408	20    	22.65	0.47697 	22 	23 
409	20    	22.65	0.47697 	22 	23 
410	20    	22.65	0.47697 	22 	23 
411	20    	22.65	0.47697 	22 	23 
412	20    	22.65	0.47697 	22 	23 
413	20    	22.65	0.47697 	22 	23 
414	20    	22.65	0.47697 	22 	23 
415	20    	22.65	0.47697 	22 	23 
416	20    	22.65	0.47697 	22 	23 
417	20    	22.65	0.47697 	22 	23 
418	20    	22.65	0.47697 	22 	23 
419	20    	22.65	0.47697 	22 	23 
420	20    	22.65	0.47697 	22 	23 
421	20    	22.65	0.47697 	22 	23 
422	20    	22.65	0.47697 	22 	23 
423	20    	22.65	0.47697 	22 	23 
424	20    	22.65	0.47697 	22 	23 
425	20    	22.65	0.47697 	22 	23 
426	20    	22.65	0.47697 	22 	23 
427	20    	22.65	0.47697 	22 	23 
428	20    	22.65	0.47697 	22 	23 
429	20    	22.55	0.589491	21 	23 
430	20    	22.55	0.589491	21 	23 
431	20    	22.55	0.589491	21 	23 
432	20    	22.55	0.589491	21 	23 
433	20    	22.55	0.589491	21 	23 
434	20    	22.55	0.589491	21 	23 
435	20    	22.55	0.589491	21 	23 
436	20    	22.55	0.589491	21 	23 
437	20    	22.55	0.589491	21 	23 
438	20    	22.55	0.589491	21 	23 
439	20    	22.55	0.589491	21 	23 
440	20    	22.55	0.589491	21 	23 
441	20    	22.55	0.589491	21 	23 
442	20    	22.55	0.589491	21 	23 
443	20    	22.55	0.589491	21 	23 
444	20    	22.55	0.589491	21 	23 
445	20    	22.55	0.589491	21 	23 
446	20    	22.55	0.589491	21 	23 
447	20    	22.55	0.589491	21 	23 
448	20    	22.55	0.589491	21 	23 
449	20    	22.55	0.589491	21 	23 
450	20    	22.55	0.589491	21 	23 
451	20    	22.55	0.589491	21 	23 
452	20    	22.55	0.589491	21 	23 
453	20    	22.55	0.589491	21 	23 
454	20    	22.55	0.589491	21 	23 
455	20    	22.55	0.589491	21 	23 
456	20    	22.55	0.589491	21 	23 
457	20    	22.55	0.589491	21 	23 
458	20    	22.5 	0.591608	21 	23 
459	20    	22.5 	0.591608	21 	23 
460	20    	22.5 	0.591608	21 	23 
461	20    	22.5 	0.591608	21 	23 
462	20    	22.5 	0.591608	21 	23 
463	20    	22.5 	0.591608	21 	23 
464	20    	22.5 	0.591608	21 	23 
465	20    	22.5 	0.591608	21 	23 
466	20    	22.5 	0.591608	21 	23 
467	20    	22.5 	0.591608	21 	23 
468	20    	22.5 	0.591608	21 	23 
469	20    	22.5 	0.591608	21 	23 
470	20    	22.5 	0.591608	21 	23 
471	20    	22.5 	0.591608	21 	23 
472	20    	22.5 	0.591608	21 	23 
473	20    	22.5 	0.591608	21 	23 
474	20    	22.5 	0.591608	21 	23 
475	20    	22.5 	0.591608	21 	23 
476	20    	22.5 	0.591608	21 	23 
477	20    	22.5 	0.591608	21 	23 
478	20    	22.5 	0.591608	21 	23 
479	20    	22.5 	0.591608	21 	23 
480	20    	22.5 	0.591608	21 	23 
481	20    	22.5 	0.591608	21 	23 
482	20    	22.5 	0.591608	21 	23 
483	20    	22.5 	0.591608	21 	23 
484	20    	22.45	0.589491	21 	23 
485	20    	22.45	0.589491	21 	23 
486	20    	22.45	0.589491	21 	23 
487	20    	22.45	0.589491	21 	23 
488	20    	22.45	0.589491	21 	23 
489	20    	22.45	0.589491	21 	23 
490	20    	22.45	0.589491	21 	23 
491	20    	22.45	0.589491	21 	23 
492	20    	22.45	0.589491	21 	23 
493	20    	22.45	0.589491	21 	23 
494	20    	22.45	0.589491	21 	23 
495	20    	22.45	0.589491	21 	23 
496	20    	22.45	0.589491	21 	23 
497	20    	22.45	0.589491	21 	23 
498	20    	22.45	0.589491	21 	23 
499	20    	22.45	0.589491	21 	23 
