Run:0 Evals:10000 MES:10000.0 MAD:0.0 Failure:1 Best:0.742249 Solution:1
Run:1 Evals:10000 MES:10000.0 MAD:0.0 Failure:1 Best:0.745514 Solution:1
Run:2 Evals:10000 MES:10000.0 MAD:0.0 Failure:1 Best:0.770874 Solution:1
Run:3 Evals:10000 MES:10000.0 MAD:0.0 Failure:1 Best:0.76683 Solution:1
Run:4 Evals:10000 MES:10000.0 MAD:0.0 Failure:1 Best:0.743179 Solution:1
Run:5 Evals:10000 MES:10000.0 MAD:0.0 Failure:1 Best:0.767593 Solution:1
Run:6 Evals:10000 MES:10000.0 MAD:0.0 Failure:1 Best:0.760269 Solution:1
Run:7 Evals:10000 MES:10000.0 MAD:0.0 Failure:1 Best:0.761047 Solution:1
Run:8 Evals:10000 MES:10000.0 MAD:0.0 Failure:1 Best:0.770111 Solution:1
Run:9 Evals:10000 MES:10000.0 MAD:0.0 Failure:1 Best:0.767593 Solution:1
