Run:0 Evals:10000 MES:10000.0 MAD:0.0 Failure:1 Best:0.953491 Solution:1
Run:1 Evals:10000 MES:10000.0 MAD:0.0 Failure:1 Best:0.951218 Solution:1
Run:2 Evals:1117 MES:5558.5 MAD:6584.97775349 Failure:0 Best:1.0 Solution:1
Run:3 Evals:1248 MES:1248.0 MAD:1712.40556237 Failure:0 Best:1.0 Solution:1
Run:4 Evals:78 MES:1182.5 MAD:1626.4146337 Failure:0 Best:1.0 Solution:1
Run:5 Evals:415 MES:5207.5 MAD:7105.37113219 Failure:0 Best:1.0 Solution:1
Run:6 Evals:10000 MES:10000.0 MAD:0.0 Failure:1 Best:0.951218 Solution:1
Run:7 Evals:10000 MES:10000.0 MAD:0.0 Failure:1 Best:0.860458 Solution:1
Run:8 Evals:93 MES:10000.0 MAD:0.0 Failure:0 Best:1.0 Solution:1
Run:9 Evals:359 MES:5207.5 MAD:7105.37113219 Failure:0 Best:1.0 Solution:1
