Run:39 Evals:10000 MES:10000.0 MAD:0.0 FAILURES:0 Best:1.0 Solution:1
Run:40 Evals:10000 MES:10000.0 MAD:0.0 FAILURES:0 Best:1.0 Solution:1
Run:41 Evals:10000 MES:10000.0 MAD:0.0 FAILURES:0 Best:1.0 Solution:1
Run:42 Evals:10000 MES:10000.0 MAD:0.0 FAILURES:0 Best:1.0 Solution:1
Run:43 Evals:10000 MES:10000.0 MAD:0.0 FAILURES:0 Best:1.0 Solution:1
Run:44 Evals:10000 MES:10000.0 MAD:0.0 FAILURES:0 Best:1.0 Solution:1
Run:45 Evals:10000 MES:10000.0 MAD:0.0 FAILURES:0 Best:1.0 Solution:1
Run:46 Evals:10000 MES:10000.0 MAD:0.0 FAILURES:0 Best:1.0 Solution:1
Run:47 Evals:10000 MES:10000.0 MAD:0.0 FAILURES:0 Best:1.0 Solution:1
Run:48 Evals:10000 MES:10000.0 MAD:0.0 FAILURES:0 Best:1.0 Solution:1

