Run:49 Evals:10000 MES:10000.0 MAD:0.0 FAILURES:0 Best:1.0 Solution:1
Run:50 Evals:10000 MES:10000.0 MAD:0.0 FAILURES:0 Best:1.0 Solution:1
Run:51 Evals:10000 MES:10000.0 MAD:0.0 FAILURES:0 Best:1.0 Solution:1
Run:52 Evals:10000 MES:10000.0 MAD:0.0 FAILURES:0 Best:1.0 Solution:1
Run:53 Evals:10000 MES:10000.0 MAD:0.0 FAILURES:0 Best:1.0 Solution:1
Run:54 Evals:10000 MES:10000.0 MAD:0.0 FAILURES:0 Best:1.0 Solution:1
Run:55 Evals:10000 MES:10000.0 MAD:0.0 FAILURES:0 Best:1.0 Solution:1
Run:56 Evals:10000 MES:10000.0 MAD:0.0 FAILURES:0 Best:1.0 Solution:1
Run:57 Evals:10000 MES:10000.0 MAD:0.0 FAILURES:0 Best:1.0 Solution:1
Run:58 Evals:10000 MES:10000.0 MAD:0.0 FAILURES:0 Best:1.0 Solution:1

