Run:179 Evals:10000 MES:10000.0 MAD:0.0 FAILURES:25 Best:0.998109640831758 Solution:1
Run:180 Evals:10000 MES:10000.0 MAD:0.0 FAILURES:25 Best:1.0 Solution:1
Run:181 Evals:10000 MES:10000.0 MAD:0.0 FAILURES:26 Best:0.9895833333333334 Solution:1
Run:182 Evals:10000 MES:10000.0 MAD:0.0 FAILURES:27 Best:0.9965277777777778 Solution:1
Run:183 Evals:10000 MES:10000.0 MAD:0.0 FAILURES:28 Best:0.9965277777777778 Solution:1
Run:184 Evals:10000 MES:10000.0 MAD:0.0 FAILURES:29 Best:0.9965277777777778 Solution:1
Run:185 Evals:10000 MES:10000.0 MAD:0.0 FAILURES:30 Best:0.9982638888888888 Solution:1
Run:186 Evals:10000 MES:10000.0 MAD:0.0 FAILURES:30 Best:1.0 Solution:1
Run:187 Evals:10000 MES:10000.0 MAD:0.0 FAILURES:31 Best:0.9947916666666666 Solution:1
Run:188 Evals:10000 MES:10000.0 MAD:0.0 FAILURES:31 Best:1.0 Solution:1

