Run:119 Evals:10000 MES:10000.0 MAD:0.0 FAILURES:3 Best:1.0 Solution:1
Run:120 Evals:10000 MES:10000.0 MAD:0.0 FAILURES:3 Best:1.0 Solution:1
Run:121 Evals:10000 MES:10000.0 MAD:0.0 FAILURES:3 Best:1.0 Solution:1
Run:122 Evals:10000 MES:10000.0 MAD:0.0 FAILURES:3 Best:1.0 Solution:1
Run:123 Evals:10000 MES:10000.0 MAD:0.0 FAILURES:3 Best:1.0 Solution:1
Run:124 Evals:10000 MES:10000.0 MAD:0.0 FAILURES:3 Best:1.0 Solution:1
Run:125 Evals:10000 MES:10000.0 MAD:0.0 FAILURES:3 Best:1.0 Solution:1
Run:126 Evals:10000 MES:10000.0 MAD:0.0 FAILURES:3 Best:1.0 Solution:1
Run:127 Evals:10000 MES:10000.0 MAD:0.0 FAILURES:3 Best:1.0 Solution:1
Run:128 Evals:10000 MES:10000.0 MAD:0.0 FAILURES:3 Best:1.0 Solution:1

