Run:69 Evals:10000 MES:10000.0 MAD:0.0 FAILURES:60 Best:0.8 Solution:1
Run:70 Evals:10000 MES:10000.0 MAD:0.0 FAILURES:61 Best:0.796875 Solution:1
Run:71 Evals:10000 MES:10000.0 MAD:0.0 FAILURES:62 Best:0.78515625 Solution:1
Run:72 Evals:10000 MES:10000.0 MAD:0.0 FAILURES:63 Best:0.79296875 Solution:1
Run:73 Evals:10000 MES:10000.0 MAD:0.0 FAILURES:64 Best:0.8125 Solution:1
Run:74 Evals:10000 MES:10000.0 MAD:0.0 FAILURES:65 Best:0.79296875 Solution:1
Run:75 Evals:10000 MES:10000.0 MAD:0.0 FAILURES:66 Best:0.78125 Solution:1
Run:76 Evals:10000 MES:10000.0 MAD:0.0 FAILURES:67 Best:0.80859375 Solution:1
Run:77 Evals:10000 MES:10000.0 MAD:0.0 FAILURES:68 Best:0.7890625 Solution:1
Run:78 Evals:10000 MES:10000.0 MAD:0.0 FAILURES:69 Best:0.78515625 Solution:1

