Run:219 Evals:10000 MES:10000.0 MAD:0.0 FAILURES:175 Best:0.6849112426035503 Solution:1
Run:220 Evals:10000 MES:10000.0 MAD:0.0 FAILURES:176 Best:0.6776406035665294 Solution:1
Run:221 Evals:10000 MES:10000.0 MAD:0.0 FAILURES:177 Best:0.6858710562414266 Solution:1
Run:222 Evals:10000 MES:10000.0 MAD:0.0 FAILURES:178 Best:0.6872427983539094 Solution:1
Run:223 Evals:10000 MES:10000.0 MAD:0.0 FAILURES:179 Best:0.6735253772290809 Solution:1
Run:224 Evals:10000 MES:10000.0 MAD:0.0 FAILURES:180 Best:0.6858710562414266 Solution:1
Run:225 Evals:10000 MES:10000.0 MAD:0.0 FAILURES:181 Best:0.6817558299039781 Solution:1
Run:226 Evals:10000 MES:10000.0 MAD:0.0 FAILURES:182 Best:0.6762688614540466 Solution:1
Run:227 Evals:10000 MES:10000.0 MAD:0.0 FAILURES:183 Best:0.6748971193415638 Solution:1
Run:228 Evals:10000 MES:10000.0 MAD:0.0 FAILURES:184 Best:0.6707818930041153 Solution:1

