Run:9 Evals:10000 MES:10000.0 MAD:0.0 FAILURES:10 Best:0.95 Solution:1
Run:10 Evals:10000 MES:10000.0 MAD:0.0 FAILURES:11 Best:0.9008264462809917 Solution:1
Run:11 Evals:10000 MES:10000.0 MAD:0.0 FAILURES:12 Best:0.9173553719008265 Solution:1
Run:12 Evals:10000 MES:10000.0 MAD:0.0 FAILURES:13 Best:0.9173553719008265 Solution:1
Run:13 Evals:10000 MES:10000.0 MAD:0.0 FAILURES:14 Best:0.8925619834710744 Solution:1
Run:14 Evals:10000 MES:10000.0 MAD:0.0 FAILURES:15 Best:0.9090909090909091 Solution:1
Run:15 Evals:10000 MES:10000.0 MAD:0.0 FAILURES:16 Best:0.9090909090909091 Solution:1
Run:16 Evals:10000 MES:10000.0 MAD:0.0 FAILURES:17 Best:0.8925619834710744 Solution:1
Run:17 Evals:10000 MES:10000.0 MAD:0.0 FAILURES:18 Best:0.9008264462809917 Solution:1
Run:18 Evals:10000 MES:10000.0 MAD:0.0 FAILURES:19 Best:0.9008264462809917 Solution:1

