Run:99 Evals:10000 MES:10000.0 MAD:0.0 FAILURES:80 Best:0.7889273356401384 Solution:1
Run:100 Evals:10000 MES:10000.0 MAD:0.0 FAILURES:81 Best:0.7870370370370371 Solution:1
Run:101 Evals:10000 MES:10000.0 MAD:0.0 FAILURES:82 Best:0.7685185185185185 Solution:1
Run:102 Evals:10000 MES:10000.0 MAD:0.0 FAILURES:83 Best:0.7716049382716049 Solution:1
Run:103 Evals:10000 MES:10000.0 MAD:0.0 FAILURES:84 Best:0.75 Solution:1
Run:104 Evals:10000 MES:10000.0 MAD:0.0 FAILURES:85 Best:0.7654320987654321 Solution:1
Run:105 Evals:10000 MES:10000.0 MAD:0.0 FAILURES:86 Best:0.7561728395061729 Solution:1
Run:106 Evals:10000 MES:10000.0 MAD:0.0 FAILURES:87 Best:0.7530864197530864 Solution:1
Run:107 Evals:10000 MES:10000.0 MAD:0.0 FAILURES:88 Best:0.7654320987654321 Solution:1
Run:108 Evals:10000 MES:10000.0 MAD:0.0 FAILURES:89 Best:0.7561728395061729 Solution:1

